{
  "train": {
    "steps": [
      0,
      1,
      2,
      3,
      4,
      5,
      6,
      7,
      8,
      9,
      10,
      11,
      12,
      13,
      14,
      15,
      16,
      17,
      18,
      19,
      20,
      21,
      22,
      23,
      24,
      25,
      26,
      27,
      28,
      29,
      30,
      31,
      32,
      33,
      34,
      35,
      36,
      37,
      38,
      39,
      40,
      41,
      42,
      43,
      44,
      45,
      46,
      47,
      48,
      49,
      50,
      51,
      52,
      53,
      54,
      55,
      56,
      57,
      58,
      59,
      60,
      61,
      62,
      63,
      64,
      65,
      66,
      67,
      68,
      69,
      70,
      71,
      72,
      73,
      74,
      75,
      76,
      77,
      78,
      79,
      80,
      81,
      82,
      83,
      84,
      85,
      86,
      87,
      88,
      89,
      90,
      91,
      92,
      93,
      94,
      95,
      96,
      97,
      98,
      99
    ],
    "timestamps": [
      "2022-06-01T06:34:49.651863",
      "2022-06-01T06:40:01.840004",
      "2022-06-01T06:45:17.955174",
      "2022-06-01T06:50:38.921070",
      "2022-06-01T06:56:06.935581",
      "2022-06-01T07:01:55.102910",
      "2022-06-01T07:07:28.478929",
      "2022-06-01T07:13:01.766299",
      "2022-06-01T07:18:29.223042",
      "2022-06-01T07:23:49.473252",
      "2022-06-01T07:29:05.037705",
      "2022-06-01T07:34:17.442385",
      "2022-06-01T07:39:28.261132",
      "2022-06-01T07:44:43.084910",
      "2022-06-01T07:50:01.603731",
      "2022-06-01T07:55:13.880258",
      "2022-06-01T08:00:24.151868",
      "2022-06-01T08:05:39.154592",
      "2022-06-01T08:10:58.630724",
      "2022-06-01T08:16:15.114139",
      "2022-06-01T08:21:33.917431",
      "2022-06-01T08:26:50.308527",
      "2022-06-01T08:32:08.315150",
      "2022-06-01T08:37:29.219306",
      "2022-06-01T08:42:51.420555",
      "2022-06-01T08:48:16.342374",
      "2022-06-01T08:53:45.352328",
      "2022-06-01T08:59:12.987122",
      "2022-06-01T09:04:46.676618",
      "2022-06-01T09:10:20.415675",
      "2022-06-01T09:15:53.916117",
      "2022-06-01T09:21:28.025102",
      "2022-06-01T09:26:57.382376",
      "2022-06-01T09:32:29.615269",
      "2022-06-01T09:38:01.367134",
      "2022-06-01T09:43:34.490389",
      "2022-06-01T09:49:08.329495",
      "2022-06-01T09:54:38.361061",
      "2022-06-01T10:00:04.956187",
      "2022-06-01T10:05:30.920910",
      "2022-06-01T10:11:03.804022",
      "2022-06-01T10:16:39.731045",
      "2022-06-01T10:22:17.161540",
      "2022-06-01T10:27:56.365735",
      "2022-06-01T10:33:30.897762",
      "2022-06-01T10:39:10.702123",
      "2022-06-01T10:44:51.759064",
      "2022-06-01T10:50:33.523104",
      "2022-06-01T10:56:15.186351",
      "2022-06-01T11:01:53.931625",
      "2022-06-01T11:07:46.103520",
      "2022-06-01T11:13:54.433204",
      "2022-06-01T11:20:11.923189",
      "2022-06-01T11:26:25.765205",
      "2022-06-01T11:32:39.110677",
      "2022-06-01T11:38:51.714258",
      "2022-06-01T11:45:10.074107",
      "2022-06-01T11:51:24.825749",
      "2022-06-01T11:57:33.889487",
      "2022-06-01T12:03:36.392538",
      "2022-06-01T12:09:39.682799",
      "2022-06-01T12:15:17.301480",
      "2022-06-01T12:21:06.078815",
      "2022-06-01T12:26:49.106452",
      "2022-06-01T12:32:53.213967",
      "2022-06-01T12:39:04.939199",
      "2022-06-01T12:45:10.703815",
      "2022-06-01T12:51:09.130629",
      "2022-06-01T12:57:31.498419",
      "2022-06-01T13:03:25.189708",
      "2022-06-01T13:09:40.421365",
      "2022-06-01T13:15:43.175997",
      "2022-06-01T13:21:54.054456",
      "2022-06-01T13:27:52.188394",
      "2022-06-01T13:33:54.960581",
      "2022-06-01T13:39:56.554017",
      "2022-06-01T13:45:53.731237",
      "2022-06-01T13:52:01.847129",
      "2022-06-01T13:58:21.676214",
      "2022-06-01T14:04:58.600570",
      "2022-06-01T14:11:30.415168",
      "2022-06-01T14:17:50.390284",
      "2022-06-01T14:24:32.840966",
      "2022-06-01T14:31:03.060181",
      "2022-06-01T14:37:32.235882",
      "2022-06-01T14:44:02.082312",
      "2022-06-01T14:50:25.049824",
      "2022-06-01T14:56:53.481073",
      "2022-06-01T15:03:19.027526",
      "2022-06-01T15:09:30.666216",
      "2022-06-01T15:15:25.280378",
      "2022-06-01T15:21:08.076327",
      "2022-06-01T15:26:52.483972",
      "2022-06-01T15:32:37.012215",
      "2022-06-01T15:38:22.101395",
      "2022-06-01T15:44:06.302651",
      "2022-06-01T15:49:50.851069",
      "2022-06-01T15:55:35.696892",
      "2022-06-01T16:01:22.058927",
      "2022-06-01T16:07:07.524488"
    ],
    "values": [
      12.481783677843177,
      10.512140770912277,
      10.268482115088895,
      10.217845944834787,
      10.14824858343741,
      10.15007962446109,
      10.127182347981647,
      10.116199133520695,
      10.101033183833216,
      10.10636135381486,
      10.075763181317184,
      10.103297407860024,
      10.08273982298687,
      10.081116880482718,
      10.069763077255303,
      10.066833670190462,
      10.059191822749282,
      10.067498806416918,
      10.048311054821546,
      10.049168683901927,
      10.03394806556749,
      10.036416177062005,
      10.062501889780348,
      10.04907814297965,
      10.038058578516644,
      10.029914902775483,
      10.0174518108036,
      10.012675833994683,
      10.007670158605244,
      10.001877364152394,
      10.001805031349264,
      9.999312345562121,
      9.964641347745658,
      9.995736505752879,
      9.959984838161354,
      9.951216165534,
      9.960615281420308,
      9.950648822739588,
      9.94212431231124,
      9.943124480477662,
      9.931801232839167,
      9.922874028451712,
      9.937960344318885,
      9.921550230528533,
      9.942802962981995,
      9.92298986018437,
      9.9547108698259,
      9.919611306127162,
      9.91672569798253,
      9.905241189466903,
      9.910578100632906,
      9.913677573587218,
      9.910989406526527,
      9.915373572987146,
      9.913817926122624,
      9.919051782473273,
      9.902794665980819,
      9.898580723866802,
      9.894787999259918,
      9.91826562779743,
      9.892912881123296,
      9.905596867334905,
      9.911207575696407,
      9.907234416896081,
      9.877901233030206,
      9.897122353635652,
      9.887160778905315,
      9.892206732887226,
      9.902243888516457,
      9.900535958397928,
      9.888043577643652,
      9.88778449165192,
      9.887235850996326,
      9.888482416692636,
      9.890068160100276,
      9.881994086700217,
      9.816169730135378,
      9.807223992496994,
      9.80364815633797,
      9.803067593377172,
      9.801013286533689,
      9.800056713857542,
      9.797330439882332,
      9.798273393825557,
      9.799458591555073,
      9.79934934339452,
      9.797249496161799,
      9.797946148156804,
      9.800450159642665,
      9.800816386730038,
      9.797937010224098,
      9.79361977936631,
      9.798972985601116,
      9.79479224336546,
      9.800408404134691,
      9.799594920114112,
      9.796400421005819,
      9.79922920514279,
      9.796295451274968,
      9.796544697760023,
      9.796544697760023,
      9.796544697760023,
      9.796544697760023,
      9.796544697760023,
      9.796544697760023,
      9.796544697760023,
      9.796544697760023,
      9.796544697760023,
      9.796544697760023,
      9.796544697760023,
      9.796544697760023,
      9.796544697760023,
      9.796544697760023,
      9.796544697760023,
      9.796544697760023,
      9.796544697760023,
      9.796544697760023,
      9.796544697760023,
      9.796544697760023,
      9.796544697760023,
      9.796544697760023,
      9.796544697760023,
      9.796544697760023,
      9.796544697760023,
      9.796544697760023,
      9.796544697760023,
      9.796544697760023,
      9.796544697760023,
      9.796544697760023,
      9.796544697760023,
      9.796544697760023,
      9.796544697760023,
      9.796544697760023,
      9.796544697760023,
      9.796544697760023,
      9.796544697760023,
      9.796544697760023,
      9.796544697760023,
      9.796544697760023,
      9.796544697760023,
      9.796544697760023,
      9.796544697760023,
      9.796544697760023,
      9.796544697760023,
      9.796544697760023,
      9.796544697760023,
      9.796544697760023,
      9.796544697760023,
      9.796544697760023,
      9.796544697760023,
      9.796544697760023,
      9.796544697760023,
      9.796544697760023,
      9.796544697760023,
      9.796544697760023,
      9.796544697760023,
      9.796544697760023,
      9.796544697760023,
      9.796544697760023,
      9.796544697760023,
      9.796544697760023,
      9.796544697760023,
      9.796544697760023,
      9.796544697760023,
      9.796544697760023,
      9.796544697760023,
      9.796544697760023,
      9.796544697760023,
      9.796544697760023,
      9.796544697760023,
      9.796544697760023,
      9.796544697760023,
      9.796544697760023,
      9.796544697760023,
      9.796544697760023,
      9.796544697760023,
      9.796544697760023,
      9.796544697760023,
      9.796544697760023,
      9.796544697760023,
      9.796544697760023,
      9.796544697760023,
      9.796544697760023,
      9.796544697760023,
      9.796544697760023,
      9.796544697760023,
      9.796544697760023,
      9.796544697760023,
      9.796544697760023,
      9.796544697760023,
      9.796544697760023,
      9.796544697760023,
      9.796544697760023,
      9.796544697760023,
      9.796544697760023,
      9.796544697760023,
      9.796544697760023,
      9.796544697760023,
      9.796544697760023,
      9.796544697760023
    ]
  },
  "val": {
    "steps": [
      0,
      1,
      2,
      3,
      4,
      5,
      6,
      7,
      8,
      9,
      10,
      11,
      12,
      13,
      14,
      15,
      16,
      17,
      18,
      19,
      20,
      21,
      22,
      23,
      24,
      25,
      26,
      27,
      28,
      29,
      30,
      31,
      32,
      33,
      34,
      35,
      36,
      37,
      38,
      39,
      40,
      41,
      42,
      43,
      44,
      45,
      46,
      47,
      48,
      49,
      50,
      51,
      52,
      53,
      54,
      55,
      56,
      57,
      58,
      59,
      60,
      61,
      62,
      63,
      64,
      65,
      66,
      67,
      68,
      69,
      70,
      71,
      72,
      73,
      74,
      75,
      76,
      77,
      78,
      79,
      80,
      81,
      82,
      83,
      84,
      85,
      86,
      87,
      88,
      89,
      90,
      91,
      92,
      93,
      94,
      95,
      96,
      97,
      98,
      99
    ],
    "timestamps": [
      "2022-06-01T06:35:06.925004",
      "2022-06-01T06:40:19.236854",
      "2022-06-01T06:45:35.224083",
      "2022-06-01T06:50:56.377156",
      "2022-06-01T06:56:24.287502",
      "2022-06-01T07:02:13.203497",
      "2022-06-01T07:07:46.489647",
      "2022-06-01T07:13:19.907556",
      "2022-06-01T07:18:46.804077",
      "2022-06-01T07:24:08.259062",
      "2022-06-01T07:29:22.323341",
      "2022-06-01T07:34:34.959388",
      "2022-06-01T07:39:45.729712",
      "2022-06-01T07:45:00.825112",
      "2022-06-01T07:50:18.972359",
      "2022-06-01T07:55:31.361060",
      "2022-06-01T08:00:41.441593",
      "2022-06-01T08:05:56.522747",
      "2022-06-01T08:11:16.079389",
      "2022-06-01T08:16:32.466961",
      "2022-06-01T08:21:51.338754",
      "2022-06-01T08:27:07.782417",
      "2022-06-01T08:32:26.047161",
      "2022-06-01T08:37:46.699693",
      "2022-06-01T08:43:08.719710",
      "2022-06-01T08:48:33.805241",
      "2022-06-01T08:54:02.753838",
      "2022-06-01T08:59:30.680330",
      "2022-06-01T09:05:04.267127",
      "2022-06-01T09:10:38.035683",
      "2022-06-01T09:16:11.598329",
      "2022-06-01T09:21:45.602148",
      "2022-06-01T09:27:14.958947",
      "2022-06-01T09:32:47.093379",
      "2022-06-01T09:38:18.958726",
      "2022-06-01T09:43:52.198692",
      "2022-06-01T09:49:25.825273",
      "2022-06-01T09:54:56.021161",
      "2022-06-01T10:00:22.527528",
      "2022-06-01T10:05:48.132650",
      "2022-06-01T10:11:21.439117",
      "2022-06-01T10:16:57.434993",
      "2022-06-01T10:22:34.693965",
      "2022-06-01T10:28:13.833876",
      "2022-06-01T10:33:48.542025",
      "2022-06-01T10:39:28.337938",
      "2022-06-01T10:45:09.285143",
      "2022-06-01T10:50:51.233747",
      "2022-06-01T10:56:32.860905",
      "2022-06-01T11:02:11.326455",
      "2022-06-01T11:08:05.333192",
      "2022-06-01T11:14:15.011239",
      "2022-06-01T11:20:31.033296",
      "2022-06-01T11:26:45.279745",
      "2022-06-01T11:32:58.844898",
      "2022-06-01T11:39:10.775476",
      "2022-06-01T11:45:29.376251",
      "2022-06-01T11:51:44.223177",
      "2022-06-01T11:57:53.306634",
      "2022-06-01T12:03:55.578801",
      "2022-06-01T12:09:58.609601",
      "2022-06-01T12:15:35.483884",
      "2022-06-01T12:21:23.892648",
      "2022-06-01T12:27:06.823297",
      "2022-06-01T12:33:11.505750",
      "2022-06-01T12:39:24.396365",
      "2022-06-01T12:45:29.460064",
      "2022-06-01T12:51:27.999181",
      "2022-06-01T12:57:50.069659",
      "2022-06-01T13:03:45.173997",
      "2022-06-01T13:09:58.854732",
      "2022-06-01T13:16:03.076467",
      "2022-06-01T13:22:13.092057",
      "2022-06-01T13:28:11.492713",
      "2022-06-01T13:34:14.362500",
      "2022-06-01T13:40:15.948365",
      "2022-06-01T13:46:12.946009",
      "2022-06-01T13:52:22.615592",
      "2022-06-01T13:58:43.585479",
      "2022-06-01T14:05:20.856617",
      "2022-06-01T14:11:51.715659",
      "2022-06-01T14:18:11.858180",
      "2022-06-01T14:24:54.874495",
      "2022-06-01T14:31:24.204260",
      "2022-06-01T14:37:54.471547",
      "2022-06-01T14:44:24.322633",
      "2022-06-01T14:50:44.328831",
      "2022-06-01T14:57:14.376696",
      "2022-06-01T15:03:40.763433",
      "2022-06-01T15:09:51.459754",
      "2022-06-01T15:15:43.294535",
      "2022-06-01T15:21:25.989186",
      "2022-06-01T15:27:10.475077",
      "2022-06-01T15:32:55.037464",
      "2022-06-01T15:38:40.045977",
      "2022-06-01T15:44:24.068622",
      "2022-06-01T15:50:08.738653",
      "2022-06-01T15:55:53.567820",
      "2022-06-01T16:01:40.050000",
      "2022-06-01T16:07:25.420753"
    ],
    "values": [
      10.990198531909721,
      10.246944933624183,
      10.194807351369883,
      10.157850194997389,
      10.153496296774579,
      10.097443185139387,
      10.047504973205097,
      10.03024331718356,
      10.207822561568658,
      10.037508442098957,
      10.052017463274616,
      10.09879268379467,
      10.002356214885763,
      10.040153590267233,
      10.052013392919523,
      10.035222016144047,
      10.078491335079402,
      10.010136901522541,
      10.036567618335622,
      10.001578014177314,
      9.98434464665051,
      9.998334115247504,
      9.999705280434549,
      9.99915197422272,
      10.021622430772341,
      9.992446093038936,
      9.977082977159153,
      9.963879464926583,
      9.954347679415097,
      9.944152147836988,
      10.004659376366465,
      9.923303334287164,
      10.044409036199818,
      9.963216520468237,
      9.934166754317344,
      9.949734229920002,
      9.941848189694845,
      9.913697803540128,
      9.91562054618277,
      9.90241409103309,
      9.877111838829226,
      9.938501430840189,
      9.892307407096787,
      9.925346610600235,
      9.927188974757044,
      9.923662347054728,
      9.902423560067703,
      9.901632326172797,
      9.925343516950042,
      9.879137457733469,
      9.896072506901012,
      9.910584057581497,
      9.858691496167118,
      9.912326427444288,
      9.868989452054866,
      9.918478833986327,
      9.886699120929947,
      9.851348913242985,
      9.889741445826232,
      9.889644231120744,
      9.86989067367429,
      9.885831539625572,
      9.899480390438416,
      9.851112580433217,
      9.862214741121706,
      9.920227302565227,
      9.868900403300072,
      9.867906309234804,
      9.897139242070203,
      9.897551671733403,
      9.892220988211042,
      9.861193511791026,
      9.905496429518015,
      9.898069454382082,
      9.91477399388051,
      9.874352538192582,
      9.811299649534854,
      9.797530198601521,
      9.795360722918291,
      9.79657884498321,
      9.797988637028029,
      9.795992011102337,
      9.79463739489374,
      9.804544769471764,
      9.793128290003871,
      9.794503457252768,
      9.796323318430007,
      9.798874609558995,
      9.801109258107994,
      9.79916588010399,
      9.79690347649327,
      9.790306126927396,
      9.789544319405246,
      9.785878904681622,
      9.798487232330949,
      9.786842298380348,
      9.792726624599895,
      9.788786284669529,
      9.79812787573524,
      9.795123984265402,
      9.795123984265402,
      9.795123984265402,
      9.795123984265402,
      9.795123984265402,
      9.795123984265402,
      9.795123984265402,
      9.795123984265402,
      9.795123984265402,
      9.795123984265402,
      9.795123984265402,
      9.795123984265402,
      9.795123984265402,
      9.795123984265402,
      9.795123984265402,
      9.795123984265402,
      9.795123984265402,
      9.795123984265402,
      9.795123984265402,
      9.795123984265402,
      9.795123984265402,
      9.795123984265402,
      9.795123984265402,
      9.795123984265402,
      9.795123984265402,
      9.795123984265402,
      9.795123984265402,
      9.795123984265402,
      9.795123984265402,
      9.795123984265402,
      9.795123984265402,
      9.795123984265402,
      9.795123984265402,
      9.795123984265402,
      9.795123984265402,
      9.795123984265402,
      9.795123984265402,
      9.795123984265402,
      9.795123984265402,
      9.795123984265402,
      9.795123984265402,
      9.795123984265402,
      9.795123984265402,
      9.795123984265402,
      9.795123984265402,
      9.795123984265402,
      9.795123984265402,
      9.795123984265402,
      9.795123984265402,
      9.795123984265402,
      9.795123984265402,
      9.795123984265402,
      9.795123984265402,
      9.795123984265402,
      9.795123984265402,
      9.795123984265402,
      9.795123984265402,
      9.795123984265402,
      9.795123984265402,
      9.795123984265402,
      9.795123984265402,
      9.795123984265402,
      9.795123984265402,
      9.795123984265402,
      9.795123984265402,
      9.795123984265402,
      9.795123984265402,
      9.795123984265402,
      9.795123984265402,
      9.795123984265402,
      9.795123984265402,
      9.795123984265402,
      9.795123984265402,
      9.795123984265402,
      9.795123984265402,
      9.795123984265402,
      9.795123984265402,
      9.795123984265402,
      9.795123984265402,
      9.795123984265402,
      9.795123984265402,
      9.795123984265402,
      9.795123984265402,
      9.795123984265402,
      9.795123984265402,
      9.795123984265402,
      9.795123984265402,
      9.795123984265402,
      9.795123984265402,
      9.795123984265402,
      9.795123984265402,
      9.795123984265402,
      9.795123984265402,
      9.795123984265402,
      9.795123984265402,
      9.795123984265402,
      9.795123984265402,
      9.795123984265402,
      9.795123984265402,
      9.795123984265402,
      9.795123984265402
    ]
  }
}
