{
  "train": {
    "steps": [
      0,
      1,
      2,
      3,
      4,
      5,
      6,
      7,
      8,
      9,
      10,
      11,
      12,
      13,
      14,
      15,
      16,
      17,
      18,
      19,
      20,
      21,
      22,
      23,
      24,
      25,
      26,
      27,
      28,
      29,
      30,
      31,
      32,
      33,
      34,
      35,
      36,
      37,
      38,
      39,
      40,
      41,
      42,
      43,
      44,
      45,
      46,
      47,
      48,
      49,
      50,
      51,
      52,
      53,
      54,
      55,
      56,
      57,
      58,
      59,
      60,
      61,
      62,
      63,
      64,
      65,
      66,
      67,
      68,
      69,
      70,
      71,
      72,
      73,
      74,
      75,
      76,
      77,
      78,
      79,
      80,
      81,
      82,
      83,
      84,
      85,
      86,
      87,
      88,
      89,
      90,
      91,
      92,
      93,
      94,
      95,
      96,
      97,
      98,
      99,
      100,
      101,
      102,
      103,
      104,
      105,
      106,
      107,
      108,
      109,
      110,
      111,
      112,
      113,
      114,
      115,
      116,
      117,
      118,
      119,
      120,
      121,
      122,
      123,
      124,
      125,
      126,
      127,
      128,
      129,
      130,
      131,
      132,
      133,
      134,
      135,
      136,
      137,
      138,
      139,
      140,
      141,
      142,
      143,
      144,
      145,
      146,
      147,
      148,
      149,
      150,
      151,
      152,
      153,
      154,
      155,
      156,
      157,
      158,
      159,
      160,
      161,
      162,
      163,
      164,
      165,
      166,
      167,
      168,
      169,
      170,
      171,
      172,
      173,
      174,
      175,
      176,
      177,
      178,
      179,
      180,
      181,
      182,
      183,
      184,
      185,
      186,
      187,
      188,
      189,
      190,
      191,
      192,
      193,
      194,
      195,
      196,
      197,
      198,
      199,
      200,
      201,
      202,
      203,
      204,
      205,
      206,
      207,
      208,
      209,
      210,
      211,
      212,
      213,
      214,
      215,
      216,
      217,
      218,
      219,
      220,
      221,
      222,
      223,
      224,
      225,
      226,
      227,
      228,
      229,
      230,
      231,
      232,
      233,
      234,
      235,
      236,
      237,
      238,
      239,
      240,
      241,
      242,
      243,
      244,
      245,
      246,
      247,
      248,
      249,
      250,
      251,
      252,
      253,
      254,
      255,
      256,
      257,
      258,
      259,
      260,
      261,
      262,
      263,
      264,
      265,
      266,
      267,
      268,
      269,
      270,
      271,
      272,
      273,
      274,
      275,
      276,
      277,
      278,
      279,
      280,
      281,
      282,
      283,
      284,
      285,
      286,
      287,
      288,
      289,
      290,
      291,
      292,
      293,
      294,
      295,
      296,
      297,
      298,
      299,
      300,
      301,
      302,
      303,
      304,
      305,
      306,
      307,
      308,
      309,
      310,
      311,
      312,
      313,
      314,
      315,
      316,
      317,
      318,
      319,
      320,
      321,
      322,
      323,
      324,
      325,
      326,
      327,
      328,
      329,
      330,
      331,
      332,
      333,
      334,
      335,
      336,
      337,
      338,
      339,
      340,
      341,
      342,
      343,
      344,
      345,
      346,
      347,
      348,
      349,
      350,
      351,
      352,
      353,
      354,
      355,
      356,
      357,
      358,
      359,
      360,
      361,
      362,
      363,
      364,
      365,
      366,
      367,
      368,
      369,
      370,
      371,
      372,
      373,
      374,
      375,
      376,
      377,
      378,
      379,
      380,
      381,
      382,
      383,
      384,
      385,
      386,
      387,
      388,
      389,
      390,
      391,
      392,
      393,
      394,
      395,
      396,
      397,
      398,
      399
    ],
    "timestamps": [
      "2022-05-23T20:49:10.660754",
      "2022-05-23T20:49:11.439969",
      "2022-05-23T20:49:12.216048",
      "2022-05-23T20:49:13.001544",
      "2022-05-23T20:49:13.772638",
      "2022-05-23T20:49:14.547621",
      "2022-05-23T20:49:15.319301",
      "2022-05-23T20:49:16.110145",
      "2022-05-23T20:49:16.880795",
      "2022-05-23T20:49:17.653893",
      "2022-05-23T20:49:18.425138",
      "2022-05-23T20:49:19.206633",
      "2022-05-23T20:49:19.983477",
      "2022-05-23T20:49:20.776639",
      "2022-05-23T20:49:21.548036",
      "2022-05-23T20:49:22.342011",
      "2022-05-23T20:49:23.117224",
      "2022-05-23T20:49:23.942087",
      "2022-05-23T20:49:24.784387",
      "2022-05-23T20:49:25.599254",
      "2022-05-23T20:49:26.441105",
      "2022-05-23T20:49:27.287061",
      "2022-05-23T20:49:28.086475",
      "2022-05-23T20:49:28.890181",
      "2022-05-23T20:49:29.674182",
      "2022-05-23T20:49:30.476072",
      "2022-05-23T20:49:31.405070",
      "2022-05-23T20:49:32.196738",
      "2022-05-23T20:49:32.993293",
      "2022-05-23T20:49:33.789824",
      "2022-05-23T20:49:34.720413",
      "2022-05-23T20:49:35.690015",
      "2022-05-23T20:49:36.540620",
      "2022-05-23T20:49:37.336647",
      "2022-05-23T20:49:38.155373",
      "2022-05-23T20:49:39.020307",
      "2022-05-23T20:49:39.905613",
      "2022-05-23T20:49:40.807033",
      "2022-05-23T20:49:41.756081",
      "2022-05-23T20:49:42.618622",
      "2022-05-23T20:49:43.474025",
      "2022-05-23T20:49:44.328253",
      "2022-05-23T20:49:45.188062",
      "2022-05-23T20:49:46.053774",
      "2022-05-23T20:49:46.914372",
      "2022-05-23T20:49:47.772718",
      "2022-05-23T20:49:48.631282",
      "2022-05-23T20:49:49.502223",
      "2022-05-23T20:49:50.356988",
      "2022-05-23T20:49:51.218225",
      "2022-05-23T20:49:52.085624",
      "2022-05-23T20:49:52.967851",
      "2022-05-23T20:49:53.855858",
      "2022-05-23T20:49:54.723771",
      "2022-05-23T20:49:55.589514",
      "2022-05-23T20:49:56.452797",
      "2022-05-23T20:49:57.317970",
      "2022-05-23T20:49:58.241756",
      "2022-05-23T20:49:59.250074",
      "2022-05-23T20:50:00.116005",
      "2022-05-23T20:50:00.962935",
      "2022-05-23T20:50:01.802650",
      "2022-05-23T20:50:02.643078",
      "2022-05-23T20:50:03.492138",
      "2022-05-23T20:50:04.319024",
      "2022-05-23T20:50:05.154354",
      "2022-05-23T20:50:05.988414",
      "2022-05-23T20:50:06.839329",
      "2022-05-23T20:50:07.671942",
      "2022-05-23T20:50:08.519568",
      "2022-05-23T20:50:09.360463",
      "2022-05-23T20:50:10.221518",
      "2022-05-23T20:50:11.089920",
      "2022-05-23T20:50:11.928471",
      "2022-05-23T20:50:12.769752",
      "2022-05-23T20:50:13.557137",
      "2022-05-23T20:50:14.327551",
      "2022-05-23T20:50:15.105411",
      "2022-05-23T20:50:15.909326",
      "2022-05-23T20:50:16.698429",
      "2022-05-23T20:50:17.469598",
      "2022-05-23T20:50:18.245866",
      "2022-05-23T20:50:19.020902",
      "2022-05-23T20:50:19.818297",
      "2022-05-23T20:50:20.590657",
      "2022-05-23T20:50:21.376796",
      "2022-05-23T20:50:22.149723",
      "2022-05-23T20:50:22.929825",
      "2022-05-23T20:50:23.701104",
      "2022-05-23T20:50:24.477071",
      "2022-05-23T20:50:25.247859",
      "2022-05-23T20:50:26.036922",
      "2022-05-23T20:50:26.807352",
      "2022-05-23T20:50:27.583223",
      "2022-05-23T20:50:28.355830",
      "2022-05-23T20:50:29.133766",
      "2022-05-23T20:50:29.939997",
      "2022-05-23T20:50:30.723633",
      "2022-05-23T20:50:31.494432",
      "2022-05-23T20:50:32.324310",
      "2022-05-23T20:50:33.135864",
      "2022-05-23T20:50:33.959977",
      "2022-05-23T20:50:34.730659",
      "2022-05-23T20:50:35.506433",
      "2022-05-23T20:50:36.278907",
      "2022-05-23T20:50:37.093280",
      "2022-05-23T20:50:37.868597",
      "2022-05-23T20:50:38.649183",
      "2022-05-23T20:50:39.432581",
      "2022-05-23T20:50:40.306981",
      "2022-05-23T20:50:41.207628",
      "2022-05-23T20:50:42.028694",
      "2022-05-23T20:50:42.814129",
      "2022-05-23T20:50:43.590968",
      "2022-05-23T20:50:44.362387",
      "2022-05-23T20:50:45.196175",
      "2022-05-23T20:50:45.993369",
      "2022-05-23T20:50:46.772886",
      "2022-05-23T20:50:47.563144",
      "2022-05-23T20:50:48.358041",
      "2022-05-23T20:50:49.141665",
      "2022-05-23T20:50:49.937585",
      "2022-05-23T20:50:50.740306",
      "2022-05-23T20:50:51.537107",
      "2022-05-23T20:50:52.335709",
      "2022-05-23T20:50:53.158378",
      "2022-05-23T20:50:53.931403",
      "2022-05-23T20:50:54.713984",
      "2022-05-23T20:50:55.497998",
      "2022-05-23T20:50:56.383652",
      "2022-05-23T20:50:57.311933",
      "2022-05-23T20:50:58.220551",
      "2022-05-23T20:50:59.139121",
      "2022-05-23T20:51:00.054107",
      "2022-05-23T20:51:00.915517",
      "2022-05-23T20:51:01.700725",
      "2022-05-23T20:51:02.474182",
      "2022-05-23T20:51:03.252072",
      "2022-05-23T20:51:04.103669",
      "2022-05-23T20:51:04.882121",
      "2022-05-23T20:51:05.654698",
      "2022-05-23T20:51:06.448915",
      "2022-05-23T20:51:07.266850",
      "2022-05-23T20:51:08.087543",
      "2022-05-23T20:51:08.865216",
      "2022-05-23T20:51:09.643253",
      "2022-05-23T20:51:10.435412",
      "2022-05-23T20:51:11.210220",
      "2022-05-23T20:51:11.982105",
      "2022-05-23T20:51:12.755286",
      "2022-05-23T20:51:13.525746",
      "2022-05-23T20:51:14.298683",
      "2022-05-23T20:51:15.072681",
      "2022-05-23T20:51:15.852287",
      "2022-05-23T20:51:16.626031",
      "2022-05-23T20:51:17.404601",
      "2022-05-23T20:51:18.180324",
      "2022-05-23T20:51:18.961476",
      "2022-05-23T20:51:19.732966",
      "2022-05-23T20:51:20.508597",
      "2022-05-23T20:51:21.281294",
      "2022-05-23T20:51:22.059531",
      "2022-05-23T20:51:22.830509",
      "2022-05-23T20:51:23.605529",
      "2022-05-23T20:51:24.375838",
      "2022-05-23T20:51:25.193803",
      "2022-05-23T20:51:25.973318",
      "2022-05-23T20:51:26.750780",
      "2022-05-23T20:51:27.526458",
      "2022-05-23T20:51:28.322740",
      "2022-05-23T20:51:29.096613",
      "2022-05-23T20:51:29.893660",
      "2022-05-23T20:51:30.688459",
      "2022-05-23T20:51:31.470068",
      "2022-05-23T20:51:32.249063",
      "2022-05-23T20:51:33.035793",
      "2022-05-23T20:51:33.818728",
      "2022-05-23T20:51:34.624760",
      "2022-05-23T20:51:35.531157",
      "2022-05-23T20:51:36.402482",
      "2022-05-23T20:51:37.273304",
      "2022-05-23T20:51:38.150959",
      "2022-05-23T20:51:39.029390",
      "2022-05-23T20:51:39.898672",
      "2022-05-23T20:51:40.763060",
      "2022-05-23T20:51:41.623025",
      "2022-05-23T20:51:42.483082",
      "2022-05-23T20:51:43.354128",
      "2022-05-23T20:51:44.214816",
      "2022-05-23T20:51:45.091623",
      "2022-05-23T20:51:46.009850",
      "2022-05-23T20:51:46.890875",
      "2022-05-23T20:51:47.775265",
      "2022-05-23T20:51:48.654336",
      "2022-05-23T20:51:49.502376",
      "2022-05-23T20:51:50.277998",
      "2022-05-23T20:51:51.052748",
      "2022-05-23T20:51:51.831250",
      "2022-05-23T20:51:52.600843",
      "2022-05-23T20:51:53.379663",
      "2022-05-23T20:51:54.150919",
      "2022-05-23T20:51:54.927210",
      "2022-05-23T20:51:55.699473",
      "2022-05-23T20:51:56.489713",
      "2022-05-23T20:51:57.271121",
      "2022-05-23T20:51:58.047802",
      "2022-05-23T20:51:58.821996",
      "2022-05-23T20:51:59.646782",
      "2022-05-23T20:52:00.429455",
      "2022-05-23T20:52:01.205591",
      "2022-05-23T20:52:01.982235",
      "2022-05-23T20:52:02.831724",
      "2022-05-23T20:52:03.610411",
      "2022-05-23T20:52:04.389743",
      "2022-05-23T20:52:05.166352",
      "2022-05-23T20:52:05.959401",
      "2022-05-23T20:52:06.776038",
      "2022-05-23T20:52:07.596792",
      "2022-05-23T20:52:08.407528",
      "2022-05-23T20:52:09.231945",
      "2022-05-23T20:52:10.072979",
      "2022-05-23T20:52:10.851750",
      "2022-05-23T20:52:11.622613",
      "2022-05-23T20:52:12.397815",
      "2022-05-23T20:52:13.168105",
      "2022-05-23T20:52:13.944142",
      "2022-05-23T20:52:14.713886",
      "2022-05-23T20:52:15.490411",
      "2022-05-23T20:52:16.260990",
      "2022-05-23T20:52:17.038173",
      "2022-05-23T20:52:17.824720",
      "2022-05-23T20:52:18.611715",
      "2022-05-23T20:52:19.383446",
      "2022-05-23T20:52:20.160309",
      "2022-05-23T20:52:20.934633",
      "2022-05-23T20:52:21.770152",
      "2022-05-23T20:52:22.583412",
      "2022-05-23T20:52:23.360144",
      "2022-05-23T20:52:24.129976",
      "2022-05-23T20:52:24.942688",
      "2022-05-23T20:52:25.770486",
      "2022-05-23T20:52:26.548527",
      "2022-05-23T20:52:27.322016",
      "2022-05-23T20:52:28.099817",
      "2022-05-23T20:52:28.901510",
      "2022-05-23T20:52:29.702831",
      "2022-05-23T20:52:30.474253",
      "2022-05-23T20:52:31.260308",
      "2022-05-23T20:52:32.032708",
      "2022-05-23T20:52:32.808539",
      "2022-05-23T20:52:33.598014",
      "2022-05-23T20:52:34.415109",
      "2022-05-23T20:52:35.195658",
      "2022-05-23T20:52:35.999105",
      "2022-05-23T20:52:36.817299",
      "2022-05-23T20:52:37.593633",
      "2022-05-23T20:52:38.380387",
      "2022-05-23T20:52:39.180355",
      "2022-05-23T20:52:39.953676",
      "2022-05-23T20:52:40.760539",
      "2022-05-23T20:52:41.537791",
      "2022-05-23T20:52:42.311970",
      "2022-05-23T20:52:43.090940",
      "2022-05-23T20:52:43.866237",
      "2022-05-23T20:52:44.637131",
      "2022-05-23T20:52:45.412025",
      "2022-05-23T20:52:46.183762",
      "2022-05-23T20:52:46.967230",
      "2022-05-23T20:52:47.738742",
      "2022-05-23T20:52:48.521816",
      "2022-05-23T20:52:49.294309",
      "2022-05-23T20:52:50.074418",
      "2022-05-23T20:52:50.847469",
      "2022-05-23T20:52:51.624914",
      "2022-05-23T20:52:52.401125",
      "2022-05-23T20:52:53.190394",
      "2022-05-23T20:52:53.960769",
      "2022-05-23T20:52:54.735193",
      "2022-05-23T20:52:55.505913",
      "2022-05-23T20:52:56.346640",
      "2022-05-23T20:52:57.270522",
      "2022-05-23T20:52:58.163958",
      "2022-05-23T20:52:59.075390",
      "2022-05-23T20:52:59.982689",
      "2022-05-23T20:53:00.887011",
      "2022-05-23T20:53:01.789294",
      "2022-05-23T20:53:02.687116",
      "2022-05-23T20:53:03.599573",
      "2022-05-23T20:53:04.426849",
      "2022-05-23T20:53:05.285495",
      "2022-05-23T20:53:06.092316",
      "2022-05-23T20:53:06.957541",
      "2022-05-23T20:53:07.863959",
      "2022-05-23T20:53:08.782632",
      "2022-05-23T20:53:09.684364",
      "2022-05-23T20:53:10.522955",
      "2022-05-23T20:53:11.297342",
      "2022-05-23T20:53:12.073316",
      "2022-05-23T20:53:12.850590",
      "2022-05-23T20:53:13.675995",
      "2022-05-23T20:53:14.482595",
      "2022-05-23T20:53:15.265558",
      "2022-05-23T20:53:16.038731",
      "2022-05-23T20:53:16.816001",
      "2022-05-23T20:53:17.588455",
      "2022-05-23T20:53:18.373695",
      "2022-05-23T20:53:19.212552",
      "2022-05-23T20:53:20.067853",
      "2022-05-23T20:53:20.867400",
      "2022-05-23T20:53:21.701351",
      "2022-05-23T20:53:22.551446",
      "2022-05-23T20:53:23.347108",
      "2022-05-23T20:53:24.146521",
      "2022-05-23T20:53:24.941256",
      "2022-05-23T20:53:25.727531",
      "2022-05-23T20:53:26.505989",
      "2022-05-23T20:53:27.280519",
      "2022-05-23T20:53:28.080635",
      "2022-05-23T20:53:28.854438",
      "2022-05-23T20:53:29.638517",
      "2022-05-23T20:53:30.413628",
      "2022-05-23T20:53:31.202283",
      "2022-05-23T20:53:31.973651",
      "2022-05-23T20:53:32.749436",
      "2022-05-23T20:53:33.518382",
      "2022-05-23T20:53:34.292761",
      "2022-05-23T20:53:35.072555",
      "2022-05-23T20:53:35.850374",
      "2022-05-23T20:53:36.622789",
      "2022-05-23T20:53:37.397423",
      "2022-05-23T20:53:38.197794",
      "2022-05-23T20:53:38.986918",
      "2022-05-23T20:53:39.757423",
      "2022-05-23T20:53:40.536108",
      "2022-05-23T20:53:41.311502",
      "2022-05-23T20:53:42.129444",
      "2022-05-23T20:53:42.986303",
      "2022-05-23T20:53:43.790191",
      "2022-05-23T20:53:44.630485",
      "2022-05-23T20:53:45.443192",
      "2022-05-23T20:53:46.297243",
      "2022-05-23T20:53:47.103862",
      "2022-05-23T20:53:47.893579",
      "2022-05-23T20:53:48.728774",
      "2022-05-23T20:53:49.538387",
      "2022-05-23T20:53:50.358600",
      "2022-05-23T20:53:51.142262",
      "2022-05-23T20:53:51.940657",
      "2022-05-23T20:53:52.713341",
      "2022-05-23T20:53:53.491297",
      "2022-05-23T20:53:54.268042",
      "2022-05-23T20:53:55.046093",
      "2022-05-23T20:53:55.817103",
      "2022-05-23T20:53:56.594581",
      "2022-05-23T20:53:57.365232",
      "2022-05-23T20:53:58.151913",
      "2022-05-23T20:53:58.929999",
      "2022-05-23T20:53:59.735771",
      "2022-05-23T20:54:00.581171",
      "2022-05-23T20:54:01.405571",
      "2022-05-23T20:54:02.179477",
      "2022-05-23T20:54:02.955557",
      "2022-05-23T20:54:03.726700",
      "2022-05-23T20:54:04.505406",
      "2022-05-23T20:54:05.276393",
      "2022-05-23T20:54:06.053568",
      "2022-05-23T20:54:06.834291",
      "2022-05-23T20:54:07.607119",
      "2022-05-23T20:54:08.382406",
      "2022-05-23T20:54:09.156186",
      "2022-05-23T20:54:09.927646",
      "2022-05-23T20:54:10.707127",
      "2022-05-23T20:54:11.476590",
      "2022-05-23T20:54:12.256678",
      "2022-05-23T20:54:13.029889",
      "2022-05-23T20:54:13.808578",
      "2022-05-23T20:54:14.579699",
      "2022-05-23T20:54:15.355704",
      "2022-05-23T20:54:16.128244",
      "2022-05-23T20:54:16.919260",
      "2022-05-23T20:54:17.693953",
      "2022-05-23T20:54:18.510084",
      "2022-05-23T20:54:19.297063",
      "2022-05-23T20:54:20.071156",
      "2022-05-23T20:54:20.850251",
      "2022-05-23T20:54:21.625102",
      "2022-05-23T20:54:22.403700",
      "2022-05-23T20:54:23.212715",
      "2022-05-23T20:54:24.020599",
      "2022-05-23T20:54:24.835312",
      "2022-05-23T20:54:25.613437",
      "2022-05-23T20:54:26.393577",
      "2022-05-23T20:54:27.175468",
      "2022-05-23T20:54:27.970027",
      "2022-05-23T20:54:28.772561",
      "2022-05-23T20:54:29.547795",
      "2022-05-23T20:54:30.319026",
      "2022-05-23T20:54:31.093169",
      "2022-05-23T20:54:31.867995",
      "2022-05-23T20:54:32.646064"
    ],
    "values": [
      17.108211932627512,
      15.039457528043553,
      13.852533031516154,
      13.058057064174655,
      12.651957638558752,
      12.389420100145237,
      12.006567247166924,
      11.955473670254515,
      11.708873931284419,
      11.610969662553561,
      11.387023741684095,
      11.434608377958403,
      11.284791879713696,
      11.260277734641544,
      11.227703706218271,
      11.229929391901532,
      11.363454866429832,
      11.272075759771347,
      11.116509497860001,
      11.00802030670903,
      10.968739469310858,
      11.012673055351739,
      10.969496129494182,
      10.998680331032752,
      10.833700487100625,
      10.7797104390855,
      10.731873573222137,
      10.746453628999568,
      10.878957665094763,
      10.907538377282007,
      10.84782423814536,
      10.784821052050845,
      10.648201363463356,
      10.674861305469134,
      10.676431178096504,
      10.630113963089872,
      10.56213531955036,
      10.612606043064378,
      10.774457455941644,
      10.822695790810368,
      10.848100561627092,
      10.769874172176197,
      10.694579971608706,
      10.68362814659333,
      10.663998529795924,
      10.578023718648161,
      10.575912932231859,
      10.621791201262166,
      10.618644862299284,
      10.52542709371521,
      10.493413006548877,
      10.473677544223454,
      10.58477231170394,
      10.383420848035225,
      10.439511754906128,
      10.423949808540321,
      10.416334753890284,
      10.374973661314474,
      10.377594558418014,
      10.345807859655498,
      10.49519958312542,
      10.545153790431316,
      10.349782001684371,
      10.304126943281986,
      10.289630612330846,
      10.383714652056431,
      10.344135616630599,
      10.431925016356207,
      10.476165726050436,
      10.389530165284436,
      10.523551379267106,
      10.391297402064424,
      10.41339819722181,
      10.424917874398862,
      10.32027910536663,
      10.2846861543385,
      10.38101084965379,
      10.509261798638553,
      10.241482122683227,
      10.30944248349959,
      10.207293730190651,
      10.212057751179453,
      10.235501364420669,
      10.277525993707208,
      10.15950786129508,
      10.326442299556097,
      10.262966548514697,
      10.1886090962617,
      10.259576735510786,
      10.27993332004265,
      10.238836755161886,
      10.235791063246863,
      10.2660946262057,
      10.338055548451578,
      10.244373043881623,
      10.226844415423686,
      10.167380194646867,
      10.27737955741982,
      10.216177748645677,
      10.14541749552933,
      10.273424703068716,
      10.25619581139104,
      10.259502010269378,
      10.17716012963588,
      10.09916346443815,
      10.126364969019207,
      10.139658692728437,
      10.333650158905256,
      10.179827650340052,
      10.168547060923725,
      10.147377740977056,
      10.215236462629882,
      10.158035272255793,
      10.24478834771342,
      10.24955379893955,
      10.20201955204901,
      10.14935275132384,
      10.059525185028662,
      10.20122885471606,
      10.130372022939882,
      10.12750667840707,
      10.250859541270213,
      10.16946671217621,
      10.178276309265772,
      10.32563732317309,
      10.237306934925819,
      10.1384980014146,
      10.160945272124959,
      10.248501827935502,
      10.361173462566395,
      10.173101205968804,
      10.212684806274762,
      10.154354029459943,
      10.089262840720032,
      10.004031280405659,
      10.225660555020685,
      10.167200484589141,
      10.148959645479017,
      10.062169328406384,
      10.085418991801978,
      10.06799660849349,
      10.174439311510348,
      10.125505365844798,
      10.107133598083035,
      10.100616221128478,
      10.02364866714818,
      10.03724794143717,
      10.032601698349366,
      10.078248959881133,
      10.08504883668872,
      10.093787987202138,
      10.037136672244692,
      10.042198151650584,
      9.981359325664105,
      10.020985120625811,
      10.127097030358856,
      10.09644767391173,
      10.100542416046382,
      10.092015332805776,
      10.08383651401331,
      10.017757766308314,
      10.018426175048996,
      10.038938429320128,
      10.05871448806926,
      10.048077191549465,
      9.990127083484063,
      10.011853407259032,
      10.020475771738862,
      10.007469744898208,
      10.165577637668669,
      10.089360909760643,
      10.017587255041766,
      10.0186419624521,
      10.036929086995446,
      9.97158942691732,
      9.968754105886315,
      9.935324971158947,
      9.913246205666347,
      10.074020367554322,
      10.116754866001887,
      10.120712149518493,
      9.979042661947418,
      9.926468754643436,
      9.926467849656621,
      10.036748108445195,
      10.045473992393045,
      10.054740306474232,
      9.979047566189443,
      10.027423208589907,
      9.95265808218348,
      10.019304676103607,
      9.95261418443754,
      9.962285752594923,
      9.99568502427266,
      9.917138409130606,
      9.964107454486129,
      10.03447773073426,
      10.039080152809378,
      9.945190632960866,
      9.936921033627103,
      9.789588189905654,
      9.764370010579807,
      9.69589108147172,
      9.666529009702632,
      9.676870930829185,
      9.677092818864407,
      9.6243640077173,
      9.639183514102486,
      9.604148241564024,
      9.696838124263351,
      9.675629063633766,
      9.630930482727964,
      9.639158431495002,
      9.65752718333756,
      9.607888773890018,
      9.614439513801528,
      9.612748016838658,
      9.650913277166959,
      9.675226741949194,
      9.608562255140704,
      9.631293696890763,
      9.655476523582312,
      9.595412675997117,
      9.620824176876095,
      9.663178183798323,
      9.647565539380016,
      9.628759989617398,
      9.635112607910079,
      9.61384574418764,
      9.590625021337027,
      9.649403060195748,
      9.597691957603324,
      9.611331259061457,
      9.634397094701447,
      9.595919156642935,
      9.620554070484422,
      9.620794624980075,
      9.630570643907971,
      9.590025086908794,
      9.593348313466956,
      9.638780729698217,
      9.613813340933499,
      9.623887095462733,
      9.636536902217829,
      9.596625420704843,
      9.575010957977495,
      9.589306144150154,
      9.595500462679587,
      9.600108492735309,
      9.603179004801039,
      9.642291856897579,
      9.683917698114927,
      9.602265958009793,
      9.668444429286076,
      9.66652251091378,
      9.596303125353264,
      9.60313298280781,
      9.633128729569272,
      9.558544018993162,
      9.626213143372222,
      9.574235782061855,
      9.611165312459754,
      9.61282598528296,
      9.562343296499614,
      9.583526715379055,
      9.552951371045205,
      9.622843308811163,
      9.603460305035375,
      9.598681577990442,
      9.57134827232346,
      9.628462379093005,
      9.62877989118529,
      9.596689935736089,
      9.56285723760677,
      9.544014195151444,
      9.614277175781382,
      9.57903155915731,
      9.573826042793751,
      9.605000631584572,
      9.557289313463412,
      9.586078753033565,
      9.569564899089855,
      9.578530438349977,
      9.5940445716192,
      9.571018274362912,
      9.53049645719399,
      9.582533527634327,
      9.640676793289677,
      9.617188639905088,
      9.582752772634585,
      9.655085475000188,
      9.549472687963572,
      9.55071113999745,
      9.60253864279496,
      9.620607340319815,
      9.59611362793487,
      9.562894876960705,
      9.582460815104684,
      9.629484067189612,
      9.547257160716391,
      9.586552209189206,
      9.555108312892958,
      9.603784723512632,
      9.614275816639957,
      9.589051490481094,
      9.599933844013526,
      9.609779489592128,
      9.587303833561588,
      9.549856289118146,
      9.493284083603465,
      9.583513978022987,
      9.522071141297811,
      9.529515851800106,
      9.594999193809953,
      9.555533799488746,
      9.539629803168612,
      9.56441815829194,
      9.540422025369061,
      9.508460512491501,
      9.498878804646376,
      9.55145729261209,
      9.553177141412382,
      9.561671701640533,
      9.565281016340787,
      9.502497174735954,
      9.604454101210413,
      9.543229859978414,
      9.51603893371167,
      9.558087663441745,
      9.562604503227796,
      9.52536662924002,
      9.553243384457858,
      9.552600667352728,
      9.558704427742631,
      9.546006308172998,
      9.545202955848115,
      9.569307106841796,
      9.446012688373964,
      9.57403223995734,
      9.532713671930281,
      9.570956116579584,
      9.52156223839567,
      9.540294392095563,
      9.532853304731725,
      9.513877142327937,
      9.529288545288349,
      9.579558193146319,
      9.557029686192031,
      9.49684384201694,
      9.507693127003996,
      9.550795647506753,
      9.563869079051917,
      9.518093520251801,
      9.572975171653551,
      9.504445944193874,
      9.56020290862442,
      9.515193798536147,
      9.49396428361922,
      9.536664781703223,
      9.595008715693002,
      9.54061501450747,
      9.551288830703216,
      9.578372430788274,
      9.524865941932955,
      9.543163616212098,
      9.551982974748096,
      9.533801416151968,
      9.480375421927484,
      9.585508940077286,
      9.573584881410172,
      9.554357018639909,
      9.532444307524827,
      9.57668485193171,
      9.565757133189365,
      9.560339169165484,
      9.563285972082308,
      9.510232882362542,
      9.502229149384277,
      9.546405063065752,
      9.5155877379013,
      9.584633527475726,
      9.540776756641375,
      9.4836111101342,
      9.54386578944622,
      9.53725558932601,
      9.562029593369456,
      9.553435603647827,
      9.538469063489584,
      9.521040268410324,
      9.505316457412565,
      9.586622704654385,
      9.528158355015826,
      9.568082148903203,
      9.527488178975972,
      9.585160092872256,
      9.510009140882575,
      9.558329703077286,
      9.502100846509862,
      9.529016955885623,
      9.548883158014648
    ]
  },
  "val": {
    "steps": [
      0,
      1,
      2,
      3,
      4,
      5,
      6,
      7,
      8,
      9,
      10,
      11,
      12,
      13,
      14,
      15,
      16,
      17,
      18,
      19,
      20,
      21,
      22,
      23,
      24,
      25,
      26,
      27,
      28,
      29,
      30,
      31,
      32,
      33,
      34,
      35,
      36,
      37,
      38,
      39,
      40,
      41,
      42,
      43,
      44,
      45,
      46,
      47,
      48,
      49,
      50,
      51,
      52,
      53,
      54,
      55,
      56,
      57,
      58,
      59,
      60,
      61,
      62,
      63,
      64,
      65,
      66,
      67,
      68,
      69,
      70,
      71,
      72,
      73,
      74,
      75,
      76,
      77,
      78,
      79,
      80,
      81,
      82,
      83,
      84,
      85,
      86,
      87,
      88,
      89,
      90,
      91,
      92,
      93,
      94,
      95,
      96,
      97,
      98,
      99,
      100,
      101,
      102,
      103,
      104,
      105,
      106,
      107,
      108,
      109,
      110,
      111,
      112,
      113,
      114,
      115,
      116,
      117,
      118,
      119,
      120,
      121,
      122,
      123,
      124,
      125,
      126,
      127,
      128,
      129,
      130,
      131,
      132,
      133,
      134,
      135,
      136,
      137,
      138,
      139,
      140,
      141,
      142,
      143,
      144,
      145,
      146,
      147,
      148,
      149,
      150,
      151,
      152,
      153,
      154,
      155,
      156,
      157,
      158,
      159,
      160,
      161,
      162,
      163,
      164,
      165,
      166,
      167,
      168,
      169,
      170,
      171,
      172,
      173,
      174,
      175,
      176,
      177,
      178,
      179,
      180,
      181,
      182,
      183,
      184,
      185,
      186,
      187,
      188,
      189,
      190,
      191,
      192,
      193,
      194,
      195,
      196,
      197,
      198,
      199,
      200,
      201,
      202,
      203,
      204,
      205,
      206,
      207,
      208,
      209,
      210,
      211,
      212,
      213,
      214,
      215,
      216,
      217,
      218,
      219,
      220,
      221,
      222,
      223,
      224,
      225,
      226,
      227,
      228,
      229,
      230,
      231,
      232,
      233,
      234,
      235,
      236,
      237,
      238,
      239,
      240,
      241,
      242,
      243,
      244,
      245,
      246,
      247,
      248,
      249,
      250,
      251,
      252,
      253,
      254,
      255,
      256,
      257,
      258,
      259,
      260,
      261,
      262,
      263,
      264,
      265,
      266,
      267,
      268,
      269,
      270,
      271,
      272,
      273,
      274,
      275,
      276,
      277,
      278,
      279,
      280,
      281,
      282,
      283,
      284,
      285,
      286,
      287,
      288,
      289,
      290,
      291,
      292,
      293,
      294,
      295,
      296,
      297,
      298,
      299,
      300,
      301,
      302,
      303,
      304,
      305,
      306,
      307,
      308,
      309,
      310,
      311,
      312,
      313,
      314,
      315,
      316,
      317,
      318,
      319,
      320,
      321,
      322,
      323,
      324,
      325,
      326,
      327,
      328,
      329,
      330,
      331,
      332,
      333,
      334,
      335,
      336,
      337,
      338,
      339,
      340,
      341,
      342,
      343,
      344,
      345,
      346,
      347,
      348,
      349,
      350,
      351,
      352,
      353,
      354,
      355,
      356,
      357,
      358,
      359,
      360,
      361,
      362,
      363,
      364,
      365,
      366,
      367,
      368,
      369,
      370,
      371,
      372,
      373,
      374,
      375,
      376,
      377,
      378,
      379,
      380,
      381,
      382,
      383,
      384,
      385,
      386,
      387,
      388,
      389,
      390,
      391,
      392,
      393,
      394,
      395,
      396,
      397,
      398,
      399
    ],
    "timestamps": [
      "2022-05-23T20:49:11.116645",
      "2022-05-23T20:49:11.895396",
      "2022-05-23T20:49:12.671155",
      "2022-05-23T20:49:13.456341",
      "2022-05-23T20:49:14.225885",
      "2022-05-23T20:49:15.002588",
      "2022-05-23T20:49:15.772692",
      "2022-05-23T20:49:16.562915",
      "2022-05-23T20:49:17.333925",
      "2022-05-23T20:49:18.107432",
      "2022-05-23T20:49:18.885519",
      "2022-05-23T20:49:19.666225",
      "2022-05-23T20:49:20.442423",
      "2022-05-23T20:49:21.231469",
      "2022-05-23T20:49:22.002833",
      "2022-05-23T20:49:22.796894",
      "2022-05-23T20:49:23.592685",
      "2022-05-23T20:49:24.445126",
      "2022-05-23T20:49:25.273345",
      "2022-05-23T20:49:26.115265",
      "2022-05-23T20:49:26.938527",
      "2022-05-23T20:49:27.767882",
      "2022-05-23T20:49:28.553716",
      "2022-05-23T20:49:29.349557",
      "2022-05-23T20:49:30.143735",
      "2022-05-23T20:49:31.020430",
      "2022-05-23T20:49:31.868816",
      "2022-05-23T20:49:32.665727",
      "2022-05-23T20:49:33.455619",
      "2022-05-23T20:49:34.277637",
      "2022-05-23T20:49:35.272737",
      "2022-05-23T20:49:36.202808",
      "2022-05-23T20:49:37.003319",
      "2022-05-23T20:49:37.813003",
      "2022-05-23T20:49:38.648852",
      "2022-05-23T20:49:39.510630",
      "2022-05-23T20:49:40.422761",
      "2022-05-23T20:49:41.397222",
      "2022-05-23T20:49:42.263061",
      "2022-05-23T20:49:43.124904",
      "2022-05-23T20:49:43.971562",
      "2022-05-23T20:49:44.834421",
      "2022-05-23T20:49:45.695026",
      "2022-05-23T20:49:46.555356",
      "2022-05-23T20:49:47.416265",
      "2022-05-23T20:49:48.279775",
      "2022-05-23T20:49:49.136584",
      "2022-05-23T20:49:50.008859",
      "2022-05-23T20:49:50.862969",
      "2022-05-23T20:49:51.731567",
      "2022-05-23T20:49:52.601287",
      "2022-05-23T20:49:53.489407",
      "2022-05-23T20:49:54.361400",
      "2022-05-23T20:49:55.235304",
      "2022-05-23T20:49:56.094904",
      "2022-05-23T20:49:56.962601",
      "2022-05-23T20:49:57.858810",
      "2022-05-23T20:49:58.890891",
      "2022-05-23T20:49:59.766195",
      "2022-05-23T20:50:00.600606",
      "2022-05-23T20:50:01.451548",
      "2022-05-23T20:50:02.291593",
      "2022-05-23T20:50:03.143230",
      "2022-05-23T20:50:03.977496",
      "2022-05-23T20:50:04.803024",
      "2022-05-23T20:50:05.637606",
      "2022-05-23T20:50:06.473089",
      "2022-05-23T20:50:07.324624",
      "2022-05-23T20:50:08.156493",
      "2022-05-23T20:50:09.008205",
      "2022-05-23T20:50:09.865573",
      "2022-05-23T20:50:10.707975",
      "2022-05-23T20:50:11.573862",
      "2022-05-23T20:50:12.414013",
      "2022-05-23T20:50:13.234696",
      "2022-05-23T20:50:14.010618",
      "2022-05-23T20:50:14.782646",
      "2022-05-23T20:50:15.568868",
      "2022-05-23T20:50:16.364956",
      "2022-05-23T20:50:17.152715",
      "2022-05-23T20:50:17.922809",
      "2022-05-23T20:50:18.700026",
      "2022-05-23T20:50:19.479787",
      "2022-05-23T20:50:20.273720",
      "2022-05-23T20:50:21.047081",
      "2022-05-23T20:50:21.832539",
      "2022-05-23T20:50:22.603349",
      "2022-05-23T20:50:23.382799",
      "2022-05-23T20:50:24.155617",
      "2022-05-23T20:50:24.931249",
      "2022-05-23T20:50:25.703786",
      "2022-05-23T20:50:26.489164",
      "2022-05-23T20:50:27.262873",
      "2022-05-23T20:50:28.036675",
      "2022-05-23T20:50:28.809904",
      "2022-05-23T20:50:29.603955",
      "2022-05-23T20:50:30.394860",
      "2022-05-23T20:50:31.177468",
      "2022-05-23T20:50:31.964684",
      "2022-05-23T20:50:32.802982",
      "2022-05-23T20:50:33.613362",
      "2022-05-23T20:50:34.412360",
      "2022-05-23T20:50:35.184192",
      "2022-05-23T20:50:35.960776",
      "2022-05-23T20:50:36.755103",
      "2022-05-23T20:50:37.548560",
      "2022-05-23T20:50:38.324808",
      "2022-05-23T20:50:39.104118",
      "2022-05-23T20:50:39.927791",
      "2022-05-23T20:50:40.831627",
      "2022-05-23T20:50:41.665695",
      "2022-05-23T20:50:42.491986",
      "2022-05-23T20:50:43.269261",
      "2022-05-23T20:50:44.044100",
      "2022-05-23T20:50:44.835396",
      "2022-05-23T20:50:45.670902",
      "2022-05-23T20:50:46.448545",
      "2022-05-23T20:50:47.240425",
      "2022-05-23T20:50:48.018236",
      "2022-05-23T20:50:48.820429",
      "2022-05-23T20:50:49.599242",
      "2022-05-23T20:50:50.417021",
      "2022-05-23T20:50:51.213200",
      "2022-05-23T20:50:52.004746",
      "2022-05-23T20:50:52.805612",
      "2022-05-23T20:50:53.612405",
      "2022-05-23T20:50:54.386107",
      "2022-05-23T20:50:55.181488",
      "2022-05-23T20:50:56.017800",
      "2022-05-23T20:50:56.909031",
      "2022-05-23T20:50:57.830986",
      "2022-05-23T20:50:58.749878",
      "2022-05-23T20:50:59.655850",
      "2022-05-23T20:51:00.562612",
      "2022-05-23T20:51:01.377083",
      "2022-05-23T20:51:02.156546",
      "2022-05-23T20:51:02.928714",
      "2022-05-23T20:51:03.724475",
      "2022-05-23T20:51:04.557610",
      "2022-05-23T20:51:05.335289",
      "2022-05-23T20:51:06.110351",
      "2022-05-23T20:51:06.924968",
      "2022-05-23T20:51:07.754070",
      "2022-05-23T20:51:08.545587",
      "2022-05-23T20:51:09.318670",
      "2022-05-23T20:51:10.102151",
      "2022-05-23T20:51:10.889874",
      "2022-05-23T20:51:11.664885",
      "2022-05-23T20:51:12.434366",
      "2022-05-23T20:51:13.208776",
      "2022-05-23T20:51:13.978512",
      "2022-05-23T20:51:14.752278",
      "2022-05-23T20:51:15.526557",
      "2022-05-23T20:51:16.306954",
      "2022-05-23T20:51:17.081126",
      "2022-05-23T20:51:17.859296",
      "2022-05-23T20:51:18.637588",
      "2022-05-23T20:51:19.416134",
      "2022-05-23T20:51:20.186893",
      "2022-05-23T20:51:20.964513",
      "2022-05-23T20:51:21.735687",
      "2022-05-23T20:51:22.512006",
      "2022-05-23T20:51:23.284000",
      "2022-05-23T20:51:24.059154",
      "2022-05-23T20:51:24.868264",
      "2022-05-23T20:51:25.653300",
      "2022-05-23T20:51:26.427295",
      "2022-05-23T20:51:27.207939",
      "2022-05-23T20:51:27.981496",
      "2022-05-23T20:51:28.776202",
      "2022-05-23T20:51:29.550020",
      "2022-05-23T20:51:30.358922",
      "2022-05-23T20:51:31.146351",
      "2022-05-23T20:51:31.928279",
      "2022-05-23T20:51:32.703686",
      "2022-05-23T20:51:33.491851",
      "2022-05-23T20:51:34.276443",
      "2022-05-23T20:51:35.164011",
      "2022-05-23T20:51:36.031473",
      "2022-05-23T20:51:36.911347",
      "2022-05-23T20:51:37.778464",
      "2022-05-23T20:51:38.659690",
      "2022-05-23T20:51:39.532122",
      "2022-05-23T20:51:40.401298",
      "2022-05-23T20:51:41.267523",
      "2022-05-23T20:51:42.127223",
      "2022-05-23T20:51:42.993736",
      "2022-05-23T20:51:43.856342",
      "2022-05-23T20:51:44.717681",
      "2022-05-23T20:51:45.619797",
      "2022-05-23T20:51:46.527183",
      "2022-05-23T20:51:47.399336",
      "2022-05-23T20:51:48.289100",
      "2022-05-23T20:51:49.156711",
      "2022-05-23T20:51:49.956177",
      "2022-05-23T20:51:50.733184",
      "2022-05-23T20:51:51.506582",
      "2022-05-23T20:51:52.283996",
      "2022-05-23T20:51:53.055192",
      "2022-05-23T20:51:53.833252",
      "2022-05-23T20:51:54.603088",
      "2022-05-23T20:51:55.381379",
      "2022-05-23T20:51:56.155391",
      "2022-05-23T20:51:56.945293",
      "2022-05-23T20:51:57.725076",
      "2022-05-23T20:51:58.504284",
      "2022-05-23T20:51:59.299808",
      "2022-05-23T20:52:00.109005",
      "2022-05-23T20:52:00.883515",
      "2022-05-23T20:52:01.661240",
      "2022-05-23T20:52:02.478353",
      "2022-05-23T20:52:03.291646",
      "2022-05-23T20:52:04.065092",
      "2022-05-23T20:52:04.844151",
      "2022-05-23T20:52:05.622014",
      "2022-05-23T20:52:06.457576",
      "2022-05-23T20:52:07.260348",
      "2022-05-23T20:52:08.079495",
      "2022-05-23T20:52:08.886291",
      "2022-05-23T20:52:09.732361",
      "2022-05-23T20:52:10.527120",
      "2022-05-23T20:52:11.305252",
      "2022-05-23T20:52:12.076064",
      "2022-05-23T20:52:12.850409",
      "2022-05-23T20:52:13.620396",
      "2022-05-23T20:52:14.397002",
      "2022-05-23T20:52:15.167415",
      "2022-05-23T20:52:15.943810",
      "2022-05-23T20:52:16.715206",
      "2022-05-23T20:52:17.497073",
      "2022-05-23T20:52:18.278601",
      "2022-05-23T20:52:19.066263",
      "2022-05-23T20:52:19.838676",
      "2022-05-23T20:52:20.614534",
      "2022-05-23T20:52:21.395268",
      "2022-05-23T20:52:22.265461",
      "2022-05-23T20:52:23.038883",
      "2022-05-23T20:52:23.813557",
      "2022-05-23T20:52:24.583386",
      "2022-05-23T20:52:25.432921",
      "2022-05-23T20:52:26.225816",
      "2022-05-23T20:52:27.003780",
      "2022-05-23T20:52:27.776607",
      "2022-05-23T20:52:28.556646",
      "2022-05-23T20:52:29.380208",
      "2022-05-23T20:52:30.156815",
      "2022-05-23T20:52:30.934183",
      "2022-05-23T20:52:31.714108",
      "2022-05-23T20:52:32.486013",
      "2022-05-23T20:52:33.263845",
      "2022-05-23T20:52:34.072714",
      "2022-05-23T20:52:34.876240",
      "2022-05-23T20:52:35.652096",
      "2022-05-23T20:52:36.493412",
      "2022-05-23T20:52:37.270095",
      "2022-05-23T20:52:38.051051",
      "2022-05-23T20:52:38.851749",
      "2022-05-23T20:52:39.634975",
      "2022-05-23T20:52:40.411943",
      "2022-05-23T20:52:41.220575",
      "2022-05-23T20:52:41.990209",
      "2022-05-23T20:52:42.768915",
      "2022-05-23T20:52:43.543081",
      "2022-05-23T20:52:44.320142",
      "2022-05-23T20:52:45.090635",
      "2022-05-23T20:52:45.864642",
      "2022-05-23T20:52:46.639850",
      "2022-05-23T20:52:47.420758",
      "2022-05-23T20:52:48.196558",
      "2022-05-23T20:52:48.977410",
      "2022-05-23T20:52:49.747115",
      "2022-05-23T20:52:50.527360",
      "2022-05-23T20:52:51.301165",
      "2022-05-23T20:52:52.078643",
      "2022-05-23T20:52:52.854799",
      "2022-05-23T20:52:53.644130",
      "2022-05-23T20:52:54.413625",
      "2022-05-23T20:52:55.189563",
      "2022-05-23T20:52:55.997227",
      "2022-05-23T20:52:56.888317",
      "2022-05-23T20:52:57.797590",
      "2022-05-23T20:52:58.688163",
      "2022-05-23T20:52:59.601330",
      "2022-05-23T20:53:00.512682",
      "2022-05-23T20:53:01.412898",
      "2022-05-23T20:53:02.315841",
      "2022-05-23T20:53:03.213029",
      "2022-05-23T20:53:04.077759",
      "2022-05-23T20:53:04.924130",
      "2022-05-23T20:53:05.768160",
      "2022-05-23T20:53:06.590157",
      "2022-05-23T20:53:07.488294",
      "2022-05-23T20:53:08.408410",
      "2022-05-23T20:53:09.264985",
      "2022-05-23T20:53:10.196290",
      "2022-05-23T20:53:10.977530",
      "2022-05-23T20:53:11.751306",
      "2022-05-23T20:53:12.528043",
      "2022-05-23T20:53:13.322394",
      "2022-05-23T20:53:14.158177",
      "2022-05-23T20:53:14.941613",
      "2022-05-23T20:53:15.721470",
      "2022-05-23T20:53:16.493480",
      "2022-05-23T20:53:17.270915",
      "2022-05-23T20:53:18.043944",
      "2022-05-23T20:53:18.858635",
      "2022-05-23T20:53:19.704602",
      "2022-05-23T20:53:20.540470",
      "2022-05-23T20:53:21.329875",
      "2022-05-23T20:53:22.202879",
      "2022-05-23T20:53:23.023491",
      "2022-05-23T20:53:23.814537",
      "2022-05-23T20:53:24.612559",
      "2022-05-23T20:53:25.397195",
      "2022-05-23T20:53:26.182565",
      "2022-05-23T20:53:26.961849",
      "2022-05-23T20:53:27.734503",
      "2022-05-23T20:53:28.537130",
      "2022-05-23T20:53:29.308648",
      "2022-05-23T20:53:30.095430",
      "2022-05-23T20:53:30.881276",
      "2022-05-23T20:53:31.655408",
      "2022-05-23T20:53:32.427620",
      "2022-05-23T20:53:33.202085",
      "2022-05-23T20:53:33.971640",
      "2022-05-23T20:53:34.746963",
      "2022-05-23T20:53:35.526752",
      "2022-05-23T20:53:36.305883",
      "2022-05-23T20:53:37.076445",
      "2022-05-23T20:53:37.850684",
      "2022-05-23T20:53:38.656016",
      "2022-05-23T20:53:39.440002",
      "2022-05-23T20:53:40.212191",
      "2022-05-23T20:53:40.991487",
      "2022-05-23T20:53:41.806856",
      "2022-05-23T20:53:42.619057",
      "2022-05-23T20:53:43.447555",
      "2022-05-23T20:53:44.271206",
      "2022-05-23T20:53:45.094078",
      "2022-05-23T20:53:45.975247",
      "2022-05-23T20:53:46.778315",
      "2022-05-23T20:53:47.558504",
      "2022-05-23T20:53:48.351532",
      "2022-05-23T20:53:49.210533",
      "2022-05-23T20:53:50.033416",
      "2022-05-23T20:53:50.819800",
      "2022-05-23T20:53:51.601891",
      "2022-05-23T20:53:52.396268",
      "2022-05-23T20:53:53.166968",
      "2022-05-23T20:53:53.946508",
      "2022-05-23T20:53:54.722718",
      "2022-05-23T20:53:55.499080",
      "2022-05-23T20:53:56.270295",
      "2022-05-23T20:53:57.047868",
      "2022-05-23T20:53:57.818825",
      "2022-05-23T20:53:58.611540",
      "2022-05-23T20:53:59.385033",
      "2022-05-23T20:54:00.233046",
      "2022-05-23T20:54:01.072690",
      "2022-05-23T20:54:01.861506",
      "2022-05-23T20:54:02.633114",
      "2022-05-23T20:54:03.409342",
      "2022-05-23T20:54:04.183071",
      "2022-05-23T20:54:04.959474",
      "2022-05-23T20:54:05.732055",
      "2022-05-23T20:54:06.507321",
      "2022-05-23T20:54:07.286693",
      "2022-05-23T20:54:08.061424",
      "2022-05-23T20:54:08.835353",
      "2022-05-23T20:54:09.608018",
      "2022-05-23T20:54:10.384446",
      "2022-05-23T20:54:11.160033",
      "2022-05-23T20:54:11.931975",
      "2022-05-23T20:54:12.710622",
      "2022-05-23T20:54:13.483710",
      "2022-05-23T20:54:14.263064",
      "2022-05-23T20:54:15.034279",
      "2022-05-23T20:54:15.810538",
      "2022-05-23T20:54:16.581327",
      "2022-05-23T20:54:17.374186",
      "2022-05-23T20:54:18.148570",
      "2022-05-23T20:54:18.970015",
      "2022-05-23T20:54:19.749378",
      "2022-05-23T20:54:20.529739",
      "2022-05-23T20:54:21.303239",
      "2022-05-23T20:54:22.080634",
      "2022-05-23T20:54:22.876741",
      "2022-05-23T20:54:23.682899",
      "2022-05-23T20:54:24.489447",
      "2022-05-23T20:54:25.295395",
      "2022-05-23T20:54:26.070615",
      "2022-05-23T20:54:26.854454",
      "2022-05-23T20:54:27.640121",
      "2022-05-23T20:54:28.444323",
      "2022-05-23T20:54:29.225711",
      "2022-05-23T20:54:30.002351",
      "2022-05-23T20:54:30.772155",
      "2022-05-23T20:54:31.548206",
      "2022-05-23T20:54:32.323819",
      "2022-05-23T20:54:33.103452"
    ],
    "values": [
      15.99181786542868,
      14.461370945383592,
      13.591172154167886,
      12.861163589731378,
      12.601598874292536,
      12.36406140607684,
      12.14992146035422,
      11.896187331991209,
      11.939706786320569,
      11.86529123227844,
      11.745178823699721,
      11.600099040866047,
      11.420686462192897,
      11.362661672837682,
      11.361836916489493,
      11.447930926877252,
      11.799474805106893,
      11.39093842848244,
      11.211521572646008,
      11.148510089660451,
      11.28457677243356,
      11.395484229543559,
      11.112923600062294,
      11.098852045829085,
      11.305769900134244,
      11.067169228596315,
      11.077964776833614,
      11.36925838838909,
      11.073172147017571,
      11.073438374517035,
      11.160670133938668,
      11.014345947419567,
      11.033405481173963,
      11.08084612336067,
      10.971040148062805,
      10.866658789406568,
      11.074489071010484,
      11.13867165110873,
      11.209886406060924,
      11.214887647424128,
      11.091588590954784,
      11.070508115394112,
      11.034928132987055,
      11.101399829799611,
      10.905461813684372,
      10.880742889386235,
      10.880970366684947,
      11.25940749762976,
      10.970694084934683,
      10.872629417654974,
      10.913681525226421,
      11.03573863837883,
      10.94081728924997,
      10.90992958271229,
      10.830406567557743,
      10.861696534295994,
      10.853403217402363,
      10.896463188696396,
      10.820691882786193,
      10.9639827899408,
      10.894316160729462,
      10.819883786309937,
      10.724241925061905,
      10.814123101508862,
      10.73286086943164,
      10.941859888116102,
      11.059331222044937,
      10.954054508310676,
      10.898072978517748,
      11.076584764288254,
      10.984496591530363,
      10.904633157458544,
      10.69373095753149,
      10.890205840293017,
      10.790169577068319,
      10.949126338641825,
      10.97529858415294,
      10.721115959385207,
      10.768894318362658,
      10.62084007402009,
      10.646937422926849,
      10.659376068156917,
      10.772353758135546,
      10.736267281193312,
      10.65048984054419,
      10.765270438812221,
      10.717309358697698,
      10.815704398728718,
      10.720174424643947,
      10.707164696811054,
      10.609944723301673,
      10.719605367632221,
      10.917225439099305,
      10.726016648812871,
      10.752494149764612,
      10.7757125440965,
      10.709559018382157,
      10.844967563748641,
      10.708345326131505,
      10.621472896577593,
      10.713213224163207,
      10.861450616126252,
      10.614413412326979,
      10.662233130265944,
      10.594207402199078,
      10.644581416247139,
      10.711755863013627,
      10.713815690813304,
      10.640630196056097,
      10.675339623624733,
      10.734455768489878,
      10.597615128888787,
      10.662493401552151,
      10.810192724425193,
      10.598113053488355,
      10.542682675034557,
      10.754897814591459,
      10.645972690704369,
      10.55664457104911,
      10.738648570692714,
      10.68181582158244,
      10.686151907997507,
      10.510450055571896,
      10.823716769742694,
      10.73605529997568,
      10.602361591792603,
      10.685294204060037,
      10.620891029816715,
      10.927665440441032,
      10.781267919900026,
      10.759878040218943,
      10.66779664318906,
      10.732888290212415,
      10.568546636638866,
      10.592393490124762,
      10.624838085976835,
      10.709745391643155,
      10.590510239496327,
      10.538425965635568,
      10.62099587630479,
      10.534953444548737,
      10.645963168502766,
      10.73286878906021,
      10.627852645049952,
      10.604127105896236,
      10.581911107178898,
      10.58774496300632,
      10.53963790388324,
      10.598595286368214,
      10.65872584672091,
      10.78037900809431,
      10.587496407795635,
      10.580121281489788,
      10.524713533759062,
      10.78841652291326,
      10.602065182105532,
      10.647336630145716,
      10.685421186349839,
      10.550341791900044,
      10.569992875935426,
      10.58638675020611,
      10.557792914072106,
      10.560411914330546,
      10.629648639028606,
      10.632448625681976,
      10.661391943537007,
      10.585012255225623,
      10.521271182126634,
      10.812192619645641,
      10.679226718476224,
      10.49986629173592,
      10.674753108682017,
      10.635378550128928,
      10.603944211014468,
      10.553444805148485,
      10.535940310840331,
      10.558393591126947,
      10.60647892190521,
      10.796028310789872,
      10.740060935870806,
      10.52877362191655,
      10.59801408349234,
      10.616605157028559,
      10.650972279429963,
      10.64275508130118,
      10.71367601943936,
      10.604409925282553,
      10.661360021056622,
      10.569243024355547,
      10.696241853213824,
      10.537019556875837,
      10.467182363036088,
      10.641984726987882,
      10.540149520208697,
      10.584046146989872,
      10.614566246291744,
      10.57202996102582,
      10.633466429155158,
      10.639792828748382,
      10.450742491201506,
      10.367466568395864,
      10.335643831618198,
      10.34103138204371,
      10.36086329882395,
      10.337761806253779,
      10.348382425207229,
      10.334986146404145,
      10.35535831224344,
      10.332854362116963,
      10.348274975308259,
      10.352246913519325,
      10.320457309382478,
      10.373815513406075,
      10.360261294829051,
      10.292931813994896,
      10.376585817575451,
      10.348562912169328,
      10.38562771728591,
      10.388715785681597,
      10.3617732595929,
      10.333313054074758,
      10.351157539338388,
      10.356130531233823,
      10.390708902247491,
      10.392122633070493,
      10.38748359332771,
      10.367330144263113,
      10.38107319201075,
      10.34580796525051,
      10.370669872037539,
      10.359555036979444,
      10.38876293548665,
      10.366429750615483,
      10.382575496547775,
      10.380526690462213,
      10.382866296767547,
      10.408109354747742,
      10.370756125932528,
      10.399314531795905,
      10.385538640582718,
      10.390527852096064,
      10.382893847781975,
      10.394877037729259,
      10.396699407594035,
      10.376512140181614,
      10.36791750621578,
      10.380860898577954,
      10.360519899108972,
      10.368378422022245,
      10.363374256150694,
      10.36501186278836,
      10.382365498343251,
      10.374379470778903,
      10.371258317690923,
      10.3823332025949,
      10.39837009504301,
      10.398415436345942,
      10.397709801508157,
      10.400144442650626,
      10.369100048610523,
      10.395915021399485,
      10.374797979233167,
      10.351936392242811,
      10.361177451399634,
      10.369618013435895,
      10.402699564385692,
      10.381240512433372,
      10.357398384740991,
      10.422428233156335,
      10.410701308736819,
      10.358018750978715,
      10.381956648991988,
      10.37723447326897,
      10.381916344051035,
      10.389823008062711,
      10.396188651586757,
      10.409359247974196,
      10.41526524179749,
      10.393578724009755,
      10.415138090408172,
      10.389628953853896,
      10.39621986643094,
      10.39761618319465,
      10.423089780495552,
      10.381336497414175,
      10.414058138300014,
      10.37199246594123,
      10.352777750342314,
      10.387617738309876,
      10.415657162772455,
      10.392421620884111,
      10.41537429409745,
      10.36269765008165,
      10.423404867550353,
      10.415950307876875,
      10.423522763520426,
      10.418612498633959,
      10.398568659988419,
      10.421530894401817,
      10.406486668663966,
      10.381032193309272,
      10.432506197090206,
      10.385536882654915,
      10.397453524249704,
      10.382146880727408,
      10.419412142472035,
      10.371967343504659,
      10.3784986273672,
      10.396414326022411,
      10.375244696173441,
      10.367506310826776,
      10.382663508133952,
      10.397636940969397,
      10.362769997221278,
      10.364705577765285,
      10.380316017364601,
      10.37552593973756,
      10.386868459714377,
      10.382353480712382,
      10.404544820702379,
      10.372778255296689,
      10.367703249141409,
      10.411952794224629,
      10.387802813531305,
      10.42534694442463,
      10.377285189080364,
      10.35492243276516,
      10.386901800995672,
      10.393853294366414,
      10.380500876516749,
      10.376285696355769,
      10.396930395420204,
      10.371391949541856,
      10.390549397232927,
      10.366546261483213,
      10.366990326935493,
      10.370545477853257,
      10.405139955106398,
      10.377085602756909,
      10.388313491785816,
      10.411108724063686,
      10.373951787233317,
      10.37941948746128,
      10.3726911216741,
      10.389396600625751,
      10.395242234380214,
      10.360594012743626,
      10.389516476670497,
      10.372031858013775,
      10.379358361803279,
      10.405859849177139,
      10.343171197422512,
      10.378150793977277,
      10.362233282664848,
      10.387612023746035,
      10.389994248897576,
      10.378738192796702,
      10.369137171102906,
      10.388841398588415,
      10.382935690807422,
      10.376458976976732,
      10.396745641465857,
      10.3640123592188,
      10.369769084330885,
      10.3537754795845,
      10.384533652943471,
      10.374638937611167,
      10.4064048882583,
      10.3934861468595,
      10.355970950823421,
      10.348694757987438,
      10.365321896663964,
      10.399248473579085,
      10.36788063492882,
      10.402388524394214,
      10.39394299452349,
      10.375059850230743,
      10.374542250456582,
      10.361686588604707,
      10.382745870192196,
      10.358892425356624,
      10.37173005980594,
      10.372202609210959,
      10.399406868244968,
      10.359006477076724,
      10.363009409615406,
      10.385002682806755,
      10.374026667720806,
      10.391307935714945,
      10.34516907186386,
      10.385234867276013,
      10.370411848261785,
      10.383096356615477,
      10.363618580368454,
      10.373932367597558,
      10.361069262491023,
      10.383169215644298,
      10.3883043914147,
      10.383573440469483,
      10.389938845302604
    ]
  }
}