INFO - residual_nf - Running command 'run'
INFO - residual_nf - Started run with ID "4"
[CONFIG] {'bn': 'ecoli70-alt-transitive-min', 'structure': 'faithful', 'coeff': 0.99, 'n_power_iterations': 5, 'num_blocks': 16, 'hidden_dims': [100], 'activation': 'lipmish', 'grad_in_forward': True, 'batch_size': 100, 'num_train_samples': 10000, 'num_val_samples': 5000, 'num_epochs': 200, 'num_train_batches': 100, 'num_val_batches': 50, 'lr': 0.01, 'seed': 2, 'patience': 20, 'double': True, 'run': 1, 'checkpoint_n': 10, 'load_from_checkpoint': False, 'ex_name': 'residual_nf_density_estimation', 'sub_folder': 'faithful_99_lipmish_16_[100]', 'path': './experiment_logs/residual_nf_density_estimation/ecoli70-alt-transitive-min/faithful_99_lipmish_16_[100]', 'bt_config': {'depth': 5, 'seed': 4}}
[DEVICE] cuda:0
here
[ENCODED STRUCTURE] Using faithful BN structure.
  0%|          | 0/200 [00:00<?, ?it/s]Train NLL: 51.925, Val NLL: 42.598:   0%|          | 1/200 [00:09<31:30,  9.50s/it]Train NLL: 41.689, Val NLL: 41.143:   1%|          | 2/200 [00:18<30:43,  9.31s/it]Train NLL: 41.242, Val NLL: 41.125:   2%|▏         | 3/200 [00:27<30:23,  9.26s/it]Train NLL: 41.237, Val NLL: 41.288:   2%|▏         | 4/200 [00:37<30:08,  9.23s/it]Train NLL: 41.140, Val NLL: 41.072:   2%|▎         | 5/200 [00:46<29:57,  9.22s/it]Train NLL: 41.115, Val NLL: 41.089:   3%|▎         | 6/200 [00:55<29:45,  9.20s/it]Train NLL: 41.114, Val NLL: 41.054:   4%|▎         | 7/200 [01:04<29:33,  9.19s/it]Train NLL: 41.063, Val NLL: 40.925:   4%|▍         | 8/200 [01:13<29:22,  9.18s/it]Train NLL: 41.050, Val NLL: 41.042:   4%|▍         | 9/200 [01:22<29:12,  9.18s/it]Train NLL: 41.024, Val NLL: 41.051:   5%|▌         | 10/200 [01:32<29:09,  9.21s/it]Train NLL: 41.053, Val NLL: 41.123:   6%|▌         | 11/200 [01:41<29:01,  9.21s/it]Train NLL: 41.035, Val NLL: 40.928:   6%|▌         | 12/200 [01:50<28:51,  9.21s/it]Train NLL: 40.964, Val NLL: 40.868:   6%|▋         | 13/200 [01:59<28:37,  9.19s/it]Train NLL: 40.922, Val NLL: 40.828:   7%|▋         | 14/200 [02:08<28:27,  9.18s/it]Train NLL: 40.949, Val NLL: 40.939:   8%|▊         | 15/200 [02:18<28:16,  9.17s/it]Train NLL: 40.937, Val NLL: 40.850:   8%|▊         | 16/200 [02:27<28:08,  9.18s/it]Train NLL: 40.879, Val NLL: 40.950:   8%|▊         | 17/200 [02:36<28:02,  9.19s/it]Train NLL: 40.868, Val NLL: 40.961:   9%|▉         | 18/200 [02:45<27:54,  9.20s/it]Train NLL: 40.902, Val NLL: 40.884:  10%|▉         | 19/200 [02:54<27:46,  9.21s/it]Train NLL: 40.878, Val NLL: 40.959:  10%|█         | 20/200 [03:04<27:38,  9.21s/it]Train NLL: 40.864, Val NLL: 40.868:  10%|█         | 21/200 [03:13<27:28,  9.21s/it]Train NLL: 40.862, Val NLL: 40.798:  11%|█         | 22/200 [03:22<27:19,  9.21s/it]Train NLL: 40.849, Val NLL: 40.818:  12%|█▏        | 23/200 [03:31<27:09,  9.21s/it]Train NLL: 40.834, Val NLL: 40.883:  12%|█▏        | 24/200 [03:40<26:59,  9.20s/it]Train NLL: 40.873, Val NLL: 40.890:  12%|█▎        | 25/200 [03:50<26:48,  9.19s/it]Train NLL: 40.859, Val NLL: 40.951:  13%|█▎        | 26/200 [03:59<26:35,  9.17s/it]Train NLL: 40.853, Val NLL: 40.812:  14%|█▎        | 27/200 [04:08<26:25,  9.17s/it]Train NLL: 40.824, Val NLL: 40.888:  14%|█▍        | 28/200 [04:17<26:16,  9.17s/it]Train NLL: 40.831, Val NLL: 40.942:  14%|█▍        | 29/200 [04:26<26:07,  9.17s/it]Train NLL: 40.858, Val NLL: 40.800:  15%|█▌        | 30/200 [04:35<26:02,  9.19s/it]Train NLL: 40.815, Val NLL: 40.803:  16%|█▌        | 31/200 [04:45<25:54,  9.20s/it]Train NLL: 40.843, Val NLL: 40.829:  16%|█▌        | 32/200 [04:54<25:43,  9.19s/it]Train NLL: 40.843, Val NLL: 40.813:  16%|█▋        | 33/200 [05:03<25:35,  9.19s/it]Train NLL: 40.792, Val NLL: 40.771:  17%|█▋        | 34/200 [05:12<25:27,  9.20s/it]Train NLL: 40.784, Val NLL: 40.746:  18%|█▊        | 35/200 [05:21<25:18,  9.20s/it]Train NLL: 40.788, Val NLL: 40.858:  18%|█▊        | 36/200 [05:31<25:08,  9.20s/it]Train NLL: 40.805, Val NLL: 40.846:  18%|█▊        | 37/200 [05:40<24:57,  9.19s/it]Train NLL: 40.779, Val NLL: 40.753:  19%|█▉        | 38/200 [05:49<24:46,  9.17s/it]Train NLL: 40.798, Val NLL: 40.800:  20%|█▉        | 39/200 [05:58<24:38,  9.18s/it]Train NLL: 40.775, Val NLL: 40.809:  20%|██        | 40/200 [06:07<24:30,  9.19s/it]Train NLL: 40.784, Val NLL: 40.741:  20%|██        | 41/200 [06:17<24:21,  9.19s/it]Train NLL: 40.772, Val NLL: 40.697:  21%|██        | 42/200 [06:26<24:12,  9.19s/it]Train NLL: 40.769, Val NLL: 40.825:  22%|██▏       | 43/200 [06:35<24:02,  9.19s/it]Train NLL: 40.782, Val NLL: 40.726:  22%|██▏       | 44/200 [06:44<23:55,  9.20s/it]Train NLL: 40.740, Val NLL: 40.816:  22%|██▎       | 45/200 [06:53<23:45,  9.19s/it]Train NLL: 40.781, Val NLL: 40.769:  23%|██▎       | 46/200 [07:03<23:36,  9.20s/it]Train NLL: 40.754, Val NLL: 40.742:  24%|██▎       | 47/200 [07:12<23:27,  9.20s/it]Train NLL: 40.754, Val NLL: 40.696:  24%|██▍       | 48/200 [07:21<23:18,  9.20s/it]Train NLL: 40.765, Val NLL: 40.721:  24%|██▍       | 49/200 [07:30<23:06,  9.18s/it]Train NLL: 40.758, Val NLL: 40.676:  25%|██▌       | 50/200 [07:39<22:57,  9.19s/it]Train NLL: 40.742, Val NLL: 40.780:  26%|██▌       | 51/200 [07:49<22:48,  9.18s/it]Train NLL: 40.738, Val NLL: 40.808:  26%|██▌       | 52/200 [07:58<22:38,  9.18s/it]Train NLL: 40.783, Val NLL: 40.707:  26%|██▋       | 53/200 [08:07<22:30,  9.18s/it]Train NLL: 40.746, Val NLL: 40.745:  27%|██▋       | 54/200 [08:16<22:21,  9.19s/it]Train NLL: 40.760, Val NLL: 40.686:  28%|██▊       | 55/200 [08:25<22:13,  9.19s/it]Train NLL: 40.694, Val NLL: 40.618:  28%|██▊       | 56/200 [08:34<22:03,  9.19s/it]Train NLL: 40.687, Val NLL: 40.627:  28%|██▊       | 57/200 [08:44<21:56,  9.20s/it]Train NLL: 40.694, Val NLL: 40.729:  29%|██▉       | 58/200 [08:53<21:46,  9.20s/it]Train NLL: 40.711, Val NLL: 40.720:  30%|██▉       | 59/200 [09:02<21:37,  9.20s/it]Train NLL: 40.694, Val NLL: 40.751:  30%|███       | 60/200 [09:11<21:27,  9.20s/it]Train NLL: 40.701, Val NLL: 40.683:  30%|███       | 61/200 [09:21<21:20,  9.21s/it]Train NLL: 40.689, Val NLL: 40.616:  31%|███       | 62/200 [09:30<21:10,  9.21s/it]Train NLL: 40.666, Val NLL: 40.602:  32%|███▏      | 63/200 [09:39<21:00,  9.20s/it]Train NLL: 40.700, Val NLL: 40.780:  32%|███▏      | 64/200 [09:48<20:49,  9.19s/it]Train NLL: 40.709, Val NLL: 40.670:  32%|███▎      | 65/200 [09:57<20:41,  9.20s/it]Train NLL: 40.670, Val NLL: 40.723:  33%|███▎      | 66/200 [10:06<20:30,  9.19s/it]Train NLL: 40.687, Val NLL: 40.683:  34%|███▎      | 67/200 [10:16<20:22,  9.19s/it]Train NLL: 40.637, Val NLL: 40.716:  34%|███▍      | 68/200 [10:25<20:13,  9.19s/it]Train NLL: 40.695, Val NLL: 40.666:  34%|███▍      | 69/200 [10:34<20:04,  9.20s/it]Train NLL: 40.625, Val NLL: 40.527:  35%|███▌      | 70/200 [10:43<19:56,  9.21s/it]Train NLL: 40.606, Val NLL: 40.733:  36%|███▌      | 71/200 [10:52<19:48,  9.21s/it]Train NLL: 40.648, Val NLL: 40.663:  36%|███▌      | 72/200 [11:02<19:40,  9.22s/it]Train NLL: 40.630, Val NLL: 40.645:  36%|███▋      | 73/200 [11:11<19:30,  9.22s/it]Train NLL: 40.599, Val NLL: 40.533:  37%|███▋      | 74/200 [11:20<19:18,  9.20s/it]Train NLL: 40.652, Val NLL: 40.580:  38%|███▊      | 75/200 [11:29<19:07,  9.18s/it]Train NLL: 40.626, Val NLL: 40.592:  38%|███▊      | 76/200 [11:38<18:57,  9.18s/it]Train NLL: 40.626, Val NLL: 40.571:  38%|███▊      | 77/200 [11:48<18:50,  9.19s/it]Train NLL: 40.573, Val NLL: 40.647:  39%|███▉      | 78/200 [11:57<18:40,  9.19s/it]Train NLL: 40.609, Val NLL: 40.679:  40%|███▉      | 79/200 [12:06<18:32,  9.19s/it]Train NLL: 40.606, Val NLL: 40.538:  40%|████      | 80/200 [12:15<18:24,  9.20s/it]Train NLL: 40.613, Val NLL: 40.570:  40%|████      | 81/200 [12:24<18:16,  9.21s/it]Train NLL: 40.569, Val NLL: 40.523:  41%|████      | 82/200 [12:34<18:06,  9.21s/it]Train NLL: 40.580, Val NLL: 40.695:  42%|████▏     | 83/200 [12:43<17:59,  9.22s/it]Train NLL: 40.605, Val NLL: 40.680:  42%|████▏     | 84/200 [12:52<17:50,  9.22s/it]Train NLL: 40.566, Val NLL: 40.602:  42%|████▎     | 85/200 [13:01<17:40,  9.22s/it]Train NLL: 40.559, Val NLL: 40.572:  43%|████▎     | 86/200 [13:11<17:29,  9.21s/it]Train NLL: 40.570, Val NLL: 40.473:  44%|████▎     | 87/200 [13:20<17:20,  9.21s/it]Train NLL: 40.577, Val NLL: 40.541:  44%|████▍     | 88/200 [13:29<17:10,  9.20s/it]Train NLL: 40.558, Val NLL: 40.513:  44%|████▍     | 89/200 [13:38<17:01,  9.21s/it]Train NLL: 40.556, Val NLL: 40.530:  45%|████▌     | 90/200 [13:47<16:53,  9.21s/it]Train NLL: 40.548, Val NLL: 40.530:  46%|████▌     | 91/200 [13:57<16:45,  9.23s/it]Train NLL: 40.551, Val NLL: 40.470:  46%|████▌     | 92/200 [14:06<16:35,  9.22s/it]Train NLL: 40.562, Val NLL: 40.533:  46%|████▋     | 93/200 [14:15<16:27,  9.23s/it]Train NLL: 40.566, Val NLL: 40.570:  47%|████▋     | 94/200 [14:24<16:17,  9.22s/it]Train NLL: 40.542, Val NLL: 40.470:  48%|████▊     | 95/200 [14:34<16:08,  9.22s/it]Train NLL: 40.519, Val NLL: 40.673:  48%|████▊     | 96/200 [14:43<15:58,  9.22s/it]Train NLL: 40.544, Val NLL: 40.609:  48%|████▊     | 97/200 [14:52<15:49,  9.22s/it]Train NLL: 40.525, Val NLL: 40.532:  49%|████▉     | 98/200 [15:01<15:38,  9.20s/it]Train NLL: 40.491, Val NLL: 40.405:  50%|████▉     | 99/200 [15:10<15:29,  9.20s/it]Train NLL: 40.485, Val NLL: 40.531:  50%|█████     | 100/200 [15:20<15:20,  9.21s/it]Train NLL: 40.492, Val NLL: 40.607:  50%|█████     | 101/200 [15:29<15:12,  9.22s/it]Train NLL: 40.517, Val NLL: 40.443:  51%|█████     | 102/200 [15:38<15:03,  9.22s/it]Train NLL: 40.474, Val NLL: 40.579:  52%|█████▏    | 103/200 [15:47<14:53,  9.21s/it]Train NLL: 40.511, Val NLL: 40.529:  52%|█████▏    | 104/200 [15:56<14:45,  9.22s/it]Train NLL: 40.483, Val NLL: 40.546:  52%|█████▎    | 105/200 [16:06<14:35,  9.21s/it]Train NLL: 40.489, Val NLL: 40.449:  53%|█████▎    | 106/200 [16:15<14:26,  9.21s/it]Train NLL: 40.496, Val NLL: 40.544:  54%|█████▎    | 107/200 [16:24<14:17,  9.22s/it]Train NLL: 40.514, Val NLL: 40.501:  54%|█████▍    | 108/200 [16:33<14:08,  9.23s/it]Train NLL: 40.495, Val NLL: 40.382:  55%|█████▍    | 109/200 [16:43<13:59,  9.23s/it]Train NLL: 40.502, Val NLL: 40.461:  55%|█████▌    | 110/200 [16:52<13:50,  9.23s/it]Train NLL: 40.502, Val NLL: 40.463:  56%|█████▌    | 111/200 [17:01<13:41,  9.23s/it]Train NLL: 40.500, Val NLL: 40.428:  56%|█████▌    | 112/200 [17:10<13:32,  9.23s/it]Train NLL: 40.522, Val NLL: 40.459:  56%|█████▋    | 113/200 [17:19<13:21,  9.21s/it]Train NLL: 40.516, Val NLL: 40.480:  57%|█████▋    | 114/200 [17:29<13:12,  9.21s/it]Train NLL: 40.499, Val NLL: 40.376:  57%|█████▊    | 115/200 [17:38<13:04,  9.23s/it]Train NLL: 40.516, Val NLL: 40.428:  58%|█████▊    | 116/200 [17:47<12:55,  9.23s/it]Train NLL: 40.482, Val NLL: 40.451:  58%|█████▊    | 117/200 [17:56<12:46,  9.23s/it]Train NLL: 40.486, Val NLL: 40.514:  59%|█████▉    | 118/200 [18:06<12:37,  9.23s/it]Train NLL: 40.505, Val NLL: 40.428:  60%|█████▉    | 119/200 [18:15<12:28,  9.24s/it]Train NLL: 40.478, Val NLL: 40.453:  60%|██████    | 120/200 [18:24<12:19,  9.24s/it]Train NLL: 40.521, Val NLL: 40.563:  60%|██████    | 121/200 [18:33<12:09,  9.24s/it]Train NLL: 40.478, Val NLL: 40.465:  61%|██████    | 122/200 [18:43<12:00,  9.24s/it]Train NLL: 40.490, Val NLL: 40.432:  62%|██████▏   | 123/200 [18:52<11:48,  9.21s/it]Epoch   124: reducing learning rate of group 0 to 1.0000e-03.
Train NLL: 40.471, Val NLL: 40.494:  62%|██████▏   | 124/200 [19:01<11:40,  9.21s/it]Train NLL: 40.243, Val NLL: 40.212:  62%|██████▎   | 125/200 [19:10<11:30,  9.20s/it]Train NLL: 40.212, Val NLL: 40.229:  63%|██████▎   | 126/200 [19:19<11:20,  9.20s/it]Train NLL: 40.210, Val NLL: 40.222:  64%|██████▎   | 127/200 [19:29<11:11,  9.20s/it]Train NLL: 40.210, Val NLL: 40.218:  64%|██████▍   | 128/200 [19:38<11:02,  9.20s/it]Train NLL: 40.210, Val NLL: 40.216:  64%|██████▍   | 129/200 [19:47<10:53,  9.21s/it]Train NLL: 40.211, Val NLL: 40.226:  65%|██████▌   | 130/200 [19:56<10:44,  9.21s/it]Train NLL: 40.213, Val NLL: 40.216:  66%|██████▌   | 131/200 [20:05<10:36,  9.22s/it]Train NLL: 40.207, Val NLL: 40.218:  66%|██████▌   | 132/200 [20:15<10:27,  9.23s/it]Train NLL: 40.208, Val NLL: 40.217:  66%|██████▋   | 133/200 [20:24<10:18,  9.23s/it]Train NLL: 40.210, Val NLL: 40.214:  67%|██████▋   | 134/200 [20:33<10:08,  9.22s/it]Train NLL: 40.209, Val NLL: 40.216:  68%|██████▊   | 135/200 [20:42<09:58,  9.21s/it]Train NLL: 40.211, Val NLL: 40.226:  68%|██████▊   | 136/200 [20:52<09:49,  9.21s/it]Train NLL: 40.212, Val NLL: 40.219:  68%|██████▊   | 137/200 [21:01<09:39,  9.21s/it]Train NLL: 40.213, Val NLL: 40.216:  69%|██████▉   | 138/200 [21:10<09:30,  9.21s/it]Train NLL: 40.210, Val NLL: 40.215:  70%|██████▉   | 139/200 [21:19<09:22,  9.22s/it]Train NLL: 40.213, Val NLL: 40.226:  70%|███████   | 140/200 [21:28<09:13,  9.23s/it]Train NLL: 40.215, Val NLL: 40.233:  70%|███████   | 141/200 [21:38<09:04,  9.24s/it]Train NLL: 40.216, Val NLL: 40.209:  71%|███████   | 142/200 [21:47<08:55,  9.23s/it]Train NLL: 40.210, Val NLL: 40.232:  72%|███████▏  | 143/200 [21:56<08:46,  9.24s/it]Train NLL: 40.216, Val NLL: 40.224:  72%|███████▏  | 144/200 [22:05<08:36,  9.23s/it]Train NLL: 40.213, Val NLL: 40.237:  72%|███████▎  | 145/200 [22:15<08:27,  9.23s/it]Train NLL: 40.214, Val NLL: 40.220:  73%|███████▎  | 146/200 [22:24<08:17,  9.21s/it]Train NLL: 40.212, Val NLL: 40.221:  74%|███████▎  | 147/200 [22:33<08:08,  9.21s/it]Train NLL: 40.208, Val NLL: 40.234:  74%|███████▍  | 148/200 [22:42<07:59,  9.21s/it]Train NLL: 40.214, Val NLL: 40.224:  74%|███████▍  | 149/200 [22:51<07:49,  9.20s/it]Train NLL: 40.210, Val NLL: 40.234:  75%|███████▌  | 150/200 [23:01<07:40,  9.22s/it]Train NLL: 40.219, Val NLL: 40.224:  76%|███████▌  | 151/200 [23:10<07:31,  9.21s/it]Train NLL: 40.214, Val NLL: 40.218:  76%|███████▌  | 152/200 [23:19<07:22,  9.22s/it]Epoch   153: reducing learning rate of group 0 to 1.0000e-04.
Train NLL: 40.213, Val NLL: 40.224:  76%|███████▋  | 153/200 [23:28<07:13,  9.22s/it]Train NLL: 40.184, Val NLL: 40.191:  77%|███████▋  | 154/200 [23:38<07:04,  9.23s/it]Train NLL: 40.177, Val NLL: 40.191:  78%|███████▊  | 155/200 [23:47<06:55,  9.23s/it]Train NLL: 40.177, Val NLL: 40.191:  78%|███████▊  | 156/200 [23:56<06:46,  9.24s/it]Train NLL: 40.176, Val NLL: 40.191:  78%|███████▊  | 157/200 [24:05<06:36,  9.23s/it]Train NLL: 40.176, Val NLL: 40.189:  79%|███████▉  | 158/200 [24:14<06:27,  9.22s/it]Train NLL: 40.176, Val NLL: 40.189:  80%|███████▉  | 159/200 [24:24<06:17,  9.22s/it]Train NLL: 40.176, Val NLL: 40.190:  80%|████████  | 160/200 [24:33<06:08,  9.22s/it]Train NLL: 40.176, Val NLL: 40.192:  80%|████████  | 161/200 [24:42<05:58,  9.20s/it]Train NLL: 40.176, Val NLL: 40.190:  81%|████████  | 162/200 [24:51<05:50,  9.21s/it]Train NLL: 40.176, Val NLL: 40.191:  82%|████████▏ | 163/200 [25:00<05:41,  9.22s/it]Train NLL: 40.176, Val NLL: 40.190:  82%|████████▏ | 164/200 [25:10<05:31,  9.22s/it]Train NLL: 40.176, Val NLL: 40.190:  82%|████████▎ | 165/200 [25:19<05:22,  9.23s/it]Train NLL: 40.177, Val NLL: 40.190:  83%|████████▎ | 166/200 [25:28<05:13,  9.22s/it]Train NLL: 40.176, Val NLL: 40.190:  84%|████████▎ | 167/200 [25:37<05:04,  9.23s/it]Train NLL: 40.177, Val NLL: 40.191:  84%|████████▍ | 168/200 [25:47<04:55,  9.23s/it]Train NLL: 40.176, Val NLL: 40.191:  84%|████████▍ | 169/200 [25:56<04:46,  9.23s/it]Train NLL: 40.177, Val NLL: 40.189:  85%|████████▌ | 170/200 [26:05<04:37,  9.24s/it]Train NLL: 40.176, Val NLL: 40.190:  86%|████████▌ | 171/200 [26:14<04:27,  9.23s/it]Train NLL: 40.176, Val NLL: 40.190:  86%|████████▌ | 172/200 [26:24<04:18,  9.23s/it]Train NLL: 40.176, Val NLL: 40.190:  86%|████████▋ | 173/200 [26:33<04:09,  9.23s/it]Train NLL: 40.176, Val NLL: 40.189:  87%|████████▋ | 174/200 [26:42<03:59,  9.21s/it]Train NLL: 40.176, Val NLL: 40.190:  88%|████████▊ | 175/200 [26:51<03:50,  9.23s/it]Epoch   176: reducing learning rate of group 0 to 1.0000e-05.
Train NLL: 40.175, Val NLL: 40.189:  88%|████████▊ | 176/200 [27:00<03:41,  9.23s/it]Train NLL: 40.172, Val NLL: 40.189:  88%|████████▊ | 177/200 [27:10<03:32,  9.25s/it]Train NLL: 40.171, Val NLL: 40.189:  89%|████████▉ | 178/200 [27:19<03:23,  9.25s/it]Train NLL: 40.171, Val NLL: 40.189:  90%|████████▉ | 179/200 [27:28<03:14,  9.25s/it]Train NLL: 40.171, Val NLL: 40.189:  90%|█████████ | 180/200 [27:37<03:05,  9.25s/it]Train NLL: 40.171, Val NLL: 40.189:  90%|█████████ | 181/200 [27:47<02:55,  9.25s/it]Train NLL: 40.171, Val NLL: 40.189:  91%|█████████ | 182/200 [27:56<02:46,  9.25s/it]Train NLL: 40.171, Val NLL: 40.189:  92%|█████████▏| 183/200 [28:05<02:37,  9.24s/it]Train NLL: 40.171, Val NLL: 40.189:  92%|█████████▏| 184/200 [28:14<02:27,  9.23s/it]Train NLL: 40.171, Val NLL: 40.189:  92%|█████████▎| 185/200 [28:24<02:18,  9.23s/it]Train NLL: 40.171, Val NLL: 40.189:  93%|█████████▎| 186/200 [28:33<02:08,  9.21s/it]Train NLL: 40.171, Val NLL: 40.189:  94%|█████████▎| 187/200 [28:42<01:59,  9.21s/it]Train NLL: 40.171, Val NLL: 40.189:  94%|█████████▍| 188/200 [28:51<01:50,  9.23s/it]Train NLL: 40.171, Val NLL: 40.189:  94%|█████████▍| 189/200 [29:01<01:41,  9.23s/it]Train NLL: 40.171, Val NLL: 40.189:  95%|█████████▌| 190/200 [29:10<01:32,  9.24s/it]Train NLL: 40.171, Val NLL: 40.189:  96%|█████████▌| 191/200 [29:19<01:23,  9.24s/it]Train NLL: 40.171, Val NLL: 40.189:  96%|█████████▌| 192/200 [29:28<01:13,  9.24s/it]Train NLL: 40.171, Val NLL: 40.189:  96%|█████████▋| 193/200 [29:37<01:04,  9.24s/it]Train NLL: 40.171, Val NLL: 40.189:  97%|█████████▋| 194/200 [29:47<00:55,  9.24s/it]Train NLL: 40.171, Val NLL: 40.189:  98%|█████████▊| 195/200 [29:56<00:46,  9.24s/it]Train NLL: 40.171, Val NLL: 40.189:  98%|█████████▊| 196/200 [30:05<00:36,  9.22s/it]Train NLL: 40.171, Val NLL: 40.189:  98%|█████████▊| 197/200 [30:14<00:27,  9.22s/it]Epoch   198: reducing learning rate of group 0 to 1.0000e-06.
Train NLL: 40.171, Val NLL: 40.189:  99%|█████████▉| 198/200 [30:24<00:18,  9.21s/it]Train NLL: 40.170, Val NLL: 40.189: 100%|█████████▉| 199/200 [30:33<00:09,  9.22s/it]