INFO - residual_nf - Running command 'run'
INFO - residual_nf - Started run with ID "4"
[CONFIG] {'bn': 'arithmetic-circuit', 'structure': 'faithful', 'coeff': 0.99, 'n_power_iterations': 5, 'num_blocks': 8, 'hidden_dims': [125], 'activation': 'lipswish', 'grad_in_forward': True, 'batch_size': 100, 'num_train_samples': 10000, 'num_val_samples': 5000, 'num_epochs': 450, 'num_train_batches': 100, 'num_val_batches': 50, 'lr': 0.01, 'seed': 2, 'patience': 20, 'double': True, 'run': 1, 'checkpoint_n': 10, 'load_from_checkpoint': False, 'ex_name': 'residual_nf_density_estimation', 'sub_folder': 'faithful_99_lipswish_8_[125]', 'path': './experiment_logs/residual_nf_density_estimation/arithmetic-circuit/faithful_99_lipswish_8_[125]', 'bt_config': {'depth': 5, 'seed': 4}}
[DEVICE] cpu
[ENCODED STRUCTURE] Using faithful BN structure.
  0%|          | 0/450 [00:00<?, ?it/s]Train NLL: 17.790, Val NLL: 8.537:   0%|          | 1/450 [00:02<20:01,  2.68s/it]Train NLL: 7.806, Val NLL: 6.767:   0%|          | 2/450 [00:06<25:21,  3.40s/it] Train NLL: 6.372, Val NLL: 6.431:   1%|          | 3/450 [00:09<22:49,  3.06s/it]Train NLL: 5.252, Val NLL: 4.233:   1%|          | 4/450 [00:11<21:39,  2.91s/it]Train NLL: 4.369, Val NLL: 3.816:   1%|          | 5/450 [00:14<20:56,  2.82s/it]Train NLL: 3.854, Val NLL: 4.390:   1%|▏         | 6/450 [00:17<20:28,  2.77s/it]Train NLL: 3.395, Val NLL: 2.851:   2%|▏         | 7/450 [00:19<20:13,  2.74s/it]Train NLL: 3.043, Val NLL: 3.408:   2%|▏         | 8/450 [00:22<20:26,  2.77s/it]Train NLL: 2.960, Val NLL: 2.700:   2%|▏         | 9/450 [00:25<20:15,  2.76s/it]Train NLL: 2.843, Val NLL: 2.503:   2%|▏         | 10/450 [00:28<20:03,  2.74s/it]Train NLL: 2.580, Val NLL: 2.492:   2%|▏         | 11/450 [00:30<19:53,  2.72s/it]Train NLL: 2.542, Val NLL: 2.387:   3%|▎         | 12/450 [00:33<19:44,  2.71s/it]Train NLL: 2.546, Val NLL: 2.483:   3%|▎         | 13/450 [00:36<19:44,  2.71s/it]Train NLL: 2.376, Val NLL: 2.548:   3%|▎         | 14/450 [00:38<19:37,  2.70s/it]Train NLL: 2.389, Val NLL: 2.191:   3%|▎         | 15/450 [00:41<19:37,  2.71s/it]Train NLL: 2.335, Val NLL: 2.326:   4%|▎         | 16/450 [00:44<19:32,  2.70s/it]Train NLL: 2.296, Val NLL: 2.113:   4%|▍         | 17/450 [00:47<19:31,  2.70s/it]Train NLL: 2.323, Val NLL: 2.125:   4%|▍         | 18/450 [00:49<19:28,  2.70s/it]Train NLL: 2.146, Val NLL: 2.124:   4%|▍         | 19/450 [00:52<19:27,  2.71s/it]Train NLL: 2.125, Val NLL: 1.976:   4%|▍         | 20/450 [00:55<19:24,  2.71s/it]Train NLL: 2.153, Val NLL: 1.974:   5%|▍         | 21/450 [00:57<19:17,  2.70s/it]Train NLL: 2.082, Val NLL: 1.953:   5%|▍         | 22/450 [01:00<19:12,  2.69s/it]Train NLL: 2.087, Val NLL: 1.954:   5%|▌         | 23/450 [01:03<19:11,  2.70s/it]Train NLL: 2.069, Val NLL: 2.174:   5%|▌         | 24/450 [01:05<19:07,  2.69s/it]Train NLL: 2.187, Val NLL: 2.172:   6%|▌         | 25/450 [01:08<19:06,  2.70s/it]Train NLL: 2.078, Val NLL: 2.254:   6%|▌         | 26/450 [01:11<19:08,  2.71s/it]Train NLL: 2.041, Val NLL: 1.935:   6%|▌         | 27/450 [01:14<19:05,  2.71s/it]Train NLL: 2.029, Val NLL: 2.007:   6%|▌         | 28/450 [01:16<19:01,  2.70s/it]Train NLL: 2.039, Val NLL: 2.069:   6%|▋         | 29/450 [01:19<18:56,  2.70s/it]Train NLL: 1.934, Val NLL: 1.928:   7%|▋         | 30/450 [01:22<18:56,  2.71s/it]Train NLL: 1.977, Val NLL: 1.897:   7%|▋         | 31/450 [01:24<18:58,  2.72s/it]Train NLL: 2.001, Val NLL: 1.967:   7%|▋         | 32/450 [01:27<18:58,  2.72s/it]Train NLL: 1.941, Val NLL: 1.743:   7%|▋         | 33/450 [01:30<19:04,  2.74s/it]Train NLL: 2.042, Val NLL: 1.911:   8%|▊         | 34/450 [01:33<19:28,  2.81s/it]Train NLL: 1.956, Val NLL: 2.188:   8%|▊         | 35/450 [01:36<19:29,  2.82s/it]Train NLL: 1.933, Val NLL: 2.080:   8%|▊         | 36/450 [01:39<19:41,  2.85s/it]Train NLL: 1.938, Val NLL: 1.856:   8%|▊         | 37/450 [01:42<19:37,  2.85s/it]Train NLL: 1.967, Val NLL: 2.228:   8%|▊         | 38/450 [01:44<19:22,  2.82s/it]Train NLL: 1.859, Val NLL: 1.774:   9%|▊         | 39/450 [01:47<19:05,  2.79s/it]Train NLL: 1.922, Val NLL: 1.835:   9%|▉         | 40/450 [01:50<18:50,  2.76s/it]Train NLL: 1.933, Val NLL: 1.683:   9%|▉         | 41/450 [01:52<18:41,  2.74s/it]Train NLL: 1.883, Val NLL: 1.838:   9%|▉         | 42/450 [01:55<18:34,  2.73s/it]Train NLL: 1.877, Val NLL: 1.758:  10%|▉         | 43/450 [01:58<18:29,  2.73s/it]Train NLL: 1.827, Val NLL: 1.706:  10%|▉         | 44/450 [02:01<18:44,  2.77s/it]Train NLL: 1.792, Val NLL: 1.986:  10%|█         | 45/450 [02:04<18:55,  2.80s/it]Train NLL: 1.867, Val NLL: 1.814:  10%|█         | 46/450 [02:07<19:37,  2.92s/it]Train NLL: 1.768, Val NLL: 1.825:  10%|█         | 47/450 [02:09<19:13,  2.86s/it]Train NLL: 1.835, Val NLL: 2.080:  11%|█         | 48/450 [02:12<18:55,  2.82s/it]Train NLL: 2.012, Val NLL: 1.765:  11%|█         | 49/450 [02:15<18:49,  2.82s/it]Train NLL: 1.831, Val NLL: 1.847:  11%|█         | 50/450 [02:18<19:13,  2.88s/it]Train NLL: 1.920, Val NLL: 2.045:  11%|█▏        | 51/450 [02:21<18:48,  2.83s/it]Train NLL: 1.752, Val NLL: 1.863:  12%|█▏        | 52/450 [02:23<18:30,  2.79s/it]Train NLL: 1.784, Val NLL: 1.733:  12%|█▏        | 53/450 [02:26<18:15,  2.76s/it]Train NLL: 1.775, Val NLL: 1.624:  12%|█▏        | 54/450 [02:29<18:05,  2.74s/it]Train NLL: 1.715, Val NLL: 2.093:  12%|█▏        | 55/450 [02:32<17:57,  2.73s/it]Train NLL: 1.943, Val NLL: 1.988:  12%|█▏        | 56/450 [02:34<17:51,  2.72s/it]Train NLL: 1.840, Val NLL: 1.845:  13%|█▎        | 57/450 [02:37<17:45,  2.71s/it]Train NLL: 1.842, Val NLL: 1.839:  13%|█▎        | 58/450 [02:40<17:40,  2.71s/it]Train NLL: 1.757, Val NLL: 1.729:  13%|█▎        | 59/450 [02:42<17:34,  2.70s/it]Train NLL: 1.802, Val NLL: 1.816:  13%|█▎        | 60/450 [02:45<17:32,  2.70s/it]Train NLL: 1.762, Val NLL: 1.655:  14%|█▎        | 61/450 [02:48<17:29,  2.70s/it]Train NLL: 1.755, Val NLL: 1.642:  14%|█▍        | 62/450 [02:50<17:26,  2.70s/it]Train NLL: 1.697, Val NLL: 2.027:  14%|█▍        | 63/450 [02:53<17:26,  2.70s/it]Train NLL: 1.778, Val NLL: 1.671:  14%|█▍        | 64/450 [02:56<17:25,  2.71s/it]Train NLL: 1.799, Val NLL: 1.718:  14%|█▍        | 65/450 [02:59<17:24,  2.71s/it]Train NLL: 1.779, Val NLL: 1.851:  15%|█▍        | 66/450 [03:01<17:22,  2.71s/it]Train NLL: 1.764, Val NLL: 1.613:  15%|█▍        | 67/450 [03:04<17:17,  2.71s/it]Train NLL: 1.794, Val NLL: 1.749:  15%|█▌        | 68/450 [03:07<17:13,  2.70s/it]Train NLL: 1.730, Val NLL: 1.681:  15%|█▌        | 69/450 [03:09<17:08,  2.70s/it]Train NLL: 1.713, Val NLL: 1.683:  16%|█▌        | 70/450 [03:12<17:06,  2.70s/it]Train NLL: 1.727, Val NLL: 1.696:  16%|█▌        | 71/450 [03:15<17:02,  2.70s/it]Train NLL: 1.820, Val NLL: 1.720:  16%|█▌        | 72/450 [03:18<17:07,  2.72s/it]Train NLL: 1.832, Val NLL: 1.956:  16%|█▌        | 73/450 [03:20<17:03,  2.71s/it]Train NLL: 1.773, Val NLL: 1.788:  16%|█▋        | 74/450 [03:23<16:57,  2.71s/it]Train NLL: 1.620, Val NLL: 1.587:  17%|█▋        | 75/450 [03:26<17:06,  2.74s/it]Train NLL: 1.779, Val NLL: 1.615:  17%|█▋        | 76/450 [03:29<17:14,  2.76s/it]Train NLL: 1.726, Val NLL: 1.744:  17%|█▋        | 77/450 [03:31<17:17,  2.78s/it]Train NLL: 1.701, Val NLL: 1.656:  17%|█▋        | 78/450 [03:34<17:29,  2.82s/it]Train NLL: 1.684, Val NLL: 1.819:  18%|█▊        | 79/450 [03:37<17:44,  2.87s/it]Train NLL: 1.745, Val NLL: 1.885:  18%|█▊        | 80/450 [03:40<17:56,  2.91s/it]Train NLL: 1.859, Val NLL: 1.713:  18%|█▊        | 81/450 [03:43<17:46,  2.89s/it]Train NLL: 1.785, Val NLL: 1.729:  18%|█▊        | 82/450 [03:46<17:30,  2.85s/it]Train NLL: 1.647, Val NLL: 1.670:  18%|█▊        | 83/450 [03:49<17:22,  2.84s/it]Train NLL: 1.702, Val NLL: 1.627:  19%|█▊        | 84/450 [03:52<17:19,  2.84s/it]Train NLL: 1.770, Val NLL: 1.570:  19%|█▉        | 85/450 [03:55<18:11,  2.99s/it]Train NLL: 1.730, Val NLL: 2.185:  19%|█▉        | 86/450 [03:58<17:45,  2.93s/it]Train NLL: 1.661, Val NLL: 1.529:  19%|█▉        | 87/450 [04:01<17:36,  2.91s/it]Train NLL: 1.650, Val NLL: 1.735:  20%|█▉        | 88/450 [04:03<17:31,  2.91s/it]Train NLL: 1.710, Val NLL: 1.566:  20%|█▉        | 89/450 [04:06<17:19,  2.88s/it]Train NLL: 1.653, Val NLL: 2.081:  20%|██        | 90/450 [04:09<17:22,  2.90s/it]Train NLL: 1.716, Val NLL: 1.809:  20%|██        | 91/450 [04:12<17:02,  2.85s/it]Train NLL: 1.693, Val NLL: 1.731:  20%|██        | 92/450 [04:15<16:51,  2.83s/it]Train NLL: 1.612, Val NLL: 1.704:  21%|██        | 93/450 [04:18<17:43,  2.98s/it]Train NLL: 1.693, Val NLL: 1.690:  21%|██        | 94/450 [04:21<17:37,  2.97s/it]Train NLL: 1.721, Val NLL: 1.592:  21%|██        | 95/450 [04:24<17:35,  2.97s/it]Train NLL: 1.682, Val NLL: 1.590:  21%|██▏       | 96/450 [04:27<16:58,  2.88s/it]Train NLL: 1.722, Val NLL: 1.711:  22%|██▏       | 97/450 [04:29<16:50,  2.86s/it]Train NLL: 1.725, Val NLL: 1.792:  22%|██▏       | 98/450 [04:32<16:48,  2.86s/it]Train NLL: 1.636, Val NLL: 1.628:  22%|██▏       | 99/450 [04:35<17:03,  2.92s/it]Train NLL: 1.689, Val NLL: 1.548:  22%|██▏       | 100/450 [04:38<16:53,  2.90s/it]Train NLL: 1.664, Val NLL: 1.569:  22%|██▏       | 101/450 [04:41<16:32,  2.84s/it]Train NLL: 1.657, Val NLL: 1.579:  23%|██▎       | 102/450 [04:44<16:29,  2.84s/it]Train NLL: 1.596, Val NLL: 1.588:  23%|██▎       | 103/450 [04:47<16:36,  2.87s/it]Train NLL: 1.662, Val NLL: 1.544:  23%|██▎       | 104/450 [04:49<16:12,  2.81s/it]Train NLL: 1.596, Val NLL: 1.585:  23%|██▎       | 105/450 [04:52<15:56,  2.77s/it]Train NLL: 1.771, Val NLL: 2.003:  24%|██▎       | 106/450 [04:55<15:55,  2.78s/it]Train NLL: 1.667, Val NLL: 1.582:  24%|██▍       | 107/450 [04:58<15:55,  2.79s/it]Train NLL: 1.621, Val NLL: 1.670:  24%|██▍       | 108/450 [05:00<15:59,  2.80s/it]Train NLL: 1.632, Val NLL: 1.686:  24%|██▍       | 109/450 [05:03<15:47,  2.78s/it]Train NLL: 1.662, Val NLL: 1.517:  24%|██▍       | 110/450 [05:06<15:33,  2.75s/it]Train NLL: 1.659, Val NLL: 1.713:  25%|██▍       | 111/450 [05:09<15:31,  2.75s/it]Train NLL: 1.657, Val NLL: 1.609:  25%|██▍       | 112/450 [05:11<15:30,  2.75s/it]Train NLL: 1.650, Val NLL: 1.707:  25%|██▌       | 113/450 [05:14<15:21,  2.73s/it]Train NLL: 1.723, Val NLL: 1.501:  25%|██▌       | 114/450 [05:17<15:18,  2.73s/it]Train NLL: 1.691, Val NLL: 1.658:  26%|██▌       | 115/450 [05:20<15:13,  2.73s/it]Train NLL: 1.697, Val NLL: 1.921:  26%|██▌       | 116/450 [05:23<15:35,  2.80s/it]Train NLL: 1.623, Val NLL: 1.781:  26%|██▌       | 117/450 [05:25<15:33,  2.80s/it]Train NLL: 1.617, Val NLL: 1.604:  26%|██▌       | 118/450 [05:28<15:29,  2.80s/it]Train NLL: 1.617, Val NLL: 1.660:  26%|██▋       | 119/450 [05:31<15:48,  2.87s/it]Train NLL: 1.627, Val NLL: 1.614:  27%|██▋       | 120/450 [05:34<15:31,  2.82s/it]Train NLL: 1.664, Val NLL: 1.822:  27%|██▋       | 121/450 [05:37<15:17,  2.79s/it]Train NLL: 1.681, Val NLL: 1.648:  27%|██▋       | 122/450 [05:39<15:05,  2.76s/it]Train NLL: 1.639, Val NLL: 1.746:  27%|██▋       | 123/450 [05:42<14:59,  2.75s/it]Epoch   124: reducing learning rate of group 0 to 1.0000e-03.
Train NLL: 1.738, Val NLL: 1.558:  28%|██▊       | 124/450 [05:45<15:01,  2.76s/it]Train NLL: 1.367, Val NLL: 1.412:  28%|██▊       | 125/450 [05:48<14:59,  2.77s/it]Train NLL: 1.348, Val NLL: 1.427:  28%|██▊       | 126/450 [05:51<15:15,  2.82s/it]Train NLL: 1.343, Val NLL: 1.432:  28%|██▊       | 127/450 [05:53<15:24,  2.86s/it]Train NLL: 1.340, Val NLL: 1.404:  28%|██▊       | 128/450 [05:56<15:19,  2.86s/it]Train NLL: 1.336, Val NLL: 1.413:  29%|██▊       | 129/450 [05:59<15:40,  2.93s/it]Train NLL: 1.343, Val NLL: 1.413:  29%|██▉       | 130/450 [06:02<15:33,  2.92s/it]Train NLL: 1.341, Val NLL: 1.403:  29%|██▉       | 131/450 [06:05<15:32,  2.92s/it]Train NLL: 1.345, Val NLL: 1.402:  29%|██▉       | 132/450 [06:08<15:17,  2.89s/it]Train NLL: 1.339, Val NLL: 1.407:  30%|██▉       | 133/450 [06:11<15:14,  2.88s/it]Train NLL: 1.336, Val NLL: 1.399:  30%|██▉       | 134/450 [06:14<14:57,  2.84s/it]Train NLL: 1.333, Val NLL: 1.416:  30%|███       | 135/450 [06:16<14:40,  2.80s/it]Train NLL: 1.346, Val NLL: 1.398:  30%|███       | 136/450 [06:19<14:27,  2.76s/it]Train NLL: 1.344, Val NLL: 1.404:  30%|███       | 137/450 [06:22<14:21,  2.75s/it]Train NLL: 1.332, Val NLL: 1.419:  31%|███       | 138/450 [06:25<14:49,  2.85s/it]Train NLL: 1.336, Val NLL: 1.416:  31%|███       | 139/450 [06:28<14:44,  2.84s/it]Train NLL: 1.336, Val NLL: 1.396:  31%|███       | 140/450 [06:31<14:53,  2.88s/it]Train NLL: 1.346, Val NLL: 1.397:  31%|███▏      | 141/450 [06:34<15:02,  2.92s/it]Train NLL: 1.340, Val NLL: 1.390:  32%|███▏      | 142/450 [06:37<15:27,  3.01s/it]Train NLL: 1.330, Val NLL: 1.405:  32%|███▏      | 143/450 [06:40<15:09,  2.96s/it]Train NLL: 1.337, Val NLL: 1.397:  32%|███▏      | 144/450 [06:43<14:59,  2.94s/it]Train NLL: 1.341, Val NLL: 1.388:  32%|███▏      | 145/450 [06:45<14:44,  2.90s/it]Train NLL: 1.338, Val NLL: 1.389:  32%|███▏      | 146/450 [06:48<14:19,  2.83s/it]Train NLL: 1.333, Val NLL: 1.412:  33%|███▎      | 147/450 [06:51<14:10,  2.81s/it]Train NLL: 1.344, Val NLL: 1.412:  33%|███▎      | 148/450 [06:53<13:55,  2.77s/it]Train NLL: 1.334, Val NLL: 1.428:  33%|███▎      | 149/450 [06:56<14:08,  2.82s/it]Train NLL: 1.331, Val NLL: 1.416:  33%|███▎      | 150/450 [07:00<14:38,  2.93s/it]Train NLL: 1.331, Val NLL: 1.393:  34%|███▎      | 151/450 [07:03<14:36,  2.93s/it]Train NLL: 1.347, Val NLL: 1.386:  34%|███▍      | 152/450 [07:05<14:16,  2.87s/it]Train NLL: 1.327, Val NLL: 1.393:  34%|███▍      | 153/450 [07:08<14:28,  2.93s/it]Train NLL: 1.346, Val NLL: 1.405:  34%|███▍      | 154/450 [07:11<14:43,  2.99s/it]Train NLL: 1.334, Val NLL: 1.388:  34%|███▍      | 155/450 [07:14<14:30,  2.95s/it]Train NLL: 1.331, Val NLL: 1.380:  35%|███▍      | 156/450 [07:17<14:33,  2.97s/it]Train NLL: 1.328, Val NLL: 1.389:  35%|███▍      | 157/450 [07:20<14:39,  3.00s/it]Train NLL: 1.337, Val NLL: 1.387:  35%|███▌      | 158/450 [07:23<14:17,  2.94s/it]Train NLL: 1.337, Val NLL: 1.393:  35%|███▌      | 159/450 [07:26<14:28,  2.99s/it]Train NLL: 1.334, Val NLL: 1.421:  36%|███▌      | 160/450 [07:29<14:25,  2.98s/it]Train NLL: 1.322, Val NLL: 1.379:  36%|███▌      | 161/450 [07:32<14:07,  2.93s/it]Train NLL: 1.339, Val NLL: 1.387:  36%|███▌      | 162/450 [07:35<13:45,  2.87s/it]Train NLL: 1.325, Val NLL: 1.399:  36%|███▌      | 163/450 [07:38<13:29,  2.82s/it]Train NLL: 1.332, Val NLL: 1.397:  36%|███▋      | 164/450 [07:40<13:16,  2.79s/it]Train NLL: 1.347, Val NLL: 1.404:  37%|███▋      | 165/450 [07:43<13:06,  2.76s/it]Train NLL: 1.333, Val NLL: 1.403:  37%|███▋      | 166/450 [07:46<12:57,  2.74s/it]Train NLL: 1.335, Val NLL: 1.407:  37%|███▋      | 167/450 [07:48<12:52,  2.73s/it]Train NLL: 1.339, Val NLL: 1.449:  37%|███▋      | 168/450 [07:51<12:48,  2.72s/it]Train NLL: 1.320, Val NLL: 1.391:  38%|███▊      | 169/450 [07:54<12:43,  2.72s/it]Train NLL: 1.330, Val NLL: 1.382:  38%|███▊      | 170/450 [07:56<12:39,  2.71s/it]Train NLL: 1.324, Val NLL: 1.403:  38%|███▊      | 171/450 [07:59<12:36,  2.71s/it]Train NLL: 1.334, Val NLL: 1.379:  38%|███▊      | 172/450 [08:02<12:33,  2.71s/it]Train NLL: 1.329, Val NLL: 1.395:  38%|███▊      | 173/450 [08:05<12:42,  2.75s/it]Train NLL: 1.332, Val NLL: 1.376:  39%|███▊      | 174/450 [08:07<12:39,  2.75s/it]Train NLL: 1.338, Val NLL: 1.399:  39%|███▉      | 175/450 [08:10<12:34,  2.74s/it]Train NLL: 1.314, Val NLL: 1.407:  39%|███▉      | 176/450 [08:13<12:26,  2.72s/it]Train NLL: 1.322, Val NLL: 1.380:  39%|███▉      | 177/450 [08:16<12:32,  2.76s/it]Train NLL: 1.331, Val NLL: 1.376:  40%|███▉      | 178/450 [08:18<12:30,  2.76s/it]Train NLL: 1.317, Val NLL: 1.415:  40%|███▉      | 179/450 [08:21<12:39,  2.80s/it]Train NLL: 1.327, Val NLL: 1.377:  40%|████      | 180/450 [08:24<12:55,  2.87s/it]Train NLL: 1.326, Val NLL: 1.371:  40%|████      | 181/450 [08:27<12:46,  2.85s/it]Train NLL: 1.319, Val NLL: 1.381:  40%|████      | 182/450 [08:30<12:40,  2.84s/it]Train NLL: 1.321, Val NLL: 1.388:  41%|████      | 183/450 [08:33<12:34,  2.83s/it]Train NLL: 1.325, Val NLL: 1.404:  41%|████      | 184/450 [08:36<12:37,  2.85s/it]Train NLL: 1.328, Val NLL: 1.381:  41%|████      | 185/450 [08:39<12:48,  2.90s/it]Train NLL: 1.328, Val NLL: 1.383:  41%|████▏     | 186/450 [08:42<12:48,  2.91s/it]Train NLL: 1.319, Val NLL: 1.397:  42%|████▏     | 187/450 [08:45<12:57,  2.96s/it]Train NLL: 1.314, Val NLL: 1.388:  42%|████▏     | 188/450 [08:48<12:51,  2.95s/it]Train NLL: 1.309, Val NLL: 1.421:  42%|████▏     | 189/450 [08:50<12:28,  2.87s/it]Train NLL: 1.328, Val NLL: 1.390:  42%|████▏     | 190/450 [08:53<12:13,  2.82s/it]Train NLL: 1.328, Val NLL: 1.414:  42%|████▏     | 191/450 [08:56<11:59,  2.78s/it]Train NLL: 1.336, Val NLL: 1.397:  43%|████▎     | 192/450 [08:59<12:09,  2.83s/it]Train NLL: 1.313, Val NLL: 1.365:  43%|████▎     | 193/450 [09:02<12:21,  2.89s/it]Train NLL: 1.315, Val NLL: 1.373:  43%|████▎     | 194/450 [09:05<12:20,  2.89s/it]Train NLL: 1.303, Val NLL: 1.366:  43%|████▎     | 195/450 [09:08<12:18,  2.90s/it]Train NLL: 1.328, Val NLL: 1.417:  44%|████▎     | 196/450 [09:10<12:19,  2.91s/it]Train NLL: 1.317, Val NLL: 1.398:  44%|████▍     | 197/450 [09:13<12:20,  2.93s/it]Train NLL: 1.317, Val NLL: 1.375:  44%|████▍     | 198/450 [09:16<12:06,  2.88s/it]Train NLL: 1.332, Val NLL: 1.389:  44%|████▍     | 199/450 [09:19<12:11,  2.91s/it]Train NLL: 1.333, Val NLL: 1.378:  44%|████▍     | 200/450 [09:22<12:01,  2.89s/it]Train NLL: 1.324, Val NLL: 1.393:  45%|████▍     | 201/450 [09:25<11:53,  2.86s/it]Train NLL: 1.316, Val NLL: 1.356:  45%|████▍     | 202/450 [09:28<11:43,  2.84s/it]Train NLL: 1.324, Val NLL: 1.364:  45%|████▌     | 203/450 [09:30<11:30,  2.80s/it]Train NLL: 1.319, Val NLL: 1.354:  45%|████▌     | 204/450 [09:33<11:20,  2.77s/it]Train NLL: 1.314, Val NLL: 1.399:  46%|████▌     | 205/450 [09:36<11:12,  2.75s/it]Train NLL: 1.305, Val NLL: 1.375:  46%|████▌     | 206/450 [09:38<11:04,  2.72s/it]Train NLL: 1.312, Val NLL: 1.388:  46%|████▌     | 207/450 [09:41<11:01,  2.72s/it]Train NLL: 1.299, Val NLL: 1.360:  46%|████▌     | 208/450 [09:44<11:06,  2.75s/it]Train NLL: 1.316, Val NLL: 1.362:  46%|████▋     | 209/450 [09:47<10:55,  2.72s/it]Train NLL: 1.307, Val NLL: 1.367:  47%|████▋     | 210/450 [09:49<10:50,  2.71s/it]Train NLL: 1.321, Val NLL: 1.370:  47%|████▋     | 211/450 [09:52<10:44,  2.70s/it]Train NLL: 1.313, Val NLL: 1.370:  47%|████▋     | 212/450 [09:55<10:45,  2.71s/it]Train NLL: 1.312, Val NLL: 1.377:  47%|████▋     | 213/450 [09:57<10:48,  2.74s/it]Train NLL: 1.320, Val NLL: 1.392:  48%|████▊     | 214/450 [10:00<10:44,  2.73s/it]Train NLL: 1.300, Val NLL: 1.378:  48%|████▊     | 215/450 [10:03<10:37,  2.71s/it]Train NLL: 1.302, Val NLL: 1.360:  48%|████▊     | 216/450 [10:06<10:46,  2.76s/it]Train NLL: 1.300, Val NLL: 1.398:  48%|████▊     | 217/450 [10:08<10:42,  2.76s/it]Train NLL: 1.326, Val NLL: 1.371:  48%|████▊     | 218/450 [10:11<10:34,  2.74s/it]Train NLL: 1.309, Val NLL: 1.359:  49%|████▊     | 219/450 [10:14<10:29,  2.72s/it]Train NLL: 1.306, Val NLL: 1.364:  49%|████▉     | 220/450 [10:16<10:22,  2.71s/it]Train NLL: 1.305, Val NLL: 1.412:  49%|████▉     | 221/450 [10:19<10:21,  2.72s/it]Train NLL: 1.318, Val NLL: 1.393:  49%|████▉     | 222/450 [10:22<10:25,  2.74s/it]Train NLL: 1.308, Val NLL: 1.383:  50%|████▉     | 223/450 [10:25<10:31,  2.78s/it]Train NLL: 1.313, Val NLL: 1.357:  50%|████▉     | 224/450 [10:28<10:44,  2.85s/it]Train NLL: 1.312, Val NLL: 1.412:  50%|█████     | 225/450 [10:31<11:04,  2.95s/it]Train NLL: 1.305, Val NLL: 1.384:  50%|█████     | 226/450 [10:34<11:08,  2.98s/it]Train NLL: 1.308, Val NLL: 1.360:  50%|█████     | 227/450 [10:37<10:53,  2.93s/it]Train NLL: 1.317, Val NLL: 1.373:  51%|█████     | 228/450 [10:40<10:43,  2.90s/it]Epoch   229: reducing learning rate of group 0 to 1.0000e-04.
Train NLL: 1.309, Val NLL: 1.354:  51%|█████     | 229/450 [10:43<10:27,  2.84s/it]Train NLL: 1.264, Val NLL: 1.341:  51%|█████     | 230/450 [10:45<10:26,  2.85s/it]Train NLL: 1.263, Val NLL: 1.339:  51%|█████▏    | 231/450 [10:48<10:13,  2.80s/it]Train NLL: 1.263, Val NLL: 1.336:  52%|█████▏    | 232/450 [10:51<10:07,  2.79s/it]Train NLL: 1.263, Val NLL: 1.337:  52%|█████▏    | 233/450 [10:54<10:06,  2.79s/it]Train NLL: 1.262, Val NLL: 1.336:  52%|█████▏    | 234/450 [10:57<10:14,  2.85s/it]Train NLL: 1.262, Val NLL: 1.336:  52%|█████▏    | 235/450 [10:59<10:03,  2.81s/it]Train NLL: 1.262, Val NLL: 1.344:  52%|█████▏    | 236/450 [11:02<09:54,  2.78s/it]Train NLL: 1.262, Val NLL: 1.340:  53%|█████▎    | 237/450 [11:05<09:46,  2.75s/it]Train NLL: 1.261, Val NLL: 1.342:  53%|█████▎    | 238/450 [11:07<09:39,  2.74s/it]Train NLL: 1.262, Val NLL: 1.335:  53%|█████▎    | 239/450 [11:10<09:34,  2.72s/it]Train NLL: 1.263, Val NLL: 1.339:  53%|█████▎    | 240/450 [11:13<09:33,  2.73s/it]Train NLL: 1.261, Val NLL: 1.340:  54%|█████▎    | 241/450 [11:16<09:35,  2.75s/it]Train NLL: 1.262, Val NLL: 1.338:  54%|█████▍    | 242/450 [11:18<09:28,  2.73s/it]Train NLL: 1.262, Val NLL: 1.339:  54%|█████▍    | 243/450 [11:21<09:24,  2.73s/it]Train NLL: 1.262, Val NLL: 1.337:  54%|█████▍    | 244/450 [11:24<09:18,  2.71s/it]Train NLL: 1.262, Val NLL: 1.338:  54%|█████▍    | 245/450 [11:26<09:13,  2.70s/it]Train NLL: 1.260, Val NLL: 1.335:  55%|█████▍    | 246/450 [11:29<09:09,  2.69s/it]Train NLL: 1.260, Val NLL: 1.338:  55%|█████▍    | 247/450 [11:32<09:09,  2.71s/it]Train NLL: 1.261, Val NLL: 1.335:  55%|█████▌    | 248/450 [11:35<09:09,  2.72s/it]Train NLL: 1.263, Val NLL: 1.337:  55%|█████▌    | 249/450 [11:37<09:10,  2.74s/it]Train NLL: 1.262, Val NLL: 1.337:  56%|█████▌    | 250/450 [11:40<09:13,  2.77s/it]Train NLL: 1.262, Val NLL: 1.332:  56%|█████▌    | 251/450 [11:43<09:12,  2.78s/it]Train NLL: 1.262, Val NLL: 1.336:  56%|█████▌    | 252/450 [11:46<09:16,  2.81s/it]Train NLL: 1.263, Val NLL: 1.342:  56%|█████▌    | 253/450 [11:49<09:22,  2.86s/it]Train NLL: 1.262, Val NLL: 1.333:  56%|█████▋    | 254/450 [11:52<09:21,  2.86s/it]Train NLL: 1.261, Val NLL: 1.340:  57%|█████▋    | 255/450 [11:55<09:13,  2.84s/it]Train NLL: 1.262, Val NLL: 1.336:  57%|█████▋    | 256/450 [11:57<09:05,  2.81s/it]Train NLL: 1.260, Val NLL: 1.338:  57%|█████▋    | 257/450 [12:00<09:03,  2.82s/it]Train NLL: 1.261, Val NLL: 1.339:  57%|█████▋    | 258/450 [12:03<09:03,  2.83s/it]Train NLL: 1.261, Val NLL: 1.340:  58%|█████▊    | 259/450 [12:06<09:06,  2.86s/it]Train NLL: 1.261, Val NLL: 1.338:  58%|█████▊    | 260/450 [12:09<09:05,  2.87s/it]Train NLL: 1.261, Val NLL: 1.338:  58%|█████▊    | 261/450 [12:12<09:05,  2.89s/it]Train NLL: 1.262, Val NLL: 1.337:  58%|█████▊    | 262/450 [12:15<08:59,  2.87s/it]Train NLL: 1.262, Val NLL: 1.336:  58%|█████▊    | 263/450 [12:18<09:10,  2.95s/it]Train NLL: 1.260, Val NLL: 1.337:  59%|█████▊    | 264/450 [12:21<09:25,  3.04s/it]Train NLL: 1.263, Val NLL: 1.335:  59%|█████▉    | 265/450 [12:24<09:05,  2.95s/it]Train NLL: 1.261, Val NLL: 1.340:  59%|█████▉    | 266/450 [12:26<08:54,  2.91s/it]Train NLL: 1.260, Val NLL: 1.335:  59%|█████▉    | 267/450 [12:29<08:42,  2.85s/it]Train NLL: 1.262, Val NLL: 1.343:  60%|█████▉    | 268/450 [12:32<08:31,  2.81s/it]Train NLL: 1.264, Val NLL: 1.335:  60%|█████▉    | 269/450 [12:35<08:23,  2.78s/it]Train NLL: 1.260, Val NLL: 1.331:  60%|██████    | 270/450 [12:37<08:15,  2.75s/it]Train NLL: 1.261, Val NLL: 1.335:  60%|██████    | 271/450 [12:40<08:16,  2.77s/it]Train NLL: 1.263, Val NLL: 1.335:  60%|██████    | 272/450 [12:43<08:17,  2.80s/it]Train NLL: 1.261, Val NLL: 1.336:  61%|██████    | 273/450 [12:46<08:13,  2.79s/it]Train NLL: 1.260, Val NLL: 1.343:  61%|██████    | 274/450 [12:48<08:08,  2.78s/it]Train NLL: 1.260, Val NLL: 1.335:  61%|██████    | 275/450 [12:51<08:14,  2.82s/it]Train NLL: 1.263, Val NLL: 1.336:  61%|██████▏   | 276/450 [12:55<08:25,  2.91s/it]Train NLL: 1.260, Val NLL: 1.334:  62%|██████▏   | 277/450 [12:57<08:23,  2.91s/it]Train NLL: 1.260, Val NLL: 1.332:  62%|██████▏   | 278/450 [13:00<08:25,  2.94s/it]Train NLL: 1.259, Val NLL: 1.336:  62%|██████▏   | 279/450 [13:03<08:18,  2.91s/it]Train NLL: 1.261, Val NLL: 1.337:  62%|██████▏   | 280/450 [13:06<08:10,  2.89s/it]Train NLL: 1.263, Val NLL: 1.334:  62%|██████▏   | 281/450 [13:09<08:13,  2.92s/it]Train NLL: 1.260, Val NLL: 1.334:  63%|██████▎   | 282/450 [13:12<08:11,  2.92s/it]Train NLL: 1.260, Val NLL: 1.339:  63%|██████▎   | 283/450 [13:15<08:09,  2.93s/it]Train NLL: 1.262, Val NLL: 1.332:  63%|██████▎   | 284/450 [13:18<08:21,  3.02s/it]Train NLL: 1.260, Val NLL: 1.333:  63%|██████▎   | 285/450 [13:21<08:14,  3.00s/it]Train NLL: 1.260, Val NLL: 1.333:  64%|██████▎   | 286/450 [13:24<07:57,  2.91s/it]Train NLL: 1.259, Val NLL: 1.335:  64%|██████▍   | 287/450 [13:27<07:44,  2.85s/it]Train NLL: 1.260, Val NLL: 1.337:  64%|██████▍   | 288/450 [13:29<07:33,  2.80s/it]Train NLL: 1.260, Val NLL: 1.336:  64%|██████▍   | 289/450 [13:32<07:25,  2.77s/it]Train NLL: 1.260, Val NLL: 1.334:  64%|██████▍   | 290/450 [13:35<07:19,  2.75s/it]Train NLL: 1.261, Val NLL: 1.333:  65%|██████▍   | 291/450 [13:37<07:14,  2.73s/it]Train NLL: 1.260, Val NLL: 1.340:  65%|██████▍   | 292/450 [13:40<07:10,  2.72s/it]Train NLL: 1.259, Val NLL: 1.333:  65%|██████▌   | 293/450 [13:43<07:06,  2.71s/it]Train NLL: 1.258, Val NLL: 1.332:  65%|██████▌   | 294/450 [13:45<07:02,  2.71s/it]Train NLL: 1.258, Val NLL: 1.341:  66%|██████▌   | 295/450 [13:48<06:57,  2.69s/it]Train NLL: 1.259, Val NLL: 1.337:  66%|██████▌   | 296/450 [13:51<06:52,  2.68s/it]Train NLL: 1.260, Val NLL: 1.333:  66%|██████▌   | 297/450 [13:53<06:49,  2.67s/it]Train NLL: 1.260, Val NLL: 1.331:  66%|██████▌   | 298/450 [13:56<06:45,  2.67s/it]Train NLL: 1.259, Val NLL: 1.335:  66%|██████▋   | 299/450 [13:59<06:42,  2.66s/it]Train NLL: 1.260, Val NLL: 1.344:  67%|██████▋   | 300/450 [14:01<06:38,  2.66s/it]Train NLL: 1.261, Val NLL: 1.331:  67%|██████▋   | 301/450 [14:04<06:35,  2.66s/it]Train NLL: 1.258, Val NLL: 1.331:  67%|██████▋   | 302/450 [14:07<06:33,  2.66s/it]Train NLL: 1.258, Val NLL: 1.342:  67%|██████▋   | 303/450 [14:09<06:34,  2.68s/it]Train NLL: 1.260, Val NLL: 1.335:  68%|██████▊   | 304/450 [14:12<06:30,  2.68s/it]Train NLL: 1.261, Val NLL: 1.332:  68%|██████▊   | 305/450 [14:15<06:26,  2.67s/it]Train NLL: 1.259, Val NLL: 1.346:  68%|██████▊   | 306/450 [14:17<06:28,  2.70s/it]Train NLL: 1.260, Val NLL: 1.330:  68%|██████▊   | 307/450 [14:20<06:22,  2.68s/it]Train NLL: 1.259, Val NLL: 1.337:  68%|██████▊   | 308/450 [14:23<06:20,  2.68s/it]Train NLL: 1.258, Val NLL: 1.331:  69%|██████▊   | 309/450 [14:25<06:16,  2.67s/it]Train NLL: 1.260, Val NLL: 1.330:  69%|██████▉   | 310/450 [14:28<06:14,  2.68s/it]Train NLL: 1.259, Val NLL: 1.332:  69%|██████▉   | 311/450 [14:31<06:12,  2.68s/it]Train NLL: 1.259, Val NLL: 1.332:  69%|██████▉   | 312/450 [14:34<06:09,  2.68s/it]Train NLL: 1.259, Val NLL: 1.330:  70%|██████▉   | 313/450 [14:36<06:05,  2.67s/it]Train NLL: 1.259, Val NLL: 1.331:  70%|██████▉   | 314/450 [14:39<06:01,  2.66s/it]Train NLL: 1.257, Val NLL: 1.331:  70%|███████   | 315/450 [14:41<05:58,  2.66s/it]Train NLL: 1.260, Val NLL: 1.339:  70%|███████   | 316/450 [14:44<05:55,  2.65s/it]Train NLL: 1.259, Val NLL: 1.337:  70%|███████   | 317/450 [14:47<05:52,  2.65s/it]Train NLL: 1.260, Val NLL: 1.330:  71%|███████   | 318/450 [14:49<05:49,  2.65s/it]Train NLL: 1.259, Val NLL: 1.333:  71%|███████   | 319/450 [14:52<05:46,  2.65s/it]Train NLL: 1.258, Val NLL: 1.332:  71%|███████   | 320/450 [14:55<05:44,  2.65s/it]Train NLL: 1.259, Val NLL: 1.338:  71%|███████▏  | 321/450 [14:57<05:43,  2.66s/it]Train NLL: 1.260, Val NLL: 1.329:  72%|███████▏  | 322/450 [15:00<05:41,  2.67s/it]Train NLL: 1.259, Val NLL: 1.330:  72%|███████▏  | 323/450 [15:03<05:39,  2.67s/it]Train NLL: 1.260, Val NLL: 1.330:  72%|███████▏  | 324/450 [15:06<05:44,  2.73s/it]Train NLL: 1.257, Val NLL: 1.332:  72%|███████▏  | 325/450 [15:08<05:39,  2.71s/it]Train NLL: 1.259, Val NLL: 1.336:  72%|███████▏  | 326/450 [15:11<05:34,  2.70s/it]Train NLL: 1.258, Val NLL: 1.336:  73%|███████▎  | 327/450 [15:14<05:30,  2.68s/it]Train NLL: 1.260, Val NLL: 1.332:  73%|███████▎  | 328/450 [15:16<05:29,  2.70s/it]Train NLL: 1.260, Val NLL: 1.332:  73%|███████▎  | 329/450 [15:19<05:25,  2.69s/it]Train NLL: 1.258, Val NLL: 1.328:  73%|███████▎  | 330/450 [15:22<05:22,  2.69s/it]Train NLL: 1.258, Val NLL: 1.332:  74%|███████▎  | 331/450 [15:24<05:20,  2.70s/it]Train NLL: 1.258, Val NLL: 1.331:  74%|███████▍  | 332/450 [15:27<05:17,  2.69s/it]Train NLL: 1.259, Val NLL: 1.332:  74%|███████▍  | 333/450 [15:30<05:13,  2.68s/it]Train NLL: 1.257, Val NLL: 1.333:  74%|███████▍  | 334/450 [15:32<05:09,  2.67s/it]Train NLL: 1.258, Val NLL: 1.330:  74%|███████▍  | 335/450 [15:35<05:06,  2.67s/it]Epoch   336: reducing learning rate of group 0 to 1.0000e-05.
Train NLL: 1.258, Val NLL: 1.329:  75%|███████▍  | 336/450 [15:38<05:12,  2.74s/it]Train NLL: 1.253, Val NLL: 1.327:  75%|███████▍  | 337/450 [15:41<05:08,  2.73s/it]Train NLL: 1.252, Val NLL: 1.327:  75%|███████▌  | 338/450 [15:43<05:02,  2.70s/it]Train NLL: 1.252, Val NLL: 1.328:  75%|███████▌  | 339/450 [15:46<04:58,  2.69s/it]Train NLL: 1.252, Val NLL: 1.328:  76%|███████▌  | 340/450 [15:49<04:54,  2.67s/it]Train NLL: 1.252, Val NLL: 1.327:  76%|███████▌  | 341/450 [15:51<04:51,  2.67s/it]Train NLL: 1.251, Val NLL: 1.327:  76%|███████▌  | 342/450 [15:54<04:50,  2.69s/it]Train NLL: 1.252, Val NLL: 1.327:  76%|███████▌  | 343/450 [15:57<04:46,  2.68s/it]Train NLL: 1.252, Val NLL: 1.327:  76%|███████▋  | 344/450 [15:59<04:47,  2.71s/it]Train NLL: 1.252, Val NLL: 1.329:  77%|███████▋  | 345/450 [16:02<04:44,  2.71s/it]Train NLL: 1.252, Val NLL: 1.327:  77%|███████▋  | 346/450 [16:05<04:40,  2.69s/it]Train NLL: 1.252, Val NLL: 1.327:  77%|███████▋  | 347/450 [16:07<04:35,  2.68s/it]Train NLL: 1.251, Val NLL: 1.328:  77%|███████▋  | 348/450 [16:10<04:32,  2.67s/it]Train NLL: 1.252, Val NLL: 1.327:  78%|███████▊  | 349/450 [16:13<04:30,  2.67s/it]Train NLL: 1.252, Val NLL: 1.327:  78%|███████▊  | 350/450 [16:15<04:26,  2.67s/it]Train NLL: 1.252, Val NLL: 1.327:  78%|███████▊  | 351/450 [16:18<04:23,  2.66s/it]Train NLL: 1.251, Val NLL: 1.328:  78%|███████▊  | 352/450 [16:21<04:21,  2.67s/it]Train NLL: 1.252, Val NLL: 1.327:  78%|███████▊  | 353/450 [16:23<04:18,  2.66s/it]Train NLL: 1.252, Val NLL: 1.327:  79%|███████▊  | 354/450 [16:26<04:16,  2.67s/it]Train NLL: 1.251, Val NLL: 1.327:  79%|███████▉  | 355/450 [16:29<04:13,  2.67s/it]Train NLL: 1.252, Val NLL: 1.327:  79%|███████▉  | 356/450 [16:31<04:12,  2.68s/it]Train NLL: 1.251, Val NLL: 1.327:  79%|███████▉  | 357/450 [16:34<04:09,  2.68s/it]Train NLL: 1.251, Val NLL: 1.327:  80%|███████▉  | 358/450 [16:37<04:07,  2.69s/it]Train NLL: 1.251, Val NLL: 1.327:  80%|███████▉  | 359/450 [16:40<04:03,  2.68s/it]Train NLL: 1.251, Val NLL: 1.327:  80%|████████  | 360/450 [16:42<04:00,  2.67s/it]Train NLL: 1.251, Val NLL: 1.327:  80%|████████  | 361/450 [16:45<03:56,  2.66s/it]Train NLL: 1.251, Val NLL: 1.328:  80%|████████  | 362/450 [16:47<03:53,  2.66s/it]Train NLL: 1.251, Val NLL: 1.327:  81%|████████  | 363/450 [16:50<03:50,  2.65s/it]Train NLL: 1.251, Val NLL: 1.327:  81%|████████  | 364/450 [16:53<03:47,  2.65s/it]Train NLL: 1.251, Val NLL: 1.327:  81%|████████  | 365/450 [16:55<03:44,  2.65s/it]Train NLL: 1.251, Val NLL: 1.327:  81%|████████▏ | 366/450 [16:58<03:42,  2.64s/it]Train NLL: 1.251, Val NLL: 1.327:  82%|████████▏ | 367/450 [17:01<03:40,  2.65s/it]Train NLL: 1.251, Val NLL: 1.327:  82%|████████▏ | 368/450 [17:03<03:37,  2.65s/it]Train NLL: 1.251, Val NLL: 1.327:  82%|████████▏ | 369/450 [17:06<03:34,  2.65s/it]Train NLL: 1.251, Val NLL: 1.327:  82%|████████▏ | 370/450 [17:09<03:32,  2.65s/it]Train NLL: 1.251, Val NLL: 1.327:  82%|████████▏ | 371/450 [17:11<03:29,  2.65s/it]Train NLL: 1.251, Val NLL: 1.327:  83%|████████▎ | 372/450 [17:14<03:26,  2.65s/it]Train NLL: 1.251, Val NLL: 1.327:  83%|████████▎ | 373/450 [17:17<03:23,  2.65s/it]Train NLL: 1.251, Val NLL: 1.328:  83%|████████▎ | 374/450 [17:19<03:21,  2.65s/it]Train NLL: 1.251, Val NLL: 1.327:  83%|████████▎ | 375/450 [17:22<03:18,  2.65s/it]Train NLL: 1.251, Val NLL: 1.327:  84%|████████▎ | 376/450 [17:25<03:15,  2.65s/it]Train NLL: 1.251, Val NLL: 1.327:  84%|████████▍ | 377/450 [17:27<03:13,  2.65s/it]Train NLL: 1.251, Val NLL: 1.328:  84%|████████▍ | 378/450 [17:30<03:10,  2.65s/it]Train NLL: 1.251, Val NLL: 1.327:  84%|████████▍ | 379/450 [17:33<03:09,  2.66s/it]Train NLL: 1.251, Val NLL: 1.327:  84%|████████▍ | 380/450 [17:35<03:06,  2.66s/it]Train NLL: 1.252, Val NLL: 1.327:  85%|████████▍ | 381/450 [17:38<03:03,  2.67s/it]Train NLL: 1.251, Val NLL: 1.327:  85%|████████▍ | 382/450 [17:41<03:02,  2.68s/it]Epoch   383: reducing learning rate of group 0 to 1.0000e-06.
Train NLL: 1.251, Val NLL: 1.327:  85%|████████▌ | 383/450 [17:43<02:59,  2.68s/it]Train NLL: 1.251, Val NLL: 1.327:  85%|████████▌ | 384/450 [17:46<02:57,  2.69s/it]Train NLL: 1.251, Val NLL: 1.327:  86%|████████▌ | 385/450 [17:49<02:58,  2.75s/it]Train NLL: 1.251, Val NLL: 1.327:  86%|████████▌ | 386/450 [17:52<02:55,  2.74s/it]Train NLL: 1.251, Val NLL: 1.327:  86%|████████▌ | 387/450 [17:54<02:50,  2.71s/it]Train NLL: 1.251, Val NLL: 1.327:  86%|████████▌ | 388/450 [17:57<02:48,  2.71s/it]Train NLL: 1.251, Val NLL: 1.327:  86%|████████▋ | 389/450 [18:00<02:44,  2.69s/it]Train NLL: 1.251, Val NLL: 1.327:  87%|████████▋ | 390/450 [18:02<02:44,  2.74s/it]Train NLL: 1.251, Val NLL: 1.327:  87%|████████▋ | 391/450 [18:05<02:40,  2.72s/it]Train NLL: 1.251, Val NLL: 1.327:  87%|████████▋ | 392/450 [18:08<02:36,  2.70s/it]Train NLL: 1.251, Val NLL: 1.327:  87%|████████▋ | 393/450 [18:10<02:34,  2.71s/it]Train NLL: 1.251, Val NLL: 1.327:  88%|████████▊ | 394/450 [18:13<02:32,  2.73s/it]Train NLL: 1.251, Val NLL: 1.327:  88%|████████▊ | 395/450 [18:16<02:31,  2.75s/it]Train NLL: 1.251, Val NLL: 1.327:  88%|████████▊ | 396/450 [18:19<02:30,  2.78s/it]Train NLL: 1.251, Val NLL: 1.327:  88%|████████▊ | 397/450 [18:22<02:27,  2.78s/it]Train NLL: 1.251, Val NLL: 1.327:  88%|████████▊ | 398/450 [18:25<02:27,  2.84s/it]Train NLL: 1.251, Val NLL: 1.327:  89%|████████▊ | 399/450 [18:28<02:27,  2.89s/it]Train NLL: 1.251, Val NLL: 1.327:  89%|████████▉ | 400/450 [18:31<02:23,  2.87s/it]Train NLL: 1.251, Val NLL: 1.327:  89%|████████▉ | 401/450 [18:33<02:18,  2.82s/it]Train NLL: 1.251, Val NLL: 1.327:  89%|████████▉ | 402/450 [18:36<02:14,  2.79s/it]Train NLL: 1.251, Val NLL: 1.327:  90%|████████▉ | 403/450 [18:39<02:10,  2.78s/it]Train NLL: 1.251, Val NLL: 1.327:  90%|████████▉ | 404/450 [18:42<02:10,  2.83s/it]Train NLL: 1.251, Val NLL: 1.327:  90%|█████████ | 405/450 [18:45<02:09,  2.89s/it]Train NLL: 1.251, Val NLL: 1.327:  90%|█████████ | 406/450 [18:47<02:05,  2.86s/it]Train NLL: 1.251, Val NLL: 1.327:  90%|█████████ | 407/450 [18:50<02:01,  2.84s/it]Train NLL: 1.251, Val NLL: 1.327:  91%|█████████ | 408/450 [18:53<01:59,  2.83s/it]Train NLL: 1.251, Val NLL: 1.327:  91%|█████████ | 409/450 [18:56<01:57,  2.87s/it]Train NLL: 1.251, Val NLL: 1.327:  91%|█████████ | 410/450 [18:59<01:55,  2.90s/it]Train NLL: 1.251, Val NLL: 1.327:  91%|█████████▏| 411/450 [19:02<01:52,  2.88s/it]Train NLL: 1.251, Val NLL: 1.327:  92%|█████████▏| 412/450 [19:05<01:50,  2.92s/it]Train NLL: 1.251, Val NLL: 1.327:  92%|█████████▏| 413/450 [19:08<01:48,  2.93s/it]Train NLL: 1.251, Val NLL: 1.327:  92%|█████████▏| 414/450 [19:11<01:43,  2.89s/it]Train NLL: 1.251, Val NLL: 1.327:  92%|█████████▏| 415/450 [19:14<01:43,  2.96s/it]Train NLL: 1.251, Val NLL: 1.327:  92%|█████████▏| 416/450 [19:17<01:41,  2.98s/it]Train NLL: 1.251, Val NLL: 1.327:  93%|█████████▎| 417/450 [19:20<01:36,  2.93s/it]Train NLL: 1.251, Val NLL: 1.327:  93%|█████████▎| 418/450 [19:23<01:35,  2.97s/it]Train NLL: 1.251, Val NLL: 1.327:  93%|█████████▎| 419/450 [19:25<01:29,  2.89s/it]Train NLL: 1.251, Val NLL: 1.327:  93%|█████████▎| 420/450 [19:28<01:25,  2.84s/it]Train NLL: 1.251, Val NLL: 1.327:  94%|█████████▎| 421/450 [19:31<01:21,  2.80s/it]Train NLL: 1.251, Val NLL: 1.327:  94%|█████████▍| 422/450 [19:33<01:17,  2.76s/it]Train NLL: 1.251, Val NLL: 1.327:  94%|█████████▍| 423/450 [19:36<01:14,  2.76s/it]Train NLL: 1.251, Val NLL: 1.327:  94%|█████████▍| 424/450 [19:39<01:11,  2.74s/it]Train NLL: 1.251, Val NLL: 1.327:  94%|█████████▍| 425/450 [19:42<01:07,  2.72s/it]Train NLL: 1.251, Val NLL: 1.327:  95%|█████████▍| 426/450 [19:44<01:05,  2.72s/it]Train NLL: 1.250, Val NLL: 1.327:  95%|█████████▍| 427/450 [19:47<01:02,  2.73s/it]Train NLL: 1.250, Val NLL: 1.327:  95%|█████████▌| 428/450 [19:50<00:59,  2.71s/it]Train NLL: 1.250, Val NLL: 1.327:  95%|█████████▌| 429/450 [19:52<00:56,  2.70s/it]Train NLL: 1.251, Val NLL: 1.327:  96%|█████████▌| 430/450 [19:55<00:53,  2.69s/it]Train NLL: 1.250, Val NLL: 1.327:  96%|█████████▌| 431/450 [19:58<00:50,  2.68s/it]Train NLL: 1.250, Val NLL: 1.327:  96%|█████████▌| 432/450 [20:00<00:48,  2.68s/it]Train NLL: 1.251, Val NLL: 1.327:  96%|█████████▌| 433/450 [20:03<00:45,  2.68s/it]Train NLL: 1.250, Val NLL: 1.327:  96%|█████████▋| 434/450 [20:06<00:43,  2.70s/it]Train NLL: 1.250, Val NLL: 1.327:  97%|█████████▋| 435/450 [20:08<00:40,  2.69s/it]Train NLL: 1.250, Val NLL: 1.327:  97%|█████████▋| 436/450 [20:11<00:37,  2.69s/it]Train NLL: 1.250, Val NLL: 1.327:  97%|█████████▋| 437/450 [20:14<00:35,  2.70s/it]Train NLL: 1.250, Val NLL: 1.327:  97%|█████████▋| 438/450 [20:17<00:32,  2.69s/it]Train NLL: 1.250, Val NLL: 1.327:  98%|█████████▊| 439/450 [20:19<00:29,  2.68s/it]Train NLL: 1.250, Val NLL: 1.327:  98%|█████████▊| 440/450 [20:22<00:26,  2.68s/it]Train NLL: 1.250, Val NLL: 1.327:  98%|█████████▊| 441/450 [20:25<00:24,  2.67s/it]Train NLL: 1.250, Val NLL: 1.327:  98%|█████████▊| 442/450 [20:27<00:21,  2.70s/it]Train NLL: 1.250, Val NLL: 1.327:  98%|█████████▊| 443/450 [20:30<00:18,  2.69s/it]Train NLL: 1.250, Val NLL: 1.327:  99%|█████████▊| 444/450 [20:33<00:16,  2.69s/it]Train NLL: 1.250, Val NLL: 1.327:  99%|█████████▉| 445/450 [20:35<00:13,  2.68s/it]Train NLL: 1.250, Val NLL: 1.327:  99%|█████████▉| 446/450 [20:38<00:10,  2.67s/it]Train NLL: 1.250, Val NLL: 1.327:  99%|█████████▉| 447/450 [20:41<00:08,  2.68s/it]Train NLL: 1.250, Val NLL: 1.327: 100%|█████████▉| 448/450 [20:43<00:05,  2.68s/it]Train NLL: 1.250, Val NLL: 1.327: 100%|█████████▉| 449/450 [20:46<00:02,  2.70s/it]Train NLL: 1.250, Val NLL: 1.327: 100%|██████████| 450/450 [20:49<00:00,  2.70s/it]Train NLL: 1.250, Val NLL: 1.327: 100%|██████████| 450/450 [20:49<00:00,  2.78s/it]
INFO - residual_nf - Completed after 0:20:50
