{
  "memory.usage": {
    "steps": [
      0,
      1,
      2,
      3,
      4,
      5,
      6,
      7,
      8,
      9,
      10,
      11,
      12,
      13,
      14,
      15,
      16,
      17,
      18,
      19,
      20,
      21,
      22,
      23,
      24,
      25,
      26,
      27,
      28,
      29,
      30,
      31,
      32,
      33,
      34,
      35,
      36,
      37,
      38,
      39,
      40,
      41,
      42,
      43,
      44,
      45,
      46,
      47,
      48,
      49,
      50,
      51,
      52,
      53,
      54,
      55,
      56,
      57,
      58,
      59,
      60,
      61,
      62,
      63,
      64,
      65,
      66,
      67,
      68,
      69,
      70,
      71,
      72,
      73,
      74,
      75,
      76,
      77,
      78,
      79,
      80,
      81,
      82,
      83,
      84,
      85,
      86,
      87,
      88,
      89,
      90,
      91,
      92,
      93,
      94,
      95,
      96,
      97,
      98,
      99,
      100,
      101,
      102,
      103,
      104,
      105,
      106,
      107,
      108,
      109,
      110,
      111,
      112,
      113,
      114,
      115,
      116,
      117,
      118,
      119,
      120,
      121,
      122,
      123,
      124,
      125,
      126,
      127,
      128,
      129,
      130,
      131,
      132,
      133,
      134,
      135,
      136,
      137,
      138,
      139,
      140,
      141,
      142,
      143,
      144,
      145,
      146,
      147,
      148,
      149,
      0,
      1,
      2,
      3,
      4,
      5,
      6,
      7,
      8,
      9,
      10,
      11,
      12,
      13,
      14,
      15,
      16,
      17,
      18,
      19,
      20,
      21,
      22,
      23,
      24,
      25,
      26,
      27,
      28,
      29,
      30,
      31,
      32,
      33,
      34,
      35,
      36,
      37,
      38,
      39,
      40,
      41,
      42,
      43,
      44,
      45,
      46,
      47,
      48,
      49,
      50,
      51,
      52,
      53,
      54,
      55,
      56,
      57,
      58,
      59,
      60,
      61,
      62,
      63,
      64,
      65,
      66,
      67,
      68,
      69,
      70,
      71,
      72,
      73,
      74,
      75,
      76,
      77,
      78,
      79,
      80,
      81,
      82,
      83,
      84,
      85,
      86,
      87,
      88,
      89,
      90,
      91,
      92,
      93,
      94,
      95,
      96,
      97,
      98,
      99,
      100,
      101,
      102,
      103,
      104,
      105,
      106,
      107,
      108,
      109,
      110,
      111,
      112,
      113,
      114,
      115,
      116,
      117,
      118,
      119,
      120,
      121,
      122,
      123,
      124,
      125,
      126,
      127,
      128,
      129,
      130,
      131,
      132,
      133,
      134,
      135,
      136,
      137,
      138,
      139,
      140,
      141,
      142,
      143,
      144,
      145,
      146,
      147,
      148,
      149,
      150,
      151,
      152,
      153,
      154,
      155,
      156,
      157,
      158,
      159,
      160,
      161,
      162,
      163,
      164,
      165,
      166,
      167,
      168,
      169,
      170,
      171,
      172,
      173,
      174,
      175,
      176,
      177,
      178,
      179,
      180,
      181,
      182,
      183,
      184,
      185,
      186,
      187,
      188,
      189,
      190,
      191,
      192,
      193,
      194,
      195,
      196,
      197,
      198,
      199,
      200,
      201,
      202,
      203,
      204,
      205,
      206,
      207,
      208,
      209,
      210,
      211,
      212,
      213,
      214,
      215,
      216,
      217,
      218,
      219,
      220,
      221,
      222,
      223,
      224,
      225,
      226,
      227,
      228,
      229,
      230,
      231,
      232,
      233,
      234,
      235,
      236,
      237,
      238,
      239,
      240,
      241,
      242,
      243,
      244,
      245,
      246,
      247,
      248,
      249
    ],
    "timestamps": [
      "2022-11-03T09:11:25.623694",
      "2022-11-03T09:11:29.722461",
      "2022-11-03T09:11:33.802198",
      "2022-11-03T09:11:38.015560",
      "2022-11-03T09:11:41.977634",
      "2022-11-03T09:11:46.047229",
      "2022-11-03T09:11:50.145684",
      "2022-11-03T09:11:54.231598",
      "2022-11-03T09:11:58.345120",
      "2022-11-03T09:12:02.467621",
      "2022-11-03T09:12:06.561252",
      "2022-11-03T09:12:10.574370",
      "2022-11-03T09:12:14.593382",
      "2022-11-03T09:12:18.579167",
      "2022-11-03T09:12:22.751338",
      "2022-11-03T09:12:26.805376",
      "2022-11-03T09:12:30.793210",
      "2022-11-03T09:12:34.844422",
      "2022-11-03T09:12:38.837585",
      "2022-11-03T09:12:42.899078",
      "2022-11-03T09:12:47.134843",
      "2022-11-03T09:12:51.378996",
      "2022-11-03T09:12:55.418951",
      "2022-11-03T09:12:59.501640",
      "2022-11-03T09:13:03.514929",
      "2022-11-03T09:13:07.635629",
      "2022-11-03T09:13:11.691333",
      "2022-11-03T09:13:15.671703",
      "2022-11-03T09:13:19.787203",
      "2022-11-03T09:13:23.776820",
      "2022-11-03T09:13:27.874909",
      "2022-11-03T09:13:31.878597",
      "2022-11-03T09:13:35.825640",
      "2022-11-03T09:13:39.764565",
      "2022-11-03T09:13:43.703678",
      "2022-11-03T09:13:47.707770",
      "2022-11-03T09:13:51.804596",
      "2022-11-03T09:13:55.963274",
      "2022-11-03T09:14:00.089183",
      "2022-11-03T09:14:04.019101",
      "2022-11-03T09:14:08.018245",
      "2022-11-03T09:14:11.987598",
      "2022-11-03T09:14:16.123037",
      "2022-11-03T09:14:20.138380",
      "2022-11-03T09:14:24.094973",
      "2022-11-03T09:14:28.071617",
      "2022-11-03T09:14:32.137858",
      "2022-11-03T09:14:36.093336",
      "2022-11-03T09:14:40.112620",
      "2022-11-03T09:14:44.198447",
      "2022-11-03T09:14:48.214066",
      "2022-11-03T09:14:52.228403",
      "2022-11-03T09:14:56.210588",
      "2022-11-03T09:15:00.271614",
      "2022-11-03T09:15:04.320701",
      "2022-11-03T09:15:08.346797",
      "2022-11-03T09:15:12.579047",
      "2022-11-03T09:15:16.558409",
      "2022-11-03T09:15:20.591010",
      "2022-11-03T09:15:24.632538",
      "2022-11-03T09:15:28.609646",
      "2022-11-03T09:15:32.978108",
      "2022-11-03T09:15:37.719100",
      "2022-11-03T09:15:41.770991",
      "2022-11-03T09:15:45.807709",
      "2022-11-03T09:15:49.921666",
      "2022-11-03T09:15:53.864909",
      "2022-11-03T09:15:57.818586",
      "2022-11-03T09:16:01.991325",
      "2022-11-03T09:16:06.111998",
      "2022-11-03T09:16:10.097889",
      "2022-11-03T09:16:14.115143",
      "2022-11-03T09:16:18.184057",
      "2022-11-03T09:16:22.253933",
      "2022-11-03T09:16:26.301737",
      "2022-11-03T09:16:30.326535",
      "2022-11-03T09:16:34.312102",
      "2022-11-03T09:16:38.255126",
      "2022-11-03T09:16:42.194718",
      "2022-11-03T09:16:46.286725",
      "2022-11-03T09:16:50.548421",
      "2022-11-03T09:16:54.730479",
      "2022-11-03T09:16:58.795549",
      "2022-11-03T09:17:02.780720",
      "2022-11-03T09:17:06.723288",
      "2022-11-03T09:17:10.714456",
      "2022-11-03T09:17:14.640087",
      "2022-11-03T09:17:18.592936",
      "2022-11-03T09:17:22.532687",
      "2022-11-03T09:17:26.530087",
      "2022-11-03T09:17:30.494623",
      "2022-11-03T09:17:34.537604",
      "2022-11-03T09:17:38.608913",
      "2022-11-03T09:17:42.754093",
      "2022-11-03T09:17:46.910706",
      "2022-11-03T09:17:51.032855",
      "2022-11-03T09:17:54.969011",
      "2022-11-03T09:17:58.959516",
      "2022-11-03T09:18:02.890261",
      "2022-11-03T09:18:06.845834",
      "2022-11-03T09:18:10.860191",
      "2022-11-03T09:18:15.147210",
      "2022-11-03T09:18:19.295213",
      "2022-11-03T09:18:23.491245",
      "2022-11-03T09:18:27.682702",
      "2022-11-03T09:18:31.890068",
      "2022-11-03T09:18:35.979476",
      "2022-11-03T09:18:40.028546",
      "2022-11-03T09:18:44.031882",
      "2022-11-03T09:18:48.221863",
      "2022-11-03T09:18:52.264455",
      "2022-11-03T09:18:56.414529",
      "2022-11-03T09:19:00.607046",
      "2022-11-03T09:19:04.735389",
      "2022-11-03T09:19:08.920300",
      "2022-11-03T09:19:13.055411",
      "2022-11-03T09:19:17.090314",
      "2022-11-03T09:19:21.314696",
      "2022-11-03T09:19:25.474960",
      "2022-11-03T09:19:29.643397",
      "2022-11-03T09:19:33.799352",
      "2022-11-03T09:19:37.852887",
      "2022-11-03T09:19:41.981454",
      "2022-11-03T09:19:45.995155",
      "2022-11-03T09:19:50.158453",
      "2022-11-03T09:19:54.387168",
      "2022-11-03T09:19:58.452717",
      "2022-11-03T09:20:02.706763",
      "2022-11-03T09:20:06.806571",
      "2022-11-03T09:20:10.882574",
      "2022-11-03T09:20:15.101065",
      "2022-11-03T09:20:19.172768",
      "2022-11-03T09:20:23.258462",
      "2022-11-03T09:20:27.336336",
      "2022-11-03T09:20:31.373771",
      "2022-11-03T09:20:35.425517",
      "2022-11-03T09:20:39.556125",
      "2022-11-03T09:20:43.564135",
      "2022-11-03T09:20:47.538826",
      "2022-11-03T09:20:51.540225",
      "2022-11-03T09:20:55.594811",
      "2022-11-03T09:20:59.712141",
      "2022-11-03T09:21:03.724180",
      "2022-11-03T09:21:07.784878",
      "2022-11-03T09:21:11.808096",
      "2022-11-03T09:21:15.868174",
      "2022-11-03T09:21:19.869429",
      "2022-11-03T09:21:23.936650",
      "2022-11-03T09:21:27.936049",
      "2022-11-03T09:21:31.983970",
      "2022-11-03T11:03:29.448329",
      "2022-11-03T11:03:33.497284",
      "2022-11-03T11:03:37.514665",
      "2022-11-03T11:03:41.553358",
      "2022-11-03T11:03:45.628799",
      "2022-11-03T11:03:49.655293",
      "2022-11-03T11:03:53.681443",
      "2022-11-03T11:03:57.692971",
      "2022-11-03T11:04:01.706975",
      "2022-11-03T11:04:05.732298",
      "2022-11-03T11:04:09.762699",
      "2022-11-03T11:04:13.786017",
      "2022-11-03T11:04:17.803044",
      "2022-11-03T11:04:21.820802",
      "2022-11-03T11:04:25.845229",
      "2022-11-03T11:04:29.858579",
      "2022-11-03T11:04:33.878320",
      "2022-11-03T11:04:37.893744",
      "2022-11-03T11:04:41.970736",
      "2022-11-03T11:04:45.993498",
      "2022-11-03T11:04:50.017565",
      "2022-11-03T11:04:54.046322",
      "2022-11-03T11:04:58.061100",
      "2022-11-03T11:05:02.087554",
      "2022-11-03T11:05:06.112743",
      "2022-11-03T11:05:10.148170",
      "2022-11-03T11:05:14.178321",
      "2022-11-03T11:05:18.215748",
      "2022-11-03T11:05:22.241441",
      "2022-11-03T11:05:26.255071",
      "2022-11-03T11:05:30.285566",
      "2022-11-03T11:05:34.317025",
      "2022-11-03T11:05:38.348958",
      "2022-11-03T11:05:42.394358",
      "2022-11-03T11:05:46.424003",
      "2022-11-03T11:05:50.449050",
      "2022-11-03T11:05:54.473183",
      "2022-11-03T11:05:58.498602",
      "2022-11-03T11:06:02.530998",
      "2022-11-03T11:06:06.560978",
      "2022-11-03T11:06:10.590578",
      "2022-11-03T11:06:14.617518",
      "2022-11-03T11:06:18.640932",
      "2022-11-03T11:06:22.670306",
      "2022-11-03T11:06:26.697219",
      "2022-11-03T11:06:30.727902",
      "2022-11-03T11:06:34.752045",
      "2022-11-03T11:06:38.775122",
      "2022-11-03T11:06:42.810193",
      "2022-11-03T11:06:46.834843",
      "2022-11-03T11:06:50.873215",
      "2022-11-03T11:06:54.918419",
      "2022-11-03T11:06:58.960087",
      "2022-11-03T11:07:03.004291",
      "2022-11-03T11:07:07.034232",
      "2022-11-03T11:07:11.055897",
      "2022-11-03T11:07:15.087605",
      "2022-11-03T11:07:19.114839",
      "2022-11-03T11:07:23.151130",
      "2022-11-03T11:07:27.183176",
      "2022-11-03T11:07:31.216026",
      "2022-11-03T11:07:35.246918",
      "2022-11-03T11:07:39.278417",
      "2022-11-03T11:07:43.303130",
      "2022-11-03T11:07:47.325670",
      "2022-11-03T11:07:51.348932",
      "2022-11-03T11:07:55.374112",
      "2022-11-03T11:07:59.400212",
      "2022-11-03T11:08:03.431116",
      "2022-11-03T11:08:07.451671",
      "2022-11-03T11:08:11.482386",
      "2022-11-03T11:08:15.507561",
      "2022-11-03T11:08:19.530864",
      "2022-11-03T11:08:23.556237",
      "2022-11-03T11:08:27.586660",
      "2022-11-03T11:08:31.616045",
      "2022-11-03T11:08:35.642170",
      "2022-11-03T11:08:39.666040",
      "2022-11-03T11:08:43.695631",
      "2022-11-03T11:08:47.712931",
      "2022-11-03T11:08:51.747926",
      "2022-11-03T11:08:55.785107",
      "2022-11-03T11:08:59.806904",
      "2022-11-03T11:09:03.839275",
      "2022-11-03T11:09:07.856271",
      "2022-11-03T11:09:11.880366",
      "2022-11-03T11:09:15.906341",
      "2022-11-03T11:09:19.937409",
      "2022-11-03T11:09:23.967596",
      "2022-11-03T11:09:27.995824",
      "2022-11-03T11:09:32.037523",
      "2022-11-03T11:09:36.063070",
      "2022-11-03T11:09:40.088457",
      "2022-11-03T11:09:44.112075",
      "2022-11-03T11:09:48.134960",
      "2022-11-03T11:09:52.164405",
      "2022-11-03T11:09:56.189175",
      "2022-11-03T11:10:00.217530",
      "2022-11-03T11:10:04.250110",
      "2022-11-03T11:10:08.269203",
      "2022-11-03T11:10:12.307911",
      "2022-11-03T11:10:16.331171",
      "2022-11-03T11:10:20.354040",
      "2022-11-03T11:10:24.383750",
      "2022-11-03T11:10:28.404559",
      "2022-11-03T11:10:32.425703",
      "2022-11-03T11:10:36.470530",
      "2022-11-03T11:10:40.499977",
      "2022-11-03T11:10:44.525536",
      "2022-11-03T11:10:48.544437",
      "2022-11-03T11:10:52.580854",
      "2022-11-03T11:10:56.602097",
      "2022-11-03T11:11:00.623553",
      "2022-11-03T11:11:04.654569",
      "2022-11-03T11:11:08.687082",
      "2022-11-03T11:11:12.721370",
      "2022-11-03T11:11:16.741028",
      "2022-11-03T11:11:20.765016",
      "2022-11-03T11:11:24.790281",
      "2022-11-03T11:11:28.812534",
      "2022-11-03T11:11:32.850123",
      "2022-11-03T11:11:36.871979",
      "2022-11-03T11:11:40.909755",
      "2022-11-03T11:11:44.943993",
      "2022-11-03T11:11:48.970357",
      "2022-11-03T11:11:52.991980",
      "2022-11-03T11:11:57.015646",
      "2022-11-03T11:12:01.047041",
      "2022-11-03T11:12:05.077328",
      "2022-11-03T11:12:09.102178",
      "2022-11-03T11:12:13.135095",
      "2022-11-03T11:12:17.156639",
      "2022-11-03T11:12:21.183068",
      "2022-11-03T11:12:25.218369",
      "2022-11-03T11:12:29.235879",
      "2022-11-03T11:12:33.275337",
      "2022-11-03T11:12:37.303462",
      "2022-11-03T11:12:41.349417",
      "2022-11-03T11:12:45.375480",
      "2022-11-03T11:12:49.404474",
      "2022-11-03T11:12:53.441494",
      "2022-11-03T11:12:57.464960",
      "2022-11-03T11:13:01.500803",
      "2022-11-03T11:13:05.533178",
      "2022-11-03T11:13:09.548084",
      "2022-11-03T11:13:13.577861",
      "2022-11-03T11:13:17.613113",
      "2022-11-03T11:13:21.640591",
      "2022-11-03T11:13:25.669655",
      "2022-11-03T11:13:29.694914",
      "2022-11-03T11:13:33.744459",
      "2022-11-03T11:13:37.774292",
      "2022-11-03T11:13:41.809021",
      "2022-11-03T11:13:45.836233",
      "2022-11-03T11:13:49.859987",
      "2022-11-03T11:13:53.906458",
      "2022-11-03T11:13:57.929090",
      "2022-11-03T11:14:01.945730",
      "2022-11-03T11:14:05.984836",
      "2022-11-03T11:14:10.024763",
      "2022-11-03T11:14:14.074535",
      "2022-11-03T11:14:18.097060",
      "2022-11-03T11:14:22.126353",
      "2022-11-03T11:14:26.154151",
      "2022-11-03T11:14:30.191853",
      "2022-11-03T11:14:34.233009",
      "2022-11-03T11:14:38.248697",
      "2022-11-03T11:14:42.286212",
      "2022-11-03T11:14:46.315222",
      "2022-11-03T11:14:50.341847",
      "2022-11-03T11:14:54.385348",
      "2022-11-03T11:14:58.409524",
      "2022-11-03T11:15:02.440674",
      "2022-11-03T11:15:06.461979",
      "2022-11-03T11:15:10.477529",
      "2022-11-03T11:15:14.508441",
      "2022-11-03T11:15:18.524788",
      "2022-11-03T11:15:22.547838",
      "2022-11-03T11:15:26.569489",
      "2022-11-03T11:15:30.585701",
      "2022-11-03T11:15:34.623567",
      "2022-11-03T11:15:38.646367",
      "2022-11-03T11:15:42.680405",
      "2022-11-03T11:15:46.700356",
      "2022-11-03T11:15:50.724493",
      "2022-11-03T11:15:54.751522",
      "2022-11-03T11:15:58.766544",
      "2022-11-03T11:16:02.796331",
      "2022-11-03T11:16:06.818533",
      "2022-11-03T11:16:10.835502",
      "2022-11-03T11:16:14.869536",
      "2022-11-03T11:16:18.891079",
      "2022-11-03T11:16:22.917930",
      "2022-11-03T11:16:26.938267",
      "2022-11-03T11:16:30.967311",
      "2022-11-03T11:16:35.003175",
      "2022-11-03T11:16:39.027573",
      "2022-11-03T11:16:43.055897",
      "2022-11-03T11:16:47.075331",
      "2022-11-03T11:16:51.100856",
      "2022-11-03T11:16:55.134486",
      "2022-11-03T11:16:59.163902",
      "2022-11-03T11:17:03.190384",
      "2022-11-03T11:17:07.217319",
      "2022-11-03T11:17:11.249676",
      "2022-11-03T11:17:15.281247",
      "2022-11-03T11:17:19.297595",
      "2022-11-03T11:17:23.327848",
      "2022-11-03T11:17:27.347098",
      "2022-11-03T11:17:31.367148",
      "2022-11-03T11:17:35.433865",
      "2022-11-03T11:17:39.471494",
      "2022-11-03T11:17:43.508487",
      "2022-11-03T11:17:47.545851",
      "2022-11-03T11:17:51.572390",
      "2022-11-03T11:17:55.605950",
      "2022-11-03T11:17:59.624179",
      "2022-11-03T11:18:03.668290",
      "2022-11-03T11:18:07.692696",
      "2022-11-03T11:18:11.706909",
      "2022-11-03T11:18:15.743866",
      "2022-11-03T11:18:19.766775",
      "2022-11-03T11:18:23.806216",
      "2022-11-03T11:18:27.836504",
      "2022-11-03T11:18:31.868720",
      "2022-11-03T11:18:35.896872",
      "2022-11-03T11:18:39.924112",
      "2022-11-03T11:18:43.949410",
      "2022-11-03T11:18:47.967347",
      "2022-11-03T11:18:51.985806",
      "2022-11-03T11:18:56.030300",
      "2022-11-03T11:19:00.052971",
      "2022-11-03T11:19:04.085857",
      "2022-11-03T11:19:08.116123",
      "2022-11-03T11:19:12.148713",
      "2022-11-03T11:19:16.186824",
      "2022-11-03T11:19:20.214576",
      "2022-11-03T11:19:24.241336",
      "2022-11-03T11:19:28.263082",
      "2022-11-03T11:19:32.292285",
      "2022-11-03T11:19:36.324507",
      "2022-11-03T11:19:40.354362",
      "2022-11-03T11:19:44.381447",
      "2022-11-03T11:19:48.400490",
      "2022-11-03T11:19:52.428913",
      "2022-11-03T11:19:56.443569",
      "2022-11-03T11:20:00.464931",
      "2022-11-03T11:20:04.486859",
      "2022-11-03T11:20:08.509754",
      "2022-11-03T11:20:12.535458"
    ],
    "values": [
      4.246528,
      4.250112,
      4.250112,
      4.250112,
      4.250112,
      4.250112,
      4.250112,
      4.250112,
      4.250112,
      4.250112,
      4.250112,
      4.250112,
      4.250112,
      4.250112,
      4.250112,
      4.250112,
      4.250112,
      4.250112,
      4.250112,
      4.250112,
      4.250112,
      4.250112,
      4.250112,
      4.250112,
      4.250112,
      4.250112,
      4.250112,
      4.250112,
      4.250112,
      4.250112,
      4.250112,
      4.250112,
      4.250112,
      4.250112,
      4.250112,
      4.250112,
      4.250112,
      4.250112,
      4.250112,
      4.250112,
      4.250112,
      4.250112,
      4.250112,
      4.250112,
      4.250112,
      4.250112,
      4.250112,
      4.250112,
      4.250112,
      4.250112,
      4.250112,
      4.250112,
      4.250112,
      4.250112,
      4.250112,
      4.250112,
      4.250112,
      4.250112,
      4.250112,
      4.250112,
      4.250112,
      4.250112,
      4.250112,
      4.250112,
      4.250112,
      4.250112,
      4.250112,
      4.250112,
      4.250112,
      4.250112,
      4.250112,
      4.250112,
      4.250112,
      4.250112,
      4.250112,
      4.250112,
      4.250112,
      4.250112,
      4.250112,
      4.250112,
      4.250112,
      4.250112,
      4.250112,
      4.250112,
      4.250112,
      4.250112,
      4.250112,
      4.250112,
      4.250112,
      4.250112,
      4.250112,
      4.250112,
      4.250112,
      4.250112,
      4.250112,
      4.250112,
      4.250112,
      4.250112,
      4.250112,
      4.250112,
      4.250112,
      4.250112,
      4.250112,
      4.250112,
      4.250112,
      4.250112,
      4.250112,
      4.250112,
      4.250112,
      4.250112,
      4.250112,
      4.250112,
      4.250112,
      4.250112,
      4.250112,
      4.250112,
      4.250112,
      4.250112,
      4.250112,
      4.250112,
      4.250112,
      4.250112,
      4.250112,
      4.250112,
      4.250112,
      4.250112,
      4.250112,
      4.250112,
      4.250112,
      4.250112,
      4.250112,
      4.250112,
      4.250112,
      4.250112,
      4.250112,
      4.250112,
      4.250112,
      4.250112,
      4.250112,
      4.250112,
      4.250112,
      4.250112,
      4.250112,
      4.250112,
      4.250112,
      4.250112,
      4.250112,
      4.250112,
      4.250112,
      4.250112,
      4.246528,
      4.250112,
      4.250112,
      4.250112,
      4.250112,
      4.250112,
      4.250112,
      4.250112,
      4.250112,
      4.250112,
      4.250112,
      4.250112,
      4.250112,
      4.250112,
      4.250112,
      4.250112,
      4.250112,
      4.250112,
      4.250112,
      4.250112,
      4.250112,
      4.250112,
      4.250112,
      4.250112,
      4.250112,
      4.250112,
      4.250112,
      4.250112,
      4.250112,
      4.250112,
      4.250112,
      4.250112,
      4.250112,
      4.250112,
      4.250112,
      4.250112,
      4.250112,
      4.250112,
      4.250112,
      4.250112,
      4.250112,
      4.250112,
      4.250112,
      4.250112,
      4.250112,
      4.250112,
      4.250112,
      4.250112,
      4.250112,
      4.250112,
      4.250112,
      4.250112,
      4.250112,
      4.250112,
      4.250112,
      4.250112,
      4.250112,
      4.250112,
      4.250112,
      4.250112,
      4.250112,
      4.250112,
      4.250112,
      4.250112,
      4.250112,
      4.250112,
      4.250112,
      4.250112,
      4.250112,
      4.250112,
      4.250112,
      4.250112,
      4.250112,
      4.250112,
      4.250112,
      4.250112,
      4.250112,
      4.250112,
      4.250112,
      4.250112,
      4.250112,
      4.250112,
      4.250112,
      4.250112,
      4.250112,
      4.250112,
      4.250112,
      4.250112,
      4.250112,
      4.250112,
      4.250112,
      4.250112,
      4.250112,
      4.250112,
      4.250112,
      4.250112,
      4.250112,
      4.250112,
      4.250112,
      4.250112,
      4.250112,
      4.250112,
      4.250112,
      4.250112,
      4.250112,
      4.250112,
      4.250112,
      4.250112,
      4.250112,
      4.250112,
      4.250112,
      4.250112,
      4.250112,
      4.250112,
      4.250112,
      4.250112,
      4.250112,
      4.250112,
      4.250112,
      4.250112,
      4.250112,
      4.250112,
      4.250112,
      4.250112,
      4.250112,
      4.250112,
      4.250112,
      4.250112,
      4.250112,
      4.250112,
      4.250112,
      4.250112,
      4.250112,
      4.250112,
      4.250112,
      4.250112,
      4.250112,
      4.250112,
      4.250112,
      4.250112,
      4.250112,
      4.250112,
      4.250112,
      4.250112,
      4.250112,
      4.250112,
      4.250112,
      4.250112,
      4.250112,
      4.250112,
      4.250112,
      4.250112,
      4.250112,
      4.250112,
      4.250112,
      4.250112,
      4.250112,
      4.250112,
      4.250112,
      4.250112,
      4.250112,
      4.250112,
      4.250112,
      4.250112,
      4.250112,
      4.250112,
      4.250112,
      4.250112,
      4.250112,
      4.250112,
      4.250112,
      4.250112,
      4.250112,
      4.250112,
      4.250112,
      4.250112,
      4.250112,
      4.250112,
      4.250112,
      4.250112,
      4.250112,
      4.250112,
      4.250112,
      4.250112,
      4.250112,
      4.250112,
      4.250112,
      4.250112,
      4.250112,
      4.250112,
      4.250112,
      4.250112,
      4.250112,
      4.250112,
      4.250112,
      4.250112,
      4.250112,
      4.250112,
      4.250112,
      4.250112,
      4.250112,
      4.250112,
      4.250112,
      4.250112,
      4.250112,
      4.250112,
      4.250112,
      4.250112,
      4.250112,
      4.250112,
      4.250112,
      4.250112,
      4.250112,
      4.250112,
      4.250112,
      4.250112,
      4.250112,
      4.250112,
      4.250112,
      4.250112,
      4.250112,
      4.250112,
      4.250112,
      4.250112,
      4.250112,
      4.250112,
      4.250112,
      4.250112,
      4.250112,
      4.250112,
      4.250112,
      4.250112,
      4.250112,
      4.250112,
      4.250112,
      4.250112,
      4.250112,
      4.250112,
      4.250112,
      4.250112,
      4.250112,
      4.250112,
      4.250112,
      4.250112,
      4.250112,
      4.250112,
      4.250112,
      4.250112,
      4.250112,
      4.250112
    ]
  },
  "train": {
    "steps": [
      0,
      1,
      2,
      3,
      4,
      5,
      6,
      7,
      8,
      9,
      10,
      11,
      12,
      13,
      14,
      15,
      16,
      17,
      18,
      19,
      20,
      21,
      22,
      23,
      24,
      25,
      26,
      27,
      28,
      29,
      30,
      31,
      32,
      33,
      34,
      35,
      36,
      37,
      38,
      39,
      40,
      41,
      42,
      43,
      44,
      45,
      46,
      47,
      48,
      49,
      50,
      51,
      52,
      53,
      54,
      55,
      56,
      57,
      58,
      59,
      60,
      61,
      62,
      63,
      64,
      65,
      66,
      67,
      68,
      69,
      70,
      71,
      72,
      73,
      74,
      75,
      76,
      77,
      78,
      79,
      80,
      81,
      82,
      83,
      84,
      85,
      86,
      87,
      88,
      89,
      90,
      91,
      92,
      93,
      94,
      95,
      96,
      97,
      98,
      99,
      100,
      101,
      102,
      103,
      104,
      105,
      106,
      107,
      108,
      109,
      110,
      111,
      112,
      113,
      114,
      115,
      116,
      117,
      118,
      119,
      120,
      121,
      122,
      123,
      124,
      125,
      126,
      127,
      128,
      129,
      130,
      131,
      132,
      133,
      134,
      135,
      136,
      137,
      138,
      139,
      140,
      141,
      142,
      143,
      144,
      145,
      146,
      147,
      148,
      149,
      0,
      1,
      2,
      3,
      4,
      5,
      6,
      7,
      8,
      9,
      10,
      11,
      12,
      13,
      14,
      15,
      16,
      17,
      18,
      19,
      20,
      21,
      22,
      23,
      24,
      25,
      26,
      27,
      28,
      29,
      30,
      31,
      32,
      33,
      34,
      35,
      36,
      37,
      38,
      39,
      40,
      41,
      42,
      43,
      44,
      45,
      46,
      47,
      48,
      49,
      50,
      51,
      52,
      53,
      54,
      55,
      56,
      57,
      58,
      59,
      60,
      61,
      62,
      63,
      64,
      65,
      66,
      67,
      68,
      69,
      70,
      71,
      72,
      73,
      74,
      75,
      76,
      77,
      78,
      79,
      80,
      81,
      82,
      83,
      84,
      85,
      86,
      87,
      88,
      89,
      90,
      91,
      92,
      93,
      94,
      95,
      96,
      97,
      98,
      99,
      100,
      101,
      102,
      103,
      104,
      105,
      106,
      107,
      108,
      109,
      110,
      111,
      112,
      113,
      114,
      115,
      116,
      117,
      118,
      119,
      120,
      121,
      122,
      123,
      124,
      125,
      126,
      127,
      128,
      129,
      130,
      131,
      132,
      133,
      134,
      135,
      136,
      137,
      138,
      139,
      140,
      141,
      142,
      143,
      144,
      145,
      146,
      147,
      148,
      149,
      150,
      151,
      152,
      153,
      154,
      155,
      156,
      157,
      158,
      159,
      160,
      161,
      162,
      163,
      164,
      165,
      166,
      167,
      168,
      169,
      170,
      171,
      172,
      173,
      174,
      175,
      176,
      177,
      178,
      179,
      180,
      181,
      182,
      183,
      184,
      185,
      186,
      187,
      188,
      189,
      190,
      191,
      192,
      193,
      194,
      195,
      196,
      197,
      198,
      199,
      200,
      201,
      202,
      203,
      204,
      205,
      206,
      207,
      208,
      209,
      210,
      211,
      212,
      213,
      214,
      215,
      216,
      217,
      218,
      219,
      220,
      221,
      222,
      223,
      224,
      225,
      226,
      227,
      228,
      229,
      230,
      231,
      232,
      233,
      234,
      235,
      236,
      237,
      238,
      239,
      240,
      241,
      242,
      243,
      244,
      245,
      246,
      247,
      248,
      249
    ],
    "timestamps": [
      "2022-11-03T09:11:25.623552",
      "2022-11-03T09:11:29.722350",
      "2022-11-03T09:11:33.802044",
      "2022-11-03T09:11:38.015447",
      "2022-11-03T09:11:41.977520",
      "2022-11-03T09:11:46.047113",
      "2022-11-03T09:11:50.145553",
      "2022-11-03T09:11:54.231475",
      "2022-11-03T09:11:58.344982",
      "2022-11-03T09:12:02.467511",
      "2022-11-03T09:12:06.561128",
      "2022-11-03T09:12:10.574256",
      "2022-11-03T09:12:14.593263",
      "2022-11-03T09:12:18.579029",
      "2022-11-03T09:12:22.751206",
      "2022-11-03T09:12:26.805266",
      "2022-11-03T09:12:30.793098",
      "2022-11-03T09:12:34.844309",
      "2022-11-03T09:12:38.837456",
      "2022-11-03T09:12:42.898962",
      "2022-11-03T09:12:47.134723",
      "2022-11-03T09:12:51.378881",
      "2022-11-03T09:12:55.418831",
      "2022-11-03T09:12:59.501519",
      "2022-11-03T09:13:03.514816",
      "2022-11-03T09:13:07.635491",
      "2022-11-03T09:13:11.691221",
      "2022-11-03T09:13:15.671583",
      "2022-11-03T09:13:19.787082",
      "2022-11-03T09:13:23.776694",
      "2022-11-03T09:13:27.874783",
      "2022-11-03T09:13:31.878475",
      "2022-11-03T09:13:35.825528",
      "2022-11-03T09:13:39.764453",
      "2022-11-03T09:13:43.703565",
      "2022-11-03T09:13:47.707619",
      "2022-11-03T09:13:51.804483",
      "2022-11-03T09:13:55.963131",
      "2022-11-03T09:14:00.089069",
      "2022-11-03T09:14:04.018989",
      "2022-11-03T09:14:08.018129",
      "2022-11-03T09:14:11.987483",
      "2022-11-03T09:14:16.122909",
      "2022-11-03T09:14:20.138263",
      "2022-11-03T09:14:24.094845",
      "2022-11-03T09:14:28.071500",
      "2022-11-03T09:14:32.137714",
      "2022-11-03T09:14:36.093222",
      "2022-11-03T09:14:40.112497",
      "2022-11-03T09:14:44.198322",
      "2022-11-03T09:14:48.213946",
      "2022-11-03T09:14:52.228285",
      "2022-11-03T09:14:56.210475",
      "2022-11-03T09:15:00.271491",
      "2022-11-03T09:15:04.320575",
      "2022-11-03T09:15:08.346659",
      "2022-11-03T09:15:12.578923",
      "2022-11-03T09:15:16.558293",
      "2022-11-03T09:15:20.590881",
      "2022-11-03T09:15:24.632418",
      "2022-11-03T09:15:28.609527",
      "2022-11-03T09:15:32.977945",
      "2022-11-03T09:15:37.718974",
      "2022-11-03T09:15:41.770860",
      "2022-11-03T09:15:45.807576",
      "2022-11-03T09:15:49.921553",
      "2022-11-03T09:15:53.864792",
      "2022-11-03T09:15:57.818472",
      "2022-11-03T09:16:01.991170",
      "2022-11-03T09:16:06.111884",
      "2022-11-03T09:16:10.097770",
      "2022-11-03T09:16:14.115011",
      "2022-11-03T09:16:18.183925",
      "2022-11-03T09:16:22.253815",
      "2022-11-03T09:16:26.301622",
      "2022-11-03T09:16:30.326417",
      "2022-11-03T09:16:34.311987",
      "2022-11-03T09:16:38.255011",
      "2022-11-03T09:16:42.194603",
      "2022-11-03T09:16:46.286613",
      "2022-11-03T09:16:50.548294",
      "2022-11-03T09:16:54.730276",
      "2022-11-03T09:16:58.795416",
      "2022-11-03T09:17:02.780601",
      "2022-11-03T09:17:06.723175",
      "2022-11-03T09:17:10.714341",
      "2022-11-03T09:17:14.639973",
      "2022-11-03T09:17:18.592816",
      "2022-11-03T09:17:22.532571",
      "2022-11-03T09:17:26.529971",
      "2022-11-03T09:17:30.494505",
      "2022-11-03T09:17:34.537479",
      "2022-11-03T09:17:38.608788",
      "2022-11-03T09:17:42.753976",
      "2022-11-03T09:17:46.910574",
      "2022-11-03T09:17:51.032745",
      "2022-11-03T09:17:54.968901",
      "2022-11-03T09:17:58.959399",
      "2022-11-03T09:18:02.890150",
      "2022-11-03T09:18:06.845726",
      "2022-11-03T09:18:10.860065",
      "2022-11-03T09:18:15.147093",
      "2022-11-03T09:18:19.295097",
      "2022-11-03T09:18:23.491126",
      "2022-11-03T09:18:27.682570",
      "2022-11-03T09:18:31.889951",
      "2022-11-03T09:18:35.979346",
      "2022-11-03T09:18:40.028429",
      "2022-11-03T09:18:44.031765",
      "2022-11-03T09:18:48.221748",
      "2022-11-03T09:18:52.264307",
      "2022-11-03T09:18:56.414382",
      "2022-11-03T09:19:00.606929",
      "2022-11-03T09:19:04.735255",
      "2022-11-03T09:19:08.920170",
      "2022-11-03T09:19:13.055279",
      "2022-11-03T09:19:17.090188",
      "2022-11-03T09:19:21.314556",
      "2022-11-03T09:19:25.474796",
      "2022-11-03T09:19:29.643256",
      "2022-11-03T09:19:33.799191",
      "2022-11-03T09:19:37.852736",
      "2022-11-03T09:19:41.981336",
      "2022-11-03T09:19:45.995034",
      "2022-11-03T09:19:50.158315",
      "2022-11-03T09:19:54.387028",
      "2022-11-03T09:19:58.452588",
      "2022-11-03T09:20:02.706646",
      "2022-11-03T09:20:06.806456",
      "2022-11-03T09:20:10.882460",
      "2022-11-03T09:20:15.100935",
      "2022-11-03T09:20:19.172625",
      "2022-11-03T09:20:23.258334",
      "2022-11-03T09:20:27.336219",
      "2022-11-03T09:20:31.373609",
      "2022-11-03T09:20:35.425390",
      "2022-11-03T09:20:39.555991",
      "2022-11-03T09:20:43.564014",
      "2022-11-03T09:20:47.538712",
      "2022-11-03T09:20:51.540106",
      "2022-11-03T09:20:55.594681",
      "2022-11-03T09:20:59.712027",
      "2022-11-03T09:21:03.724063",
      "2022-11-03T09:21:07.784742",
      "2022-11-03T09:21:11.807969",
      "2022-11-03T09:21:15.868048",
      "2022-11-03T09:21:19.869293",
      "2022-11-03T09:21:23.936533",
      "2022-11-03T09:21:27.935887",
      "2022-11-03T09:21:31.983856",
      "2022-11-03T11:03:29.448207",
      "2022-11-03T11:03:33.497177",
      "2022-11-03T11:03:37.514553",
      "2022-11-03T11:03:41.553247",
      "2022-11-03T11:03:45.628681",
      "2022-11-03T11:03:49.655177",
      "2022-11-03T11:03:53.681330",
      "2022-11-03T11:03:57.692856",
      "2022-11-03T11:04:01.706866",
      "2022-11-03T11:04:05.732191",
      "2022-11-03T11:04:09.762586",
      "2022-11-03T11:04:13.785900",
      "2022-11-03T11:04:17.802930",
      "2022-11-03T11:04:21.820690",
      "2022-11-03T11:04:25.845118",
      "2022-11-03T11:04:29.858461",
      "2022-11-03T11:04:33.878209",
      "2022-11-03T11:04:37.893633",
      "2022-11-03T11:04:41.970620",
      "2022-11-03T11:04:45.993368",
      "2022-11-03T11:04:50.017453",
      "2022-11-03T11:04:54.046209",
      "2022-11-03T11:04:58.060987",
      "2022-11-03T11:05:02.087444",
      "2022-11-03T11:05:06.112633",
      "2022-11-03T11:05:10.148057",
      "2022-11-03T11:05:14.178210",
      "2022-11-03T11:05:18.215636",
      "2022-11-03T11:05:22.241330",
      "2022-11-03T11:05:26.254958",
      "2022-11-03T11:05:30.285450",
      "2022-11-03T11:05:34.316909",
      "2022-11-03T11:05:38.348841",
      "2022-11-03T11:05:42.394246",
      "2022-11-03T11:05:46.423890",
      "2022-11-03T11:05:50.448931",
      "2022-11-03T11:05:54.473073",
      "2022-11-03T11:05:58.498487",
      "2022-11-03T11:06:02.530882",
      "2022-11-03T11:06:06.560864",
      "2022-11-03T11:06:10.590462",
      "2022-11-03T11:06:14.617392",
      "2022-11-03T11:06:18.640819",
      "2022-11-03T11:06:22.670193",
      "2022-11-03T11:06:26.697109",
      "2022-11-03T11:06:30.727791",
      "2022-11-03T11:06:34.751933",
      "2022-11-03T11:06:38.775013",
      "2022-11-03T11:06:42.810081",
      "2022-11-03T11:06:46.834730",
      "2022-11-03T11:06:50.873102",
      "2022-11-03T11:06:54.918302",
      "2022-11-03T11:06:58.959972",
      "2022-11-03T11:07:03.004177",
      "2022-11-03T11:07:07.034120",
      "2022-11-03T11:07:11.055784",
      "2022-11-03T11:07:15.087490",
      "2022-11-03T11:07:19.114726",
      "2022-11-03T11:07:23.151022",
      "2022-11-03T11:07:27.183063",
      "2022-11-03T11:07:31.215913",
      "2022-11-03T11:07:35.246799",
      "2022-11-03T11:07:39.278300",
      "2022-11-03T11:07:43.303014",
      "2022-11-03T11:07:47.325553",
      "2022-11-03T11:07:51.348817",
      "2022-11-03T11:07:55.373999",
      "2022-11-03T11:07:59.400097",
      "2022-11-03T11:08:03.431003",
      "2022-11-03T11:08:07.451557",
      "2022-11-03T11:08:11.482270",
      "2022-11-03T11:08:15.507449",
      "2022-11-03T11:08:19.530750",
      "2022-11-03T11:08:23.556126",
      "2022-11-03T11:08:27.586543",
      "2022-11-03T11:08:31.615931",
      "2022-11-03T11:08:35.642058",
      "2022-11-03T11:08:39.665924",
      "2022-11-03T11:08:43.695516",
      "2022-11-03T11:08:47.712817",
      "2022-11-03T11:08:51.747798",
      "2022-11-03T11:08:55.784992",
      "2022-11-03T11:08:59.806790",
      "2022-11-03T11:09:03.839156",
      "2022-11-03T11:09:07.856158",
      "2022-11-03T11:09:11.880254",
      "2022-11-03T11:09:15.906231",
      "2022-11-03T11:09:19.937296",
      "2022-11-03T11:09:23.967481",
      "2022-11-03T11:09:27.995712",
      "2022-11-03T11:09:32.037417",
      "2022-11-03T11:09:36.062958",
      "2022-11-03T11:09:40.088344",
      "2022-11-03T11:09:44.111961",
      "2022-11-03T11:09:48.134846",
      "2022-11-03T11:09:52.164291",
      "2022-11-03T11:09:56.189063",
      "2022-11-03T11:10:00.217418",
      "2022-11-03T11:10:04.249995",
      "2022-11-03T11:10:08.269092",
      "2022-11-03T11:10:12.307799",
      "2022-11-03T11:10:16.331057",
      "2022-11-03T11:10:20.353925",
      "2022-11-03T11:10:24.383636",
      "2022-11-03T11:10:28.404444",
      "2022-11-03T11:10:32.425588",
      "2022-11-03T11:10:36.470418",
      "2022-11-03T11:10:40.499864",
      "2022-11-03T11:10:44.525416",
      "2022-11-03T11:10:48.544324",
      "2022-11-03T11:10:52.580736",
      "2022-11-03T11:10:56.601981",
      "2022-11-03T11:11:00.623443",
      "2022-11-03T11:11:04.654456",
      "2022-11-03T11:11:08.686960",
      "2022-11-03T11:11:12.721259",
      "2022-11-03T11:11:16.740915",
      "2022-11-03T11:11:20.764904",
      "2022-11-03T11:11:24.790166",
      "2022-11-03T11:11:28.812416",
      "2022-11-03T11:11:32.850005",
      "2022-11-03T11:11:36.871867",
      "2022-11-03T11:11:40.909639",
      "2022-11-03T11:11:44.943880",
      "2022-11-03T11:11:48.970245",
      "2022-11-03T11:11:52.991870",
      "2022-11-03T11:11:57.015535",
      "2022-11-03T11:12:01.046929",
      "2022-11-03T11:12:05.077214",
      "2022-11-03T11:12:09.102064",
      "2022-11-03T11:12:13.134982",
      "2022-11-03T11:12:17.156523",
      "2022-11-03T11:12:21.182951",
      "2022-11-03T11:12:25.218256",
      "2022-11-03T11:12:29.235762",
      "2022-11-03T11:12:33.275219",
      "2022-11-03T11:12:37.303350",
      "2022-11-03T11:12:41.349304",
      "2022-11-03T11:12:45.375370",
      "2022-11-03T11:12:49.404360",
      "2022-11-03T11:12:53.441377",
      "2022-11-03T11:12:57.464847",
      "2022-11-03T11:13:01.500691",
      "2022-11-03T11:13:05.533046",
      "2022-11-03T11:13:09.547956",
      "2022-11-03T11:13:13.577728",
      "2022-11-03T11:13:17.612999",
      "2022-11-03T11:13:21.640474",
      "2022-11-03T11:13:25.669541",
      "2022-11-03T11:13:29.694799",
      "2022-11-03T11:13:33.744345",
      "2022-11-03T11:13:37.774180",
      "2022-11-03T11:13:41.808903",
      "2022-11-03T11:13:45.836118",
      "2022-11-03T11:13:49.859871",
      "2022-11-03T11:13:53.906346",
      "2022-11-03T11:13:57.928977",
      "2022-11-03T11:14:01.945616",
      "2022-11-03T11:14:05.984722",
      "2022-11-03T11:14:10.024645",
      "2022-11-03T11:14:14.074420",
      "2022-11-03T11:14:18.096947",
      "2022-11-03T11:14:22.126236",
      "2022-11-03T11:14:26.154036",
      "2022-11-03T11:14:30.191740",
      "2022-11-03T11:14:34.232895",
      "2022-11-03T11:14:38.248583",
      "2022-11-03T11:14:42.286097",
      "2022-11-03T11:14:46.315111",
      "2022-11-03T11:14:50.341735",
      "2022-11-03T11:14:54.385233",
      "2022-11-03T11:14:58.409409",
      "2022-11-03T11:15:02.440562",
      "2022-11-03T11:15:06.461861",
      "2022-11-03T11:15:10.477413",
      "2022-11-03T11:15:14.508326",
      "2022-11-03T11:15:18.524670",
      "2022-11-03T11:15:22.547725",
      "2022-11-03T11:15:26.569372",
      "2022-11-03T11:15:30.585589",
      "2022-11-03T11:15:34.623445",
      "2022-11-03T11:15:38.646252",
      "2022-11-03T11:15:42.680291",
      "2022-11-03T11:15:46.700244",
      "2022-11-03T11:15:50.724379",
      "2022-11-03T11:15:54.751410",
      "2022-11-03T11:15:58.766428",
      "2022-11-03T11:16:02.796219",
      "2022-11-03T11:16:06.818419",
      "2022-11-03T11:16:10.835387",
      "2022-11-03T11:16:14.869418",
      "2022-11-03T11:16:18.890962",
      "2022-11-03T11:16:22.917807",
      "2022-11-03T11:16:26.938157",
      "2022-11-03T11:16:30.967199",
      "2022-11-03T11:16:35.003062",
      "2022-11-03T11:16:39.027456",
      "2022-11-03T11:16:43.055783",
      "2022-11-03T11:16:47.075220",
      "2022-11-03T11:16:51.100742",
      "2022-11-03T11:16:55.134371",
      "2022-11-03T11:16:59.163786",
      "2022-11-03T11:17:03.190270",
      "2022-11-03T11:17:07.217206",
      "2022-11-03T11:17:11.249560",
      "2022-11-03T11:17:15.281133",
      "2022-11-03T11:17:19.297479",
      "2022-11-03T11:17:23.327732",
      "2022-11-03T11:17:27.346982",
      "2022-11-03T11:17:31.367034",
      "2022-11-03T11:17:35.433751",
      "2022-11-03T11:17:39.471378",
      "2022-11-03T11:17:43.508376",
      "2022-11-03T11:17:47.545738",
      "2022-11-03T11:17:51.572276",
      "2022-11-03T11:17:55.605830",
      "2022-11-03T11:17:59.624057",
      "2022-11-03T11:18:03.668167",
      "2022-11-03T11:18:07.692579",
      "2022-11-03T11:18:11.706798",
      "2022-11-03T11:18:15.743750",
      "2022-11-03T11:18:19.766660",
      "2022-11-03T11:18:23.806099",
      "2022-11-03T11:18:27.836386",
      "2022-11-03T11:18:31.868605",
      "2022-11-03T11:18:35.896757",
      "2022-11-03T11:18:39.924000",
      "2022-11-03T11:18:43.949295",
      "2022-11-03T11:18:47.967232",
      "2022-11-03T11:18:51.985692",
      "2022-11-03T11:18:56.030184",
      "2022-11-03T11:19:00.052852",
      "2022-11-03T11:19:04.085741",
      "2022-11-03T11:19:08.116009",
      "2022-11-03T11:19:12.148596",
      "2022-11-03T11:19:16.186708",
      "2022-11-03T11:19:20.214461",
      "2022-11-03T11:19:24.241221",
      "2022-11-03T11:19:28.262968",
      "2022-11-03T11:19:32.292178",
      "2022-11-03T11:19:36.324393",
      "2022-11-03T11:19:40.354249",
      "2022-11-03T11:19:44.381331",
      "2022-11-03T11:19:48.400376",
      "2022-11-03T11:19:52.428799",
      "2022-11-03T11:19:56.443454",
      "2022-11-03T11:20:00.464816",
      "2022-11-03T11:20:04.486743",
      "2022-11-03T11:20:08.509641",
      "2022-11-03T11:20:12.535345"
    ],
    "values": [
      1726.8948513412477,
      76.02710020065308,
      32.629164638519285,
      17.420146656036376,
      30.630230531692504,
      15.774439935684205,
      13.994113759994507,
      30.26318031311035,
      14.048907709121703,
      20.672184896469116,
      15.185771932601929,
      11.839587717056274,
      11.374579544067382,
      13.355471410751342,
      11.320942068099976,
      11.313480463027954,
      11.561132974624634,
      10.44044532775879,
      13.96345838546753,
      11.718683128356934,
      11.130021543502808,
      11.734519448280334,
      9.564601678848266,
      10.494706687927247,
      10.419941301345824,
      18.876066579818726,
      16.523001136779786,
      13.002256336212158,
      9.493839230537414,
      10.475695514678955,
      8.365659832954407,
      8.057346324920655,
      8.184341902732848,
      9.641504645347595,
      11.492653970718385,
      11.542113609313965,
      8.161088366508483,
      8.674485721588134,
      7.165521602630616,
      7.550560626983643,
      7.026795120239258,
      6.642515707015991,
      7.816970109939575,
      7.336072731018066,
      8.110956139564514,
      15.268813247680663,
      12.373245906829833,
      7.572687611579895,
      9.743868699073792,
      6.696781182289124,
      6.9367310905456545,
      7.944038715362549,
      7.3979821157455445,
      7.01929805278778,
      6.674268255233764,
      6.765294375419617,
      6.746241869926453,
      7.571355471611023,
      6.448002591133117,
      6.805556592941284,
      6.1145914983749385,
      6.765033755302429,
      7.165901575088501,
      8.115807509422302,
      7.274837017059326,
      6.8744782543182374,
      6.495222249031067,
      6.886207637786865,
      6.219401965141296,
      5.917329659461975,
      5.820834646224975,
      6.841819829940796,
      11.05808361530304,
      14.55414297580719,
      13.079947018623352,
      7.6403030586242675,
      7.211741642951965,
      5.8098262548446655,
      8.226651854515076,
      6.706836628913879,
      5.739868364334106,
      5.885666604042053,
      6.173633012771607,
      12.801529412269593,
      6.676087012290955,
      8.415387721061707,
      6.164904727935791,
      5.665094966888428,
      6.98007285118103,
      6.337219581604004,
      5.730133738517761,
      6.295501351356506,
      5.756974472999572,
      5.658453674316406,
      5.516745972633362,
      6.443904914855957,
      7.487196817398071,
      5.87304271697998,
      5.58389235496521,
      5.770117921829224,
      7.782263674736023,
      5.796526808738708,
      5.592974996566772,
      5.484004888534546,
      5.682841100692749,
      5.80694128036499,
      6.025633301734924,
      5.976559338569641,
      6.4156615352630615,
      7.699522814750671,
      9.68596291065216,
      6.7055659055709835,
      6.860756487846374,
      5.993119702339173,
      5.583103442192078,
      6.549058961868286,
      5.331573004722595,
      5.362116184234619,
      8.138761968612672,
      6.42666109085083,
      5.617136597633362,
      5.464186100959778,
      5.5267829418182375,
      5.573932714462281,
      6.157781062126159,
      5.403188304901123,
      6.466994595527649,
      7.653908281326294,
      6.449668207168579,
      5.955623917579651,
      5.806844134330749,
      8.323033051490784,
      6.014134292602539,
      5.609059753417969,
      6.242561101913452,
      6.555928583145142,
      7.201983513832093,
      6.111530523300171,
      4.850706520080567,
      4.731810231208801,
      4.701270139217376,
      4.64141649723053,
      4.659624092578888,
      4.657479329109192,
      4.612613863945008,
      4.622684733867645,
      4.620032029151917,
      4.628440515995026,
      4.625828218460083,
      4.601900048255921,
      4.59949987411499,
      4.601039364337921,
      4.570848340988159,
      4.59945993900299,
      4.562423431873322,
      4.541914389133454,
      4.548219861984253,
      4.560789124965668,
      4.540511963367462,
      4.5741406083106995,
      4.541596348285675,
      4.58545007944107,
      4.552833485603332,
      4.582678024768829,
      4.570807991027832,
      4.536026954650879,
      4.5494756865501405,
      4.507531630992889,
      4.526239602565766,
      4.490691425800324,
      4.477258923053742,
      4.53796865940094,
      4.497193827629089,
      4.483410143852234,
      4.491740303039551,
      4.533120315074921,
      4.461314811706543,
      4.600784356594086,
      4.50414757013321,
      4.475515699386596,
      4.4942498302459715,
      4.4458020353317265,
      4.432304508686066,
      4.480482969284058,
      4.445960557460785,
      4.47586081981659,
      4.437734832763672,
      4.435451028347015,
      4.435015931129455,
      4.431411378383636,
      4.449353008270264,
      4.466295228004456,
      4.464847269058228,
      4.410498926639557,
      4.451632807254791,
      4.498827972412109,
      4.435957298278809,
      4.411366286277771,
      4.390155181884766,
      4.404101662635803,
      4.392329988479614,
      4.4417253637313845,
      4.385780022144318,
      4.4097651410102845,
      4.4048494172096255,
      4.3802423310279845,
      4.398131952285767,
      4.392797689437867,
      4.344584143161773,
      4.406747267246247,
      4.418209013938903,
      4.364697277545929,
      4.379300854206085,
      4.343299717903137,
      4.387647197246552,
      4.428921637535095,
      4.406388537883759,
      4.405017111301422,
      4.387275528907776,
      4.353457705974579,
      4.3693780732154845,
      4.364633786678314,
      4.324700927734375,
      4.34495766878128,
      4.327770917415619,
      4.360881214141846,
      4.366251578330994,
      4.315466699600219,
      4.344854278564453,
      4.377749235630035,
      4.360492963790893,
      4.338720893859863,
      4.3571200180053715,
      4.327157084941864,
      4.310642728805542,
      4.363238854408264,
      4.347081751823425,
      4.3065503263473515,
      4.324131989479065,
      4.285291202068329,
      4.335413110256195,
      4.345417969226837,
      4.32353627204895,
      4.3033416771888735,
      4.328901445865631,
      4.322682383060456,
      4.333214910030365,
      4.289342899322509,
      4.322688248157501,
      4.306436927318573,
      4.325656936168671,
      4.310776658058167,
      4.2751259207725525,
      4.30451669216156,
      4.301224491596222,
      4.331103110313416,
      4.33143869638443,
      4.298352611064911,
      4.285111467838288,
      4.297294783592224,
      4.31243177652359,
      4.3257727265357975,
      4.307210021018982,
      4.285828649997711,
      4.265520982742309,
      4.26977639913559,
      4.292372174263001,
      4.321213731765747,
      4.288522279262542,
      4.273133203983307,
      4.28932493686676,
      4.289997591972351,
      4.2719430732727055,
      4.293473987579346,
      4.307642619609833,
      4.290286962985992,
      4.2496567988395695,
      4.273210256099701,
      4.291389327049256,
      4.28335280418396,
      4.2736408281326295,
      4.2758779931068425,
      4.251415061950683,
      4.317691712379456,
      4.277179234027862,
      4.284133682250976,
      4.271617884635925,
      4.263501052856445,
      4.257943284511566,
      4.245427901744843,
      4.272852442264557,
      4.23290125131607,
      4.265765950679779,
      4.287019569873809,
      4.247327961921692,
      4.256508686542511,
      4.246754014492035,
      4.292492070198059,
      4.250692312717438,
      4.288222684860229,
      4.276400437355042,
      4.262166013717652,
      4.236875166893006,
      4.288809945583344,
      4.212852652072907,
      4.257326695919037,
      4.257678670883179,
      4.41624977350235,
      4.229641053676605,
      4.232892220020294,
      4.253083438873291,
      4.239131581783295,
      4.238443520069122,
      4.2084077453613284,
      4.244889767169952,
      4.239994432926178,
      4.2474514722824095,
      4.2368551445007325,
      4.227376351356506,
      4.253519530296326,
      4.232397248744965,
      4.230019178390503,
      4.255337438583374,
      4.210994870662689,
      4.1954138731956485,
      4.272197096347809,
      4.2552086758613585,
      4.222925491333008,
      4.211567294597626,
      4.232945702075958,
      4.220740540027618,
      4.207595810890198,
      4.300965721607208,
      4.253224160671234,
      4.241726577281952,
      4.2399108648300174,
      4.2063796329498295,
      4.20925683259964,
      4.211620323657989,
      4.23212039232254,
      4.261099433898925,
      4.22960526227951,
      4.227352113723755,
      4.238755650520325,
      4.21641318321228,
      4.206672928333282,
      4.129188160896302,
      4.10057273387909,
      4.107223937511444,
      4.118751578330993,
      4.097082722187042,
      4.106129534244538,
      4.0966507029533386,
      4.101523423194886,
      4.101974565982818,
      4.103639554977417,
      4.112819113731384,
      4.101504230499268,
      4.10717098236084,
      4.101516938209533,
      4.10820426940918,
      4.102445690631867,
      4.103251292705536,
      4.099015431404114,
      4.111205320358277,
      4.088231561183929,
      4.105007998943329,
      4.102295479774475,
      4.101109802722931,
      4.108227264881134,
      4.101543891429901,
      4.097055764198303,
      4.118179008960724,
      4.100178503990174,
      4.111104624271393,
      4.107710170745849,
      4.097774367332459,
      4.109519670009613,
      4.107871396541595,
      4.116399550437928,
      4.109690825939179,
      4.120733029842377,
      4.111069331169128,
      4.11197357416153,
      4.116045558452607,
      4.094929988384247,
      4.106180427074432,
      4.091055436134338,
      4.0977462911605835,
      4.100561249256134,
      4.084638972282409,
      4.104728677272797,
      4.076877932548523,
      4.105354852676392,
      4.080396149158478,
      4.089710371494293,
      4.087636027336121,
      4.096570825576782,
      4.084473679065704,
      4.087324621677399
    ]
  },
  "val": {
    "steps": [
      0,
      1,
      2,
      3,
      4,
      5,
      6,
      7,
      8,
      9,
      10,
      11,
      12,
      13,
      14,
      15,
      16,
      17,
      18,
      19,
      20,
      21,
      22,
      23,
      24,
      25,
      26,
      27,
      28,
      29,
      30,
      31,
      32,
      33,
      34,
      35,
      36,
      37,
      38,
      39,
      40,
      41,
      42,
      43,
      44,
      45,
      46,
      47,
      48,
      49,
      50,
      51,
      52,
      53,
      54,
      55,
      56,
      57,
      58,
      59,
      60,
      61,
      62,
      63,
      64,
      65,
      66,
      67,
      68,
      69,
      70,
      71,
      72,
      73,
      74,
      75,
      76,
      77,
      78,
      79,
      80,
      81,
      82,
      83,
      84,
      85,
      86,
      87,
      88,
      89,
      90,
      91,
      92,
      93,
      94,
      95,
      96,
      97,
      98,
      99,
      100,
      101,
      102,
      103,
      104,
      105,
      106,
      107,
      108,
      109,
      110,
      111,
      112,
      113,
      114,
      115,
      116,
      117,
      118,
      119,
      120,
      121,
      122,
      123,
      124,
      125,
      126,
      127,
      128,
      129,
      130,
      131,
      132,
      133,
      134,
      135,
      136,
      137,
      138,
      139,
      140,
      141,
      142,
      143,
      144,
      145,
      146,
      147,
      148,
      149,
      0,
      1,
      2,
      3,
      4,
      5,
      6,
      7,
      8,
      9,
      10,
      11,
      12,
      13,
      14,
      15,
      16,
      17,
      18,
      19,
      20,
      21,
      22,
      23,
      24,
      25,
      26,
      27,
      28,
      29,
      30,
      31,
      32,
      33,
      34,
      35,
      36,
      37,
      38,
      39,
      40,
      41,
      42,
      43,
      44,
      45,
      46,
      47,
      48,
      49,
      50,
      51,
      52,
      53,
      54,
      55,
      56,
      57,
      58,
      59,
      60,
      61,
      62,
      63,
      64,
      65,
      66,
      67,
      68,
      69,
      70,
      71,
      72,
      73,
      74,
      75,
      76,
      77,
      78,
      79,
      80,
      81,
      82,
      83,
      84,
      85,
      86,
      87,
      88,
      89,
      90,
      91,
      92,
      93,
      94,
      95,
      96,
      97,
      98,
      99,
      100,
      101,
      102,
      103,
      104,
      105,
      106,
      107,
      108,
      109,
      110,
      111,
      112,
      113,
      114,
      115,
      116,
      117,
      118,
      119,
      120,
      121,
      122,
      123,
      124,
      125,
      126,
      127,
      128,
      129,
      130,
      131,
      132,
      133,
      134,
      135,
      136,
      137,
      138,
      139,
      140,
      141,
      142,
      143,
      144,
      145,
      146,
      147,
      148,
      149,
      150,
      151,
      152,
      153,
      154,
      155,
      156,
      157,
      158,
      159,
      160,
      161,
      162,
      163,
      164,
      165,
      166,
      167,
      168,
      169,
      170,
      171,
      172,
      173,
      174,
      175,
      176,
      177,
      178,
      179,
      180,
      181,
      182,
      183,
      184,
      185,
      186,
      187,
      188,
      189,
      190,
      191,
      192,
      193,
      194,
      195,
      196,
      197,
      198,
      199,
      200,
      201,
      202,
      203,
      204,
      205,
      206,
      207,
      208,
      209,
      210,
      211,
      212,
      213,
      214,
      215,
      216,
      217,
      218,
      219,
      220,
      221,
      222,
      223,
      224,
      225,
      226,
      227,
      228,
      229,
      230,
      231,
      232,
      233,
      234,
      235,
      236,
      237,
      238,
      239,
      240,
      241,
      242,
      243,
      244,
      245,
      246,
      247,
      248,
      249
    ],
    "timestamps": [
      "2022-11-03T09:11:26.077849",
      "2022-11-03T09:11:30.197364",
      "2022-11-03T09:11:34.290019",
      "2022-11-03T09:11:38.465079",
      "2022-11-03T09:11:42.432732",
      "2022-11-03T09:11:46.491337",
      "2022-11-03T09:11:50.661475",
      "2022-11-03T09:11:54.716799",
      "2022-11-03T09:11:58.800197",
      "2022-11-03T09:12:02.911282",
      "2022-11-03T09:12:07.006035",
      "2022-11-03T09:12:11.017729",
      "2022-11-03T09:12:15.043737",
      "2022-11-03T09:12:19.059562",
      "2022-11-03T09:12:23.212645",
      "2022-11-03T09:12:27.257786",
      "2022-11-03T09:12:31.240154",
      "2022-11-03T09:12:35.286907",
      "2022-11-03T09:12:39.282902",
      "2022-11-03T09:12:43.435296",
      "2022-11-03T09:12:47.605424",
      "2022-11-03T09:12:51.831346",
      "2022-11-03T09:12:55.882634",
      "2022-11-03T09:12:59.962365",
      "2022-11-03T09:13:03.961700",
      "2022-11-03T09:13:08.135185",
      "2022-11-03T09:13:12.134500",
      "2022-11-03T09:13:16.137440",
      "2022-11-03T09:13:20.230035",
      "2022-11-03T09:13:24.272335",
      "2022-11-03T09:13:28.361225",
      "2022-11-03T09:13:32.325131",
      "2022-11-03T09:13:36.267785",
      "2022-11-03T09:13:40.208225",
      "2022-11-03T09:13:44.145623",
      "2022-11-03T09:13:48.194433",
      "2022-11-03T09:13:52.255479",
      "2022-11-03T09:13:56.472332",
      "2022-11-03T09:14:00.532163",
      "2022-11-03T09:14:04.463839",
      "2022-11-03T09:14:08.468806",
      "2022-11-03T09:14:12.433621",
      "2022-11-03T09:14:16.600159",
      "2022-11-03T09:14:20.583280",
      "2022-11-03T09:14:24.538888",
      "2022-11-03T09:14:28.540320",
      "2022-11-03T09:14:32.590760",
      "2022-11-03T09:14:36.540946",
      "2022-11-03T09:14:40.557039",
      "2022-11-03T09:14:44.648232",
      "2022-11-03T09:14:48.668147",
      "2022-11-03T09:14:52.674085",
      "2022-11-03T09:14:56.654816",
      "2022-11-03T09:15:00.734259",
      "2022-11-03T09:15:04.770377",
      "2022-11-03T09:15:08.854353",
      "2022-11-03T09:15:13.031340",
      "2022-11-03T09:15:17.006254",
      "2022-11-03T09:15:21.041125",
      "2022-11-03T09:15:25.074817",
      "2022-11-03T09:15:29.062035",
      "2022-11-03T09:15:33.611190",
      "2022-11-03T09:15:38.198632",
      "2022-11-03T09:15:42.219316",
      "2022-11-03T09:15:46.313760",
      "2022-11-03T09:15:50.364492",
      "2022-11-03T09:15:54.309022",
      "2022-11-03T09:15:58.266648",
      "2022-11-03T09:16:02.495334",
      "2022-11-03T09:16:06.555504",
      "2022-11-03T09:16:10.545725",
      "2022-11-03T09:16:14.596646",
      "2022-11-03T09:16:18.706514",
      "2022-11-03T09:16:22.707196",
      "2022-11-03T09:16:26.743191",
      "2022-11-03T09:16:30.775229",
      "2022-11-03T09:16:34.756103",
      "2022-11-03T09:16:38.706109",
      "2022-11-03T09:16:42.642533",
      "2022-11-03T09:16:46.734129",
      "2022-11-03T09:16:50.992968",
      "2022-11-03T09:16:55.230306",
      "2022-11-03T09:16:59.238451",
      "2022-11-03T09:17:03.228021",
      "2022-11-03T09:17:07.169319",
      "2022-11-03T09:17:11.156700",
      "2022-11-03T09:17:15.083781",
      "2022-11-03T09:17:19.047525",
      "2022-11-03T09:17:22.975836",
      "2022-11-03T09:17:26.976579",
      "2022-11-03T09:17:30.942447",
      "2022-11-03T09:17:34.981424",
      "2022-11-03T09:17:39.059505",
      "2022-11-03T09:17:43.211321",
      "2022-11-03T09:17:47.420954",
      "2022-11-03T09:17:51.476683",
      "2022-11-03T09:17:55.412599",
      "2022-11-03T09:17:59.404809",
      "2022-11-03T09:18:03.335170",
      "2022-11-03T09:18:07.289393",
      "2022-11-03T09:18:11.425425",
      "2022-11-03T09:18:15.654389",
      "2022-11-03T09:18:19.803762",
      "2022-11-03T09:18:23.976107",
      "2022-11-03T09:18:28.154164",
      "2022-11-03T09:18:32.354182",
      "2022-11-03T09:18:36.444857",
      "2022-11-03T09:18:40.474913",
      "2022-11-03T09:18:44.475620",
      "2022-11-03T09:18:48.665666",
      "2022-11-03T09:18:52.742674",
      "2022-11-03T09:18:56.895808",
      "2022-11-03T09:19:01.072883",
      "2022-11-03T09:19:05.200626",
      "2022-11-03T09:19:09.390724",
      "2022-11-03T09:19:13.501522",
      "2022-11-03T09:19:17.598415",
      "2022-11-03T09:19:21.780714",
      "2022-11-03T09:19:25.957006",
      "2022-11-03T09:19:30.125614",
      "2022-11-03T09:19:34.269918",
      "2022-11-03T09:19:38.320190",
      "2022-11-03T09:19:42.426365",
      "2022-11-03T09:19:46.444929",
      "2022-11-03T09:19:50.644862",
      "2022-11-03T09:19:54.854202",
      "2022-11-03T09:19:59.024213",
      "2022-11-03T09:20:03.150760",
      "2022-11-03T09:20:07.323808",
      "2022-11-03T09:20:11.334350",
      "2022-11-03T09:20:15.564141",
      "2022-11-03T09:20:19.625700",
      "2022-11-03T09:20:23.734651",
      "2022-11-03T09:20:27.826506",
      "2022-11-03T09:20:31.864147",
      "2022-11-03T09:20:35.882361",
      "2022-11-03T09:20:40.004185",
      "2022-11-03T09:20:44.018442",
      "2022-11-03T09:20:47.995588",
      "2022-11-03T09:20:51.989352",
      "2022-11-03T09:20:56.082949",
      "2022-11-03T09:21:00.156677",
      "2022-11-03T09:21:04.183246",
      "2022-11-03T09:21:08.231744",
      "2022-11-03T09:21:12.253958",
      "2022-11-03T09:21:16.329900",
      "2022-11-03T09:21:20.340810",
      "2022-11-03T09:21:24.391646",
      "2022-11-03T09:21:28.417922",
      "2022-11-03T09:21:32.430025",
      "2022-11-03T11:03:29.901228",
      "2022-11-03T11:03:33.953646",
      "2022-11-03T11:03:37.970507",
      "2022-11-03T11:03:42.009031",
      "2022-11-03T11:03:46.080895",
      "2022-11-03T11:03:50.107774",
      "2022-11-03T11:03:54.135448",
      "2022-11-03T11:03:58.144634",
      "2022-11-03T11:04:02.167977",
      "2022-11-03T11:04:06.186508",
      "2022-11-03T11:04:10.216066",
      "2022-11-03T11:04:14.240859",
      "2022-11-03T11:04:18.256013",
      "2022-11-03T11:04:22.277062",
      "2022-11-03T11:04:26.298385",
      "2022-11-03T11:04:30.311469",
      "2022-11-03T11:04:34.330979",
      "2022-11-03T11:04:38.403727",
      "2022-11-03T11:04:42.425964",
      "2022-11-03T11:04:46.447051",
      "2022-11-03T11:04:50.468747",
      "2022-11-03T11:04:54.501696",
      "2022-11-03T11:04:58.513100",
      "2022-11-03T11:05:02.538452",
      "2022-11-03T11:05:06.565611",
      "2022-11-03T11:05:10.603614",
      "2022-11-03T11:05:14.631026",
      "2022-11-03T11:05:18.669718",
      "2022-11-03T11:05:22.694768",
      "2022-11-03T11:05:26.708273",
      "2022-11-03T11:05:30.737915",
      "2022-11-03T11:05:34.772210",
      "2022-11-03T11:05:38.801993",
      "2022-11-03T11:05:42.844797",
      "2022-11-03T11:05:46.877476",
      "2022-11-03T11:05:50.900275",
      "2022-11-03T11:05:54.925052",
      "2022-11-03T11:05:58.952581",
      "2022-11-03T11:06:02.983045",
      "2022-11-03T11:06:07.014893",
      "2022-11-03T11:06:11.044738",
      "2022-11-03T11:06:15.070534",
      "2022-11-03T11:06:19.093047",
      "2022-11-03T11:06:23.122956",
      "2022-11-03T11:06:27.149992",
      "2022-11-03T11:06:31.179207",
      "2022-11-03T11:06:35.202140",
      "2022-11-03T11:06:39.228402",
      "2022-11-03T11:06:43.261598",
      "2022-11-03T11:06:47.286556",
      "2022-11-03T11:06:51.326865",
      "2022-11-03T11:06:55.370981",
      "2022-11-03T11:06:59.414944",
      "2022-11-03T11:07:03.457851",
      "2022-11-03T11:07:07.485544",
      "2022-11-03T11:07:11.509726",
      "2022-11-03T11:07:15.540058",
      "2022-11-03T11:07:19.569806",
      "2022-11-03T11:07:23.606340",
      "2022-11-03T11:07:27.635194",
      "2022-11-03T11:07:31.669281",
      "2022-11-03T11:07:35.699339",
      "2022-11-03T11:07:39.732446",
      "2022-11-03T11:07:43.760702",
      "2022-11-03T11:07:47.778668",
      "2022-11-03T11:07:51.800418",
      "2022-11-03T11:07:55.826828",
      "2022-11-03T11:07:59.853639",
      "2022-11-03T11:08:03.883919",
      "2022-11-03T11:08:07.902836",
      "2022-11-03T11:08:11.934144",
      "2022-11-03T11:08:15.960642",
      "2022-11-03T11:08:19.981371",
      "2022-11-03T11:08:24.011959",
      "2022-11-03T11:08:28.039989",
      "2022-11-03T11:08:32.071860",
      "2022-11-03T11:08:36.096773",
      "2022-11-03T11:08:40.117356",
      "2022-11-03T11:08:44.147101",
      "2022-11-03T11:08:48.166343",
      "2022-11-03T11:08:52.205518",
      "2022-11-03T11:08:56.236113",
      "2022-11-03T11:09:00.259178",
      "2022-11-03T11:09:04.291997",
      "2022-11-03T11:09:08.309058",
      "2022-11-03T11:09:12.333988",
      "2022-11-03T11:09:16.360674",
      "2022-11-03T11:09:20.392297",
      "2022-11-03T11:09:24.422538",
      "2022-11-03T11:09:28.452404",
      "2022-11-03T11:09:32.492005",
      "2022-11-03T11:09:36.517812",
      "2022-11-03T11:09:40.543908",
      "2022-11-03T11:09:44.566040",
      "2022-11-03T11:09:48.590361",
      "2022-11-03T11:09:52.617561",
      "2022-11-03T11:09:56.646514",
      "2022-11-03T11:10:00.672857",
      "2022-11-03T11:10:04.704574",
      "2022-11-03T11:10:08.727273",
      "2022-11-03T11:10:12.763436",
      "2022-11-03T11:10:16.786712",
      "2022-11-03T11:10:20.810586",
      "2022-11-03T11:10:24.839934",
      "2022-11-03T11:10:28.860287",
      "2022-11-03T11:10:32.898415",
      "2022-11-03T11:10:36.924643",
      "2022-11-03T11:10:40.953661",
      "2022-11-03T11:10:44.978263",
      "2022-11-03T11:10:48.999412",
      "2022-11-03T11:10:53.033158",
      "2022-11-03T11:10:57.054570",
      "2022-11-03T11:11:01.077506",
      "2022-11-03T11:11:05.107747",
      "2022-11-03T11:11:09.137691",
      "2022-11-03T11:11:13.175477",
      "2022-11-03T11:11:17.193072",
      "2022-11-03T11:11:21.216870",
      "2022-11-03T11:11:25.242119",
      "2022-11-03T11:11:29.263112",
      "2022-11-03T11:11:33.301817",
      "2022-11-03T11:11:37.323662",
      "2022-11-03T11:11:41.362420",
      "2022-11-03T11:11:45.396080",
      "2022-11-03T11:11:49.419865",
      "2022-11-03T11:11:53.445280",
      "2022-11-03T11:11:57.471409",
      "2022-11-03T11:12:01.498497",
      "2022-11-03T11:12:05.531114",
      "2022-11-03T11:12:09.553751",
      "2022-11-03T11:12:13.587665",
      "2022-11-03T11:12:17.610670",
      "2022-11-03T11:12:21.638909",
      "2022-11-03T11:12:25.669132",
      "2022-11-03T11:12:29.689494",
      "2022-11-03T11:12:33.730045",
      "2022-11-03T11:12:37.758961",
      "2022-11-03T11:12:41.800026",
      "2022-11-03T11:12:45.828702",
      "2022-11-03T11:12:49.856190",
      "2022-11-03T11:12:53.893914",
      "2022-11-03T11:12:57.921573",
      "2022-11-03T11:13:01.954716",
      "2022-11-03T11:13:05.986409",
      "2022-11-03T11:13:10.002641",
      "2022-11-03T11:13:14.031724",
      "2022-11-03T11:13:18.065409",
      "2022-11-03T11:13:22.091013",
      "2022-11-03T11:13:26.122324",
      "2022-11-03T11:13:30.145861",
      "2022-11-03T11:13:34.197479",
      "2022-11-03T11:13:38.229658",
      "2022-11-03T11:13:42.267186",
      "2022-11-03T11:13:46.290473",
      "2022-11-03T11:13:50.315060",
      "2022-11-03T11:13:54.361172",
      "2022-11-03T11:13:58.382325",
      "2022-11-03T11:14:02.406592",
      "2022-11-03T11:14:06.438782",
      "2022-11-03T11:14:10.477997",
      "2022-11-03T11:14:14.526133",
      "2022-11-03T11:14:18.551861",
      "2022-11-03T11:14:22.581770",
      "2022-11-03T11:14:26.606692",
      "2022-11-03T11:14:30.644527",
      "2022-11-03T11:14:34.684813",
      "2022-11-03T11:14:38.710351",
      "2022-11-03T11:14:42.739609",
      "2022-11-03T11:14:46.768759",
      "2022-11-03T11:14:50.794328",
      "2022-11-03T11:14:54.841055",
      "2022-11-03T11:14:58.863086",
      "2022-11-03T11:15:02.892051",
      "2022-11-03T11:15:06.911926",
      "2022-11-03T11:15:10.930717",
      "2022-11-03T11:15:14.961658",
      "2022-11-03T11:15:18.977136",
      "2022-11-03T11:15:23.002481",
      "2022-11-03T11:15:27.022023",
      "2022-11-03T11:15:31.038233",
      "2022-11-03T11:15:35.079180",
      "2022-11-03T11:15:39.101399",
      "2022-11-03T11:15:43.134638",
      "2022-11-03T11:15:47.155036",
      "2022-11-03T11:15:51.177520",
      "2022-11-03T11:15:55.202832",
      "2022-11-03T11:15:59.218039",
      "2022-11-03T11:16:03.249854",
      "2022-11-03T11:16:07.270069",
      "2022-11-03T11:16:11.285350",
      "2022-11-03T11:16:15.323595",
      "2022-11-03T11:16:19.342884",
      "2022-11-03T11:16:23.369877",
      "2022-11-03T11:16:27.391386",
      "2022-11-03T11:16:31.418997",
      "2022-11-03T11:16:35.456620",
      "2022-11-03T11:16:39.482115",
      "2022-11-03T11:16:43.509479",
      "2022-11-03T11:16:47.529999",
      "2022-11-03T11:16:51.551371",
      "2022-11-03T11:16:55.587545",
      "2022-11-03T11:16:59.616518",
      "2022-11-03T11:17:03.640632",
      "2022-11-03T11:17:07.671894",
      "2022-11-03T11:17:11.705872",
      "2022-11-03T11:17:15.734411",
      "2022-11-03T11:17:19.754485",
      "2022-11-03T11:17:23.782708",
      "2022-11-03T11:17:27.800839",
      "2022-11-03T11:17:31.823909",
      "2022-11-03T11:17:35.886829",
      "2022-11-03T11:17:39.923752",
      "2022-11-03T11:17:43.961901",
      "2022-11-03T11:17:47.998909",
      "2022-11-03T11:17:52.025202",
      "2022-11-03T11:17:56.056342",
      "2022-11-03T11:18:00.079957",
      "2022-11-03T11:18:04.120973",
      "2022-11-03T11:18:08.144265",
      "2022-11-03T11:18:12.162858",
      "2022-11-03T11:18:16.197736",
      "2022-11-03T11:18:20.221112",
      "2022-11-03T11:18:24.261442",
      "2022-11-03T11:18:28.290576",
      "2022-11-03T11:18:32.328896",
      "2022-11-03T11:18:36.351155",
      "2022-11-03T11:18:40.378543",
      "2022-11-03T11:18:44.403143",
      "2022-11-03T11:18:48.419206",
      "2022-11-03T11:18:52.446861",
      "2022-11-03T11:18:56.481247",
      "2022-11-03T11:19:00.505361",
      "2022-11-03T11:19:04.538455",
      "2022-11-03T11:19:08.567677",
      "2022-11-03T11:19:12.604753",
      "2022-11-03T11:19:16.640637",
      "2022-11-03T11:19:20.665816",
      "2022-11-03T11:19:24.695101",
      "2022-11-03T11:19:28.718718",
      "2022-11-03T11:19:32.750258",
      "2022-11-03T11:19:36.777338",
      "2022-11-03T11:19:40.806853",
      "2022-11-03T11:19:44.836108",
      "2022-11-03T11:19:48.854177",
      "2022-11-03T11:19:52.881670",
      "2022-11-03T11:19:56.898459",
      "2022-11-03T11:20:00.917842",
      "2022-11-03T11:20:04.941007",
      "2022-11-03T11:20:08.962994",
      "2022-11-03T11:20:12.988887"
    ],
    "values": [
      131.5127843475342,
      89.76976028442382,
      17.271301670074465,
      15.657083644866944,
      14.18320728302002,
      16.26410888671875,
      29.888829116821288,
      12.707289752960206,
      16.84201103210449,
      16.351070079803467,
      12.924195919036865,
      10.72595973968506,
      10.560965003967285,
      11.608786888122559,
      10.432648258209229,
      11.467621479034424,
      9.72354787826538,
      13.273951473236083,
      14.403074016571045,
      10.00406105041504,
      10.508332233428956,
      9.405150184631347,
      11.683372020721436,
      9.623733348846436,
      10.257607746124268,
      29.160499610900878,
      29.412277069091797,
      12.269925632476806,
      9.222748041152954,
      8.305955820083618,
      8.45363395690918,
      7.183554210662842,
      11.15907039642334,
      7.677344732284546,
      43.70071187973022,
      7.694495916366577,
      9.553653345108032,
      6.751283702850341,
      6.637292985916138,
      10.93036060333252,
      6.173510313034058,
      6.478744716644287,
      8.176684589385987,
      11.279679260253907,
      20.486322116851806,
      20.10505983352661,
      8.465275611877441,
      13.541763763427735,
      6.7662661743164065,
      6.98704888343811,
      6.6674645805358885,
      7.0101306438446045,
      6.182740087509155,
      7.018068437576294,
      7.35278579711914,
      6.295819778442382,
      8.043095417022705,
      7.280294666290283,
      6.554757814407349,
      6.232926845550537,
      5.954816608428955,
      5.83417685508728,
      6.872757902145386,
      7.098815879821777,
      6.804056138992309,
      8.400804643630982,
      8.341516046524047,
      6.136049242019653,
      5.784904689788818,
      6.755168361663818,
      5.7812213039398195,
      6.432629413604737,
      12.419604749679566,
      11.02573802947998,
      6.89842303276062,
      6.868256025314331,
      7.971710433959961,
      6.141781940460205,
      6.2028232669830325,
      5.738421535491943,
      5.575695428848267,
      6.417178173065185,
      6.9936277866363525,
      7.112123994827271,
      15.558966884613037,
      7.148915462493896,
      5.785551834106445,
      5.626639270782471,
      6.582047815322876,
      6.6830095863342285,
      6.340667867660523,
      6.014366693496704,
      5.417562189102173,
      5.261603593826294,
      5.4296044254302975,
      6.919061698913574,
      5.4983686923980715,
      5.705471601486206,
      5.42121057510376,
      5.904745998382569,
      8.369988489151002,
      5.518729381561279,
      5.751381692886352,
      5.425454568862915,
      5.55651668548584,
      5.443128700256348,
      6.551410713195801,
      5.96510350227356,
      21.853379821777345,
      9.685682249069213,
      13.108951358795165,
      5.798494272232055,
      9.523938179016113,
      5.487901220321655,
      6.373429384231567,
      5.466689329147339,
      5.388062229156494,
      5.67844554901123,
      7.350161476135254,
      5.455610895156861,
      5.294980487823486,
      6.254929819107056,
      5.511125926971435,
      5.789863901138306,
      5.507563562393188,
      5.367596445083618,
      9.19646848678589,
      6.926543378829956,
      6.13922604560852,
      6.9342232513427735,
      5.404854717254639,
      7.745948047637939,
      6.347975568771362,
      6.881195669174194,
      6.656902132034301,
      12.359042301177979,
      8.420147256851196,
      6.388579549789429,
      4.66582676410675,
      4.709380931854248,
      4.6640643119812015,
      4.679656867980957,
      4.633571348190308,
      4.592363748550415,
      4.6559980106353756,
      4.634466896057129,
      4.642974967956543,
      4.626818742752075,
      4.629133954048156,
      4.678417234420777,
      4.580353803634644,
      4.608041439056397,
      4.563094711303711,
      4.573982844352722,
      4.568628325462341,
      4.565717267990112,
      4.573526821136475,
      4.537371535301208,
      4.541298522949218,
      4.564916214942932,
      4.658802261352539,
      4.59685378074646,
      4.584768018722534,
      4.580288143157959,
      4.512960271835327,
      4.570498509407043,
      4.500157008171081,
      4.494435315132141,
      4.529773120880127,
      4.587328324317932,
      4.490168180465698,
      4.580765881538391,
      4.58203616142273,
      4.535567688941955,
      4.5616869497299195,
      4.459028697013855,
      4.5421775579452515,
      4.494043378829956,
      4.4402262353897095,
      4.495238451957703,
      4.454470777511597,
      4.422171263694763,
      4.405532255172729,
      4.446573123931885,
      4.398233733177185,
      4.497901945114136,
      4.428502635955811,
      4.553651142120361,
      4.448240156173706,
      4.4459095287323,
      4.4584130191802975,
      4.441416945457458,
      4.737597589492798,
      4.3915578508377076,
      4.457311086654663,
      4.521969351768494,
      4.455327711105347,
      4.45297004699707,
      4.5011048507690425,
      4.397850461006165,
      4.457817196846008,
      4.595817832946778,
      4.3741271114349365,
      4.428350625038147,
      4.3891851377487185,
      4.377472643852234,
      4.374684915542603,
      4.337248210906982,
      4.40525209903717,
      4.40104308128357,
      4.498545136451721,
      4.4070948886871335,
      4.5145703172683715,
      4.37111810207367,
      4.38535126209259,
      4.496633443832398,
      4.44580237865448,
      4.423781981468201,
      4.583089990615845,
      4.419123744964599,
      4.454497709274292,
      4.338864831924439,
      4.361896648406982,
      4.336087007522583,
      4.350830574035644,
      4.3609665632247925,
      4.376210260391235,
      4.359533319473266,
      4.356992430686951,
      4.318000655174256,
      4.33043134689331,
      4.406150436401367,
      4.407347745895386,
      4.324499950408936,
      4.332686581611633,
      4.336339678764343,
      4.253930468559265,
      4.389954161643982,
      4.290648427009582,
      4.395087051391601,
      4.440157370567322,
      4.31133186340332,
      4.286367893218994,
      4.373325099945069,
      4.340408997535706,
      4.30099850654602,
      4.470366315841675,
      4.277352018356323,
      4.3785941028594975,
      4.282190532684326,
      4.289676413536072,
      4.352606959342957,
      4.305332307815552,
      4.375098390579224,
      4.34481249332428,
      4.368251328468323,
      4.404734711647034,
      4.321185426712036,
      4.3039217281341555,
      4.288347024917602,
      4.364836378097534,
      4.314318361282349,
      4.3142699003219604,
      4.280210437774659,
      4.2821942329406735,
      4.382240490913391,
      4.392712187767029,
      4.236129021644592,
      4.248919191360474,
      4.387741165161133,
      4.281145553588868,
      4.293108568191529,
      4.271390390396118,
      4.265348339080811,
      4.6754276561737065,
      4.325595002174378,
      4.273640990257263,
      4.431869425773621,
      4.266297183036804,
      4.28501452922821,
      4.259102101325989,
      4.30741026878357,
      4.294680848121643,
      4.361941566467285,
      4.246795601844788,
      4.363677544593811,
      4.353788814544678,
      4.262369408607483,
      4.243928384780884,
      4.2904546928405765,
      4.268647994995117,
      4.273040204048157,
      4.294340734481811,
      4.307916808128357,
      4.293726511001587,
      4.481932950019837,
      4.284233365058899,
      4.247496209144592,
      4.3814715480804445,
      4.379250950813294,
      4.358376812934876,
      4.223021931648255,
      4.206598463058472,
      4.196399459838867,
      4.2824671268463135,
      4.286867918968201,
      4.281319060325623,
      4.4690165710449214,
      4.240385046005249,
      4.214962391853333,
      4.294435396194458,
      4.260618090629578,
      4.228816103935242,
      4.207134342193603,
      4.240241160392761,
      4.256159062385559,
      4.294665513038635,
      4.275964059829712,
      4.2462873363494875,
      4.209862403869629,
      4.2959791994094845,
      4.232250442504883,
      4.229363250732422,
      4.274236946105957,
      4.23700532913208,
      4.199135327339173,
      4.451683964729309,
      4.209039397239685,
      4.187099318504334,
      4.308584461212158,
      4.2342806243896485,
      4.2517192029953,
      4.20716194152832,
      4.265778155326843,
      4.303079690933227,
      4.258979573249817,
      4.289679417610168,
      4.232214426994323,
      4.254242434501648,
      4.277951560020447,
      4.257954545021057,
      4.2361991548538205,
      4.252406973838806,
      4.272981777191162,
      4.183612184524536,
      4.256827788352966,
      4.1453902578353885,
      4.172127108573914,
      4.1499627542495725,
      4.144798612594604,
      4.182248983383179,
      4.1546048831939695,
      4.125595088005066,
      4.156663427352905,
      4.142208943367004,
      4.138341498374939,
      4.134495434761047,
      4.13728777885437,
      4.1320290899276735,
      4.119006819725037,
      4.1361889028549195,
      4.141709213256836,
      4.142657313346863,
      4.132786245346069,
      4.135289354324341,
      4.141088619232177,
      4.128021330833435,
      4.142023892402649,
      4.13084424495697,
      4.139013476371765,
      4.160318865776062,
      4.161912636756897,
      4.136745295524597,
      4.138292388916016,
      4.158499422073365,
      4.141044673919677,
      4.152627086639404,
      4.137644729614258,
      4.126439752578736,
      4.143462843894959,
      4.140789098739624,
      4.133923206329346,
      4.1323348331451415,
      4.137308382987976,
      4.135220174789429,
      4.113297863006592,
      4.148512001037598,
      4.098651604652405,
      4.117023620605469,
      4.124024214744568,
      4.123985843658447,
      4.123407797813416,
      4.133922309875488,
      4.107284464836121,
      4.124225974082947,
      4.135562210083008,
      4.11076479434967,
      4.137203211784363,
      4.13281861782074,
      4.132257175445557
    ]
  }
}