{
  "test": {
    "steps": [
      0
    ],
    "timestamps": [
      "2022-08-10T03:08:19.043963"
    ],
    "values": [
      11.694763927351518
    ]
  },
  "train": {
    "steps": [
      0,
      1,
      2,
      3,
      4,
      5,
      6,
      7,
      8,
      9,
      10,
      11,
      12,
      13,
      14,
      15,
      16,
      17,
      18,
      19,
      20,
      21,
      22,
      23,
      24,
      25,
      26,
      27,
      28,
      29,
      30,
      31,
      32,
      33,
      34,
      35,
      36,
      37,
      38,
      39,
      40,
      41,
      42,
      43,
      44,
      45,
      46,
      47,
      48,
      49,
      50,
      51,
      52,
      53,
      54,
      55,
      56,
      57,
      58,
      59,
      60,
      61,
      62,
      63,
      64,
      65,
      66,
      67,
      68,
      69,
      70,
      71,
      72,
      73,
      74,
      75,
      76,
      77,
      78,
      79,
      80,
      81,
      82,
      83,
      84,
      85,
      86,
      87,
      88,
      89,
      90,
      91,
      92,
      93,
      94,
      95,
      96,
      97,
      98,
      99,
      100,
      101,
      102,
      103,
      104,
      105,
      106,
      107,
      108,
      109,
      110,
      111,
      112,
      113,
      114,
      115,
      116,
      117,
      118,
      119,
      120,
      121,
      122,
      123,
      124,
      125,
      126,
      127,
      128,
      129,
      130,
      131,
      132,
      133,
      134,
      135,
      136,
      137,
      138,
      139,
      140,
      141,
      142,
      143,
      144,
      145,
      146,
      147,
      148,
      149,
      150,
      151,
      152,
      153,
      154,
      155,
      156,
      157,
      158,
      159,
      160,
      161,
      162,
      163,
      164,
      165,
      166,
      167,
      168,
      169,
      170,
      171,
      172,
      173,
      174,
      175,
      176,
      177,
      178,
      179,
      180,
      181,
      182,
      183,
      184,
      185,
      186,
      187,
      188,
      189,
      190,
      191,
      192,
      193,
      194,
      195,
      196,
      197,
      198,
      199,
      200,
      201,
      202,
      203,
      204,
      205,
      206,
      207,
      208,
      209,
      210,
      211,
      212,
      213,
      214,
      215,
      216,
      217,
      218,
      219,
      220,
      221,
      222,
      223,
      224,
      225,
      226,
      227,
      228,
      229,
      230,
      231,
      232,
      233,
      234,
      235,
      236,
      237,
      238,
      239,
      240,
      241,
      242,
      243,
      244,
      245,
      246,
      247,
      248,
      249,
      250,
      251,
      252,
      253,
      254,
      255,
      256,
      257,
      258,
      259,
      260,
      261,
      262,
      263,
      264,
      265,
      266,
      267,
      268,
      269,
      270,
      271,
      272,
      273,
      274,
      275,
      276,
      277,
      278,
      279,
      280,
      281,
      282,
      283,
      284,
      285,
      286,
      287,
      288,
      289,
      290,
      291,
      292,
      293,
      294,
      295,
      296,
      297,
      298,
      299
    ],
    "timestamps": [
      "2022-08-10T02:58:50.917911",
      "2022-08-10T02:58:53.212437",
      "2022-08-10T02:58:55.025155",
      "2022-08-10T02:58:56.844717",
      "2022-08-10T02:58:58.664738",
      "2022-08-10T02:59:00.626230",
      "2022-08-10T02:59:02.814785",
      "2022-08-10T02:59:04.606686",
      "2022-08-10T02:59:06.386903",
      "2022-08-10T02:59:08.180913",
      "2022-08-10T02:59:10.029023",
      "2022-08-10T02:59:12.067557",
      "2022-08-10T02:59:13.955796",
      "2022-08-10T02:59:15.832095",
      "2022-08-10T02:59:17.618606",
      "2022-08-10T02:59:19.459603",
      "2022-08-10T02:59:21.802991",
      "2022-08-10T02:59:23.752379",
      "2022-08-10T02:59:25.549267",
      "2022-08-10T02:59:27.359888",
      "2022-08-10T02:59:29.340801",
      "2022-08-10T02:59:31.411337",
      "2022-08-10T02:59:33.194239",
      "2022-08-10T02:59:34.969869",
      "2022-08-10T02:59:36.756234",
      "2022-08-10T02:59:38.540692",
      "2022-08-10T02:59:40.450258",
      "2022-08-10T02:59:42.480191",
      "2022-08-10T02:59:44.265862",
      "2022-08-10T02:59:46.047542",
      "2022-08-10T02:59:47.913125",
      "2022-08-10T02:59:49.849309",
      "2022-08-10T02:59:51.674542",
      "2022-08-10T02:59:53.543496",
      "2022-08-10T02:59:55.494025",
      "2022-08-10T02:59:57.278169",
      "2022-08-10T02:59:59.057371",
      "2022-08-10T03:00:00.937346",
      "2022-08-10T03:00:02.926412",
      "2022-08-10T03:00:04.696744",
      "2022-08-10T03:00:06.488690",
      "2022-08-10T03:00:08.373040",
      "2022-08-10T03:00:10.345381",
      "2022-08-10T03:00:12.133188",
      "2022-08-10T03:00:13.916518",
      "2022-08-10T03:00:15.702708",
      "2022-08-10T03:00:17.482404",
      "2022-08-10T03:00:19.307969",
      "2022-08-10T03:00:21.406867",
      "2022-08-10T03:00:23.323280",
      "2022-08-10T03:00:25.105949",
      "2022-08-10T03:00:26.896712",
      "2022-08-10T03:00:28.855949",
      "2022-08-10T03:00:30.771337",
      "2022-08-10T03:00:32.640366",
      "2022-08-10T03:00:34.550771",
      "2022-08-10T03:00:36.421808",
      "2022-08-10T03:00:38.219602",
      "2022-08-10T03:00:40.096932",
      "2022-08-10T03:00:42.030141",
      "2022-08-10T03:00:44.020336",
      "2022-08-10T03:00:45.807838",
      "2022-08-10T03:00:47.638436",
      "2022-08-10T03:00:49.457902",
      "2022-08-10T03:00:51.491462",
      "2022-08-10T03:00:53.425313",
      "2022-08-10T03:00:55.211762",
      "2022-08-10T03:00:57.031657",
      "2022-08-10T03:00:58.820154",
      "2022-08-10T03:01:00.732277",
      "2022-08-10T03:01:02.861421",
      "2022-08-10T03:01:04.641374",
      "2022-08-10T03:01:06.423469",
      "2022-08-10T03:01:08.212735",
      "2022-08-10T03:01:10.064251",
      "2022-08-10T03:01:12.419868",
      "2022-08-10T03:01:14.242171",
      "2022-08-10T03:01:16.020986",
      "2022-08-10T03:01:17.812362",
      "2022-08-10T03:01:19.597796",
      "2022-08-10T03:01:21.579043",
      "2022-08-10T03:01:23.543182",
      "2022-08-10T03:01:25.345701",
      "2022-08-10T03:01:27.160537",
      "2022-08-10T03:01:28.957022",
      "2022-08-10T03:01:30.936113",
      "2022-08-10T03:01:32.934407",
      "2022-08-10T03:01:34.716512",
      "2022-08-10T03:01:36.498267",
      "2022-08-10T03:01:38.326565",
      "2022-08-10T03:01:40.170808",
      "2022-08-10T03:01:42.166268",
      "2022-08-10T03:01:44.075100",
      "2022-08-10T03:01:45.906629",
      "2022-08-10T03:01:47.693938",
      "2022-08-10T03:01:49.488128",
      "2022-08-10T03:01:51.443135",
      "2022-08-10T03:01:53.363783",
      "2022-08-10T03:01:55.186402",
      "2022-08-10T03:01:57.101538",
      "2022-08-10T03:01:59.159390",
      "2022-08-10T03:02:01.349477",
      "2022-08-10T03:02:03.144871",
      "2022-08-10T03:02:04.950962",
      "2022-08-10T03:02:06.737502",
      "2022-08-10T03:02:08.509696",
      "2022-08-10T03:02:10.453758",
      "2022-08-10T03:02:12.371764",
      "2022-08-10T03:02:14.279531",
      "2022-08-10T03:02:16.057600",
      "2022-08-10T03:02:17.925488",
      "2022-08-10T03:02:19.910841",
      "2022-08-10T03:02:21.803176",
      "2022-08-10T03:02:23.756548",
      "2022-08-10T03:02:25.725043",
      "2022-08-10T03:02:27.522883",
      "2022-08-10T03:02:29.332364",
      "2022-08-10T03:02:31.257257",
      "2022-08-10T03:02:33.229957",
      "2022-08-10T03:02:35.036902",
      "2022-08-10T03:02:36.947256",
      "2022-08-10T03:02:38.941398",
      "2022-08-10T03:02:40.767693",
      "2022-08-10T03:02:43.160134",
      "2022-08-10T03:02:45.619600",
      "2022-08-10T03:02:47.435999",
      "2022-08-10T03:02:49.250187",
      "2022-08-10T03:02:51.175382",
      "2022-08-10T03:02:53.130743",
      "2022-08-10T03:02:54.939061",
      "2022-08-10T03:02:56.821012",
      "2022-08-10T03:02:58.799387",
      "2022-08-10T03:03:00.629821",
      "2022-08-10T03:03:02.538702",
      "2022-08-10T03:03:04.689004",
      "2022-08-10T03:03:06.469687",
      "2022-08-10T03:03:08.304308",
      "2022-08-10T03:03:10.204164",
      "2022-08-10T03:03:12.129743",
      "2022-08-10T03:03:14.025398",
      "2022-08-10T03:03:15.856412",
      "2022-08-10T03:03:17.666816",
      "2022-08-10T03:03:19.695592",
      "2022-08-10T03:03:21.549922",
      "2022-08-10T03:03:23.344260",
      "2022-08-10T03:03:25.134460",
      "2022-08-10T03:03:26.922752",
      "2022-08-10T03:03:28.708916",
      "2022-08-10T03:03:30.722279",
      "2022-08-10T03:03:32.690088",
      "2022-08-10T03:03:34.489627",
      "2022-08-10T03:03:36.367127",
      "2022-08-10T03:03:38.320310",
      "2022-08-10T03:03:40.122387",
      "2022-08-10T03:03:42.098555",
      "2022-08-10T03:03:44.065324",
      "2022-08-10T03:03:45.877927",
      "2022-08-10T03:03:47.687246",
      "2022-08-10T03:03:49.499246",
      "2022-08-10T03:03:51.428019",
      "2022-08-10T03:03:53.393318",
      "2022-08-10T03:03:55.211138",
      "2022-08-10T03:03:58.036269",
      "2022-08-10T03:04:00.005389",
      "2022-08-10T03:04:01.938525",
      "2022-08-10T03:04:03.877754",
      "2022-08-10T03:04:05.667964",
      "2022-08-10T03:04:07.458614",
      "2022-08-10T03:04:09.274907",
      "2022-08-10T03:04:11.718026",
      "2022-08-10T03:04:13.773640",
      "2022-08-10T03:04:15.554737",
      "2022-08-10T03:04:17.339240",
      "2022-08-10T03:04:19.115587",
      "2022-08-10T03:04:21.021565",
      "2022-08-10T03:04:23.063369",
      "2022-08-10T03:04:24.840379",
      "2022-08-10T03:04:26.627979",
      "2022-08-10T03:04:28.407593",
      "2022-08-10T03:04:30.242321",
      "2022-08-10T03:04:32.576159",
      "2022-08-10T03:04:34.521128",
      "2022-08-10T03:04:36.348592",
      "2022-08-10T03:04:38.129814",
      "2022-08-10T03:04:39.906772",
      "2022-08-10T03:04:41.931474",
      "2022-08-10T03:04:43.833138",
      "2022-08-10T03:04:45.610753",
      "2022-08-10T03:04:47.393847",
      "2022-08-10T03:04:49.174154",
      "2022-08-10T03:04:51.252286",
      "2022-08-10T03:04:53.319023",
      "2022-08-10T03:04:55.131575",
      "2022-08-10T03:04:56.942753",
      "2022-08-10T03:04:58.749162",
      "2022-08-10T03:05:00.637292",
      "2022-08-10T03:05:02.689645",
      "2022-08-10T03:05:04.514274",
      "2022-08-10T03:05:06.327861",
      "2022-08-10T03:05:08.138513",
      "2022-08-10T03:05:09.954865",
      "2022-08-10T03:05:12.108528",
      "2022-08-10T03:05:13.968406",
      "2022-08-10T03:05:15.781038",
      "2022-08-10T03:05:17.593240",
      "2022-08-10T03:05:19.413129",
      "2022-08-10T03:05:21.377584",
      "2022-08-10T03:05:23.329069",
      "2022-08-10T03:05:25.138080",
      "2022-08-10T03:05:26.948798",
      "2022-08-10T03:05:28.857230",
      "2022-08-10T03:05:30.844619",
      "2022-08-10T03:05:32.681254",
      "2022-08-10T03:05:34.488916",
      "2022-08-10T03:05:36.300436",
      "2022-08-10T03:05:38.112063",
      "2022-08-10T03:05:40.010699",
      "2022-08-10T03:05:41.989372",
      "2022-08-10T03:05:43.906805",
      "2022-08-10T03:05:45.714775",
      "2022-08-10T03:05:47.606887",
      "2022-08-10T03:05:49.646154",
      "2022-08-10T03:05:51.455707",
      "2022-08-10T03:05:53.361951",
      "2022-08-10T03:05:55.336171",
      "2022-08-10T03:05:57.160196",
      "2022-08-10T03:05:58.970045",
      "2022-08-10T03:06:00.879164",
      "2022-08-10T03:06:02.880360",
      "2022-08-10T03:06:04.695655",
      "2022-08-10T03:06:06.584097",
      "2022-08-10T03:06:08.568487",
      "2022-08-10T03:06:10.417290",
      "2022-08-10T03:06:12.798867",
      "2022-08-10T03:06:15.228162",
      "2022-08-10T03:06:17.023842",
      "2022-08-10T03:06:18.819754",
      "2022-08-10T03:06:20.763793",
      "2022-08-10T03:06:22.767993",
      "2022-08-10T03:06:24.609970",
      "2022-08-10T03:06:26.489411",
      "2022-08-10T03:06:28.494558",
      "2022-08-10T03:06:30.309967",
      "2022-08-10T03:06:32.210053",
      "2022-08-10T03:06:34.182848",
      "2022-08-10T03:06:35.986682",
      "2022-08-10T03:06:37.789365",
      "2022-08-10T03:06:39.611814",
      "2022-08-10T03:06:41.558453",
      "2022-08-10T03:06:43.542379",
      "2022-08-10T03:06:45.380175",
      "2022-08-10T03:06:47.335534",
      "2022-08-10T03:06:49.243772",
      "2022-08-10T03:06:51.113177",
      "2022-08-10T03:06:53.156366",
      "2022-08-10T03:06:54.980657",
      "2022-08-10T03:06:56.795665",
      "2022-08-10T03:06:58.605084",
      "2022-08-10T03:07:00.484700",
      "2022-08-10T03:07:02.459971",
      "2022-08-10T03:07:04.354349",
      "2022-08-10T03:07:06.158751",
      "2022-08-10T03:07:08.017235",
      "2022-08-10T03:07:09.969976",
      "2022-08-10T03:07:11.866128",
      "2022-08-10T03:07:13.675516",
      "2022-08-10T03:07:15.483277",
      "2022-08-10T03:07:17.297483",
      "2022-08-10T03:07:19.146208",
      "2022-08-10T03:07:21.123385",
      "2022-08-10T03:07:23.135651",
      "2022-08-10T03:07:24.946470",
      "2022-08-10T03:07:27.541855",
      "2022-08-10T03:07:29.787338",
      "2022-08-10T03:07:31.605083",
      "2022-08-10T03:07:33.413291",
      "2022-08-10T03:07:36.148426",
      "2022-08-10T03:07:38.136436",
      "2022-08-10T03:07:39.976117",
      "2022-08-10T03:07:41.807886",
      "2022-08-10T03:07:43.761036",
      "2022-08-10T03:07:45.649601",
      "2022-08-10T03:07:47.432476",
      "2022-08-10T03:07:49.242221",
      "2022-08-10T03:07:51.133504",
      "2022-08-10T03:07:53.112715",
      "2022-08-10T03:07:54.907088",
      "2022-08-10T03:07:56.724337",
      "2022-08-10T03:07:58.507455",
      "2022-08-10T03:08:00.340151",
      "2022-08-10T03:08:02.269072",
      "2022-08-10T03:08:04.154805",
      "2022-08-10T03:08:05.933386",
      "2022-08-10T03:08:07.747945",
      "2022-08-10T03:08:09.532827",
      "2022-08-10T03:08:11.524571",
      "2022-08-10T03:08:13.529115",
      "2022-08-10T03:08:15.312856",
      "2022-08-10T03:08:17.086399",
      "2022-08-10T03:08:18.862318"
    ],
    "values": [
      12.578165948758159,
      11.904466077572243,
      11.600524808544668,
      11.48999182399117,
      11.434552889183628,
      11.360859745003888,
      11.313855830150489,
      11.287192404650115,
      11.257599425120919,
      11.255706933783683,
      11.237148046673372,
      11.208092919007054,
      11.17926880384769,
      11.196780262717384,
      11.19390690918391,
      11.19437961697952,
      11.173275398173926,
      11.139410355754842,
      11.189357487557864,
      11.149304267228802,
      11.11942981217211,
      11.139056167316117,
      11.13258514620202,
      11.135324790037593,
      11.109393654110931,
      11.140951823422093,
      11.128220843305154,
      11.148209437276057,
      11.121873724364516,
      11.1175105272284,
      11.1360915626366,
      11.134905673015606,
      11.11339893993109,
      11.122684992059803,
      11.122129810452686,
      11.107923148145128,
      11.090911154079429,
      11.098893781458425,
      11.092873345298186,
      11.083521019130345,
      11.103916531441646,
      11.102012235292136,
      11.099768674941508,
      11.080048668316902,
      11.093049415839287,
      11.068605193869896,
      11.070714451437219,
      11.07220835437678,
      11.102490657037267,
      11.060663102489864,
      11.07645540526243,
      11.072223031898252,
      11.070817179470978,
      11.066566065316403,
      11.079761482965989,
      11.074565583435229,
      11.05258324048285,
      11.069263859765648,
      11.065159776001108,
      11.054358644722672,
      11.063101956826413,
      11.08292167890419,
      11.038767696888478,
      11.064396525111784,
      11.047633349781599,
      11.04831151643039,
      11.043028255254564,
      11.043062281417612,
      11.046715588079396,
      11.023469886976489,
      11.047587485470785,
      11.036455706085619,
      11.023353646012755,
      11.039507894860096,
      11.022753155439664,
      11.04352083629467,
      11.057384748936688,
      11.049723980792756,
      11.056001704630466,
      11.067703972275586,
      11.034523776935885,
      11.024758192906063,
      11.034428976836875,
      11.017126363596137,
      11.011863480968614,
      11.017761288605449,
      11.00484995188212,
      11.026095751325165,
      11.03216570548928,
      11.02439285888645,
      11.030163957402385,
      11.025375332128169,
      11.047676630343453,
      11.02478660537539,
      11.022167646255479,
      11.024823981816967,
      11.033516177338951,
      11.017274854665448,
      11.017261223422617,
      11.020647641622729,
      10.998059942281078,
      11.030687041587278,
      11.017011287313448,
      11.013298791381558,
      11.020866547286234,
      11.022341940808676,
      11.016978812632843,
      11.01543998611435,
      11.02762994587955,
      11.013096085267467,
      11.019131947544736,
      11.019898402105348,
      11.02515712014841,
      11.004571302405362,
      11.010639412545773,
      11.01156433486267,
      11.003978730425,
      10.983669242793802,
      11.027055705546932,
      11.016432070148348,
      11.019546561459526,
      10.99980218469886,
      11.033498189403021,
      11.013734313809593,
      11.007553877971597,
      10.994200131489974,
      11.008333577413305,
      11.043078943597802,
      11.025619146856878,
      11.020394156137503,
      10.998902356710905,
      11.001182506714787,
      10.996568482287834,
      11.010117948426478,
      11.005630312374695,
      11.015575687963088,
      11.02348646146952,
      11.001851573726285,
      11.019980482520468,
      10.939626730412302,
      10.918125100691213,
      10.917056342062233,
      10.916151972969299,
      10.914835859139634,
      10.915077247806572,
      10.914532626268334,
      10.913525275097646,
      10.914042325849614,
      10.914116975261784,
      10.914456462863185,
      10.91443398760267,
      10.911142641335992,
      10.9145020281517,
      10.912756976873927,
      10.911476065397729,
      10.912984588615556,
      10.911597305968032,
      10.91074290450229,
      10.91451941251909,
      10.911502343156323,
      10.913342849515297,
      10.912383713291781,
      10.910063044788453,
      10.912938359242306,
      10.913490523452062,
      10.911859884360842,
      10.91227684279933,
      10.91069706903578,
      10.912171426092952,
      10.91213820193176,
      10.910931108622083,
      10.912258536783042,
      10.910258576809417,
      10.90241766864437,
      10.899384118188243,
      10.899702316574249,
      10.899097199864423,
      10.89921375848958,
      10.899055440175404,
      10.898905496573352,
      10.89941026996837,
      10.89884756179422,
      10.899249498326123,
      10.899096794460638,
      10.8988439529952,
      10.898748966465073,
      10.898978962312714,
      10.898823948737343,
      10.899096511285679,
      10.89901874442504,
      10.89927491666895,
      10.898840987415113,
      10.898886508233932,
      10.899057472137187,
      10.898749329255628,
      10.899201396988165,
      10.897520729961125,
      10.89749835888501,
      10.897547424773016,
      10.89750069733046,
      10.897538464156062,
      10.897510539917771,
      10.897483996036742,
      10.89751077706755,
      10.897442360301604,
      10.89746120509332,
      10.897434130358247,
      10.897458488754985,
      10.89743369014184,
      10.897494779223708,
      10.897436175370336,
      10.897441751386053,
      10.89744922777089,
      10.897438807063129,
      10.89745949355671,
      10.897428247252419,
      10.897451825423538,
      10.897409645848814,
      10.897291557496017,
      10.89729379910154,
      10.897293126866273,
      10.897306194723805,
      10.897307612502551,
      10.89730595360881,
      10.897297678387622,
      10.897300209591823,
      10.897299405418746,
      10.897300451068293,
      10.897298387279672,
      10.89729883000199,
      10.897301311865501,
      10.897296447242397,
      10.8972992607686,
      10.897299099161357,
      10.897298607491718,
      10.89730040017273,
      10.897297433599606,
      10.897299881721107,
      10.897297267273878,
      10.897299496963148,
      10.897296372244828,
      10.897303583952871,
      10.89730205967048,
      10.897296434872617,
      10.897294691661477,
      10.897295053605369,
      10.897297949115627,
      10.897295294264712,
      10.897292806869878,
      10.897294113917479,
      10.897294609662742,
      10.89729352747905,
      10.89729190534532,
      10.897296998468772,
      10.89729123454884,
      10.89728804255207,
      10.89728918146585,
      10.89729074416477,
      10.897288344095848,
      10.897293637153235,
      10.89728659298288,
      10.897286967210503,
      10.897287937013111,
      10.897288704968602,
      10.897285401612928,
      10.897287158989581,
      10.897282998660284,
      10.897286853244793,
      10.897288977978638,
      10.897287141908413,
      10.89728369153895,
      10.897283471606478,
      10.897285063051227,
      10.897282024037043,
      10.89728134615113,
      10.89729278184605,
      10.8972781035873,
      10.897284308181925,
      10.897280317712507,
      10.897278527268243,
      10.897277164071648,
      10.897278218408529,
      10.897278768718964,
      10.897275296016879,
      10.897278372743544,
      10.897277690336384,
      10.897276902117826,
      10.897274108115717,
      10.897275675369785,
      10.897277991697536,
      10.89727531197293,
      10.897273954597415,
      10.89727718415141,
      10.89727539676059,
      10.897274820713125,
      10.89727356960116,
      10.897271909480017,
      10.8972690206079,
      10.897270259347533,
      10.897272032372257
    ]
  },
  "val": {
    "steps": [
      0,
      1,
      2,
      3,
      4,
      5,
      6,
      7,
      8,
      9,
      10,
      11,
      12,
      13,
      14,
      15,
      16,
      17,
      18,
      19,
      20,
      21,
      22,
      23,
      24,
      25,
      26,
      27,
      28,
      29,
      30,
      31,
      32,
      33,
      34,
      35,
      36,
      37,
      38,
      39,
      40,
      41,
      42,
      43,
      44,
      45,
      46,
      47,
      48,
      49,
      50,
      51,
      52,
      53,
      54,
      55,
      56,
      57,
      58,
      59,
      60,
      61,
      62,
      63,
      64,
      65,
      66,
      67,
      68,
      69,
      70,
      71,
      72,
      73,
      74,
      75,
      76,
      77,
      78,
      79,
      80,
      81,
      82,
      83,
      84,
      85,
      86,
      87,
      88,
      89,
      90,
      91,
      92,
      93,
      94,
      95,
      96,
      97,
      98,
      99,
      100,
      101,
      102,
      103,
      104,
      105,
      106,
      107,
      108,
      109,
      110,
      111,
      112,
      113,
      114,
      115,
      116,
      117,
      118,
      119,
      120,
      121,
      122,
      123,
      124,
      125,
      126,
      127,
      128,
      129,
      130,
      131,
      132,
      133,
      134,
      135,
      136,
      137,
      138,
      139,
      140,
      141,
      142,
      143,
      144,
      145,
      146,
      147,
      148,
      149,
      150,
      151,
      152,
      153,
      154,
      155,
      156,
      157,
      158,
      159,
      160,
      161,
      162,
      163,
      164,
      165,
      166,
      167,
      168,
      169,
      170,
      171,
      172,
      173,
      174,
      175,
      176,
      177,
      178,
      179,
      180,
      181,
      182,
      183,
      184,
      185,
      186,
      187,
      188,
      189,
      190,
      191,
      192,
      193,
      194,
      195,
      196,
      197,
      198,
      199,
      200,
      201,
      202,
      203,
      204,
      205,
      206,
      207,
      208,
      209,
      210,
      211,
      212,
      213,
      214,
      215,
      216,
      217,
      218,
      219,
      220,
      221,
      222,
      223,
      224,
      225,
      226,
      227,
      228,
      229,
      230,
      231,
      232,
      233,
      234,
      235,
      236,
      237,
      238,
      239,
      240,
      241,
      242,
      243,
      244,
      245,
      246,
      247,
      248,
      249,
      250,
      251,
      252,
      253,
      254,
      255,
      256,
      257,
      258,
      259,
      260,
      261,
      262,
      263,
      264,
      265,
      266,
      267,
      268,
      269,
      270,
      271,
      272,
      273,
      274,
      275,
      276,
      277,
      278,
      279,
      280,
      281,
      282,
      283,
      284,
      285,
      286,
      287,
      288,
      289,
      290,
      291,
      292,
      293,
      294,
      295,
      296,
      297,
      298,
      299
    ],
    "timestamps": [
      "2022-08-10T02:58:51.060957",
      "2022-08-10T02:58:53.292241",
      "2022-08-10T02:58:55.112102",
      "2022-08-10T02:58:56.932108",
      "2022-08-10T02:58:58.751508",
      "2022-08-10T02:59:00.720975",
      "2022-08-10T02:59:02.902655",
      "2022-08-10T02:59:04.691876",
      "2022-08-10T02:59:06.473434",
      "2022-08-10T02:59:08.266881",
      "2022-08-10T02:59:10.125518",
      "2022-08-10T02:59:12.159016",
      "2022-08-10T02:59:14.041277",
      "2022-08-10T02:59:15.918037",
      "2022-08-10T02:59:17.704703",
      "2022-08-10T02:59:19.545194",
      "2022-08-10T02:59:21.932334",
      "2022-08-10T02:59:23.837263",
      "2022-08-10T02:59:25.635955",
      "2022-08-10T02:59:27.446671",
      "2022-08-10T02:59:29.460157",
      "2022-08-10T02:59:31.495235",
      "2022-08-10T02:59:33.279256",
      "2022-08-10T02:59:35.055665",
      "2022-08-10T02:59:36.841750",
      "2022-08-10T02:59:38.624811",
      "2022-08-10T02:59:40.541749",
      "2022-08-10T02:59:42.566760",
      "2022-08-10T02:59:44.351711",
      "2022-08-10T02:59:46.133057",
      "2022-08-10T02:59:48.005007",
      "2022-08-10T02:59:49.959865",
      "2022-08-10T02:59:51.760176",
      "2022-08-10T02:59:53.635762",
      "2022-08-10T02:59:55.579604",
      "2022-08-10T02:59:57.363841",
      "2022-08-10T02:59:59.142664",
      "2022-08-10T03:00:01.029193",
      "2022-08-10T03:00:03.011779",
      "2022-08-10T03:00:04.780901",
      "2022-08-10T03:00:06.575379",
      "2022-08-10T03:00:08.464603",
      "2022-08-10T03:00:10.432803",
      "2022-08-10T03:00:12.219060",
      "2022-08-10T03:00:14.001650",
      "2022-08-10T03:00:15.788087",
      "2022-08-10T03:00:17.567168",
      "2022-08-10T03:00:19.401007",
      "2022-08-10T03:00:21.498499",
      "2022-08-10T03:00:23.408805",
      "2022-08-10T03:00:25.191509",
      "2022-08-10T03:00:26.981854",
      "2022-08-10T03:00:28.948910",
      "2022-08-10T03:00:30.856487",
      "2022-08-10T03:00:32.730300",
      "2022-08-10T03:00:34.640430",
      "2022-08-10T03:00:36.507418",
      "2022-08-10T03:00:38.305395",
      "2022-08-10T03:00:40.195745",
      "2022-08-10T03:00:42.121594",
      "2022-08-10T03:00:44.105697",
      "2022-08-10T03:00:45.893476",
      "2022-08-10T03:00:47.740478",
      "2022-08-10T03:00:49.543335",
      "2022-08-10T03:00:51.583499",
      "2022-08-10T03:00:53.511060",
      "2022-08-10T03:00:55.297552",
      "2022-08-10T03:00:57.117080",
      "2022-08-10T03:00:58.905366",
      "2022-08-10T03:01:00.830383",
      "2022-08-10T03:01:02.947620",
      "2022-08-10T03:01:04.726779",
      "2022-08-10T03:01:06.508253",
      "2022-08-10T03:01:08.298208",
      "2022-08-10T03:01:10.177877",
      "2022-08-10T03:01:12.509461",
      "2022-08-10T03:01:14.328269",
      "2022-08-10T03:01:16.107139",
      "2022-08-10T03:01:17.897755",
      "2022-08-10T03:01:19.682727",
      "2022-08-10T03:01:21.671947",
      "2022-08-10T03:01:23.635123",
      "2022-08-10T03:01:25.431410",
      "2022-08-10T03:01:27.245732",
      "2022-08-10T03:01:29.051819",
      "2022-08-10T03:01:31.028032",
      "2022-08-10T03:01:33.020935",
      "2022-08-10T03:01:34.801442",
      "2022-08-10T03:01:36.590015",
      "2022-08-10T03:01:38.412190",
      "2022-08-10T03:01:40.265440",
      "2022-08-10T03:01:42.258094",
      "2022-08-10T03:01:44.160358",
      "2022-08-10T03:01:45.991868",
      "2022-08-10T03:01:47.779350",
      "2022-08-10T03:01:49.573643",
      "2022-08-10T03:01:51.534842",
      "2022-08-10T03:01:53.449166",
      "2022-08-10T03:01:55.272136",
      "2022-08-10T03:01:57.215400",
      "2022-08-10T03:01:59.283141",
      "2022-08-10T03:02:01.434737",
      "2022-08-10T03:02:03.230192",
      "2022-08-10T03:02:05.035824",
      "2022-08-10T03:02:06.822730",
      "2022-08-10T03:02:08.594815",
      "2022-08-10T03:02:10.545171",
      "2022-08-10T03:02:12.464314",
      "2022-08-10T03:02:14.364856",
      "2022-08-10T03:02:16.142436",
      "2022-08-10T03:02:18.017978",
      "2022-08-10T03:02:20.002053",
      "2022-08-10T03:02:21.888398",
      "2022-08-10T03:02:23.849595",
      "2022-08-10T03:02:25.810492",
      "2022-08-10T03:02:27.610166",
      "2022-08-10T03:02:29.418670",
      "2022-08-10T03:02:31.351134",
      "2022-08-10T03:02:33.316695",
      "2022-08-10T03:02:35.123743",
      "2022-08-10T03:02:37.038600",
      "2022-08-10T03:02:39.033174",
      "2022-08-10T03:02:40.852835",
      "2022-08-10T03:02:43.307299",
      "2022-08-10T03:02:45.706406",
      "2022-08-10T03:02:47.522525",
      "2022-08-10T03:02:49.334731",
      "2022-08-10T03:02:51.269366",
      "2022-08-10T03:02:53.217200",
      "2022-08-10T03:02:55.026659",
      "2022-08-10T03:02:56.915056",
      "2022-08-10T03:02:58.897501",
      "2022-08-10T03:03:00.717165",
      "2022-08-10T03:03:02.633141",
      "2022-08-10T03:03:04.774436",
      "2022-08-10T03:03:06.555326",
      "2022-08-10T03:03:08.389556",
      "2022-08-10T03:03:10.297848",
      "2022-08-10T03:03:12.222238",
      "2022-08-10T03:03:14.110639",
      "2022-08-10T03:03:15.942096",
      "2022-08-10T03:03:17.759333",
      "2022-08-10T03:03:19.804247",
      "2022-08-10T03:03:21.642624",
      "2022-08-10T03:03:23.429733",
      "2022-08-10T03:03:25.219763",
      "2022-08-10T03:03:27.008163",
      "2022-08-10T03:03:28.794445",
      "2022-08-10T03:03:30.814320",
      "2022-08-10T03:03:32.776093",
      "2022-08-10T03:03:34.574988",
      "2022-08-10T03:03:36.459584",
      "2022-08-10T03:03:38.406449",
      "2022-08-10T03:03:40.207950",
      "2022-08-10T03:03:42.192372",
      "2022-08-10T03:03:44.152638",
      "2022-08-10T03:03:45.965029",
      "2022-08-10T03:03:47.774173",
      "2022-08-10T03:03:49.586191",
      "2022-08-10T03:03:51.521560",
      "2022-08-10T03:03:53.480141",
      "2022-08-10T03:03:55.308976",
      "2022-08-10T03:03:58.180735",
      "2022-08-10T03:04:00.091932",
      "2022-08-10T03:04:02.030229",
      "2022-08-10T03:04:03.964845",
      "2022-08-10T03:04:05.752632",
      "2022-08-10T03:04:07.545906",
      "2022-08-10T03:04:09.361411",
      "2022-08-10T03:04:11.864566",
      "2022-08-10T03:04:13.859262",
      "2022-08-10T03:04:15.639862",
      "2022-08-10T03:04:17.424266",
      "2022-08-10T03:04:19.201112",
      "2022-08-10T03:04:21.113306",
      "2022-08-10T03:04:23.149341",
      "2022-08-10T03:04:24.925220",
      "2022-08-10T03:04:26.714109",
      "2022-08-10T03:04:28.492929",
      "2022-08-10T03:04:30.338258",
      "2022-08-10T03:04:32.662072",
      "2022-08-10T03:04:34.634303",
      "2022-08-10T03:04:36.434029",
      "2022-08-10T03:04:38.214859",
      "2022-08-10T03:04:40.001781",
      "2022-08-10T03:04:42.023999",
      "2022-08-10T03:04:43.918545",
      "2022-08-10T03:04:45.696458",
      "2022-08-10T03:04:47.479342",
      "2022-08-10T03:04:49.259594",
      "2022-08-10T03:04:51.346059",
      "2022-08-10T03:04:53.407682",
      "2022-08-10T03:04:55.218385",
      "2022-08-10T03:04:57.029479",
      "2022-08-10T03:04:58.835857",
      "2022-08-10T03:05:00.731343",
      "2022-08-10T03:05:02.782135",
      "2022-08-10T03:05:04.601394",
      "2022-08-10T03:05:06.414338",
      "2022-08-10T03:05:08.225514",
      "2022-08-10T03:05:10.082149",
      "2022-08-10T03:05:12.227662",
      "2022-08-10T03:05:14.055208",
      "2022-08-10T03:05:15.867704",
      "2022-08-10T03:05:17.680384",
      "2022-08-10T03:05:19.500365",
      "2022-08-10T03:05:21.468586",
      "2022-08-10T03:05:23.415960",
      "2022-08-10T03:05:25.224929",
      "2022-08-10T03:05:27.035223",
      "2022-08-10T03:05:28.955505",
      "2022-08-10T03:05:30.938752",
      "2022-08-10T03:05:32.767716",
      "2022-08-10T03:05:34.575297",
      "2022-08-10T03:05:36.387776",
      "2022-08-10T03:05:38.198672",
      "2022-08-10T03:05:40.107184",
      "2022-08-10T03:05:42.083258",
      "2022-08-10T03:05:43.993296",
      "2022-08-10T03:05:45.801489",
      "2022-08-10T03:05:47.764501",
      "2022-08-10T03:05:49.732652",
      "2022-08-10T03:05:51.542423",
      "2022-08-10T03:05:53.455139",
      "2022-08-10T03:05:55.423027",
      "2022-08-10T03:05:57.246808",
      "2022-08-10T03:05:59.057245",
      "2022-08-10T03:06:00.971972",
      "2022-08-10T03:06:02.971314",
      "2022-08-10T03:06:04.782627",
      "2022-08-10T03:06:06.678812",
      "2022-08-10T03:06:08.659949",
      "2022-08-10T03:06:10.503318",
      "2022-08-10T03:06:12.944647",
      "2022-08-10T03:06:15.314481",
      "2022-08-10T03:06:17.109549",
      "2022-08-10T03:06:18.905686",
      "2022-08-10T03:06:20.858557",
      "2022-08-10T03:06:22.870473",
      "2022-08-10T03:06:24.696375",
      "2022-08-10T03:06:26.583522",
      "2022-08-10T03:06:28.585729",
      "2022-08-10T03:06:30.396861",
      "2022-08-10T03:06:32.303003",
      "2022-08-10T03:06:34.269746",
      "2022-08-10T03:06:36.073505",
      "2022-08-10T03:06:37.874668",
      "2022-08-10T03:06:39.698571",
      "2022-08-10T03:06:41.659687",
      "2022-08-10T03:06:43.629304",
      "2022-08-10T03:06:45.478494",
      "2022-08-10T03:06:47.429064",
      "2022-08-10T03:06:49.331168",
      "2022-08-10T03:06:51.206356",
      "2022-08-10T03:06:53.250090",
      "2022-08-10T03:06:55.067106",
      "2022-08-10T03:06:56.883819",
      "2022-08-10T03:06:58.691590",
      "2022-08-10T03:07:00.577735",
      "2022-08-10T03:07:02.553705",
      "2022-08-10T03:07:04.440807",
      "2022-08-10T03:07:06.245659",
      "2022-08-10T03:07:08.110435",
      "2022-08-10T03:07:10.064921",
      "2022-08-10T03:07:11.952752",
      "2022-08-10T03:07:13.762288",
      "2022-08-10T03:07:15.570454",
      "2022-08-10T03:07:17.384461",
      "2022-08-10T03:07:19.234826",
      "2022-08-10T03:07:21.216576",
      "2022-08-10T03:07:23.222460",
      "2022-08-10T03:07:25.034762",
      "2022-08-10T03:07:27.688583",
      "2022-08-10T03:07:29.874475",
      "2022-08-10T03:07:31.691970",
      "2022-08-10T03:07:33.500175",
      "2022-08-10T03:07:36.239227",
      "2022-08-10T03:07:38.221127",
      "2022-08-10T03:07:40.061663",
      "2022-08-10T03:07:41.903848",
      "2022-08-10T03:07:43.853498",
      "2022-08-10T03:07:45.735314",
      "2022-08-10T03:07:47.517751",
      "2022-08-10T03:07:49.327498",
      "2022-08-10T03:07:51.224893",
      "2022-08-10T03:07:53.198708",
      "2022-08-10T03:07:54.992454",
      "2022-08-10T03:07:56.810627",
      "2022-08-10T03:07:58.592519",
      "2022-08-10T03:08:00.433825",
      "2022-08-10T03:08:02.360467",
      "2022-08-10T03:08:04.240180",
      "2022-08-10T03:08:06.018854",
      "2022-08-10T03:08:07.833100",
      "2022-08-10T03:08:09.618200",
      "2022-08-10T03:08:11.618644",
      "2022-08-10T03:08:13.614787",
      "2022-08-10T03:08:15.398361",
      "2022-08-10T03:08:17.171837",
      "2022-08-10T03:08:18.946373"
    ],
    "values": [
      12.249715193031626,
      11.689284470035158,
      11.571256708840172,
      11.508045868771655,
      11.4320181753862,
      11.361377130335736,
      11.301635135114447,
      11.33921727848305,
      11.262178816968074,
      11.278284629302988,
      11.314886862326293,
      11.247303549328139,
      11.257160475777209,
      11.24817730537323,
      11.332928349432468,
      11.269853062126021,
      11.287635926793826,
      11.277060946465541,
      11.233758227913471,
      11.176671809812328,
      11.21704005498335,
      11.219432294569145,
      11.261127139974231,
      11.207818854327197,
      11.186445397754897,
      11.176418921962197,
      11.207799646424201,
      11.249953496187079,
      11.187934655806465,
      11.237028624429785,
      11.294891686555824,
      11.170793114730845,
      11.244288533161157,
      11.233812292045824,
      11.190995992072391,
      11.186020195562548,
      11.24878255022244,
      11.163141868209507,
      11.189792145932994,
      11.231294209382185,
      11.21592111264955,
      11.214811519398111,
      11.236005008446083,
      11.163983686259582,
      11.213852793095992,
      11.149167315479824,
      11.197410413973403,
      11.19843530691098,
      11.148714588428343,
      11.166913256836626,
      11.168690870226081,
      11.203705045654369,
      11.149007575163814,
      11.150015492427084,
      11.171156176375478,
      11.205287551334475,
      11.16958339190255,
      11.179723224058414,
      11.207641043088547,
      11.15429662794787,
      11.183175198103399,
      11.11542954579088,
      11.232698302737294,
      11.153423325868426,
      11.133303237314168,
      11.13636831713942,
      11.132921125822929,
      11.132190199276042,
      11.151824555342715,
      11.181745107662604,
      11.151929323180056,
      11.130497277075133,
      11.139057385247243,
      11.13248624760401,
      11.118931817384548,
      11.21595198529393,
      11.138085413894519,
      11.155358689590361,
      11.185981691720324,
      11.184462530823335,
      11.118537345565214,
      11.109618770676683,
      11.091992246209966,
      11.123886789546543,
      11.185329984217146,
      11.120831301966646,
      11.15209932591976,
      11.099171494306368,
      11.121672530729269,
      11.149365378823976,
      11.150429081025845,
      11.115228463366703,
      11.17120395936519,
      11.110413059883372,
      11.220068206424331,
      11.142474872943477,
      11.13908943470014,
      11.135570596868476,
      11.152963951122828,
      11.145779236651126,
      11.131489690119766,
      11.17302043213695,
      11.143171236758924,
      11.0999037451791,
      11.121279045847436,
      11.141493499341832,
      11.135536689605017,
      11.14303222119602,
      11.108299629813786,
      11.152885491761683,
      11.121815888530268,
      11.137820964564996,
      11.11807975681466,
      11.107086475296374,
      11.098744615287375,
      11.14450059460568,
      11.12879809548517,
      11.10735034073023,
      11.15578673164982,
      11.116041854308353,
      11.121589282954385,
      11.135054499580916,
      11.140859025213041,
      11.102320766438329,
      11.099409974994737,
      11.11433505886917,
      11.208910964114994,
      11.095011417180833,
      11.167932031974235,
      11.117831513166871,
      11.109215597734705,
      11.153022317830041,
      11.134824962665498,
      11.10399666501748,
      11.111475036716788,
      11.09332728646175,
      11.157697013864555,
      11.106396269835363,
      11.105432308581552,
      11.055363498469564,
      11.05383628181516,
      11.06354230328455,
      11.055989193142086,
      11.05397581465284,
      11.059606690824946,
      11.052004250505295,
      11.053992725046767,
      11.062915688755524,
      11.051714376443389,
      11.063918954314579,
      11.058260031967986,
      11.057197692723275,
      11.053490669587044,
      11.057196628704979,
      11.049910881721091,
      11.047731908183943,
      11.05390322854372,
      11.056274384910456,
      11.049959777316245,
      11.055170386931906,
      11.051548648441987,
      11.051835110210607,
      11.054681057955793,
      11.05277271218225,
      11.052492473844632,
      11.069822164584917,
      11.053105075777742,
      11.051663068332687,
      11.048723955234545,
      11.04907351258854,
      11.059100700332772,
      11.055597962961818,
      11.048154790917968,
      11.045492245816405,
      11.04586048989978,
      11.046928968960707,
      11.047187163270113,
      11.047202836631755,
      11.0461554961616,
      11.04680917932365,
      11.047140588186753,
      11.047544525842804,
      11.046881104301658,
      11.046778782110064,
      11.046704242912593,
      11.046570361599475,
      11.046800794504628,
      11.046771981957056,
      11.046923681229131,
      11.046598418139578,
      11.0475640799329,
      11.046660377430731,
      11.04673367943585,
      11.046694276664653,
      11.046956289987907,
      11.046437444528612,
      11.046505681817177,
      11.046504250389395,
      11.046538186728585,
      11.046538297311054,
      11.046595601832655,
      11.04654204169554,
      11.046602258811575,
      11.046663418777873,
      11.046485017036309,
      11.0465667141832,
      11.046662635220402,
      11.046611083150177,
      11.046638076140034,
      11.046598483733819,
      11.046732590492187,
      11.046653988432002,
      11.046671248861541,
      11.046759272789993,
      11.04670692901841,
      11.046710298252702,
      11.046648257419582,
      11.046663354132251,
      11.046666568327687,
      11.046659677258676,
      11.046647635843815,
      11.046646090324918,
      11.046645189775557,
      11.046633721032265,
      11.046641091784975,
      11.04663789822639,
      11.046638720477915,
      11.04663505416506,
      11.046641627619831,
      11.046644318101562,
      11.046637869365242,
      11.046636585191923,
      11.046642840604818,
      11.0466383331467,
      11.04664319073728,
      11.04664263309263,
      11.046651401728045,
      11.046642215886056,
      11.046644524460433,
      11.046644437207494,
      11.046644983661961,
      11.04664360627093,
      11.046646469097988,
      11.046658486901682,
      11.046647651649398,
      11.046645857133718,
      11.046650047011571,
      11.046647655276029,
      11.046649317721267,
      11.046649951097011,
      11.04664460273453,
      11.046650342517568,
      11.046649792879183,
      11.046656776652693,
      11.046650665431674,
      11.046651667966124,
      11.046649846069075,
      11.046645013909808,
      11.046654268192274,
      11.046652149039728,
      11.046649937935104,
      11.046644335895467,
      11.046651323998187,
      11.046656646513023,
      11.046654694945017,
      11.046657468578069,
      11.046662055226477,
      11.046659830071981,
      11.04665717487417,
      11.046644235246843,
      11.046658905252414,
      11.04665952642969,
      11.046658217202495,
      11.046654812560295,
      11.046661389838938,
      11.046655673613257,
      11.046660976493733,
      11.046665222768135,
      11.046662238654628,
      11.046662441764385,
      11.046664598507009,
      11.046653063547275,
      11.046659740162406,
      11.046661828989059,
      11.046662464604085,
      11.04666425657944,
      11.046663750615066,
      11.04665941911028,
      11.046658628472967,
      11.04665982985298,
      11.046671008447905,
      11.046668766571633,
      11.046666536406772,
      11.04666021465797,
      11.046669326293022,
      11.04666955022629,
      11.046664061802106,
      11.046664881661473,
      11.046665434022543,
      11.04667527374605
    ]
  }
}