{
  "memory.usage": {
    "steps": [
      0,
      1,
      2,
      3,
      4,
      5,
      6,
      7,
      8,
      9,
      10,
      11,
      12,
      13,
      14,
      15,
      16,
      17,
      18,
      19,
      20,
      21,
      22,
      23,
      24,
      25,
      26,
      27,
      28,
      29,
      30,
      31,
      32,
      33,
      34,
      35,
      36,
      37,
      38,
      39,
      40,
      41,
      42,
      43,
      44,
      45,
      46,
      47,
      48,
      49,
      50,
      51,
      52,
      53,
      54,
      55,
      56,
      57,
      58,
      59,
      60,
      61,
      62,
      63,
      64,
      65,
      66,
      67,
      68,
      69,
      70,
      71,
      72,
      73,
      74,
      75,
      76,
      77,
      78,
      79,
      80,
      81,
      82,
      83,
      84,
      85,
      86,
      87,
      88,
      89,
      90,
      91,
      92,
      93,
      94,
      95,
      96,
      97,
      98,
      99,
      100,
      101,
      102,
      103,
      104,
      105,
      106,
      107,
      108,
      109,
      110,
      111,
      112,
      113,
      114,
      115,
      116,
      117,
      118,
      119,
      120,
      121,
      122,
      123,
      124,
      125,
      126,
      127,
      128,
      129,
      130,
      131,
      132,
      133,
      134,
      135,
      136,
      137,
      138,
      139,
      140,
      141,
      142,
      143,
      144,
      145,
      146,
      147,
      148,
      149,
      150,
      151,
      152,
      153,
      154,
      155,
      156,
      157,
      158,
      159,
      160,
      161,
      162,
      163,
      164,
      165,
      166,
      167,
      168,
      169,
      170,
      171,
      172,
      173,
      174,
      175,
      176,
      177,
      178,
      179,
      180,
      181,
      182,
      183,
      184,
      185,
      186,
      187,
      188,
      189,
      190,
      191,
      192,
      193,
      194,
      195,
      196,
      197,
      198,
      199,
      200,
      201,
      202,
      203,
      204,
      205,
      206,
      207,
      208,
      209,
      210,
      211,
      212,
      213,
      214,
      215,
      216,
      217,
      218,
      219,
      220,
      221,
      222,
      223,
      224,
      225,
      226,
      227,
      228,
      229,
      230,
      231,
      232,
      233,
      234,
      235,
      236,
      237,
      238,
      239,
      240,
      241,
      242,
      243,
      244,
      245,
      246,
      247,
      248,
      249,
      250,
      251,
      252,
      253,
      254,
      255,
      256,
      257,
      258,
      259,
      260,
      261,
      262,
      263,
      264,
      265,
      266,
      267,
      268,
      269,
      270,
      271,
      272,
      273,
      274,
      275,
      276,
      277,
      278,
      279,
      280,
      281,
      282,
      283,
      284,
      285,
      286,
      287,
      288,
      289,
      290,
      291,
      292,
      293,
      294,
      295,
      296,
      297,
      298,
      299,
      300,
      301,
      302,
      303,
      304,
      305,
      306,
      307,
      308,
      309,
      310,
      311,
      312,
      313,
      314,
      315,
      316,
      317,
      318,
      319,
      320,
      321,
      322,
      323,
      324,
      325,
      326,
      327,
      328,
      329,
      330,
      331,
      332,
      333,
      334,
      335,
      336,
      337,
      338,
      339,
      340,
      341,
      342,
      343,
      344,
      345,
      346,
      347,
      348,
      349,
      350,
      351,
      352,
      353,
      354,
      355,
      356,
      357,
      358,
      359,
      360,
      361,
      362,
      363,
      364,
      365,
      366,
      367,
      368,
      369,
      370,
      371,
      372,
      373,
      374,
      375,
      376,
      377,
      378,
      379,
      380,
      381,
      382,
      383,
      384,
      385,
      386,
      387,
      388,
      389,
      390,
      391,
      392,
      393,
      394,
      395,
      396,
      397,
      398,
      399
    ],
    "timestamps": [
      "2022-06-07T11:10:40.036117",
      "2022-06-07T11:10:40.567426",
      "2022-06-07T11:10:41.102038",
      "2022-06-07T11:10:41.641966",
      "2022-06-07T11:10:42.177390",
      "2022-06-07T11:10:42.720004",
      "2022-06-07T11:10:43.306887",
      "2022-06-07T11:10:43.890771",
      "2022-06-07T11:10:44.478442",
      "2022-06-07T11:10:45.044070",
      "2022-06-07T11:10:45.641088",
      "2022-06-07T11:10:46.297644",
      "2022-06-07T11:10:46.941374",
      "2022-06-07T11:10:47.553535",
      "2022-06-07T11:10:48.137735",
      "2022-06-07T11:10:48.739363",
      "2022-06-07T11:10:49.355276",
      "2022-06-07T11:10:49.943329",
      "2022-06-07T11:10:50.555603",
      "2022-06-07T11:10:51.165262",
      "2022-06-07T11:10:51.704870",
      "2022-06-07T11:10:52.281917",
      "2022-06-07T11:10:52.829698",
      "2022-06-07T11:10:53.422820",
      "2022-06-07T11:10:54.019906",
      "2022-06-07T11:10:54.605950",
      "2022-06-07T11:10:55.223030",
      "2022-06-07T11:10:55.800709",
      "2022-06-07T11:10:56.436632",
      "2022-06-07T11:10:57.018400",
      "2022-06-07T11:10:57.577092",
      "2022-06-07T11:10:58.162710",
      "2022-06-07T11:10:58.744074",
      "2022-06-07T11:10:59.338030",
      "2022-06-07T11:10:59.948935",
      "2022-06-07T11:11:00.579003",
      "2022-06-07T11:11:01.230674",
      "2022-06-07T11:11:01.827231",
      "2022-06-07T11:11:02.414680",
      "2022-06-07T11:11:02.984818",
      "2022-06-07T11:11:03.550430",
      "2022-06-07T11:11:04.128313",
      "2022-06-07T11:11:04.680500",
      "2022-06-07T11:11:05.239887",
      "2022-06-07T11:11:05.829237",
      "2022-06-07T11:11:06.391066",
      "2022-06-07T11:11:06.936559",
      "2022-06-07T11:11:07.489762",
      "2022-06-07T11:11:08.048191",
      "2022-06-07T11:11:08.622388",
      "2022-06-07T11:11:09.178162",
      "2022-06-07T11:11:09.720330",
      "2022-06-07T11:11:10.277490",
      "2022-06-07T11:11:10.836541",
      "2022-06-07T11:11:11.378267",
      "2022-06-07T11:11:11.924509",
      "2022-06-07T11:11:12.470413",
      "2022-06-07T11:11:13.041633",
      "2022-06-07T11:11:13.624533",
      "2022-06-07T11:11:14.238653",
      "2022-06-07T11:11:14.823561",
      "2022-06-07T11:11:15.439760",
      "2022-06-07T11:11:16.075966",
      "2022-06-07T11:11:16.640941",
      "2022-06-07T11:11:17.198949",
      "2022-06-07T11:11:17.769216",
      "2022-06-07T11:11:18.353502",
      "2022-06-07T11:11:18.934473",
      "2022-06-07T11:11:19.516017",
      "2022-06-07T11:11:20.081588",
      "2022-06-07T11:11:20.623421",
      "2022-06-07T11:11:21.173727",
      "2022-06-07T11:11:21.724116",
      "2022-06-07T11:11:22.289900",
      "2022-06-07T11:11:22.884189",
      "2022-06-07T11:11:23.492901",
      "2022-06-07T11:11:24.077167",
      "2022-06-07T11:11:24.668409",
      "2022-06-07T11:11:25.246165",
      "2022-06-07T11:11:25.831181",
      "2022-06-07T11:11:26.408561",
      "2022-06-07T11:11:26.944265",
      "2022-06-07T11:11:27.540505",
      "2022-06-07T11:11:28.134897",
      "2022-06-07T11:11:28.716569",
      "2022-06-07T11:11:29.280203",
      "2022-06-07T11:11:29.828077",
      "2022-06-07T11:11:30.369824",
      "2022-06-07T11:11:30.954242",
      "2022-06-07T11:11:31.488228",
      "2022-06-07T11:11:32.062751",
      "2022-06-07T11:11:32.607024",
      "2022-06-07T11:11:33.149619",
      "2022-06-07T11:11:33.698803",
      "2022-06-07T11:11:34.246654",
      "2022-06-07T11:11:34.802956",
      "2022-06-07T11:11:35.352662",
      "2022-06-07T11:11:35.962390",
      "2022-06-07T11:11:36.541145",
      "2022-06-07T11:11:37.143016",
      "2022-06-07T11:11:37.684251",
      "2022-06-07T11:11:38.250897",
      "2022-06-07T11:11:38.870384",
      "2022-06-07T11:11:39.470616",
      "2022-06-07T11:11:40.016724",
      "2022-06-07T11:11:40.559417",
      "2022-06-07T11:11:41.110918",
      "2022-06-07T11:11:41.643639",
      "2022-06-07T11:11:42.181202",
      "2022-06-07T11:11:42.714815",
      "2022-06-07T11:11:43.257990",
      "2022-06-07T11:11:43.791576",
      "2022-06-07T11:11:44.356719",
      "2022-06-07T11:11:44.908960",
      "2022-06-07T11:11:45.477708",
      "2022-06-07T11:11:46.045022",
      "2022-06-07T11:11:46.581974",
      "2022-06-07T11:11:47.116756",
      "2022-06-07T11:11:47.656778",
      "2022-06-07T11:11:48.191036",
      "2022-06-07T11:11:48.728706",
      "2022-06-07T11:11:49.262484",
      "2022-06-07T11:11:49.798565",
      "2022-06-07T11:11:50.332156",
      "2022-06-07T11:11:50.870679",
      "2022-06-07T11:11:51.404550",
      "2022-06-07T11:11:51.941586",
      "2022-06-07T11:11:52.475887",
      "2022-06-07T11:11:53.021051",
      "2022-06-07T11:11:53.555480",
      "2022-06-07T11:11:54.094687",
      "2022-06-07T11:11:54.636614",
      "2022-06-07T11:11:55.177040",
      "2022-06-07T11:11:55.736312",
      "2022-06-07T11:11:56.298213",
      "2022-06-07T11:11:56.841259",
      "2022-06-07T11:11:57.390846",
      "2022-06-07T11:11:57.923499",
      "2022-06-07T11:11:58.463026",
      "2022-06-07T11:11:58.996709",
      "2022-06-07T11:11:59.534065",
      "2022-06-07T11:12:00.067026",
      "2022-06-07T11:12:00.602134",
      "2022-06-07T11:12:01.136378",
      "2022-06-07T11:12:01.693455",
      "2022-06-07T11:12:02.225276",
      "2022-06-07T11:12:02.778522",
      "2022-06-07T11:12:03.313267",
      "2022-06-07T11:12:03.854188",
      "2022-06-07T11:12:04.390592",
      "2022-06-07T11:12:04.937507",
      "2022-06-07T11:12:05.484854",
      "2022-06-07T11:12:06.041853",
      "2022-06-07T11:12:06.574607",
      "2022-06-07T11:12:07.112161",
      "2022-06-07T11:12:07.644802",
      "2022-06-07T11:12:08.187755",
      "2022-06-07T11:12:08.722207",
      "2022-06-07T11:12:09.259494",
      "2022-06-07T11:12:09.793953",
      "2022-06-07T11:12:10.331108",
      "2022-06-07T11:12:10.863982",
      "2022-06-07T11:12:11.399408",
      "2022-06-07T11:12:11.933286",
      "2022-06-07T11:12:12.470442",
      "2022-06-07T11:12:13.010861",
      "2022-06-07T11:12:13.556977",
      "2022-06-07T11:12:14.100065",
      "2022-06-07T11:12:14.639968",
      "2022-06-07T11:12:15.173563",
      "2022-06-07T11:12:15.751635",
      "2022-06-07T11:12:16.294352",
      "2022-06-07T11:12:16.830766",
      "2022-06-07T11:12:17.364513",
      "2022-06-07T11:12:17.901719",
      "2022-06-07T11:12:18.436727",
      "2022-06-07T11:12:18.976571",
      "2022-06-07T11:12:19.511006",
      "2022-06-07T11:12:20.048548",
      "2022-06-07T11:12:20.581266",
      "2022-06-07T11:12:21.116943",
      "2022-06-07T11:12:21.648894",
      "2022-06-07T11:12:22.188696",
      "2022-06-07T11:12:22.721845",
      "2022-06-07T11:12:23.292126",
      "2022-06-07T11:12:23.915281",
      "2022-06-07T11:12:24.521374",
      "2022-06-07T11:12:25.080594",
      "2022-06-07T11:12:25.649472",
      "2022-06-07T11:12:26.228367",
      "2022-06-07T11:12:26.778379",
      "2022-06-07T11:12:27.341777",
      "2022-06-07T11:12:27.904732",
      "2022-06-07T11:12:28.443553",
      "2022-06-07T11:12:29.015374",
      "2022-06-07T11:12:29.579569",
      "2022-06-07T11:12:30.120318",
      "2022-06-07T11:12:30.667190",
      "2022-06-07T11:12:31.210574",
      "2022-06-07T11:12:31.752389",
      "2022-06-07T11:12:32.380798",
      "2022-06-07T11:12:32.981463",
      "2022-06-07T11:12:33.552832",
      "2022-06-07T11:12:34.092864",
      "2022-06-07T11:12:34.651643",
      "2022-06-07T11:12:35.184685",
      "2022-06-07T11:12:35.764591",
      "2022-06-07T11:12:36.314924",
      "2022-06-07T11:12:36.861311",
      "2022-06-07T11:12:37.397124",
      "2022-06-07T11:12:37.933235",
      "2022-06-07T11:12:38.466153",
      "2022-06-07T11:12:39.014091",
      "2022-06-07T11:12:39.549664",
      "2022-06-07T11:12:40.148198",
      "2022-06-07T11:12:40.684199",
      "2022-06-07T11:12:41.224682",
      "2022-06-07T11:12:41.762449",
      "2022-06-07T11:12:42.326885",
      "2022-06-07T11:12:42.872449",
      "2022-06-07T11:12:43.433376",
      "2022-06-07T11:12:44.007358",
      "2022-06-07T11:12:44.574903",
      "2022-06-07T11:12:45.135072",
      "2022-06-07T11:12:45.755666",
      "2022-06-07T11:12:46.318270",
      "2022-06-07T11:12:46.885802",
      "2022-06-07T11:12:47.439574",
      "2022-06-07T11:12:47.996435",
      "2022-06-07T11:12:48.571252",
      "2022-06-07T11:12:49.121709",
      "2022-06-07T11:12:49.663104",
      "2022-06-07T11:12:50.206646",
      "2022-06-07T11:12:50.743363",
      "2022-06-07T11:12:51.287718",
      "2022-06-07T11:12:51.834116",
      "2022-06-07T11:12:52.380238",
      "2022-06-07T11:12:52.937941",
      "2022-06-07T11:12:53.517030",
      "2022-06-07T11:12:54.087840",
      "2022-06-07T11:12:54.651872",
      "2022-06-07T11:12:55.214094",
      "2022-06-07T11:12:55.821006",
      "2022-06-07T11:12:56.379638",
      "2022-06-07T11:12:56.973176",
      "2022-06-07T11:12:57.544651",
      "2022-06-07T11:12:58.106669",
      "2022-06-07T11:12:58.662318",
      "2022-06-07T11:12:59.219353",
      "2022-06-07T11:12:59.767156",
      "2022-06-07T11:13:00.332165",
      "2022-06-07T11:13:00.947282",
      "2022-06-07T11:13:01.510237",
      "2022-06-07T11:13:02.088222",
      "2022-06-07T11:13:02.694851",
      "2022-06-07T11:13:03.278434",
      "2022-06-07T11:13:03.818497",
      "2022-06-07T11:13:04.358250",
      "2022-06-07T11:13:04.897050",
      "2022-06-07T11:13:05.441700",
      "2022-06-07T11:13:06.041703",
      "2022-06-07T11:13:06.592620",
      "2022-06-07T11:13:07.156223",
      "2022-06-07T11:13:07.720588",
      "2022-06-07T11:13:08.296057",
      "2022-06-07T11:13:08.881175",
      "2022-06-07T11:13:09.482134",
      "2022-06-07T11:13:10.031076",
      "2022-06-07T11:13:10.574927",
      "2022-06-07T11:13:11.131633",
      "2022-06-07T11:13:11.724059",
      "2022-06-07T11:13:12.307429",
      "2022-06-07T11:13:12.880037",
      "2022-06-07T11:13:13.454315",
      "2022-06-07T11:13:14.028047",
      "2022-06-07T11:13:14.584353",
      "2022-06-07T11:13:15.163293",
      "2022-06-07T11:13:15.749054",
      "2022-06-07T11:13:16.364429",
      "2022-06-07T11:13:16.945932",
      "2022-06-07T11:13:17.515697",
      "2022-06-07T11:13:18.065900",
      "2022-06-07T11:13:18.649634",
      "2022-06-07T11:13:19.241804",
      "2022-06-07T11:13:19.832168",
      "2022-06-07T11:13:20.398949",
      "2022-06-07T11:13:20.958823",
      "2022-06-07T11:13:21.558186",
      "2022-06-07T11:13:22.129770",
      "2022-06-07T11:13:22.709211",
      "2022-06-07T11:13:23.264668",
      "2022-06-07T11:13:23.812176",
      "2022-06-07T11:13:24.414505",
      "2022-06-07T11:13:24.971802",
      "2022-06-07T11:13:25.539692",
      "2022-06-07T11:13:26.144728",
      "2022-06-07T11:13:26.715569",
      "2022-06-07T11:13:27.284980",
      "2022-06-07T11:13:27.886928",
      "2022-06-07T11:13:28.497000",
      "2022-06-07T11:13:29.087722",
      "2022-06-07T11:13:29.638973",
      "2022-06-07T11:13:30.211122",
      "2022-06-07T11:13:30.772608",
      "2022-06-07T11:13:31.335383",
      "2022-06-07T11:13:31.878962",
      "2022-06-07T11:13:32.437261",
      "2022-06-07T11:13:32.989473",
      "2022-06-07T11:13:33.534022",
      "2022-06-07T11:13:34.122028",
      "2022-06-07T11:13:34.713752",
      "2022-06-07T11:13:35.312211",
      "2022-06-07T11:13:35.929935",
      "2022-06-07T11:13:36.548996",
      "2022-06-07T11:13:37.156910",
      "2022-06-07T11:13:37.718817",
      "2022-06-07T11:13:38.323521",
      "2022-06-07T11:13:38.875564",
      "2022-06-07T11:13:39.436574",
      "2022-06-07T11:13:39.972723",
      "2022-06-07T11:13:40.512614",
      "2022-06-07T11:13:41.087835",
      "2022-06-07T11:13:41.648311",
      "2022-06-07T11:13:42.183425",
      "2022-06-07T11:13:42.731720",
      "2022-06-07T11:13:43.269051",
      "2022-06-07T11:13:43.811080",
      "2022-06-07T11:13:44.369156",
      "2022-06-07T11:13:44.930500",
      "2022-06-07T11:13:45.563580",
      "2022-06-07T11:13:46.176593",
      "2022-06-07T11:13:46.745315",
      "2022-06-07T11:13:47.294747",
      "2022-06-07T11:13:47.834995",
      "2022-06-07T11:13:48.397961",
      "2022-06-07T11:13:48.940062",
      "2022-06-07T11:13:49.498521",
      "2022-06-07T11:13:50.050506",
      "2022-06-07T11:13:50.645160",
      "2022-06-07T11:13:51.252267",
      "2022-06-07T11:13:51.869091",
      "2022-06-07T11:13:52.471879",
      "2022-06-07T11:13:53.075110",
      "2022-06-07T11:13:53.639566",
      "2022-06-07T11:13:54.248620",
      "2022-06-07T11:13:54.852749",
      "2022-06-07T11:13:55.478874",
      "2022-06-07T11:13:56.106499",
      "2022-06-07T11:13:56.690556",
      "2022-06-07T11:13:57.230116",
      "2022-06-07T11:13:57.777206",
      "2022-06-07T11:13:58.321013",
      "2022-06-07T11:13:58.874343",
      "2022-06-07T11:13:59.418496",
      "2022-06-07T11:13:59.968334",
      "2022-06-07T11:14:00.529776",
      "2022-06-07T11:14:01.070855",
      "2022-06-07T11:14:01.609309",
      "2022-06-07T11:14:02.154730",
      "2022-06-07T11:14:02.698342",
      "2022-06-07T11:14:03.243862",
      "2022-06-07T11:14:03.788900",
      "2022-06-07T11:14:04.347645",
      "2022-06-07T11:14:04.917333",
      "2022-06-07T11:14:05.488998",
      "2022-06-07T11:14:06.106257",
      "2022-06-07T11:14:06.692149",
      "2022-06-07T11:14:07.290936",
      "2022-06-07T11:14:07.917231",
      "2022-06-07T11:14:08.516057",
      "2022-06-07T11:14:09.116558",
      "2022-06-07T11:14:09.694604",
      "2022-06-07T11:14:10.262675",
      "2022-06-07T11:14:10.816140",
      "2022-06-07T11:14:11.384410",
      "2022-06-07T11:14:11.924521",
      "2022-06-07T11:14:12.494826",
      "2022-06-07T11:14:13.117811",
      "2022-06-07T11:14:13.722272",
      "2022-06-07T11:14:14.307178",
      "2022-06-07T11:14:14.938946",
      "2022-06-07T11:14:15.580922",
      "2022-06-07T11:14:16.163560",
      "2022-06-07T11:14:16.724426",
      "2022-06-07T11:14:17.270486",
      "2022-06-07T11:14:17.827992",
      "2022-06-07T11:14:18.371074",
      "2022-06-07T11:14:18.909033",
      "2022-06-07T11:14:19.457283",
      "2022-06-07T11:14:19.996470",
      "2022-06-07T11:14:20.532508",
      "2022-06-07T11:14:21.082442",
      "2022-06-07T11:14:21.643961",
      "2022-06-07T11:14:22.191455",
      "2022-06-07T11:14:22.731191",
      "2022-06-07T11:14:23.276230",
      "2022-06-07T11:14:23.822408",
      "2022-06-07T11:14:24.397876",
      "2022-06-07T11:14:24.987268",
      "2022-06-07T11:14:25.562681"
    ],
    "values": [
      5.455872,
      5.455872,
      5.455872,
      5.455872,
      5.455872,
      5.455872,
      5.455872,
      5.455872,
      5.455872,
      5.455872,
      5.455872,
      5.455872,
      5.455872,
      5.455872,
      5.455872,
      5.455872,
      5.455872,
      5.455872,
      5.455872,
      5.455872,
      5.455872,
      5.455872,
      5.455872,
      5.455872,
      5.455872,
      5.455872,
      5.455872,
      5.455872,
      5.455872,
      5.455872,
      5.455872,
      5.455872,
      5.455872,
      5.455872,
      5.455872,
      5.455872,
      5.455872,
      5.455872,
      5.455872,
      5.455872,
      5.455872,
      5.455872,
      5.455872,
      5.455872,
      5.455872,
      5.455872,
      5.455872,
      5.455872,
      5.455872,
      5.455872,
      5.455872,
      5.455872,
      5.455872,
      5.455872,
      5.455872,
      5.455872,
      5.455872,
      5.455872,
      5.455872,
      5.455872,
      5.455872,
      5.455872,
      5.455872,
      5.455872,
      5.455872,
      5.455872,
      5.455872,
      5.455872,
      5.455872,
      5.455872,
      5.455872,
      5.455872,
      5.455872,
      5.455872,
      5.455872,
      5.455872,
      5.455872,
      5.455872,
      5.455872,
      5.455872,
      5.455872,
      5.455872,
      5.455872,
      5.455872,
      5.455872,
      5.455872,
      5.455872,
      5.455872,
      5.455872,
      5.455872,
      5.455872,
      5.455872,
      5.455872,
      5.455872,
      5.455872,
      5.455872,
      5.455872,
      5.455872,
      5.455872,
      5.455872,
      5.455872,
      5.455872,
      5.455872,
      5.455872,
      5.455872,
      5.455872,
      5.455872,
      5.455872,
      5.455872,
      5.455872,
      5.455872,
      5.455872,
      5.455872,
      5.455872,
      5.455872,
      5.455872,
      5.455872,
      5.455872,
      5.455872,
      5.455872,
      5.455872,
      5.455872,
      5.455872,
      5.455872,
      5.455872,
      5.455872,
      5.455872,
      5.455872,
      5.455872,
      5.455872,
      5.455872,
      5.455872,
      5.455872,
      5.455872,
      5.455872,
      5.455872,
      5.455872,
      5.455872,
      5.455872,
      5.455872,
      5.455872,
      5.455872,
      5.455872,
      5.455872,
      5.455872,
      5.455872,
      5.455872,
      5.455872,
      5.455872,
      5.455872,
      5.455872,
      5.455872,
      5.455872,
      5.455872,
      5.455872,
      5.455872,
      5.455872,
      5.455872,
      5.455872,
      5.455872,
      5.455872,
      5.455872,
      5.455872,
      5.455872,
      5.455872,
      5.455872,
      5.455872,
      5.455872,
      5.455872,
      5.455872,
      5.455872,
      5.455872,
      5.455872,
      5.455872,
      5.455872,
      5.455872,
      5.455872,
      5.455872,
      5.455872,
      5.455872,
      5.455872,
      5.455872,
      5.455872,
      5.455872,
      5.455872,
      5.455872,
      5.455872,
      5.455872,
      5.455872,
      5.455872,
      5.455872,
      5.455872,
      5.455872,
      5.455872,
      5.455872,
      5.455872,
      5.455872,
      5.455872,
      5.455872,
      5.455872,
      5.455872,
      5.455872,
      5.455872,
      5.455872,
      5.455872,
      5.455872,
      5.455872,
      5.455872,
      5.455872,
      5.455872,
      5.455872,
      5.455872,
      5.455872,
      5.455872,
      5.455872,
      5.455872,
      5.455872,
      5.455872,
      5.455872,
      5.455872,
      5.455872,
      5.455872,
      5.455872,
      5.455872,
      5.455872,
      5.455872,
      5.455872,
      5.455872,
      5.455872,
      5.455872,
      5.455872,
      5.455872,
      5.455872,
      5.455872,
      5.455872,
      5.455872,
      5.455872,
      5.455872,
      5.455872,
      5.455872,
      5.455872,
      5.455872,
      5.455872,
      5.455872,
      5.455872,
      5.455872,
      5.455872,
      5.455872,
      5.455872,
      5.455872,
      5.455872,
      5.455872,
      5.455872,
      5.455872,
      5.455872,
      5.455872,
      5.455872,
      5.455872,
      5.455872,
      5.455872,
      5.455872,
      5.455872,
      5.455872,
      5.455872,
      5.455872,
      5.455872,
      5.455872,
      5.455872,
      5.455872,
      5.455872,
      5.455872,
      5.455872,
      5.455872,
      5.455872,
      5.455872,
      5.455872,
      5.455872,
      5.455872,
      5.455872,
      5.455872,
      5.455872,
      5.455872,
      5.455872,
      5.455872,
      5.455872,
      5.455872,
      5.455872,
      5.455872,
      5.455872,
      5.455872,
      5.455872,
      5.455872,
      5.455872,
      5.455872,
      5.455872,
      5.455872,
      5.455872,
      5.455872,
      5.455872,
      5.455872,
      5.455872,
      5.455872,
      5.455872,
      5.455872,
      5.455872,
      5.455872,
      5.455872,
      5.455872,
      5.455872,
      5.455872,
      5.455872,
      5.455872,
      5.455872,
      5.455872,
      5.455872,
      5.455872,
      5.455872,
      5.455872,
      5.455872,
      5.455872,
      5.455872,
      5.455872,
      5.455872,
      5.455872,
      5.455872,
      5.455872,
      5.455872,
      5.455872,
      5.455872,
      5.455872,
      5.455872,
      5.455872,
      5.455872,
      5.455872,
      5.455872,
      5.455872,
      5.455872,
      5.455872,
      5.455872,
      5.455872,
      5.455872,
      5.455872,
      5.455872,
      5.455872,
      5.455872,
      5.455872,
      5.455872,
      5.455872,
      5.455872,
      5.455872,
      5.455872,
      5.455872,
      5.455872,
      5.455872,
      5.455872,
      5.455872,
      5.455872,
      5.455872,
      5.455872,
      5.455872,
      5.455872,
      5.455872,
      5.455872,
      5.455872,
      5.455872,
      5.455872,
      5.455872,
      5.455872,
      5.455872,
      5.455872,
      5.455872,
      5.455872,
      5.455872,
      5.455872,
      5.455872,
      5.455872,
      5.455872,
      5.455872,
      5.455872,
      5.455872,
      5.455872,
      5.455872,
      5.455872,
      5.455872,
      5.455872,
      5.455872,
      5.455872,
      5.455872,
      5.455872,
      5.455872,
      5.455872,
      5.455872,
      5.455872,
      5.455872,
      5.455872,
      5.455872,
      5.455872,
      5.455872,
      5.455872,
      5.455872
    ]
  },
  "test": {
    "steps": [
      0
    ],
    "timestamps": [
      "2022-06-07T11:14:25.718017"
    ],
    "values": [
      9.633753852879478
    ]
  },
  "train": {
    "steps": [
      0,
      1,
      2,
      3,
      4,
      5,
      6,
      7,
      8,
      9,
      10,
      11,
      12,
      13,
      14,
      15,
      16,
      17,
      18,
      19,
      20,
      21,
      22,
      23,
      24,
      25,
      26,
      27,
      28,
      29,
      30,
      31,
      32,
      33,
      34,
      35,
      36,
      37,
      38,
      39,
      40,
      41,
      42,
      43,
      44,
      45,
      46,
      47,
      48,
      49,
      50,
      51,
      52,
      53,
      54,
      55,
      56,
      57,
      58,
      59,
      60,
      61,
      62,
      63,
      64,
      65,
      66,
      67,
      68,
      69,
      70,
      71,
      72,
      73,
      74,
      75,
      76,
      77,
      78,
      79,
      80,
      81,
      82,
      83,
      84,
      85,
      86,
      87,
      88,
      89,
      90,
      91,
      92,
      93,
      94,
      95,
      96,
      97,
      98,
      99,
      100,
      101,
      102,
      103,
      104,
      105,
      106,
      107,
      108,
      109,
      110,
      111,
      112,
      113,
      114,
      115,
      116,
      117,
      118,
      119,
      120,
      121,
      122,
      123,
      124,
      125,
      126,
      127,
      128,
      129,
      130,
      131,
      132,
      133,
      134,
      135,
      136,
      137,
      138,
      139,
      140,
      141,
      142,
      143,
      144,
      145,
      146,
      147,
      148,
      149,
      150,
      151,
      152,
      153,
      154,
      155,
      156,
      157,
      158,
      159,
      160,
      161,
      162,
      163,
      164,
      165,
      166,
      167,
      168,
      169,
      170,
      171,
      172,
      173,
      174,
      175,
      176,
      177,
      178,
      179,
      180,
      181,
      182,
      183,
      184,
      185,
      186,
      187,
      188,
      189,
      190,
      191,
      192,
      193,
      194,
      195,
      196,
      197,
      198,
      199,
      200,
      201,
      202,
      203,
      204,
      205,
      206,
      207,
      208,
      209,
      210,
      211,
      212,
      213,
      214,
      215,
      216,
      217,
      218,
      219,
      220,
      221,
      222,
      223,
      224,
      225,
      226,
      227,
      228,
      229,
      230,
      231,
      232,
      233,
      234,
      235,
      236,
      237,
      238,
      239,
      240,
      241,
      242,
      243,
      244,
      245,
      246,
      247,
      248,
      249,
      250,
      251,
      252,
      253,
      254,
      255,
      256,
      257,
      258,
      259,
      260,
      261,
      262,
      263,
      264,
      265,
      266,
      267,
      268,
      269,
      270,
      271,
      272,
      273,
      274,
      275,
      276,
      277,
      278,
      279,
      280,
      281,
      282,
      283,
      284,
      285,
      286,
      287,
      288,
      289,
      290,
      291,
      292,
      293,
      294,
      295,
      296,
      297,
      298,
      299,
      300,
      301,
      302,
      303,
      304,
      305,
      306,
      307,
      308,
      309,
      310,
      311,
      312,
      313,
      314,
      315,
      316,
      317,
      318,
      319,
      320,
      321,
      322,
      323,
      324,
      325,
      326,
      327,
      328,
      329,
      330,
      331,
      332,
      333,
      334,
      335,
      336,
      337,
      338,
      339,
      340,
      341,
      342,
      343,
      344,
      345,
      346,
      347,
      348,
      349,
      350,
      351,
      352,
      353,
      354,
      355,
      356,
      357,
      358,
      359,
      360,
      361,
      362,
      363,
      364,
      365,
      366,
      367,
      368,
      369,
      370,
      371,
      372,
      373,
      374,
      375,
      376,
      377,
      378,
      379,
      380,
      381,
      382,
      383,
      384,
      385,
      386,
      387,
      388,
      389,
      390,
      391,
      392,
      393,
      394,
      395,
      396,
      397,
      398,
      399
    ],
    "timestamps": [
      "2022-06-07T11:10:40.035985",
      "2022-06-07T11:10:40.567314",
      "2022-06-07T11:10:41.101926",
      "2022-06-07T11:10:41.641853",
      "2022-06-07T11:10:42.177276",
      "2022-06-07T11:10:42.719876",
      "2022-06-07T11:10:43.306759",
      "2022-06-07T11:10:43.890543",
      "2022-06-07T11:10:44.478293",
      "2022-06-07T11:10:45.043958",
      "2022-06-07T11:10:45.640974",
      "2022-06-07T11:10:46.297525",
      "2022-06-07T11:10:46.941247",
      "2022-06-07T11:10:47.553364",
      "2022-06-07T11:10:48.137571",
      "2022-06-07T11:10:48.739249",
      "2022-06-07T11:10:49.355139",
      "2022-06-07T11:10:49.943207",
      "2022-06-07T11:10:50.555465",
      "2022-06-07T11:10:51.165149",
      "2022-06-07T11:10:51.704757",
      "2022-06-07T11:10:52.281803",
      "2022-06-07T11:10:52.829585",
      "2022-06-07T11:10:53.422691",
      "2022-06-07T11:10:54.019793",
      "2022-06-07T11:10:54.605824",
      "2022-06-07T11:10:55.222910",
      "2022-06-07T11:10:55.800584",
      "2022-06-07T11:10:56.436495",
      "2022-06-07T11:10:57.018283",
      "2022-06-07T11:10:57.576972",
      "2022-06-07T11:10:58.162563",
      "2022-06-07T11:10:58.743945",
      "2022-06-07T11:10:59.337899",
      "2022-06-07T11:10:59.948820",
      "2022-06-07T11:11:00.578873",
      "2022-06-07T11:11:01.230565",
      "2022-06-07T11:11:01.827103",
      "2022-06-07T11:11:02.414568",
      "2022-06-07T11:11:02.984707",
      "2022-06-07T11:11:03.550288",
      "2022-06-07T11:11:04.128202",
      "2022-06-07T11:11:04.680388",
      "2022-06-07T11:11:05.239775",
      "2022-06-07T11:11:05.829123",
      "2022-06-07T11:11:06.390952",
      "2022-06-07T11:11:06.936442",
      "2022-06-07T11:11:07.489642",
      "2022-06-07T11:11:08.048081",
      "2022-06-07T11:11:08.622275",
      "2022-06-07T11:11:09.178051",
      "2022-06-07T11:11:09.720207",
      "2022-06-07T11:11:10.277371",
      "2022-06-07T11:11:10.836432",
      "2022-06-07T11:11:11.378154",
      "2022-06-07T11:11:11.924386",
      "2022-06-07T11:11:12.470301",
      "2022-06-07T11:11:13.041489",
      "2022-06-07T11:11:13.624406",
      "2022-06-07T11:11:14.238542",
      "2022-06-07T11:11:14.823416",
      "2022-06-07T11:11:15.439611",
      "2022-06-07T11:11:16.075851",
      "2022-06-07T11:11:16.640826",
      "2022-06-07T11:11:17.198781",
      "2022-06-07T11:11:17.769096",
      "2022-06-07T11:11:18.353363",
      "2022-06-07T11:11:18.934360",
      "2022-06-07T11:11:19.515880",
      "2022-06-07T11:11:20.081476",
      "2022-06-07T11:11:20.623310",
      "2022-06-07T11:11:21.173610",
      "2022-06-07T11:11:21.724005",
      "2022-06-07T11:11:22.289788",
      "2022-06-07T11:11:22.884020",
      "2022-06-07T11:11:23.492774",
      "2022-06-07T11:11:24.077046",
      "2022-06-07T11:11:24.668291",
      "2022-06-07T11:11:25.246046",
      "2022-06-07T11:11:25.831015",
      "2022-06-07T11:11:26.408449",
      "2022-06-07T11:11:26.944152",
      "2022-06-07T11:11:27.540375",
      "2022-06-07T11:11:28.134783",
      "2022-06-07T11:11:28.716421",
      "2022-06-07T11:11:29.280088",
      "2022-06-07T11:11:29.827962",
      "2022-06-07T11:11:30.369692",
      "2022-06-07T11:11:30.954127",
      "2022-06-07T11:11:31.488115",
      "2022-06-07T11:11:32.062636",
      "2022-06-07T11:11:32.606912",
      "2022-06-07T11:11:33.149500",
      "2022-06-07T11:11:33.698693",
      "2022-06-07T11:11:34.246542",
      "2022-06-07T11:11:34.802845",
      "2022-06-07T11:11:35.352513",
      "2022-06-07T11:11:35.962276",
      "2022-06-07T11:11:36.541030",
      "2022-06-07T11:11:37.142902",
      "2022-06-07T11:11:37.684129",
      "2022-06-07T11:11:38.250756",
      "2022-06-07T11:11:38.870266",
      "2022-06-07T11:11:39.470504",
      "2022-06-07T11:11:40.016607",
      "2022-06-07T11:11:40.559305",
      "2022-06-07T11:11:41.110807",
      "2022-06-07T11:11:41.643522",
      "2022-06-07T11:11:42.181089",
      "2022-06-07T11:11:42.714701",
      "2022-06-07T11:11:43.257873",
      "2022-06-07T11:11:43.791460",
      "2022-06-07T11:11:44.356603",
      "2022-06-07T11:11:44.908847",
      "2022-06-07T11:11:45.477592",
      "2022-06-07T11:11:46.044910",
      "2022-06-07T11:11:46.581861",
      "2022-06-07T11:11:47.116642",
      "2022-06-07T11:11:47.656662",
      "2022-06-07T11:11:48.190921",
      "2022-06-07T11:11:48.728596",
      "2022-06-07T11:11:49.262372",
      "2022-06-07T11:11:49.798452",
      "2022-06-07T11:11:50.332043",
      "2022-06-07T11:11:50.870564",
      "2022-06-07T11:11:51.404436",
      "2022-06-07T11:11:51.941472",
      "2022-06-07T11:11:52.475775",
      "2022-06-07T11:11:53.020937",
      "2022-06-07T11:11:53.555365",
      "2022-06-07T11:11:54.094576",
      "2022-06-07T11:11:54.636501",
      "2022-06-07T11:11:55.176924",
      "2022-06-07T11:11:55.736194",
      "2022-06-07T11:11:56.298097",
      "2022-06-07T11:11:56.841141",
      "2022-06-07T11:11:57.390733",
      "2022-06-07T11:11:57.923383",
      "2022-06-07T11:11:58.462908",
      "2022-06-07T11:11:58.996594",
      "2022-06-07T11:11:59.533951",
      "2022-06-07T11:12:00.066911",
      "2022-06-07T11:12:00.602022",
      "2022-06-07T11:12:01.136265",
      "2022-06-07T11:12:01.693337",
      "2022-06-07T11:12:02.225163",
      "2022-06-07T11:12:02.778408",
      "2022-06-07T11:12:03.313146",
      "2022-06-07T11:12:03.854071",
      "2022-06-07T11:12:04.390478",
      "2022-06-07T11:12:04.937393",
      "2022-06-07T11:12:05.484728",
      "2022-06-07T11:12:06.041741",
      "2022-06-07T11:12:06.574496",
      "2022-06-07T11:12:07.112048",
      "2022-06-07T11:12:07.644689",
      "2022-06-07T11:12:08.187642",
      "2022-06-07T11:12:08.722094",
      "2022-06-07T11:12:09.259378",
      "2022-06-07T11:12:09.793836",
      "2022-06-07T11:12:10.330993",
      "2022-06-07T11:12:10.863869",
      "2022-06-07T11:12:11.399292",
      "2022-06-07T11:12:11.933172",
      "2022-06-07T11:12:12.470329",
      "2022-06-07T11:12:13.010748",
      "2022-06-07T11:12:13.556864",
      "2022-06-07T11:12:14.099952",
      "2022-06-07T11:12:14.639854",
      "2022-06-07T11:12:15.173449",
      "2022-06-07T11:12:15.751506",
      "2022-06-07T11:12:16.294236",
      "2022-06-07T11:12:16.830654",
      "2022-06-07T11:12:17.364401",
      "2022-06-07T11:12:17.901608",
      "2022-06-07T11:12:18.436615",
      "2022-06-07T11:12:18.976460",
      "2022-06-07T11:12:19.510895",
      "2022-06-07T11:12:20.048434",
      "2022-06-07T11:12:20.581149",
      "2022-06-07T11:12:21.116831",
      "2022-06-07T11:12:21.648782",
      "2022-06-07T11:12:22.188584",
      "2022-06-07T11:12:22.721731",
      "2022-06-07T11:12:23.292007",
      "2022-06-07T11:12:23.915150",
      "2022-06-07T11:12:24.521246",
      "2022-06-07T11:12:25.080476",
      "2022-06-07T11:12:25.649325",
      "2022-06-07T11:12:26.228256",
      "2022-06-07T11:12:26.778250",
      "2022-06-07T11:12:27.341665",
      "2022-06-07T11:12:27.904619",
      "2022-06-07T11:12:28.443438",
      "2022-06-07T11:12:29.015241",
      "2022-06-07T11:12:29.579450",
      "2022-06-07T11:12:30.120203",
      "2022-06-07T11:12:30.667076",
      "2022-06-07T11:12:31.210462",
      "2022-06-07T11:12:31.752277",
      "2022-06-07T11:12:32.380674",
      "2022-06-07T11:12:32.981320",
      "2022-06-07T11:12:33.552718",
      "2022-06-07T11:12:34.092748",
      "2022-06-07T11:12:34.651516",
      "2022-06-07T11:12:35.184568",
      "2022-06-07T11:12:35.764474",
      "2022-06-07T11:12:36.314805",
      "2022-06-07T11:12:36.861196",
      "2022-06-07T11:12:37.397009",
      "2022-06-07T11:12:37.933121",
      "2022-06-07T11:12:38.466030",
      "2022-06-07T11:12:39.013969",
      "2022-06-07T11:12:39.549549",
      "2022-06-07T11:12:40.148081",
      "2022-06-07T11:12:40.684086",
      "2022-06-07T11:12:41.224567",
      "2022-06-07T11:12:41.762337",
      "2022-06-07T11:12:42.326768",
      "2022-06-07T11:12:42.872326",
      "2022-06-07T11:12:43.433260",
      "2022-06-07T11:12:44.007245",
      "2022-06-07T11:12:44.574789",
      "2022-06-07T11:12:45.134959",
      "2022-06-07T11:12:45.755468",
      "2022-06-07T11:12:46.318086",
      "2022-06-07T11:12:46.885685",
      "2022-06-07T11:12:47.439459",
      "2022-06-07T11:12:47.996319",
      "2022-06-07T11:12:48.571137",
      "2022-06-07T11:12:49.121582",
      "2022-06-07T11:12:49.662989",
      "2022-06-07T11:12:50.206531",
      "2022-06-07T11:12:50.743246",
      "2022-06-07T11:12:51.287603",
      "2022-06-07T11:12:51.833997",
      "2022-06-07T11:12:52.380123",
      "2022-06-07T11:12:52.937778",
      "2022-06-07T11:12:53.516913",
      "2022-06-07T11:12:54.087709",
      "2022-06-07T11:12:54.651755",
      "2022-06-07T11:12:55.213965",
      "2022-06-07T11:12:55.820878",
      "2022-06-07T11:12:56.379514",
      "2022-06-07T11:12:56.973058",
      "2022-06-07T11:12:57.544474",
      "2022-06-07T11:12:58.106554",
      "2022-06-07T11:12:58.662201",
      "2022-06-07T11:12:59.219239",
      "2022-06-07T11:12:59.767037",
      "2022-06-07T11:13:00.332035",
      "2022-06-07T11:13:00.947155",
      "2022-06-07T11:13:01.510121",
      "2022-06-07T11:13:02.088105",
      "2022-06-07T11:13:02.694727",
      "2022-06-07T11:13:03.278318",
      "2022-06-07T11:13:03.818380",
      "2022-06-07T11:13:04.358134",
      "2022-06-07T11:13:04.896938",
      "2022-06-07T11:13:05.441581",
      "2022-06-07T11:13:06.041585",
      "2022-06-07T11:13:06.592492",
      "2022-06-07T11:13:07.156107",
      "2022-06-07T11:13:07.720471",
      "2022-06-07T11:13:08.295940",
      "2022-06-07T11:13:08.881058",
      "2022-06-07T11:13:09.482020",
      "2022-06-07T11:13:10.030963",
      "2022-06-07T11:13:10.574814",
      "2022-06-07T11:13:11.131503",
      "2022-06-07T11:13:11.723944",
      "2022-06-07T11:13:12.307307",
      "2022-06-07T11:13:12.879923",
      "2022-06-07T11:13:13.454191",
      "2022-06-07T11:13:14.027898",
      "2022-06-07T11:13:14.584218",
      "2022-06-07T11:13:15.163139",
      "2022-06-07T11:13:15.748899",
      "2022-06-07T11:13:16.364312",
      "2022-06-07T11:13:16.945816",
      "2022-06-07T11:13:17.515580",
      "2022-06-07T11:13:18.065773",
      "2022-06-07T11:13:18.649503",
      "2022-06-07T11:13:19.241671",
      "2022-06-07T11:13:19.832051",
      "2022-06-07T11:13:20.398832",
      "2022-06-07T11:13:20.958707",
      "2022-06-07T11:13:21.558069",
      "2022-06-07T11:13:22.129615",
      "2022-06-07T11:13:22.709096",
      "2022-06-07T11:13:23.264527",
      "2022-06-07T11:13:23.812064",
      "2022-06-07T11:13:24.414390",
      "2022-06-07T11:13:24.971647",
      "2022-06-07T11:13:25.539566",
      "2022-06-07T11:13:26.144580",
      "2022-06-07T11:13:26.715456",
      "2022-06-07T11:13:27.284859",
      "2022-06-07T11:13:27.886808",
      "2022-06-07T11:13:28.496796",
      "2022-06-07T11:13:29.087603",
      "2022-06-07T11:13:29.638854",
      "2022-06-07T11:13:30.210999",
      "2022-06-07T11:13:30.772488",
      "2022-06-07T11:13:31.335266",
      "2022-06-07T11:13:31.878844",
      "2022-06-07T11:13:32.437144",
      "2022-06-07T11:13:32.989352",
      "2022-06-07T11:13:33.533908",
      "2022-06-07T11:13:34.121903",
      "2022-06-07T11:13:34.713635",
      "2022-06-07T11:13:35.312087",
      "2022-06-07T11:13:35.929780",
      "2022-06-07T11:13:36.548876",
      "2022-06-07T11:13:37.156793",
      "2022-06-07T11:13:37.718685",
      "2022-06-07T11:13:38.323404",
      "2022-06-07T11:13:38.875448",
      "2022-06-07T11:13:39.436460",
      "2022-06-07T11:13:39.972611",
      "2022-06-07T11:13:40.512501",
      "2022-06-07T11:13:41.087714",
      "2022-06-07T11:13:41.648195",
      "2022-06-07T11:13:42.183310",
      "2022-06-07T11:13:42.731606",
      "2022-06-07T11:13:43.268929",
      "2022-06-07T11:13:43.810956",
      "2022-06-07T11:13:44.369042",
      "2022-06-07T11:13:44.930359",
      "2022-06-07T11:13:45.563444",
      "2022-06-07T11:13:46.176473",
      "2022-06-07T11:13:46.745190",
      "2022-06-07T11:13:47.294624",
      "2022-06-07T11:13:47.834878",
      "2022-06-07T11:13:48.397811",
      "2022-06-07T11:13:48.939951",
      "2022-06-07T11:13:49.498406",
      "2022-06-07T11:13:50.050382",
      "2022-06-07T11:13:50.645028",
      "2022-06-07T11:13:51.252140",
      "2022-06-07T11:13:51.868977",
      "2022-06-07T11:13:52.471765",
      "2022-06-07T11:13:53.074991",
      "2022-06-07T11:13:53.639447",
      "2022-06-07T11:13:54.248496",
      "2022-06-07T11:13:54.852615",
      "2022-06-07T11:13:55.478742",
      "2022-06-07T11:13:56.106366",
      "2022-06-07T11:13:56.690429",
      "2022-06-07T11:13:57.229998",
      "2022-06-07T11:13:57.777086",
      "2022-06-07T11:13:58.320874",
      "2022-06-07T11:13:58.874226",
      "2022-06-07T11:13:59.418378",
      "2022-06-07T11:13:59.968216",
      "2022-06-07T11:14:00.529658",
      "2022-06-07T11:14:01.070739",
      "2022-06-07T11:14:01.609193",
      "2022-06-07T11:14:02.154608",
      "2022-06-07T11:14:02.698223",
      "2022-06-07T11:14:03.243746",
      "2022-06-07T11:14:03.788788",
      "2022-06-07T11:14:04.347528",
      "2022-06-07T11:14:04.917218",
      "2022-06-07T11:14:05.488881",
      "2022-06-07T11:14:06.106103",
      "2022-06-07T11:14:06.692035",
      "2022-06-07T11:14:07.290812",
      "2022-06-07T11:14:07.917082",
      "2022-06-07T11:14:08.515929",
      "2022-06-07T11:14:09.116381",
      "2022-06-07T11:14:09.694476",
      "2022-06-07T11:14:10.262545",
      "2022-06-07T11:14:10.816022",
      "2022-06-07T11:14:11.384291",
      "2022-06-07T11:14:11.924404",
      "2022-06-07T11:14:12.494662",
      "2022-06-07T11:14:13.117684",
      "2022-06-07T11:14:13.722142",
      "2022-06-07T11:14:14.307059",
      "2022-06-07T11:14:14.938819",
      "2022-06-07T11:14:15.580778",
      "2022-06-07T11:14:16.163443",
      "2022-06-07T11:14:16.724309",
      "2022-06-07T11:14:17.270369",
      "2022-06-07T11:14:17.827877",
      "2022-06-07T11:14:18.370955",
      "2022-06-07T11:14:18.908918",
      "2022-06-07T11:14:19.457169",
      "2022-06-07T11:14:19.996356",
      "2022-06-07T11:14:20.532394",
      "2022-06-07T11:14:21.082311",
      "2022-06-07T11:14:21.643847",
      "2022-06-07T11:14:22.191334",
      "2022-06-07T11:14:22.731072",
      "2022-06-07T11:14:23.276088",
      "2022-06-07T11:14:23.822291",
      "2022-06-07T11:14:24.397756",
      "2022-06-07T11:14:24.987148",
      "2022-06-07T11:14:25.562542"
    ],
    "values": [
      10.184419990543095,
      9.894685322252421,
      9.858438326339543,
      9.805052381261072,
      9.761264577063837,
      9.744135521849339,
      9.728070398327064,
      9.720641923577155,
      9.716935976124782,
      9.71208521932403,
      9.715051420069116,
      9.70282132268455,
      9.711618591902512,
      9.696729894185966,
      9.7002611950388,
      9.692498403698343,
      9.697143025579742,
      9.690116679877379,
      9.689052326139345,
      9.689834050336838,
      9.693760753433608,
      9.689785628545714,
      9.692347064448542,
      9.687662885093104,
      9.682545956636597,
      9.684707205615803,
      9.687081428977478,
      9.6867493712846,
      9.68198295686233,
      9.686320455200391,
      9.681482435512867,
      9.6853058046969,
      9.685265406594247,
      9.683995148500475,
      9.689086598476546,
      9.681170229131837,
      9.681599933265737,
      9.686589364686576,
      9.684055980768191,
      9.68229076573291,
      9.682816344524603,
      9.677825266817438,
      9.681465432564126,
      9.68385009674313,
      9.675825795051239,
      9.682730304735436,
      9.680453435726635,
      9.676263751953199,
      9.678065889122227,
      9.684190747461187,
      9.680475379998617,
      9.678190264802762,
      9.684144141376596,
      9.681888740854365,
      9.67266829525574,
      9.678764902327943,
      9.67784332743468,
      9.67732874374367,
      9.678646929191865,
      9.67623632884593,
      9.671759123816805,
      9.683217651846814,
      9.678364519802063,
      9.672048733368939,
      9.677411999009095,
      9.675010231234099,
      9.677644333636135,
      9.680244446383035,
      9.676747159254724,
      9.675853903096012,
      9.672878082674819,
      9.676687720993142,
      9.676353231933,
      9.674116828330243,
      9.674905755426641,
      9.674339651112978,
      9.675948214531967,
      9.656238981007226,
      9.647934657513902,
      9.64699441270538,
      9.644267150555846,
      9.644232048763747,
      9.644245879991304,
      9.644522821204978,
      9.643514841441954,
      9.643228627772324,
      9.643229279575722,
      9.644459525037796,
      9.643649656810176,
      9.644345213598521,
      9.643380517954897,
      9.64362175833616,
      9.643370346430382,
      9.641690902274298,
      9.64470901142797,
      9.64223520471481,
      9.643728244556582,
      9.643158997601317,
      9.643524342893377,
      9.643062069828742,
      9.643418522414043,
      9.64228614169425,
      9.645074925501511,
      9.6432124100709,
      9.641224121785742,
      9.645931345203092,
      9.642226128926765,
      9.644863693007139,
      9.643413807250877,
      9.642151005382773,
      9.643093451426303,
      9.643657880179516,
      9.644013334174646,
      9.642079810916895,
      9.644371378822138,
      9.642624589215012,
      9.641326606341861,
      9.639702869664962,
      9.640483581321586,
      9.639386257325185,
      9.640083001495052,
      9.639317231933601,
      9.638900123697818,
      9.63930270529301,
      9.637750202441934,
      9.638765477755905,
      9.638457684756741,
      9.637135177449181,
      9.63855415115998,
      9.63894491867279,
      9.6386351678746,
      9.638345350460419,
      9.638005866474332,
      9.638137100782217,
      9.638198475962646,
      9.637198988152402,
      9.639177127208816,
      9.638273928642748,
      9.63764524926568,
      9.638272415039634,
      9.638061314363403,
      9.637635897047844,
      9.638304653356,
      9.63791633422256,
      9.638373756521128,
      9.638357213005138,
      9.638726083129525,
      9.638668220064943,
      9.638344831989896,
      9.63849887561609,
      9.638262693872342,
      9.637992391408634,
      9.638112608106713,
      9.637980042147518,
      9.637740314120338,
      9.637564000070686,
      9.637629499977079,
      9.637449790238767,
      9.637215866610124,
      9.637573367987363,
      9.637623001361032,
      9.637917162005106,
      9.637674426353591,
      9.637725201537144,
      9.637843480892432,
      9.637610758947906,
      9.637742991157277,
      9.637899488247331,
      9.638005021262202,
      9.637936552286508,
      9.637826289585051,
      9.637722181532677,
      9.637642379854354,
      9.637596127157979,
      9.637576478861305,
      9.637565221584088,
      9.637563853413836,
      9.637608464670617,
      9.637686997578351,
      9.637710692359962,
      9.637671008817438,
      9.637604427237179,
      9.63753345392038,
      9.637472225786828,
      9.63744562254484,
      9.637488729250396,
      9.637577454241875,
      9.63762583876747,
      9.637642564909857,
      9.637659295505195,
      9.637675029680109,
      9.637666444794537,
      9.637628228113229,
      9.63757361341718,
      9.637516997134433,
      9.637473927555218,
      9.637467714509778,
      9.63751550722757,
      9.637570245192821,
      9.637613441671604,
      9.637651657225147,
      9.637651641379954,
      9.637615776890161,
      9.63757861362537,
      9.637571551379438,
      9.637602041876923,
      9.637636305015356,
      9.637641337595493,
      9.637626726797263,
      9.637604285187667,
      9.63758149265282,
      9.637561664217664,
      9.63754648810801,
      9.637541653296203,
      9.637557608271768,
      9.637594290864813,
      9.6376191549142,
      9.637601892938873,
      9.637554116032101,
      9.637496045291124,
      9.637440383237761,
      9.637396624380603,
      9.637378728129182,
      9.637400945609835,
      9.637469457637033,
      9.637557493684339,
      9.637620530970937,
      9.637637649262295,
      9.637621220020408,
      9.637601824958463,
      9.637604913891066,
      9.637630620431361,
      9.637655001036697,
      9.63764743194815,
      9.63760363381575,
      9.637539464913658,
      9.637479969420362,
      9.637449234008619,
      9.637463248624506,
      9.637513947957403,
      9.637576733611965,
      9.63762269220292,
      9.637641824463971,
      9.637645037220745,
      9.637641932305199,
      9.637638309025364,
      9.637634603465404,
      9.637629947588593,
      9.637621650893943,
      9.637607880124989,
      9.637588763226876,
      9.63756756765427,
      9.6375484653343,
      9.637535864365562,
      9.63752881630237,
      9.63752874427625,
      9.637532476891778,
      9.637537901494415,
      9.637544548082301,
      9.637547689414177,
      9.63754000377985,
      9.637515849001437,
      9.637471893110366,
      9.63741393568486,
      9.637357029438208,
      9.637320013265008,
      9.637319712579334,
      9.637360893976693,
      9.637459376718006,
      9.637586522722374,
      9.637683317157963,
      9.637707812633376,
      9.637689080706396,
      9.637662907132686,
      9.637656394187765,
      9.637677563108747,
      9.637697029682101,
      9.63768526517328,
      9.637649718327097,
      9.637612208251152,
      9.637589125778215,
      9.637580682341692,
      9.637569750298558,
      9.637548542985666,
      9.63752710334064,
      9.63751316977013,
      9.637509884064395,
      9.637519139385828,
      9.63753789888604,
      9.637567148390438,
      9.637610340259384,
      9.637655474367309,
      9.637663449385771,
      9.63763264637632,
      9.637594444252954,
      9.637568693302669,
      9.637562593764532,
      9.637576120860468,
      9.637596436962323,
      9.637605132708423,
      9.637596365426282,
      9.637576080605013,
      9.637553427229273,
      9.637537895907734,
      9.63754074758999,
      9.637565345818514,
      9.637598851220602,
      9.637614255799162,
      9.63759854566722,
      9.637559040662246,
      9.637508740155818,
      9.637459196792463,
      9.63742141919314,
      9.637402939579353,
      9.63740421579891,
      9.637414274973569,
      9.63741704168023,
      9.637404817614451,
      9.637393137330811,
      9.637420385576448,
      9.637527126974573,
      9.637669867016777,
      9.63773847640211,
      9.637724351615326,
      9.637671660680695,
      9.63761339908396,
      9.637571373640634,
      9.637569086425172,
      9.637607804900222,
      9.637643145201636,
      9.63764995968114,
      9.637636544867432,
      9.637615251285956,
      9.637593853310722,
      9.637574798034077,
      9.63756041316911,
      9.637552374707157,
      9.637551959277145,
      9.637557329161787,
      9.637561144654384,
      9.637554559548231,
      9.637533915191613,
      9.63750137790787,
      9.637468484642847,
      9.637451139090446,
      9.637463813709902,
      9.637502040528105,
      9.637537873391006,
      9.637551808360246,
      9.637551160542351,
      9.63754227823566,
      9.637530143908352,
      9.63751735633713,
      9.637504916330677,
      9.637499498790595,
      9.637502022599735,
      9.637529238208241,
      9.637583049124833,
      9.637632217995499,
      9.637650392509038,
      9.637642915650545,
      9.637627490009363,
      9.637615336366894,
      9.637610838942791,
      9.637609912861336,
      9.63760810558513,
      9.637604749146393,
      9.637599996776435,
      9.637594032799718,
      9.637587900333864,
      9.637580884895847,
      9.637572460387196,
      9.637561692157195,
      9.637547577706089,
      9.63753143325566,
      9.637516139998535,
      9.637505106031533,
      9.637498899342576,
      9.637496662757508,
      9.63749367046325,
      9.637488437017163,
      9.637479569473687,
      9.637467445677258,
      9.637454238098737,
      9.637440877135505,
      9.637429124896425,
      9.637421573742493,
      9.637422624791215,
      9.63743634953598,
      9.637462855881274,
      9.637493038305648,
      9.637519606923718,
      9.637540483951659,
      9.637562574999555,
      9.637574031728096,
      9.637566860604146,
      9.637550045223776,
      9.637543763006798,
      9.637558341129274,
      9.637591693158456
    ]
  },
  "val": {
    "steps": [
      0,
      1,
      2,
      3,
      4,
      5,
      6,
      7,
      8,
      9,
      10,
      11,
      12,
      13,
      14,
      15,
      16,
      17,
      18,
      19,
      20,
      21,
      22,
      23,
      24,
      25,
      26,
      27,
      28,
      29,
      30,
      31,
      32,
      33,
      34,
      35,
      36,
      37,
      38,
      39,
      40,
      41,
      42,
      43,
      44,
      45,
      46,
      47,
      48,
      49,
      50,
      51,
      52,
      53,
      54,
      55,
      56,
      57,
      58,
      59,
      60,
      61,
      62,
      63,
      64,
      65,
      66,
      67,
      68,
      69,
      70,
      71,
      72,
      73,
      74,
      75,
      76,
      77,
      78,
      79,
      80,
      81,
      82,
      83,
      84,
      85,
      86,
      87,
      88,
      89,
      90,
      91,
      92,
      93,
      94,
      95,
      96,
      97,
      98,
      99,
      100,
      101,
      102,
      103,
      104,
      105,
      106,
      107,
      108,
      109,
      110,
      111,
      112,
      113,
      114,
      115,
      116,
      117,
      118,
      119,
      120,
      121,
      122,
      123,
      124,
      125,
      126,
      127,
      128,
      129,
      130,
      131,
      132,
      133,
      134,
      135,
      136,
      137,
      138,
      139,
      140,
      141,
      142,
      143,
      144,
      145,
      146,
      147,
      148,
      149,
      150,
      151,
      152,
      153,
      154,
      155,
      156,
      157,
      158,
      159,
      160,
      161,
      162,
      163,
      164,
      165,
      166,
      167,
      168,
      169,
      170,
      171,
      172,
      173,
      174,
      175,
      176,
      177,
      178,
      179,
      180,
      181,
      182,
      183,
      184,
      185,
      186,
      187,
      188,
      189,
      190,
      191,
      192,
      193,
      194,
      195,
      196,
      197,
      198,
      199,
      200,
      201,
      202,
      203,
      204,
      205,
      206,
      207,
      208,
      209,
      210,
      211,
      212,
      213,
      214,
      215,
      216,
      217,
      218,
      219,
      220,
      221,
      222,
      223,
      224,
      225,
      226,
      227,
      228,
      229,
      230,
      231,
      232,
      233,
      234,
      235,
      236,
      237,
      238,
      239,
      240,
      241,
      242,
      243,
      244,
      245,
      246,
      247,
      248,
      249,
      250,
      251,
      252,
      253,
      254,
      255,
      256,
      257,
      258,
      259,
      260,
      261,
      262,
      263,
      264,
      265,
      266,
      267,
      268,
      269,
      270,
      271,
      272,
      273,
      274,
      275,
      276,
      277,
      278,
      279,
      280,
      281,
      282,
      283,
      284,
      285,
      286,
      287,
      288,
      289,
      290,
      291,
      292,
      293,
      294,
      295,
      296,
      297,
      298,
      299,
      300,
      301,
      302,
      303,
      304,
      305,
      306,
      307,
      308,
      309,
      310,
      311,
      312,
      313,
      314,
      315,
      316,
      317,
      318,
      319,
      320,
      321,
      322,
      323,
      324,
      325,
      326,
      327,
      328,
      329,
      330,
      331,
      332,
      333,
      334,
      335,
      336,
      337,
      338,
      339,
      340,
      341,
      342,
      343,
      344,
      345,
      346,
      347,
      348,
      349,
      350,
      351,
      352,
      353,
      354,
      355,
      356,
      357,
      358,
      359,
      360,
      361,
      362,
      363,
      364,
      365,
      366,
      367,
      368,
      369,
      370,
      371,
      372,
      373,
      374,
      375,
      376,
      377,
      378,
      379,
      380,
      381,
      382,
      383,
      384,
      385,
      386,
      387,
      388,
      389,
      390,
      391,
      392,
      393,
      394,
      395,
      396,
      397,
      398,
      399
    ],
    "timestamps": [
      "2022-06-07T11:10:40.103704",
      "2022-06-07T11:10:40.634761",
      "2022-06-07T11:10:41.169544",
      "2022-06-07T11:10:41.709686",
      "2022-06-07T11:10:42.244979",
      "2022-06-07T11:10:42.787820",
      "2022-06-07T11:10:43.380753",
      "2022-06-07T11:10:43.968039",
      "2022-06-07T11:10:44.559564",
      "2022-06-07T11:10:45.111508",
      "2022-06-07T11:10:45.724932",
      "2022-06-07T11:10:46.380595",
      "2022-06-07T11:10:47.015881",
      "2022-06-07T11:10:47.629750",
      "2022-06-07T11:10:48.216823",
      "2022-06-07T11:10:48.807130",
      "2022-06-07T11:10:49.430589",
      "2022-06-07T11:10:50.017080",
      "2022-06-07T11:10:50.637488",
      "2022-06-07T11:10:51.232982",
      "2022-06-07T11:10:51.774518",
      "2022-06-07T11:10:52.349595",
      "2022-06-07T11:10:52.899515",
      "2022-06-07T11:10:53.506785",
      "2022-06-07T11:10:54.089281",
      "2022-06-07T11:10:54.683573",
      "2022-06-07T11:10:55.299987",
      "2022-06-07T11:10:55.881397",
      "2022-06-07T11:10:56.512956",
      "2022-06-07T11:10:57.088692",
      "2022-06-07T11:10:57.650189",
      "2022-06-07T11:10:58.235400",
      "2022-06-07T11:10:58.816961",
      "2022-06-07T11:10:59.418494",
      "2022-06-07T11:11:00.026551",
      "2022-06-07T11:11:00.656414",
      "2022-06-07T11:11:01.300907",
      "2022-06-07T11:11:01.902096",
      "2022-06-07T11:11:02.482713",
      "2022-06-07T11:11:03.053694",
      "2022-06-07T11:11:03.620759",
      "2022-06-07T11:11:04.195996",
      "2022-06-07T11:11:04.748674",
      "2022-06-07T11:11:05.310723",
      "2022-06-07T11:11:05.906385",
      "2022-06-07T11:11:06.458998",
      "2022-06-07T11:11:07.004904",
      "2022-06-07T11:11:07.560448",
      "2022-06-07T11:11:08.117618",
      "2022-06-07T11:11:08.690611",
      "2022-06-07T11:11:09.245628",
      "2022-06-07T11:11:09.788256",
      "2022-06-07T11:11:10.345272",
      "2022-06-07T11:11:10.903969",
      "2022-06-07T11:11:11.446012",
      "2022-06-07T11:11:11.992459",
      "2022-06-07T11:11:12.539244",
      "2022-06-07T11:11:13.110995",
      "2022-06-07T11:11:13.694872",
      "2022-06-07T11:11:14.307064",
      "2022-06-07T11:11:14.896153",
      "2022-06-07T11:11:15.516297",
      "2022-06-07T11:11:16.145633",
      "2022-06-07T11:11:16.708340",
      "2022-06-07T11:11:17.269328",
      "2022-06-07T11:11:17.839616",
      "2022-06-07T11:11:18.423394",
      "2022-06-07T11:11:19.002231",
      "2022-06-07T11:11:19.596493",
      "2022-06-07T11:11:20.151781",
      "2022-06-07T11:11:20.696378",
      "2022-06-07T11:11:21.241687",
      "2022-06-07T11:11:21.791919",
      "2022-06-07T11:11:22.357936",
      "2022-06-07T11:11:22.960691",
      "2022-06-07T11:11:23.569552",
      "2022-06-07T11:11:24.150180",
      "2022-06-07T11:11:24.740086",
      "2022-06-07T11:11:25.323931",
      "2022-06-07T11:11:25.904895",
      "2022-06-07T11:11:26.475994",
      "2022-06-07T11:11:27.012147",
      "2022-06-07T11:11:27.621186",
      "2022-06-07T11:11:28.206669",
      "2022-06-07T11:11:28.787448",
      "2022-06-07T11:11:29.349678",
      "2022-06-07T11:11:29.898032",
      "2022-06-07T11:11:30.441510",
      "2022-06-07T11:11:31.021575",
      "2022-06-07T11:11:31.559278",
      "2022-06-07T11:11:32.130378",
      "2022-06-07T11:11:32.674569",
      "2022-06-07T11:11:33.218776",
      "2022-06-07T11:11:33.768301",
      "2022-06-07T11:11:34.317705",
      "2022-06-07T11:11:34.870773",
      "2022-06-07T11:11:35.423166",
      "2022-06-07T11:11:36.029939",
      "2022-06-07T11:11:36.615047",
      "2022-06-07T11:11:37.210712",
      "2022-06-07T11:11:37.752167",
      "2022-06-07T11:11:38.327600",
      "2022-06-07T11:11:38.948539",
      "2022-06-07T11:11:39.539275",
      "2022-06-07T11:11:40.085829",
      "2022-06-07T11:11:40.627059",
      "2022-06-07T11:11:41.178595",
      "2022-06-07T11:11:41.711130",
      "2022-06-07T11:11:42.248721",
      "2022-06-07T11:11:42.783694",
      "2022-06-07T11:11:43.325996",
      "2022-06-07T11:11:43.882219",
      "2022-06-07T11:11:44.424269",
      "2022-06-07T11:11:44.976708",
      "2022-06-07T11:11:45.545134",
      "2022-06-07T11:11:46.112854",
      "2022-06-07T11:11:46.649570",
      "2022-06-07T11:11:47.184333",
      "2022-06-07T11:11:47.724176",
      "2022-06-07T11:11:48.258864",
      "2022-06-07T11:11:48.798027",
      "2022-06-07T11:11:49.330117",
      "2022-06-07T11:11:49.866260",
      "2022-06-07T11:11:50.399971",
      "2022-06-07T11:11:50.938494",
      "2022-06-07T11:11:51.472274",
      "2022-06-07T11:11:52.009593",
      "2022-06-07T11:11:52.543547",
      "2022-06-07T11:11:53.088633",
      "2022-06-07T11:11:53.624364",
      "2022-06-07T11:11:54.163532",
      "2022-06-07T11:11:54.704268",
      "2022-06-07T11:11:55.244672",
      "2022-06-07T11:11:55.804701",
      "2022-06-07T11:11:56.365803",
      "2022-06-07T11:11:56.909474",
      "2022-06-07T11:11:57.458650",
      "2022-06-07T11:11:57.991141",
      "2022-06-07T11:11:58.530707",
      "2022-06-07T11:11:59.064341",
      "2022-06-07T11:11:59.602969",
      "2022-06-07T11:12:00.134441",
      "2022-06-07T11:12:00.669933",
      "2022-06-07T11:12:01.203873",
      "2022-06-07T11:12:01.761103",
      "2022-06-07T11:12:02.293115",
      "2022-06-07T11:12:02.846194",
      "2022-06-07T11:12:03.380933",
      "2022-06-07T11:12:03.921717",
      "2022-06-07T11:12:04.458102",
      "2022-06-07T11:12:05.006400",
      "2022-06-07T11:12:05.554040",
      "2022-06-07T11:12:06.109412",
      "2022-06-07T11:12:06.642379",
      "2022-06-07T11:12:07.179835",
      "2022-06-07T11:12:07.712396",
      "2022-06-07T11:12:08.255187",
      "2022-06-07T11:12:08.789821",
      "2022-06-07T11:12:09.327191",
      "2022-06-07T11:12:09.861572",
      "2022-06-07T11:12:10.400128",
      "2022-06-07T11:12:10.931425",
      "2022-06-07T11:12:11.467012",
      "2022-06-07T11:12:12.001035",
      "2022-06-07T11:12:12.538077",
      "2022-06-07T11:12:13.078301",
      "2022-06-07T11:12:13.624659",
      "2022-06-07T11:12:14.167822",
      "2022-06-07T11:12:14.707577",
      "2022-06-07T11:12:15.241313",
      "2022-06-07T11:12:15.820313",
      "2022-06-07T11:12:16.363128",
      "2022-06-07T11:12:16.898555",
      "2022-06-07T11:12:17.432256",
      "2022-06-07T11:12:17.969406",
      "2022-06-07T11:12:18.504368",
      "2022-06-07T11:12:19.044588",
      "2022-06-07T11:12:19.578875",
      "2022-06-07T11:12:20.116115",
      "2022-06-07T11:12:20.648801",
      "2022-06-07T11:12:21.185335",
      "2022-06-07T11:12:21.716277",
      "2022-06-07T11:12:22.256462",
      "2022-06-07T11:12:22.789140",
      "2022-06-07T11:12:23.369078",
      "2022-06-07T11:12:23.989640",
      "2022-06-07T11:12:24.596224",
      "2022-06-07T11:12:25.148276",
      "2022-06-07T11:12:25.729646",
      "2022-06-07T11:12:26.295817",
      "2022-06-07T11:12:26.854749",
      "2022-06-07T11:12:27.409337",
      "2022-06-07T11:12:27.972199",
      "2022-06-07T11:12:28.511270",
      "2022-06-07T11:12:29.090494",
      "2022-06-07T11:12:29.647586",
      "2022-06-07T11:12:30.189886",
      "2022-06-07T11:12:30.734983",
      "2022-06-07T11:12:31.278494",
      "2022-06-07T11:12:31.820271",
      "2022-06-07T11:12:32.454916",
      "2022-06-07T11:12:33.057319",
      "2022-06-07T11:12:33.621227",
      "2022-06-07T11:12:34.161014",
      "2022-06-07T11:12:34.719467",
      "2022-06-07T11:12:35.252801",
      "2022-06-07T11:12:35.831997",
      "2022-06-07T11:12:36.383207",
      "2022-06-07T11:12:36.928971",
      "2022-06-07T11:12:37.465366",
      "2022-06-07T11:12:38.000798",
      "2022-06-07T11:12:38.534535",
      "2022-06-07T11:12:39.082695",
      "2022-06-07T11:12:39.623211",
      "2022-06-07T11:12:40.215581",
      "2022-06-07T11:12:40.751754",
      "2022-06-07T11:12:41.292800",
      "2022-06-07T11:12:41.830033",
      "2022-06-07T11:12:42.395044",
      "2022-06-07T11:12:42.940493",
      "2022-06-07T11:12:43.502270",
      "2022-06-07T11:12:44.075787",
      "2022-06-07T11:12:44.644858",
      "2022-06-07T11:12:45.202550",
      "2022-06-07T11:12:45.826168",
      "2022-06-07T11:12:46.391491",
      "2022-06-07T11:12:46.955845",
      "2022-06-07T11:12:47.512183",
      "2022-06-07T11:12:48.063921",
      "2022-06-07T11:12:48.641555",
      "2022-06-07T11:12:49.190566",
      "2022-06-07T11:12:49.730722",
      "2022-06-07T11:12:50.274642",
      "2022-06-07T11:12:50.811390",
      "2022-06-07T11:12:51.355399",
      "2022-06-07T11:12:51.901931",
      "2022-06-07T11:12:52.450929",
      "2022-06-07T11:12:53.007565",
      "2022-06-07T11:12:53.584543",
      "2022-06-07T11:12:54.159215",
      "2022-06-07T11:12:54.719559",
      "2022-06-07T11:12:55.282032",
      "2022-06-07T11:12:55.896697",
      "2022-06-07T11:12:56.452574",
      "2022-06-07T11:12:57.049962",
      "2022-06-07T11:12:57.614522",
      "2022-06-07T11:12:58.179220",
      "2022-06-07T11:12:58.730215",
      "2022-06-07T11:12:59.294110",
      "2022-06-07T11:12:59.835871",
      "2022-06-07T11:13:00.400289",
      "2022-06-07T11:13:01.017547",
      "2022-06-07T11:13:01.578550",
      "2022-06-07T11:13:02.155875",
      "2022-06-07T11:13:02.769519",
      "2022-06-07T11:13:03.346144",
      "2022-06-07T11:13:03.886046",
      "2022-06-07T11:13:04.425888",
      "2022-06-07T11:13:04.964654",
      "2022-06-07T11:13:05.509771",
      "2022-06-07T11:13:06.109256",
      "2022-06-07T11:13:06.665451",
      "2022-06-07T11:13:07.224422",
      "2022-06-07T11:13:07.795782",
      "2022-06-07T11:13:08.366191",
      "2022-06-07T11:13:08.955335",
      "2022-06-07T11:13:09.550284",
      "2022-06-07T11:13:10.098546",
      "2022-06-07T11:13:10.642574",
      "2022-06-07T11:13:11.200766",
      "2022-06-07T11:13:11.798557",
      "2022-06-07T11:13:12.380751",
      "2022-06-07T11:13:12.949887",
      "2022-06-07T11:13:13.525765",
      "2022-06-07T11:13:14.098301",
      "2022-06-07T11:13:14.665564",
      "2022-06-07T11:13:15.237087",
      "2022-06-07T11:13:15.825911",
      "2022-06-07T11:13:16.432488",
      "2022-06-07T11:13:17.015474",
      "2022-06-07T11:13:17.583566",
      "2022-06-07T11:13:18.134168",
      "2022-06-07T11:13:18.720763",
      "2022-06-07T11:13:19.316840",
      "2022-06-07T11:13:19.900553",
      "2022-06-07T11:13:20.466598",
      "2022-06-07T11:13:21.034487",
      "2022-06-07T11:13:21.626557",
      "2022-06-07T11:13:22.199032",
      "2022-06-07T11:13:22.777300",
      "2022-06-07T11:13:23.334920",
      "2022-06-07T11:13:23.881359",
      "2022-06-07T11:13:24.482385",
      "2022-06-07T11:13:25.046159",
      "2022-06-07T11:13:25.612799",
      "2022-06-07T11:13:26.217534",
      "2022-06-07T11:13:26.786980",
      "2022-06-07T11:13:27.353913",
      "2022-06-07T11:13:27.956562",
      "2022-06-07T11:13:28.570929",
      "2022-06-07T11:13:29.155093",
      "2022-06-07T11:13:29.708826",
      "2022-06-07T11:13:30.285031",
      "2022-06-07T11:13:30.857101",
      "2022-06-07T11:13:31.403297",
      "2022-06-07T11:13:31.947124",
      "2022-06-07T11:13:32.506753",
      "2022-06-07T11:13:33.059396",
      "2022-06-07T11:13:33.608963",
      "2022-06-07T11:13:34.195943",
      "2022-06-07T11:13:34.787027",
      "2022-06-07T11:13:35.387806",
      "2022-06-07T11:13:36.007207",
      "2022-06-07T11:13:36.624556",
      "2022-06-07T11:13:37.225032",
      "2022-06-07T11:13:37.797363",
      "2022-06-07T11:13:38.391836",
      "2022-06-07T11:13:38.949270",
      "2022-06-07T11:13:39.504127",
      "2022-06-07T11:13:40.040144",
      "2022-06-07T11:13:40.580704",
      "2022-06-07T11:13:41.155604",
      "2022-06-07T11:13:41.716011",
      "2022-06-07T11:13:42.252630",
      "2022-06-07T11:13:42.801104",
      "2022-06-07T11:13:43.336925",
      "2022-06-07T11:13:43.879805",
      "2022-06-07T11:13:44.438298",
      "2022-06-07T11:13:45.003447",
      "2022-06-07T11:13:45.638199",
      "2022-06-07T11:13:46.250687",
      "2022-06-07T11:13:46.816371",
      "2022-06-07T11:13:47.362726",
      "2022-06-07T11:13:47.902902",
      "2022-06-07T11:13:48.469285",
      "2022-06-07T11:13:49.007700",
      "2022-06-07T11:13:49.566756",
      "2022-06-07T11:13:50.119573",
      "2022-06-07T11:13:50.714941",
      "2022-06-07T11:13:51.333195",
      "2022-06-07T11:13:51.939312",
      "2022-06-07T11:13:52.550284",
      "2022-06-07T11:13:53.144745",
      "2022-06-07T11:13:53.712807",
      "2022-06-07T11:13:54.323063",
      "2022-06-07T11:13:54.924345",
      "2022-06-07T11:13:55.554768",
      "2022-06-07T11:13:56.183031",
      "2022-06-07T11:13:56.758799",
      "2022-06-07T11:13:57.297907",
      "2022-06-07T11:13:57.845233",
      "2022-06-07T11:13:58.389694",
      "2022-06-07T11:13:58.943001",
      "2022-06-07T11:13:59.487157",
      "2022-06-07T11:14:00.038980",
      "2022-06-07T11:14:00.597475",
      "2022-06-07T11:14:01.138865",
      "2022-06-07T11:14:01.676960",
      "2022-06-07T11:14:02.223386",
      "2022-06-07T11:14:02.765990",
      "2022-06-07T11:14:03.311445",
      "2022-06-07T11:14:03.856678",
      "2022-06-07T11:14:04.416249",
      "2022-06-07T11:14:04.986394",
      "2022-06-07T11:14:05.560958",
      "2022-06-07T11:14:06.181330",
      "2022-06-07T11:14:06.767890",
      "2022-06-07T11:14:07.361160",
      "2022-06-07T11:14:07.996616",
      "2022-06-07T11:14:08.590930",
      "2022-06-07T11:14:09.187540",
      "2022-06-07T11:14:09.762519",
      "2022-06-07T11:14:10.331056",
      "2022-06-07T11:14:10.884124",
      "2022-06-07T11:14:11.452816",
      "2022-06-07T11:14:11.992067",
      "2022-06-07T11:14:12.565956",
      "2022-06-07T11:14:13.192723",
      "2022-06-07T11:14:13.794518",
      "2022-06-07T11:14:14.380727",
      "2022-06-07T11:14:15.015939",
      "2022-06-07T11:14:15.659415",
      "2022-06-07T11:14:16.232507",
      "2022-06-07T11:14:16.794685",
      "2022-06-07T11:14:17.339666",
      "2022-06-07T11:14:17.895783",
      "2022-06-07T11:14:18.439304",
      "2022-06-07T11:14:18.976423",
      "2022-06-07T11:14:19.524836",
      "2022-06-07T11:14:20.063849",
      "2022-06-07T11:14:20.601465",
      "2022-06-07T11:14:21.151708",
      "2022-06-07T11:14:21.711903",
      "2022-06-07T11:14:22.259646",
      "2022-06-07T11:14:22.798897",
      "2022-06-07T11:14:23.347777",
      "2022-06-07T11:14:23.890236",
      "2022-06-07T11:14:24.469259",
      "2022-06-07T11:14:25.054777",
      "2022-06-07T11:14:25.636269"
    ],
    "values": [
      9.916844906750642,
      9.900751114154453,
      9.842927571249183,
      9.793934147898014,
      9.766859886651261,
      9.72090148888527,
      9.732931128107374,
      9.727216473240567,
      9.684967975057933,
      9.672187028870988,
      9.699356881608738,
      9.694348196360734,
      9.718295249566316,
      9.693603157874831,
      9.687624601096031,
      9.680443038359936,
      9.690910522628993,
      9.689299602243729,
      9.6948883366181,
      9.742614802244656,
      9.69660017614393,
      9.668056254715685,
      9.70097042870862,
      9.690007175209127,
      9.706833612116231,
      9.729059526354114,
      9.682340240333874,
      9.697695366111033,
      9.658953329300127,
      9.700221682038668,
      9.691571578878456,
      9.710772013562929,
      9.731003879434818,
      9.681817737496907,
      9.682670100838356,
      9.685254754012952,
      9.672773694264992,
      9.700386088485518,
      9.69829784300824,
      9.71888229634567,
      9.68860148996817,
      9.66052617397931,
      9.650639548181347,
      9.679815959133974,
      9.657240848726762,
      9.679174520482206,
      9.677319855570863,
      9.674262712559813,
      9.645297443414208,
      9.684964984524584,
      9.708577521444674,
      9.700204315345466,
      9.686728940885638,
      9.69463057103084,
      9.65683461426429,
      9.685616992707539,
      9.676238117005006,
      9.660002233592927,
      9.681243406442734,
      9.68131077571497,
      9.64131589076489,
      9.698848415627852,
      9.693534437260837,
      9.695268757645076,
      9.693203765746343,
      9.697112492287834,
      9.696506405865499,
      9.691373222686071,
      9.710058853790544,
      9.707417608211477,
      9.719062193582893,
      9.681457513849708,
      9.676993252625122,
      9.696064769219332,
      9.709351152568678,
      9.698991872232597,
      9.672409354843392,
      9.663440769213077,
      9.649478380378778,
      9.662624103159498,
      9.662545073280775,
      9.657752628566863,
      9.654705453256497,
      9.652621024819672,
      9.653597127645206,
      9.654844204610281,
      9.65701102018076,
      9.655626203308586,
      9.650501606023793,
      9.659339205636655,
      9.654318905383375,
      9.658007489825952,
      9.651652097672873,
      9.646825490136225,
      9.658712648088732,
      9.648569296186992,
      9.650223157487495,
      9.663567588273134,
      9.652168655033082,
      9.656779753960759,
      9.652190042361456,
      9.660367315912005,
      9.653908660845723,
      9.655017884717866,
      9.65900215035216,
      9.650742994665556,
      9.654663328009345,
      9.65418914649192,
      9.654999258932875,
      9.642628640484359,
      9.656950360825228,
      9.656971143421249,
      9.649604993792368,
      9.651701471622676,
      9.652273431722948,
      9.650598295161112,
      9.653729399596898,
      9.650551285759668,
      9.649810010634848,
      9.651192479415784,
      9.647890929617391,
      9.651151965932268,
      9.649487443130115,
      9.6500285584917,
      9.650754116311166,
      9.650453122992857,
      9.65116232475071,
      9.64956188973083,
      9.649619922017642,
      9.65054387119179,
      9.650538414807972,
      9.650791402723515,
      9.650907669256032,
      9.649260757589342,
      9.648834822278712,
      9.650220347757232,
      9.649392567321357,
      9.64780438165677,
      9.64837657089799,
      9.649229848730146,
      9.649920565002631,
      9.650771387581369,
      9.648473591423233,
      9.649186102169152,
      9.65084128696946,
      9.650232695038737,
      9.65039090499189,
      9.65009897919153,
      9.649990757450913,
      9.650130544007986,
      9.64968494215338,
      9.649702475136582,
      9.649738805263503,
      9.649543033425276,
      9.649349453994255,
      9.649292993712672,
      9.649398399896867,
      9.648958841221374,
      9.649135600452592,
      9.64929862670835,
      9.649413980782523,
      9.649521013501122,
      9.649161364393407,
      9.649633987479833,
      9.649332988752164,
      9.649376885153018,
      9.649502775781146,
      9.649711558274511,
      9.649697662424588,
      9.649598271633687,
      9.649489796787206,
      9.649397983500833,
      9.649333467712205,
      9.649301246688914,
      9.649285408153297,
      9.649272115112359,
      9.649282178976899,
      9.649345283852796,
      9.649398758970198,
      9.649383334178014,
      9.649327286189893,
      9.649258544627722,
      9.649193085719945,
      9.649145794455487,
      9.649147097479586,
      9.649220356217036,
      9.649293646145132,
      9.649321844791574,
      9.649336614711691,
      9.64935687619398,
      9.649365571757059,
      9.649344585209258,
      9.649298646272388,
      9.649245227098755,
      9.649195599944285,
      9.649167984149061,
      9.649187049847782,
      9.649242356852639,
      9.649281730618881,
      9.649320691329843,
      9.649341124768938,
      9.649319970711643,
      9.64928124927032,
      9.649257088635805,
      9.649271250874765,
      9.649310776663102,
      9.649332558036393,
      9.64932925746209,
      9.64931390738029,
      9.649295473667486,
      9.649278517987103,
      9.64926446344059,
      9.649256744041079,
      9.649262337369219,
      9.649290708996558,
      9.649326795269316,
      9.64932938750866,
      9.649293379968388,
      9.649239939503959,
      9.649182539528756,
      9.649132105022035,
      9.64909802564545,
      9.649095198946391,
      9.649137524598446,
      9.64921648330006,
      9.649293980993468,
      9.649334113216339,
      9.64933068605313,
      9.649310020377687,
      9.64929850959579,
      9.649313263141662,
      9.649339253805932,
      9.649347158999301,
      9.649318618021491,
      9.649262590535704,
      9.649198675584554,
      9.64915122474474,
      9.649140547564462,
      9.649173662634713,
      9.64923109700601,
      9.649286018007977,
      9.649318558222838,
      9.649329194595596,
      9.649330535404848,
      9.649329064934655,
      9.649327122140587,
      9.649324597651608,
      9.649319457029868,
      9.649309281500077,
      9.649293464033907,
      9.649273286491448,
      9.649252916018956,
      9.649236899728256,
      9.649228169973325,
      9.649225746862774,
      9.649228200849548,
      9.649235178959094,
      9.649243539980418,
      9.649251810593544,
      9.649253597013477,
      9.64924030529942,
      9.64920872796788,
      9.649158720508257,
      9.649100793079189,
      9.64905119270276,
      9.649029072830778,
      9.64904515140795,
      9.649105960603471,
      9.649219164567084,
      9.649334101764603,
      9.64938958173612,
      9.649385848263451,
      9.649360197132939,
      9.649340740183419,
      9.649347949829796,
      9.649372785508184,
      9.649377185146783,
      9.649351532066584,
      9.6493141745419,
      9.649283752338492,
      9.649270205998638,
      9.649263577859733,
      9.649246996080777,
      9.649224423074658,
      9.649206001203398,
      9.649197369523002,
      9.649200288580618,
      9.649214439953163,
      9.649236655421793,
      9.64927055465827,
      9.649317288473911,
      9.649346884218394,
      9.649332534703268,
      9.649296059842143,
      9.649264029628261,
      9.64924831460538,
      9.649252155103541,
      9.649269568872091,
      9.6492850102929,
      9.649286280787491,
      9.649272086800513,
      9.649251130176747,
      9.649232793290684,
      9.649226919194858,
      9.64924113702208,
      9.649272951509488,
      9.6493011584664,
      9.649301813471096,
      9.649273785525619,
      9.649228819541007,
      9.64917895120762,
      9.649136738588094,
      9.649108474438977,
      9.64910004677093,
      9.649108198519892,
      9.649117074103941,
      9.649112794983921,
      9.649098837091321,
      9.649098630919676,
      9.649158081678408,
      9.649291286052042,
      9.649402851507048,
      9.649421889332183,
      9.649382851446259,
      9.649325021134436,
      9.64927246406352,
      9.649246772784531,
      9.649264904576706,
      9.649305765927123,
      9.649325945455098,
      9.649320329206049,
      9.649304405148449,
      9.649286565860107,
      9.649269609683117,
      9.6492552884381,
      9.649247700157387,
      9.649246168977434,
      9.64925096995265,
      9.649256637554181,
      9.64925676791819,
      9.649242739323897,
      9.649214166952378,
      9.649179089522368,
      9.6491499674758,
      9.649143318753252,
      9.649167527131302,
      9.64920483038241,
      9.649227446412466,
      9.649231821884438,
      9.649226243248414,
      9.649215724935777,
      9.649203123738413,
      9.649189900738131,
      9.64917919291785,
      9.6491741277085,
      9.649184115865648,
      9.649221479759877,
      9.649274148696868,
      9.649307817358933,
      9.649311026868226,
      9.649298328363379,
      9.649286260484905,
      9.64928016238512,
      9.649280349096816,
      9.64928056073139,
      9.649279940328112,
      9.649277437147099,
      9.649273050548953,
      9.64926879469479,
      9.649262393302031,
      9.64925402939332,
      9.649243876773062,
      9.649231428945951,
      9.64921559023345,
      9.64919877687009,
      9.649184830928958,
      9.649176684659931,
      9.649173451588258,
      9.649172100264478,
      9.649170244698665,
      9.64916536483419,
      9.649157051332567,
      9.649147402312314,
      9.649136135887751,
      9.649125697545674,
      9.649117570105636,
      9.649115387778004,
      9.649122767019078,
      9.649142132190189,
      9.64917029075054,
      9.64919732041331,
      9.649218461085434,
      9.649236114820216,
      9.649251683343694,
      9.649250073198438,
      9.649232678980443,
      9.649216901574214,
      9.649217052786177,
      9.64924062314379,
      9.64927420179969
    ]
  }
}