INFO - residual_nf - Running command 'run'
INFO - residual_nf - Started run with ID "17"
[CONFIG] {'bn': 'arithmetic-circuit', 'structure': 'faithful', 'coeff': 0.99, 'n_power_iterations': 5, 'num_blocks': 17, 'hidden_dims': [200], 'activation': 'lipswish', 'grad_in_forward': True, 'batch_size': 100, 'num_train_samples': 10000, 'num_val_samples': 5000, 'num_epochs': 500, 'num_train_batches': 100, 'num_val_batches': 50, 'lr': 0.01, 'seed': 15, 'patience': 20, 'double': True, 'run': 13, 'checkpoint_n': 10, 'load_from_checkpoint': True, 'ex_name': 'residual_nf', 'sub_folder': 'faithful_99_lipswish_17_[200]', 'path': './experiment_logs/residual_nf/arithmetic-circuit/faithful_99_lipswish_17_[200]', 'bt_config': {'depth': 5, 'seed': 4}}
[DEVICE] cpu
[ENCODED STRUCTURE] Using faithful BN structure.
[LOADING FROM CHECKPOINT] Start epoch: 400
  0%|          | 0/100 [00:00<?, ?it/s]Train: 3.821, Val: 3.860:   1%|          | 1/100 [00:09<15:46,  9.56s/it]Train: 3.818, Val: 3.910:   2%|▏         | 2/100 [00:16<13:10,  8.07s/it]Train: 3.814, Val: 3.854:   3%|▎         | 3/100 [00:23<12:27,  7.71s/it]Train: 3.826, Val: 3.880:   4%|▍         | 4/100 [00:31<12:20,  7.72s/it]Train: 3.803, Val: 3.867:   5%|▌         | 5/100 [00:38<11:51,  7.49s/it]Train: 3.804, Val: 3.847:   6%|▌         | 6/100 [00:45<11:36,  7.41s/it]Train: 3.813, Val: 3.871:   7%|▋         | 7/100 [00:54<11:54,  7.68s/it]Train: 3.810, Val: 3.934:   8%|▊         | 8/100 [01:03<12:27,  8.13s/it]Train: 3.798, Val: 3.853:   9%|▉         | 9/100 [01:10<12:00,  7.91s/it]Train: 3.804, Val: 3.877:  10%|█         | 10/100 [01:18<11:59,  8.00s/it]Train: 3.816, Val: 3.903:  11%|█         | 11/100 [01:27<12:05,  8.15s/it]Train: 3.808, Val: 3.831:  12%|█▏        | 12/100 [01:35<11:49,  8.06s/it]Train: 3.811, Val: 3.867:  13%|█▎        | 13/100 [01:42<11:14,  7.75s/it]Epoch   414: reducing learning rate of group 0 to 1.0000e-04.
Train: 3.814, Val: 3.865:  14%|█▍        | 14/100 [01:51<11:38,  8.13s/it]Train: 3.757, Val: 3.838:  15%|█▌        | 15/100 [01:59<11:31,  8.14s/it]Train: 3.763, Val: 3.841:  16%|█▌        | 16/100 [02:06<10:58,  7.84s/it]Train: 3.758, Val: 3.804:  17%|█▋        | 17/100 [02:13<10:33,  7.63s/it]Train: 3.761, Val: 3.832:  18%|█▊        | 18/100 [02:21<10:16,  7.52s/it]Train: 3.751, Val: 3.809:  19%|█▉        | 19/100 [02:28<10:00,  7.42s/it]Train: 3.754, Val: 3.809:  20%|██        | 20/100 [02:36<10:12,  7.65s/it]Train: 3.763, Val: 3.815:  21%|██        | 21/100 [02:43<09:55,  7.53s/it]Train: 3.755, Val: 3.835:  22%|██▏       | 22/100 [02:50<09:36,  7.39s/it]Train: 3.748, Val: 3.801:  23%|██▎       | 23/100 [02:58<09:33,  7.44s/it]Train: 3.762, Val: 3.845:  24%|██▍       | 24/100 [03:06<09:37,  7.60s/it]Train: 3.752, Val: 3.815:  25%|██▌       | 25/100 [03:14<09:46,  7.82s/it]Train: 3.766, Val: 3.829:  26%|██▌       | 26/100 [03:21<09:25,  7.64s/it]Train: 3.760, Val: 3.843:  27%|██▋       | 27/100 [03:29<09:28,  7.78s/it]Train: 3.744, Val: 3.822:  28%|██▊       | 28/100 [03:37<09:23,  7.82s/it]Train: 3.755, Val: 3.821:  29%|██▉       | 29/100 [03:45<09:14,  7.82s/it]Train: 3.753, Val: 3.839:  30%|███       | 30/100 [03:53<09:09,  7.84s/it]Train: 3.748, Val: 3.817:  31%|███       | 31/100 [04:01<09:07,  7.94s/it]Train: 3.766, Val: 3.864:  32%|███▏      | 32/100 [04:09<09:04,  8.01s/it]Train: 3.754, Val: 3.813:  33%|███▎      | 33/100 [04:18<09:06,  8.16s/it]Train: 3.747, Val: 3.883:  34%|███▍      | 34/100 [04:25<08:41,  7.91s/it]Train: 3.754, Val: 3.828:  35%|███▌      | 35/100 [04:34<08:46,  8.09s/it]Train: 3.757, Val: 3.822:  36%|███▌      | 36/100 [04:41<08:24,  7.88s/it]Train: 3.755, Val: 3.842:  37%|███▋      | 37/100 [04:50<08:36,  8.21s/it]Train: 3.750, Val: 3.824:  38%|███▊      | 38/100 [04:59<08:44,  8.46s/it]Train: 3.755, Val: 3.867:  39%|███▉      | 39/100 [05:08<08:45,  8.61s/it]Train: 3.756, Val: 3.833:  40%|████      | 40/100 [05:18<08:53,  8.89s/it]Train: 3.755, Val: 3.861:  41%|████      | 41/100 [05:27<08:53,  9.05s/it]Train: 3.747, Val: 3.831:  42%|████▏     | 42/100 [05:36<08:49,  9.13s/it]Train: 3.753, Val: 3.815:  43%|████▎     | 43/100 [05:44<08:14,  8.68s/it]Train: 3.757, Val: 3.834:  44%|████▍     | 44/100 [05:51<07:46,  8.33s/it]Train: 3.748, Val: 3.855:  45%|████▌     | 45/100 [06:00<07:46,  8.48s/it]Train: 3.762, Val: 3.839:  46%|████▌     | 46/100 [06:09<07:48,  8.68s/it]Train: 3.745, Val: 3.816:  47%|████▋     | 47/100 [06:18<07:42,  8.72s/it]Train: 3.746, Val: 3.810:  48%|████▊     | 48/100 [06:28<07:44,  8.93s/it]Epoch   449: reducing learning rate of group 0 to 1.0000e-05.
Train: 3.752, Val: 3.828:  49%|████▉     | 49/100 [06:36<07:32,  8.88s/it]Train: 3.755, Val: 3.840:  50%|█████     | 50/100 [06:44<07:03,  8.47s/it]Train: 3.744, Val: 3.793:  51%|█████     | 51/100 [06:51<06:36,  8.09s/it]Train: 3.737, Val: 3.845:  52%|█████▏    | 52/100 [06:59<06:23,  8.00s/it]Train: 3.753, Val: 3.827:  53%|█████▎    | 53/100 [07:07<06:09,  7.87s/it]Train: 3.751, Val: 3.831:  54%|█████▍    | 54/100 [07:16<06:18,  8.23s/it]Train: 3.742, Val: 3.811:  55%|█████▌    | 55/100 [07:24<06:14,  8.32s/it]Train: 3.740, Val: 3.813:  56%|█████▌    | 56/100 [07:33<06:13,  8.48s/it]Train: 3.765, Val: 3.812:  57%|█████▋    | 57/100 [07:42<06:06,  8.52s/it]Train: 3.743, Val: 3.821:  58%|█████▊    | 58/100 [07:50<05:59,  8.56s/it]Train: 3.746, Val: 3.841:  59%|█████▉    | 59/100 [07:58<05:38,  8.25s/it]Train: 3.746, Val: 3.829:  60%|██████    | 60/100 [08:05<05:20,  8.01s/it]Train: 3.753, Val: 3.804:  61%|██████    | 61/100 [08:12<05:01,  7.73s/it]Train: 3.747, Val: 3.825:  62%|██████▏   | 62/100 [08:20<04:49,  7.62s/it]Train: 3.754, Val: 3.810:  63%|██████▎   | 63/100 [08:27<04:41,  7.62s/it]Train: 3.753, Val: 3.846:  64%|██████▍   | 64/100 [08:35<04:32,  7.56s/it]Train: 3.756, Val: 3.805:  65%|██████▌   | 65/100 [08:42<04:18,  7.39s/it]Train: 3.752, Val: 3.809:  66%|██████▌   | 66/100 [08:49<04:06,  7.25s/it]Train: 3.747, Val: 3.821:  67%|██████▋   | 67/100 [08:56<03:56,  7.18s/it]Train: 3.775, Val: 3.816:  68%|██████▊   | 68/100 [09:03<03:49,  7.17s/it]Train: 3.757, Val: 3.815:  69%|██████▉   | 69/100 [09:10<03:41,  7.13s/it]Train: 3.753, Val: 3.830:  70%|███████   | 70/100 [09:17<03:33,  7.13s/it]Train: 3.742, Val: 3.825:  71%|███████   | 71/100 [09:24<03:26,  7.11s/it]Train: 3.738, Val: 3.808:  72%|███████▏  | 72/100 [09:31<03:19,  7.12s/it]Epoch   473: reducing learning rate of group 0 to 1.0000e-06.
Train: 3.746, Val: 3.823:  73%|███████▎  | 73/100 [09:38<03:10,  7.06s/it]Train: 3.746, Val: 3.823:  74%|███████▍  | 74/100 [09:45<03:05,  7.15s/it]Train: 3.745, Val: 3.811:  75%|███████▌  | 75/100 [09:54<03:08,  7.54s/it]Train: 3.749, Val: 3.846:  76%|███████▌  | 76/100 [10:02<03:04,  7.68s/it]Train: 3.737, Val: 3.823:  77%|███████▋  | 77/100 [10:10<03:00,  7.85s/it]Train: 3.747, Val: 3.819:  78%|███████▊  | 78/100 [10:17<02:49,  7.69s/it]Train: 3.750, Val: 3.827:  79%|███████▉  | 79/100 [10:25<02:42,  7.76s/it]Train: 3.746, Val: 3.871:  80%|████████  | 80/100 [10:33<02:32,  7.61s/it]Train: 3.745, Val: 3.839:  81%|████████  | 81/100 [10:41<02:27,  7.77s/it]Train: 3.733, Val: 3.840:  82%|████████▏ | 82/100 [10:50<02:25,  8.06s/it]Train: 3.746, Val: 3.796:  83%|████████▎ | 83/100 [10:57<02:15,  7.97s/it]Train: 3.754, Val: 3.832:  84%|████████▍ | 84/100 [11:05<02:06,  7.88s/it]Train: 3.751, Val: 3.804:  85%|████████▌ | 85/100 [11:14<02:01,  8.13s/it]Train: 3.741, Val: 3.834:  86%|████████▌ | 86/100 [11:22<01:55,  8.26s/it]Train: 3.754, Val: 3.823:  87%|████████▋ | 87/100 [11:30<01:44,  8.06s/it]Train: 3.743, Val: 3.820:  88%|████████▊ | 88/100 [11:37<01:34,  7.90s/it]Train: 3.744, Val: 3.864:  89%|████████▉ | 89/100 [11:45<01:26,  7.84s/it]Train: 3.745, Val: 3.824:  90%|█████████ | 90/100 [11:53<01:17,  7.77s/it]Train: 3.741, Val: 3.812:  91%|█████████ | 91/100 [12:01<01:12,  8.02s/it]Train: 3.740, Val: 3.827:  92%|█████████▏| 92/100 [12:10<01:04,  8.09s/it]Train: 3.740, Val: 3.864:  93%|█████████▎| 93/100 [12:17<00:56,  8.04s/it]Train: 3.752, Val: 3.827:  94%|█████████▍| 94/100 [12:26<00:49,  8.29s/it]Train: 3.753, Val: 3.808:  95%|█████████▌| 95/100 [12:35<00:42,  8.45s/it]Train: 3.747, Val: 3.835:  96%|█████████▌| 96/100 [12:43<00:33,  8.38s/it]Train: 3.739, Val: 3.808:  97%|█████████▋| 97/100 [12:52<00:25,  8.36s/it]Train: 3.751, Val: 3.831:  98%|█████████▊| 98/100 [13:00<00:16,  8.27s/it]Train: 3.753, Val: 3.814:  99%|█████████▉| 99/100 [13:07<00:07,  7.99s/it]Train: 3.748, Val: 3.819: 100%|██████████| 100/100 [13:15<00:00,  7.84s/it]Train: 3.748, Val: 3.819: 100%|██████████| 100/100 [13:15<00:00,  7.95s/it]
INFO - residual_nf - Completed after 0:13:16
