{
  "test": {
    "steps": [
      0
    ],
    "timestamps": [
      "2022-08-09T15:36:59.662627"
    ],
    "values": [
      11.628146995142059
    ]
  },
  "train": {
    "steps": [
      0,
      1,
      2,
      3,
      4,
      5,
      6,
      7,
      8,
      9,
      10,
      11,
      12,
      13,
      14,
      15,
      16,
      17,
      18,
      19,
      20,
      21,
      22,
      23,
      24,
      25,
      26,
      27,
      28,
      29,
      30,
      31,
      32,
      33,
      34,
      35,
      36,
      37,
      38,
      39,
      40,
      41,
      42,
      43,
      44,
      45,
      46,
      47,
      48,
      49,
      50,
      51,
      52,
      53,
      54,
      55,
      56,
      57,
      58,
      59,
      60,
      61,
      62,
      63,
      64,
      65,
      66,
      67,
      68,
      69,
      70,
      71,
      72,
      73,
      74,
      75,
      76,
      77,
      78,
      79,
      80,
      81,
      82,
      83,
      84,
      85,
      86,
      87,
      88,
      89,
      90,
      91,
      92,
      93,
      94,
      95,
      96,
      97,
      98,
      99,
      100,
      101,
      102,
      103,
      104,
      105,
      106,
      107,
      108,
      109,
      110,
      111,
      112,
      113,
      114,
      115,
      116,
      117,
      118,
      119,
      120,
      121,
      122,
      123,
      124,
      125,
      126,
      127,
      128,
      129,
      130,
      131,
      132,
      133,
      134,
      135,
      136,
      137,
      138,
      139,
      140,
      141,
      142,
      143,
      144,
      145,
      146,
      147,
      148,
      149,
      150,
      151,
      152,
      153,
      154,
      155,
      156,
      157,
      158,
      159,
      160,
      161,
      162,
      163,
      164,
      165,
      166,
      167,
      168,
      169,
      170,
      171,
      172,
      173,
      174,
      175,
      176,
      177,
      178,
      179,
      180,
      181,
      182,
      183,
      184,
      185,
      186,
      187,
      188,
      189,
      190,
      191,
      192,
      193,
      194,
      195,
      196,
      197,
      198,
      199,
      200,
      201,
      202,
      203,
      204,
      205,
      206,
      207,
      208,
      209,
      210,
      211,
      212,
      213,
      214,
      215,
      216,
      217,
      218,
      219,
      220,
      221,
      222,
      223,
      224,
      225,
      226,
      227,
      228,
      229,
      230,
      231,
      232,
      233,
      234,
      235,
      236,
      237,
      238,
      239,
      240,
      241,
      242,
      243,
      244,
      245,
      246,
      247,
      248,
      249,
      250,
      251,
      252,
      253,
      254,
      255,
      256,
      257,
      258,
      259,
      260,
      261,
      262,
      263,
      264,
      265,
      266,
      267,
      268,
      269,
      270,
      271,
      272,
      273,
      274,
      275,
      276,
      277,
      278,
      279,
      280,
      281,
      282,
      283,
      284,
      285,
      286,
      287,
      288,
      289,
      290,
      291,
      292,
      293,
      294,
      295,
      296,
      297,
      298,
      299
    ],
    "timestamps": [
      "2022-08-09T15:28:22.362933",
      "2022-08-09T15:28:24.799684",
      "2022-08-09T15:28:26.907204",
      "2022-08-09T15:28:28.430443",
      "2022-08-09T15:28:30.111896",
      "2022-08-09T15:28:32.109775",
      "2022-08-09T15:28:33.745987",
      "2022-08-09T15:28:35.314999",
      "2022-08-09T15:28:36.951280",
      "2022-08-09T15:28:39.007590",
      "2022-08-09T15:28:40.730558",
      "2022-08-09T15:28:42.452761",
      "2022-08-09T15:28:44.275318",
      "2022-08-09T15:28:45.794817",
      "2022-08-09T15:28:47.471065",
      "2022-08-09T15:28:49.587143",
      "2022-08-09T15:28:51.280287",
      "2022-08-09T15:28:52.890055",
      "2022-08-09T15:28:54.653790",
      "2022-08-09T15:28:56.228530",
      "2022-08-09T15:28:58.224546",
      "2022-08-09T15:29:00.440879",
      "2022-08-09T15:29:02.006280",
      "2022-08-09T15:29:03.640708",
      "2022-08-09T15:29:05.221534",
      "2022-08-09T15:29:07.127549",
      "2022-08-09T15:29:09.241751",
      "2022-08-09T15:29:11.004795",
      "2022-08-09T15:29:12.566375",
      "2022-08-09T15:29:14.131949",
      "2022-08-09T15:29:15.670210",
      "2022-08-09T15:29:17.303345",
      "2022-08-09T15:29:18.997166",
      "2022-08-09T15:29:20.599185",
      "2022-08-09T15:29:22.563403",
      "2022-08-09T15:29:24.091008",
      "2022-08-09T15:29:25.618771",
      "2022-08-09T15:29:27.292284",
      "2022-08-09T15:29:28.955171",
      "2022-08-09T15:29:30.609205",
      "2022-08-09T15:29:32.210922",
      "2022-08-09T15:29:33.839588",
      "2022-08-09T15:29:35.541411",
      "2022-08-09T15:29:37.478415",
      "2022-08-09T15:29:39.437806",
      "2022-08-09T15:29:41.035625",
      "2022-08-09T15:29:42.590586",
      "2022-08-09T15:29:44.116138",
      "2022-08-09T15:29:46.020134",
      "2022-08-09T15:29:47.783094",
      "2022-08-09T15:29:49.527722",
      "2022-08-09T15:29:51.066891",
      "2022-08-09T15:29:52.622659",
      "2022-08-09T15:29:54.167832",
      "2022-08-09T15:29:55.694500",
      "2022-08-09T15:29:57.327686",
      "2022-08-09T15:29:59.342770",
      "2022-08-09T15:30:01.023019",
      "2022-08-09T15:30:02.722416",
      "2022-08-09T15:30:04.474480",
      "2022-08-09T15:30:06.004555",
      "2022-08-09T15:30:07.688795",
      "2022-08-09T15:30:09.960026",
      "2022-08-09T15:30:12.117757",
      "2022-08-09T15:30:14.342072",
      "2022-08-09T15:30:16.226538",
      "2022-08-09T15:30:18.306031",
      "2022-08-09T15:30:20.149378",
      "2022-08-09T15:30:21.679550",
      "2022-08-09T15:30:23.217368",
      "2022-08-09T15:30:24.773716",
      "2022-08-09T15:30:26.413800",
      "2022-08-09T15:30:28.065598",
      "2022-08-09T15:30:29.809666",
      "2022-08-09T15:30:31.595949",
      "2022-08-09T15:30:33.162996",
      "2022-08-09T15:30:34.985735",
      "2022-08-09T15:30:36.514074",
      "2022-08-09T15:30:38.298720",
      "2022-08-09T15:30:39.960348",
      "2022-08-09T15:30:41.534547",
      "2022-08-09T15:30:43.073477",
      "2022-08-09T15:30:44.616369",
      "2022-08-09T15:30:46.151047",
      "2022-08-09T15:30:47.769321",
      "2022-08-09T15:30:49.455723",
      "2022-08-09T15:30:51.168276",
      "2022-08-09T15:30:53.372961",
      "2022-08-09T15:30:54.945936",
      "2022-08-09T15:30:56.493669",
      "2022-08-09T15:30:58.209903",
      "2022-08-09T15:30:59.879259",
      "2022-08-09T15:31:01.433484",
      "2022-08-09T15:31:02.979027",
      "2022-08-09T15:31:04.528212",
      "2022-08-09T15:31:06.078868",
      "2022-08-09T15:31:07.715464",
      "2022-08-09T15:31:09.501848",
      "2022-08-09T15:31:11.103867",
      "2022-08-09T15:31:12.648354",
      "2022-08-09T15:31:14.212594",
      "2022-08-09T15:31:15.903763",
      "2022-08-09T15:31:17.741142",
      "2022-08-09T15:31:19.463527",
      "2022-08-09T15:31:21.251394",
      "2022-08-09T15:31:22.839193",
      "2022-08-09T15:31:24.380638",
      "2022-08-09T15:31:25.908645",
      "2022-08-09T15:31:27.791802",
      "2022-08-09T15:31:29.578211",
      "2022-08-09T15:31:31.138326",
      "2022-08-09T15:31:32.667321",
      "2022-08-09T15:31:34.478410",
      "2022-08-09T15:31:36.002757",
      "2022-08-09T15:31:37.618521",
      "2022-08-09T15:31:39.293099",
      "2022-08-09T15:31:40.948354",
      "2022-08-09T15:31:42.632816",
      "2022-08-09T15:31:44.175289",
      "2022-08-09T15:31:45.698879",
      "2022-08-09T15:31:47.562680",
      "2022-08-09T15:31:49.546002",
      "2022-08-09T15:31:51.080256",
      "2022-08-09T15:31:52.616308",
      "2022-08-09T15:31:54.351499",
      "2022-08-09T15:31:56.020042",
      "2022-08-09T15:31:57.663650",
      "2022-08-09T15:31:59.332522",
      "2022-08-09T15:32:01.001551",
      "2022-08-09T15:32:02.633415",
      "2022-08-09T15:32:04.223989",
      "2022-08-09T15:32:05.749031",
      "2022-08-09T15:32:07.649121",
      "2022-08-09T15:32:09.430385",
      "2022-08-09T15:32:10.959118",
      "2022-08-09T15:32:12.486690",
      "2022-08-09T15:32:14.013069",
      "2022-08-09T15:32:15.545453",
      "2022-08-09T15:32:17.368476",
      "2022-08-09T15:32:19.118078",
      "2022-08-09T15:32:20.827981",
      "2022-08-09T15:32:22.631608",
      "2022-08-09T15:32:24.467520",
      "2022-08-09T15:32:26.331773",
      "2022-08-09T15:32:27.953479",
      "2022-08-09T15:32:29.485976",
      "2022-08-09T15:32:31.198683",
      "2022-08-09T15:32:32.901366",
      "2022-08-09T15:32:34.495390",
      "2022-08-09T15:32:36.025867",
      "2022-08-09T15:32:37.684078",
      "2022-08-09T15:32:39.378355",
      "2022-08-09T15:32:40.920955",
      "2022-08-09T15:32:42.557638",
      "2022-08-09T15:32:44.278763",
      "2022-08-09T15:32:45.995134",
      "2022-08-09T15:32:47.755051",
      "2022-08-09T15:32:49.520217",
      "2022-08-09T15:32:51.366507",
      "2022-08-09T15:32:53.607061",
      "2022-08-09T15:32:55.511756",
      "2022-08-09T15:32:57.268275",
      "2022-08-09T15:32:58.935766",
      "2022-08-09T15:33:00.751761",
      "2022-08-09T15:33:02.755154",
      "2022-08-09T15:33:04.312494",
      "2022-08-09T15:33:05.862438",
      "2022-08-09T15:33:07.514269",
      "2022-08-09T15:33:09.292473",
      "2022-08-09T15:33:10.881542",
      "2022-08-09T15:33:12.646054",
      "2022-08-09T15:33:14.623686",
      "2022-08-09T15:33:16.362366",
      "2022-08-09T15:33:18.104514",
      "2022-08-09T15:33:19.846043",
      "2022-08-09T15:33:21.441474",
      "2022-08-09T15:33:23.126263",
      "2022-08-09T15:33:24.652200",
      "2022-08-09T15:33:26.193320",
      "2022-08-09T15:33:28.059511",
      "2022-08-09T15:33:30.095365",
      "2022-08-09T15:33:31.859778",
      "2022-08-09T15:33:33.409872",
      "2022-08-09T15:33:35.194703",
      "2022-08-09T15:33:36.792178",
      "2022-08-09T15:33:39.194316",
      "2022-08-09T15:33:41.031634",
      "2022-08-09T15:33:42.878094",
      "2022-08-09T15:33:44.403432",
      "2022-08-09T15:33:46.122615",
      "2022-08-09T15:33:47.856808",
      "2022-08-09T15:33:49.553178",
      "2022-08-09T15:33:51.309195",
      "2022-08-09T15:33:53.312824",
      "2022-08-09T15:33:55.507382",
      "2022-08-09T15:33:57.129565",
      "2022-08-09T15:33:58.993627",
      "2022-08-09T15:34:00.562550",
      "2022-08-09T15:34:02.271649",
      "2022-08-09T15:34:03.839243",
      "2022-08-09T15:34:05.401786",
      "2022-08-09T15:34:07.072045",
      "2022-08-09T15:34:08.881474",
      "2022-08-09T15:34:10.548710",
      "2022-08-09T15:34:12.734353",
      "2022-08-09T15:34:14.457581",
      "2022-08-09T15:34:15.994121",
      "2022-08-09T15:34:17.712957",
      "2022-08-09T15:34:20.043738",
      "2022-08-09T15:34:21.825387",
      "2022-08-09T15:34:23.561297",
      "2022-08-09T15:34:25.291856",
      "2022-08-09T15:34:27.068583",
      "2022-08-09T15:34:28.928103",
      "2022-08-09T15:34:30.790317",
      "2022-08-09T15:34:32.414899",
      "2022-08-09T15:34:33.977920",
      "2022-08-09T15:34:35.662341",
      "2022-08-09T15:34:37.340231",
      "2022-08-09T15:34:38.965278",
      "2022-08-09T15:34:40.643630",
      "2022-08-09T15:34:42.170343",
      "2022-08-09T15:34:43.772707",
      "2022-08-09T15:34:45.291508",
      "2022-08-09T15:34:46.857006",
      "2022-08-09T15:34:49.274527",
      "2022-08-09T15:34:51.194714",
      "2022-08-09T15:34:52.797887",
      "2022-08-09T15:34:54.495937",
      "2022-08-09T15:34:56.182525",
      "2022-08-09T15:34:58.061614",
      "2022-08-09T15:35:00.061080",
      "2022-08-09T15:35:01.620755",
      "2022-08-09T15:35:03.287713",
      "2022-08-09T15:35:05.025487",
      "2022-08-09T15:35:06.611760",
      "2022-08-09T15:35:08.295142",
      "2022-08-09T15:35:09.994767",
      "2022-08-09T15:35:11.765312",
      "2022-08-09T15:35:13.315538",
      "2022-08-09T15:35:14.880727",
      "2022-08-09T15:35:16.436894",
      "2022-08-09T15:35:18.084764",
      "2022-08-09T15:35:19.917384",
      "2022-08-09T15:35:21.467538",
      "2022-08-09T15:35:23.182347",
      "2022-08-09T15:35:24.746619",
      "2022-08-09T15:35:26.294805",
      "2022-08-09T15:35:27.960538",
      "2022-08-09T15:35:29.691499",
      "2022-08-09T15:35:31.387463",
      "2022-08-09T15:35:32.939934",
      "2022-08-09T15:35:34.497901",
      "2022-08-09T15:35:36.051504",
      "2022-08-09T15:35:37.907458",
      "2022-08-09T15:35:39.784768",
      "2022-08-09T15:35:41.365467",
      "2022-08-09T15:35:42.914590",
      "2022-08-09T15:35:45.097290",
      "2022-08-09T15:35:47.298436",
      "2022-08-09T15:35:49.417226",
      "2022-08-09T15:35:51.177577",
      "2022-08-09T15:35:52.734267",
      "2022-08-09T15:35:54.289467",
      "2022-08-09T15:35:55.848553",
      "2022-08-09T15:35:57.495359",
      "2022-08-09T15:35:59.145632",
      "2022-08-09T15:36:01.267546",
      "2022-08-09T15:36:02.898545",
      "2022-08-09T15:36:04.628870",
      "2022-08-09T15:36:06.210125",
      "2022-08-09T15:36:07.867025",
      "2022-08-09T15:36:09.682635",
      "2022-08-09T15:36:11.241522",
      "2022-08-09T15:36:12.908309",
      "2022-08-09T15:36:14.481186",
      "2022-08-09T15:36:16.027444",
      "2022-08-09T15:36:17.747409",
      "2022-08-09T15:36:19.466949",
      "2022-08-09T15:36:21.337612",
      "2022-08-09T15:36:23.018913",
      "2022-08-09T15:36:24.548064",
      "2022-08-09T15:36:26.505254",
      "2022-08-09T15:36:28.523632",
      "2022-08-09T15:36:30.491251",
      "2022-08-09T15:36:32.600706",
      "2022-08-09T15:36:34.788365",
      "2022-08-09T15:36:36.374052",
      "2022-08-09T15:36:38.566466",
      "2022-08-09T15:36:40.723174",
      "2022-08-09T15:36:42.299123",
      "2022-08-09T15:36:43.829951",
      "2022-08-09T15:36:45.358965",
      "2022-08-09T15:36:46.962472",
      "2022-08-09T15:36:49.381367",
      "2022-08-09T15:36:51.282823",
      "2022-08-09T15:36:53.402644",
      "2022-08-09T15:36:55.616323",
      "2022-08-09T15:36:57.651715",
      "2022-08-09T15:36:59.497753"
    ],
    "values": [
      12.648936521863503,
      12.031145830560831,
      11.734065636825791,
      11.518136789886919,
      11.427141095470038,
      11.352975890481492,
      11.304469277662388,
      11.269725571937547,
      11.259883746927317,
      11.234727872245312,
      11.213220653241793,
      11.215274109835248,
      11.195114868687277,
      11.174070449019892,
      11.181228304018507,
      11.17570546136647,
      11.160885460356367,
      11.152209411153635,
      11.15369303570354,
      11.181571610680837,
      11.152066658978192,
      11.135238330936877,
      11.118769571315356,
      11.11229146761837,
      11.115967593069636,
      11.127208657189806,
      11.099649731087336,
      11.101641183356817,
      11.118373146697984,
      11.111887629133541,
      11.092893268004481,
      11.095011468939067,
      11.08679088264178,
      11.09801161979839,
      11.084695129554516,
      11.118620528864392,
      11.082386543338291,
      11.083164317755307,
      11.060747146442488,
      11.062073103779168,
      11.064690925952291,
      11.064361383967812,
      11.086669025991,
      11.08471357836779,
      11.108069102701187,
      11.053005837537425,
      11.06550538384552,
      11.054514499915848,
      11.06368368917162,
      11.0519796425978,
      11.056841014554994,
      11.066806839993143,
      11.058433528985459,
      11.066072477792023,
      11.064466905192928,
      11.030731370014651,
      11.051184272872758,
      11.035690953979204,
      11.03569345641918,
      11.050621022594408,
      11.042067510593872,
      11.045620361634773,
      11.033846072374422,
      11.037687758081807,
      11.02323785985724,
      11.040911327653953,
      11.020002063473768,
      11.021547034186119,
      11.029733784170226,
      11.048969640240273,
      11.015292177117992,
      11.029593145213948,
      11.027623110206573,
      11.016885255453728,
      11.004466920812238,
      11.029714929160548,
      11.045779432332857,
      11.0589272364287,
      11.045998788923772,
      11.02950402593676,
      11.016053281015974,
      11.021205320602055,
      11.000649718596346,
      11.016365552461675,
      11.010724543681043,
      11.000332259710092,
      11.014940800023998,
      11.016495270715316,
      11.012968903990975,
      11.019292774566287,
      11.0068424650884,
      10.996126852318875,
      11.005163965781385,
      11.007063038266205,
      11.042233072751817,
      11.026048104123594,
      11.009272221343844,
      11.002440533510935,
      11.005687911994219,
      10.991916817915424,
      10.999217708668805,
      11.004177633179513,
      11.00340709072772,
      11.006249861384628,
      10.999655485948288,
      11.015202148233286,
      10.994609208063055,
      11.00906588319831,
      11.020494251994922,
      10.991767520490336,
      10.996581375129672,
      10.999033453168828,
      11.00364536604076,
      10.996432698663755,
      10.992458171083982,
      10.99468627662365,
      11.000002835014797,
      11.003297677620887,
      10.987153534815517,
      11.005412916029451,
      10.998209837234945,
      10.988231698659222,
      10.99057140143734,
      10.985972515493115,
      11.020939936494845,
      10.989674342134144,
      10.995053221316173,
      10.989288551559946,
      10.993047262270963,
      10.988096180197953,
      10.989147444344235,
      10.999205087241933,
      10.985899148668548,
      10.997571957377742,
      11.001712682114043,
      10.993536026817974,
      10.994573931552239,
      10.98300909803689,
      10.990284180215927,
      10.985163413456144,
      11.001875003825269,
      10.99906183353411,
      10.993852312396534,
      10.988865946373817,
      10.98350122690181,
      10.98969288559556,
      10.986461614748018,
      10.982471658795035,
      10.978671639426707,
      10.979645100115558,
      10.988798306441918,
      10.984178618536534,
      10.976117713988122,
      10.975017939738104,
      10.97977470550901,
      10.97243601482408,
      10.973067876502263,
      10.983879814931715,
      10.993033075866864,
      10.995711861415087,
      10.968946779256882,
      10.993000170933481,
      10.971499409664714,
      10.980494036932345,
      10.989631282872278,
      10.97521713515058,
      11.00087347781548,
      10.971038135349033,
      10.970360983869993,
      10.982222303784999,
      10.993280156945195,
      10.998370531085031,
      10.980014655281575,
      10.974861011458948,
      10.96915713882158,
      10.971590179077955,
      10.991559837793295,
      10.980507010986457,
      10.98148354810346,
      10.971835459027819,
      10.967694230793928,
      10.976950334896882,
      10.971847150367493,
      10.968341361582498,
      10.965694499583403,
      10.966046895784848,
      10.996836983292205,
      10.979210143356923,
      10.9770625282163,
      10.981788817897733,
      10.970223016846626,
      10.961973275189637,
      10.964763555078173,
      10.958634008351439,
      10.963684189935474,
      10.97308001139845,
      10.98019423953993,
      10.984740471443398,
      10.972970048472227,
      10.97644401617268,
      10.96395144453244,
      10.9691995691484,
      10.956532482730996,
      10.969382079464529,
      10.985305631538035,
      10.98539754147949,
      10.966444420610804,
      10.971266584877553,
      10.955213596729893,
      10.965392674989102,
      10.959304917743841,
      10.966904214638516,
      10.961612270540178,
      10.98586666384668,
      10.967406864486934,
      10.9807888998859,
      10.973454321057561,
      10.971986831324394,
      10.97383107855748,
      10.987516250393382,
      10.966211701383543,
      10.962045277144268,
      10.961565402162323,
      10.961038966276652,
      10.957322448496539,
      10.974263248898744,
      10.98316591410212,
      10.95967243229911,
      10.973066049556342,
      10.967121583268483,
      10.90760328955055,
      10.89757439884817,
      10.894661604607407,
      10.894985922366304,
      10.8945225974368,
      10.892984159186943,
      10.893890143572499,
      10.894228282828594,
      10.895928256230984,
      10.893241593513142,
      10.892880086686665,
      10.892467220933245,
      10.892573880437986,
      10.894989124501139,
      10.893272051121413,
      10.895453512860245,
      10.89217158385318,
      10.893600510605033,
      10.893755275665644,
      10.894746532922696,
      10.892557196930786,
      10.892061098773436,
      10.89414353732692,
      10.894633392154027,
      10.892695517199957,
      10.894404812318303,
      10.893263966429494,
      10.884997824341491,
      10.884329233016688,
      10.884482851595344,
      10.88461860482113,
      10.884397063506528,
      10.88440609599749,
      10.884399791096833,
      10.884345566361342,
      10.884008023788299,
      10.88427765110571,
      10.883937669301652,
      10.884190637184451,
      10.883959086188616,
      10.8840734623917,
      10.884103914799534,
      10.883962061549623,
      10.883976408958556,
      10.883811318584083,
      10.883898290562652,
      10.883908976090167,
      10.88394537617322,
      10.883866303088315,
      10.884004106620782,
      10.883891175880654,
      10.883902521884337,
      10.883915588449,
      10.883929767417596,
      10.883938464197236,
      10.884044663487131,
      10.883838489665914,
      10.884105272727755,
      10.883931505372248,
      10.884045491464006,
      10.884184942191157,
      10.883970075672545,
      10.884015849007385,
      10.884084062044263,
      10.883774697791846,
      10.88385573129441,
      10.88286641097705,
      10.88286461053965,
      10.88287227083687,
      10.882878183412759
    ]
  },
  "val": {
    "steps": [
      0,
      1,
      2,
      3,
      4,
      5,
      6,
      7,
      8,
      9,
      10,
      11,
      12,
      13,
      14,
      15,
      16,
      17,
      18,
      19,
      20,
      21,
      22,
      23,
      24,
      25,
      26,
      27,
      28,
      29,
      30,
      31,
      32,
      33,
      34,
      35,
      36,
      37,
      38,
      39,
      40,
      41,
      42,
      43,
      44,
      45,
      46,
      47,
      48,
      49,
      50,
      51,
      52,
      53,
      54,
      55,
      56,
      57,
      58,
      59,
      60,
      61,
      62,
      63,
      64,
      65,
      66,
      67,
      68,
      69,
      70,
      71,
      72,
      73,
      74,
      75,
      76,
      77,
      78,
      79,
      80,
      81,
      82,
      83,
      84,
      85,
      86,
      87,
      88,
      89,
      90,
      91,
      92,
      93,
      94,
      95,
      96,
      97,
      98,
      99,
      100,
      101,
      102,
      103,
      104,
      105,
      106,
      107,
      108,
      109,
      110,
      111,
      112,
      113,
      114,
      115,
      116,
      117,
      118,
      119,
      120,
      121,
      122,
      123,
      124,
      125,
      126,
      127,
      128,
      129,
      130,
      131,
      132,
      133,
      134,
      135,
      136,
      137,
      138,
      139,
      140,
      141,
      142,
      143,
      144,
      145,
      146,
      147,
      148,
      149,
      150,
      151,
      152,
      153,
      154,
      155,
      156,
      157,
      158,
      159,
      160,
      161,
      162,
      163,
      164,
      165,
      166,
      167,
      168,
      169,
      170,
      171,
      172,
      173,
      174,
      175,
      176,
      177,
      178,
      179,
      180,
      181,
      182,
      183,
      184,
      185,
      186,
      187,
      188,
      189,
      190,
      191,
      192,
      193,
      194,
      195,
      196,
      197,
      198,
      199,
      200,
      201,
      202,
      203,
      204,
      205,
      206,
      207,
      208,
      209,
      210,
      211,
      212,
      213,
      214,
      215,
      216,
      217,
      218,
      219,
      220,
      221,
      222,
      223,
      224,
      225,
      226,
      227,
      228,
      229,
      230,
      231,
      232,
      233,
      234,
      235,
      236,
      237,
      238,
      239,
      240,
      241,
      242,
      243,
      244,
      245,
      246,
      247,
      248,
      249,
      250,
      251,
      252,
      253,
      254,
      255,
      256,
      257,
      258,
      259,
      260,
      261,
      262,
      263,
      264,
      265,
      266,
      267,
      268,
      269,
      270,
      271,
      272,
      273,
      274,
      275,
      276,
      277,
      278,
      279,
      280,
      281,
      282,
      283,
      284,
      285,
      286,
      287,
      288,
      289,
      290,
      291,
      292,
      293,
      294,
      295,
      296,
      297,
      298,
      299
    ],
    "timestamps": [
      "2022-08-09T15:28:22.480058",
      "2022-08-09T15:28:24.944521",
      "2022-08-09T15:28:26.977124",
      "2022-08-09T15:28:28.502627",
      "2022-08-09T15:28:30.251578",
      "2022-08-09T15:28:32.200501",
      "2022-08-09T15:28:33.819967",
      "2022-08-09T15:28:35.386173",
      "2022-08-09T15:28:37.083851",
      "2022-08-09T15:28:39.085228",
      "2022-08-09T15:28:40.815902",
      "2022-08-09T15:28:42.526396",
      "2022-08-09T15:28:44.347172",
      "2022-08-09T15:28:45.866840",
      "2022-08-09T15:28:47.547086",
      "2022-08-09T15:28:49.660337",
      "2022-08-09T15:28:51.352364",
      "2022-08-09T15:28:53.013602",
      "2022-08-09T15:28:54.725832",
      "2022-08-09T15:28:56.300593",
      "2022-08-09T15:28:58.336842",
      "2022-08-09T15:29:00.549633",
      "2022-08-09T15:29:02.093320",
      "2022-08-09T15:29:03.724840",
      "2022-08-09T15:29:05.317958",
      "2022-08-09T15:29:07.203595",
      "2022-08-09T15:29:09.353694",
      "2022-08-09T15:29:11.079093",
      "2022-08-09T15:29:12.641216",
      "2022-08-09T15:29:14.204320",
      "2022-08-09T15:29:15.742622",
      "2022-08-09T15:29:17.382633",
      "2022-08-09T15:29:19.102963",
      "2022-08-09T15:29:20.670829",
      "2022-08-09T15:29:22.635730",
      "2022-08-09T15:29:24.164247",
      "2022-08-09T15:29:25.691028",
      "2022-08-09T15:29:27.381478",
      "2022-08-09T15:29:29.071869",
      "2022-08-09T15:29:30.682050",
      "2022-08-09T15:29:32.306796",
      "2022-08-09T15:29:33.912199",
      "2022-08-09T15:29:35.617996",
      "2022-08-09T15:29:37.598990",
      "2022-08-09T15:29:39.543262",
      "2022-08-09T15:29:41.107625",
      "2022-08-09T15:29:42.662533",
      "2022-08-09T15:29:44.210527",
      "2022-08-09T15:29:46.091919",
      "2022-08-09T15:29:47.874825",
      "2022-08-09T15:29:49.601725",
      "2022-08-09T15:29:51.140572",
      "2022-08-09T15:29:52.696231",
      "2022-08-09T15:29:54.241146",
      "2022-08-09T15:29:55.766721",
      "2022-08-09T15:29:57.406336",
      "2022-08-09T15:29:59.441545",
      "2022-08-09T15:30:01.094915",
      "2022-08-09T15:30:02.795640",
      "2022-08-09T15:30:04.545740",
      "2022-08-09T15:30:06.076454",
      "2022-08-09T15:30:07.786840",
      "2022-08-09T15:30:10.056989",
      "2022-08-09T15:30:12.241109",
      "2022-08-09T15:30:14.465049",
      "2022-08-09T15:30:16.298161",
      "2022-08-09T15:30:18.394424",
      "2022-08-09T15:30:20.222797",
      "2022-08-09T15:30:21.752589",
      "2022-08-09T15:30:23.289631",
      "2022-08-09T15:30:24.845852",
      "2022-08-09T15:30:26.485672",
      "2022-08-09T15:30:28.145338",
      "2022-08-09T15:30:29.899004",
      "2022-08-09T15:30:31.668675",
      "2022-08-09T15:30:33.235563",
      "2022-08-09T15:30:35.057645",
      "2022-08-09T15:30:36.593914",
      "2022-08-09T15:30:38.379899",
      "2022-08-09T15:30:40.034705",
      "2022-08-09T15:30:41.606878",
      "2022-08-09T15:30:43.147366",
      "2022-08-09T15:30:44.689187",
      "2022-08-09T15:30:46.223506",
      "2022-08-09T15:30:47.847385",
      "2022-08-09T15:30:49.532081",
      "2022-08-09T15:30:51.262279",
      "2022-08-09T15:30:53.474459",
      "2022-08-09T15:30:55.019234",
      "2022-08-09T15:30:56.569562",
      "2022-08-09T15:30:58.290201",
      "2022-08-09T15:30:59.952393",
      "2022-08-09T15:31:01.506634",
      "2022-08-09T15:31:03.052009",
      "2022-08-09T15:31:04.601384",
      "2022-08-09T15:31:06.152600",
      "2022-08-09T15:31:07.832158",
      "2022-08-09T15:31:09.591218",
      "2022-08-09T15:31:11.177523",
      "2022-08-09T15:31:12.721621",
      "2022-08-09T15:31:14.286025",
      "2022-08-09T15:31:15.976147",
      "2022-08-09T15:31:17.825352",
      "2022-08-09T15:31:19.540159",
      "2022-08-09T15:31:21.326942",
      "2022-08-09T15:31:22.911127",
      "2022-08-09T15:31:24.452798",
      "2022-08-09T15:31:25.980566",
      "2022-08-09T15:31:27.884895",
      "2022-08-09T15:31:29.649256",
      "2022-08-09T15:31:31.210359",
      "2022-08-09T15:31:32.740776",
      "2022-08-09T15:31:34.550547",
      "2022-08-09T15:31:36.075433",
      "2022-08-09T15:31:37.695332",
      "2022-08-09T15:31:39.393864",
      "2022-08-09T15:31:41.020399",
      "2022-08-09T15:31:42.703734",
      "2022-08-09T15:31:44.247558",
      "2022-08-09T15:31:45.770897",
      "2022-08-09T15:31:47.666036",
      "2022-08-09T15:31:49.617414",
      "2022-08-09T15:31:51.152517",
      "2022-08-09T15:31:52.689937",
      "2022-08-09T15:31:54.422789",
      "2022-08-09T15:31:56.092662",
      "2022-08-09T15:31:57.740582",
      "2022-08-09T15:31:59.459496",
      "2022-08-09T15:32:01.105800",
      "2022-08-09T15:32:02.705486",
      "2022-08-09T15:32:04.295114",
      "2022-08-09T15:32:05.820947",
      "2022-08-09T15:32:07.745242",
      "2022-08-09T15:32:09.502367",
      "2022-08-09T15:32:11.031555",
      "2022-08-09T15:32:12.559022",
      "2022-08-09T15:32:14.085806",
      "2022-08-09T15:32:15.626047",
      "2022-08-09T15:32:17.446781",
      "2022-08-09T15:32:19.210044",
      "2022-08-09T15:32:20.901863",
      "2022-08-09T15:32:22.721465",
      "2022-08-09T15:32:24.596529",
      "2022-08-09T15:32:26.441076",
      "2022-08-09T15:32:28.025918",
      "2022-08-09T15:32:29.567551",
      "2022-08-09T15:32:31.307247",
      "2022-08-09T15:32:32.995818",
      "2022-08-09T15:32:34.567734",
      "2022-08-09T15:32:36.099039",
      "2022-08-09T15:32:37.761754",
      "2022-08-09T15:32:39.456905",
      "2022-08-09T15:32:40.993375",
      "2022-08-09T15:32:42.680558",
      "2022-08-09T15:32:44.350846",
      "2022-08-09T15:32:46.076174",
      "2022-08-09T15:32:47.829871",
      "2022-08-09T15:32:49.646065",
      "2022-08-09T15:32:51.492775",
      "2022-08-09T15:32:53.691705",
      "2022-08-09T15:32:55.585880",
      "2022-08-09T15:32:57.347569",
      "2022-08-09T15:32:59.015309",
      "2022-08-09T15:33:00.880464",
      "2022-08-09T15:33:02.828229",
      "2022-08-09T15:33:04.386542",
      "2022-08-09T15:33:05.936640",
      "2022-08-09T15:33:07.595976",
      "2022-08-09T15:33:09.379724",
      "2022-08-09T15:33:10.955496",
      "2022-08-09T15:33:12.755462",
      "2022-08-09T15:33:14.736372",
      "2022-08-09T15:33:16.458735",
      "2022-08-09T15:33:18.219366",
      "2022-08-09T15:33:19.922796",
      "2022-08-09T15:33:21.513664",
      "2022-08-09T15:33:23.198752",
      "2022-08-09T15:33:24.724604",
      "2022-08-09T15:33:26.265867",
      "2022-08-09T15:33:28.191408",
      "2022-08-09T15:33:30.166877",
      "2022-08-09T15:33:31.931327",
      "2022-08-09T15:33:33.483313",
      "2022-08-09T15:33:35.267405",
      "2022-08-09T15:33:36.900896",
      "2022-08-09T15:33:39.316120",
      "2022-08-09T15:33:41.104263",
      "2022-08-09T15:33:42.951167",
      "2022-08-09T15:33:44.475488",
      "2022-08-09T15:33:46.194573",
      "2022-08-09T15:33:47.933511",
      "2022-08-09T15:33:49.643144",
      "2022-08-09T15:33:51.411213",
      "2022-08-09T15:33:53.435838",
      "2022-08-09T15:33:55.588347",
      "2022-08-09T15:33:57.210499",
      "2022-08-09T15:33:59.087669",
      "2022-08-09T15:34:00.644968",
      "2022-08-09T15:34:02.343632",
      "2022-08-09T15:34:03.927294",
      "2022-08-09T15:34:05.474827",
      "2022-08-09T15:34:07.150252",
      "2022-08-09T15:34:08.991574",
      "2022-08-09T15:34:10.620637",
      "2022-08-09T15:34:12.842763",
      "2022-08-09T15:34:14.530213",
      "2022-08-09T15:34:16.066730",
      "2022-08-09T15:34:17.834513",
      "2022-08-09T15:34:20.168967",
      "2022-08-09T15:34:21.899684",
      "2022-08-09T15:34:23.632897",
      "2022-08-09T15:34:25.400127",
      "2022-08-09T15:34:27.166127",
      "2022-08-09T15:34:29.039514",
      "2022-08-09T15:34:30.860511",
      "2022-08-09T15:34:32.525614",
      "2022-08-09T15:34:34.049718",
      "2022-08-09T15:34:35.732958",
      "2022-08-09T15:34:37.417490",
      "2022-08-09T15:34:39.042585",
      "2022-08-09T15:34:40.720276",
      "2022-08-09T15:34:42.242514",
      "2022-08-09T15:34:43.844364",
      "2022-08-09T15:34:45.363797",
      "2022-08-09T15:34:46.979450",
      "2022-08-09T15:34:49.397351",
      "2022-08-09T15:34:51.266647",
      "2022-08-09T15:34:52.871123",
      "2022-08-09T15:34:54.581332",
      "2022-08-09T15:34:56.280686",
      "2022-08-09T15:34:58.143197",
      "2022-08-09T15:35:00.151908",
      "2022-08-09T15:35:01.694449",
      "2022-08-09T15:35:03.359111",
      "2022-08-09T15:35:05.097589",
      "2022-08-09T15:35:06.692028",
      "2022-08-09T15:35:08.376668",
      "2022-08-09T15:35:10.067803",
      "2022-08-09T15:35:11.838171",
      "2022-08-09T15:35:13.388740",
      "2022-08-09T15:35:14.953650",
      "2022-08-09T15:35:16.510320",
      "2022-08-09T15:35:18.170956",
      "2022-08-09T15:35:19.991951",
      "2022-08-09T15:35:21.540257",
      "2022-08-09T15:35:23.254754",
      "2022-08-09T15:35:24.819547",
      "2022-08-09T15:35:26.367618",
      "2022-08-09T15:35:28.040459",
      "2022-08-09T15:35:29.769450",
      "2022-08-09T15:35:31.460390",
      "2022-08-09T15:35:33.013678",
      "2022-08-09T15:35:34.571752",
      "2022-08-09T15:35:36.124486",
      "2022-08-09T15:35:38.016982",
      "2022-08-09T15:35:39.859289",
      "2022-08-09T15:35:41.438610",
      "2022-08-09T15:35:42.989394",
      "2022-08-09T15:35:45.206804",
      "2022-08-09T15:35:47.373547",
      "2022-08-09T15:35:49.516016",
      "2022-08-09T15:35:51.250092",
      "2022-08-09T15:35:52.807664",
      "2022-08-09T15:35:54.363021",
      "2022-08-09T15:35:55.922248",
      "2022-08-09T15:35:57.574435",
      "2022-08-09T15:35:59.226699",
      "2022-08-09T15:36:01.376161",
      "2022-08-09T15:36:02.970061",
      "2022-08-09T15:36:04.723942",
      "2022-08-09T15:36:06.283956",
      "2022-08-09T15:36:07.945541",
      "2022-08-09T15:36:09.758039",
      "2022-08-09T15:36:11.315488",
      "2022-08-09T15:36:13.008775",
      "2022-08-09T15:36:14.554226",
      "2022-08-09T15:36:16.101464",
      "2022-08-09T15:36:17.828996",
      "2022-08-09T15:36:19.541692",
      "2022-08-09T15:36:21.429005",
      "2022-08-09T15:36:23.091280",
      "2022-08-09T15:36:24.620532",
      "2022-08-09T15:36:26.650476",
      "2022-08-09T15:36:28.603054",
      "2022-08-09T15:36:30.604291",
      "2022-08-09T15:36:32.710205",
      "2022-08-09T15:36:34.896885",
      "2022-08-09T15:36:36.485450",
      "2022-08-09T15:36:38.690710",
      "2022-08-09T15:36:40.815757",
      "2022-08-09T15:36:42.371552",
      "2022-08-09T15:36:43.902278",
      "2022-08-09T15:36:45.431594",
      "2022-08-09T15:36:47.081217",
      "2022-08-09T15:36:49.504532",
      "2022-08-09T15:36:51.354942",
      "2022-08-09T15:36:53.526464",
      "2022-08-09T15:36:55.716396",
      "2022-08-09T15:36:57.732659",
      "2022-08-09T15:36:59.576902"
    ],
    "values": [
      12.058889386410007,
      11.614374443612078,
      11.44488158103902,
      11.235799831790127,
      11.166218229483906,
      11.174580418969606,
      11.12171693364155,
      11.100666697459179,
      11.106164370158345,
      11.094578102171942,
      11.066894486755373,
      11.07646224535414,
      11.074090335170977,
      11.088824198486062,
      11.01124954727176,
      11.10972302710482,
      10.977496787695069,
      11.0032624388467,
      11.049449733558216,
      11.07201770993507,
      11.022912553096566,
      11.063834721243788,
      10.979008880183514,
      11.02092104440781,
      11.009295444427861,
      11.05919654341551,
      11.035124769171746,
      10.984262518259163,
      10.966488453397435,
      10.95677838467194,
      10.947202458602266,
      10.974805202704525,
      10.96636224688766,
      10.965548278922789,
      10.950762391588185,
      10.974679099572064,
      10.968041895064491,
      10.995341762871314,
      10.96559370104392,
      10.953311995312305,
      10.936215480531189,
      10.9612511432165,
      11.019467379044471,
      10.982147351877622,
      10.912674966168051,
      10.992364011883343,
      10.952864593848341,
      11.009385053345166,
      10.962241192730447,
      11.02510611452527,
      10.965842900697762,
      10.954437623380711,
      10.976935674172434,
      10.93495779446207,
      10.946955541354097,
      10.96449896343062,
      10.915445535491202,
      10.956352843897935,
      10.9506929182017,
      10.956715779233017,
      10.96726075221212,
      10.932273605402042,
      10.926424964116062,
      10.948349467367244,
      10.952942012801747,
      10.923293583548363,
      10.933832388598015,
      10.908895408832812,
      10.914284581418086,
      10.971111191310044,
      10.956184149288227,
      10.989681679244345,
      10.91546713011594,
      10.96194770271099,
      10.914475013131993,
      10.920287275644485,
      10.93341734545602,
      10.918367553885659,
      10.968267109636747,
      10.921885812849494,
      10.942661135028033,
      10.916322154306311,
      10.939940197891627,
      10.929200167194242,
      10.880501970177646,
      10.924007923775967,
      10.885845073830108,
      10.888315547124831,
      10.917838677796954,
      10.8977601944834,
      10.88713211555758,
      10.877202780486678,
      10.926779668550388,
      10.90801442029092,
      10.943725510911788,
      10.909625276602977,
      10.905689341523695,
      10.937167593805697,
      10.952440092080005,
      10.890250245649431,
      10.90349944979184,
      10.912509204833762,
      10.906541414059841,
      10.913244745318838,
      10.872599386214699,
      10.886048227086315,
      10.90296773767916,
      10.965335562650653,
      10.90059281984224,
      10.922403690848878,
      10.903265315564733,
      10.870543804255238,
      10.936732297157562,
      10.902288477936695,
      10.926078681715087,
      10.889668825595171,
      10.93598125184108,
      10.890036155060953,
      10.905881825582085,
      10.884235909195748,
      10.953211341734361,
      10.901296133701042,
      10.87657051057372,
      10.87978911478253,
      10.920569717936026,
      10.879308528548608,
      10.92828818277866,
      10.909424647870159,
      10.878549273155897,
      10.885252820348054,
      10.922062497816285,
      10.905242133703933,
      10.919235205597804,
      10.929935093217498,
      10.902430180679339,
      10.900997770620517,
      10.923377768385778,
      10.866579623910999,
      10.87613949250144,
      10.94086433532993,
      10.929679516670344,
      10.915927534848652,
      10.899350201070806,
      10.88664328528115,
      10.874525394849007,
      10.909861372570058,
      10.906829760041973,
      10.869895415717115,
      10.892645128891436,
      10.918767752152405,
      10.874604022873392,
      10.873586985716496,
      10.877305925584515,
      10.89661396526739,
      10.896669682241058,
      10.895680225403222,
      10.878503517503933,
      10.925254986422358,
      10.899812123626798,
      10.924959294763479,
      10.883572173100987,
      10.876735031939708,
      10.923499574612556,
      10.857074921301034,
      10.892622823534222,
      10.914434170864746,
      10.88214309002581,
      10.8878203854581,
      10.956068637257312,
      10.946951254856037,
      10.907049351966863,
      10.89495844320801,
      10.862388396257238,
      10.868821110710309,
      10.932959873720936,
      10.960441141435616,
      10.867870933086248,
      10.876268855337495,
      10.872920094964936,
      10.871470001183141,
      10.886849978237427,
      10.867646307529949,
      10.89377637998862,
      10.884646847176956,
      10.893813686471699,
      10.86367956964832,
      10.928968140200075,
      10.910404142250174,
      10.909244620901443,
      10.899346697602546,
      10.923304864246393,
      10.88410257890255,
      10.85699348866511,
      10.864327600803335,
      10.883438414278647,
      10.87017548679216,
      10.899532156075965,
      10.913328560660135,
      10.892571743966913,
      10.903020316633649,
      10.871763891235478,
      10.881152039872127,
      10.908322423808274,
      10.885095560953145,
      10.88646665839445,
      10.885099551400447,
      10.914957109363764,
      10.89411692945507,
      10.903239957128612,
      10.934750167826348,
      10.86295136924414,
      10.879670402229001,
      10.885653674740661,
      10.899852401997265,
      10.901559316918824,
      10.90742024695295,
      10.882533844501296,
      10.871348298126675,
      10.883107672012862,
      10.909127136124495,
      10.85930321554076,
      10.867324993605461,
      10.860381455590083,
      10.85946616327536,
      10.854802570934606,
      10.897078221375418,
      10.873349722400105,
      10.882043674919377,
      10.886746129253801,
      10.854099186463987,
      10.831665750628677,
      10.833094958025312,
      10.831841642139139,
      10.829974471929985,
      10.824139321373949,
      10.82515859859446,
      10.821919245206036,
      10.82521496847414,
      10.826494373278877,
      10.827302514041378,
      10.824003259317134,
      10.825089390180581,
      10.82528557767898,
      10.82659223913176,
      10.830049073081938,
      10.828952156638502,
      10.825047439579404,
      10.82544402081888,
      10.835920546191268,
      10.822065424225967,
      10.82543681091738,
      10.822419029788657,
      10.82924330799371,
      10.826970354897469,
      10.823908062883344,
      10.834501908668642,
      10.823562026546062,
      10.822885337927694,
      10.822752430973757,
      10.822903291741028,
      10.822941000964892,
      10.822897951893571,
      10.823146460975876,
      10.823084972696494,
      10.8227414539863,
      10.822410609797938,
      10.82259676488266,
      10.823041884932817,
      10.823140749409124,
      10.823720660107293,
      10.823397325770191,
      10.824000003675378,
      10.823534523895717,
      10.823157121360396,
      10.822778875756303,
      10.822991739426541,
      10.823243370818865,
      10.822846000871284,
      10.823350114825816,
      10.82311048773897,
      10.822921481754657,
      10.823388016540031,
      10.823219207084557,
      10.823535802402564,
      10.823465855752337,
      10.823630791382396,
      10.822756545274048,
      10.822891695674688,
      10.82335699944472,
      10.823069244510833,
      10.823038816685928,
      10.823448197328762,
      10.823361979475333,
      10.82265034479658,
      10.823016715219783,
      10.823091656184198,
      10.823110192895772,
      10.823186479031175,
      10.823253869324017,
      10.823419702997871
    ]
  }
}