{
  "artifacts": [
    "0_flow.th",
    "500_flow.th",
    "final_flow.th"
  ],
  "command": "experiment",
  "experiment": {
    "base_dir": "C:\\Users\\Jacobie Mouton\\OneDrive - Stellenbosch University\\SU2021\\MSc\\Code\\mouton-msc-code\\daphne-master_NEW",
    "dependencies": [
      "munch==2.5.0",
      "numpy==1.19.5",
      "sacred==0.8.1",
      "torch==1.9.0"
    ],
    "mainfile": "main.py",
    "name": "arithmetic_reverse_kl_mul",
    "repositories": [
      {
        "commit": "5cf1620c2f010624cb9562301b7d30bce057cad8",
        "dirty": true,
        "url": "git@git.cs.sun.ac.za:21054479/mouton-msc-code.git"
      },
      {
        "commit": "5cf1620c2f010624cb9562301b7d30bce057cad8",
        "dirty": true,
        "url": "git@git.cs.sun.ac.za:21054479/mouton-msc-code.git"
      },
      {
        "commit": "5cf1620c2f010624cb9562301b7d30bce057cad8",
        "dirty": true,
        "url": "git@git.cs.sun.ac.za:21054479/mouton-msc-code.git"
      },
      {
        "commit": "5cf1620c2f010624cb9562301b7d30bce057cad8",
        "dirty": true,
        "url": "git@git.cs.sun.ac.za:21054479/mouton-msc-code.git"
      }
    ],
    "sources": [
      [
        "flow.py",
        "_sources\\flow_d67776dfd774b18916830340c90d4f6e.py"
      ],
      [
        "main.py",
        "_sources\\main_f2fd773b1e16c65481b445a09c48c888.py"
      ],
      [
        "models.py",
        "_sources\\models_90309ef1bb8a3cac757a1d94ca17d16d.py"
      ],
      [
        "nets.py",
        "_sources\\nets_4a7cb72928633e596640f446c9390176.py"
      ]
    ]
  },
  "heartbeat": "2021-07-22T13:59:09.067970",
  "host": {
    "ENV": {},
    "cpu": "Unknown",
    "hostname": "DESKTOP-J2ITSRF",
    "os": [
      "Windows",
      "Windows-10-10.0.19041-SP0"
    ],
    "python_version": "3.6.13"
  },
  "meta": {
    "command": "experiment",
    "options": {
      "--beat-interval": null,
      "--capture": null,
      "--comment": null,
      "--debug": false,
      "--enforce_clean": false,
      "--file_storage": null,
      "--force": false,
      "--help": false,
      "--loglevel": null,
      "--mongo_db": null,
      "--name": null,
      "--pdb": false,
      "--print-config": false,
      "--priority": null,
      "--queue": false,
      "--s3": null,
      "--sql": null,
      "--tiny_db": null,
      "--unobserved": false,
      "COMMAND": null,
      "UPDATE": [],
      "help": false,
      "with": false
    }
  },
  "resources": [],
  "result": {
    "py/tuple": [
      35.3433723449707,
      18.778182983398438
    ]
  },
  "start_time": "2021-07-22T13:45:08.802464",
  "status": "COMPLETED",
  "stop_time": "2021-07-22T13:59:09.064978"
}