{
  "batch_size": 88,
  "bn": "ecoli70-alt",
  "checkpoint_n": 10,
  "condition_sigma": true,
  "decoder_hidden_dims": [
    100
  ],
  "ex_name": "maf_vae",
  "flow_hidden_dims": [
    100
  ],
  "load_from_checkpoint": false,
  "lr": 0.0001,
  "normalize": false,
  "num_epochs": 800,
  "num_flow_steps": 3,
  "num_train_batches": 1,
  "num_train_samples": 88,
  "num_val_batches": 50,
  "num_val_samples": 4400,
  "path": "./experiment_logs/maf_vae/ecoli70-alt/3_[100]_[100]_2g",
  "patience": 10,
  "run": 1,
  "save_checkpoints": false,
  "seed": 1,
  "sub_folder": "3_[100]_[100]_2g"
}