INFO - residual_nf - Running command 'run'
INFO - residual_nf - Started run with ID "1"
[CONFIG] {'bn': 'arithmetic-circuit', 'structure': 'faithful', 'coeff': 0.99, 'n_power_iterations': 5, 'num_blocks': 28, 'hidden_dims': [100], 'activation': 'lipmish', 'grad_in_forward': True, 'batch_size': 100, 'num_train_samples': 10000, 'num_val_samples': 5000, 'num_epochs': 300, 'num_train_batches': 100, 'num_val_batches': 50, 'lr': 0.01, 'seed': 0, 'patience': 20, 'double': True, 'run': 1, 'checkpoint_n': 10, 'load_from_checkpoint': False, 'ex_name': 'residual_nf_density_estimation', 'sub_folder': 'faithful_99_lipmish_28_[100]', 'path': './experiment_logs/residual_nf_density_estimation/arithmetic-circuit/faithful_99_lipmish_28_[100]', 'bt_config': {'depth': 5, 'seed': 4}}
[DEVICE] cpu
[ENCODED STRUCTURE] Using faithful BN structure.
  0%|          | 0/300 [00:00<?, ?it/s]Train NLL: 13.623, Val NLL: 6.670:   0%|          | 1/300 [00:11<57:05, 11.46s/it]Train NLL: 5.471, Val NLL: 4.033:   1%|          | 2/300 [00:20<50:45, 10.22s/it] Train NLL: 3.801, Val NLL: 2.717:   1%|          | 3/300 [00:30<50:16, 10.16s/it]Train NLL: 3.630, Val NLL: 2.566:   1%|▏         | 4/300 [00:40<49:07,  9.96s/it]Train NLL: 3.112, Val NLL: 3.393:   2%|▏         | 5/300 [00:50<48:04,  9.78s/it]Train NLL: 3.101, Val NLL: 3.040:   2%|▏         | 6/300 [00:59<47:15,  9.65s/it]Train NLL: 2.692, Val NLL: 2.503:   2%|▏         | 7/300 [01:08<46:52,  9.60s/it]Train NLL: 2.460, Val NLL: 2.174:   3%|▎         | 8/300 [01:18<46:39,  9.59s/it]Train NLL: 2.524, Val NLL: 2.674:   3%|▎         | 9/300 [01:28<47:03,  9.70s/it]Train NLL: 2.242, Val NLL: 1.847:   3%|▎         | 10/300 [01:37<46:40,  9.66s/it]Train NLL: 2.409, Val NLL: 2.088:   4%|▎         | 11/300 [01:49<49:09, 10.21s/it]Train NLL: 2.369, Val NLL: 2.150:   4%|▍         | 12/300 [01:59<49:08, 10.24s/it]Train NLL: 2.158, Val NLL: 1.666:   4%|▍         | 13/300 [02:09<48:54, 10.23s/it]Train NLL: 2.158, Val NLL: 2.493:   5%|▍         | 14/300 [02:20<48:47, 10.24s/it]Train NLL: 2.161, Val NLL: 1.843:   5%|▌         | 15/300 [02:30<48:24, 10.19s/it]Train NLL: 2.154, Val NLL: 1.965:   5%|▌         | 16/300 [02:40<48:25, 10.23s/it]Train NLL: 2.100, Val NLL: 1.723:   6%|▌         | 17/300 [02:50<48:14, 10.23s/it]Train NLL: 2.002, Val NLL: 1.686:   6%|▌         | 18/300 [03:00<47:55, 10.20s/it]Train NLL: 1.920, Val NLL: 1.548:   6%|▋         | 19/300 [03:11<47:38, 10.17s/it]Train NLL: 2.326, Val NLL: 1.779:   7%|▋         | 20/300 [03:21<47:33, 10.19s/it]Train NLL: 1.839, Val NLL: 1.664:   7%|▋         | 21/300 [03:31<47:20, 10.18s/it]Train NLL: 1.916, Val NLL: 1.666:   7%|▋         | 22/300 [03:41<47:09, 10.18s/it]Train NLL: 1.916, Val NLL: 1.594:   8%|▊         | 23/300 [03:51<47:03, 10.19s/it]Train NLL: 1.886, Val NLL: 1.613:   8%|▊         | 24/300 [04:02<46:53, 10.19s/it]Train NLL: 1.806, Val NLL: 2.011:   8%|▊         | 25/300 [04:12<46:52, 10.23s/it]Train NLL: 1.878, Val NLL: 1.734:   9%|▊         | 26/300 [04:22<46:56, 10.28s/it]Train NLL: 1.827, Val NLL: 1.690:   9%|▉         | 27/300 [04:33<47:02, 10.34s/it]Train NLL: 1.872, Val NLL: 1.739:   9%|▉         | 28/300 [04:43<46:45, 10.32s/it]Train NLL: 1.904, Val NLL: 1.784:  10%|▉         | 29/300 [04:54<47:38, 10.55s/it]Train NLL: 1.867, Val NLL: 1.740:  10%|█         | 30/300 [05:04<47:01, 10.45s/it]Train NLL: 1.895, Val NLL: 1.775:  10%|█         | 31/300 [05:15<47:17, 10.55s/it]Train NLL: 1.933, Val NLL: 1.633:  11%|█         | 32/300 [05:28<49:54, 11.17s/it]Train NLL: 1.819, Val NLL: 1.599:  11%|█         | 33/300 [05:39<49:34, 11.14s/it]Train NLL: 1.740, Val NLL: 1.540:  11%|█▏        | 34/300 [05:50<49:14, 11.11s/it]Train NLL: 1.702, Val NLL: 1.857:  12%|█▏        | 35/300 [06:00<47:59, 10.87s/it]Train NLL: 1.886, Val NLL: 1.792:  12%|█▏        | 36/300 [06:11<47:29, 10.79s/it]Train NLL: 1.736, Val NLL: 1.442:  12%|█▏        | 37/300 [06:21<47:16, 10.78s/it]Train NLL: 1.840, Val NLL: 1.828:  13%|█▎        | 38/300 [06:33<47:50, 10.95s/it]Train NLL: 1.834, Val NLL: 1.513:  13%|█▎        | 39/300 [06:44<47:18, 10.88s/it]Train NLL: 1.749, Val NLL: 1.641:  13%|█▎        | 40/300 [06:54<46:32, 10.74s/it]Train NLL: 1.855, Val NLL: 1.807:  14%|█▎        | 41/300 [07:04<45:47, 10.61s/it]Train NLL: 1.693, Val NLL: 1.459:  14%|█▍        | 42/300 [07:15<46:02, 10.71s/it]Train NLL: 1.796, Val NLL: 5.603:  14%|█▍        | 43/300 [07:27<47:29, 11.09s/it]Train NLL: 1.907, Val NLL: 1.539:  15%|█▍        | 44/300 [07:39<47:53, 11.23s/it]Train NLL: 1.700, Val NLL: 1.664:  15%|█▌        | 45/300 [07:50<47:30, 11.18s/it]Train NLL: 1.720, Val NLL: 1.752:  15%|█▌        | 46/300 [08:00<46:16, 10.93s/it]Train NLL: 1.689, Val NLL: 1.651:  16%|█▌        | 47/300 [08:11<45:30, 10.79s/it]Train NLL: 1.766, Val NLL: 1.518:  16%|█▌        | 48/300 [08:21<44:50, 10.68s/it]Train NLL: 1.738, Val NLL: 1.681:  16%|█▋        | 49/300 [08:31<44:07, 10.55s/it]Train NLL: 1.689, Val NLL: 1.610:  17%|█▋        | 50/300 [08:41<43:31, 10.45s/it]Train NLL: 1.711, Val NLL: 1.694:  17%|█▋        | 51/300 [08:52<43:12, 10.41s/it]Train NLL: 1.804, Val NLL: 2.157:  17%|█▋        | 52/300 [09:02<43:10, 10.45s/it]Train NLL: 1.636, Val NLL: 1.703:  18%|█▊        | 53/300 [09:13<42:43, 10.38s/it]Train NLL: 1.713, Val NLL: 1.509:  18%|█▊        | 54/300 [09:25<44:32, 10.86s/it]Train NLL: 1.635, Val NLL: 1.593:  18%|█▊        | 55/300 [09:35<44:25, 10.88s/it]Train NLL: 1.726, Val NLL: 1.486:  19%|█▊        | 56/300 [09:46<44:00, 10.82s/it]Train NLL: 1.698, Val NLL: 1.540:  19%|█▉        | 57/300 [09:57<43:25, 10.72s/it]Train NLL: 1.624, Val NLL: 1.483:  19%|█▉        | 58/300 [10:07<42:27, 10.53s/it]Train NLL: 1.605, Val NLL: 1.625:  20%|█▉        | 59/300 [10:17<41:44, 10.39s/it]Train NLL: 1.685, Val NLL: 1.625:  20%|██        | 60/300 [10:27<41:15, 10.31s/it]Train NLL: 1.615, Val NLL: 1.441:  20%|██        | 61/300 [10:38<41:45, 10.48s/it]Train NLL: 1.780, Val NLL: 1.599:  21%|██        | 62/300 [10:50<43:01, 10.85s/it]Train NLL: 1.576, Val NLL: 1.498:  21%|██        | 63/300 [11:00<43:00, 10.89s/it]Train NLL: 1.625, Val NLL: 1.461:  21%|██▏       | 64/300 [11:12<43:18, 11.01s/it]Train NLL: 1.707, Val NLL: 1.439:  22%|██▏       | 65/300 [11:23<43:15, 11.04s/it]Train NLL: 1.625, Val NLL: 1.594:  22%|██▏       | 66/300 [11:33<42:30, 10.90s/it]Train NLL: 1.608, Val NLL: 1.925:  22%|██▏       | 67/300 [11:44<41:40, 10.73s/it]Train NLL: 1.660, Val NLL: 1.736:  23%|██▎       | 68/300 [11:54<41:25, 10.71s/it]Train NLL: 1.772, Val NLL: 1.465:  23%|██▎       | 69/300 [12:05<40:49, 10.61s/it]Train NLL: 1.562, Val NLL: 1.437:  23%|██▎       | 70/300 [12:15<40:13, 10.49s/it]Train NLL: 1.640, Val NLL: 1.715:  24%|██▎       | 71/300 [12:26<40:00, 10.48s/it]Train NLL: 1.561, Val NLL: 1.403:  24%|██▍       | 72/300 [12:36<39:35, 10.42s/it]Train NLL: 1.644, Val NLL: 1.572:  24%|██▍       | 73/300 [12:46<39:10, 10.36s/it]Train NLL: 1.611, Val NLL: 1.444:  25%|██▍       | 74/300 [12:56<38:48, 10.30s/it]Train NLL: 1.684, Val NLL: 1.648:  25%|██▌       | 75/300 [13:06<38:34, 10.29s/it]Train NLL: 1.581, Val NLL: 1.545:  25%|██▌       | 76/300 [13:17<38:41, 10.36s/it]Train NLL: 1.720, Val NLL: 1.766:  26%|██▌       | 77/300 [13:27<38:22, 10.33s/it]Train NLL: 1.580, Val NLL: 1.504:  26%|██▌       | 78/300 [13:37<38:07, 10.30s/it]Train NLL: 1.687, Val NLL: 1.444:  26%|██▋       | 79/300 [13:48<38:41, 10.51s/it]Train NLL: 1.633, Val NLL: 1.546:  27%|██▋       | 80/300 [13:59<38:31, 10.51s/it]Train NLL: 1.572, Val NLL: 1.610:  27%|██▋       | 81/300 [14:10<38:31, 10.55s/it]Train NLL: 1.541, Val NLL: 1.400:  27%|██▋       | 82/300 [14:20<38:20, 10.56s/it]Train NLL: 1.601, Val NLL: 1.566:  28%|██▊       | 83/300 [14:31<38:09, 10.55s/it]Train NLL: 1.606, Val NLL: 1.466:  28%|██▊       | 84/300 [14:41<37:43, 10.48s/it]Train NLL: 1.659, Val NLL: 1.714:  28%|██▊       | 85/300 [14:52<38:02, 10.61s/it]Train NLL: 1.604, Val NLL: 1.625:  29%|██▊       | 86/300 [15:03<38:11, 10.71s/it]Train NLL: 1.682, Val NLL: 1.445:  29%|██▉       | 87/300 [15:13<37:51, 10.66s/it]Train NLL: 1.582, Val NLL: 1.413:  29%|██▉       | 88/300 [15:25<38:30, 10.90s/it]Train NLL: 1.582, Val NLL: 1.633:  30%|██▉       | 89/300 [15:36<38:40, 11.00s/it]Train NLL: 1.618, Val NLL: 1.496:  30%|███       | 90/300 [15:47<38:49, 11.10s/it]Train NLL: 1.608, Val NLL: 1.608:  30%|███       | 91/300 [15:59<38:36, 11.08s/it]Train NLL: 1.579, Val NLL: 1.507:  31%|███       | 92/300 [16:09<38:09, 11.01s/it]Train NLL: 1.678, Val NLL: 1.469:  31%|███       | 93/300 [16:20<38:07, 11.05s/it]Train NLL: 1.692, Val NLL: 1.544:  31%|███▏      | 94/300 [16:31<37:31, 10.93s/it]Train NLL: 1.481, Val NLL: 1.543:  32%|███▏      | 95/300 [16:42<36:58, 10.82s/it]Train NLL: 1.623, Val NLL: 1.443:  32%|███▏      | 96/300 [16:52<36:30, 10.74s/it]Train NLL: 1.547, Val NLL: 1.407:  32%|███▏      | 97/300 [17:03<36:14, 10.71s/it]Train NLL: 1.574, Val NLL: 1.508:  33%|███▎      | 98/300 [17:13<35:40, 10.60s/it]Train NLL: 1.527, Val NLL: 1.471:  33%|███▎      | 99/300 [17:24<35:33, 10.61s/it]Train NLL: 1.520, Val NLL: 1.719:  33%|███▎      | 100/300 [17:35<35:30, 10.65s/it]Train NLL: 1.523, Val NLL: 1.432:  34%|███▎      | 101/300 [17:46<35:38, 10.74s/it]Train NLL: 1.524, Val NLL: 2.349:  34%|███▍      | 102/300 [17:56<35:14, 10.68s/it]Train NLL: 1.527, Val NLL: 1.638:  34%|███▍      | 103/300 [18:07<35:04, 10.68s/it]Train NLL: 1.601, Val NLL: 1.597:  35%|███▍      | 104/300 [18:17<34:44, 10.64s/it]Train NLL: 1.590, Val NLL: 1.511:  35%|███▌      | 105/300 [18:28<34:49, 10.71s/it]Train NLL: 1.522, Val NLL: 1.597:  35%|███▌      | 106/300 [18:39<34:36, 10.70s/it]Train NLL: 1.582, Val NLL: 1.474:  36%|███▌      | 107/300 [18:49<34:14, 10.64s/it]Train NLL: 1.513, Val NLL: 1.432:  36%|███▌      | 108/300 [19:00<34:03, 10.64s/it]Train NLL: 1.463, Val NLL: 1.405:  36%|███▋      | 109/300 [19:11<33:49, 10.63s/it]Train NLL: 1.562, Val NLL: 1.578:  37%|███▋      | 110/300 [19:21<33:29, 10.57s/it]Train NLL: 1.569, Val NLL: 1.498:  37%|███▋      | 111/300 [19:32<33:24, 10.61s/it]Train NLL: 1.534, Val NLL: 1.368:  37%|███▋      | 112/300 [19:42<33:06, 10.57s/it]Train NLL: 1.523, Val NLL: 1.379:  38%|███▊      | 113/300 [19:56<35:39, 11.44s/it]Train NLL: 1.642, Val NLL: 1.751:  38%|███▊      | 114/300 [20:08<36:07, 11.65s/it]Train NLL: 1.530, Val NLL: 1.465:  38%|███▊      | 115/300 [20:18<34:45, 11.28s/it]Train NLL: 1.570, Val NLL: 1.440:  39%|███▊      | 116/300 [20:29<33:55, 11.06s/it]Train NLL: 1.503, Val NLL: 1.401:  39%|███▉      | 117/300 [20:39<32:53, 10.78s/it]Train NLL: 1.488, Val NLL: 1.425:  39%|███▉      | 118/300 [20:49<32:19, 10.65s/it]Train NLL: 1.535, Val NLL: 1.390:  40%|███▉      | 119/300 [21:00<31:46, 10.54s/it]Train NLL: 1.501, Val NLL: 1.464:  40%|████      | 120/300 [21:10<31:48, 10.60s/it]Train NLL: 1.546, Val NLL: 1.421:  40%|████      | 121/300 [21:21<31:37, 10.60s/it]Train NLL: 1.512, Val NLL: 1.411:  41%|████      | 122/300 [21:31<31:02, 10.46s/it]Train NLL: 1.491, Val NLL: 1.598:  41%|████      | 123/300 [21:41<30:36, 10.37s/it]Train NLL: 1.513, Val NLL: 1.382:  41%|████▏     | 124/300 [21:51<30:08, 10.27s/it]Train NLL: 1.449, Val NLL: 1.428:  42%|████▏     | 125/300 [22:02<29:59, 10.28s/it]Train NLL: 1.536, Val NLL: 1.447:  42%|████▏     | 126/300 [22:12<29:49, 10.28s/it]Train NLL: 1.530, Val NLL: 1.337:  42%|████▏     | 127/300 [22:23<30:20, 10.52s/it]Train NLL: 1.535, Val NLL: 1.513:  43%|████▎     | 128/300 [22:34<30:16, 10.56s/it]Train NLL: 1.542, Val NLL: 1.463:  43%|████▎     | 129/300 [22:45<30:48, 10.81s/it]Train NLL: 1.495, Val NLL: 1.463:  43%|████▎     | 130/300 [22:59<33:22, 11.78s/it]Train NLL: 1.557, Val NLL: 1.453:  44%|████▎     | 131/300 [23:12<34:34, 12.27s/it]Train NLL: 1.523, Val NLL: 1.323:  44%|████▍     | 132/300 [23:24<34:04, 12.17s/it]Train NLL: 1.484, Val NLL: 1.390:  44%|████▍     | 133/300 [23:37<34:26, 12.38s/it]Train NLL: 1.608, Val NLL: 1.409:  45%|████▍     | 134/300 [23:49<33:37, 12.16s/it]Train NLL: 1.499, Val NLL: 1.537:  45%|████▌     | 135/300 [24:01<33:03, 12.02s/it]Train NLL: 1.474, Val NLL: 1.518:  45%|████▌     | 136/300 [24:12<32:18, 11.82s/it]Train NLL: 1.504, Val NLL: 1.525:  46%|████▌     | 137/300 [24:23<31:10, 11.47s/it]Train NLL: 1.651, Val NLL: 1.551:  46%|████▌     | 138/300 [24:34<30:32, 11.31s/it]Train NLL: 1.507, Val NLL: 1.294:  46%|████▋     | 139/300 [24:44<29:41, 11.06s/it]Train NLL: 1.542, Val NLL: 1.408:  47%|████▋     | 140/300 [24:55<29:03, 10.90s/it]Train NLL: 1.509, Val NLL: 1.616:  47%|████▋     | 141/300 [25:05<28:49, 10.88s/it]Train NLL: 1.517, Val NLL: 1.622:  47%|████▋     | 142/300 [25:16<28:23, 10.78s/it]Train NLL: 1.583, Val NLL: 1.417:  48%|████▊     | 143/300 [25:26<27:57, 10.69s/it]Train NLL: 1.429, Val NLL: 1.310:  48%|████▊     | 144/300 [25:37<27:35, 10.61s/it]Train NLL: 1.430, Val NLL: 1.355:  48%|████▊     | 145/300 [25:47<27:19, 10.58s/it]Train NLL: 1.508, Val NLL: 1.447:  49%|████▊     | 146/300 [25:58<27:11, 10.59s/it]Train NLL: 1.483, Val NLL: 1.493:  49%|████▉     | 147/300 [26:08<26:53, 10.55s/it]Train NLL: 1.436, Val NLL: 1.371:  49%|████▉     | 148/300 [26:19<26:45, 10.56s/it]Train NLL: 1.553, Val NLL: 1.722:  50%|████▉     | 149/300 [26:30<26:38, 10.58s/it]Train NLL: 1.507, Val NLL: 1.439:  50%|█████     | 150/300 [26:40<26:32, 10.62s/it]Train NLL: 1.525, Val NLL: 1.509:  50%|█████     | 151/300 [26:51<26:26, 10.65s/it]Train NLL: 1.460, Val NLL: 1.412:  51%|█████     | 152/300 [27:02<26:10, 10.61s/it]Train NLL: 1.506, Val NLL: 1.541:  51%|█████     | 153/300 [27:12<25:52, 10.56s/it]Train NLL: 1.548, Val NLL: 1.380:  51%|█████▏    | 154/300 [27:22<25:35, 10.51s/it]Train NLL: 1.526, Val NLL: 1.431:  52%|█████▏    | 155/300 [27:34<25:58, 10.75s/it]Train NLL: 1.472, Val NLL: 1.356:  52%|█████▏    | 156/300 [27:48<28:30, 11.88s/it]Train NLL: 1.447, Val NLL: 1.518:  52%|█████▏    | 157/300 [28:00<28:01, 11.76s/it]Train NLL: 1.460, Val NLL: 1.397:  53%|█████▎    | 158/300 [28:12<27:58, 11.82s/it]Train NLL: 1.518, Val NLL: 1.547:  53%|█████▎    | 159/300 [28:24<28:24, 12.09s/it]Train NLL: 1.576, Val NLL: 1.353:  53%|█████▎    | 160/300 [28:35<27:09, 11.64s/it]Train NLL: 1.515, Val NLL: 1.324:  54%|█████▎    | 161/300 [28:46<26:14, 11.32s/it]Train NLL: 1.464, Val NLL: 1.440:  54%|█████▍    | 162/300 [28:56<25:40, 11.16s/it]Train NLL: 1.504, Val NLL: 1.439:  54%|█████▍    | 163/300 [29:07<25:13, 11.05s/it]Train NLL: 1.535, Val NLL: 1.499:  55%|█████▍    | 164/300 [29:18<24:40, 10.88s/it]Epoch   165: reducing learning rate of group 0 to 1.0000e-03.
Train NLL: 1.430, Val NLL: 1.546:  55%|█████▌    | 165/300 [29:28<24:20, 10.82s/it]Train NLL: 1.172, Val NLL: 1.205:  55%|█████▌    | 166/300 [29:39<23:57, 10.73s/it]Train NLL: 1.136, Val NLL: 1.203:  56%|█████▌    | 167/300 [29:49<23:32, 10.62s/it]Train NLL: 1.140, Val NLL: 1.194:  56%|█████▌    | 168/300 [30:00<23:20, 10.61s/it]Train NLL: 1.142, Val NLL: 1.248:  56%|█████▋    | 169/300 [30:10<23:04, 10.57s/it]Train NLL: 1.137, Val NLL: 1.202:  57%|█████▋    | 170/300 [30:21<22:59, 10.61s/it]Train NLL: 1.141, Val NLL: 1.225:  57%|█████▋    | 171/300 [30:32<22:53, 10.64s/it]Train NLL: 1.129, Val NLL: 1.201:  57%|█████▋    | 172/300 [30:42<22:31, 10.56s/it]Train NLL: 1.130, Val NLL: 1.201:  58%|█████▊    | 173/300 [30:52<22:15, 10.52s/it]Train NLL: 1.132, Val NLL: 1.196:  58%|█████▊    | 174/300 [31:03<22:01, 10.49s/it]Train NLL: 1.130, Val NLL: 1.187:  58%|█████▊    | 175/300 [31:13<21:46, 10.45s/it]Train NLL: 1.137, Val NLL: 1.211:  59%|█████▊    | 176/300 [31:24<21:37, 10.46s/it]Train NLL: 1.135, Val NLL: 1.181:  59%|█████▉    | 177/300 [31:34<21:25, 10.45s/it]Train NLL: 1.141, Val NLL: 1.187:  59%|█████▉    | 178/300 [31:44<21:11, 10.42s/it]Train NLL: 1.137, Val NLL: 1.213:  60%|█████▉    | 179/300 [31:55<21:00, 10.42s/it]Train NLL: 1.130, Val NLL: 1.180:  60%|██████    | 180/300 [32:05<20:47, 10.40s/it]Train NLL: 1.127, Val NLL: 1.198:  60%|██████    | 181/300 [32:16<20:43, 10.45s/it]Train NLL: 1.140, Val NLL: 1.246:  61%|██████    | 182/300 [32:26<20:30, 10.43s/it]Train NLL: 1.128, Val NLL: 1.189:  61%|██████    | 183/300 [32:37<20:20, 10.43s/it]Train NLL: 1.126, Val NLL: 1.201:  61%|██████▏   | 184/300 [32:47<20:16, 10.48s/it]Train NLL: 1.135, Val NLL: 1.214:  62%|██████▏   | 185/300 [32:58<20:05, 10.48s/it]Train NLL: 1.126, Val NLL: 1.176:  62%|██████▏   | 186/300 [33:08<19:52, 10.46s/it]Train NLL: 1.147, Val NLL: 1.241:  62%|██████▏   | 187/300 [33:19<19:45, 10.49s/it]Train NLL: 1.140, Val NLL: 1.210:  63%|██████▎   | 188/300 [33:29<19:35, 10.49s/it]Train NLL: 1.138, Val NLL: 1.194:  63%|██████▎   | 189/300 [33:40<19:22, 10.47s/it]Train NLL: 1.129, Val NLL: 1.205:  63%|██████▎   | 190/300 [33:51<19:28, 10.62s/it]Train NLL: 1.154, Val NLL: 1.216:  64%|██████▎   | 191/300 [34:01<19:15, 10.60s/it]Train NLL: 1.122, Val NLL: 1.229:  64%|██████▍   | 192/300 [34:12<19:03, 10.59s/it]Train NLL: 1.157, Val NLL: 1.193:  64%|██████▍   | 193/300 [34:22<18:51, 10.57s/it]Train NLL: 1.141, Val NLL: 1.205:  65%|██████▍   | 194/300 [34:33<18:43, 10.60s/it]Train NLL: 1.142, Val NLL: 1.174:  65%|██████▌   | 195/300 [34:44<18:43, 10.70s/it]Train NLL: 1.144, Val NLL: 1.223:  65%|██████▌   | 196/300 [34:54<18:31, 10.69s/it]Train NLL: 1.151, Val NLL: 1.221:  66%|██████▌   | 197/300 [35:05<18:15, 10.64s/it]Train NLL: 1.126, Val NLL: 1.175:  66%|██████▌   | 198/300 [35:16<18:10, 10.69s/it]Train NLL: 1.158, Val NLL: 1.316:  66%|██████▋   | 199/300 [35:26<17:59, 10.69s/it]Train NLL: 1.143, Val NLL: 1.335:  67%|██████▋   | 200/300 [35:37<17:53, 10.73s/it]Train NLL: 1.145, Val NLL: 1.240:  67%|██████▋   | 201/300 [35:48<17:41, 10.72s/it]Train NLL: 1.146, Val NLL: 1.204:  67%|██████▋   | 202/300 [35:59<17:29, 10.71s/it]Train NLL: 1.120, Val NLL: 1.203:  68%|██████▊   | 203/300 [36:09<17:10, 10.63s/it]Train NLL: 1.137, Val NLL: 1.197:  68%|██████▊   | 204/300 [36:20<16:54, 10.57s/it]Train NLL: 1.130, Val NLL: 1.186:  68%|██████▊   | 205/300 [36:30<16:43, 10.56s/it]Train NLL: 1.134, Val NLL: 1.183:  69%|██████▊   | 206/300 [36:41<16:32, 10.56s/it]Train NLL: 1.145, Val NLL: 1.217:  69%|██████▉   | 207/300 [36:51<16:24, 10.59s/it]Train NLL: 1.123, Val NLL: 1.195:  69%|██████▉   | 208/300 [37:02<16:15, 10.61s/it]Train NLL: 1.132, Val NLL: 1.170:  70%|██████▉   | 209/300 [37:12<16:02, 10.58s/it]Train NLL: 1.129, Val NLL: 1.226:  70%|███████   | 210/300 [37:24<16:05, 10.72s/it]Train NLL: 1.131, Val NLL: 1.203:  70%|███████   | 211/300 [37:34<15:46, 10.64s/it]Train NLL: 1.131, Val NLL: 1.173:  71%|███████   | 212/300 [37:44<15:31, 10.59s/it]Train NLL: 1.122, Val NLL: 1.170:  71%|███████   | 213/300 [37:55<15:19, 10.56s/it]Train NLL: 1.121, Val NLL: 1.186:  71%|███████▏  | 214/300 [38:06<15:16, 10.66s/it]Train NLL: 1.136, Val NLL: 1.208:  72%|███████▏  | 215/300 [38:16<15:06, 10.66s/it]Train NLL: 1.153, Val NLL: 1.198:  72%|███████▏  | 216/300 [38:27<14:50, 10.61s/it]Train NLL: 1.112, Val NLL: 1.253:  72%|███████▏  | 217/300 [38:38<14:46, 10.68s/it]Train NLL: 1.142, Val NLL: 1.200:  73%|███████▎  | 218/300 [38:48<14:23, 10.53s/it]Train NLL: 1.142, Val NLL: 1.201:  73%|███████▎  | 219/300 [39:00<14:47, 10.95s/it]Train NLL: 1.153, Val NLL: 1.194:  73%|███████▎  | 220/300 [39:14<16:01, 12.01s/it]Train NLL: 1.131, Val NLL: 1.229:  74%|███████▎  | 221/300 [39:25<15:24, 11.71s/it]Train NLL: 1.150, Val NLL: 1.189:  74%|███████▍  | 222/300 [39:37<14:59, 11.53s/it]Train NLL: 1.163, Val NLL: 1.271:  74%|███████▍  | 223/300 [39:49<15:01, 11.70s/it]Train NLL: 1.129, Val NLL: 1.211:  75%|███████▍  | 224/300 [40:00<14:42, 11.61s/it]Train NLL: 1.134, Val NLL: 1.197:  75%|███████▌  | 225/300 [40:15<15:39, 12.52s/it]Train NLL: 1.119, Val NLL: 1.238:  75%|███████▌  | 226/300 [40:26<15:01, 12.19s/it]Train NLL: 1.131, Val NLL: 1.196:  76%|███████▌  | 227/300 [40:38<14:33, 11.97s/it]Train NLL: 1.137, Val NLL: 1.177:  76%|███████▌  | 228/300 [40:50<14:32, 12.11s/it]Train NLL: 1.135, Val NLL: 1.187:  76%|███████▋  | 229/300 [41:01<14:06, 11.92s/it]Train NLL: 1.123, Val NLL: 1.187:  77%|███████▋  | 230/300 [41:14<14:13, 12.19s/it]Train NLL: 1.129, Val NLL: 1.174:  77%|███████▋  | 231/300 [41:28<14:38, 12.73s/it]Train NLL: 1.121, Val NLL: 1.197:  77%|███████▋  | 232/300 [41:40<13:56, 12.30s/it]Train NLL: 1.123, Val NLL: 1.195:  78%|███████▊  | 233/300 [41:51<13:36, 12.18s/it]Train NLL: 1.127, Val NLL: 1.196:  78%|███████▊  | 234/300 [42:04<13:36, 12.38s/it]Train NLL: 1.132, Val NLL: 1.183:  78%|███████▊  | 235/300 [42:17<13:25, 12.39s/it]Train NLL: 1.153, Val NLL: 1.234:  79%|███████▊  | 236/300 [42:31<13:52, 13.00s/it]Train NLL: 1.141, Val NLL: 1.187:  79%|███████▉  | 237/300 [42:43<13:14, 12.61s/it]Epoch   238: reducing learning rate of group 0 to 1.0000e-04.
Train NLL: 1.131, Val NLL: 1.189:  79%|███████▉  | 238/300 [42:55<12:58, 12.55s/it]Train NLL: 1.084, Val NLL: 1.175:  80%|███████▉  | 239/300 [43:08<12:41, 12.49s/it]Train NLL: 1.079, Val NLL: 1.164:  80%|████████  | 240/300 [43:19<12:16, 12.28s/it]Train NLL: 1.080, Val NLL: 1.160:  80%|████████  | 241/300 [43:34<12:49, 13.03s/it]Train NLL: 1.081, Val NLL: 1.158:  81%|████████  | 242/300 [43:46<12:17, 12.72s/it]Train NLL: 1.080, Val NLL: 1.160:  81%|████████  | 243/300 [43:58<11:45, 12.37s/it]Train NLL: 1.078, Val NLL: 1.161:  81%|████████▏ | 244/300 [44:10<11:23, 12.21s/it]Train NLL: 1.081, Val NLL: 1.160:  82%|████████▏ | 245/300 [44:22<11:22, 12.41s/it]Train NLL: 1.078, Val NLL: 1.162:  82%|████████▏ | 246/300 [44:35<11:04, 12.31s/it]Train NLL: 1.079, Val NLL: 1.157:  82%|████████▏ | 247/300 [44:49<11:27, 12.98s/it]Train NLL: 1.077, Val NLL: 1.163:  83%|████████▎ | 248/300 [45:01<10:58, 12.67s/it]Train NLL: 1.079, Val NLL: 1.161:  83%|████████▎ | 249/300 [45:13<10:31, 12.38s/it]Train NLL: 1.079, Val NLL: 1.161:  83%|████████▎ | 250/300 [45:25<10:22, 12.46s/it]Train NLL: 1.077, Val NLL: 1.163:  84%|████████▎ | 251/300 [45:38<10:05, 12.36s/it]Train NLL: 1.079, Val NLL: 1.159:  84%|████████▍ | 252/300 [45:52<10:24, 13.00s/it]Train NLL: 1.079, Val NLL: 1.158:  84%|████████▍ | 253/300 [46:04<09:54, 12.64s/it]Train NLL: 1.079, Val NLL: 1.159:  85%|████████▍ | 254/300 [46:16<09:32, 12.45s/it]Train NLL: 1.079, Val NLL: 1.160:  85%|████████▌ | 255/300 [46:28<09:20, 12.47s/it]Train NLL: 1.078, Val NLL: 1.156:  85%|████████▌ | 256/300 [46:40<09:03, 12.35s/it]Train NLL: 1.079, Val NLL: 1.160:  86%|████████▌ | 257/300 [46:54<09:09, 12.78s/it]Train NLL: 1.079, Val NLL: 1.157:  86%|████████▌ | 258/300 [47:07<08:59, 12.84s/it]Train NLL: 1.078, Val NLL: 1.157:  86%|████████▋ | 259/300 [47:19<08:32, 12.51s/it]Train NLL: 1.080, Val NLL: 1.157:  87%|████████▋ | 260/300 [47:31<08:11, 12.29s/it]Train NLL: 1.079, Val NLL: 1.165:  87%|████████▋ | 261/300 [47:43<07:55, 12.18s/it]Train NLL: 1.082, Val NLL: 1.162:  87%|████████▋ | 262/300 [47:55<07:41, 12.15s/it]Train NLL: 1.080, Val NLL: 1.160:  88%|████████▊ | 263/300 [48:09<07:55, 12.85s/it]Train NLL: 1.084, Val NLL: 1.164:  88%|████████▊ | 264/300 [48:21<07:29, 12.49s/it]Train NLL: 1.079, Val NLL: 1.159:  88%|████████▊ | 265/300 [48:33<07:14, 12.42s/it]Train NLL: 1.080, Val NLL: 1.161:  89%|████████▊ | 266/300 [48:45<06:57, 12.27s/it]Train NLL: 1.077, Val NLL: 1.158:  89%|████████▉ | 267/300 [48:57<06:40, 12.14s/it]Train NLL: 1.078, Val NLL: 1.157:  89%|████████▉ | 268/300 [49:11<06:44, 12.63s/it]Train NLL: 1.080, Val NLL: 1.161:  90%|████████▉ | 269/300 [49:23<06:30, 12.59s/it]Train NLL: 1.079, Val NLL: 1.161:  90%|█████████ | 270/300 [49:35<06:08, 12.29s/it]Train NLL: 1.080, Val NLL: 1.157:  90%|█████████ | 271/300 [49:47<05:53, 12.19s/it]Epoch   272: reducing learning rate of group 0 to 1.0000e-05.
Train NLL: 1.078, Val NLL: 1.158:  91%|█████████ | 272/300 [49:59<05:42, 12.23s/it]Train NLL: 1.072, Val NLL: 1.157:  91%|█████████ | 273/300 [50:12<05:35, 12.42s/it]Train NLL: 1.072, Val NLL: 1.156:  91%|█████████▏| 274/300 [50:26<05:37, 12.99s/it]Train NLL: 1.071, Val NLL: 1.156:  92%|█████████▏| 275/300 [50:39<05:23, 12.94s/it]Train NLL: 1.071, Val NLL: 1.156:  92%|█████████▏| 276/300 [50:51<05:04, 12.69s/it]Train NLL: 1.071, Val NLL: 1.157:  92%|█████████▏| 277/300 [51:03<04:47, 12.52s/it]Train NLL: 1.072, Val NLL: 1.156:  93%|█████████▎| 278/300 [51:15<04:33, 12.43s/it]Train NLL: 1.072, Val NLL: 1.156:  93%|█████████▎| 279/300 [51:30<04:37, 13.21s/it]Train NLL: 1.072, Val NLL: 1.156:  93%|█████████▎| 280/300 [51:42<04:13, 12.67s/it]Train NLL: 1.072, Val NLL: 1.157:  94%|█████████▎| 281/300 [51:53<03:53, 12.30s/it]Train NLL: 1.072, Val NLL: 1.157:  94%|█████████▍| 282/300 [52:05<03:39, 12.19s/it]Train NLL: 1.071, Val NLL: 1.156:  94%|█████████▍| 283/300 [52:17<03:24, 12.06s/it]Train NLL: 1.071, Val NLL: 1.157:  95%|█████████▍| 284/300 [52:30<03:17, 12.33s/it]Train NLL: 1.072, Val NLL: 1.156:  95%|█████████▌| 285/300 [52:44<03:12, 12.84s/it]Train NLL: 1.072, Val NLL: 1.156:  95%|█████████▌| 286/300 [52:55<02:54, 12.43s/it]Train NLL: 1.071, Val NLL: 1.156:  96%|█████████▌| 287/300 [53:07<02:36, 12.06s/it]Train NLL: 1.071, Val NLL: 1.156:  96%|█████████▌| 288/300 [53:19<02:25, 12.14s/it]Train NLL: 1.072, Val NLL: 1.156:  96%|█████████▋| 289/300 [53:32<02:17, 12.53s/it]Train NLL: 1.072, Val NLL: 1.156:  97%|█████████▋| 290/300 [53:48<02:14, 13.48s/it]Train NLL: 1.072, Val NLL: 1.156:  97%|█████████▋| 291/300 [54:00<01:57, 13.08s/it]Train NLL: 1.071, Val NLL: 1.156:  97%|█████████▋| 292/300 [54:12<01:40, 12.60s/it]Train NLL: 1.072, Val NLL: 1.156:  98%|█████████▊| 293/300 [54:24<01:27, 12.49s/it]Train NLL: 1.072, Val NLL: 1.156:  98%|█████████▊| 294/300 [54:35<01:12, 12.08s/it]Train NLL: 1.072, Val NLL: 1.156:  98%|█████████▊| 295/300 [54:48<01:01, 12.33s/it]Train NLL: 1.072, Val NLL: 1.156:  99%|█████████▊| 296/300 [55:03<00:52, 13.03s/it]Epoch   297: reducing learning rate of group 0 to 1.0000e-06.
Train NLL: 1.071, Val NLL: 1.156:  99%|█████████▉| 297/300 [55:15<00:38, 12.91s/it]Train NLL: 1.071, Val NLL: 1.156:  99%|█████████▉| 298/300 [55:28<00:25, 12.78s/it]Train NLL: 1.071, Val NLL: 1.156: 100%|█████████▉| 299/300 [55:39<00:12, 12.46s/it]Train NLL: 1.071, Val NLL: 1.156: 100%|██████████| 300/300 [55:52<00:00, 12.46s/it]Train NLL: 1.071, Val NLL: 1.156: 100%|██████████| 300/300 [55:52<00:00, 11.17s/it]
INFO - residual_nf - Completed after 0:55:54
