INFO - siren_vae - Running command 'run'
INFO - siren_vae - Started run with ID "2"
[ENCODED STRUCTURE] Updating BN structure to be fully-connected.
[MODEL TYPE] IW-SIReN-VAE with DReG (k=8)
  0%|          | 0/300 [00:00<?, ?it/s]Train -ELBO: 52.10319, Val -ELBO: 43.74126:   0%|          | 1/300 [01:07<5:34:46, 67.18s/it]Train -ELBO: 42.84890, Val -ELBO: 41.00808:   1%|          | 2/300 [02:14<5:35:11, 67.49s/it]Train -ELBO: 38.79231, Val -ELBO: 37.46773:   1%|          | 3/300 [03:29<5:49:27, 70.60s/it]Train -ELBO: 37.18333, Val -ELBO: 36.95676:   1%|▏         | 4/300 [04:46<6:00:45, 73.13s/it]Train -ELBO: 36.82718, Val -ELBO: 36.64307:   2%|▏         | 5/300 [06:07<6:13:30, 75.97s/it]Train -ELBO: 36.48584, Val -ELBO: 36.36423:   2%|▏         | 6/300 [07:30<6:23:59, 78.37s/it]Train -ELBO: 36.29208, Val -ELBO: 36.21596:   2%|▏         | 7/300 [08:52<6:28:40, 79.59s/it]Train -ELBO: 36.04592, Val -ELBO: 35.88615:   3%|▎         | 8/300 [10:16<6:34:42, 81.10s/it]Train -ELBO: 35.73342, Val -ELBO: 35.55015:   3%|▎         | 9/300 [11:41<6:39:27, 82.36s/it]Train -ELBO: 35.45307, Val -ELBO: 35.37600:   3%|▎         | 10/300 [13:06<6:42:08, 83.20s/it]Train -ELBO: 35.36222, Val -ELBO: 35.35214:   4%|▎         | 11/300 [14:32<6:43:50, 83.84s/it]Train -ELBO: 35.32964, Val -ELBO: 35.28774:   4%|▍         | 12/300 [15:57<6:44:17, 84.23s/it]Train -ELBO: 35.30062, Val -ELBO: 35.30607:   4%|▍         | 13/300 [17:22<6:44:22, 84.54s/it]Train -ELBO: 35.27667, Val -ELBO: 35.25266:   5%|▍         | 14/300 [18:47<6:43:47, 84.71s/it]Train -ELBO: 35.24374, Val -ELBO: 35.24644:   5%|▌         | 15/300 [20:12<6:43:10, 84.88s/it]Train -ELBO: 35.19391, Val -ELBO: 35.21494:   5%|▌         | 16/300 [21:38<6:42:07, 84.96s/it]Train -ELBO: 35.18497, Val -ELBO: 35.19647:   6%|▌         | 17/300 [23:04<6:42:09, 85.26s/it]Train -ELBO: 35.17084, Val -ELBO: 35.17276:   6%|▌         | 18/300 [24:31<6:43:10, 85.78s/it]Train -ELBO: 35.15677, Val -ELBO: 35.16485:   6%|▋         | 19/300 [25:58<6:43:26, 86.14s/it]Train -ELBO: 35.15753, Val -ELBO: 35.16450:   7%|▋         | 20/300 [27:24<6:43:07, 86.38s/it]Train -ELBO: 35.14537, Val -ELBO: 35.15727:   7%|▋         | 21/300 [28:52<6:42:47, 86.62s/it]Train -ELBO: 35.13983, Val -ELBO: 35.16537:   7%|▋         | 22/300 [30:19<6:41:48, 86.72s/it]Train -ELBO: 35.14465, Val -ELBO: 35.15001:   8%|▊         | 23/300 [31:46<6:40:41, 86.79s/it]Train -ELBO: 35.13370, Val -ELBO: 35.12060:   8%|▊         | 24/300 [33:13<6:39:53, 86.93s/it]Train -ELBO: 35.11529, Val -ELBO: 35.13585:   8%|▊         | 25/300 [34:40<6:38:34, 86.96s/it]Train -ELBO: 35.12539, Val -ELBO: 35.12779:   9%|▊         | 26/300 [36:07<6:37:20, 87.01s/it]Train -ELBO: 35.11103, Val -ELBO: 35.17474:   9%|▉         | 27/300 [37:34<6:35:53, 87.01s/it]Train -ELBO: 35.11153, Val -ELBO: 35.11801:   9%|▉         | 28/300 [39:01<6:34:38, 87.05s/it]Train -ELBO: 35.09783, Val -ELBO: 35.11854:  10%|▉         | 29/300 [40:28<6:33:01, 87.02s/it]Train -ELBO: 35.10859, Val -ELBO: 35.13444:  10%|█         | 30/300 [41:55<6:31:36, 87.02s/it]Train -ELBO: 35.10250, Val -ELBO: 35.12534:  10%|█         | 31/300 [43:22<6:30:16, 87.05s/it]Train -ELBO: 35.10495, Val -ELBO: 35.11707:  11%|█         | 32/300 [44:49<6:28:47, 87.04s/it]Train -ELBO: 35.10711, Val -ELBO: 35.12433:  11%|█         | 33/300 [46:16<6:27:27, 87.07s/it]Train -ELBO: 35.09585, Val -ELBO: 35.11479:  11%|█▏        | 34/300 [47:43<6:26:00, 87.07s/it]Train -ELBO: 35.09688, Val -ELBO: 35.11177:  12%|█▏        | 35/300 [49:11<6:24:38, 87.09s/it]Train -ELBO: 35.08746, Val -ELBO: 35.11636:  12%|█▏        | 36/300 [50:38<6:23:10, 87.09s/it]Train -ELBO: 35.09649, Val -ELBO: 35.12594:  12%|█▏        | 37/300 [52:05<6:21:44, 87.09s/it]Train -ELBO: 35.09297, Val -ELBO: 35.09846:  13%|█▎        | 38/300 [53:32<6:20:09, 87.06s/it]Train -ELBO: 35.09784, Val -ELBO: 35.12100:  13%|█▎        | 39/300 [54:59<6:18:38, 87.05s/it]Train -ELBO: 35.09062, Val -ELBO: 35.11947:  13%|█▎        | 40/300 [56:26<6:17:14, 87.06s/it]Train -ELBO: 35.09101, Val -ELBO: 35.12768:  14%|█▎        | 41/300 [57:53<6:15:59, 87.10s/it]Train -ELBO: 35.09151, Val -ELBO: 35.10882:  14%|█▍        | 42/300 [59:20<6:14:25, 87.08s/it]Train -ELBO: 35.08579, Val -ELBO: 35.12479:  14%|█▍        | 43/300 [1:00:47<6:12:58, 87.08s/it]Train -ELBO: 35.08428, Val -ELBO: 35.11225:  15%|█▍        | 44/300 [1:02:14<6:11:31, 87.08s/it]Train -ELBO: 35.08651, Val -ELBO: 35.12941:  15%|█▌        | 45/300 [1:03:41<6:10:09, 87.10s/it]Train -ELBO: 35.08562, Val -ELBO: 35.12830:  15%|█▌        | 46/300 [1:05:08<6:08:33, 87.06s/it]Train -ELBO: 35.08025, Val -ELBO: 35.11592:  16%|█▌        | 47/300 [1:06:35<6:07:08, 87.07s/it]Train -ELBO: 35.08184, Val -ELBO: 35.12437:  16%|█▌        | 48/300 [1:08:03<6:06:42, 87.31s/it]Train -ELBO: 35.07592, Val -ELBO: 35.11712:  16%|█▋        | 49/300 [1:09:31<6:05:34, 87.39s/it]Train -ELBO: 35.07702, Val -ELBO: 35.11270:  17%|█▋        | 50/300 [1:10:58<6:03:35, 87.26s/it]Train -ELBO: 35.08086, Val -ELBO: 35.13179:  17%|█▋        | 51/300 [1:12:25<6:01:58, 87.22s/it]Train -ELBO: 35.07460, Val -ELBO: 35.13181:  17%|█▋        | 52/300 [1:13:52<6:00:31, 87.22s/it]Train -ELBO: 35.06705, Val -ELBO: 35.12581:  18%|█▊        | 53/300 [1:15:19<5:58:49, 87.17s/it]Train -ELBO: 35.07748, Val -ELBO: 35.11801:  18%|█▊        | 54/300 [1:16:46<5:57:11, 87.12s/it]Train -ELBO: 35.06749, Val -ELBO: 35.09957:  18%|█▊        | 55/300 [1:18:13<5:55:54, 87.16s/it]Train -ELBO: 35.07285, Val -ELBO: 35.11838:  19%|█▊        | 56/300 [1:19:41<5:54:20, 87.13s/it]Train -ELBO: 35.07138, Val -ELBO: 35.12831:  19%|█▉        | 57/300 [1:21:08<5:52:48, 87.11s/it]Train -ELBO: 35.06491, Val -ELBO: 35.11305:  19%|█▉        | 58/300 [1:22:35<5:51:25, 87.13s/it]Train -ELBO: 35.06972, Val -ELBO: 35.10906:  20%|█▉        | 59/300 [1:24:02<5:49:54, 87.11s/it]Train -ELBO: 35.07118, Val -ELBO: 35.11032:  20%|██        | 60/300 [1:25:29<5:48:23, 87.10s/it]Train -ELBO: 35.06981, Val -ELBO: 35.10783:  20%|██        | 61/300 [1:26:56<5:47:11, 87.16s/it]Train -ELBO: 35.07598, Val -ELBO: 35.11646:  21%|██        | 62/300 [1:28:23<5:45:50, 87.19s/it]Train -ELBO: 35.06405, Val -ELBO: 35.13060:  21%|██        | 63/300 [1:29:51<5:44:21, 87.18s/it]Train -ELBO: 35.06954, Val -ELBO: 35.11238:  21%|██▏       | 64/300 [1:31:18<5:42:48, 87.16s/it]Train -ELBO: 35.06538, Val -ELBO: 35.11104:  22%|██▏       | 65/300 [1:32:45<5:41:22, 87.16s/it]Train -ELBO: 35.06825, Val -ELBO: 35.11457:  22%|██▏       | 66/300 [1:34:12<5:40:12, 87.23s/it]Train -ELBO: 35.06344, Val -ELBO: 35.12149:  22%|██▏       | 67/300 [1:35:39<5:38:34, 87.19s/it]Train -ELBO: 35.06536, Val -ELBO: 35.10369:  23%|██▎       | 68/300 [1:37:07<5:37:20, 87.24s/it]Train -ELBO: 35.06981, Val -ELBO: 35.10599:  23%|██▎       | 69/300 [1:38:34<5:35:47, 87.22s/it]Train -ELBO: 35.05893, Val -ELBO: 35.12641:  23%|██▎       | 70/300 [1:40:01<5:34:19, 87.21s/it]Train -ELBO: 35.06043, Val -ELBO: 35.11431:  24%|██▎       | 71/300 [1:41:28<5:32:48, 87.20s/it]Train -ELBO: 35.06458, Val -ELBO: 35.13060:  24%|██▍       | 72/300 [1:42:55<5:31:18, 87.18s/it]Train -ELBO: 35.06012, Val -ELBO: 35.13119:  24%|██▍       | 73/300 [1:44:23<5:29:55, 87.20s/it]Train -ELBO: 35.05129, Val -ELBO: 35.12090:  25%|██▍       | 74/300 [1:45:50<5:28:17, 87.16s/it]Train -ELBO: 35.05958, Val -ELBO: 35.11231:  25%|██▌       | 75/300 [1:47:17<5:27:00, 87.20s/it]Train -ELBO: 35.05102, Val -ELBO: 35.11806:  25%|██▌       | 76/300 [1:48:44<5:25:32, 87.20s/it]Train -ELBO: 35.05576, Val -ELBO: 35.12728:  26%|██▌       | 77/300 [1:50:11<5:24:08, 87.21s/it]Train -ELBO: 35.05365, Val -ELBO: 35.11640:  26%|██▌       | 78/300 [1:51:39<5:22:34, 87.18s/it]Train -ELBO: 35.05658, Val -ELBO: 35.12254:  26%|██▋       | 79/300 [1:53:06<5:21:26, 87.27s/it]Train -ELBO: 35.05758, Val -ELBO: 35.11357:  27%|██▋       | 80/300 [1:54:33<5:19:58, 87.27s/it]Train -ELBO: 35.05032, Val -ELBO: 35.12751:  27%|██▋       | 81/300 [1:56:00<5:18:17, 87.20s/it]Train -ELBO: 35.05427, Val -ELBO: 35.11803:  27%|██▋       | 82/300 [1:57:27<5:16:42, 87.17s/it]Train -ELBO: 35.04768, Val -ELBO: 35.10358:  28%|██▊       | 83/300 [1:58:55<5:15:09, 87.14s/it]Train -ELBO: 35.04518, Val -ELBO: 35.11768:  28%|██▊       | 84/300 [2:00:22<5:13:42, 87.14s/it]Train -ELBO: 35.05351, Val -ELBO: 35.12975:  28%|██▊       | 85/300 [2:01:49<5:12:14, 87.14s/it]Train -ELBO: 35.04751, Val -ELBO: 35.11007:  29%|██▊       | 86/300 [2:03:16<5:10:42, 87.11s/it]Train -ELBO: 35.04963, Val -ELBO: 35.09041:  29%|██▉       | 87/300 [2:04:43<5:09:12, 87.10s/it]Train -ELBO: 35.05324, Val -ELBO: 35.10668:  29%|██▉       | 88/300 [2:06:10<5:07:33, 87.05s/it]Train -ELBO: 35.04470, Val -ELBO: 35.11458:  30%|██▉       | 89/300 [2:07:37<5:06:18, 87.10s/it]Train -ELBO: 35.04995, Val -ELBO: 35.12830:  30%|███       | 90/300 [2:09:04<5:04:42, 87.06s/it]Train -ELBO: 35.05123, Val -ELBO: 35.10866:  30%|███       | 91/300 [2:10:30<5:02:23, 86.81s/it]Train -ELBO: 35.04697, Val -ELBO: 35.08563:  31%|███       | 92/300 [2:11:56<4:59:47, 86.48s/it]Train -ELBO: 35.04743, Val -ELBO: 35.12653:  31%|███       | 93/300 [2:13:22<4:57:46, 86.31s/it]Train -ELBO: 35.05150, Val -ELBO: 35.13763:  31%|███▏      | 94/300 [2:14:48<4:56:22, 86.32s/it]Train -ELBO: 35.04517, Val -ELBO: 35.10181:  32%|███▏      | 95/300 [2:16:15<4:55:03, 86.36s/it]Train -ELBO: 35.04104, Val -ELBO: 35.11564:  32%|███▏      | 96/300 [2:17:40<4:53:02, 86.19s/it]Train -ELBO: 35.04921, Val -ELBO: 35.11731:  32%|███▏      | 97/300 [2:19:06<4:50:45, 85.94s/it]Train -ELBO: 35.04733, Val -ELBO: 35.10871:  33%|███▎      | 98/300 [2:20:30<4:47:50, 85.50s/it]Train -ELBO: 35.04765, Val -ELBO: 35.10320:  33%|███▎      | 99/300 [2:21:55<4:45:33, 85.24s/it]Train -ELBO: 35.04637, Val -ELBO: 35.14464:  33%|███▎      | 100/300 [2:23:21<4:45:12, 85.56s/it]Train -ELBO: 35.04814, Val -ELBO: 35.11760:  34%|███▎      | 101/300 [2:24:47<4:44:05, 85.65s/it]Train -ELBO: 35.04311, Val -ELBO: 35.10233:  34%|███▍      | 102/300 [2:26:12<4:42:15, 85.53s/it]Train -ELBO: 35.04590, Val -ELBO: 35.11554:  34%|███▍      | 103/300 [2:27:38<4:40:27, 85.42s/it]Train -ELBO: 35.03653, Val -ELBO: 35.10649:  35%|███▍      | 104/300 [2:29:03<4:39:00, 85.41s/it]Train -ELBO: 35.03627, Val -ELBO: 35.11134:  35%|███▌      | 105/300 [2:30:28<4:36:49, 85.17s/it]Train -ELBO: 35.03877, Val -ELBO: 35.12587:  35%|███▌      | 106/300 [2:31:52<4:34:39, 84.95s/it]Train -ELBO: 35.04001, Val -ELBO: 35.13134:  36%|███▌      | 107/300 [2:33:16<4:32:14, 84.64s/it]Train -ELBO: 35.04086, Val -ELBO: 35.12352:  36%|███▌      | 108/300 [2:34:40<4:30:25, 84.51s/it]Train -ELBO: 35.04515, Val -ELBO: 35.10776:  36%|███▋      | 109/300 [2:36:04<4:28:35, 84.38s/it]Train -ELBO: 35.02968, Val -ELBO: 35.13448:  37%|███▋      | 110/300 [2:37:29<4:27:35, 84.51s/it]Train -ELBO: 35.03584, Val -ELBO: 35.12444:  37%|███▋      | 111/300 [2:38:54<4:26:50, 84.71s/it]Train -ELBO: 35.03748, Val -ELBO: 35.11129:  37%|███▋      | 112/300 [2:40:19<4:25:42, 84.80s/it]Train -ELBO: 35.03692, Val -ELBO: 35.12667:  38%|███▊      | 113/300 [2:41:44<4:24:38, 84.91s/it]Train -ELBO: 35.03050, Val -ELBO: 35.11533:  38%|███▊      | 114/300 [2:43:09<4:23:25, 84.97s/it]Train -ELBO: 35.03802, Val -ELBO: 35.12116:  38%|███▊      | 115/300 [2:44:35<4:22:30, 85.14s/it]Train -ELBO: 35.02971, Val -ELBO: 35.10868:  39%|███▊      | 116/300 [2:46:00<4:21:15, 85.19s/it]Train -ELBO: 35.02808, Val -ELBO: 35.10752:  39%|███▉      | 117/300 [2:47:25<4:19:30, 85.09s/it]Train -ELBO: 35.03289, Val -ELBO: 35.12810:  39%|███▉      | 118/300 [2:48:49<4:17:00, 84.73s/it]Train -ELBO: 35.04371, Val -ELBO: 35.11480:  40%|███▉      | 119/300 [2:50:14<4:16:04, 84.89s/it]Train -ELBO: 35.03332, Val -ELBO: 35.10687:  40%|████      | 120/300 [2:51:40<4:15:01, 85.01s/it]Train -ELBO: 35.02681, Val -ELBO: 35.12033:  40%|████      | 121/300 [2:53:05<4:13:59, 85.14s/it]Train -ELBO: 35.02775, Val -ELBO: 35.11659:  41%|████      | 122/300 [2:54:30<4:12:10, 85.00s/it]Train -ELBO: 35.03399, Val -ELBO: 35.14635:  41%|████      | 123/300 [2:55:55<4:10:54, 85.05s/it]Train -ELBO: 35.03389, Val -ELBO: 35.13738:  41%|████▏     | 124/300 [2:57:20<4:09:25, 85.03s/it]Train -ELBO: 35.02759, Val -ELBO: 35.12055:  42%|████▏     | 125/300 [2:58:43<4:06:39, 84.57s/it]Train -ELBO: 35.02892, Val -ELBO: 35.11150:  42%|████▏     | 126/300 [3:00:07<4:04:21, 84.26s/it]Train -ELBO: 35.03038, Val -ELBO: 35.12045:  42%|████▏     | 127/300 [3:01:30<4:02:09, 83.99s/it]Train -ELBO: 35.02631, Val -ELBO: 35.11577:  43%|████▎     | 128/300 [3:02:54<4:00:20, 83.84s/it]Train -ELBO: 35.02811, Val -ELBO: 35.12415:  43%|████▎     | 129/300 [3:04:17<3:58:34, 83.71s/it]Train -ELBO: 35.03052, Val -ELBO: 35.10567:  43%|████▎     | 130/300 [3:05:40<3:56:47, 83.58s/it]Epoch   131: reducing learning rate of group 0 to 1.0000e-04.
Train -ELBO: 35.02955, Val -ELBO: 35.11112:  44%|████▎     | 131/300 [3:07:04<3:55:20, 83.55s/it]Train -ELBO: 34.97149, Val -ELBO: 35.08259:  44%|████▍     | 132/300 [3:08:27<3:53:44, 83.48s/it]Train -ELBO: 34.96519, Val -ELBO: 35.07405:  44%|████▍     | 133/300 [3:09:51<3:52:17, 83.46s/it]Train -ELBO: 34.96120, Val -ELBO: 35.07713:  45%|████▍     | 134/300 [3:11:14<3:51:00, 83.50s/it]Train -ELBO: 34.96274, Val -ELBO: 35.07348:  45%|████▌     | 135/300 [3:12:38<3:49:30, 83.45s/it]Train -ELBO: 34.95557, Val -ELBO: 35.07845:  45%|████▌     | 136/300 [3:14:01<3:48:04, 83.44s/it]Train -ELBO: 34.95694, Val -ELBO: 35.07981:  46%|████▌     | 137/300 [3:15:25<3:46:55, 83.53s/it]Train -ELBO: 34.95904, Val -ELBO: 35.07511:  46%|████▌     | 138/300 [3:16:48<3:45:27, 83.50s/it]Train -ELBO: 34.95978, Val -ELBO: 35.07649:  46%|████▋     | 139/300 [3:18:12<3:44:14, 83.57s/it]Train -ELBO: 34.96236, Val -ELBO: 35.07908:  47%|████▋     | 140/300 [3:19:35<3:42:53, 83.58s/it]Train -ELBO: 34.95836, Val -ELBO: 35.07925:  47%|████▋     | 141/300 [3:20:59<3:41:20, 83.52s/it]Train -ELBO: 34.95964, Val -ELBO: 35.07505:  47%|████▋     | 142/300 [3:22:22<3:39:48, 83.47s/it]Train -ELBO: 34.95813, Val -ELBO: 35.07573:  48%|████▊     | 143/300 [3:23:46<3:38:27, 83.49s/it]Train -ELBO: 34.95804, Val -ELBO: 35.07496:  48%|████▊     | 144/300 [3:25:09<3:36:59, 83.46s/it]Train -ELBO: 34.96009, Val -ELBO: 35.07529:  48%|████▊     | 145/300 [3:26:33<3:35:36, 83.46s/it]Train -ELBO: 34.95994, Val -ELBO: 35.07788:  49%|████▊     | 146/300 [3:27:56<3:34:16, 83.48s/it]Train -ELBO: 34.95554, Val -ELBO: 35.07545:  49%|████▉     | 147/300 [3:29:20<3:32:55, 83.50s/it]Train -ELBO: 34.95760, Val -ELBO: 35.07969:  49%|████▉     | 148/300 [3:30:43<3:31:29, 83.48s/it]Train -ELBO: 34.95804, Val -ELBO: 35.07868:  50%|████▉     | 149/300 [3:32:07<3:30:09, 83.50s/it]Train -ELBO: 34.96105, Val -ELBO: 35.07403:  50%|█████     | 150/300 [3:33:30<3:28:44, 83.49s/it]Train -ELBO: 34.95762, Val -ELBO: 35.07207:  50%|█████     | 151/300 [3:34:54<3:27:32, 83.58s/it]Train -ELBO: 34.95679, Val -ELBO: 35.07728:  51%|█████     | 152/300 [3:36:17<3:26:07, 83.56s/it]Train -ELBO: 34.96057, Val -ELBO: 35.07875:  51%|█████     | 153/300 [3:37:41<3:24:42, 83.56s/it]Train -ELBO: 34.95654, Val -ELBO: 35.07977:  51%|█████▏    | 154/300 [3:39:05<3:23:39, 83.70s/it]Train -ELBO: 34.95705, Val -ELBO: 35.07521:  52%|█████▏    | 155/300 [3:40:29<3:22:09, 83.65s/it]Train -ELBO: 34.95420, Val -ELBO: 35.07488:  52%|█████▏    | 156/300 [3:41:52<3:20:42, 83.63s/it]Epoch   157: reducing learning rate of group 0 to 1.0000e-05.
Train -ELBO: 34.95662, Val -ELBO: 35.07434:  52%|█████▏    | 157/300 [3:43:16<3:19:21, 83.64s/it]Train -ELBO: 34.95101, Val -ELBO: 35.07372:  53%|█████▎    | 158/300 [3:44:39<3:17:58, 83.65s/it]Train -ELBO: 34.94906, Val -ELBO: 35.07466:  53%|█████▎    | 159/300 [3:46:03<3:16:39, 83.68s/it]Train -ELBO: 34.94676, Val -ELBO: 35.07365:  53%|█████▎    | 160/300 [3:47:27<3:15:14, 83.68s/it]Train -ELBO: 34.94786, Val -ELBO: 35.07740:  54%|█████▎    | 161/300 [3:48:51<3:13:52, 83.69s/it]Train -ELBO: 34.95095, Val -ELBO: 35.07112:  54%|█████▍    | 162/300 [3:50:14<3:12:32, 83.71s/it]Train -ELBO: 34.95045, Val -ELBO: 35.07532:  54%|█████▍    | 163/300 [3:51:38<3:11:07, 83.70s/it]Train -ELBO: 34.94856, Val -ELBO: 35.08024:  55%|█████▍    | 164/300 [3:53:02<3:09:41, 83.69s/it]Train -ELBO: 34.94643, Val -ELBO: 35.07257:  55%|█████▌    | 165/300 [3:54:25<3:08:20, 83.70s/it]Train -ELBO: 34.94924, Val -ELBO: 35.07079:  55%|█████▌    | 166/300 [3:55:49<3:06:54, 83.69s/it]Train -ELBO: 34.94707, Val -ELBO: 35.07872:  56%|█████▌    | 167/300 [3:57:13<3:05:29, 83.68s/it]Train -ELBO: 34.94579, Val -ELBO: 35.07606:  56%|█████▌    | 168/300 [3:58:36<3:04:07, 83.69s/it]Train -ELBO: 34.94687, Val -ELBO: 35.07228:  56%|█████▋    | 169/300 [4:00:00<3:02:39, 83.66s/it]Train -ELBO: 34.94879, Val -ELBO: 35.07592:  57%|█████▋    | 170/300 [4:01:24<3:01:29, 83.76s/it]Train -ELBO: 34.94962, Val -ELBO: 35.07665:  57%|█████▋    | 171/300 [4:02:48<3:00:04, 83.75s/it]Train -ELBO: 34.94959, Val -ELBO: 35.08064:  57%|█████▋    | 172/300 [4:04:12<2:58:39, 83.75s/it]Train -ELBO: 34.94571, Val -ELBO: 35.07022:  58%|█████▊    | 173/300 [4:05:35<2:57:17, 83.76s/it]Train -ELBO: 34.94934, Val -ELBO: 35.07619:  58%|█████▊    | 174/300 [4:06:59<2:55:47, 83.71s/it]Train -ELBO: 34.94673, Val -ELBO: 35.07652:  58%|█████▊    | 175/300 [4:08:23<2:54:19, 83.68s/it]Train -ELBO: 34.94897, Val -ELBO: 35.07372:  59%|█████▊    | 176/300 [4:09:48<2:54:00, 84.20s/it]Train -ELBO: 34.94766, Val -ELBO: 35.07199:  59%|█████▉    | 177/300 [4:11:12<2:52:18, 84.05s/it]Train -ELBO: 34.94996, Val -ELBO: 35.07986:  59%|█████▉    | 178/300 [4:12:35<2:50:45, 83.98s/it]Train -ELBO: 34.94741, Val -ELBO: 35.07596:  60%|█████▉    | 179/300 [4:13:59<2:49:14, 83.92s/it]Train -ELBO: 34.95119, Val -ELBO: 35.08026:  60%|██████    | 180/300 [4:15:23<2:47:44, 83.87s/it]Epoch   181: reducing learning rate of group 0 to 1.0000e-06.
Train -ELBO: 34.95047, Val -ELBO: 35.07877:  60%|██████    | 181/300 [4:16:47<2:46:19, 83.86s/it]Train -ELBO: 34.94525, Val -ELBO: 35.07305:  61%|██████    | 182/300 [4:18:11<2:44:51, 83.82s/it]Train -ELBO: 34.94654, Val -ELBO: 35.07627:  61%|██████    | 183/300 [4:19:34<2:43:24, 83.80s/it]Train -ELBO: 34.94750, Val -ELBO: 35.07741:  61%|██████▏   | 184/300 [4:20:58<2:42:01, 83.81s/it]Train -ELBO: 34.94473, Val -ELBO: 35.07616:  62%|██████▏   | 185/300 [4:22:22<2:40:35, 83.79s/it]Train -ELBO: 34.94799, Val -ELBO: 35.07812:  62%|██████▏   | 186/300 [4:23:56<2:45:12, 86.95s/it]