INFO - residual_nf - Running command 'run'
INFO - residual_nf - Started run with ID "3"
[CONFIG] {'bn': 'mehra-real', 'structure': 'faithful', 'coeff': 0.99, 'n_power_iterations': 5, 'num_blocks': 4, 'hidden_dims': [100], 'activation': 'lipmish', 'grad_in_forward': True, 'batch_size': 100, 'num_train_samples': 10000, 'num_val_samples': 5000, 'num_epochs': 300, 'num_train_batches': 100, 'num_val_batches': 50, 'lr': 0.01, 'seed': 2, 'patience': 20, 'double': True, 'run': 1, 'checkpoint_n': 10, 'load_from_checkpoint': False, 'ex_name': 'residual_nf_density_estimation', 'sub_folder': 'faithful_99_lipmish_4_[100]', 'path': './experiment_logs/residual_nf_density_estimation/mehra-real/faithful_99_lipmish_4_[100]', 'bt_config': {'depth': 5, 'seed': 4}}
[DEVICE] cpu
[LOADING DATA] Mehra
[ENCODED STRUCTURE] Using faithful BN structure.
  0%|          | 0/300 [00:00<?, ?it/s]Train NLL: 11.633, Val NLL: 11.444:   1%|          | 2/300 [00:01<04:47,  1.04it/s]Train NLL: 11.424, Val NLL: 11.346:   1%|▏         | 4/300 [00:04<04:59,  1.01s/it]Train NLL: 11.363, Val NLL: 11.282:   2%|▏         | 5/300 [00:05<04:58,  1.01s/it]Train NLL: 11.293, Val NLL: 11.210:   2%|▏         | 7/300 [00:06<04:44,  1.03it/s]Train NLL: 11.238, Val NLL: 11.198:   3%|▎         | 9/300 [00:08<04:18,  1.12it/s]Train NLL: 11.226, Val NLL: 11.128:   4%|▎         | 11/300 [00:09<04:03,  1.19it/s]Train NLL: 11.203, Val NLL: 11.130:   4%|▍         | 13/300 [00:11<03:57,  1.21it/s]Train NLL: 11.185, Val NLL: 11.087:   5%|▌         | 15/300 [00:13<03:52,  1.22it/s]Train NLL: 11.169, Val NLL: 11.111:   6%|▌         | 17/300 [00:15<04:06,  1.15it/s]Train NLL: 11.166, Val NLL: 11.121:   6%|▋         | 19/300 [00:17<04:22,  1.07it/s]Train NLL: 11.160, Val NLL: 11.112:   7%|▋         | 21/300 [00:18<04:11,  1.11it/s]Train NLL: 11.142, Val NLL: 11.065:   8%|▊         | 23/300 [00:20<03:56,  1.17it/s]Train NLL: 11.149, Val NLL: 11.125:   8%|▊         | 25/300 [00:21<03:49,  1.20it/s]Train NLL: 11.153, Val NLL: 11.102:   9%|▉         | 27/300 [00:23<03:45,  1.21it/s]Train NLL: 11.140, Val NLL: 11.108:  10%|▉         | 29/300 [00:25<03:41,  1.23it/s]Train NLL: 11.131, Val NLL: 11.067:  10%|█         | 31/300 [00:26<03:36,  1.24it/s]Train NLL: 11.125, Val NLL: 11.091:  11%|█         | 33/300 [00:28<03:35,  1.24it/s]Train NLL: 11.116, Val NLL: 11.050:  12%|█▏        | 35/300 [00:29<03:34,  1.24it/s]Train NLL: 11.111, Val NLL: 11.030:  12%|█▏        | 37/300 [00:31<03:48,  1.15it/s]Train NLL: 11.116, Val NLL: 11.054:  13%|█▎        | 39/300 [00:34<04:01,  1.08it/s]Train NLL: 11.128, Val NLL: 11.074:  14%|█▎        | 41/300 [00:35<03:55,  1.10it/s]Train NLL: 11.110, Val NLL: 11.059:  14%|█▍        | 43/300 [00:37<03:47,  1.13it/s]Train NLL: 11.107, Val NLL: 11.061:  15%|█▌        | 45/300 [00:39<03:41,  1.15it/s]Train NLL: 11.104, Val NLL: 11.046:  16%|█▌        | 47/300 [00:40<03:31,  1.19it/s]Train NLL: 11.113, Val NLL: 11.058:  16%|█▋        | 49/300 [00:42<03:36,  1.16it/s]Train NLL: 11.107, Val NLL: 11.078:  17%|█▋        | 51/300 [00:44<03:31,  1.18it/s]Train NLL: 11.111, Val NLL: 11.032:  18%|█▊        | 53/300 [00:45<03:23,  1.21it/s]Train NLL: 11.104, Val NLL: 11.062:  18%|█▊        | 55/300 [00:47<03:24,  1.20it/s]Train NLL: 11.095, Val NLL: 11.070:  19%|█▉        | 57/300 [00:49<03:31,  1.15it/s]Train NLL: 11.105, Val NLL: 11.040:  20%|█▉        | 59/300 [00:51<03:33,  1.13it/s]Train NLL: 11.095, Val NLL: 11.026:  20%|██        | 61/300 [00:52<03:25,  1.16it/s]Train NLL: 11.087, Val NLL: 11.015:  21%|██        | 63/300 [00:54<03:16,  1.21it/s]Train NLL: 11.096, Val NLL: 11.046:  22%|██▏       | 65/300 [00:55<03:13,  1.22it/s]Train NLL: 11.092, Val NLL: 11.052:  22%|██▏       | 67/300 [00:57<03:08,  1.24it/s]Train NLL: 11.095, Val NLL: 11.059:  23%|██▎       | 69/300 [00:59<03:06,  1.24it/s]Train NLL: 11.080, Val NLL: 11.024:  24%|██▎       | 71/300 [01:00<03:09,  1.21it/s]Train NLL: 11.084, Val NLL: 11.053:  24%|██▍       | 73/300 [01:02<03:04,  1.23it/s]Train NLL: 11.087, Val NLL: 11.039:  25%|██▌       | 75/300 [01:03<02:59,  1.26it/s]Train NLL: 11.093, Val NLL: 11.014:  26%|██▌       | 77/300 [01:05<02:59,  1.24it/s]Train NLL: 11.091, Val NLL: 11.051:  26%|██▋       | 79/300 [01:07<03:09,  1.17it/s]Train NLL: 11.075, Val NLL: 11.023:  27%|██▋       | 81/300 [01:09<03:19,  1.10it/s]Train NLL: 11.095, Val NLL: 11.023:  28%|██▊       | 83/300 [01:11<03:19,  1.09it/s]Train NLL: 11.080, Val NLL: 11.014:  28%|██▊       | 85/300 [01:12<03:07,  1.15it/s]Train NLL: 11.082, Val NLL: 11.021:  29%|██▉       | 87/300 [01:14<02:58,  1.19it/s]Train NLL: 11.076, Val NLL: 11.051:  30%|██▉       | 89/300 [01:16<02:53,  1.21it/s]Train NLL: 11.083, Val NLL: 11.012:  30%|███       | 91/300 [01:18<03:06,  1.12it/s]Train NLL: 11.081, Val NLL: 11.009:  31%|███       | 93/300 [01:20<03:14,  1.06it/s]Train NLL: 11.080, Val NLL: 11.015:  32%|███▏      | 95/300 [01:22<03:11,  1.07it/s]Train NLL: 11.076, Val NLL: 11.024:  32%|███▏      | 97/300 [01:23<03:05,  1.10it/s]Train NLL: 11.066, Val NLL: 11.055:  33%|███▎      | 99/300 [01:25<02:53,  1.16it/s]Train NLL: 11.075, Val NLL: 11.030:  34%|███▎      | 101/300 [01:26<02:47,  1.19it/s]Train NLL: 11.081, Val NLL: 11.038:  34%|███▍      | 103/300 [01:28<02:40,  1.23it/s]Train NLL: 11.076, Val NLL: 11.017:  35%|███▌      | 105/300 [01:30<02:38,  1.23it/s]Train NLL: 11.065, Val NLL: 11.022:  36%|███▌      | 107/300 [01:31<02:38,  1.21it/s]Train NLL: 11.073, Val NLL: 11.012:  36%|███▋      | 109/300 [01:33<02:34,  1.24it/s]Train NLL: 11.076, Val NLL: 11.015:  37%|███▋      | 111/300 [01:34<02:35,  1.22it/s]Train NLL: 11.074, Val NLL: 11.018:  38%|███▊      | 113/300 [01:36<02:30,  1.24it/s]Train NLL: 11.068, Val NLL: 11.007:  38%|███▊      | 115/300 [01:38<02:27,  1.25it/s]Train NLL: 11.079, Val NLL: 11.021:  39%|███▉      | 117/300 [01:39<02:23,  1.28it/s]Train NLL: 11.080, Val NLL: 11.014:  40%|███▉      | 119/300 [01:41<02:22,  1.27it/s]Epoch   120: reducing learning rate of group 0 to 1.0000e-03.
Train NLL: 11.039, Val NLL: 10.988:  40%|████      | 121/300 [01:42<02:24,  1.24it/s]Train NLL: 11.026, Val NLL: 10.988:  41%|████      | 123/300 [01:44<02:20,  1.26it/s]Train NLL: 11.024, Val NLL: 10.988:  42%|████▏     | 125/300 [01:45<02:16,  1.28it/s]Train NLL: 11.022, Val NLL: 10.989:  42%|████▏     | 127/300 [01:47<02:12,  1.30it/s]Train NLL: 11.024, Val NLL: 10.988:  43%|████▎     | 129/300 [01:49<02:13,  1.28it/s]Train NLL: 11.023, Val NLL: 10.986:  44%|████▎     | 131/300 [01:50<02:12,  1.27it/s]Train NLL: 11.024, Val NLL: 10.989:  44%|████▍     | 133/300 [01:52<02:13,  1.25it/s]Train NLL: 11.023, Val NLL: 10.986:  45%|████▌     | 135/300 [01:53<02:09,  1.27it/s]Train NLL: 11.022, Val NLL: 10.989:  46%|████▌     | 137/300 [01:55<02:12,  1.23it/s]Train NLL: 11.023, Val NLL: 10.987:  46%|████▋     | 139/300 [01:57<02:11,  1.23it/s]Train NLL: 11.025, Val NLL: 10.988:  47%|████▋     | 141/300 [01:58<02:12,  1.20it/s]Train NLL: 11.023, Val NLL: 10.988:  48%|████▊     | 143/300 [02:00<02:09,  1.21it/s]Train NLL: 11.021, Val NLL: 10.988:  48%|████▊     | 145/300 [02:02<02:10,  1.18it/s]Train NLL: 11.022, Val NLL: 10.988:  49%|████▉     | 147/300 [02:03<02:04,  1.23it/s]Epoch   148: reducing learning rate of group 0 to 1.0000e-04.
Train NLL: 11.018, Val NLL: 10.990:  50%|████▉     | 149/300 [02:05<02:00,  1.26it/s]Train NLL: 11.017, Val NLL: 10.988:  50%|█████     | 151/300 [02:07<02:04,  1.20it/s]Train NLL: 11.016, Val NLL: 10.987:  51%|█████     | 153/300 [02:08<02:04,  1.18it/s]Train NLL: 11.016, Val NLL: 10.987:  52%|█████▏    | 155/300 [02:10<02:02,  1.19it/s]Train NLL: 11.016, Val NLL: 10.986:  52%|█████▏    | 157/300 [02:12<02:02,  1.17it/s]Train NLL: 11.015, Val NLL: 10.986:  53%|█████▎    | 159/300 [02:14<02:06,  1.12it/s]Train NLL: 11.016, Val NLL: 10.986:  54%|█████▎    | 161/300 [02:15<02:01,  1.15it/s]Train NLL: 11.015, Val NLL: 10.986:  54%|█████▍    | 163/300 [02:17<01:54,  1.20it/s]Train NLL: 11.016, Val NLL: 10.986:  55%|█████▌    | 165/300 [02:18<01:50,  1.22it/s]Train NLL: 11.015, Val NLL: 10.986:  56%|█████▌    | 167/300 [02:20<01:48,  1.22it/s]Train NLL: 11.015, Val NLL: 10.986:  56%|█████▋    | 169/300 [02:22<01:47,  1.22it/s]Train NLL: 11.015, Val NLL: 10.987:  57%|█████▋    | 171/300 [02:23<01:44,  1.24it/s]Train NLL: 11.015, Val NLL: 10.987:  58%|█████▊    | 173/300 [02:25<01:42,  1.24it/s]Train NLL: 11.015, Val NLL: 10.986:  58%|█████▊    | 175/300 [02:27<01:44,  1.20it/s]Train NLL: 11.015, Val NLL: 10.986:  59%|█████▉    | 177/300 [02:29<01:47,  1.15it/s]Epoch   179: reducing learning rate of group 0 to 1.0000e-05.
Train NLL: 11.015, Val NLL: 10.986:  60%|█████▉    | 179/300 [02:30<01:41,  1.19it/s]Train NLL: 11.015, Val NLL: 10.987:  60%|██████    | 181/300 [02:32<01:38,  1.21it/s]Train NLL: 11.015, Val NLL: 10.987:  61%|██████    | 183/300 [02:33<01:35,  1.23it/s]Train NLL: 11.015, Val NLL: 10.986:  62%|██████▏   | 185/300 [02:35<01:32,  1.25it/s]Train NLL: 11.015, Val NLL: 10.986:  62%|██████▏   | 187/300 [02:36<01:29,  1.26it/s]Train NLL: 11.015, Val NLL: 10.986:  63%|██████▎   | 189/300 [02:38<01:27,  1.27it/s]Train NLL: 11.015, Val NLL: 10.986:  64%|██████▎   | 191/300 [02:39<01:24,  1.28it/s]Train NLL: 11.015, Val NLL: 10.986:  64%|██████▍   | 193/300 [02:41<01:26,  1.24it/s]Train NLL: 11.015, Val NLL: 10.986:  65%|██████▌   | 195/300 [02:43<01:31,  1.14it/s]Train NLL: 11.015, Val NLL: 10.986:  66%|██████▌   | 197/300 [02:45<01:27,  1.17it/s]Train NLL: 11.015, Val NLL: 10.986:  66%|██████▋   | 199/300 [02:46<01:22,  1.22it/s]Train NLL: 11.015, Val NLL: 10.986:  67%|██████▋   | 201/300 [02:48<01:20,  1.24it/s]Train NLL: 11.015, Val NLL: 10.986:  68%|██████▊   | 203/300 [02:49<01:16,  1.26it/s]Train NLL: 11.015, Val NLL: 10.986:  68%|██████▊   | 205/300 [02:51<01:14,  1.27it/s]Train NLL: 11.015, Val NLL: 10.986:  69%|██████▉   | 207/300 [02:53<01:12,  1.29it/s]Train NLL: 11.015, Val NLL: 10.986:  70%|██████▉   | 209/300 [02:54<01:09,  1.30it/s]Train NLL: 11.015, Val NLL: 10.986:  70%|███████   | 211/300 [02:56<01:08,  1.31it/s]Train NLL: 11.015, Val NLL: 10.986:  71%|███████   | 213/300 [02:57<01:08,  1.28it/s]Train NLL: 11.014, Val NLL: 10.986:  72%|███████▏  | 215/300 [02:59<01:10,  1.21it/s]Train NLL: 11.014, Val NLL: 10.986:  72%|███████▏  | 217/300 [03:01<01:09,  1.19it/s]Train NLL: 11.014, Val NLL: 10.986:  73%|███████▎  | 219/300 [03:03<01:10,  1.15it/s]Epoch   221: reducing learning rate of group 0 to 1.0000e-06.
Train NLL: 11.014, Val NLL: 10.986:  74%|███████▎  | 221/300 [03:04<01:06,  1.18it/s]Train NLL: 11.014, Val NLL: 10.986:  74%|███████▍  | 223/300 [03:06<01:06,  1.16it/s]Train NLL: 11.014, Val NLL: 10.986:  75%|███████▌  | 225/300 [03:08<01:02,  1.20it/s]Train NLL: 11.014, Val NLL: 10.986:  76%|███████▌  | 227/300 [03:09<00:58,  1.24it/s]Train NLL: 11.015, Val NLL: 10.986:  76%|███████▋  | 229/300 [03:11<00:56,  1.26it/s]Train NLL: 11.015, Val NLL: 10.986:  77%|███████▋  | 231/300 [03:12<00:54,  1.27it/s]Train NLL: 11.015, Val NLL: 10.986:  78%|███████▊  | 233/300 [03:14<00:53,  1.26it/s]Train NLL: 11.015, Val NLL: 10.986:  78%|███████▊  | 235/300 [03:15<00:51,  1.26it/s]Train NLL: 11.015, Val NLL: 10.986:  79%|███████▉  | 237/300 [03:17<00:50,  1.25it/s]Train NLL: 11.015, Val NLL: 10.986:  80%|███████▉  | 239/300 [03:19<00:52,  1.17it/s]Train NLL: 11.015, Val NLL: 10.986:  80%|████████  | 241/300 [03:21<00:50,  1.17it/s]Train NLL: 11.015, Val NLL: 10.986:  81%|████████  | 243/300 [03:22<00:47,  1.19it/s]Train NLL: 11.015, Val NLL: 10.986:  82%|████████▏ | 245/300 [03:24<00:45,  1.22it/s]Train NLL: 11.014, Val NLL: 10.986:  82%|████████▏ | 247/300 [03:26<00:46,  1.15it/s]Train NLL: 11.014, Val NLL: 10.986:  83%|████████▎ | 249/300 [03:27<00:42,  1.19it/s]Train NLL: 11.014, Val NLL: 10.986:  84%|████████▎ | 251/300 [03:29<00:40,  1.20it/s]Train NLL: 11.014, Val NLL: 10.986:  84%|████████▍ | 253/300 [03:31<00:40,  1.17it/s]Train NLL: 11.014, Val NLL: 10.986:  85%|████████▌ | 255/300 [03:32<00:36,  1.22it/s]Train NLL: 11.014, Val NLL: 10.986:  86%|████████▌ | 257/300 [03:34<00:34,  1.24it/s]Train NLL: 11.014, Val NLL: 10.986:  86%|████████▋ | 259/300 [03:35<00:32,  1.24it/s]Train NLL: 11.014, Val NLL: 10.986:  87%|████████▋ | 261/300 [03:37<00:32,  1.19it/s]Train NLL: 11.014, Val NLL: 10.986:  88%|████████▊ | 263/300 [03:39<00:32,  1.12it/s]Train NLL: 11.014, Val NLL: 10.986:  88%|████████▊ | 265/300 [03:41<00:31,  1.12it/s]Train NLL: 11.014, Val NLL: 10.986:  89%|████████▉ | 267/300 [03:43<00:30,  1.08it/s]Train NLL: 11.014, Val NLL: 10.986:  90%|████████▉ | 269/300 [03:45<00:28,  1.07it/s]Train NLL: 11.014, Val NLL: 10.986:  90%|█████████ | 271/300 [03:47<00:26,  1.11it/s]Train NLL: 11.014, Val NLL: 10.986:  91%|█████████ | 273/300 [03:48<00:23,  1.14it/s]Train NLL: 11.014, Val NLL: 10.986:  92%|█████████▏| 275/300 [03:50<00:22,  1.11it/s]Train NLL: 11.014, Val NLL: 10.986:  92%|█████████▏| 277/300 [03:52<00:19,  1.18it/s]Train NLL: 11.014, Val NLL: 10.986:  93%|█████████▎| 279/300 [03:53<00:17,  1.22it/s]Train NLL: 11.014, Val NLL: 10.986:  94%|█████████▎| 281/300 [03:55<00:15,  1.23it/s]Train NLL: 11.014, Val NLL: 10.986:  94%|█████████▍| 283/300 [03:56<00:13,  1.26it/s]Train NLL: 11.014, Val NLL: 10.986:  95%|█████████▌| 285/300 [03:58<00:11,  1.26it/s]Train NLL: 11.014, Val NLL: 10.986:  96%|█████████▌| 287/300 [03:59<00:10,  1.24it/s]Train NLL: 11.014, Val NLL: 10.986:  96%|█████████▋| 289/300 [04:01<00:08,  1.26it/s]Train NLL: 11.014, Val NLL: 10.986:  97%|█████████▋| 291/300 [04:03<00:07,  1.27it/s]Train NLL: 11.014, Val NLL: 10.986:  98%|█████████▊| 293/300 [04:05<00:05,  1.17it/s]Train NLL: 11.014, Val NLL: 10.986:  98%|█████████▊| 295/300 [04:06<00:04,  1.18it/s]Train NLL: 11.014, Val NLL: 10.986:  99%|█████████▉| 297/300 [04:08<00:02,  1.19it/s]Train NLL: 11.014, Val NLL: 10.986: 100%|█████████▉| 299/300 [04:09<00:00,  1.22it/s]Train NLL: 11.014, Val NLL: 10.986: 100%|██████████| 300/300 [04:10<00:00,  1.20it/s]
