{
  "test": {
    "steps": [
      0
    ],
    "timestamps": [
      "2022-07-09T01:17:14.845278"
    ],
    "values": [
      8.69175346591061
    ]
  },
  "train": {
    "steps": [
      0,
      1,
      2,
      3,
      4,
      5,
      6,
      7,
      8,
      9,
      10,
      11,
      12,
      13,
      14,
      15,
      16,
      17,
      18,
      19,
      20,
      21,
      22,
      23,
      24,
      25,
      26,
      27,
      28,
      29,
      30,
      31,
      32,
      33,
      34,
      35,
      36,
      37,
      38,
      39,
      40,
      41,
      42,
      43,
      44,
      45,
      46,
      47,
      48,
      49,
      50,
      51,
      52,
      53,
      54,
      55,
      56,
      57,
      58,
      59,
      60,
      61,
      62,
      63,
      64,
      65,
      66,
      67,
      68,
      69,
      70,
      71,
      72,
      73,
      74,
      75,
      76,
      77,
      78,
      79,
      80,
      81,
      82,
      83,
      84,
      85,
      86,
      87,
      88,
      89,
      90,
      91,
      92,
      93,
      94,
      95,
      96,
      97,
      98,
      99,
      100,
      101,
      102,
      103,
      104,
      105,
      106,
      107,
      108,
      109,
      110,
      111,
      112,
      113,
      114,
      115,
      116,
      117,
      118,
      119,
      120,
      121,
      122,
      123,
      124,
      125,
      126,
      127,
      128,
      129,
      130,
      131,
      132,
      133,
      134,
      135,
      136,
      137,
      138,
      139,
      140,
      141,
      142,
      143,
      144,
      145,
      146,
      147,
      148,
      149,
      150,
      151,
      152,
      153,
      154,
      155,
      156,
      157,
      158,
      159,
      160,
      161,
      162,
      163,
      164,
      165,
      166,
      167,
      168,
      169,
      170,
      171,
      172,
      173,
      174,
      175,
      176,
      177,
      178,
      179,
      180,
      181,
      182,
      183,
      184,
      185,
      186,
      187,
      188,
      189,
      190,
      191,
      192,
      193,
      194,
      195,
      196,
      197,
      198,
      199,
      200,
      201,
      202,
      203,
      204,
      205,
      206,
      207,
      208,
      209,
      210,
      211,
      212,
      213,
      214,
      215,
      216,
      217,
      218,
      219,
      220,
      221,
      222,
      223,
      224,
      225,
      226,
      227,
      228,
      229,
      230,
      231,
      232,
      233,
      234,
      235,
      236,
      237,
      238,
      239,
      240,
      241,
      242,
      243,
      244,
      245,
      246,
      247,
      248,
      249,
      250,
      251,
      252,
      253,
      254,
      255,
      256,
      257,
      258,
      259,
      260,
      261,
      262,
      263,
      264,
      265,
      266,
      267,
      268,
      269,
      270,
      271,
      272,
      273,
      274,
      275,
      276,
      277,
      278,
      279,
      280,
      281,
      282,
      283,
      284,
      285,
      286,
      287,
      288,
      289,
      290,
      291,
      292,
      293,
      294,
      295,
      296,
      297,
      298,
      299
    ],
    "timestamps": [
      "2022-07-09T01:08:41.825728",
      "2022-07-09T01:08:43.865148",
      "2022-07-09T01:08:47.164546",
      "2022-07-09T01:08:49.170921",
      "2022-07-09T01:08:51.263354",
      "2022-07-09T01:08:52.913987",
      "2022-07-09T01:08:54.564928",
      "2022-07-09T01:08:56.232172",
      "2022-07-09T01:08:57.869980",
      "2022-07-09T01:08:59.548164",
      "2022-07-09T01:09:01.384947",
      "2022-07-09T01:09:03.024445",
      "2022-07-09T01:09:04.668189",
      "2022-07-09T01:09:06.306632",
      "2022-07-09T01:09:07.947863",
      "2022-07-09T01:09:09.638619",
      "2022-07-09T01:09:11.456073",
      "2022-07-09T01:09:13.092693",
      "2022-07-09T01:09:14.738666",
      "2022-07-09T01:09:16.393633",
      "2022-07-09T01:09:18.058234",
      "2022-07-09T01:09:19.765670",
      "2022-07-09T01:09:21.573256",
      "2022-07-09T01:09:23.225369",
      "2022-07-09T01:09:24.869077",
      "2022-07-09T01:09:26.509461",
      "2022-07-09T01:09:28.145339",
      "2022-07-09T01:09:29.867824",
      "2022-07-09T01:09:31.672952",
      "2022-07-09T01:09:33.311133",
      "2022-07-09T01:09:34.951040",
      "2022-07-09T01:09:36.587300",
      "2022-07-09T01:09:38.223127",
      "2022-07-09T01:09:39.934847",
      "2022-07-09T01:09:41.718323",
      "2022-07-09T01:09:43.354382",
      "2022-07-09T01:09:44.994635",
      "2022-07-09T01:09:46.644367",
      "2022-07-09T01:09:48.284141",
      "2022-07-09T01:09:50.014261",
      "2022-07-09T01:09:51.800945",
      "2022-07-09T01:09:53.445581",
      "2022-07-09T01:09:55.094160",
      "2022-07-09T01:09:56.728447",
      "2022-07-09T01:09:58.368975",
      "2022-07-09T01:10:00.100843",
      "2022-07-09T01:10:01.867084",
      "2022-07-09T01:10:03.496585",
      "2022-07-09T01:10:05.157445",
      "2022-07-09T01:10:06.790235",
      "2022-07-09T01:10:08.436328",
      "2022-07-09T01:10:10.185272",
      "2022-07-09T01:10:11.946015",
      "2022-07-09T01:10:13.577847",
      "2022-07-09T01:10:15.213871",
      "2022-07-09T01:10:16.852887",
      "2022-07-09T01:10:18.493710",
      "2022-07-09T01:10:20.255776",
      "2022-07-09T01:10:21.999202",
      "2022-07-09T01:10:23.637164",
      "2022-07-09T01:10:25.275733",
      "2022-07-09T01:10:26.911500",
      "2022-07-09T01:10:28.611514",
      "2022-07-09T01:10:30.377740",
      "2022-07-09T01:10:32.108849",
      "2022-07-09T01:10:33.752250",
      "2022-07-09T01:10:35.393862",
      "2022-07-09T01:10:37.036888",
      "2022-07-09T01:10:38.678753",
      "2022-07-09T01:10:40.452105",
      "2022-07-09T01:10:42.196100",
      "2022-07-09T01:10:43.836707",
      "2022-07-09T01:10:45.481688",
      "2022-07-09T01:10:47.137393",
      "2022-07-09T01:10:48.796476",
      "2022-07-09T01:10:50.576485",
      "2022-07-09T01:10:52.299617",
      "2022-07-09T01:10:53.941834",
      "2022-07-09T01:10:55.584772",
      "2022-07-09T01:10:57.231610",
      "2022-07-09T01:10:58.903561",
      "2022-07-09T01:11:00.766454",
      "2022-07-09T01:11:02.485666",
      "2022-07-09T01:11:04.246687",
      "2022-07-09T01:11:06.109072",
      "2022-07-09T01:11:07.807973",
      "2022-07-09T01:11:09.620741",
      "2022-07-09T01:11:11.469599",
      "2022-07-09T01:11:13.103086",
      "2022-07-09T01:11:14.750055",
      "2022-07-09T01:11:16.390228",
      "2022-07-09T01:11:18.039077",
      "2022-07-09T01:11:19.845321",
      "2022-07-09T01:11:22.090707",
      "2022-07-09T01:11:23.750099",
      "2022-07-09T01:11:25.418243",
      "2022-07-09T01:11:27.093684",
      "2022-07-09T01:11:28.770562",
      "2022-07-09T01:11:30.546500",
      "2022-07-09T01:11:32.323526",
      "2022-07-09T01:11:33.994839",
      "2022-07-09T01:11:35.656162",
      "2022-07-09T01:11:37.314557",
      "2022-07-09T01:11:38.978172",
      "2022-07-09T01:11:40.854665",
      "2022-07-09T01:11:42.563794",
      "2022-07-09T01:11:44.233942",
      "2022-07-09T01:11:45.913479",
      "2022-07-09T01:11:47.574425",
      "2022-07-09T01:11:49.271635",
      "2022-07-09T01:11:51.137481",
      "2022-07-09T01:11:52.814718",
      "2022-07-09T01:11:54.492971",
      "2022-07-09T01:11:56.160949",
      "2022-07-09T01:11:57.882473",
      "2022-07-09T01:11:59.651383",
      "2022-07-09T01:12:01.445644",
      "2022-07-09T01:12:03.119730",
      "2022-07-09T01:12:04.804107",
      "2022-07-09T01:12:06.476354",
      "2022-07-09T01:12:08.146891",
      "2022-07-09T01:12:09.889644",
      "2022-07-09T01:12:11.685396",
      "2022-07-09T01:12:13.364057",
      "2022-07-09T01:12:15.027640",
      "2022-07-09T01:12:16.683149",
      "2022-07-09T01:12:18.342530",
      "2022-07-09T01:12:20.293348",
      "2022-07-09T01:12:22.397455",
      "2022-07-09T01:12:24.057065",
      "2022-07-09T01:12:25.723048",
      "2022-07-09T01:12:27.378613",
      "2022-07-09T01:12:29.052595",
      "2022-07-09T01:12:31.093893",
      "2022-07-09T01:12:32.800868",
      "2022-07-09T01:12:34.454677",
      "2022-07-09T01:12:36.115945",
      "2022-07-09T01:12:37.792702",
      "2022-07-09T01:12:39.481722",
      "2022-07-09T01:12:41.339352",
      "2022-07-09T01:12:42.990598",
      "2022-07-09T01:12:44.637609",
      "2022-07-09T01:12:46.283605",
      "2022-07-09T01:12:47.927629",
      "2022-07-09T01:12:49.634906",
      "2022-07-09T01:12:51.473673",
      "2022-07-09T01:12:53.115743",
      "2022-07-09T01:12:54.762076",
      "2022-07-09T01:12:56.403183",
      "2022-07-09T01:12:58.071667",
      "2022-07-09T01:12:59.816727",
      "2022-07-09T01:13:01.614494",
      "2022-07-09T01:13:03.306295",
      "2022-07-09T01:13:05.002044",
      "2022-07-09T01:13:06.635398",
      "2022-07-09T01:13:08.271879",
      "2022-07-09T01:13:10.004467",
      "2022-07-09T01:13:11.817881",
      "2022-07-09T01:13:13.454062",
      "2022-07-09T01:13:15.253112",
      "2022-07-09T01:13:16.951936",
      "2022-07-09T01:13:18.689349",
      "2022-07-09T01:13:20.437430",
      "2022-07-09T01:13:22.178084",
      "2022-07-09T01:13:23.827967",
      "2022-07-09T01:13:25.465313",
      "2022-07-09T01:13:27.096206",
      "2022-07-09T01:13:28.742265",
      "2022-07-09T01:13:30.513802",
      "2022-07-09T01:13:32.264289",
      "2022-07-09T01:13:33.908593",
      "2022-07-09T01:13:35.595981",
      "2022-07-09T01:13:37.237771",
      "2022-07-09T01:13:38.927966",
      "2022-07-09T01:13:40.710793",
      "2022-07-09T01:13:42.433630",
      "2022-07-09T01:13:44.076196",
      "2022-07-09T01:13:45.722441",
      "2022-07-09T01:13:47.359557",
      "2022-07-09T01:13:49.000614",
      "2022-07-09T01:13:50.821823",
      "2022-07-09T01:13:52.532558",
      "2022-07-09T01:13:54.172807",
      "2022-07-09T01:13:55.804602",
      "2022-07-09T01:13:57.478454",
      "2022-07-09T01:13:59.260473",
      "2022-07-09T01:14:01.309905",
      "2022-07-09T01:14:03.016403",
      "2022-07-09T01:14:04.658358",
      "2022-07-09T01:14:06.327234",
      "2022-07-09T01:14:07.972619",
      "2022-07-09T01:14:09.705848",
      "2022-07-09T01:14:11.522934",
      "2022-07-09T01:14:13.162885",
      "2022-07-09T01:14:14.801516",
      "2022-07-09T01:14:16.440081",
      "2022-07-09T01:14:18.076024",
      "2022-07-09T01:14:19.783798",
      "2022-07-09T01:14:21.597097",
      "2022-07-09T01:14:23.302975",
      "2022-07-09T01:14:24.969487",
      "2022-07-09T01:14:26.612139",
      "2022-07-09T01:14:28.338605",
      "2022-07-09T01:14:30.077337",
      "2022-07-09T01:14:31.920899",
      "2022-07-09T01:14:33.686715",
      "2022-07-09T01:14:35.323933",
      "2022-07-09T01:14:36.966857",
      "2022-07-09T01:14:38.606529",
      "2022-07-09T01:14:40.359236",
      "2022-07-09T01:14:42.112700",
      "2022-07-09T01:14:43.835534",
      "2022-07-09T01:14:45.523257",
      "2022-07-09T01:14:47.219939",
      "2022-07-09T01:14:48.900501",
      "2022-07-09T01:14:50.625682",
      "2022-07-09T01:14:52.379226",
      "2022-07-09T01:14:54.024722",
      "2022-07-09T01:14:55.676581",
      "2022-07-09T01:14:57.391268",
      "2022-07-09T01:14:59.036127",
      "2022-07-09T01:15:00.765774",
      "2022-07-09T01:15:02.507314",
      "2022-07-09T01:15:04.185160",
      "2022-07-09T01:15:05.849431",
      "2022-07-09T01:15:07.500251",
      "2022-07-09T01:15:09.324049",
      "2022-07-09T01:15:11.193233",
      "2022-07-09T01:15:12.930694",
      "2022-07-09T01:15:14.568967",
      "2022-07-09T01:15:16.277350",
      "2022-07-09T01:15:17.973597",
      "2022-07-09T01:15:19.704573",
      "2022-07-09T01:15:21.515351",
      "2022-07-09T01:15:23.175203",
      "2022-07-09T01:15:24.818706",
      "2022-07-09T01:15:26.461643",
      "2022-07-09T01:15:28.119978",
      "2022-07-09T01:15:29.817519",
      "2022-07-09T01:15:31.751179",
      "2022-07-09T01:15:33.458420",
      "2022-07-09T01:15:35.140088",
      "2022-07-09T01:15:36.807257",
      "2022-07-09T01:15:38.466684",
      "2022-07-09T01:15:40.257540",
      "2022-07-09T01:15:42.065463",
      "2022-07-09T01:15:43.726445",
      "2022-07-09T01:15:45.388358",
      "2022-07-09T01:15:47.048547",
      "2022-07-09T01:15:48.714523",
      "2022-07-09T01:15:50.489512",
      "2022-07-09T01:15:52.254458",
      "2022-07-09T01:15:53.909757",
      "2022-07-09T01:15:55.568622",
      "2022-07-09T01:15:57.236215",
      "2022-07-09T01:15:58.969725",
      "2022-07-09T01:16:00.780966",
      "2022-07-09T01:16:02.521292",
      "2022-07-09T01:16:04.168743",
      "2022-07-09T01:16:05.820208",
      "2022-07-09T01:16:07.471076",
      "2022-07-09T01:16:09.151370",
      "2022-07-09T01:16:11.112138",
      "2022-07-09T01:16:12.774389",
      "2022-07-09T01:16:14.433221",
      "2022-07-09T01:16:16.090264",
      "2022-07-09T01:16:17.748360",
      "2022-07-09T01:16:19.422679",
      "2022-07-09T01:16:21.261945",
      "2022-07-09T01:16:22.921396",
      "2022-07-09T01:16:24.579680",
      "2022-07-09T01:16:26.233100",
      "2022-07-09T01:16:27.885390",
      "2022-07-09T01:16:29.568813",
      "2022-07-09T01:16:31.441407",
      "2022-07-09T01:16:33.102164",
      "2022-07-09T01:16:34.782874",
      "2022-07-09T01:16:36.468550",
      "2022-07-09T01:16:38.133953",
      "2022-07-09T01:16:39.858649",
      "2022-07-09T01:16:41.680473",
      "2022-07-09T01:16:43.348411",
      "2022-07-09T01:16:45.013961",
      "2022-07-09T01:16:46.680617",
      "2022-07-09T01:16:48.341381",
      "2022-07-09T01:16:50.125903",
      "2022-07-09T01:16:51.920891",
      "2022-07-09T01:16:53.584250",
      "2022-07-09T01:16:55.244569",
      "2022-07-09T01:16:56.899773",
      "2022-07-09T01:16:58.549180",
      "2022-07-09T01:17:00.312387",
      "2022-07-09T01:17:02.083625",
      "2022-07-09T01:17:03.736400",
      "2022-07-09T01:17:05.389440",
      "2022-07-09T01:17:07.045986",
      "2022-07-09T01:17:08.708012",
      "2022-07-09T01:17:10.814813",
      "2022-07-09T01:17:12.763271",
      "2022-07-09T01:17:14.436223"
    ],
    "values": [
      9.800140007697294,
      9.138198931655392,
      8.886020570731414,
      8.80359671595439,
      8.768362672783256,
      8.745501965106746,
      8.72196806800841,
      8.720596628395876,
      8.706789521160708,
      8.705881547610613,
      8.695582454883267,
      8.693739198374036,
      8.694182134906491,
      8.688757343966648,
      8.686616440154717,
      8.692069160176684,
      8.691105757082276,
      8.686018363128671,
      8.690260190288742,
      8.675068720899002,
      8.676527468679282,
      8.677926601012889,
      8.668696902225344,
      8.678509854181014,
      8.668997639180944,
      8.672851645753303,
      8.678067341288253,
      8.672562196346561,
      8.67557245820124,
      8.671795055374801,
      8.671241575376916,
      8.668081620520466,
      8.672868367297193,
      8.668827764129384,
      8.672124497294948,
      8.67368148743778,
      8.673865046340218,
      8.678354532622834,
      8.672999945458098,
      8.669275993476228,
      8.666508532017664,
      8.66703479839927,
      8.667159087005754,
      8.664479347008747,
      8.670725390888801,
      8.656128883177102,
      8.670831586247562,
      8.658982368824091,
      8.662466464753429,
      8.668507446692981,
      8.667819668631754,
      8.65655780355661,
      8.666573307255456,
      8.670574131558602,
      8.663128391527714,
      8.66239808302038,
      8.66241297456994,
      8.661307659988628,
      8.669169066926877,
      8.670147531645156,
      8.662675156117906,
      8.656791757307984,
      8.662268531493263,
      8.672336215780238,
      8.670713451771004,
      8.658692482840614,
      8.660021217544589,
      8.633455444167693,
      8.625142195778597,
      8.625718675131235,
      8.62369612618233,
      8.624674927511387,
      8.625557660428024,
      8.624070926016586,
      8.624389827061314,
      8.625071916350521,
      8.624599170219478,
      8.624163401576336,
      8.625740221631585,
      8.625338049137522,
      8.624926331885638,
      8.624506159476208,
      8.62490585985882,
      8.624034027571078,
      8.624909667484106,
      8.624032633759581,
      8.624640371247445,
      8.623433950848638,
      8.62361471856675,
      8.623707802921524,
      8.623575422231506,
      8.623459455708495,
      8.620599121851685,
      8.619459982396188,
      8.61906431091305,
      8.618901088937639,
      8.619110679179919,
      8.618830887835141,
      8.61873280878892,
      8.618796148858708,
      8.618771874984395,
      8.618792124225376,
      8.618879390780085,
      8.618934589344313,
      8.618796736221727,
      8.61876046482289,
      8.618726716241854,
      8.618817703105323,
      8.618747829676584,
      8.618704388443797,
      8.618720130232653,
      8.618651645161966,
      8.61862327881962,
      8.618732392193929,
      8.618769206370116,
      8.618172565024684,
      8.618263843354809,
      8.618227528415156,
      8.618173378625693,
      8.618122398304791,
      8.618075013326047,
      8.61804263064171,
      8.618030842521053,
      8.618057671746708,
      8.618027860683362,
      8.617982235506847,
      8.617950132805497,
      8.61791170103084,
      8.617921984596789,
      8.618020530626314,
      8.618043804442653,
      8.618049904231553,
      8.61804759542984,
      8.618089518042918,
      8.618061881650547,
      8.618047906928645,
      8.618035850559423,
      8.617949003102137,
      8.617947464057385,
      8.617946846791048,
      8.617948485406309,
      8.617950034673882,
      8.617956229924344,
      8.617963810374146,
      8.617969673493512,
      8.61797069864776,
      8.617973106102001,
      8.617970775486336,
      8.617969139248931,
      8.617968839874589,
      8.617965852278159,
      8.617964564801044,
      8.617961646447107,
      8.617959454890817,
      8.617956199444295,
      8.617953957842259,
      8.617953706685196,
      8.617951228529677,
      8.617947161416852,
      8.617946136022121,
      8.617944717318942,
      8.617942469647025,
      8.61794134709169,
      8.61794030894359,
      8.617942265305306,
      8.617945785822423,
      8.617949693597263,
      8.617953965164084,
      8.61795671303251,
      8.617954914836396,
      8.617954188445928,
      8.617953378296974,
      8.617950365589207,
      8.617950024284912,
      8.61794688958428,
      8.617945366084955,
      8.617945562175912,
      8.617943445256188,
      8.617942205548838,
      8.617941029317779,
      8.617939834060813,
      8.617940927879454,
      8.617942523849793,
      8.61794582015536,
      8.61794990018085,
      8.61795477007938,
      8.617956359240022,
      8.617957570624597,
      8.617956642454953,
      8.617957264945744,
      8.61795376436049,
      8.617953523840493,
      8.617952902654547,
      8.617952919098702,
      8.617954755695031,
      8.617957454091169,
      8.617960491877684,
      8.617959036110538,
      8.617958369258396,
      8.617956018416445,
      8.617953645412774,
      8.617951735634806,
      8.617948714385175,
      8.617945357973012,
      8.617942383667055,
      8.617940760817149,
      8.61793813874339,
      8.61794049852945,
      8.617941359198403,
      8.617947471910783,
      8.617950392075343,
      8.617954317317443,
      8.61795518366984,
      8.61795218262782,
      8.617951380195585,
      8.617948677763886,
      8.617947369286556,
      8.617944570740171,
      8.617943290767657,
      8.617942397188191,
      8.617945394294939,
      8.61795044507247,
      8.617953475001428,
      8.617956317454075,
      8.617956215774697,
      8.617955704223572,
      8.61795479888204,
      8.61795379952953,
      8.617952212072975,
      8.617951485878852,
      8.617947505787829,
      8.617947863474795,
      8.617945641515638,
      8.617944915692014,
      8.617943286288186,
      8.617944358131886,
      8.617942808107252,
      8.617939925282032,
      8.617937813681296,
      8.617937725347236,
      8.61793833022639,
      8.617937272001269,
      8.617936696029227,
      8.617942108078026,
      8.617941494792099,
      8.61794513935544,
      8.617949852668863,
      8.617951992063652,
      8.617952480449373,
      8.617953124945934,
      8.61795178193367,
      8.617952070319783,
      8.617949088344913,
      8.617946453822361,
      8.617942785632511,
      8.61794211882216,
      8.617938642331278,
      8.61793767767318,
      8.617936928323125,
      8.617933419909992,
      8.61793235672743,
      8.617928540349476,
      8.617927533301602,
      8.617924435917752,
      8.61792319379691,
      8.617921221114724,
      8.617923040394073,
      8.617923952714166,
      8.61792785199394,
      8.617935974760872,
      8.6179423145051,
      8.617946979491382,
      8.617953113730808,
      8.617956608414824,
      8.617957563097564,
      8.617958357633071,
      8.617957273330235,
      8.617954684886193,
      8.617952691888018,
      8.617949683096908,
      8.617948752762665,
      8.617946188921506,
      8.617943487018172,
      8.617941733815735,
      8.617939840965489,
      8.617938549108676,
      8.617934986564663,
      8.6179332426928,
      8.61793103155186,
      8.617930326356346,
      8.617927074518182,
      8.617926342748417,
      8.61792342077417,
      8.61792282922864,
      8.617924362151644,
      8.617925691848871,
      8.617928195443886,
      8.617933730124129,
      8.617938915592411,
      8.617941011716818
    ]
  },
  "val": {
    "steps": [
      0,
      1,
      2,
      3,
      4,
      5,
      6,
      7,
      8,
      9,
      10,
      11,
      12,
      13,
      14,
      15,
      16,
      17,
      18,
      19,
      20,
      21,
      22,
      23,
      24,
      25,
      26,
      27,
      28,
      29,
      30,
      31,
      32,
      33,
      34,
      35,
      36,
      37,
      38,
      39,
      40,
      41,
      42,
      43,
      44,
      45,
      46,
      47,
      48,
      49,
      50,
      51,
      52,
      53,
      54,
      55,
      56,
      57,
      58,
      59,
      60,
      61,
      62,
      63,
      64,
      65,
      66,
      67,
      68,
      69,
      70,
      71,
      72,
      73,
      74,
      75,
      76,
      77,
      78,
      79,
      80,
      81,
      82,
      83,
      84,
      85,
      86,
      87,
      88,
      89,
      90,
      91,
      92,
      93,
      94,
      95,
      96,
      97,
      98,
      99,
      100,
      101,
      102,
      103,
      104,
      105,
      106,
      107,
      108,
      109,
      110,
      111,
      112,
      113,
      114,
      115,
      116,
      117,
      118,
      119,
      120,
      121,
      122,
      123,
      124,
      125,
      126,
      127,
      128,
      129,
      130,
      131,
      132,
      133,
      134,
      135,
      136,
      137,
      138,
      139,
      140,
      141,
      142,
      143,
      144,
      145,
      146,
      147,
      148,
      149,
      150,
      151,
      152,
      153,
      154,
      155,
      156,
      157,
      158,
      159,
      160,
      161,
      162,
      163,
      164,
      165,
      166,
      167,
      168,
      169,
      170,
      171,
      172,
      173,
      174,
      175,
      176,
      177,
      178,
      179,
      180,
      181,
      182,
      183,
      184,
      185,
      186,
      187,
      188,
      189,
      190,
      191,
      192,
      193,
      194,
      195,
      196,
      197,
      198,
      199,
      200,
      201,
      202,
      203,
      204,
      205,
      206,
      207,
      208,
      209,
      210,
      211,
      212,
      213,
      214,
      215,
      216,
      217,
      218,
      219,
      220,
      221,
      222,
      223,
      224,
      225,
      226,
      227,
      228,
      229,
      230,
      231,
      232,
      233,
      234,
      235,
      236,
      237,
      238,
      239,
      240,
      241,
      242,
      243,
      244,
      245,
      246,
      247,
      248,
      249,
      250,
      251,
      252,
      253,
      254,
      255,
      256,
      257,
      258,
      259,
      260,
      261,
      262,
      263,
      264,
      265,
      266,
      267,
      268,
      269,
      270,
      271,
      272,
      273,
      274,
      275,
      276,
      277,
      278,
      279,
      280,
      281,
      282,
      283,
      284,
      285,
      286,
      287,
      288,
      289,
      290,
      291,
      292,
      293,
      294,
      295,
      296,
      297,
      298,
      299
    ],
    "timestamps": [
      "2022-07-09T01:08:42.011661",
      "2022-07-09T01:08:44.146375",
      "2022-07-09T01:08:47.401433",
      "2022-07-09T01:08:49.494782",
      "2022-07-09T01:08:51.469618",
      "2022-07-09T01:08:53.106725",
      "2022-07-09T01:08:54.758425",
      "2022-07-09T01:08:56.424371",
      "2022-07-09T01:08:58.062572",
      "2022-07-09T01:08:59.753186",
      "2022-07-09T01:09:01.580580",
      "2022-07-09T01:09:03.217382",
      "2022-07-09T01:09:04.861004",
      "2022-07-09T01:09:06.499768",
      "2022-07-09T01:09:08.140048",
      "2022-07-09T01:09:09.862836",
      "2022-07-09T01:09:11.647259",
      "2022-07-09T01:09:13.284579",
      "2022-07-09T01:09:14.932514",
      "2022-07-09T01:09:16.587905",
      "2022-07-09T01:09:18.250910",
      "2022-07-09T01:09:19.977861",
      "2022-07-09T01:09:21.767231",
      "2022-07-09T01:09:23.418584",
      "2022-07-09T01:09:25.062479",
      "2022-07-09T01:09:26.702151",
      "2022-07-09T01:09:28.337993",
      "2022-07-09T01:09:30.093014",
      "2022-07-09T01:09:31.865496",
      "2022-07-09T01:09:33.503936",
      "2022-07-09T01:09:35.143452",
      "2022-07-09T01:09:36.779745",
      "2022-07-09T01:09:38.418150",
      "2022-07-09T01:09:40.143991",
      "2022-07-09T01:09:41.911326",
      "2022-07-09T01:09:43.545952",
      "2022-07-09T01:09:45.187919",
      "2022-07-09T01:09:46.837297",
      "2022-07-09T01:09:48.480797",
      "2022-07-09T01:09:50.222871",
      "2022-07-09T01:09:51.995485",
      "2022-07-09T01:09:53.639460",
      "2022-07-09T01:09:55.287016",
      "2022-07-09T01:09:56.921958",
      "2022-07-09T01:09:58.566907",
      "2022-07-09T01:10:00.324889",
      "2022-07-09T01:10:02.060125",
      "2022-07-09T01:10:03.696448",
      "2022-07-09T01:10:05.350765",
      "2022-07-09T01:10:06.983124",
      "2022-07-09T01:10:08.634197",
      "2022-07-09T01:10:10.406997",
      "2022-07-09T01:10:12.139470",
      "2022-07-09T01:10:13.774049",
      "2022-07-09T01:10:15.406587",
      "2022-07-09T01:10:17.044220",
      "2022-07-09T01:10:18.688412",
      "2022-07-09T01:10:20.479504",
      "2022-07-09T01:10:22.192600",
      "2022-07-09T01:10:23.831476",
      "2022-07-09T01:10:25.468019",
      "2022-07-09T01:10:27.103730",
      "2022-07-09T01:10:28.813921",
      "2022-07-09T01:10:30.586059",
      "2022-07-09T01:10:32.304017",
      "2022-07-09T01:10:33.945370",
      "2022-07-09T01:10:35.586585",
      "2022-07-09T01:10:37.227616",
      "2022-07-09T01:10:38.873355",
      "2022-07-09T01:10:40.664018",
      "2022-07-09T01:10:42.389038",
      "2022-07-09T01:10:44.029708",
      "2022-07-09T01:10:45.674429",
      "2022-07-09T01:10:47.329141",
      "2022-07-09T01:10:48.989407",
      "2022-07-09T01:10:50.785585",
      "2022-07-09T01:10:52.491919",
      "2022-07-09T01:10:54.134586",
      "2022-07-09T01:10:55.789541",
      "2022-07-09T01:10:57.425090",
      "2022-07-09T01:10:59.105730",
      "2022-07-09T01:11:01.022918",
      "2022-07-09T01:11:02.678815",
      "2022-07-09T01:11:04.495814",
      "2022-07-09T01:11:06.301780",
      "2022-07-09T01:11:08.052976",
      "2022-07-09T01:11:09.850148",
      "2022-07-09T01:11:11.663163",
      "2022-07-09T01:11:13.296507",
      "2022-07-09T01:11:14.943199",
      "2022-07-09T01:11:16.584203",
      "2022-07-09T01:11:18.231954",
      "2022-07-09T01:11:20.177287",
      "2022-07-09T01:11:22.281981",
      "2022-07-09T01:11:23.945792",
      "2022-07-09T01:11:25.616302",
      "2022-07-09T01:11:27.287525",
      "2022-07-09T01:11:28.966498",
      "2022-07-09T01:11:30.778447",
      "2022-07-09T01:11:32.518676",
      "2022-07-09T01:11:34.190415",
      "2022-07-09T01:11:35.847751",
      "2022-07-09T01:11:37.509913",
      "2022-07-09T01:11:39.188809",
      "2022-07-09T01:11:41.107475",
      "2022-07-09T01:11:42.759603",
      "2022-07-09T01:11:44.429921",
      "2022-07-09T01:11:46.108912",
      "2022-07-09T01:11:47.770307",
      "2022-07-09T01:11:49.470608",
      "2022-07-09T01:11:51.338424",
      "2022-07-09T01:11:53.010791",
      "2022-07-09T01:11:54.689283",
      "2022-07-09T01:11:56.357432",
      "2022-07-09T01:11:58.094788",
      "2022-07-09T01:11:59.862350",
      "2022-07-09T01:12:01.643721",
      "2022-07-09T01:12:03.315220",
      "2022-07-09T01:12:05.000080",
      "2022-07-09T01:12:06.671582",
      "2022-07-09T01:12:08.339513",
      "2022-07-09T01:12:10.104807",
      "2022-07-09T01:12:11.883839",
      "2022-07-09T01:12:13.557924",
      "2022-07-09T01:12:15.222833",
      "2022-07-09T01:12:16.878168",
      "2022-07-09T01:12:18.538735",
      "2022-07-09T01:12:20.631252",
      "2022-07-09T01:12:22.593165",
      "2022-07-09T01:12:24.252881",
      "2022-07-09T01:12:25.920281",
      "2022-07-09T01:12:27.574250",
      "2022-07-09T01:12:29.247849",
      "2022-07-09T01:12:31.315981",
      "2022-07-09T01:12:32.996473",
      "2022-07-09T01:12:34.651572",
      "2022-07-09T01:12:36.311063",
      "2022-07-09T01:12:37.988112",
      "2022-07-09T01:12:39.705931",
      "2022-07-09T01:12:41.536129",
      "2022-07-09T01:12:43.183791",
      "2022-07-09T01:12:44.832275",
      "2022-07-09T01:12:46.476695",
      "2022-07-09T01:12:48.121565",
      "2022-07-09T01:12:49.866525",
      "2022-07-09T01:12:51.670322",
      "2022-07-09T01:12:53.308936",
      "2022-07-09T01:12:54.954951",
      "2022-07-09T01:12:56.595749",
      "2022-07-09T01:12:58.280303",
      "2022-07-09T01:13:00.028836",
      "2022-07-09T01:13:01.806946",
      "2022-07-09T01:13:03.506233",
      "2022-07-09T01:13:05.194281",
      "2022-07-09T01:13:06.826249",
      "2022-07-09T01:13:08.464117",
      "2022-07-09T01:13:10.212418",
      "2022-07-09T01:13:12.008502",
      "2022-07-09T01:13:13.654424",
      "2022-07-09T01:13:15.446197",
      "2022-07-09T01:13:17.144642",
      "2022-07-09T01:13:18.882547",
      "2022-07-09T01:13:20.658086",
      "2022-07-09T01:13:22.370670",
      "2022-07-09T01:13:24.021064",
      "2022-07-09T01:13:25.658796",
      "2022-07-09T01:13:27.288846",
      "2022-07-09T01:13:28.940109",
      "2022-07-09T01:13:30.724015",
      "2022-07-09T01:13:32.457097",
      "2022-07-09T01:13:34.101546",
      "2022-07-09T01:13:35.788231",
      "2022-07-09T01:13:37.430921",
      "2022-07-09T01:13:39.121986",
      "2022-07-09T01:13:40.921971",
      "2022-07-09T01:13:42.626895",
      "2022-07-09T01:13:44.269844",
      "2022-07-09T01:13:45.915161",
      "2022-07-09T01:13:47.551969",
      "2022-07-09T01:13:49.209071",
      "2022-07-09T01:13:51.068264",
      "2022-07-09T01:13:52.725174",
      "2022-07-09T01:13:54.365444",
      "2022-07-09T01:13:55.996762",
      "2022-07-09T01:13:57.727433",
      "2022-07-09T01:13:59.452915",
      "2022-07-09T01:14:01.503387",
      "2022-07-09T01:14:03.207530",
      "2022-07-09T01:14:04.852814",
      "2022-07-09T01:14:06.519651",
      "2022-07-09T01:14:08.165428",
      "2022-07-09T01:14:09.932802",
      "2022-07-09T01:14:11.719302",
      "2022-07-09T01:14:13.355247",
      "2022-07-09T01:14:14.994723",
      "2022-07-09T01:14:16.633072",
      "2022-07-09T01:14:18.268794",
      "2022-07-09T01:14:20.012649",
      "2022-07-09T01:14:21.791876",
      "2022-07-09T01:14:23.495897",
      "2022-07-09T01:14:25.162972",
      "2022-07-09T01:14:26.805540",
      "2022-07-09T01:14:28.536532",
      "2022-07-09T01:14:30.285602",
      "2022-07-09T01:14:32.113689",
      "2022-07-09T01:14:33.880076",
      "2022-07-09T01:14:35.516293",
      "2022-07-09T01:14:37.160160",
      "2022-07-09T01:14:38.807134",
      "2022-07-09T01:14:40.567702",
      "2022-07-09T01:14:42.306345",
      "2022-07-09T01:14:44.030033",
      "2022-07-09T01:14:45.715816",
      "2022-07-09T01:14:47.413097",
      "2022-07-09T01:14:49.099045",
      "2022-07-09T01:14:50.832008",
      "2022-07-09T01:14:52.569123",
      "2022-07-09T01:14:54.228513",
      "2022-07-09T01:14:55.876455",
      "2022-07-09T01:14:57.583541",
      "2022-07-09T01:14:59.231053",
      "2022-07-09T01:15:00.993049",
      "2022-07-09T01:15:02.699915",
      "2022-07-09T01:15:04.375047",
      "2022-07-09T01:15:06.043054",
      "2022-07-09T01:15:07.739328",
      "2022-07-09T01:15:09.521457",
      "2022-07-09T01:15:11.390488",
      "2022-07-09T01:15:13.123570",
      "2022-07-09T01:15:14.761884",
      "2022-07-09T01:15:16.512342",
      "2022-07-09T01:15:18.165835",
      "2022-07-09T01:15:19.919696",
      "2022-07-09T01:15:21.711361",
      "2022-07-09T01:15:23.368516",
      "2022-07-09T01:15:25.013248",
      "2022-07-09T01:15:26.654181",
      "2022-07-09T01:15:28.312228",
      "2022-07-09T01:15:30.034641",
      "2022-07-09T01:15:31.990748",
      "2022-07-09T01:15:33.670763",
      "2022-07-09T01:15:35.332783",
      "2022-07-09T01:15:37.010691",
      "2022-07-09T01:15:38.666536",
      "2022-07-09T01:15:40.484842",
      "2022-07-09T01:15:42.259673",
      "2022-07-09T01:15:43.922880",
      "2022-07-09T01:15:45.583700",
      "2022-07-09T01:15:47.243482",
      "2022-07-09T01:15:48.910786",
      "2022-07-09T01:15:50.709818",
      "2022-07-09T01:15:52.446905",
      "2022-07-09T01:15:54.105078",
      "2022-07-09T01:15:55.765483",
      "2022-07-09T01:15:57.430394",
      "2022-07-09T01:15:59.162115",
      "2022-07-09T01:16:00.991042",
      "2022-07-09T01:16:02.715335",
      "2022-07-09T01:16:04.363300",
      "2022-07-09T01:16:06.013428",
      "2022-07-09T01:16:07.668216",
      "2022-07-09T01:16:09.363709",
      "2022-07-09T01:16:11.315934",
      "2022-07-09T01:16:12.970058",
      "2022-07-09T01:16:14.627821",
      "2022-07-09T01:16:16.284275",
      "2022-07-09T01:16:17.944106",
      "2022-07-09T01:16:19.619564",
      "2022-07-09T01:16:21.465111",
      "2022-07-09T01:16:23.115867",
      "2022-07-09T01:16:24.773930",
      "2022-07-09T01:16:26.426398",
      "2022-07-09T01:16:28.080139",
      "2022-07-09T01:16:29.806409",
      "2022-07-09T01:16:31.638001",
      "2022-07-09T01:16:33.296909",
      "2022-07-09T01:16:34.998222",
      "2022-07-09T01:16:36.664551",
      "2022-07-09T01:16:38.330297",
      "2022-07-09T01:16:40.081463",
      "2022-07-09T01:16:41.878803",
      "2022-07-09T01:16:43.548861",
      "2022-07-09T01:16:45.209447",
      "2022-07-09T01:16:46.876501",
      "2022-07-09T01:16:48.537177",
      "2022-07-09T01:16:50.340387",
      "2022-07-09T01:16:52.117401",
      "2022-07-09T01:16:53.782685",
      "2022-07-09T01:16:55.439400",
      "2022-07-09T01:16:57.093859",
      "2022-07-09T01:16:58.757422",
      "2022-07-09T01:17:00.537898",
      "2022-07-09T01:17:02.280238",
      "2022-07-09T01:17:03.931285",
      "2022-07-09T01:17:05.583595",
      "2022-07-09T01:17:07.239773",
      "2022-07-09T01:17:08.904818",
      "2022-07-09T01:17:11.141675",
      "2022-07-09T01:17:12.959128",
      "2022-07-09T01:17:14.630109"
    ],
    "values": [
      9.357982627747518,
      8.939932734165033,
      8.812327558922386,
      8.775672001532456,
      8.76975261895311,
      8.764925446360575,
      8.737843469931807,
      8.73196295210538,
      8.777977152093582,
      8.71286912568944,
      8.692936807911552,
      8.701543274935869,
      8.708253936470943,
      8.70740933239889,
      8.728231216816598,
      8.70886659970437,
      8.70371532979914,
      8.701364238241807,
      8.706219184866324,
      8.683786136686745,
      8.681114067153139,
      8.692352992190713,
      8.71445900382117,
      8.717814224701355,
      8.716635724170464,
      8.700764452622156,
      8.68774419373666,
      8.702388199193456,
      8.694120723463802,
      8.700430567101797,
      8.6742107476869,
      8.689166042897979,
      8.71109545059443,
      8.680919147196501,
      8.681311575995233,
      8.681588442724948,
      8.697883606192505,
      8.695031945003826,
      8.714909084133156,
      8.675677268875733,
      8.67386983307292,
      8.700039928550478,
      8.690473122581492,
      8.717526825244372,
      8.668846284966222,
      8.676980323278254,
      8.66693579683883,
      8.698265944399207,
      8.670509371390432,
      8.694519504795947,
      8.685469708404604,
      8.707845096333463,
      8.684648284888011,
      8.695621915934787,
      8.690785441974775,
      8.679959903130174,
      8.696741750323831,
      8.678543000800099,
      8.68629423299139,
      8.688995716750288,
      8.657303977241916,
      8.678239879600367,
      8.66697635354605,
      8.708864997554155,
      8.69009527716148,
      8.694910462895434,
      8.699577421845742,
      8.647549150087293,
      8.645919833904568,
      8.648387345714609,
      8.648987073771936,
      8.645033982341786,
      8.645685812652136,
      8.647597862445421,
      8.643406582153263,
      8.648772610118082,
      8.64675874380324,
      8.646074021883637,
      8.644419509293277,
      8.648008587120506,
      8.644311801383058,
      8.644907896245382,
      8.648718472920699,
      8.644675608533468,
      8.644814333099953,
      8.645273904218527,
      8.644270091430426,
      8.645673674437933,
      8.645420178760517,
      8.645219011686441,
      8.642125235476927,
      8.644053316944715,
      8.642779462742906,
      8.642566174614187,
      8.642475372267523,
      8.642932995917679,
      8.642805239882637,
      8.642481572449682,
      8.642715760737076,
      8.64244461100826,
      8.642572892080821,
      8.642828861538407,
      8.642312089295293,
      8.642484112351239,
      8.642254625332196,
      8.642104991023658,
      8.642518538962417,
      8.642146828352207,
      8.642270740555507,
      8.642311898155596,
      8.642333670224705,
      8.642518561959854,
      8.642463782239112,
      8.642391434674987,
      8.642548021153203,
      8.642611127986285,
      8.642607355966145,
      8.642576507150487,
      8.642504380220378,
      8.642434960215787,
      8.642406743633044,
      8.642365315157779,
      8.642345756777804,
      8.642376426672227,
      8.642330110033898,
      8.642300208216021,
      8.64226377662726,
      8.642233632626592,
      8.642242343001335,
      8.642274620794627,
      8.642263837099817,
      8.642281793877236,
      8.642313818250186,
      8.642298714794556,
      8.642333948869103,
      8.642317717938559,
      8.64229686164849,
      8.642297258821419,
      8.64229604689129,
      8.64229399354323,
      8.642298209665414,
      8.642300393806655,
      8.642302578358608,
      8.64230997877401,
      8.642311817343757,
      8.642315269130341,
      8.642312312871782,
      8.64231272921571,
      8.642311903762522,
      8.64230888988806,
      8.642311657741354,
      8.64231305531729,
      8.64230865932713,
      8.642304862065005,
      8.642304801190868,
      8.64230573496638,
      8.642305329852817,
      8.642301164590474,
      8.642304352575183,
      8.642301594528181,
      8.642300923593217,
      8.642301318939273,
      8.64230025335798,
      8.642302440665915,
      8.642302133845838,
      8.642306587943063,
      8.642304918427815,
      8.642309717391434,
      8.642309662574005,
      8.642309178671178,
      8.642312469900233,
      8.64230822496934,
      8.642308824889176,
      8.642306735614934,
      8.642308346828,
      8.642306441742894,
      8.642305330422206,
      8.642305092832972,
      8.642308912232714,
      8.642307240207451,
      8.642306482332156,
      8.642303685986157,
      8.642311309590795,
      8.64231386151663,
      8.64231736640726,
      8.642319830989896,
      8.642315929360427,
      8.642316880561351,
      8.642315420426595,
      8.642316301094864,
      8.642313580327162,
      8.642315064534682,
      8.64231359925494,
      8.642316763946546,
      8.642315425414035,
      8.64231534356574,
      8.642315641551283,
      8.642314660307594,
      8.642315515070447,
      8.642312729405354,
      8.642308994113199,
      8.642308741698374,
      8.642306368416914,
      8.642304173349494,
      8.642301323992315,
      8.642300620709761,
      8.642298501589842,
      8.642298120501362,
      8.642301601343274,
      8.642305795746834,
      8.64230712455053,
      8.64230866196951,
      8.642311438563732,
      8.642307139783027,
      8.642307468227862,
      8.642305831312305,
      8.642303993037311,
      8.642300349744282,
      8.642301401594667,
      8.64230327937688,
      8.642308272860825,
      8.64230991285436,
      8.64230946029499,
      8.64231794363806,
      8.642314845566784,
      8.642312314298458,
      8.642312084659931,
      8.642311380336366,
      8.642311576611148,
      8.642309780850656,
      8.642309247889582,
      8.64231070370177,
      8.642310862583614,
      8.64231022552466,
      8.642305962753415,
      8.642309664812986,
      8.642305586613436,
      8.6423055204625,
      8.642307995426401,
      8.642306413349457,
      8.642306992198971,
      8.64230847100191,
      8.642308536680744,
      8.642309532773638,
      8.642310388740425,
      8.642312092728988,
      8.642316083193904,
      8.642322306304543,
      8.642318296391249,
      8.642318897653324,
      8.642315636556294,
      8.64231517483221,
      8.642313056259164,
      8.64231217660916,
      8.642310444521316,
      8.642308299100318,
      8.642306034729424,
      8.642307594713381,
      8.64230134407016,
      8.642303490868843,
      8.642299062571476,
      8.64230031023137,
      8.642295855946308,
      8.64229461017182,
      8.642294674932238,
      8.64229525272854,
      8.642298071342697,
      8.642294195197941,
      8.642302138548448,
      8.642308740845094,
      8.64230834707563,
      8.64231569919153,
      8.642317453851419,
      8.642319224274647,
      8.642319702642972,
      8.642318688101753,
      8.642318817300993,
      8.642319529097819,
      8.642317774764887,
      8.642314607085005,
      8.642317409012996,
      8.642313921449404,
      8.642309730624012,
      8.642309616063198,
      8.642308988599277,
      8.642307457159655,
      8.642307022565904,
      8.642306680631174,
      8.642302091931459,
      8.642297171353226,
      8.642300811722015,
      8.642303042657728,
      8.642297275848339,
      8.642301090041219,
      8.642300314441904,
      8.642300969353592,
      8.642309202648775,
      8.64230796698072,
      8.64231287797611,
      8.642315965396001
    ]
  }
}