{
  "memory.usage": {
    "steps": [
      0,
      1,
      2,
      3,
      4,
      5,
      6,
      7,
      8,
      9,
      10,
      11,
      12,
      13,
      14,
      15,
      16,
      17,
      18,
      19,
      20,
      21,
      22,
      23,
      24,
      25,
      26,
      27,
      28,
      29,
      30,
      31,
      32,
      33,
      34,
      35,
      36,
      37,
      38,
      39,
      40,
      41,
      42,
      43,
      44,
      45,
      46,
      47,
      48,
      49,
      50,
      51,
      52,
      53,
      54,
      55,
      56,
      57,
      58,
      59,
      60,
      61,
      62,
      63,
      64,
      65,
      66,
      67,
      68,
      69,
      70,
      71,
      72,
      73,
      74,
      75,
      76,
      77,
      78,
      79,
      80,
      81,
      82,
      83,
      84,
      85,
      86,
      87,
      88,
      89,
      90,
      91,
      92,
      93,
      94,
      95,
      96,
      97,
      98,
      99,
      100,
      101,
      102,
      103,
      104,
      105,
      106,
      107,
      108,
      109,
      110,
      111,
      112,
      113,
      114,
      115,
      116,
      117,
      118,
      119,
      120,
      121,
      122,
      123,
      124,
      125,
      126,
      127,
      128,
      129,
      130,
      131,
      132,
      133,
      134,
      135,
      136,
      137,
      138,
      139,
      140,
      141,
      142,
      143,
      144,
      145,
      146,
      147,
      148,
      149,
      150,
      151,
      152,
      153,
      154,
      155,
      156,
      157,
      158,
      159,
      160,
      161,
      162,
      163,
      164,
      165,
      166,
      167,
      168,
      169,
      170,
      171,
      172,
      173,
      174,
      175,
      176,
      177,
      178,
      179,
      180,
      181,
      182,
      183,
      184,
      185,
      186,
      187,
      188,
      189,
      190,
      191,
      192,
      193,
      194,
      195,
      196,
      197,
      198,
      199
    ],
    "timestamps": [
      "2022-08-05T13:02:15.463231",
      "2022-08-05T13:02:16.128770",
      "2022-08-05T13:02:16.847454",
      "2022-08-05T13:02:17.529592",
      "2022-08-05T13:02:18.235534",
      "2022-08-05T13:02:18.956843",
      "2022-08-05T13:02:19.619369",
      "2022-08-05T13:02:20.280664",
      "2022-08-05T13:02:20.949118",
      "2022-08-05T13:02:21.613410",
      "2022-08-05T13:02:22.285175",
      "2022-08-05T13:02:22.946755",
      "2022-08-05T13:02:23.654364",
      "2022-08-05T13:02:24.346875",
      "2022-08-05T13:02:25.015796",
      "2022-08-05T13:02:25.714713",
      "2022-08-05T13:02:26.394490",
      "2022-08-05T13:02:27.056188",
      "2022-08-05T13:02:27.751627",
      "2022-08-05T13:02:28.417279",
      "2022-08-05T13:02:29.117467",
      "2022-08-05T13:02:29.833258",
      "2022-08-05T13:02:30.539459",
      "2022-08-05T13:02:31.208881",
      "2022-08-05T13:02:31.869997",
      "2022-08-05T13:02:32.530419",
      "2022-08-05T13:02:33.195039",
      "2022-08-05T13:02:33.858737",
      "2022-08-05T13:02:34.525131",
      "2022-08-05T13:02:35.191000",
      "2022-08-05T13:02:35.861945",
      "2022-08-05T13:02:36.534462",
      "2022-08-05T13:02:37.229335",
      "2022-08-05T13:02:37.896738",
      "2022-08-05T13:02:38.572405",
      "2022-08-05T13:02:39.235126",
      "2022-08-05T13:02:39.921964",
      "2022-08-05T13:02:40.603058",
      "2022-08-05T13:02:41.280831",
      "2022-08-05T13:02:41.977902",
      "2022-08-05T13:02:42.654695",
      "2022-08-05T13:02:43.316212",
      "2022-08-05T13:02:43.980775",
      "2022-08-05T13:02:44.644678",
      "2022-08-05T13:02:45.308192",
      "2022-08-05T13:02:45.969582",
      "2022-08-05T13:02:46.657117",
      "2022-08-05T13:02:47.331792",
      "2022-08-05T13:02:47.997808",
      "2022-08-05T13:02:48.658817",
      "2022-08-05T13:02:49.332911",
      "2022-08-05T13:02:49.994708",
      "2022-08-05T13:02:50.659476",
      "2022-08-05T13:02:51.327772",
      "2022-08-05T13:02:52.011922",
      "2022-08-05T13:02:52.712292",
      "2022-08-05T13:02:53.379155",
      "2022-08-05T13:02:54.040838",
      "2022-08-05T13:02:54.702418",
      "2022-08-05T13:02:55.382501",
      "2022-08-05T13:02:56.066737",
      "2022-08-05T13:02:56.738894",
      "2022-08-05T13:02:57.420370",
      "2022-08-05T13:02:58.087899",
      "2022-08-05T13:02:58.785860",
      "2022-08-05T13:02:59.470808",
      "2022-08-05T13:03:00.144994",
      "2022-08-05T13:03:00.818819",
      "2022-08-05T13:03:01.490555",
      "2022-08-05T13:03:02.174115",
      "2022-08-05T13:03:02.871197",
      "2022-08-05T13:03:03.548378",
      "2022-08-05T13:03:04.212683",
      "2022-08-05T13:03:04.876955",
      "2022-08-05T13:03:05.559217",
      "2022-08-05T13:03:06.224568",
      "2022-08-05T13:03:06.902945",
      "2022-08-05T13:03:07.589541",
      "2022-08-05T13:03:08.255792",
      "2022-08-05T13:03:08.925761",
      "2022-08-05T13:03:09.619312",
      "2022-08-05T13:03:10.303144",
      "2022-08-05T13:03:10.978194",
      "2022-08-05T13:03:11.645560",
      "2022-08-05T13:03:12.350294",
      "2022-08-05T13:03:13.057010",
      "2022-08-05T13:03:13.755744",
      "2022-08-05T13:03:14.418294",
      "2022-08-05T13:03:15.081465",
      "2022-08-05T13:03:15.745395",
      "2022-08-05T13:03:16.418331",
      "2022-08-05T13:03:17.089397",
      "2022-08-05T13:03:17.782350",
      "2022-08-05T13:03:18.450637",
      "2022-08-05T13:03:19.143588",
      "2022-08-05T13:03:19.816961",
      "2022-08-05T13:03:20.485942",
      "2022-08-05T13:03:21.148835",
      "2022-08-05T13:03:21.812718",
      "2022-08-05T13:03:22.491337",
      "2022-08-05T13:03:23.175790",
      "2022-08-05T13:03:23.839444",
      "2022-08-05T13:03:24.511770",
      "2022-08-05T13:03:25.175405",
      "2022-08-05T13:03:25.839060",
      "2022-08-05T13:03:26.532148",
      "2022-08-05T13:03:27.250486",
      "2022-08-05T13:03:27.941586",
      "2022-08-05T13:03:28.612987",
      "2022-08-05T13:03:29.291076",
      "2022-08-05T13:03:29.981620",
      "2022-08-05T13:03:30.652772",
      "2022-08-05T13:03:31.316289",
      "2022-08-05T13:03:32.007353",
      "2022-08-05T13:03:32.709081",
      "2022-08-05T13:03:33.422128",
      "2022-08-05T13:03:34.088946",
      "2022-08-05T13:03:34.770377",
      "2022-08-05T13:03:35.464326",
      "2022-08-05T13:03:36.138318",
      "2022-08-05T13:03:36.834482",
      "2022-08-05T13:03:37.562687",
      "2022-08-05T13:03:38.328929",
      "2022-08-05T13:03:39.100185",
      "2022-08-05T13:03:39.876405",
      "2022-08-05T13:03:40.637476",
      "2022-08-05T13:03:41.488114",
      "2022-08-05T13:03:42.419606",
      "2022-08-05T13:03:43.530036",
      "2022-08-05T13:03:44.467837",
      "2022-08-05T13:03:46.057337",
      "2022-08-05T13:03:47.655690",
      "2022-08-05T13:03:48.687910",
      "2022-08-05T13:03:49.769575",
      "2022-08-05T13:03:50.842803",
      "2022-08-05T13:03:51.920529",
      "2022-08-05T13:03:53.065709",
      "2022-08-05T13:03:54.217447",
      "2022-08-05T13:03:55.281431",
      "2022-08-05T13:03:56.318815",
      "2022-08-05T13:03:57.371827",
      "2022-08-05T13:03:58.380179",
      "2022-08-05T13:03:59.369083",
      "2022-08-05T13:04:00.433288",
      "2022-08-05T13:04:01.491720",
      "2022-08-05T13:04:02.580378",
      "2022-08-05T13:04:03.522877",
      "2022-08-05T13:04:04.507473",
      "2022-08-05T13:04:05.500066",
      "2022-08-05T13:04:06.464342",
      "2022-08-05T13:04:07.537223",
      "2022-08-05T13:04:08.636601",
      "2022-08-05T13:04:09.706805",
      "2022-08-05T13:04:10.702188",
      "2022-08-05T13:04:11.767757",
      "2022-08-05T13:04:12.794985",
      "2022-08-05T13:04:13.851216",
      "2022-08-05T13:04:14.901310",
      "2022-08-05T13:04:15.925154",
      "2022-08-05T13:04:16.999295",
      "2022-08-05T13:04:18.101128",
      "2022-08-05T13:04:19.146016",
      "2022-08-05T13:04:20.188118",
      "2022-08-05T13:04:21.201537",
      "2022-08-05T13:04:22.234518",
      "2022-08-05T13:04:23.233192",
      "2022-08-05T13:04:24.221131",
      "2022-08-05T13:04:25.195221",
      "2022-08-05T13:04:26.236599",
      "2022-08-05T13:04:27.274287",
      "2022-08-05T13:04:28.277169",
      "2022-08-05T13:04:29.303323",
      "2022-08-05T13:04:30.349649",
      "2022-08-05T13:04:31.395230",
      "2022-08-05T13:04:32.414051",
      "2022-08-05T13:04:33.284808",
      "2022-08-05T13:04:34.354923",
      "2022-08-05T13:04:35.477779",
      "2022-08-05T13:04:36.651455",
      "2022-08-05T13:04:37.814679",
      "2022-08-05T13:04:38.856055",
      "2022-08-05T13:04:39.908283",
      "2022-08-05T13:04:40.909265",
      "2022-08-05T13:04:41.950593",
      "2022-08-05T13:04:42.990941",
      "2022-08-05T13:04:44.027148",
      "2022-08-05T13:04:45.115416",
      "2022-08-05T13:04:46.125504",
      "2022-08-05T13:04:47.178182",
      "2022-08-05T13:04:48.200313",
      "2022-08-05T13:04:49.219961",
      "2022-08-05T13:04:50.268981",
      "2022-08-05T13:04:51.276250",
      "2022-08-05T13:04:52.322343",
      "2022-08-05T13:04:53.365411",
      "2022-08-05T13:04:54.410891",
      "2022-08-05T13:04:55.476821",
      "2022-08-05T13:04:56.530535",
      "2022-08-05T13:04:57.571753",
      "2022-08-05T13:04:58.621210"
    ],
    "values": [
      5.296128,
      5.296128,
      5.296128,
      5.296128,
      5.296128,
      5.296128,
      5.296128,
      5.296128,
      5.296128,
      5.296128,
      5.296128,
      5.296128,
      5.296128,
      5.296128,
      5.296128,
      5.296128,
      5.296128,
      5.296128,
      5.296128,
      5.296128,
      5.296128,
      5.296128,
      5.296128,
      5.296128,
      5.296128,
      5.296128,
      5.296128,
      5.296128,
      5.296128,
      5.296128,
      5.296128,
      5.296128,
      5.296128,
      5.296128,
      5.296128,
      5.296128,
      5.296128,
      5.296128,
      5.296128,
      5.296128,
      5.296128,
      5.296128,
      5.296128,
      5.296128,
      5.296128,
      5.296128,
      5.296128,
      5.296128,
      5.296128,
      5.296128,
      5.296128,
      5.296128,
      5.296128,
      5.296128,
      5.296128,
      5.296128,
      5.296128,
      5.296128,
      5.296128,
      5.296128,
      5.296128,
      5.296128,
      5.296128,
      5.296128,
      5.296128,
      5.296128,
      5.296128,
      5.296128,
      5.296128,
      5.296128,
      5.296128,
      5.296128,
      5.296128,
      5.296128,
      5.296128,
      5.296128,
      5.296128,
      5.296128,
      5.296128,
      5.296128,
      5.296128,
      5.296128,
      5.296128,
      5.296128,
      5.296128,
      5.296128,
      5.296128,
      5.296128,
      5.296128,
      5.296128,
      5.296128,
      5.296128,
      5.296128,
      5.296128,
      5.296128,
      5.296128,
      5.296128,
      5.296128,
      5.296128,
      5.296128,
      5.296128,
      5.296128,
      5.296128,
      5.296128,
      5.296128,
      5.296128,
      5.296128,
      5.296128,
      5.296128,
      5.296128,
      5.296128,
      5.296128,
      5.296128,
      5.296128,
      5.296128,
      5.296128,
      5.296128,
      5.296128,
      5.296128,
      5.296128,
      5.296128,
      5.296128,
      5.296128,
      5.296128,
      5.296128,
      5.296128,
      5.296128,
      5.296128,
      5.296128,
      5.296128,
      5.296128,
      5.296128,
      5.296128,
      5.296128,
      5.296128,
      5.296128,
      5.296128,
      5.296128,
      5.296128,
      5.296128,
      5.296128,
      5.296128,
      5.296128,
      5.296128,
      5.296128,
      5.296128,
      5.296128,
      5.296128,
      5.296128,
      5.296128,
      5.296128,
      5.296128,
      5.296128,
      5.296128,
      5.296128,
      5.296128,
      5.296128,
      5.296128,
      5.296128,
      5.296128,
      5.296128,
      5.296128,
      5.296128,
      5.296128,
      5.296128,
      5.296128,
      5.296128,
      5.296128,
      5.296128,
      5.296128,
      5.296128,
      5.296128,
      5.296128,
      5.296128,
      5.296128,
      5.296128,
      5.296128,
      5.296128,
      5.296128,
      5.296128,
      5.296128,
      5.296128,
      5.296128,
      5.296128,
      5.296128,
      5.296128,
      5.296128,
      5.296128,
      5.296128,
      5.296128,
      5.296128,
      5.296128,
      5.296128,
      5.296128,
      5.296128,
      5.296128,
      5.296128,
      5.296128,
      5.296128,
      5.296128
    ]
  },
  "test": {
    "steps": [
      0
    ],
    "timestamps": [
      "2022-08-05T13:04:58.858451"
    ],
    "values": [
      9.323323307037354
    ]
  },
  "train": {
    "steps": [
      0,
      1,
      2,
      3,
      4,
      5,
      6,
      7,
      8,
      9,
      10,
      11,
      12,
      13,
      14,
      15,
      16,
      17,
      18,
      19,
      20,
      21,
      22,
      23,
      24,
      25,
      26,
      27,
      28,
      29,
      30,
      31,
      32,
      33,
      34,
      35,
      36,
      37,
      38,
      39,
      40,
      41,
      42,
      43,
      44,
      45,
      46,
      47,
      48,
      49,
      50,
      51,
      52,
      53,
      54,
      55,
      56,
      57,
      58,
      59,
      60,
      61,
      62,
      63,
      64,
      65,
      66,
      67,
      68,
      69,
      70,
      71,
      72,
      73,
      74,
      75,
      76,
      77,
      78,
      79,
      80,
      81,
      82,
      83,
      84,
      85,
      86,
      87,
      88,
      89,
      90,
      91,
      92,
      93,
      94,
      95,
      96,
      97,
      98,
      99,
      100,
      101,
      102,
      103,
      104,
      105,
      106,
      107,
      108,
      109,
      110,
      111,
      112,
      113,
      114,
      115,
      116,
      117,
      118,
      119,
      120,
      121,
      122,
      123,
      124,
      125,
      126,
      127,
      128,
      129,
      130,
      131,
      132,
      133,
      134,
      135,
      136,
      137,
      138,
      139,
      140,
      141,
      142,
      143,
      144,
      145,
      146,
      147,
      148,
      149,
      150,
      151,
      152,
      153,
      154,
      155,
      156,
      157,
      158,
      159,
      160,
      161,
      162,
      163,
      164,
      165,
      166,
      167,
      168,
      169,
      170,
      171,
      172,
      173,
      174,
      175,
      176,
      177,
      178,
      179,
      180,
      181,
      182,
      183,
      184,
      185,
      186,
      187,
      188,
      189,
      190,
      191,
      192,
      193,
      194,
      195,
      196,
      197,
      198,
      199
    ],
    "timestamps": [
      "2022-08-05T13:02:15.463091",
      "2022-08-05T13:02:16.128651",
      "2022-08-05T13:02:16.847329",
      "2022-08-05T13:02:17.529469",
      "2022-08-05T13:02:18.235410",
      "2022-08-05T13:02:18.956726",
      "2022-08-05T13:02:19.619256",
      "2022-08-05T13:02:20.280544",
      "2022-08-05T13:02:20.949004",
      "2022-08-05T13:02:21.613297",
      "2022-08-05T13:02:22.285057",
      "2022-08-05T13:02:22.946637",
      "2022-08-05T13:02:23.654131",
      "2022-08-05T13:02:24.346754",
      "2022-08-05T13:02:25.015677",
      "2022-08-05T13:02:25.714594",
      "2022-08-05T13:02:26.394373",
      "2022-08-05T13:02:27.056072",
      "2022-08-05T13:02:27.751510",
      "2022-08-05T13:02:28.417161",
      "2022-08-05T13:02:29.117345",
      "2022-08-05T13:02:29.833133",
      "2022-08-05T13:02:30.539330",
      "2022-08-05T13:02:31.208761",
      "2022-08-05T13:02:31.869877",
      "2022-08-05T13:02:32.530305",
      "2022-08-05T13:02:33.194921",
      "2022-08-05T13:02:33.858617",
      "2022-08-05T13:02:34.524966",
      "2022-08-05T13:02:35.190883",
      "2022-08-05T13:02:35.861825",
      "2022-08-05T13:02:36.534334",
      "2022-08-05T13:02:37.229218",
      "2022-08-05T13:02:37.896620",
      "2022-08-05T13:02:38.572258",
      "2022-08-05T13:02:39.235007",
      "2022-08-05T13:02:39.921847",
      "2022-08-05T13:02:40.602937",
      "2022-08-05T13:02:41.280706",
      "2022-08-05T13:02:41.977783",
      "2022-08-05T13:02:42.654572",
      "2022-08-05T13:02:43.316096",
      "2022-08-05T13:02:43.980659",
      "2022-08-05T13:02:44.644560",
      "2022-08-05T13:02:45.308073",
      "2022-08-05T13:02:45.969461",
      "2022-08-05T13:02:46.656996",
      "2022-08-05T13:02:47.331673",
      "2022-08-05T13:02:47.997691",
      "2022-08-05T13:02:48.658703",
      "2022-08-05T13:02:49.332787",
      "2022-08-05T13:02:49.994587",
      "2022-08-05T13:02:50.659356",
      "2022-08-05T13:02:51.327651",
      "2022-08-05T13:02:52.011797",
      "2022-08-05T13:02:52.712172",
      "2022-08-05T13:02:53.379038",
      "2022-08-05T13:02:54.040722",
      "2022-08-05T13:02:54.702304",
      "2022-08-05T13:02:55.382383",
      "2022-08-05T13:02:56.066619",
      "2022-08-05T13:02:56.738775",
      "2022-08-05T13:02:57.420252",
      "2022-08-05T13:02:58.087784",
      "2022-08-05T13:02:58.785741",
      "2022-08-05T13:02:59.470688",
      "2022-08-05T13:03:00.144871",
      "2022-08-05T13:03:00.818669",
      "2022-08-05T13:03:01.490440",
      "2022-08-05T13:03:02.173990",
      "2022-08-05T13:03:02.871079",
      "2022-08-05T13:03:03.548258",
      "2022-08-05T13:03:04.212564",
      "2022-08-05T13:03:04.876836",
      "2022-08-05T13:03:05.559095",
      "2022-08-05T13:03:06.224446",
      "2022-08-05T13:03:06.902824",
      "2022-08-05T13:03:07.589407",
      "2022-08-05T13:03:08.255672",
      "2022-08-05T13:03:08.925639",
      "2022-08-05T13:03:09.619175",
      "2022-08-05T13:03:10.303024",
      "2022-08-05T13:03:10.978051",
      "2022-08-05T13:03:11.645439",
      "2022-08-05T13:03:12.350170",
      "2022-08-05T13:03:13.056890",
      "2022-08-05T13:03:13.755625",
      "2022-08-05T13:03:14.418175",
      "2022-08-05T13:03:15.081349",
      "2022-08-05T13:03:15.745274",
      "2022-08-05T13:03:16.418208",
      "2022-08-05T13:03:17.089275",
      "2022-08-05T13:03:17.782216",
      "2022-08-05T13:03:18.450515",
      "2022-08-05T13:03:19.143467",
      "2022-08-05T13:03:19.816838",
      "2022-08-05T13:03:20.485822",
      "2022-08-05T13:03:21.148717",
      "2022-08-05T13:03:21.812600",
      "2022-08-05T13:03:22.491212",
      "2022-08-05T13:03:23.175671",
      "2022-08-05T13:03:23.839320",
      "2022-08-05T13:03:24.511649",
      "2022-08-05T13:03:25.175284",
      "2022-08-05T13:03:25.838940",
      "2022-08-05T13:03:26.532022",
      "2022-08-05T13:03:27.250365",
      "2022-08-05T13:03:27.941463",
      "2022-08-05T13:03:28.612870",
      "2022-08-05T13:03:29.290956",
      "2022-08-05T13:03:29.981493",
      "2022-08-05T13:03:30.652653",
      "2022-08-05T13:03:31.316154",
      "2022-08-05T13:03:32.007232",
      "2022-08-05T13:03:32.708957",
      "2022-08-05T13:03:33.422010",
      "2022-08-05T13:03:34.088826",
      "2022-08-05T13:03:34.770253",
      "2022-08-05T13:03:35.464206",
      "2022-08-05T13:03:36.138197",
      "2022-08-05T13:03:36.834359",
      "2022-08-05T13:03:37.562569",
      "2022-08-05T13:03:38.328759",
      "2022-08-05T13:03:39.100012",
      "2022-08-05T13:03:39.876227",
      "2022-08-05T13:03:40.637323",
      "2022-08-05T13:03:41.487951",
      "2022-08-05T13:03:42.419388",
      "2022-08-05T13:03:43.529895",
      "2022-08-05T13:03:44.467682",
      "2022-08-05T13:03:46.056699",
      "2022-08-05T13:03:47.655544",
      "2022-08-05T13:03:48.687733",
      "2022-08-05T13:03:49.769393",
      "2022-08-05T13:03:50.842611",
      "2022-08-05T13:03:51.920358",
      "2022-08-05T13:03:53.065466",
      "2022-08-05T13:03:54.217307",
      "2022-08-05T13:03:55.281265",
      "2022-08-05T13:03:56.318646",
      "2022-08-05T13:03:57.371657",
      "2022-08-05T13:03:58.379971",
      "2022-08-05T13:03:59.368945",
      "2022-08-05T13:04:00.433121",
      "2022-08-05T13:04:01.491554",
      "2022-08-05T13:04:02.580210",
      "2022-08-05T13:04:03.522737",
      "2022-08-05T13:04:04.507340",
      "2022-08-05T13:04:05.499896",
      "2022-08-05T13:04:06.464176",
      "2022-08-05T13:04:07.537010",
      "2022-08-05T13:04:08.636421",
      "2022-08-05T13:04:09.706631",
      "2022-08-05T13:04:10.701994",
      "2022-08-05T13:04:11.767551",
      "2022-08-05T13:04:12.794813",
      "2022-08-05T13:04:13.851032",
      "2022-08-05T13:04:14.901147",
      "2022-08-05T13:04:15.924989",
      "2022-08-05T13:04:16.999122",
      "2022-08-05T13:04:18.100952",
      "2022-08-05T13:04:19.145871",
      "2022-08-05T13:04:20.187945",
      "2022-08-05T13:04:21.201363",
      "2022-08-05T13:04:22.234350",
      "2022-08-05T13:04:23.233017",
      "2022-08-05T13:04:24.220988",
      "2022-08-05T13:04:25.195047",
      "2022-08-05T13:04:26.236432",
      "2022-08-05T13:04:27.274117",
      "2022-08-05T13:04:28.276994",
      "2022-08-05T13:04:29.303136",
      "2022-08-05T13:04:30.349505",
      "2022-08-05T13:04:31.395058",
      "2022-08-05T13:04:32.413890",
      "2022-08-05T13:04:33.284637",
      "2022-08-05T13:04:34.354741",
      "2022-08-05T13:04:35.477571",
      "2022-08-05T13:04:36.651250",
      "2022-08-05T13:04:37.814473",
      "2022-08-05T13:04:38.855866",
      "2022-08-05T13:04:39.908135",
      "2022-08-05T13:04:40.909069",
      "2022-08-05T13:04:41.950422",
      "2022-08-05T13:04:42.990770",
      "2022-08-05T13:04:44.026981",
      "2022-08-05T13:04:45.115225",
      "2022-08-05T13:04:46.125327",
      "2022-08-05T13:04:47.178007",
      "2022-08-05T13:04:48.200142",
      "2022-08-05T13:04:49.219791",
      "2022-08-05T13:04:50.268777",
      "2022-08-05T13:04:51.276077",
      "2022-08-05T13:04:52.322161",
      "2022-08-05T13:04:53.365238",
      "2022-08-05T13:04:54.410722",
      "2022-08-05T13:04:55.476642",
      "2022-08-05T13:04:56.530340",
      "2022-08-05T13:04:57.571579",
      "2022-08-05T13:04:58.621026"
    ],
    "values": [
      10.34351050376892,
      9.544782075881958,
      9.496076822280884,
      9.45324517250061,
      9.426830883026122,
      9.435696649551392,
      9.430859003067017,
      9.415669832229614,
      9.414547338485718,
      9.393129720687867,
      9.392085027694701,
      9.401366634368896,
      9.39222279548645,
      9.401296920776367,
      9.385184116363526,
      9.385448112487794,
      9.387427787780762,
      9.374776716232299,
      9.386872129440308,
      9.382585821151734,
      9.376679468154908,
      9.374715604782104,
      9.374309148788452,
      9.387259502410888,
      9.367940883636475,
      9.367192344665527,
      9.376843090057372,
      9.378943166732789,
      9.365850372314453,
      9.362211151123047,
      9.368520421981811,
      9.368684797286987,
      9.37050926208496,
      9.362593202590942,
      9.367822828292846,
      9.370163469314575,
      9.374528312683106,
      9.375810585021974,
      9.370310916900635,
      9.360977210998534,
      9.357207822799683,
      9.356940269470215,
      9.362345266342164,
      9.365704612731934,
      9.366309814453125,
      9.362435827255249,
      9.36235969543457,
      9.358476390838623,
      9.369796228408813,
      9.360624227523804,
      9.355539779663086,
      9.360912046432496,
      9.355568017959595,
      9.358743495941162,
      9.360294437408447,
      9.356961736679077,
      9.356113986968994,
      9.354802742004395,
      9.353660259246826,
      9.36527050971985,
      9.351051359176635,
      9.359232988357544,
      9.362566738128661,
      9.356471519470215,
      9.367804317474365,
      9.353489837646485,
      9.37824070930481,
      9.360755653381348,
      9.35043767929077,
      9.360375843048097,
      9.35327054977417,
      9.35806565284729,
      9.36220211982727,
      9.352936506271362,
      9.358128309249878,
      9.362192878723144,
      9.361690092086793,
      9.35077977180481,
      9.362478542327882,
      9.357567615509033,
      9.34920207977295,
      9.353078870773315,
      9.350947923660279,
      9.34976689338684,
      9.356624279022217,
      9.357245559692382,
      9.359704990386962,
      9.354886779785156,
      9.35222445487976,
      9.360397605895995,
      9.361616697311401,
      9.355010919570923,
      9.351143035888672,
      9.36154483795166,
      9.345587568283081,
      9.349811391830444,
      9.35707983970642,
      9.353956527709961,
      9.34819941520691,
      9.353166618347167,
      9.35552906036377,
      9.350748138427734,
      9.342403259277344,
      9.350983180999755,
      9.353138980865479,
      9.35157814025879,
      9.346604022979736,
      9.34864185333252,
      9.356400098800659,
      9.358739719390869,
      9.353612976074219,
      9.349150886535645,
      9.35072564125061,
      9.341946649551392,
      9.346589879989624,
      9.34887885093689,
      9.35149408340454,
      9.349473161697388,
      9.358192701339721,
      9.350996856689454,
      9.351602325439453,
      9.354592266082763,
      9.34963773727417,
      9.342841806411743,
      9.315948667526245,
      9.305232543945312,
      9.305116634368897,
      9.304881048202514,
      9.304706926345824,
      9.306343336105346,
      9.30545168876648,
      9.306032810211182,
      9.304201231002807,
      9.304453992843628,
      9.30466181755066,
      9.303801956176757,
      9.303195400238037,
      9.303865213394165,
      9.304148082733155,
      9.304979763031007,
      9.30382984161377,
      9.303747720718384,
      9.303076276779175,
      9.305341434478759,
      9.305299654006959,
      9.304193592071533,
      9.304595050811768,
      9.303810443878174,
      9.303905467987061,
      9.30449652671814,
      9.303203363418579,
      9.302114124298095,
      9.303642339706421,
      9.303930912017822,
      9.304395093917847,
      9.303793315887452,
      9.302572422027588,
      9.302194290161133,
      9.30311918258667,
      9.304534196853638,
      9.303405771255493,
      9.304213552474975,
      9.301903753280639,
      9.304044942855835,
      9.302587814331055,
      9.303877801895142,
      9.302869539260865,
      9.303034725189208,
      9.302097816467285,
      9.30374662399292,
      9.302715225219726,
      9.303314599990845,
      9.303034801483154,
      9.29808638572693,
      9.2971617603302,
      9.296782274246215,
      9.29682674407959,
      9.296657752990722,
      9.296880130767823,
      9.296714248657226,
      9.296728410720824,
      9.296683216094971,
      9.296668672561646,
      9.296657619476319,
      9.29666609764099,
      9.296678667068482,
      9.296694374084472,
      9.296683177947997,
      9.29675175666809,
      9.296803359985352,
      9.296704607009888,
      9.296762351989747,
      9.296581077575684,
      9.296772747039794,
      9.296713991165161,
      9.296684675216675,
      9.296588172912598,
      9.295814962387086,
      9.295819730758668,
      9.295807504653931
    ]
  },
  "val": {
    "steps": [
      0,
      1,
      2,
      3,
      4,
      5,
      6,
      7,
      8,
      9,
      10,
      11,
      12,
      13,
      14,
      15,
      16,
      17,
      18,
      19,
      20,
      21,
      22,
      23,
      24,
      25,
      26,
      27,
      28,
      29,
      30,
      31,
      32,
      33,
      34,
      35,
      36,
      37,
      38,
      39,
      40,
      41,
      42,
      43,
      44,
      45,
      46,
      47,
      48,
      49,
      50,
      51,
      52,
      53,
      54,
      55,
      56,
      57,
      58,
      59,
      60,
      61,
      62,
      63,
      64,
      65,
      66,
      67,
      68,
      69,
      70,
      71,
      72,
      73,
      74,
      75,
      76,
      77,
      78,
      79,
      80,
      81,
      82,
      83,
      84,
      85,
      86,
      87,
      88,
      89,
      90,
      91,
      92,
      93,
      94,
      95,
      96,
      97,
      98,
      99,
      100,
      101,
      102,
      103,
      104,
      105,
      106,
      107,
      108,
      109,
      110,
      111,
      112,
      113,
      114,
      115,
      116,
      117,
      118,
      119,
      120,
      121,
      122,
      123,
      124,
      125,
      126,
      127,
      128,
      129,
      130,
      131,
      132,
      133,
      134,
      135,
      136,
      137,
      138,
      139,
      140,
      141,
      142,
      143,
      144,
      145,
      146,
      147,
      148,
      149,
      150,
      151,
      152,
      153,
      154,
      155,
      156,
      157,
      158,
      159,
      160,
      161,
      162,
      163,
      164,
      165,
      166,
      167,
      168,
      169,
      170,
      171,
      172,
      173,
      174,
      175,
      176,
      177,
      178,
      179,
      180,
      181,
      182,
      183,
      184,
      185,
      186,
      187,
      188,
      189,
      190,
      191,
      192,
      193,
      194,
      195,
      196,
      197,
      198,
      199
    ],
    "timestamps": [
      "2022-08-05T13:02:15.538826",
      "2022-08-05T13:02:16.219854",
      "2022-08-05T13:02:16.925134",
      "2022-08-05T13:02:17.605127",
      "2022-08-05T13:02:18.312273",
      "2022-08-05T13:02:19.032314",
      "2022-08-05T13:02:19.694651",
      "2022-08-05T13:02:20.356154",
      "2022-08-05T13:02:21.024877",
      "2022-08-05T13:02:21.689105",
      "2022-08-05T13:02:22.360621",
      "2022-08-05T13:02:23.023073",
      "2022-08-05T13:02:23.741631",
      "2022-08-05T13:02:24.422298",
      "2022-08-05T13:02:25.091501",
      "2022-08-05T13:02:25.791411",
      "2022-08-05T13:02:26.469974",
      "2022-08-05T13:02:27.132428",
      "2022-08-05T13:02:27.827033",
      "2022-08-05T13:02:28.494682",
      "2022-08-05T13:02:29.194229",
      "2022-08-05T13:02:29.910881",
      "2022-08-05T13:02:30.617061",
      "2022-08-05T13:02:31.284339",
      "2022-08-05T13:02:31.945168",
      "2022-08-05T13:02:32.606947",
      "2022-08-05T13:02:33.270444",
      "2022-08-05T13:02:33.934377",
      "2022-08-05T13:02:34.603074",
      "2022-08-05T13:02:35.266492",
      "2022-08-05T13:02:35.937341",
      "2022-08-05T13:02:36.609944",
      "2022-08-05T13:02:37.304730",
      "2022-08-05T13:02:37.972557",
      "2022-08-05T13:02:38.648689",
      "2022-08-05T13:02:39.310519",
      "2022-08-05T13:02:39.997886",
      "2022-08-05T13:02:40.678583",
      "2022-08-05T13:02:41.358589",
      "2022-08-05T13:02:42.054648",
      "2022-08-05T13:02:42.730453",
      "2022-08-05T13:02:43.391808",
      "2022-08-05T13:02:44.056601",
      "2022-08-05T13:02:44.720316",
      "2022-08-05T13:02:45.383914",
      "2022-08-05T13:02:46.045213",
      "2022-08-05T13:02:46.732776",
      "2022-08-05T13:02:47.407199",
      "2022-08-05T13:02:48.073384",
      "2022-08-05T13:02:48.734183",
      "2022-08-05T13:02:49.408586",
      "2022-08-05T13:02:50.070214",
      "2022-08-05T13:02:50.735736",
      "2022-08-05T13:02:51.404632",
      "2022-08-05T13:02:52.101604",
      "2022-08-05T13:02:52.788542",
      "2022-08-05T13:02:53.454553",
      "2022-08-05T13:02:54.116255",
      "2022-08-05T13:02:54.778026",
      "2022-08-05T13:02:55.458062",
      "2022-08-05T13:02:56.142436",
      "2022-08-05T13:02:56.818017",
      "2022-08-05T13:02:57.496585",
      "2022-08-05T13:02:58.163698",
      "2022-08-05T13:02:58.864047",
      "2022-08-05T13:02:59.546473",
      "2022-08-05T13:03:00.221992",
      "2022-08-05T13:03:00.897675",
      "2022-08-05T13:03:01.566990",
      "2022-08-05T13:03:02.251416",
      "2022-08-05T13:03:02.946651",
      "2022-08-05T13:03:03.624147",
      "2022-08-05T13:03:04.288186",
      "2022-08-05T13:03:04.952868",
      "2022-08-05T13:03:05.635099",
      "2022-08-05T13:03:06.300130",
      "2022-08-05T13:03:06.982081",
      "2022-08-05T13:03:07.665828",
      "2022-08-05T13:03:08.331720",
      "2022-08-05T13:03:09.001980",
      "2022-08-05T13:03:09.696283",
      "2022-08-05T13:03:10.378700",
      "2022-08-05T13:03:11.054743",
      "2022-08-05T13:03:11.721434",
      "2022-08-05T13:03:12.427759",
      "2022-08-05T13:03:13.132550",
      "2022-08-05T13:03:13.831104",
      "2022-08-05T13:03:14.493733",
      "2022-08-05T13:03:15.157243",
      "2022-08-05T13:03:15.820978",
      "2022-08-05T13:03:16.493637",
      "2022-08-05T13:03:17.164975",
      "2022-08-05T13:03:17.859245",
      "2022-08-05T13:03:18.527127",
      "2022-08-05T13:03:19.221327",
      "2022-08-05T13:03:19.892436",
      "2022-08-05T13:03:20.561210",
      "2022-08-05T13:03:21.225636",
      "2022-08-05T13:03:21.888269",
      "2022-08-05T13:03:22.567149",
      "2022-08-05T13:03:23.251959",
      "2022-08-05T13:03:23.915180",
      "2022-08-05T13:03:24.587198",
      "2022-08-05T13:03:25.251545",
      "2022-08-05T13:03:25.914695",
      "2022-08-05T13:03:26.616346",
      "2022-08-05T13:03:27.326360",
      "2022-08-05T13:03:28.019326",
      "2022-08-05T13:03:28.689067",
      "2022-08-05T13:03:29.368083",
      "2022-08-05T13:03:30.056930",
      "2022-08-05T13:03:30.728193",
      "2022-08-05T13:03:31.392379",
      "2022-08-05T13:03:32.083110",
      "2022-08-05T13:03:32.788693",
      "2022-08-05T13:03:33.497601",
      "2022-08-05T13:03:34.164528",
      "2022-08-05T13:03:34.847887",
      "2022-08-05T13:03:35.539895",
      "2022-08-05T13:03:36.214167",
      "2022-08-05T13:03:36.910100",
      "2022-08-05T13:03:37.648890",
      "2022-08-05T13:03:38.411708",
      "2022-08-05T13:03:39.181776",
      "2022-08-05T13:03:39.958448",
      "2022-08-05T13:03:40.725735",
      "2022-08-05T13:03:41.585718",
      "2022-08-05T13:03:42.555539",
      "2022-08-05T13:03:43.617905",
      "2022-08-05T13:03:44.562451",
      "2022-08-05T13:03:46.533975",
      "2022-08-05T13:03:47.748984",
      "2022-08-05T13:03:48.797486",
      "2022-08-05T13:03:49.878502",
      "2022-08-05T13:03:50.955375",
      "2022-08-05T13:03:52.035766",
      "2022-08-05T13:03:53.214009",
      "2022-08-05T13:03:54.312146",
      "2022-08-05T13:03:55.388771",
      "2022-08-05T13:03:56.425679",
      "2022-08-05T13:03:57.468420",
      "2022-08-05T13:03:58.496309",
      "2022-08-05T13:03:59.458558",
      "2022-08-05T13:04:00.537609",
      "2022-08-05T13:04:01.597055",
      "2022-08-05T13:04:02.685235",
      "2022-08-05T13:04:03.617423",
      "2022-08-05T13:04:04.597550",
      "2022-08-05T13:04:05.591134",
      "2022-08-05T13:04:06.570744",
      "2022-08-05T13:04:07.688472",
      "2022-08-05T13:04:08.749102",
      "2022-08-05T13:04:09.805726",
      "2022-08-05T13:04:10.795055",
      "2022-08-05T13:04:11.883130",
      "2022-08-05T13:04:12.902276",
      "2022-08-05T13:04:13.962315",
      "2022-08-05T13:04:15.006310",
      "2022-08-05T13:04:16.032475",
      "2022-08-05T13:04:17.106144",
      "2022-08-05T13:04:18.201472",
      "2022-08-05T13:04:19.238933",
      "2022-08-05T13:04:20.294689",
      "2022-08-05T13:04:21.307423",
      "2022-08-05T13:04:22.341273",
      "2022-08-05T13:04:23.342275",
      "2022-08-05T13:04:24.315433",
      "2022-08-05T13:04:25.302878",
      "2022-08-05T13:04:26.343526",
      "2022-08-05T13:04:27.381432",
      "2022-08-05T13:04:28.381614",
      "2022-08-05T13:04:29.417509",
      "2022-08-05T13:04:30.438223",
      "2022-08-05T13:04:31.497728",
      "2022-08-05T13:04:32.501370",
      "2022-08-05T13:04:33.392048",
      "2022-08-05T13:04:34.466228",
      "2022-08-05T13:04:35.621061",
      "2022-08-05T13:04:36.794578",
      "2022-08-05T13:04:37.955317",
      "2022-08-05T13:04:38.961943",
      "2022-08-05T13:04:40.000292",
      "2022-08-05T13:04:41.015799",
      "2022-08-05T13:04:42.057590",
      "2022-08-05T13:04:43.098411",
      "2022-08-05T13:04:44.134241",
      "2022-08-05T13:04:45.212389",
      "2022-08-05T13:04:46.235013",
      "2022-08-05T13:04:47.285255",
      "2022-08-05T13:04:48.301060",
      "2022-08-05T13:04:49.328235",
      "2022-08-05T13:04:50.376850",
      "2022-08-05T13:04:51.384226",
      "2022-08-05T13:04:52.431183",
      "2022-08-05T13:04:53.474477",
      "2022-08-05T13:04:54.518952",
      "2022-08-05T13:04:55.587424",
      "2022-08-05T13:04:56.638056",
      "2022-08-05T13:04:57.680458",
      "2022-08-05T13:04:58.728446"
    ],
    "values": [
      9.560379524230957,
      9.433216819763183,
      9.487545986175537,
      9.401805686950684,
      9.4189674949646,
      9.415764560699463,
      9.431939220428466,
      9.431434841156006,
      9.387394390106202,
      9.442918968200683,
      9.372161235809326,
      9.41358190536499,
      9.468753147125245,
      9.369767589569092,
      9.379946975708007,
      9.397011280059814,
      9.369923877716065,
      9.399824333190917,
      9.399280014038085,
      9.41354959487915,
      9.38469072341919,
      9.37910577774048,
      9.438757152557374,
      9.36925271987915,
      9.395297889709473,
      9.44615047454834,
      9.363584175109864,
      9.354113311767579,
      9.386279983520508,
      9.36840217590332,
      9.357475910186768,
      9.370377826690675,
      9.384572257995606,
      9.41228952407837,
      9.365670757293701,
      9.388276271820068,
      9.332469139099121,
      9.405429782867431,
      9.351229000091553,
      9.373615093231201,
      9.355159568786622,
      9.345716285705567,
      9.372793598175049,
      9.335780506134034,
      9.366527519226075,
      9.35979736328125,
      9.380624656677247,
      9.35500494003296,
      9.376511688232421,
      9.390186367034913,
      9.37714693069458,
      9.400418243408204,
      9.348566417694093,
      9.363995323181152,
      9.3725901222229,
      9.347103290557861,
      9.36573097229004,
      9.379605922698975,
      9.381106262207032,
      9.333267402648925,
      9.346046733856202,
      9.360782279968262,
      9.347867240905762,
      9.376715030670166,
      9.342759990692139,
      9.39093032836914,
      9.352464427947998,
      9.362349548339843,
      9.357510814666748,
      9.356233978271485,
      9.337162818908691,
      9.364512119293213,
      9.356325550079346,
      9.35420795440674,
      9.368595123291016,
      9.364902076721192,
      9.364142322540284,
      9.369414310455323,
      9.355984783172607,
      9.355266685485839,
      9.340694961547852,
      9.34427484512329,
      9.363160228729248,
      9.348207092285156,
      9.360284957885742,
      9.391919555664062,
      9.38406280517578,
      9.358057174682617,
      9.37701473236084,
      9.365138759613037,
      9.352668075561523,
      9.357773666381837,
      9.348172664642334,
      9.341070861816407,
      9.334442596435547,
      9.373124923706055,
      9.347320346832275,
      9.351374034881593,
      9.356477088928223,
      9.373171634674073,
      9.361460266113282,
      9.353043422698974,
      9.346511859893798,
      9.387340755462647,
      9.36516752243042,
      9.363782596588134,
      9.344868564605713,
      9.348920497894287,
      9.385208568572999,
      9.33249849319458,
      9.344138450622559,
      9.33535451889038,
      9.347594337463379,
      9.337101993560792,
      9.369911766052246,
      9.337996520996093,
      9.360483016967773,
      9.426773796081543,
      9.358385505676269,
      9.356533107757569,
      9.338079223632812,
      9.35630630493164,
      9.357983684539795,
      9.38212043762207,
      9.31480682373047,
      9.312959766387939,
      9.31267723083496,
      9.31232894897461,
      9.316232643127442,
      9.316757411956788,
      9.31647762298584,
      9.316619453430176,
      9.313333244323731,
      9.315069103240967,
      9.314388885498047,
      9.314396572113036,
      9.312537059783935,
      9.312951202392577,
      9.312892513275147,
      9.31638069152832,
      9.31501579284668,
      9.313496131896972,
      9.31598871231079,
      9.31512445449829,
      9.314589710235596,
      9.311368427276612,
      9.316864700317383,
      9.313925056457519,
      9.31394853591919,
      9.314269638061523,
      9.316146984100342,
      9.312512359619141,
      9.313758087158202,
      9.320705947875977,
      9.31857437133789,
      9.313620624542237,
      9.315712184906006,
      9.315183639526367,
      9.31713659286499,
      9.315352878570557,
      9.318829708099365,
      9.313383388519288,
      9.312751712799072,
      9.315213794708251,
      9.316782608032227,
      9.314302082061767,
      9.320672492980957,
      9.313995475769042,
      9.315846939086914,
      9.315543231964112,
      9.319376335144042,
      9.31783763885498,
      9.314584674835205,
      9.312104320526123,
      9.312172584533691,
      9.312168388366699,
      9.312240505218506,
      9.31277177810669,
      9.312317962646484,
      9.31222101211548,
      9.31246036529541,
      9.312276401519775,
      9.312202529907227,
      9.312716102600097,
      9.312868270874024,
      9.312824897766113,
      9.313104438781739,
      9.312601528167725,
      9.312524223327637,
      9.312382125854493,
      9.312679901123047,
      9.312324466705322,
      9.312685775756837,
      9.312342586517333,
      9.31237949371338,
      9.31257345199585,
      9.312621765136718,
      9.312620105743408,
      9.312598571777343,
      9.312610702514649
    ]
  }
}