{
  "test": {
    "steps": [
      0
    ],
    "timestamps": [
      "2022-08-17T09:11:11.007663"
    ],
    "values": [
      3.9114954746703687
    ]
  },
  "train": {
    "steps": [
      0,
      1,
      2,
      3,
      4,
      5,
      6,
      7,
      8,
      9,
      10,
      11,
      12,
      13,
      14,
      15,
      16,
      17,
      18,
      19,
      20,
      21,
      22,
      23,
      24,
      25,
      26,
      27,
      28,
      29,
      30,
      31,
      32,
      33,
      34,
      35,
      36,
      37,
      38,
      39,
      40,
      41,
      42,
      43,
      44,
      45,
      46,
      47,
      48,
      49,
      50,
      51,
      52,
      53,
      54,
      55,
      56,
      57,
      58,
      59,
      60,
      61,
      62,
      63,
      64,
      65,
      66,
      67,
      68,
      69,
      70,
      71,
      72,
      73,
      74,
      75,
      76,
      77,
      78,
      79,
      80,
      81,
      82,
      83,
      84,
      85,
      86,
      87,
      88,
      89,
      90,
      91,
      92,
      93,
      94,
      95,
      96,
      97,
      98,
      99,
      100,
      101,
      102,
      103,
      104,
      105,
      106,
      107,
      108,
      109,
      110,
      111,
      112,
      113,
      114,
      115,
      116,
      117,
      118,
      119,
      120,
      121,
      122,
      123,
      124,
      125,
      126,
      127,
      128,
      129,
      130,
      131,
      132,
      133,
      134,
      135,
      136,
      137,
      138,
      139,
      140,
      141,
      142,
      143,
      144,
      145,
      146,
      147,
      148,
      149,
      150,
      151,
      152,
      153,
      154,
      155,
      156,
      157,
      158,
      159,
      160,
      161,
      162,
      163,
      164,
      165,
      166,
      167,
      168,
      169,
      170,
      171,
      172,
      173,
      174,
      175,
      176,
      177,
      178,
      179,
      180,
      181,
      182,
      183,
      184,
      185,
      186,
      187,
      188,
      189,
      190,
      191,
      192,
      193,
      194,
      195,
      196,
      197,
      198,
      199,
      200,
      201,
      202,
      203,
      204,
      205,
      206,
      207,
      208,
      209,
      210,
      211,
      212,
      213,
      214,
      215,
      216,
      217,
      218,
      219,
      220,
      221,
      222,
      223,
      224,
      225,
      226,
      227,
      228,
      229,
      230,
      231,
      232,
      233,
      234,
      235,
      236,
      237,
      238,
      239,
      240,
      241,
      242,
      243,
      244,
      245,
      246,
      247,
      248,
      249,
      250,
      251,
      252,
      253,
      254,
      255,
      256,
      257,
      258,
      259,
      260,
      261,
      262,
      263,
      264,
      265,
      266,
      267,
      268,
      269,
      270,
      271,
      272,
      273,
      274,
      275,
      276,
      277,
      278,
      279,
      280,
      281,
      282,
      283,
      284,
      285,
      286,
      287,
      288,
      289,
      290,
      291,
      292,
      293,
      294,
      295,
      296,
      297,
      298,
      299
    ],
    "timestamps": [
      "2022-08-17T08:55:33.839406",
      "2022-08-17T08:55:37.136928",
      "2022-08-17T08:55:39.890664",
      "2022-08-17T08:55:43.036213",
      "2022-08-17T08:55:46.232381",
      "2022-08-17T08:55:50.174974",
      "2022-08-17T08:55:53.309012",
      "2022-08-17T08:55:56.207353",
      "2022-08-17T08:55:59.014684",
      "2022-08-17T08:56:01.841646",
      "2022-08-17T08:56:06.131250",
      "2022-08-17T08:56:09.977080",
      "2022-08-17T08:56:13.070427",
      "2022-08-17T08:56:16.632442",
      "2022-08-17T08:56:19.760805",
      "2022-08-17T08:56:23.104310",
      "2022-08-17T08:56:26.289719",
      "2022-08-17T08:56:29.231588",
      "2022-08-17T08:56:32.610146",
      "2022-08-17T08:56:36.079145",
      "2022-08-17T08:56:39.442042",
      "2022-08-17T08:56:43.624489",
      "2022-08-17T08:56:47.290769",
      "2022-08-17T08:56:50.631021",
      "2022-08-17T08:56:54.160873",
      "2022-08-17T08:56:57.292200",
      "2022-08-17T08:57:00.348419",
      "2022-08-17T08:57:03.953725",
      "2022-08-17T08:57:07.244216",
      "2022-08-17T08:57:10.474496",
      "2022-08-17T08:57:13.603363",
      "2022-08-17T08:57:16.542015",
      "2022-08-17T08:57:20.125136",
      "2022-08-17T08:57:23.249913",
      "2022-08-17T08:57:26.381079",
      "2022-08-17T08:57:29.939358",
      "2022-08-17T08:57:34.127713",
      "2022-08-17T08:57:37.933279",
      "2022-08-17T08:57:41.543399",
      "2022-08-17T08:57:44.667544",
      "2022-08-17T08:57:48.691822",
      "2022-08-17T08:57:52.942480",
      "2022-08-17T08:57:56.774661",
      "2022-08-17T08:58:00.544420",
      "2022-08-17T08:58:03.697759",
      "2022-08-17T08:58:06.966805",
      "2022-08-17T08:58:10.356132",
      "2022-08-17T08:58:13.613003",
      "2022-08-17T08:58:16.880528",
      "2022-08-17T08:58:19.982387",
      "2022-08-17T08:58:23.325721",
      "2022-08-17T08:58:27.417632",
      "2022-08-17T08:58:30.598562",
      "2022-08-17T08:58:34.437889",
      "2022-08-17T08:58:37.977515",
      "2022-08-17T08:58:40.925779",
      "2022-08-17T08:58:45.172030",
      "2022-08-17T08:58:48.779776",
      "2022-08-17T08:58:52.066822",
      "2022-08-17T08:58:56.241197",
      "2022-08-17T08:59:00.272971",
      "2022-08-17T08:59:03.386562",
      "2022-08-17T08:59:06.569109",
      "2022-08-17T08:59:09.596525",
      "2022-08-17T08:59:12.692132",
      "2022-08-17T08:59:15.906204",
      "2022-08-17T08:59:19.665140",
      "2022-08-17T08:59:23.422004",
      "2022-08-17T08:59:27.547628",
      "2022-08-17T08:59:30.652891",
      "2022-08-17T08:59:34.104101",
      "2022-08-17T08:59:37.505168",
      "2022-08-17T08:59:40.531072",
      "2022-08-17T08:59:43.630692",
      "2022-08-17T08:59:47.107527",
      "2022-08-17T08:59:50.166381",
      "2022-08-17T08:59:53.631912",
      "2022-08-17T08:59:57.154690",
      "2022-08-17T09:00:00.681575",
      "2022-08-17T09:00:04.220352",
      "2022-08-17T09:00:08.233659",
      "2022-08-17T09:00:11.252549",
      "2022-08-17T09:00:15.128614",
      "2022-08-17T09:00:18.283617",
      "2022-08-17T09:00:21.453203",
      "2022-08-17T09:00:24.820228",
      "2022-08-17T09:00:28.289385",
      "2022-08-17T09:00:31.756196",
      "2022-08-17T09:00:34.972221",
      "2022-08-17T09:00:38.024102",
      "2022-08-17T09:00:41.575205",
      "2022-08-17T09:00:45.217502",
      "2022-08-17T09:00:48.312974",
      "2022-08-17T09:00:51.516382",
      "2022-08-17T09:00:55.059134",
      "2022-08-17T09:00:59.221155",
      "2022-08-17T09:01:02.755857",
      "2022-08-17T09:01:05.814388",
      "2022-08-17T09:01:08.915154",
      "2022-08-17T09:01:12.350105",
      "2022-08-17T09:01:15.337997",
      "2022-08-17T09:01:18.497086",
      "2022-08-17T09:01:21.957714",
      "2022-08-17T09:01:25.005876",
      "2022-08-17T09:01:28.218602",
      "2022-08-17T09:01:31.240492",
      "2022-08-17T09:01:34.417229",
      "2022-08-17T09:01:37.457665",
      "2022-08-17T09:01:40.889533",
      "2022-08-17T09:01:44.273866",
      "2022-08-17T09:01:47.740624",
      "2022-08-17T09:01:51.521058",
      "2022-08-17T09:01:54.643993",
      "2022-08-17T09:01:57.716889",
      "2022-08-17T09:02:00.944117",
      "2022-08-17T09:02:04.282949",
      "2022-08-17T09:02:07.508771",
      "2022-08-17T09:02:11.161137",
      "2022-08-17T09:02:14.448763",
      "2022-08-17T09:02:17.645066",
      "2022-08-17T09:02:20.844311",
      "2022-08-17T09:02:24.734507",
      "2022-08-17T09:02:27.993477",
      "2022-08-17T09:02:31.040134",
      "2022-08-17T09:02:34.172059",
      "2022-08-17T09:02:38.100488",
      "2022-08-17T09:02:41.207550",
      "2022-08-17T09:02:44.419564",
      "2022-08-17T09:02:47.678644",
      "2022-08-17T09:02:50.904876",
      "2022-08-17T09:02:53.926684",
      "2022-08-17T09:02:57.865906",
      "2022-08-17T09:03:01.114375",
      "2022-08-17T09:03:04.371216",
      "2022-08-17T09:03:08.011363",
      "2022-08-17T09:03:10.887180",
      "2022-08-17T09:03:13.850082",
      "2022-08-17T09:03:16.757955",
      "2022-08-17T09:03:19.704968",
      "2022-08-17T09:03:22.861534",
      "2022-08-17T09:03:26.000923",
      "2022-08-17T09:03:29.078563",
      "2022-08-17T09:03:31.949285",
      "2022-08-17T09:03:35.022679",
      "2022-08-17T09:03:37.877526",
      "2022-08-17T09:03:40.719977",
      "2022-08-17T09:03:44.014987",
      "2022-08-17T09:03:46.817637",
      "2022-08-17T09:03:49.607751",
      "2022-08-17T09:03:52.487720",
      "2022-08-17T09:03:55.447843",
      "2022-08-17T09:03:58.443164",
      "2022-08-17T09:04:01.362962",
      "2022-08-17T09:04:04.539030",
      "2022-08-17T09:04:07.323394",
      "2022-08-17T09:04:10.142336",
      "2022-08-17T09:04:13.043311",
      "2022-08-17T09:04:15.954360",
      "2022-08-17T09:04:18.730978",
      "2022-08-17T09:04:21.510429",
      "2022-08-17T09:04:24.588679",
      "2022-08-17T09:04:27.416976",
      "2022-08-17T09:04:30.189467",
      "2022-08-17T09:04:33.150839",
      "2022-08-17T09:04:36.098176",
      "2022-08-17T09:04:39.173569",
      "2022-08-17T09:04:41.957424",
      "2022-08-17T09:04:44.950682",
      "2022-08-17T09:04:47.794774",
      "2022-08-17T09:04:50.600106",
      "2022-08-17T09:04:53.675290",
      "2022-08-17T09:04:56.526734",
      "2022-08-17T09:04:59.309491",
      "2022-08-17T09:05:02.142175",
      "2022-08-17T09:05:05.131298",
      "2022-08-17T09:05:07.914448",
      "2022-08-17T09:05:10.703712",
      "2022-08-17T09:05:13.945732",
      "2022-08-17T09:05:16.767906",
      "2022-08-17T09:05:19.568398",
      "2022-08-17T09:05:22.472655",
      "2022-08-17T09:05:25.470673",
      "2022-08-17T09:05:28.279939",
      "2022-08-17T09:05:31.102060",
      "2022-08-17T09:05:34.258622",
      "2022-08-17T09:05:37.105104",
      "2022-08-17T09:05:39.915713",
      "2022-08-17T09:05:42.813889",
      "2022-08-17T09:05:45.788304",
      "2022-08-17T09:05:48.628640",
      "2022-08-17T09:05:51.557763",
      "2022-08-17T09:05:54.482886",
      "2022-08-17T09:05:57.567415",
      "2022-08-17T09:06:00.399462",
      "2022-08-17T09:06:03.928209",
      "2022-08-17T09:06:06.944392",
      "2022-08-17T09:06:09.769613",
      "2022-08-17T09:06:12.687117",
      "2022-08-17T09:06:15.699574",
      "2022-08-17T09:06:18.514553",
      "2022-08-17T09:06:21.475492",
      "2022-08-17T09:06:24.384271",
      "2022-08-17T09:06:27.553332",
      "2022-08-17T09:06:30.313554",
      "2022-08-17T09:06:33.236422",
      "2022-08-17T09:06:36.137004",
      "2022-08-17T09:06:38.899805",
      "2022-08-17T09:06:41.692363",
      "2022-08-17T09:06:44.724682",
      "2022-08-17T09:06:47.527076",
      "2022-08-17T09:06:50.637531",
      "2022-08-17T09:06:53.617206",
      "2022-08-17T09:06:56.927061",
      "2022-08-17T09:06:59.727402",
      "2022-08-17T09:07:02.630470",
      "2022-08-17T09:07:05.591909",
      "2022-08-17T09:07:08.498604",
      "2022-08-17T09:07:11.268218",
      "2022-08-17T09:07:14.280607",
      "2022-08-17T09:07:17.051684",
      "2022-08-17T09:07:19.944008",
      "2022-08-17T09:07:22.855786",
      "2022-08-17T09:07:25.847717",
      "2022-08-17T09:07:28.608158",
      "2022-08-17T09:07:31.503097",
      "2022-08-17T09:07:34.621677",
      "2022-08-17T09:07:37.422716",
      "2022-08-17T09:07:40.179001",
      "2022-08-17T09:07:43.333339",
      "2022-08-17T09:07:46.474139",
      "2022-08-17T09:07:49.378867",
      "2022-08-17T09:07:52.214293",
      "2022-08-17T09:07:55.271683",
      "2022-08-17T09:07:58.044169",
      "2022-08-17T09:08:00.895387",
      "2022-08-17T09:08:03.954027",
      "2022-08-17T09:08:06.735234",
      "2022-08-17T09:08:09.493013",
      "2022-08-17T09:08:12.307096",
      "2022-08-17T09:08:15.902383",
      "2022-08-17T09:08:18.785784",
      "2022-08-17T09:08:21.727126",
      "2022-08-17T09:08:24.919626",
      "2022-08-17T09:08:27.710520",
      "2022-08-17T09:08:30.470562",
      "2022-08-17T09:08:33.937434",
      "2022-08-17T09:08:36.973622",
      "2022-08-17T09:08:39.723915",
      "2022-08-17T09:08:42.534222",
      "2022-08-17T09:08:45.488968",
      "2022-08-17T09:08:48.345635",
      "2022-08-17T09:08:51.265264",
      "2022-08-17T09:08:54.149593",
      "2022-08-17T09:08:56.981830",
      "2022-08-17T09:08:59.739724",
      "2022-08-17T09:09:02.546499",
      "2022-08-17T09:09:05.466879",
      "2022-08-17T09:09:08.216304",
      "2022-08-17T09:09:10.980780",
      "2022-08-17T09:09:14.262847",
      "2022-08-17T09:09:17.023413",
      "2022-08-17T09:09:20.248013",
      "2022-08-17T09:09:23.054587",
      "2022-08-17T09:09:25.985116",
      "2022-08-17T09:09:28.880773",
      "2022-08-17T09:09:31.640613",
      "2022-08-17T09:09:34.630236",
      "2022-08-17T09:09:37.390081",
      "2022-08-17T09:09:40.263198",
      "2022-08-17T09:09:43.597051",
      "2022-08-17T09:09:46.764089",
      "2022-08-17T09:09:49.751603",
      "2022-08-17T09:09:52.548410",
      "2022-08-17T09:09:55.500582",
      "2022-08-17T09:09:58.268785",
      "2022-08-17T09:10:01.081230",
      "2022-08-17T09:10:04.147834",
      "2022-08-17T09:10:06.948898",
      "2022-08-17T09:10:09.748187",
      "2022-08-17T09:10:12.617046",
      "2022-08-17T09:10:15.608477",
      "2022-08-17T09:10:18.509047",
      "2022-08-17T09:10:21.413570",
      "2022-08-17T09:10:24.357017",
      "2022-08-17T09:10:27.217034",
      "2022-08-17T09:10:30.024038",
      "2022-08-17T09:10:32.939668",
      "2022-08-17T09:10:35.860160",
      "2022-08-17T09:10:38.654585",
      "2022-08-17T09:10:41.470895",
      "2022-08-17T09:10:44.482776",
      "2022-08-17T09:10:47.340436",
      "2022-08-17T09:10:50.097134",
      "2022-08-17T09:10:52.936172",
      "2022-08-17T09:10:55.860505",
      "2022-08-17T09:10:58.608599",
      "2022-08-17T09:11:01.365207",
      "2022-08-17T09:11:04.482719",
      "2022-08-17T09:11:07.276241",
      "2022-08-17T09:11:10.261345"
    ],
    "values": [
      554.2271729662416,
      24.1464311929033,
      17.169327068785936,
      13.521130050976451,
      13.505554926727996,
      11.341540310255935,
      10.201865012854366,
      11.824338815649512,
      10.629536017733992,
      9.813644273462641,
      9.586628585957525,
      7.803652890050086,
      7.252270191035799,
      13.953640132945896,
      10.305187580600645,
      11.675364270407702,
      7.072978865875299,
      6.738888940707762,
      6.951204951439218,
      8.852314901563322,
      7.549962102029512,
      11.650725400729966,
      8.514361556779399,
      6.95917530834883,
      5.812558102823285,
      6.255039463737964,
      5.891571527427766,
      6.047509162935463,
      7.0196965888516605,
      6.42888603448052,
      7.6732472875651645,
      6.128826830629842,
      9.068406245045058,
      7.07729946186777,
      6.086708660346159,
      6.208762983075419,
      5.710600080626167,
      7.636172489724966,
      5.904583410133788,
      7.566037198244867,
      9.208130401062158,
      6.790556599873693,
      5.83293920049244,
      8.166493361230158,
      5.476535312318905,
      5.786767588968842,
      8.446879604341078,
      7.585024824170812,
      5.755865316848584,
      6.0915006645075955,
      5.242923542348849,
      5.511232286345056,
      5.226917306735771,
      5.536941323681678,
      5.979876722036605,
      5.845460654547475,
      6.1251867539095315,
      5.732294666503873,
      5.676706720421245,
      5.401688940643976,
      8.72675382164438,
      5.746222982545228,
      5.204900171474708,
      5.066129394899584,
      5.153483277769969,
      5.621330788720017,
      5.365467402977996,
      5.327873236713723,
      4.986328229474709,
      6.605809114100638,
      6.812025034449743,
      5.227316855057252,
      5.2020066997510295,
      5.114045270323569,
      6.290315342186794,
      4.904174895526806,
      5.578836941332719,
      5.4508453440200215,
      5.496567622586011,
      5.1869401031331686,
      4.831135434648919,
      4.999354542604161,
      5.280157901741534,
      5.881226063216269,
      6.897414954751647,
      6.858711050125155,
      5.178954044898694,
      4.668024588635402,
      5.537471779325101,
      4.995865108081515,
      4.657475307598252,
      5.415711829456034,
      5.72499198407833,
      4.568736917509938,
      4.931297746050347,
      4.979903973305556,
      4.827193149486273,
      5.360157698815476,
      4.804698247470915,
      5.332640477824803,
      6.138787839716617,
      5.233671670795697,
      4.830922246437972,
      4.588522954991745,
      5.07400884445367,
      5.293919681920427,
      4.9092893591713445,
      4.544033877154281,
      4.735027558414936,
      4.613306369445684,
      5.890720404425124,
      4.989598838478888,
      5.100865264734476,
      5.452221192648057,
      5.541420477396685,
      5.678956643786197,
      4.844946443408859,
      4.644222043577899,
      5.020643330578612,
      4.5394151391071995,
      4.730822788145533,
      4.71358645283286,
      5.263008740268576,
      4.542219038275735,
      5.289298227332743,
      5.902858175828247,
      5.099359362200402,
      4.9374312618160445,
      4.824432711298332,
      4.440622830142894,
      6.6571293081949285,
      5.6312519423514775,
      4.659197605783026,
      4.53624121053497,
      5.188644010896008,
      5.131848793008317,
      5.006738366966372,
      5.328550223980204,
      4.728941952608127,
      4.627811288632986,
      4.745813330732031,
      4.939361700100855,
      4.57194721300339,
      4.926362198697894,
      4.639859064118477,
      4.551587313380209,
      4.588549332668534,
      4.809470735204983,
      4.486099357319078,
      4.85725436123608,
      4.313860561942079,
      5.035972850856773,
      4.7732054844703455,
      5.047370870478495,
      4.313987216699722,
      5.036499622825771,
      4.476947339393828,
      4.5984556674656,
      4.6685272877514095,
      5.451809754133327,
      4.616280002182708,
      4.657015897451136,
      4.3938345140708455,
      5.141852188461364,
      4.895094725668623,
      4.648288429758076,
      5.159268217672962,
      4.889722509034624,
      4.671264205619732,
      4.787937186070273,
      4.630391067007879,
      4.5204387712665834,
      4.0653533436574785,
      3.995551257941411,
      4.00277347506432,
      3.980854410245966,
      3.985479809247062,
      3.9754022376042686,
      3.9618681578947545,
      3.9842494875154197,
      3.9967926461665386,
      3.9972056762877077,
      4.064355037973303,
      3.9537474169492417,
      3.991040044464906,
      3.9746985988501824,
      4.020623073495895,
      3.9745211165919865,
      4.005721931086249,
      3.994822040378324,
      3.9752905303397466,
      4.0257781815423,
      3.9868965996867014,
      3.983850398428594,
      3.978608923677665,
      3.9959936556766342,
      3.974456391309636,
      4.011087674315607,
      3.9872803282172065,
      3.9710888324945186,
      3.9768581737072886,
      4.023777757506986,
      3.9721564007595918,
      3.9961954955480814,
      4.050348647290424,
      3.9479424247625037,
      3.932877540274035,
      3.93072507951459,
      3.9144818561755788,
      3.928424266033774,
      3.926393574360042,
      3.911097106369547,
      3.9208022716765742,
      3.9434594691456852,
      3.9276117380379394,
      3.9185228840266833,
      3.9174206232546966,
      3.9388516817618875,
      3.9154280964662886,
      3.922670877388918,
      3.914601782536819,
      3.925765781233471,
      3.9263554665060525,
      3.9115754504727067,
      3.914517875201319,
      3.919682758001882,
      3.9246372003959236,
      3.9198085701954337,
      3.912573718183756,
      3.9155328923290527,
      3.9344827323940588,
      3.917272853353785,
      3.9404766515779546,
      3.918266748413911,
      3.912346563643739,
      3.91670340289708,
      3.9073599029153563,
      3.921380089730024,
      3.9326910959975665,
      3.9103349063785555,
      3.911475222490624,
      3.921203494053876,
      3.912529856806397,
      3.9165426382692794,
      3.911126369781617,
      3.9222314758231893,
      3.9277169130862326,
      3.92849669394789,
      3.915391939215723,
      3.907642449617874,
      3.9152379391999084,
      3.931496639181623,
      3.908152997700351,
      3.917228530993569,
      3.9167068418564956,
      3.8959074051502727,
      3.900585583487126,
      3.8990961175843712,
      3.9067618932538055,
      3.91236491519558,
      3.9144354891194304,
      3.9139695067826175,
      3.9067552147797886,
      3.893980338981733,
      3.9161660270313625,
      3.8920864427187025,
      3.899160011850405,
      3.905039995058203,
      3.9205674362642577,
      3.9007958558585143,
      3.9262724427299514,
      3.9193916361969747,
      3.910897502096567,
      3.9136197306680525,
      3.9127286280222378,
      3.92264684990175,
      3.915845362817066,
      3.9096774467561626,
      3.9156944440639228,
      3.907646063304247,
      3.913148529911755,
      3.8967628124093836,
      3.907468362205078,
      3.923319489052358,
      3.9070786939878297,
      3.9203465217958597,
      3.904102812085436,
      3.910708551689635,
      3.9049538150510426,
      3.9088327470598063,
      3.927314626755438,
      3.921496004288686,
      3.918743637766525,
      3.9258163639002146,
      3.9155273953216976,
      3.9098216638548324,
      3.896242120527711,
      3.9076986381808325,
      3.9081830042841785,
      3.9112642658953853
    ]
  },
  "val": {
    "steps": [
      0,
      1,
      2,
      3,
      4,
      5,
      6,
      7,
      8,
      9,
      10,
      11,
      12,
      13,
      14,
      15,
      16,
      17,
      18,
      19,
      20,
      21,
      22,
      23,
      24,
      25,
      26,
      27,
      28,
      29,
      30,
      31,
      32,
      33,
      34,
      35,
      36,
      37,
      38,
      39,
      40,
      41,
      42,
      43,
      44,
      45,
      46,
      47,
      48,
      49,
      50,
      51,
      52,
      53,
      54,
      55,
      56,
      57,
      58,
      59,
      60,
      61,
      62,
      63,
      64,
      65,
      66,
      67,
      68,
      69,
      70,
      71,
      72,
      73,
      74,
      75,
      76,
      77,
      78,
      79,
      80,
      81,
      82,
      83,
      84,
      85,
      86,
      87,
      88,
      89,
      90,
      91,
      92,
      93,
      94,
      95,
      96,
      97,
      98,
      99,
      100,
      101,
      102,
      103,
      104,
      105,
      106,
      107,
      108,
      109,
      110,
      111,
      112,
      113,
      114,
      115,
      116,
      117,
      118,
      119,
      120,
      121,
      122,
      123,
      124,
      125,
      126,
      127,
      128,
      129,
      130,
      131,
      132,
      133,
      134,
      135,
      136,
      137,
      138,
      139,
      140,
      141,
      142,
      143,
      144,
      145,
      146,
      147,
      148,
      149,
      150,
      151,
      152,
      153,
      154,
      155,
      156,
      157,
      158,
      159,
      160,
      161,
      162,
      163,
      164,
      165,
      166,
      167,
      168,
      169,
      170,
      171,
      172,
      173,
      174,
      175,
      176,
      177,
      178,
      179,
      180,
      181,
      182,
      183,
      184,
      185,
      186,
      187,
      188,
      189,
      190,
      191,
      192,
      193,
      194,
      195,
      196,
      197,
      198,
      199,
      200,
      201,
      202,
      203,
      204,
      205,
      206,
      207,
      208,
      209,
      210,
      211,
      212,
      213,
      214,
      215,
      216,
      217,
      218,
      219,
      220,
      221,
      222,
      223,
      224,
      225,
      226,
      227,
      228,
      229,
      230,
      231,
      232,
      233,
      234,
      235,
      236,
      237,
      238,
      239,
      240,
      241,
      242,
      243,
      244,
      245,
      246,
      247,
      248,
      249,
      250,
      251,
      252,
      253,
      254,
      255,
      256,
      257,
      258,
      259,
      260,
      261,
      262,
      263,
      264,
      265,
      266,
      267,
      268,
      269,
      270,
      271,
      272,
      273,
      274,
      275,
      276,
      277,
      278,
      279,
      280,
      281,
      282,
      283,
      284,
      285,
      286,
      287,
      288,
      289,
      290,
      291,
      292,
      293,
      294,
      295,
      296,
      297,
      298,
      299
    ],
    "timestamps": [
      "2022-08-17T08:55:34.382273",
      "2022-08-17T08:55:37.479172",
      "2022-08-17T08:55:40.231594",
      "2022-08-17T08:55:43.480655",
      "2022-08-17T08:55:46.581728",
      "2022-08-17T08:55:50.650304",
      "2022-08-17T08:55:53.701091",
      "2022-08-17T08:55:56.553708",
      "2022-08-17T08:55:59.394748",
      "2022-08-17T08:56:02.187412",
      "2022-08-17T08:56:07.108061",
      "2022-08-17T08:56:10.456615",
      "2022-08-17T08:56:13.453134",
      "2022-08-17T08:56:17.021990",
      "2022-08-17T08:56:20.242624",
      "2022-08-17T08:56:23.482528",
      "2022-08-17T08:56:26.675495",
      "2022-08-17T08:56:29.652522",
      "2022-08-17T08:56:32.989796",
      "2022-08-17T08:56:36.680359",
      "2022-08-17T08:56:39.825916",
      "2022-08-17T08:56:44.138154",
      "2022-08-17T08:56:47.743693",
      "2022-08-17T08:56:51.234441",
      "2022-08-17T08:56:54.545138",
      "2022-08-17T08:56:57.744051",
      "2022-08-17T08:57:00.733729",
      "2022-08-17T08:57:04.332052",
      "2022-08-17T08:57:07.769012",
      "2022-08-17T08:57:10.858422",
      "2022-08-17T08:57:13.988420",
      "2022-08-17T08:57:17.044840",
      "2022-08-17T08:57:20.503228",
      "2022-08-17T08:57:23.654249",
      "2022-08-17T08:57:26.945953",
      "2022-08-17T08:57:30.448240",
      "2022-08-17T08:57:34.735925",
      "2022-08-17T08:57:38.468698",
      "2022-08-17T08:57:41.925771",
      "2022-08-17T08:57:45.081361",
      "2022-08-17T08:57:49.241408",
      "2022-08-17T08:57:53.471083",
      "2022-08-17T08:57:57.306288",
      "2022-08-17T08:58:01.027582",
      "2022-08-17T08:58:04.077968",
      "2022-08-17T08:58:07.413221",
      "2022-08-17T08:58:10.782203",
      "2022-08-17T08:58:13.993593",
      "2022-08-17T08:58:17.385198",
      "2022-08-17T08:58:20.395976",
      "2022-08-17T08:58:23.845036",
      "2022-08-17T08:58:27.847789",
      "2022-08-17T08:58:31.133279",
      "2022-08-17T08:58:34.816555",
      "2022-08-17T08:58:38.355200",
      "2022-08-17T08:58:41.353738",
      "2022-08-17T08:58:45.685733",
      "2022-08-17T08:58:49.200352",
      "2022-08-17T08:58:52.682346",
      "2022-08-17T08:58:56.784182",
      "2022-08-17T08:59:00.729569",
      "2022-08-17T08:59:03.911415",
      "2022-08-17T08:59:06.944844",
      "2022-08-17T08:59:10.044550",
      "2022-08-17T08:59:13.069765",
      "2022-08-17T08:59:16.309912",
      "2022-08-17T08:59:20.067609",
      "2022-08-17T08:59:23.940370",
      "2022-08-17T08:59:27.941001",
      "2022-08-17T08:59:31.113876",
      "2022-08-17T08:59:34.521529",
      "2022-08-17T08:59:37.923633",
      "2022-08-17T08:59:40.935012",
      "2022-08-17T08:59:44.007381",
      "2022-08-17T08:59:47.522187",
      "2022-08-17T08:59:50.669694",
      "2022-08-17T08:59:54.050300",
      "2022-08-17T08:59:57.561209",
      "2022-08-17T09:00:01.136833",
      "2022-08-17T09:00:04.767855",
      "2022-08-17T09:00:08.625356",
      "2022-08-17T09:00:11.681971",
      "2022-08-17T09:00:15.507721",
      "2022-08-17T09:00:18.825447",
      "2022-08-17T09:00:21.832125",
      "2022-08-17T09:00:25.272233",
      "2022-08-17T09:00:28.768389",
      "2022-08-17T09:00:32.132582",
      "2022-08-17T09:00:35.363899",
      "2022-08-17T09:00:38.463120",
      "2022-08-17T09:00:41.998113",
      "2022-08-17T09:00:45.729488",
      "2022-08-17T09:00:48.704135",
      "2022-08-17T09:00:51.956048",
      "2022-08-17T09:00:55.637235",
      "2022-08-17T09:00:59.769077",
      "2022-08-17T09:01:03.131114",
      "2022-08-17T09:01:06.232367",
      "2022-08-17T09:01:09.301241",
      "2022-08-17T09:01:12.725961",
      "2022-08-17T09:01:15.741348",
      "2022-08-17T09:01:18.872495",
      "2022-08-17T09:01:22.432287",
      "2022-08-17T09:01:25.387819",
      "2022-08-17T09:01:28.598325",
      "2022-08-17T09:01:31.641618",
      "2022-08-17T09:01:34.830080",
      "2022-08-17T09:01:37.896116",
      "2022-08-17T09:01:41.289469",
      "2022-08-17T09:01:44.676768",
      "2022-08-17T09:01:48.296192",
      "2022-08-17T09:01:51.903062",
      "2022-08-17T09:01:55.045965",
      "2022-08-17T09:01:58.098435",
      "2022-08-17T09:02:01.332172",
      "2022-08-17T09:02:04.694547",
      "2022-08-17T09:02:07.890611",
      "2022-08-17T09:02:11.762107",
      "2022-08-17T09:02:14.894499",
      "2022-08-17T09:02:18.024864",
      "2022-08-17T09:02:21.250218",
      "2022-08-17T09:02:25.196470",
      "2022-08-17T09:02:28.373052",
      "2022-08-17T09:02:31.446899",
      "2022-08-17T09:02:34.564749",
      "2022-08-17T09:02:38.546952",
      "2022-08-17T09:02:41.607884",
      "2022-08-17T09:02:44.808461",
      "2022-08-17T09:02:48.102627",
      "2022-08-17T09:02:51.292181",
      "2022-08-17T09:02:54.375852",
      "2022-08-17T09:02:58.254659",
      "2022-08-17T09:03:01.631101",
      "2022-08-17T09:03:04.755548",
      "2022-08-17T09:03:08.379706",
      "2022-08-17T09:03:11.273980",
      "2022-08-17T09:03:14.216766",
      "2022-08-17T09:03:17.149805",
      "2022-08-17T09:03:20.068491",
      "2022-08-17T09:03:23.374695",
      "2022-08-17T09:03:26.373067",
      "2022-08-17T09:03:29.464154",
      "2022-08-17T09:03:32.320847",
      "2022-08-17T09:03:35.394103",
      "2022-08-17T09:03:38.247678",
      "2022-08-17T09:03:41.094336",
      "2022-08-17T09:03:44.376874",
      "2022-08-17T09:03:47.182030",
      "2022-08-17T09:03:49.975573",
      "2022-08-17T09:03:52.871965",
      "2022-08-17T09:03:55.813498",
      "2022-08-17T09:03:58.826809",
      "2022-08-17T09:04:01.723470",
      "2022-08-17T09:04:04.909855",
      "2022-08-17T09:04:07.679568",
      "2022-08-17T09:04:10.503649",
      "2022-08-17T09:04:13.427850",
      "2022-08-17T09:04:16.315653",
      "2022-08-17T09:04:19.089699",
      "2022-08-17T09:04:21.872199",
      "2022-08-17T09:04:24.956586",
      "2022-08-17T09:04:27.774071",
      "2022-08-17T09:04:30.548261",
      "2022-08-17T09:04:33.603067",
      "2022-08-17T09:04:36.456007",
      "2022-08-17T09:04:39.525552",
      "2022-08-17T09:04:42.376732",
      "2022-08-17T09:04:45.308008",
      "2022-08-17T09:04:48.195013",
      "2022-08-17T09:04:50.976470",
      "2022-08-17T09:04:54.094183",
      "2022-08-17T09:04:56.891239",
      "2022-08-17T09:04:59.675513",
      "2022-08-17T09:05:02.550625",
      "2022-08-17T09:05:05.494992",
      "2022-08-17T09:05:08.275480",
      "2022-08-17T09:05:11.122964",
      "2022-08-17T09:05:14.318965",
      "2022-08-17T09:05:17.133956",
      "2022-08-17T09:05:19.941858",
      "2022-08-17T09:05:22.866876",
      "2022-08-17T09:05:25.839791",
      "2022-08-17T09:05:28.646818",
      "2022-08-17T09:05:31.468671",
      "2022-08-17T09:05:34.628449",
      "2022-08-17T09:05:37.471575",
      "2022-08-17T09:05:40.282528",
      "2022-08-17T09:05:43.211376",
      "2022-08-17T09:05:46.154516",
      "2022-08-17T09:05:48.996412",
      "2022-08-17T09:05:51.952182",
      "2022-08-17T09:05:54.857499",
      "2022-08-17T09:05:57.939631",
      "2022-08-17T09:06:00.769227",
      "2022-08-17T09:06:04.466958",
      "2022-08-17T09:06:07.311780",
      "2022-08-17T09:06:10.139712",
      "2022-08-17T09:06:13.082120",
      "2022-08-17T09:06:16.068204",
      "2022-08-17T09:06:18.884303",
      "2022-08-17T09:06:21.906065",
      "2022-08-17T09:06:24.754172",
      "2022-08-17T09:06:27.910230",
      "2022-08-17T09:06:30.671973",
      "2022-08-17T09:06:33.626238",
      "2022-08-17T09:06:36.497954",
      "2022-08-17T09:06:39.280036",
      "2022-08-17T09:06:42.095946",
      "2022-08-17T09:06:45.085137",
      "2022-08-17T09:06:47.885053",
      "2022-08-17T09:06:51.184530",
      "2022-08-17T09:06:53.981329",
      "2022-08-17T09:06:57.293390",
      "2022-08-17T09:07:00.095172",
      "2022-08-17T09:07:03.019201",
      "2022-08-17T09:07:05.962786",
      "2022-08-17T09:07:08.857353",
      "2022-08-17T09:07:11.624702",
      "2022-08-17T09:07:14.641342",
      "2022-08-17T09:07:17.411843",
      "2022-08-17T09:07:20.329303",
      "2022-08-17T09:07:23.212041",
      "2022-08-17T09:07:26.213580",
      "2022-08-17T09:07:28.986747",
      "2022-08-17T09:07:31.877067",
      "2022-08-17T09:07:34.977272",
      "2022-08-17T09:07:37.782265",
      "2022-08-17T09:07:40.536276",
      "2022-08-17T09:07:43.905491",
      "2022-08-17T09:07:46.828835",
      "2022-08-17T09:07:49.777364",
      "2022-08-17T09:07:52.574588",
      "2022-08-17T09:07:55.639035",
      "2022-08-17T09:07:58.402002",
      "2022-08-17T09:08:01.277273",
      "2022-08-17T09:08:04.326469",
      "2022-08-17T09:08:07.094940",
      "2022-08-17T09:08:09.853205",
      "2022-08-17T09:08:12.892992",
      "2022-08-17T09:08:16.262492",
      "2022-08-17T09:08:19.311072",
      "2022-08-17T09:08:22.085659",
      "2022-08-17T09:08:25.278618",
      "2022-08-17T09:08:28.070552",
      "2022-08-17T09:08:30.840107",
      "2022-08-17T09:08:34.465582",
      "2022-08-17T09:08:37.330448",
      "2022-08-17T09:08:40.081300",
      "2022-08-17T09:08:42.915747",
      "2022-08-17T09:08:45.849641",
      "2022-08-17T09:08:48.729409",
      "2022-08-17T09:08:51.623183",
      "2022-08-17T09:08:54.576263",
      "2022-08-17T09:08:57.343061",
      "2022-08-17T09:09:00.105577",
      "2022-08-17T09:09:02.933988",
      "2022-08-17T09:09:05.826825",
      "2022-08-17T09:09:08.574265",
      "2022-08-17T09:09:11.340940",
      "2022-08-17T09:09:14.623945",
      "2022-08-17T09:09:17.449203",
      "2022-08-17T09:09:20.604245",
      "2022-08-17T09:09:23.438995",
      "2022-08-17T09:09:26.345250",
      "2022-08-17T09:09:29.237805",
      "2022-08-17T09:09:32.002786",
      "2022-08-17T09:09:34.995178",
      "2022-08-17T09:09:37.750715",
      "2022-08-17T09:09:40.630040",
      "2022-08-17T09:09:44.171093",
      "2022-08-17T09:09:47.143487",
      "2022-08-17T09:09:50.116039",
      "2022-08-17T09:09:52.941875",
      "2022-08-17T09:09:55.876148",
      "2022-08-17T09:09:58.628459",
      "2022-08-17T09:10:01.450388",
      "2022-08-17T09:10:04.515762",
      "2022-08-17T09:10:07.317705",
      "2022-08-17T09:10:10.117655",
      "2022-08-17T09:10:13.010522",
      "2022-08-17T09:10:15.977656",
      "2022-08-17T09:10:18.898804",
      "2022-08-17T09:10:21.782978",
      "2022-08-17T09:10:24.777819",
      "2022-08-17T09:10:27.588202",
      "2022-08-17T09:10:30.393261",
      "2022-08-17T09:10:33.340295",
      "2022-08-17T09:10:36.229166",
      "2022-08-17T09:10:39.025002",
      "2022-08-17T09:10:41.844884",
      "2022-08-17T09:10:44.909444",
      "2022-08-17T09:10:47.702301",
      "2022-08-17T09:10:50.459076",
      "2022-08-17T09:10:53.323934",
      "2022-08-17T09:10:56.222177",
      "2022-08-17T09:10:58.969096",
      "2022-08-17T09:11:01.725108",
      "2022-08-17T09:11:04.875531",
      "2022-08-17T09:11:07.640595",
      "2022-08-17T09:11:10.622485"
    ],
    "values": [
      33.34941352711844,
      45.64231602350173,
      14.29344289063651,
      13.096262421538157,
      12.419987772448986,
      11.711015239744222,
      9.568525261298051,
      15.601161238607803,
      7.520684960725788,
      8.331683905218743,
      7.1921945437343195,
      7.168028680987208,
      6.705879661871605,
      10.38036954003834,
      10.01328827125276,
      7.6002351483161705,
      6.2626970051491995,
      6.216819983733355,
      6.794065569177507,
      5.826181074075,
      6.840560005099032,
      9.948096594057866,
      7.172991066766797,
      6.654843180631115,
      5.4420343604962875,
      6.063261300751956,
      5.661154701227483,
      6.242480487707374,
      7.318227305189953,
      8.908271051694962,
      5.9571314276803635,
      5.268588519972617,
      6.151510808202009,
      6.484829612060565,
      5.534453109018113,
      6.1502154224704455,
      7.204117398866142,
      6.633425790509436,
      5.462181054937855,
      13.062257601979695,
      5.756439786803858,
      5.42592702832724,
      6.958228377804602,
      5.20477296239147,
      5.162654205209691,
      5.060489093050373,
      6.182745469127567,
      5.297330168022955,
      6.294954095102359,
      6.086600783617967,
      5.017136241608726,
      5.056312665128401,
      5.516051370197217,
      5.979954430130934,
      5.029202208319645,
      4.885711350568831,
      4.993927786170228,
      5.832822456862755,
      4.904770138832563,
      6.182974141642612,
      7.607394918442114,
      4.663391326662566,
      5.63197079872173,
      4.716594070289167,
      4.878496786121003,
      4.986931627158454,
      4.642628072862864,
      4.539589320872166,
      4.782477608734856,
      6.123308448815925,
      5.9966528496226355,
      6.734261391936822,
      4.700881880706211,
      4.433211698275316,
      4.994015208032858,
      4.862924349757668,
      4.759447754927092,
      4.672467434950397,
      5.105031447980212,
      4.7652835785525545,
      4.960190182858101,
      5.1300419558218415,
      7.6110863344292445,
      5.143965512928341,
      5.095440866407252,
      4.886158494363844,
      4.637819979706276,
      4.414396835736125,
      4.805698239751071,
      4.63866469357967,
      4.65557012388904,
      4.957327210004145,
      5.081316702466831,
      4.482921365950985,
      4.9283115272735,
      4.440225872816532,
      4.473732508810546,
      4.6568643629258215,
      5.3930086497798815,
      5.234669608649614,
      6.034679824407127,
      5.369086829303797,
      4.316296918073443,
      4.375781479067424,
      4.35200305947237,
      5.333953653899947,
      4.559330028118683,
      4.581628744583063,
      4.8660748091888,
      4.753705357946514,
      5.248895778573987,
      5.171683952630434,
      5.164017749295593,
      6.808386976436513,
      4.874531622859205,
      5.732795423587663,
      4.417622071116484,
      4.818410916632248,
      4.820614023405262,
      4.456757792588017,
      4.482378117935478,
      4.631332804126704,
      4.285409261312915,
      4.2005293249493,
      4.8635162026671725,
      8.051199581384605,
      4.349450734470036,
      4.765996195835379,
      4.211771154308247,
      4.808513558882844,
      5.484507937292372,
      4.759616786013919,
      4.593871662906999,
      4.3510207531290765,
      4.604802111282238,
      4.765339229696547,
      8.983168098524956,
      4.547770623764443,
      4.532747069925035,
      4.393588852216981,
      4.480612941835469,
      4.23894410675161,
      4.619154939641492,
      4.352408199341644,
      4.490283207104984,
      4.747045137285744,
      4.789464405788716,
      4.786590504531945,
      4.705333722318526,
      4.250449870333181,
      4.140814451189234,
      6.4922194909936435,
      4.3744968185502495,
      4.31836097042626,
      4.15673367387514,
      4.896662186844805,
      4.947838669038711,
      4.25201273678958,
      4.718835631787423,
      4.556228990560875,
      4.469610836528134,
      4.261647634395038,
      4.331497323901263,
      4.645495388321745,
      4.2281665867480065,
      4.462707602605288,
      5.332039102637477,
      4.682371525464279,
      4.734346013807193,
      4.305355526103844,
      4.23540171320177,
      4.289274141286981,
      3.992652290762006,
      4.040977154272844,
      3.9568706211855353,
      3.979329877924487,
      3.9891328547869973,
      4.024067564844837,
      3.962592379125238,
      3.995636478400524,
      3.9651609336684883,
      3.9994335851847165,
      3.9574901121407136,
      3.960925455347651,
      3.9874105884114455,
      4.04345383939908,
      4.10020374680981,
      3.987643727651869,
      3.986373681112391,
      3.9929931525406284,
      3.9689382704812726,
      3.952662450377156,
      3.9799370405471057,
      3.9924707599782403,
      4.0053143209525475,
      3.976699148090182,
      3.9397399784635785,
      3.9882364856163317,
      4.011793154745078,
      3.9488959118332265,
      3.977689216461412,
      3.959741034677359,
      4.006805101671003,
      4.089900838359076,
      4.023513190080677,
      3.909974290624371,
      3.93627655007386,
      3.93646614860715,
      3.9000647457541713,
      3.933734562847428,
      3.9286199633324657,
      3.8874318560944228,
      3.9311865115919984,
      3.9159411223983027,
      3.929590974225315,
      3.9131853069565166,
      3.94748539387967,
      3.9250911945460216,
      3.9186962104043737,
      3.9237180211953957,
      3.9244951258898766,
      3.9130883291558076,
      3.929276650093814,
      3.9136344625044446,
      3.9232044656601706,
      3.8908795818940805,
      3.931529125300884,
      3.9244010104850657,
      3.9148951697066665,
      3.92939781428674,
      3.929212983701098,
      3.9137058511362968,
      3.9212014328059563,
      3.9005791898296236,
      3.8992125647181246,
      3.916087359099162,
      3.917233741265251,
      3.913344574474975,
      3.9138762562675877,
      3.9235220294559614,
      3.906131893145842,
      3.9087777092965563,
      3.9000629111579395,
      3.907587728730964,
      3.9239763056750663,
      3.920900228605008,
      3.9218009223584307,
      3.9252322249047196,
      3.9087601518599424,
      3.9320703048343844,
      3.900007806604309,
      3.88984106643777,
      3.913947183941157,
      3.9373114512524747,
      3.936155481653694,
      3.915555750281393,
      3.908503561630176,
      3.8989946826376003,
      3.8963699925633954,
      3.9126826745805685,
      3.928084175618728,
      3.8970780332355717,
      3.893544903184859,
      3.9136294850317133,
      3.9036003009281557,
      3.9058638004753288,
      3.908823770179238,
      3.910301336926185,
      3.9406429853629965,
      3.9163201729421555,
      3.9042046695246553,
      3.9152476448644227,
      3.9109076436088315,
      3.9082269333090274,
      3.9082766220325813,
      3.9115737764637184,
      3.890545780357643,
      3.9170344652484346,
      3.9278945733449557,
      3.9256311622653883,
      3.9187844826339386,
      3.90336806949308,
      3.8935220346518276,
      3.8827230394566583,
      3.8974336448455427,
      3.9192698167255275,
      3.9167860143246314,
      3.9250384642851617,
      3.9219284959540954,
      3.907512169068625,
      3.915303195814785,
      3.917882337953913,
      3.910112900606058,
      3.8987930723193243,
      3.9031199157314096,
      3.918322345305354,
      3.905314683783418,
      3.9060922046408866,
      3.9026193746510183,
      3.891834125052701
    ]
  }
}