INFO - discrete_nf - Running command 'run'
INFO - discrete_nf - Started run with ID "5"
[CONFIG] {'bn': 'mehra-real', 'conditioner_type': 'dag-masked', 'normalizer_type': 'affine', 'int_net_hidden': [100], 'int_net_final_activation': 'elu', 'cond_size': 10, 'mono_num_steps': 15, 'mono_solver': 'CC', 'num_flow_steps': 4, 'hidden_dims': [150], 'batch_size': 100, 'num_train_samples': 10000, 'num_val_samples': 5000, 'num_epochs': 300, 'num_train_batches': 100, 'num_val_batches': 50, 'lr': 0.001, 'seed': 5, 'patience': 20, 'run': 1, 'double': False, 'checkpoint_n': 10, 'load_from_checkpoint': False, 'ex_name': 'discrete_nf_density_estimation', 'sub_folder': 'dag-masked_affine_4_[150]', 'path': './experiment_logs/discrete_nf_density_estimation/mehra-real/dag-masked_affine_4_[150]', 'bt_config': {'depth': 5, 'seed': 4}}
[DEVICE] cuda:0
[LOADING DATA] MEHRA
  0%|          | 0/300 [00:00<?, ?it/s]Train NLL: 12.477, Val NLL: 12.174:   1%|          | 2/300 [00:01<03:02,  1.63it/s]Train NLL: 12.025, Val NLL: 11.966:   2%|▏         | 7/300 [00:02<01:38,  2.98it/s]Train NLL: 12.005, Val NLL: 11.953:   4%|▎         | 11/300 [00:03<01:31,  3.15it/s]Train NLL: 11.984, Val NLL: 11.936:   5%|▌         | 15/300 [00:04<01:26,  3.28it/s]Train NLL: 11.972, Val NLL: 11.925:   7%|▋         | 20/300 [00:06<01:16,  3.64it/s]Train NLL: 11.965, Val NLL: 11.926:   8%|▊         | 25/300 [00:07<01:08,  3.99it/s]Train NLL: 11.958, Val NLL: 11.934:  10%|█         | 30/300 [00:08<01:03,  4.23it/s]Train NLL: 11.945, Val NLL: 11.925:  12%|█▏        | 35/300 [00:09<01:00,  4.41it/s]Train NLL: 11.937, Val NLL: 11.927:  13%|█▎        | 40/300 [00:10<00:57,  4.50it/s]Train NLL: 11.936, Val NLL: 11.916:  15%|█▌        | 46/300 [00:11<00:54,  4.69it/s]Train NLL: 11.927, Val NLL: 11.946:  17%|█▋        | 51/300 [00:12<00:52,  4.73it/s]Train NLL: 11.930, Val NLL: 11.928:  19%|█▊        | 56/300 [00:13<00:51,  4.71it/s]Train NLL: 11.922, Val NLL: 11.934:  20%|██        | 61/300 [00:14<00:51,  4.66it/s]Train NLL: 11.919, Val NLL: 11.918:  22%|██▏       | 66/300 [00:15<00:50,  4.64it/s]Train NLL: 11.913, Val NLL: 11.925:  24%|██▎       | 71/300 [00:16<00:49,  4.62it/s]Train NLL: 11.910, Val NLL: 11.918:  26%|██▌       | 77/300 [00:17<00:46,  4.79it/s]Train NLL: 11.908, Val NLL: 11.919:  27%|██▋       | 82/300 [00:18<00:45,  4.79it/s]Train NLL: 11.911, Val NLL: 11.917:  29%|██▉       | 88/300 [00:20<00:42,  4.93it/s]Train NLL: 11.909, Val NLL: 11.911:  31%|███       | 93/300 [00:21<00:43,  4.78it/s]Train NLL: 11.896, Val NLL: 11.917:  33%|███▎      | 98/300 [00:22<00:41,  4.82it/s]Train NLL: 11.905, Val NLL: 11.931:  35%|███▍      | 104/300 [00:23<00:40,  4.89it/s]Train NLL: 11.902, Val NLL: 11.912:  37%|███▋      | 110/300 [00:24<00:38,  4.93it/s]Train NLL: 11.900, Val NLL: 11.921:  38%|███▊      | 115/300 [00:25<00:37,  4.87it/s]Train NLL: 11.898, Val NLL: 11.918:  40%|████      | 120/300 [00:26<00:38,  4.73it/s]Train NLL: 11.891, Val NLL: 11.916:  42%|████▏     | 125/300 [00:27<00:36,  4.79it/s]Train NLL: 11.895, Val NLL: 11.933:  44%|████▎     | 131/300 [00:29<00:34,  4.90it/s]Train NLL: 11.890, Val NLL: 11.915:  45%|████▌     | 136/300 [00:30<00:33,  4.89it/s]Train NLL: 11.884, Val NLL: 11.918:  47%|████▋     | 141/300 [00:31<00:32,  4.92it/s]Train NLL: 11.887, Val NLL: 11.925:  49%|████▊     | 146/300 [00:32<00:32,  4.78it/s]Train NLL: 11.887, Val NLL: 11.918:  50%|█████     | 151/300 [00:33<00:31,  4.79it/s]Train NLL: 11.888, Val NLL: 11.929:  52%|█████▏    | 156/300 [00:34<00:30,  4.79it/s]Train NLL: 11.887, Val NLL: 11.934:  54%|█████▎    | 161/300 [00:35<00:29,  4.69it/s]Train NLL: 11.879, Val NLL: 11.915:  55%|█████▌    | 166/300 [00:36<00:28,  4.71it/s]Train NLL: 11.873, Val NLL: 11.923:  57%|█████▋    | 171/300 [00:37<00:27,  4.64it/s]Train NLL: 11.879, Val NLL: 11.933:  59%|█████▉    | 177/300 [00:38<00:25,  4.78it/s]Train NLL: 11.882, Val NLL: 11.916:  61%|██████    | 182/300 [00:39<00:24,  4.78it/s]Train NLL: 11.881, Val NLL: 11.934:  62%|██████▏   | 187/300 [00:40<00:23,  4.83it/s]Epoch   192: reducing learning rate of group 0 to 1.0000e-04.
Train NLL: 11.872, Val NLL: 11.920:  64%|██████▍   | 192/300 [00:41<00:22,  4.78it/s]Train NLL: 11.849, Val NLL: 11.911:  66%|██████▌   | 197/300 [00:42<00:21,  4.81it/s]Train NLL: 11.848, Val NLL: 11.911:  68%|██████▊   | 203/300 [00:44<00:19,  4.89it/s]Train NLL: 11.847, Val NLL: 11.912:  69%|██████▉   | 208/300 [00:45<00:18,  4.85it/s]Train NLL: 11.848, Val NLL: 11.912:  71%|███████   | 213/300 [00:46<00:18,  4.83it/s]Train NLL: 11.847, Val NLL: 11.914:  73%|███████▎  | 218/300 [00:47<00:17,  4.73it/s]Train NLL: 11.847, Val NLL: 11.913:  74%|███████▍  | 223/300 [00:48<00:16,  4.80it/s]Train NLL: 11.847, Val NLL: 11.914:  76%|███████▋  | 229/300 [00:49<00:14,  4.88it/s]Train NLL: 11.846, Val NLL: 11.914:  78%|███████▊  | 235/300 [00:50<00:13,  4.90it/s]Epoch   238: reducing learning rate of group 0 to 1.0000e-05.
Train NLL: 11.843, Val NLL: 11.915:  80%|████████  | 240/300 [00:51<00:12,  4.88it/s]Train NLL: 11.843, Val NLL: 11.915:  82%|████████▏ | 245/300 [00:52<00:11,  4.83it/s]Train NLL: 11.843, Val NLL: 11.914:  83%|████████▎ | 250/300 [00:53<00:10,  4.84it/s]Train NLL: 11.843, Val NLL: 11.915:  85%|████████▌ | 255/300 [00:54<00:09,  4.89it/s]Epoch   260: reducing learning rate of group 0 to 1.0000e-06.
Train NLL: 11.843, Val NLL: 11.915:  87%|████████▋ | 260/300 [00:55<00:08,  4.84it/s]Train NLL: 11.843, Val NLL: 11.915:  88%|████████▊ | 265/300 [00:56<00:07,  4.81it/s]Train NLL: 11.843, Val NLL: 11.915:  90%|█████████ | 270/300 [00:57<00:06,  4.76it/s]Train NLL: 11.843, Val NLL: 11.915:  92%|█████████▏| 275/300 [00:59<00:05,  4.74it/s]Train NLL: 11.843, Val NLL: 11.915:  94%|█████████▎| 281/300 [01:00<00:03,  4.88it/s]Train NLL: 11.843, Val NLL: 11.915:  95%|█████████▌| 286/300 [01:01<00:02,  4.77it/s]Train NLL: 11.843, Val NLL: 11.915:  97%|█████████▋| 291/300 [01:02<00:01,  4.77it/s]Train NLL: 11.843, Val NLL: 11.915:  99%|█████████▊| 296/300 [01:03<00:00,  4.81it/s]Train NLL: 11.843, Val NLL: 11.915: 100%|██████████| 300/300 [01:04<00:00,  4.67it/s]
INFO - discrete_nf - Completed after 0:01:07
