INFO - continuous_nf - Running command 'run'
INFO - continuous_nf - Started run with ID "2"
Initializing step:
In 44 Out 250
Initializing step:
In 250 Out 250
Initializing step:
In 250 Out 15
  0%|          | 0/150 [00:00<?, ?it/s]Train: 103.691, Val: 37.311:   1%|          | 1/150 [00:11<28:38, 11.54s/it]Train: 36.712, Val: 36.278:   1%|▏         | 2/150 [00:25<32:09, 13.04s/it] Train: 36.255, Val: 35.998:   2%|▏         | 3/150 [00:39<32:34, 13.29s/it]Train: 36.226, Val: 36.323:   3%|▎         | 4/150 [00:52<32:29, 13.35s/it]Train: 36.243, Val: 35.755:   3%|▎         | 5/150 [01:06<32:24, 13.41s/it]Train: 35.932, Val: 36.074:   4%|▍         | 6/150 [01:19<32:07, 13.39s/it]Train: 35.951, Val: 35.850:   5%|▍         | 7/150 [01:32<31:47, 13.34s/it]Train: 35.992, Val: 35.862:   5%|▌         | 8/150 [01:46<31:40, 13.38s/it]Train: 35.900, Val: 36.104:   6%|▌         | 9/150 [01:59<31:34, 13.44s/it]Train: 35.870, Val: 35.800:   7%|▋         | 10/150 [02:13<31:35, 13.54s/it]Train: 35.829, Val: 35.781:   7%|▋         | 11/150 [02:28<32:05, 13.85s/it]Train: 35.819, Val: 35.872:   8%|▊         | 12/150 [02:42<32:28, 14.12s/it]Train: 35.797, Val: 35.798:   9%|▊         | 13/150 [02:57<32:44, 14.34s/it]Train: 35.704, Val: 35.683:   9%|▉         | 14/150 [03:12<33:00, 14.57s/it]Train: 35.661, Val: 35.939:  10%|█         | 15/150 [03:28<33:18, 14.81s/it]Train: 35.672, Val: 35.740:  11%|█         | 16/150 [03:43<33:34, 15.04s/it]Train: 35.648, Val: 35.522:  11%|█▏        | 17/150 [03:59<33:57, 15.32s/it]Train: 35.716, Val: 35.569:  12%|█▏        | 18/150 [04:15<34:07, 15.51s/it]Train: 35.601, Val: 35.533:  13%|█▎        | 19/150 [04:31<34:21, 15.74s/it]Train: 35.539, Val: 35.317:  13%|█▎        | 20/150 [04:48<34:55, 16.12s/it]Train: 35.590, Val: 35.436:  14%|█▍        | 21/150 [05:05<35:14, 16.39s/it]Train: 35.519, Val: 35.594:  15%|█▍        | 22/150 [05:23<35:35, 16.68s/it]Train: 35.608, Val: 35.652:  15%|█▌        | 23/150 [05:41<36:04, 17.04s/it]Train: 35.423, Val: 35.472:  16%|█▌        | 24/150 [05:59<36:39, 17.46s/it]Train: 35.466, Val: 35.441:  17%|█▋        | 25/150 [06:18<37:15, 17.88s/it]Train: 35.369, Val: 35.637:  17%|█▋        | 26/150 [06:37<37:31, 18.16s/it]Train: 35.498, Val: 35.767:  18%|█▊        | 27/150 [06:56<37:47, 18.43s/it]Train: 35.543, Val: 35.508:  19%|█▊        | 28/150 [07:15<37:58, 18.68s/it]Train: 35.452, Val: 35.541:  19%|█▉        | 29/150 [07:35<38:26, 19.06s/it]Train: 35.418, Val: 35.246:  20%|██        | 30/150 [07:55<38:52, 19.44s/it]Train: 35.547, Val: 35.416:  21%|██        | 31/150 [08:16<39:06, 19.72s/it]Train: 35.584, Val: 35.481:  21%|██▏       | 32/150 [08:37<39:24, 20.04s/it]Train: 35.580, Val: 35.616:  22%|██▏       | 33/150 [08:58<39:39, 20.34s/it]Train: 35.538, Val: 35.359:  23%|██▎       | 34/150 [09:19<39:46, 20.57s/it]Train: 35.445, Val: 35.480:  23%|██▎       | 35/150 [09:40<40:05, 20.92s/it]Train: 35.515, Val: 35.283:  24%|██▍       | 36/150 [10:02<39:56, 21.02s/it]Train: 35.517, Val: 35.605:  25%|██▍       | 37/150 [10:23<39:49, 21.14s/it]Train: 35.406, Val: 35.374:  25%|██▌       | 38/150 [10:45<39:53, 21.37s/it]Train: 35.375, Val: 35.333:  26%|██▌       | 39/150 [11:07<39:52, 21.55s/it]Train: 35.370, Val: 35.442:  27%|██▋       | 40/150 [11:30<40:02, 21.84s/it]Train: 35.420, Val: 35.449:  27%|██▋       | 41/150 [11:52<40:09, 22.10s/it]Train: 35.331, Val: 35.361:  28%|██▊       | 42/150 [12:15<40:03, 22.26s/it]Train: 35.474, Val: 35.341:  29%|██▊       | 43/150 [12:38<39:55, 22.39s/it]Train: 35.308, Val: 35.437:  29%|██▉       | 44/150 [13:01<39:57, 22.61s/it]Train: 35.385, Val: 35.528:  30%|███       | 45/150 [13:24<39:58, 22.84s/it]Train: 35.433, Val: 35.504:  31%|███       | 46/150 [13:48<39:59, 23.07s/it]Train: 35.509, Val: 35.350:  31%|███▏      | 47/150 [14:12<40:15, 23.45s/it]Train: 35.351, Val: 35.403:  32%|███▏      | 48/150 [14:37<40:24, 23.77s/it]Train: 35.294, Val: 35.564:  33%|███▎      | 49/150 [15:01<40:35, 24.11s/it]Train: 35.352, Val: 35.324:  33%|███▎      | 50/150 [15:27<40:54, 24.55s/it]Train: 35.246, Val: 35.516:  34%|███▍      | 51/150 [15:52<40:57, 24.83s/it]Train: 35.405, Val: 35.315:  35%|███▍      | 52/150 [16:18<40:57, 25.08s/it]Train: 35.436, Val: 35.208:  35%|███▌      | 53/150 [16:44<40:51, 25.27s/it]Train: 35.229, Val: 35.341:  36%|███▌      | 54/150 [17:09<40:36, 25.38s/it]Train: 35.435, Val: 35.422:  37%|███▋      | 55/150 [17:35<40:12, 25.39s/it]Train: 35.352, Val: 35.428:  37%|███▋      | 56/150 [18:00<39:47, 25.40s/it]Train: 35.338, Val: 35.297:  38%|███▊      | 57/150 [18:26<39:33, 25.52s/it]Train: 35.259, Val: 35.112:  39%|███▊      | 58/150 [18:52<39:24, 25.71s/it]Train: 35.357, Val: 35.346:  39%|███▉      | 59/150 [19:19<39:17, 25.91s/it]Train: 35.447, Val: 35.265:  40%|████      | 60/150 [19:45<38:58, 25.98s/it]Train: 35.339, Val: 35.362:  41%|████      | 61/150 [20:11<38:31, 25.97s/it]Train: 35.451, Val: 35.543:  41%|████▏     | 62/150 [20:37<38:08, 26.01s/it]Train: 35.371, Val: 35.400:  42%|████▏     | 63/150 [21:03<37:57, 26.17s/it]Train: 35.340, Val: 35.280:  43%|████▎     | 64/150 [21:30<37:43, 26.32s/it]Train: 35.426, Val: 35.207:  43%|████▎     | 65/150 [21:57<37:40, 26.60s/it]Train: 35.366, Val: 35.477:  44%|████▍     | 66/150 [22:24<37:25, 26.74s/it]Train: 35.290, Val: 35.145:  45%|████▍     | 67/150 [22:51<37:07, 26.83s/it]Train: 35.231, Val: 35.345:  45%|████▌     | 68/150 [23:19<36:49, 26.95s/it]Train: 35.349, Val: 35.107:  46%|████▌     | 69/150 [23:46<36:33, 27.08s/it]Train: 35.403, Val: 35.264:  47%|████▋     | 70/150 [24:14<36:16, 27.20s/it]Train: 35.289, Val: 35.434:  47%|████▋     | 71/150 [24:41<36:02, 27.38s/it]Train: 35.360, Val: 35.255:  48%|████▊     | 72/150 [25:09<35:49, 27.56s/it]Train: 35.233, Val: 35.333:  49%|████▊     | 73/150 [25:38<35:40, 27.79s/it]Train: 35.311, Val: 35.430:  49%|████▉     | 74/150 [26:06<35:20, 27.91s/it]Epoch    75: reducing learning rate of group 0 to 1.0000e-03.
Train: 35.414, Val: 35.292:  50%|█████     | 75/150 [26:34<34:55, 27.95s/it]Train: 35.058, Val: 35.147:  51%|█████     | 76/150 [27:02<34:33, 28.02s/it]Train: 35.160, Val: 35.104:  51%|█████▏    | 77/150 [27:30<34:11, 28.10s/it]Train: 34.891, Val: 35.084:  52%|█████▏    | 78/150 [27:58<33:44, 28.12s/it]Train: 35.042, Val: 35.090:  53%|█████▎    | 79/150 [28:26<33:12, 28.06s/it]Train: 35.037, Val: 35.221:  53%|█████▎    | 80/150 [28:55<32:47, 28.11s/it]Train: 34.989, Val: 34.903:  54%|█████▍    | 81/150 [29:23<32:15, 28.05s/it]Train: 34.994, Val: 35.007:  55%|█████▍    | 82/150 [29:51<31:47, 28.05s/it]Train: 35.010, Val: 35.088:  55%|█████▌    | 83/150 [30:19<31:21, 28.08s/it]Train: 34.999, Val: 34.920:  56%|█████▌    | 84/150 [30:47<30:53, 28.08s/it]Train: 35.133, Val: 35.127:  57%|█████▋    | 85/150 [31:15<30:20, 28.01s/it]Train: 35.198, Val: 35.009:  57%|█████▋    | 86/150 [31:43<29:55, 28.05s/it]Train: 34.984, Val: 34.915:  58%|█████▊    | 87/150 [32:11<29:24, 28.00s/it]Train: 35.095, Val: 35.012:  59%|█████▊    | 88/150 [32:39<28:53, 27.97s/it]Train: 35.045, Val: 34.982:  59%|█████▉    | 89/150 [33:07<28:26, 27.98s/it]Train: 35.221, Val: 35.180:  60%|██████    | 90/150 [33:35<27:59, 27.99s/it]Train: 35.158, Val: 34.948:  61%|██████    | 91/150 [34:03<27:30, 27.97s/it]Train: 35.185, Val: 35.043:  61%|██████▏   | 92/150 [34:31<27:02, 27.98s/it]Train: 35.003, Val: 34.981:  62%|██████▏   | 93/150 [34:58<26:34, 27.97s/it]Train: 35.127, Val: 35.114:  63%|██████▎   | 94/150 [35:26<26:05, 27.96s/it]Train: 34.950, Val: 35.101:  63%|██████▎   | 95/150 [35:54<25:39, 27.99s/it]Train: 35.051, Val: 35.180:  64%|██████▍   | 96/150 [36:23<25:17, 28.10s/it]Train: 35.111, Val: 34.900:  65%|██████▍   | 97/150 [36:51<24:50, 28.12s/it]Train: 34.977, Val: 34.929:  65%|██████▌   | 98/150 [37:19<24:21, 28.11s/it]Epoch    99: reducing learning rate of group 0 to 1.0000e-04.
Train: 34.948, Val: 35.239:  66%|██████▌   | 99/150 [37:47<23:50, 28.05s/it]Train: 35.049, Val: 35.187:  67%|██████▋   | 100/150 [38:15<23:24, 28.09s/it]Train: 35.111, Val: 35.109:  67%|██████▋   | 101/150 [38:43<22:55, 28.06s/it]Train: 35.105, Val: 35.033:  68%|██████▊   | 102/150 [39:11<22:30, 28.13s/it]Train: 35.146, Val: 35.034:  69%|██████▊   | 103/150 [39:40<22:03, 28.16s/it]Train: 35.110, Val: 35.064:  69%|██████▉   | 104/150 [40:08<21:36, 28.18s/it]Train: 34.958, Val: 35.131:  70%|███████   | 105/150 [40:36<21:04, 28.11s/it]Train: 35.147, Val: 35.021:  71%|███████   | 106/150 [41:04<20:41, 28.22s/it]Train: 35.109, Val: 35.191:  71%|███████▏  | 107/150 [41:33<20:22, 28.44s/it]Train: 34.970, Val: 35.261:  72%|███████▏  | 108/150 [42:02<19:56, 28.48s/it]Train: 35.080, Val: 35.253:  73%|███████▎  | 109/150 [42:30<19:26, 28.46s/it]Train: 35.104, Val: 35.387:  73%|███████▎  | 110/150 [42:59<18:57, 28.43s/it]Train: 35.063, Val: 34.948:  74%|███████▍  | 111/150 [43:27<18:27, 28.39s/it]Train: 35.095, Val: 34.834:  75%|███████▍  | 112/150 [43:55<17:56, 28.33s/it]Train: 35.006, Val: 35.010:  75%|███████▌  | 113/150 [44:23<17:25, 28.26s/it]Train: 34.933, Val: 35.106:  76%|███████▌  | 114/150 [44:52<16:59, 28.33s/it]Train: 35.123, Val: 34.970:  77%|███████▋  | 115/150 [45:20<16:31, 28.33s/it]Train: 35.071, Val: 35.141:  77%|███████▋  | 116/150 [45:48<16:03, 28.35s/it]Train: 35.104, Val: 35.047:  78%|███████▊  | 117/150 [46:17<15:36, 28.37s/it]Train: 35.073, Val: 35.082:  79%|███████▊  | 118/150 [46:45<15:07, 28.37s/it]Train: 35.185, Val: 35.147:  79%|███████▉  | 119/150 [47:14<14:44, 28.52s/it]Train: 34.835, Val: 35.131:  80%|████████  | 120/150 [47:43<14:16, 28.54s/it]Train: 35.070, Val: 35.041:  81%|████████  | 121/150 [48:11<13:48, 28.58s/it]Train: 35.133, Val: 35.050:  81%|████████▏ | 122/150 [48:40<13:20, 28.61s/it]Train: 35.094, Val: 34.883:  82%|████████▏ | 123/150 [49:09<12:53, 28.65s/it]Train: 35.093, Val: 34.950:  83%|████████▎ | 124/150 [49:37<12:25, 28.67s/it]Train: 34.927, Val: 35.164:  83%|████████▎ | 125/150 [50:06<11:58, 28.74s/it]Train: 35.208, Val: 34.942:  84%|████████▍ | 126/150 [50:35<11:30, 28.77s/it]Train: 35.191, Val: 35.047:  85%|████████▍ | 127/150 [51:04<11:00, 28.72s/it]Train: 35.128, Val: 35.167:  85%|████████▌ | 128/150 [51:33<10:32, 28.73s/it]Train: 35.059, Val: 35.122:  86%|████████▌ | 129/150 [52:01<10:04, 28.77s/it]Train: 35.159, Val: 34.991:  87%|████████▋ | 130/150 [52:30<09:33, 28.69s/it]Train: 35.023, Val: 35.107:  87%|████████▋ | 131/150 [52:59<09:05, 28.69s/it]Train: 34.893, Val: 35.042:  88%|████████▊ | 132/150 [53:27<08:36, 28.68s/it]Train: 35.172, Val: 35.061:  89%|████████▊ | 133/150 [53:56<08:07, 28.67s/it]Train: 35.020, Val: 34.937:  89%|████████▉ | 134/150 [54:24<07:37, 28.61s/it]Train: 35.122, Val: 34.946:  90%|█████████ | 135/150 [54:53<07:09, 28.67s/it]Train: 35.181, Val: 35.011:  91%|█████████ | 136/150 [55:22<06:40, 28.60s/it]Train: 35.012, Val: 35.094:  91%|█████████▏| 137/150 [55:50<06:11, 28.54s/it]Train: 35.014, Val: 35.017:  92%|█████████▏| 138/150 [56:19<05:43, 28.63s/it]Train: 35.092, Val: 35.095:  93%|█████████▎| 139/150 [56:48<05:15, 28.65s/it]Train: 35.169, Val: 35.196:  93%|█████████▎| 140/150 [57:16<04:47, 28.70s/it]Epoch   141: reducing learning rate of group 0 to 1.0000e-05.
Train: 35.031, Val: 34.998:  94%|█████████▍| 141/150 [57:45<04:18, 28.71s/it]Train: 35.188, Val: 35.004:  95%|█████████▍| 142/150 [58:14<03:49, 28.68s/it]Train: 34.999, Val: 35.172:  95%|█████████▌| 143/150 [58:42<03:20, 28.66s/it]Train: 35.225, Val: 35.059:  96%|█████████▌| 144/150 [59:11<02:51, 28.62s/it]Train: 35.025, Val: 35.076:  97%|█████████▋| 145/150 [59:39<02:23, 28.60s/it]Train: 35.116, Val: 35.020:  97%|█████████▋| 146/150 [1:00:08<01:54, 28.62s/it]Train: 35.092, Val: 35.049:  98%|█████████▊| 147/150 [1:00:37<01:25, 28.62s/it]Train: 35.126, Val: 35.238:  99%|█████████▊| 148/150 [1:01:05<00:57, 28.64s/it]Train: 34.973, Val: 35.146:  99%|█████████▉| 149/150 [1:01:34<00:28, 28.60s/it]Train: 35.013, Val: 35.037: 100%|██████████| 150/150 [1:02:03<00:00, 28.63s/it]Train: 35.013, Val: 35.037: 100%|██████████| 150/150 [1:02:03<00:00, 24.82s/it]
