{
  "test": {
    "steps": [
      0,
      0
    ],
    "timestamps": [
      "2022-08-20T13:46:40.765495",
      "2022-08-31T10:20:59.297246"
    ],
    "values": [
      34.97865817478315,
      34.96298286236795
    ]
  },
  "train": {
    "steps": [
      0,
      1,
      2,
      3,
      4,
      5,
      6,
      7,
      8,
      9,
      10,
      11,
      12,
      13,
      14,
      15,
      16,
      17,
      18,
      19,
      20,
      21,
      22,
      23,
      24,
      25,
      26,
      27,
      28,
      29,
      30,
      31,
      32,
      33,
      34,
      35,
      36,
      37,
      38,
      39,
      40,
      41,
      42,
      43,
      44,
      45,
      46,
      47,
      48,
      49,
      50,
      51,
      52,
      53,
      54,
      55,
      56,
      57,
      58,
      59,
      60,
      61,
      62,
      63,
      64,
      65,
      66,
      67,
      68,
      69,
      70,
      71,
      72,
      73,
      74,
      75,
      76,
      77,
      78,
      79,
      80,
      81,
      82,
      83,
      84,
      85,
      86,
      87,
      88,
      89,
      90,
      91,
      92,
      93,
      94,
      95,
      96,
      97,
      98,
      99,
      100,
      101,
      102,
      103,
      104,
      105,
      106,
      107,
      108,
      109,
      110,
      111,
      112,
      113,
      114,
      115,
      116,
      117,
      118,
      119,
      120,
      121,
      122,
      123,
      124,
      125,
      126,
      127,
      128,
      129,
      130,
      131,
      132,
      133,
      134,
      135,
      136,
      137,
      138,
      139,
      140,
      141,
      142,
      143,
      144,
      145,
      146,
      147,
      148,
      149,
      150,
      151,
      152,
      153,
      154,
      155,
      156,
      157,
      158,
      159,
      160,
      161,
      162,
      163,
      164,
      165,
      166,
      167,
      168,
      169,
      170,
      171,
      172,
      173,
      174,
      175,
      176,
      177,
      178,
      179,
      180,
      181,
      182,
      183,
      184,
      185,
      186,
      187,
      188,
      189,
      190,
      191,
      192,
      193,
      194,
      195,
      196,
      197,
      198,
      199,
      0,
      1,
      2,
      3,
      4,
      5,
      6,
      7,
      8,
      9,
      10,
      11,
      12,
      13,
      14,
      15,
      16,
      17,
      18,
      19,
      20,
      21,
      22,
      23,
      24,
      25,
      26,
      27,
      28,
      29,
      30,
      31,
      32,
      33,
      34,
      35,
      36,
      37,
      38,
      39,
      40,
      41,
      42,
      43,
      44,
      45,
      46,
      47,
      48,
      49,
      50,
      51,
      52,
      53,
      54,
      55,
      56,
      57,
      58,
      59,
      60,
      61,
      62,
      63,
      64,
      65,
      66,
      67,
      68,
      69,
      70,
      71,
      72,
      73,
      74,
      75,
      76,
      77,
      78,
      79,
      80,
      81,
      82,
      83,
      84,
      85,
      86,
      87,
      88,
      89,
      90,
      91,
      92,
      93,
      94,
      95,
      96,
      97,
      98,
      99
    ],
    "timestamps": [
      "2022-08-20T13:05:11.988995",
      "2022-08-20T13:05:23.436429",
      "2022-08-20T13:05:35.117982",
      "2022-08-20T13:05:46.483218",
      "2022-08-20T13:05:57.933129",
      "2022-08-20T13:06:09.503123",
      "2022-08-20T13:06:21.260299",
      "2022-08-20T13:06:33.188164",
      "2022-08-20T13:06:45.300215",
      "2022-08-20T13:06:57.321457",
      "2022-08-20T13:07:09.701325",
      "2022-08-20T13:07:21.748650",
      "2022-08-20T13:07:33.814316",
      "2022-08-20T13:07:46.055957",
      "2022-08-20T13:07:58.145854",
      "2022-08-20T13:08:10.201088",
      "2022-08-20T13:08:22.311996",
      "2022-08-20T13:08:34.584251",
      "2022-08-20T13:08:46.724262",
      "2022-08-20T13:08:58.855447",
      "2022-08-20T13:09:10.979757",
      "2022-08-20T13:09:22.813173",
      "2022-08-20T13:09:34.903710",
      "2022-08-20T13:09:46.792570",
      "2022-08-20T13:09:58.685437",
      "2022-08-20T13:10:10.611199",
      "2022-08-20T13:10:22.576866",
      "2022-08-20T13:10:34.648969",
      "2022-08-20T13:10:46.583699",
      "2022-08-20T13:10:58.522124",
      "2022-08-20T13:11:10.681275",
      "2022-08-20T13:11:22.567164",
      "2022-08-20T13:11:34.690627",
      "2022-08-20T13:11:46.758750",
      "2022-08-20T13:11:59.062047",
      "2022-08-20T13:12:11.322718",
      "2022-08-20T13:12:23.359035",
      "2022-08-20T13:12:35.522471",
      "2022-08-20T13:12:47.548077",
      "2022-08-20T13:12:59.625828",
      "2022-08-20T13:13:11.884499",
      "2022-08-20T13:13:23.995637",
      "2022-08-20T13:13:36.297454",
      "2022-08-20T13:13:48.977543",
      "2022-08-20T13:14:01.352461",
      "2022-08-20T13:14:13.608338",
      "2022-08-20T13:14:26.056948",
      "2022-08-20T13:14:38.392763",
      "2022-08-20T13:14:50.799778",
      "2022-08-20T13:15:03.139647",
      "2022-08-20T13:15:15.904457",
      "2022-08-20T13:15:28.239907",
      "2022-08-20T13:15:40.498520",
      "2022-08-20T13:15:52.700317",
      "2022-08-20T13:16:05.123992",
      "2022-08-20T13:16:17.414117",
      "2022-08-20T13:16:29.779319",
      "2022-08-20T13:16:42.058440",
      "2022-08-20T13:16:54.375392",
      "2022-08-20T13:17:06.740874",
      "2022-08-20T13:17:19.173381",
      "2022-08-20T13:17:31.477647",
      "2022-08-20T13:17:43.830290",
      "2022-08-20T13:17:56.385551",
      "2022-08-20T13:18:08.883812",
      "2022-08-20T13:18:21.402420",
      "2022-08-20T13:18:33.910309",
      "2022-08-20T13:18:46.690521",
      "2022-08-20T13:18:59.329027",
      "2022-08-20T13:19:11.981645",
      "2022-08-20T13:19:24.807131",
      "2022-08-20T13:19:37.450198",
      "2022-08-20T13:19:50.117416",
      "2022-08-20T13:20:02.601740",
      "2022-08-20T13:20:15.138359",
      "2022-08-20T13:20:27.507306",
      "2022-08-20T13:20:39.851675",
      "2022-08-20T13:20:52.273732",
      "2022-08-20T13:21:04.874390",
      "2022-08-20T13:21:17.510288",
      "2022-08-20T13:21:30.208800",
      "2022-08-20T13:21:42.726933",
      "2022-08-20T13:21:55.166569",
      "2022-08-20T13:22:07.552979",
      "2022-08-20T13:22:19.953333",
      "2022-08-20T13:22:32.319263",
      "2022-08-20T13:22:44.916873",
      "2022-08-20T13:22:57.331235",
      "2022-08-20T13:23:09.714281",
      "2022-08-20T13:23:22.161199",
      "2022-08-20T13:23:34.879260",
      "2022-08-20T13:23:47.468439",
      "2022-08-20T13:23:59.998562",
      "2022-08-20T13:24:12.528176",
      "2022-08-20T13:24:25.186475",
      "2022-08-20T13:24:37.681788",
      "2022-08-20T13:24:50.246001",
      "2022-08-20T13:25:02.890963",
      "2022-08-20T13:25:15.708238",
      "2022-08-20T13:25:28.359718",
      "2022-08-20T13:25:41.009558",
      "2022-08-20T13:25:53.449620",
      "2022-08-20T13:26:06.067243",
      "2022-08-20T13:26:18.549883",
      "2022-08-20T13:26:31.075265",
      "2022-08-20T13:26:43.532770",
      "2022-08-20T13:26:56.102135",
      "2022-08-20T13:27:08.616839",
      "2022-08-20T13:27:21.203874",
      "2022-08-20T13:27:33.871765",
      "2022-08-20T13:27:46.750662",
      "2022-08-20T13:27:59.381804",
      "2022-08-20T13:28:11.828327",
      "2022-08-20T13:28:24.381942",
      "2022-08-20T13:28:36.981681",
      "2022-08-20T13:28:49.695397",
      "2022-08-20T13:29:02.378244",
      "2022-08-20T13:29:15.214969",
      "2022-08-20T13:29:27.937870",
      "2022-08-20T13:29:40.619489",
      "2022-08-20T13:29:53.297904",
      "2022-08-20T13:30:06.085051",
      "2022-08-20T13:30:18.622729",
      "2022-08-20T13:30:31.185433",
      "2022-08-20T13:30:43.735897",
      "2022-08-20T13:30:56.407854",
      "2022-08-20T13:31:09.026821",
      "2022-08-20T13:31:21.691294",
      "2022-08-20T13:31:34.311647",
      "2022-08-20T13:31:46.967785",
      "2022-08-20T13:31:59.599740",
      "2022-08-20T13:32:12.294802",
      "2022-08-20T13:32:25.002523",
      "2022-08-20T13:32:37.590181",
      "2022-08-20T13:32:50.165173",
      "2022-08-20T13:33:02.750197",
      "2022-08-20T13:33:15.473528",
      "2022-08-20T13:33:27.985813",
      "2022-08-20T13:33:40.502819",
      "2022-08-20T13:33:53.012641",
      "2022-08-20T13:34:05.916135",
      "2022-08-20T13:34:18.439284",
      "2022-08-20T13:34:30.908195",
      "2022-08-20T13:34:43.521572",
      "2022-08-20T13:34:56.245276",
      "2022-08-20T13:35:08.881863",
      "2022-08-20T13:35:21.662799",
      "2022-08-20T13:35:34.378794",
      "2022-08-20T13:35:47.288213",
      "2022-08-20T13:36:00.080524",
      "2022-08-20T13:36:13.011405",
      "2022-08-20T13:36:25.920643",
      "2022-08-20T13:36:38.661251",
      "2022-08-20T13:36:51.309742",
      "2022-08-20T13:37:03.936050",
      "2022-08-20T13:37:16.685474",
      "2022-08-20T13:37:29.305415",
      "2022-08-20T13:37:42.072705",
      "2022-08-20T13:37:54.692241",
      "2022-08-20T13:38:07.413744",
      "2022-08-20T13:38:20.158473",
      "2022-08-20T13:38:32.727850",
      "2022-08-20T13:38:45.418543",
      "2022-08-20T13:38:58.058778",
      "2022-08-20T13:39:10.629706",
      "2022-08-20T13:39:23.219211",
      "2022-08-20T13:39:36.107736",
      "2022-08-20T13:39:48.749054",
      "2022-08-20T13:40:01.317329",
      "2022-08-20T13:40:13.989388",
      "2022-08-20T13:40:26.910721",
      "2022-08-20T13:40:39.546537",
      "2022-08-20T13:40:52.304598",
      "2022-08-20T13:41:05.241080",
      "2022-08-20T13:41:17.979593",
      "2022-08-20T13:41:30.617385",
      "2022-08-20T13:41:43.270394",
      "2022-08-20T13:41:56.103762",
      "2022-08-20T13:42:08.693940",
      "2022-08-20T13:42:21.457955",
      "2022-08-20T13:42:34.193120",
      "2022-08-20T13:42:47.054747",
      "2022-08-20T13:42:59.712768",
      "2022-08-20T13:43:12.384584",
      "2022-08-20T13:43:25.327995",
      "2022-08-20T13:43:38.058081",
      "2022-08-20T13:43:50.674887",
      "2022-08-20T13:44:03.407205",
      "2022-08-20T13:44:16.394267",
      "2022-08-20T13:44:29.129475",
      "2022-08-20T13:44:41.990215",
      "2022-08-20T13:44:54.703974",
      "2022-08-20T13:45:07.669171",
      "2022-08-20T13:45:20.454559",
      "2022-08-20T13:45:33.348035",
      "2022-08-20T13:45:46.428644",
      "2022-08-20T13:45:59.162224",
      "2022-08-20T13:46:11.794340",
      "2022-08-20T13:46:24.391858",
      "2022-08-20T13:46:37.190137",
      "2022-08-31T09:59:51.135181",
      "2022-08-31T10:00:03.272956",
      "2022-08-31T10:00:15.075488",
      "2022-08-31T10:00:27.274187",
      "2022-08-31T10:00:39.581141",
      "2022-08-31T10:00:51.995553",
      "2022-08-31T10:01:04.065676",
      "2022-08-31T10:01:16.029158",
      "2022-08-31T10:01:28.277627",
      "2022-08-31T10:01:40.677154",
      "2022-08-31T10:01:53.246254",
      "2022-08-31T10:02:05.576990",
      "2022-08-31T10:02:18.025535",
      "2022-08-31T10:02:31.045183",
      "2022-08-31T10:02:43.475595",
      "2022-08-31T10:02:56.047233",
      "2022-08-31T10:03:08.523538",
      "2022-08-31T10:03:21.379192",
      "2022-08-31T10:03:33.745395",
      "2022-08-31T10:03:46.221512",
      "2022-08-31T10:03:58.773982",
      "2022-08-31T10:04:11.439152",
      "2022-08-31T10:04:23.730041",
      "2022-08-31T10:04:36.104573",
      "2022-08-31T10:04:48.492617",
      "2022-08-31T10:05:01.228055",
      "2022-08-31T10:05:13.749044",
      "2022-08-31T10:05:26.169012",
      "2022-08-31T10:05:38.591723",
      "2022-08-31T10:05:51.425563",
      "2022-08-31T10:06:04.135319",
      "2022-08-31T10:06:16.526173",
      "2022-08-31T10:06:28.998446",
      "2022-08-31T10:06:41.917243",
      "2022-08-31T10:06:54.570413",
      "2022-08-31T10:07:07.038278",
      "2022-08-31T10:07:19.617304",
      "2022-08-31T10:07:32.259140",
      "2022-08-31T10:07:44.775248",
      "2022-08-31T10:07:57.261848",
      "2022-08-31T10:08:10.146084",
      "2022-08-31T10:08:22.805723",
      "2022-08-31T10:08:35.266765",
      "2022-08-31T10:08:47.874295",
      "2022-08-31T10:09:00.886108",
      "2022-08-31T10:09:13.527866",
      "2022-08-31T10:09:26.085944",
      "2022-08-31T10:09:38.676236",
      "2022-08-31T10:09:51.709374",
      "2022-08-31T10:10:04.373665",
      "2022-08-31T10:10:17.319563",
      "2022-08-31T10:10:30.205033",
      "2022-08-31T10:10:43.216539",
      "2022-08-31T10:10:56.023104",
      "2022-08-31T10:11:08.973806",
      "2022-08-31T10:11:22.388710",
      "2022-08-31T10:11:35.297342",
      "2022-08-31T10:11:48.120602",
      "2022-08-31T10:12:01.360398",
      "2022-08-31T10:12:14.339176",
      "2022-08-31T10:12:27.666455",
      "2022-08-31T10:12:40.816525",
      "2022-08-31T10:12:53.730343",
      "2022-08-31T10:13:06.629371",
      "2022-08-31T10:13:19.611149",
      "2022-08-31T10:13:32.692689",
      "2022-08-31T10:13:45.668331",
      "2022-08-31T10:13:58.472364",
      "2022-08-31T10:14:11.607824",
      "2022-08-31T10:14:24.315274",
      "2022-08-31T10:14:37.509112",
      "2022-08-31T10:14:50.559044",
      "2022-08-31T10:15:03.456506",
      "2022-08-31T10:15:16.419241",
      "2022-08-31T10:15:29.221297",
      "2022-08-31T10:15:42.358789",
      "2022-08-31T10:15:55.233503",
      "2022-08-31T10:16:08.078318",
      "2022-08-31T10:16:21.489604",
      "2022-08-31T10:16:34.412727",
      "2022-08-31T10:16:47.675032",
      "2022-08-31T10:17:00.921355",
      "2022-08-31T10:17:13.831219",
      "2022-08-31T10:17:26.628603",
      "2022-08-31T10:17:39.453193",
      "2022-08-31T10:17:52.660520",
      "2022-08-31T10:18:05.545104",
      "2022-08-31T10:18:18.436295",
      "2022-08-31T10:18:31.658096",
      "2022-08-31T10:18:44.434124",
      "2022-08-31T10:18:57.664299",
      "2022-08-31T10:19:10.819114",
      "2022-08-31T10:19:24.030393",
      "2022-08-31T10:19:37.147065",
      "2022-08-31T10:19:50.464512",
      "2022-08-31T10:20:03.453001",
      "2022-08-31T10:20:16.354921",
      "2022-08-31T10:20:29.194139",
      "2022-08-31T10:20:42.651182",
      "2022-08-31T10:20:55.789278"
    ],
    "values": [
      54.607168977559056,
      35.57556867010795,
      35.508055716447025,
      35.472061124856516,
      35.46594414558932,
      35.375227948370615,
      35.37707277387444,
      35.41917297382901,
      35.37813161216718,
      35.3694157742318,
      35.35934344246824,
      35.35019989169748,
      35.35097848929785,
      35.398680118130486,
      35.32376832449858,
      35.348742223159995,
      35.34127608546783,
      35.326526816091594,
      35.297946121066694,
      35.30978998608829,
      35.33554324171493,
      35.32567369165786,
      35.31478500866337,
      35.31916783959241,
      35.29707918553501,
      35.32299021467171,
      35.31698583472682,
      35.30672244529934,
      35.30743443274677,
      35.3212487253296,
      35.29491758731112,
      35.33334237796335,
      35.29909149387872,
      35.31058397581805,
      35.29845760195125,
      35.33988673819228,
      35.28264205038799,
      35.2800023545704,
      35.27335268988475,
      35.28954881229949,
      35.29647967156896,
      35.277382901455255,
      35.31067556155015,
      35.26992130220464,
      35.27322148202225,
      35.33299604538476,
      35.30680743792463,
      35.271139146882184,
      35.31316357853374,
      35.27802053861843,
      35.266600672666215,
      35.32509532377066,
      35.284318146780606,
      35.27588308071538,
      35.26250877923416,
      35.2602771353184,
      35.28698923469136,
      35.27095762408825,
      35.28488099057345,
      35.28182826942993,
      35.25430985677163,
      35.25361526832908,
      35.27933371086564,
      35.25862273376303,
      35.24105160245962,
      35.26605615489611,
      35.25278510604012,
      35.27845828794756,
      35.27500122094493,
      35.257619990263706,
      35.253823901037336,
      35.249736348101266,
      35.261284719429824,
      35.23145675989803,
      35.23555195098319,
      35.24181592904136,
      35.257033042377635,
      35.226482122021395,
      35.274670029819376,
      35.22994044464772,
      35.26841191305322,
      35.26008831355128,
      35.249138795343185,
      35.22353535421897,
      35.226255359985885,
      35.25271121712369,
      35.20802555047373,
      35.21980054447781,
      35.26448422825332,
      35.21545806066082,
      35.22457238894558,
      35.235045074524024,
      35.217780600983346,
      35.23444352330109,
      35.23094562488948,
      35.23951779433504,
      35.22358259027957,
      35.212988829705274,
      35.245630649628,
      35.22768746362359,
      35.22658766137018,
      35.2058844024994,
      35.21950083377306,
      35.231234978940414,
      35.234982767592456,
      35.237133236973285,
      35.22985892273952,
      35.20028091009587,
      35.23964962365426,
      35.206207402119304,
      35.199080853039014,
      35.19518542124195,
      35.23555449955028,
      35.22120854545885,
      35.21162732635367,
      35.20112480424578,
      35.227830155566146,
      35.19858164901361,
      35.20617383324989,
      35.21276478224762,
      35.21441846005211,
      35.20995072504534,
      35.201466863886154,
      35.23154327166195,
      35.23582076930473,
      35.194436972633454,
      35.19439490969692,
      35.19455863948605,
      35.21220026567742,
      35.19100157337542,
      35.207527208731356,
      35.199751166442766,
      35.188595983964284,
      35.21396145327299,
      35.191491336371094,
      35.19719948790511,
      35.1904148473769,
      35.21561141630244,
      35.201680635463475,
      35.18304680189857,
      35.19873254212391,
      35.197753149860745,
      35.19064118484028,
      35.202335075192046,
      35.20114067811712,
      35.1893726960946,
      35.18545742278888,
      35.20198664668019,
      35.19166279183133,
      35.20994762278866,
      35.18010975405527,
      35.1960032702482,
      35.180710291911716,
      35.204257285473176,
      35.17860822180088,
      35.187182491843444,
      35.18654570642038,
      35.184907008206984,
      35.16622507168156,
      35.211505009213305,
      35.190462514890775,
      35.205969838613086,
      35.16910739070461,
      35.18696026617638,
      35.17709304579474,
      35.17893122296578,
      35.18205744315639,
      35.19119676171716,
      35.209563312926086,
      35.19550856490714,
      35.19823946446423,
      35.165165892999454,
      35.18282813482057,
      35.199762828148394,
      35.20987333270165,
      35.16272017818471,
      35.17676871288194,
      35.179511752177184,
      35.170596140773426,
      35.18574675821992,
      35.05542257084969,
      35.04096489756022,
      35.03560937581644,
      35.03743355447004,
      35.03840503662172,
      35.03394773671836,
      35.04020712802884,
      35.03566104302481,
      35.044041324596925,
      35.03551357516707,
      35.03700923835656,
      35.03844459060018,
      35.03838161890437,
      35.03824497677092,
      35.032748817123846,
      35.034907807042835,
      35.03954064431272,
      35.038168756752945,
      35.03722255058557,
      35.033641640416086,
      35.03546683243468,
      35.03868983458469,
      35.03885238064722,
      35.04024638795043,
      35.02853128783577,
      35.02316608834142,
      35.02331778196278,
      35.02323916970007,
      35.022442087675685,
      35.020319504925666,
      35.02123904208673,
      35.02298336257731,
      35.02097359093557,
      35.01970121839552,
      35.02063715356763,
      35.02063524863447,
      35.021152189549746,
      35.02004524571436,
      35.01962324417161,
      35.022074140499754,
      35.02066266870147,
      35.019950931285436,
      35.02054928111239,
      35.02078105339982,
      35.02077366642867,
      35.020264891123475,
      35.02291019118425,
      35.0212530519568,
      35.02093926336048,
      35.02042147573752,
      35.02170453654057,
      35.020447744438094,
      35.02164065440676,
      35.01990428593244,
      35.01992145690467,
      35.020331967389225,
      35.02077117544948,
      35.02114466305775,
      35.021359917141524,
      35.01994941447006,
      35.02018680389653,
      35.020382629302084,
      35.01892091228531,
      35.01886204209675,
      35.019082485504825,
      35.019646890390874,
      35.01850033663716,
      35.017614660932715,
      35.01904059856662,
      35.01858347878982,
      35.01799856668944,
      35.018283776405426,
      35.019983813125194,
      35.01851558704225,
      35.01758891708302,
      35.019353070089295,
      35.01939225435281,
      35.01814755819403,
      35.01780464793907,
      35.01921815011122,
      35.01833280465034,
      35.017434843109946,
      35.01866508340533,
      35.01753792121249,
      35.018811449240424,
      35.01764783849116,
      35.01934345032616,
      35.01936849626332,
      35.01874650874636,
      35.01843273288774,
      35.01785041082525,
      35.01821992085074,
      35.01898765043577,
      35.018257787764476,
      35.01799653459991,
      35.018416794115225,
      35.01817313304221,
      35.017929006567826,
      35.01825053153882,
      35.019103467012265,
      35.01812475338321,
      35.01773174444579,
      35.01825991842605,
      35.019311225758535,
      35.01858629608078,
      35.01760738932367,
      35.018918843993305,
      35.018557517207796,
      35.01853923709959,
      35.018324314107396,
      35.01905887613185,
      35.017868421638354,
      35.01852970918353,
      35.01862975906242,
      35.01747457635064,
      35.01810737798286,
      35.01932762036334,
      35.019015674957295,
      35.01793303754802,
      35.01692665378712
    ]
  },
  "val": {
    "steps": [
      0,
      1,
      2,
      3,
      4,
      5,
      6,
      7,
      8,
      9,
      10,
      11,
      12,
      13,
      14,
      15,
      16,
      17,
      18,
      19,
      20,
      21,
      22,
      23,
      24,
      25,
      26,
      27,
      28,
      29,
      30,
      31,
      32,
      33,
      34,
      35,
      36,
      37,
      38,
      39,
      40,
      41,
      42,
      43,
      44,
      45,
      46,
      47,
      48,
      49,
      50,
      51,
      52,
      53,
      54,
      55,
      56,
      57,
      58,
      59,
      60,
      61,
      62,
      63,
      64,
      65,
      66,
      67,
      68,
      69,
      70,
      71,
      72,
      73,
      74,
      75,
      76,
      77,
      78,
      79,
      80,
      81,
      82,
      83,
      84,
      85,
      86,
      87,
      88,
      89,
      90,
      91,
      92,
      93,
      94,
      95,
      96,
      97,
      98,
      99,
      100,
      101,
      102,
      103,
      104,
      105,
      106,
      107,
      108,
      109,
      110,
      111,
      112,
      113,
      114,
      115,
      116,
      117,
      118,
      119,
      120,
      121,
      122,
      123,
      124,
      125,
      126,
      127,
      128,
      129,
      130,
      131,
      132,
      133,
      134,
      135,
      136,
      137,
      138,
      139,
      140,
      141,
      142,
      143,
      144,
      145,
      146,
      147,
      148,
      149,
      150,
      151,
      152,
      153,
      154,
      155,
      156,
      157,
      158,
      159,
      160,
      161,
      162,
      163,
      164,
      165,
      166,
      167,
      168,
      169,
      170,
      171,
      172,
      173,
      174,
      175,
      176,
      177,
      178,
      179,
      180,
      181,
      182,
      183,
      184,
      185,
      186,
      187,
      188,
      189,
      190,
      191,
      192,
      193,
      194,
      195,
      196,
      197,
      198,
      199,
      0,
      1,
      2,
      3,
      4,
      5,
      6,
      7,
      8,
      9,
      10,
      11,
      12,
      13,
      14,
      15,
      16,
      17,
      18,
      19,
      20,
      21,
      22,
      23,
      24,
      25,
      26,
      27,
      28,
      29,
      30,
      31,
      32,
      33,
      34,
      35,
      36,
      37,
      38,
      39,
      40,
      41,
      42,
      43,
      44,
      45,
      46,
      47,
      48,
      49,
      50,
      51,
      52,
      53,
      54,
      55,
      56,
      57,
      58,
      59,
      60,
      61,
      62,
      63,
      64,
      65,
      66,
      67,
      68,
      69,
      70,
      71,
      72,
      73,
      74,
      75,
      76,
      77,
      78,
      79,
      80,
      81,
      82,
      83,
      84,
      85,
      86,
      87,
      88,
      89,
      90,
      91,
      92,
      93,
      94,
      95,
      96,
      97,
      98,
      99
    ],
    "timestamps": [
      "2022-08-20T13:05:13.517752",
      "2022-08-20T13:05:25.117056",
      "2022-08-20T13:05:36.624808",
      "2022-08-20T13:05:47.998616",
      "2022-08-20T13:05:59.454500",
      "2022-08-20T13:06:11.032495",
      "2022-08-20T13:06:22.796531",
      "2022-08-20T13:06:34.875403",
      "2022-08-20T13:06:46.834152",
      "2022-08-20T13:06:58.873955",
      "2022-08-20T13:07:11.244437",
      "2022-08-20T13:07:23.302993",
      "2022-08-20T13:07:35.527059",
      "2022-08-20T13:07:47.613122",
      "2022-08-20T13:07:59.723392",
      "2022-08-20T13:08:11.767460",
      "2022-08-20T13:08:23.883090",
      "2022-08-20T13:08:36.160996",
      "2022-08-20T13:08:48.293266",
      "2022-08-20T13:09:00.428254",
      "2022-08-20T13:09:12.549353",
      "2022-08-20T13:09:24.541636",
      "2022-08-20T13:09:36.485414",
      "2022-08-20T13:09:48.387610",
      "2022-08-20T13:10:00.273916",
      "2022-08-20T13:10:12.194847",
      "2022-08-20T13:10:24.261876",
      "2022-08-20T13:10:36.249116",
      "2022-08-20T13:10:48.181290",
      "2022-08-20T13:11:00.115484",
      "2022-08-20T13:11:12.268415",
      "2022-08-20T13:11:24.236394",
      "2022-08-20T13:11:36.300315",
      "2022-08-20T13:11:48.354025",
      "2022-08-20T13:12:00.662836",
      "2022-08-20T13:12:12.925784",
      "2022-08-20T13:12:25.124155",
      "2022-08-20T13:12:37.126928",
      "2022-08-20T13:12:49.151156",
      "2022-08-20T13:13:01.234014",
      "2022-08-20T13:13:13.499109",
      "2022-08-20T13:13:25.739334",
      "2022-08-20T13:13:37.929181",
      "2022-08-20T13:13:50.601922",
      "2022-08-20T13:14:02.975889",
      "2022-08-20T13:14:15.377671",
      "2022-08-20T13:14:27.676173",
      "2022-08-20T13:14:40.003100",
      "2022-08-20T13:14:52.409822",
      "2022-08-20T13:15:04.923692",
      "2022-08-20T13:15:17.517027",
      "2022-08-20T13:15:29.858401",
      "2022-08-20T13:15:42.125226",
      "2022-08-20T13:15:54.413445",
      "2022-08-20T13:16:06.752130",
      "2022-08-20T13:16:19.043454",
      "2022-08-20T13:16:31.406699",
      "2022-08-20T13:16:43.702820",
      "2022-08-20T13:16:56.084366",
      "2022-08-20T13:17:08.367621",
      "2022-08-20T13:17:20.814723",
      "2022-08-20T13:17:33.124642",
      "2022-08-20T13:17:45.618714",
      "2022-08-20T13:17:58.030455",
      "2022-08-20T13:18:10.531723",
      "2022-08-20T13:18:23.047907",
      "2022-08-20T13:18:35.726129",
      "2022-08-20T13:18:48.335986",
      "2022-08-20T13:19:00.970411",
      "2022-08-20T13:19:13.635992",
      "2022-08-20T13:19:26.472774",
      "2022-08-20T13:19:39.109478",
      "2022-08-20T13:19:51.767099",
      "2022-08-20T13:20:04.318874",
      "2022-08-20T13:20:16.794411",
      "2022-08-20T13:20:29.161727",
      "2022-08-20T13:20:41.515925",
      "2022-08-20T13:20:53.925897",
      "2022-08-20T13:21:06.538160",
      "2022-08-20T13:21:19.172544",
      "2022-08-20T13:21:31.870981",
      "2022-08-20T13:21:44.438034",
      "2022-08-20T13:21:56.819113",
      "2022-08-20T13:22:09.204576",
      "2022-08-20T13:22:21.601244",
      "2022-08-20T13:22:33.969771",
      "2022-08-20T13:22:46.592309",
      "2022-08-20T13:22:58.994218",
      "2022-08-20T13:23:11.368620",
      "2022-08-20T13:23:23.822814",
      "2022-08-20T13:23:36.559250",
      "2022-08-20T13:23:49.134873",
      "2022-08-20T13:24:01.674862",
      "2022-08-20T13:24:14.209236",
      "2022-08-20T13:24:26.858838",
      "2022-08-20T13:24:39.352555",
      "2022-08-20T13:24:51.913499",
      "2022-08-20T13:25:04.672379",
      "2022-08-20T13:25:17.381562",
      "2022-08-20T13:25:30.034350",
      "2022-08-20T13:25:42.673350",
      "2022-08-20T13:25:55.267245",
      "2022-08-20T13:26:07.744395",
      "2022-08-20T13:26:20.220226",
      "2022-08-20T13:26:32.742654",
      "2022-08-20T13:26:45.331963",
      "2022-08-20T13:26:57.766820",
      "2022-08-20T13:27:10.286572",
      "2022-08-20T13:27:22.877355",
      "2022-08-20T13:27:35.679040",
      "2022-08-20T13:27:48.427384",
      "2022-08-20T13:28:01.053604",
      "2022-08-20T13:28:13.491641",
      "2022-08-20T13:28:26.160074",
      "2022-08-20T13:28:38.654036",
      "2022-08-20T13:28:51.366092",
      "2022-08-20T13:29:04.053943",
      "2022-08-20T13:29:16.897561",
      "2022-08-20T13:29:29.609025",
      "2022-08-20T13:29:42.291662",
      "2022-08-20T13:29:55.124501",
      "2022-08-20T13:30:07.756919",
      "2022-08-20T13:30:20.295442",
      "2022-08-20T13:30:32.851647",
      "2022-08-20T13:30:45.563931",
      "2022-08-20T13:30:58.080443",
      "2022-08-20T13:31:10.702155",
      "2022-08-20T13:31:23.361822",
      "2022-08-20T13:31:36.148120",
      "2022-08-20T13:31:48.634520",
      "2022-08-20T13:32:01.284158",
      "2022-08-20T13:32:13.973326",
      "2022-08-20T13:32:26.691971",
      "2022-08-20T13:32:39.273911",
      "2022-08-20T13:32:51.841889",
      "2022-08-20T13:33:04.476950",
      "2022-08-20T13:33:17.148369",
      "2022-08-20T13:33:29.655963",
      "2022-08-20T13:33:42.181444",
      "2022-08-20T13:33:54.779754",
      "2022-08-20T13:34:07.593448",
      "2022-08-20T13:34:20.116344",
      "2022-08-20T13:34:32.578070",
      "2022-08-20T13:34:45.312970",
      "2022-08-20T13:34:57.926497",
      "2022-08-20T13:35:10.569107",
      "2022-08-20T13:35:23.340348",
      "2022-08-20T13:35:36.220039",
      "2022-08-20T13:35:48.967995",
      "2022-08-20T13:36:01.762459",
      "2022-08-20T13:36:14.756621",
      "2022-08-20T13:36:27.607696",
      "2022-08-20T13:36:40.347680",
      "2022-08-20T13:36:52.990967",
      "2022-08-20T13:37:05.747077",
      "2022-08-20T13:37:18.360855",
      "2022-08-20T13:37:30.980046",
      "2022-08-20T13:37:43.754476",
      "2022-08-20T13:37:56.478721",
      "2022-08-20T13:38:09.094896",
      "2022-08-20T13:38:21.831229",
      "2022-08-20T13:38:34.402972",
      "2022-08-20T13:38:47.099234",
      "2022-08-20T13:38:59.744992",
      "2022-08-20T13:39:12.306723",
      "2022-08-20T13:39:25.008606",
      "2022-08-20T13:39:37.789276",
      "2022-08-20T13:39:50.427442",
      "2022-08-20T13:40:03.001328",
      "2022-08-20T13:40:15.839118",
      "2022-08-20T13:40:28.595493",
      "2022-08-20T13:40:41.227104",
      "2022-08-20T13:40:53.997691",
      "2022-08-20T13:41:06.935387",
      "2022-08-20T13:41:19.659444",
      "2022-08-20T13:41:32.304152",
      "2022-08-20T13:41:45.056884",
      "2022-08-20T13:41:57.782293",
      "2022-08-20T13:42:10.382076",
      "2022-08-20T13:42:23.143803",
      "2022-08-20T13:42:36.012129",
      "2022-08-20T13:42:48.733131",
      "2022-08-20T13:43:01.401699",
      "2022-08-20T13:43:14.078630",
      "2022-08-20T13:43:27.058343",
      "2022-08-20T13:43:39.742573",
      "2022-08-20T13:43:52.362559",
      "2022-08-20T13:44:05.224958",
      "2022-08-20T13:44:18.086057",
      "2022-08-20T13:44:30.819370",
      "2022-08-20T13:44:43.680990",
      "2022-08-20T13:44:56.527225",
      "2022-08-20T13:45:09.362568",
      "2022-08-20T13:45:22.140212",
      "2022-08-20T13:45:35.239120",
      "2022-08-20T13:45:48.111886",
      "2022-08-20T13:46:00.847788",
      "2022-08-20T13:46:13.472077",
      "2022-08-20T13:46:26.217896",
      "2022-08-20T13:46:38.875880",
      "2022-08-31T09:59:52.637242",
      "2022-08-31T10:00:04.776276",
      "2022-08-31T10:00:16.594366",
      "2022-08-31T10:00:28.870965",
      "2022-08-31T10:00:41.330906",
      "2022-08-31T10:00:53.580181",
      "2022-08-31T10:01:05.620137",
      "2022-08-31T10:01:17.582409",
      "2022-08-31T10:01:30.193465",
      "2022-08-31T10:01:42.239215",
      "2022-08-31T10:01:54.804716",
      "2022-08-31T10:02:07.133006",
      "2022-08-31T10:02:19.816937",
      "2022-08-31T10:02:32.629958",
      "2022-08-31T10:02:45.061626",
      "2022-08-31T10:02:57.632630",
      "2022-08-31T10:03:10.476711",
      "2022-08-31T10:03:22.973491",
      "2022-08-31T10:03:35.332746",
      "2022-08-31T10:03:47.825595",
      "2022-08-31T10:04:00.724434",
      "2022-08-31T10:04:13.049460",
      "2022-08-31T10:04:25.333598",
      "2022-08-31T10:04:37.700277",
      "2022-08-31T10:04:50.448061",
      "2022-08-31T10:05:02.828593",
      "2022-08-31T10:05:15.357878",
      "2022-08-31T10:05:27.770762",
      "2022-08-31T10:05:40.621685",
      "2022-08-31T10:05:53.042371",
      "2022-08-31T10:06:05.742126",
      "2022-08-31T10:06:18.149267",
      "2022-08-31T10:06:30.905535",
      "2022-08-31T10:06:43.548314",
      "2022-08-31T10:06:56.192416",
      "2022-08-31T10:07:08.669820",
      "2022-08-31T10:07:21.415587",
      "2022-08-31T10:07:33.896987",
      "2022-08-31T10:07:46.408906",
      "2022-08-31T10:07:58.926823",
      "2022-08-31T10:08:11.875542",
      "2022-08-31T10:08:24.442504",
      "2022-08-31T10:08:36.910593",
      "2022-08-31T10:08:49.765728",
      "2022-08-31T10:09:02.544729",
      "2022-08-31T10:09:15.172426",
      "2022-08-31T10:09:27.731904",
      "2022-08-31T10:09:40.724382",
      "2022-08-31T10:09:53.361451",
      "2022-08-31T10:10:06.014039",
      "2022-08-31T10:10:18.974207",
      "2022-08-31T10:10:31.966487",
      "2022-08-31T10:10:44.869697",
      "2022-08-31T10:10:57.694616",
      "2022-08-31T10:11:10.998633",
      "2022-08-31T10:11:24.066214",
      "2022-08-31T10:11:36.947482",
      "2022-08-31T10:11:49.980979",
      "2022-08-31T10:12:03.033826",
      "2022-08-31T10:12:15.998392",
      "2022-08-31T10:12:29.398093",
      "2022-08-31T10:12:42.492216",
      "2022-08-31T10:12:55.407380",
      "2022-08-31T10:13:08.304443",
      "2022-08-31T10:13:21.490904",
      "2022-08-31T10:13:34.371908",
      "2022-08-31T10:13:47.332304",
      "2022-08-31T10:14:00.545699",
      "2022-08-31T10:14:13.290648",
      "2022-08-31T10:14:25.993278",
      "2022-08-31T10:14:39.187618",
      "2022-08-31T10:14:52.248733",
      "2022-08-31T10:15:05.141501",
      "2022-08-31T10:15:18.101068",
      "2022-08-31T10:15:31.206749",
      "2022-08-31T10:15:44.035180",
      "2022-08-31T10:15:56.911589",
      "2022-08-31T10:16:10.001710",
      "2022-08-31T10:16:23.180176",
      "2022-08-31T10:16:36.100076",
      "2022-08-31T10:16:49.448130",
      "2022-08-31T10:17:02.604983",
      "2022-08-31T10:17:15.508608",
      "2022-08-31T10:17:28.315481",
      "2022-08-31T10:17:41.406664",
      "2022-08-31T10:17:54.339451",
      "2022-08-31T10:18:07.223969",
      "2022-08-31T10:18:20.361123",
      "2022-08-31T10:18:33.359253",
      "2022-08-31T10:18:46.125819",
      "2022-08-31T10:18:59.381695",
      "2022-08-31T10:19:12.510558",
      "2022-08-31T10:19:25.716289",
      "2022-08-31T10:19:38.850164",
      "2022-08-31T10:19:52.261610",
      "2022-08-31T10:20:05.138109",
      "2022-08-31T10:20:18.046792",
      "2022-08-31T10:20:31.200294",
      "2022-08-31T10:20:44.360999",
      "2022-08-31T10:20:57.487113"
    ],
    "values": [
      35.67699475946068,
      35.61876992972224,
      35.43702506212637,
      35.399867658332504,
      35.36185695882486,
      35.28933109768612,
      35.4561210494302,
      35.40924823555668,
      35.54949432882579,
      35.430653681389,
      35.36908854867261,
      35.42346783102158,
      35.36089550531102,
      35.411020819370435,
      35.34223238557425,
      35.27095333810555,
      35.381719333242025,
      35.28044101505857,
      35.40990311809149,
      35.404488639129866,
      35.39608491358106,
      35.28375945137347,
      35.29521789450645,
      35.18665024827902,
      35.22278983355402,
      35.4332575636511,
      35.25170523859946,
      35.312737175055155,
      35.274814416242535,
      35.25640484879428,
      35.33695307607864,
      35.25267380492163,
      35.20912539285568,
      35.23951553237538,
      35.33087608410964,
      35.39528873218562,
      35.385888627456296,
      35.27131240401694,
      35.20617871050323,
      35.245398083904554,
      35.19726442790568,
      35.250092747886114,
      35.30529231228471,
      35.30590241155748,
      35.13065710983486,
      35.215310059808566,
      35.22922130204839,
      35.39247988859541,
      35.22846834910523,
      35.25393961543942,
      35.17177512012384,
      35.362111947518066,
      35.29873384188094,
      35.22749380428727,
      35.30604653967857,
      35.19176041413653,
      35.23068785911556,
      35.31737008838468,
      35.163211852621636,
      35.291665109448026,
      35.182077027303826,
      35.225983886126194,
      35.32546878682685,
      35.24062605694252,
      35.24928750604185,
      35.195607404405614,
      35.21190714025856,
      35.28844076436289,
      35.233437912108975,
      35.22711363331149,
      35.26317264290319,
      35.2682391666709,
      35.220736589920385,
      35.214305306617604,
      35.30424818029505,
      35.16431741683733,
      35.221789671867015,
      35.16181564116968,
      35.15845006796218,
      35.21943806270869,
      35.411021418885454,
      35.29725515566654,
      35.16975587028051,
      35.23954120669069,
      35.270825312017166,
      35.17836894153345,
      35.168677372492944,
      35.20092906071524,
      35.15253597149843,
      35.204261975654056,
      35.226484598485825,
      35.24237292956773,
      35.212368394546516,
      35.188716810984715,
      35.247823949114085,
      35.17468458021135,
      35.168476615698836,
      35.23461672398455,
      35.2014320102726,
      35.343787949512986,
      35.18570796626652,
      35.16967249492892,
      35.18230051084599,
      35.16372360581593,
      35.269379974627206,
      35.235150452372565,
      35.156894140695414,
      35.15219206974058,
      35.26257556684376,
      35.16739261454236,
      35.2428418867045,
      35.107730682592816,
      35.20052863326508,
      35.20801146766795,
      35.29719636270573,
      35.13011555777818,
      35.19493910583745,
      35.18489659445021,
      35.14634886179625,
      35.158963705961895,
      35.20767200336072,
      35.125455335137666,
      35.28302952326046,
      35.14176408477389,
      35.28725548353626,
      35.21246252697018,
      35.20674956286984,
      35.25612850376082,
      35.23518048465146,
      35.1966739910007,
      35.14421156218006,
      35.14553557247829,
      35.25015456628598,
      35.22982533512145,
      35.11139896979389,
      35.246564617943356,
      35.14541123441625,
      35.197491895501024,
      35.11686380969973,
      35.21653428439272,
      35.148141453651,
      35.16815418346587,
      35.153773537479566,
      35.170324309893324,
      35.13861154358837,
      35.14478816025381,
      35.113089586889885,
      35.17984783352445,
      35.167345394108544,
      35.167800461960454,
      35.12888138026762,
      35.090352800274566,
      35.2060420780561,
      35.12326853751015,
      35.14129321246863,
      35.247608446999465,
      35.13703064000151,
      35.23686554877583,
      35.16035096063424,
      35.182108242223215,
      35.18651461326947,
      35.16061307972711,
      35.13585772776525,
      35.16581713231901,
      35.185733604784254,
      35.16724264240489,
      35.20947278913251,
      35.128277840301145,
      35.14375645004349,
      35.17609292164436,
      35.17682538005029,
      35.24479674555928,
      35.15918958123344,
      35.13772322561243,
      35.1501993890916,
      35.18152136681539,
      35.16337441990799,
      35.172614109884755,
      35.13953225910613,
      35.16407921250798,
      35.03297782517548,
      35.02133145589809,
      35.02361114982417,
      35.021366792540725,
      35.021151184678025,
      35.03938205908396,
      35.0217392128861,
      35.029825304228616,
      35.02018443689477,
      35.02012246346534,
      35.02162275241948,
      35.03566096483331,
      35.02507112288387,
      35.03122805786426,
      35.02814577151059,
      35.025083657032795,
      35.02666763521648,
      35.035286804972046,
      35.0241150503698,
      35.02180931443751,
      35.029726303760874,
      35.02503577382051,
      35.03119026304515,
      35.021844791075125,
      35.01157671097104,
      35.01029131928198,
      35.0095365387182,
      35.009122664251294,
      35.00729866933025,
      35.01044116232356,
      35.01082085559106,
      35.00920498358495,
      35.009525954988035,
      35.00899713714082,
      35.009581828945905,
      35.00893614618976,
      35.00872319269017,
      35.0096505051387,
      35.00919182556461,
      35.008263150314974,
      35.00921149798471,
      35.010586698042076,
      35.00828478329005,
      35.00763963866003,
      35.00808881464078,
      35.00984738184456,
      35.01081950441975,
      35.008199782806734,
      35.00672786760947,
      35.00914594284808,
      35.00777692439806,
      35.00964611029971,
      35.00890228263135,
      35.01020756429693,
      35.00825319277816,
      35.01071515967301,
      35.00836698165372,
      35.00851527590039,
      35.008798663087795,
      35.01015677704453,
      35.00726978776305,
      35.00803354394647,
      35.00678672368469,
      35.00663911246298,
      35.0090073397984,
      35.00751350015329,
      35.00696140085952,
      35.006428722961694,
      35.007233132760646,
      35.00738550115792,
      35.00652350675951,
      35.00773489029607,
      35.008018881326855,
      35.00728878635354,
      35.0076964302007,
      35.00823732288379,
      35.00794936597365,
      35.00662778123266,
      35.008734743058,
      35.00821680212944,
      35.00704833400806,
      35.007141584369464,
      35.00828126498062,
      35.00643485021509,
      35.007689710726005,
      35.008405824527856,
      35.006351357377184,
      35.00825709549771,
      35.00692208887134,
      35.00684446669297,
      35.005366540130105,
      35.00712597728829,
      35.00509595439032,
      35.00709808281451,
      35.00672175439428,
      35.00832496645573,
      35.00808321753488,
      35.00642795589903,
      35.00677794825764,
      35.006186091420744,
      35.00572259693906,
      35.00588458370167,
      35.00589330011156,
      35.00568311048742,
      35.007897521467896,
      35.00685958752638,
      35.007001750356565,
      35.00641434791249,
      35.00666369220532,
      35.007648426470105,
      35.00773563732783,
      35.006788290220626,
      35.00746322366314,
      35.00774703481882,
      35.007451705976074,
      35.0061392054933,
      35.0065589644637,
      35.00866063783278,
      35.00692079426444,
      35.00743439739768
    ]
  }
}