INFO - siren_vae - Running command 'run'
INFO - siren_vae - Started run with ID "4"
[ENCODED STRUCTURE] Using faithful BN structure.
[WARM-UP] Applied to ['z0', 'z1', 'z2', 'z3', 'z4', 'z5', 'z6', 'z7', 'z8', 'z9', 'z10', 'z11', 'z12', 'z13', 'z14']
  0%|          | 0/400 [00:00<?, ?it/s]Train -ELBO: 64.71210, Val -ELBO: 68.70712:   0%|          | 1/400 [00:05<38:28,  5.78s/it]Train -ELBO: 43.59110, Val -ELBO: 47.51775:   0%|          | 2/400 [00:11<37:13,  5.61s/it]Train -ELBO: 33.55584, Val -ELBO: 44.09155:   1%|          | 3/400 [00:16<36:32,  5.52s/it]Train -ELBO: 27.78900, Val -ELBO: 45.03230:   1%|          | 4/400 [00:22<36:18,  5.50s/it]Train -ELBO: 23.82190, Val -ELBO: 46.47835:   1%|▏         | 5/400 [00:27<35:58,  5.46s/it]Train -ELBO: 20.95113, Val -ELBO: 46.66882:   2%|▏         | 6/400 [00:33<35:51,  5.46s/it]Train -ELBO: 19.40902, Val -ELBO: 47.65593:   2%|▏         | 7/400 [00:38<35:38,  5.44s/it]Train -ELBO: 18.03190, Val -ELBO: 47.43147:   2%|▏         | 8/400 [00:43<35:35,  5.45s/it]Train -ELBO: 17.22574, Val -ELBO: 48.99945:   2%|▏         | 9/400 [00:49<35:27,  5.44s/it]Train -ELBO: 17.09757, Val -ELBO: 47.88165:   2%|▎         | 10/400 [00:54<35:36,  5.48s/it]Train -ELBO: 16.23375, Val -ELBO: 46.32929:   3%|▎         | 11/400 [01:00<35:31,  5.48s/it]Train -ELBO: 15.35424, Val -ELBO: 45.10469:   3%|▎         | 12/400 [01:05<35:23,  5.47s/it]Train -ELBO: 15.27526, Val -ELBO: 45.24354:   3%|▎         | 13/400 [01:11<35:19,  5.48s/it]Train -ELBO: 15.47375, Val -ELBO: 45.59293:   4%|▎         | 14/400 [01:16<35:08,  5.46s/it]Train -ELBO: 14.70493, Val -ELBO: 44.63618:   4%|▍         | 15/400 [01:22<35:05,  5.47s/it]Train -ELBO: 14.17181, Val -ELBO: 44.59430:   4%|▍         | 16/400 [01:27<34:52,  5.45s/it]Train -ELBO: 14.17913, Val -ELBO: 44.62943:   4%|▍         | 17/400 [01:33<34:50,  5.46s/it]Train -ELBO: 14.04278, Val -ELBO: 43.74685:   4%|▍         | 18/400 [01:38<34:39,  5.44s/it]Train -ELBO: 13.71676, Val -ELBO: 44.07646:   5%|▍         | 19/400 [01:43<34:37,  5.45s/it]Train -ELBO: 13.78290, Val -ELBO: 43.70105:   5%|▌         | 20/400 [01:49<34:31,  5.45s/it]Train -ELBO: 13.34390, Val -ELBO: 43.25142:   5%|▌         | 21/400 [01:54<34:26,  5.45s/it]Train -ELBO: 13.50938, Val -ELBO: 43.11515:   6%|▌         | 22/400 [02:00<34:20,  5.45s/it]Train -ELBO: 13.62412, Val -ELBO: 43.55941:   6%|▌         | 23/400 [02:05<34:13,  5.45s/it]Train -ELBO: 13.46862, Val -ELBO: 42.62245:   6%|▌         | 24/400 [02:11<34:11,  5.46s/it]Train -ELBO: 13.40186, Val -ELBO: 42.14972:   6%|▋         | 25/400 [02:16<34:02,  5.45s/it]Train -ELBO: 13.56880, Val -ELBO: 42.35088:   6%|▋         | 26/400 [02:22<34:02,  5.46s/it]Train -ELBO: 13.33284, Val -ELBO: 41.96541:   7%|▋         | 27/400 [02:27<33:51,  5.45s/it]Train -ELBO: 13.48791, Val -ELBO: 42.48645:   7%|▋         | 28/400 [02:33<33:49,  5.45s/it]Train -ELBO: 13.34927, Val -ELBO: 41.37032:   7%|▋         | 29/400 [02:38<33:41,  5.45s/it]Train -ELBO: 13.65432, Val -ELBO: 41.65617:   8%|▊         | 30/400 [02:43<33:39,  5.46s/it]Train -ELBO: 13.61787, Val -ELBO: 41.69270:   8%|▊         | 31/400 [02:49<33:38,  5.47s/it]Train -ELBO: 13.94683, Val -ELBO: 41.64515:   8%|▊         | 32/400 [02:54<33:35,  5.48s/it]Train -ELBO: 13.92104, Val -ELBO: 41.32767:   8%|▊         | 33/400 [03:00<33:27,  5.47s/it]Train -ELBO: 13.91425, Val -ELBO: 41.36480:   8%|▊         | 34/400 [03:05<33:16,  5.46s/it]Train -ELBO: 14.20551, Val -ELBO: 41.67599:   9%|▉         | 35/400 [03:11<33:12,  5.46s/it]Train -ELBO: 14.30532, Val -ELBO: 40.93641:   9%|▉         | 36/400 [03:16<33:01,  5.44s/it]Train -ELBO: 14.58486, Val -ELBO: 41.17290:   9%|▉         | 37/400 [03:22<32:59,  5.45s/it]Train -ELBO: 14.63133, Val -ELBO: 40.95789:  10%|▉         | 38/400 [03:27<32:49,  5.44s/it]Train -ELBO: 15.09887, Val -ELBO: 40.29211:  10%|▉         | 39/400 [03:33<32:47,  5.45s/it]Train -ELBO: 15.04879, Val -ELBO: 40.21662:  10%|█         | 40/400 [03:38<32:39,  5.44s/it]Train -ELBO: 15.53396, Val -ELBO: 39.95474:  10%|█         | 41/400 [03:43<32:35,  5.45s/it]Train -ELBO: 15.68184, Val -ELBO: 39.83526:  10%|█         | 42/400 [03:49<32:28,  5.44s/it]Train -ELBO: 15.80203, Val -ELBO: 40.07502:  11%|█         | 43/400 [03:54<32:25,  5.45s/it]Train -ELBO: 16.09483, Val -ELBO: 41.95192:  11%|█         | 44/400 [04:00<32:19,  5.45s/it]Train -ELBO: 16.59732, Val -ELBO: 39.40837:  11%|█▏        | 45/400 [04:05<32:10,  5.44s/it]Train -ELBO: 16.54082, Val -ELBO: 39.85852:  12%|█▏        | 46/400 [04:11<32:08,  5.45s/it]Train -ELBO: 16.96642, Val -ELBO: 39.58347:  12%|█▏        | 47/400 [04:16<31:59,  5.44s/it]Train -ELBO: 17.07106, Val -ELBO: 39.36585:  12%|█▏        | 48/400 [04:22<31:59,  5.45s/it]Train -ELBO: 17.50198, Val -ELBO: 39.68223:  12%|█▏        | 49/400 [04:27<31:50,  5.44s/it]Train -ELBO: 17.70260, Val -ELBO: 39.58102:  12%|█▎        | 50/400 [04:32<31:49,  5.46s/it]Train -ELBO: 18.32732, Val -ELBO: 39.95671:  13%|█▎        | 51/400 [04:38<31:46,  5.46s/it]Train -ELBO: 18.55051, Val -ELBO: 39.61448:  13%|█▎        | 52/400 [04:43<31:41,  5.47s/it]Train -ELBO: 18.93075, Val -ELBO: 39.05950:  13%|█▎        | 53/400 [04:49<31:33,  5.46s/it]Train -ELBO: 19.35552, Val -ELBO: 39.44770:  14%|█▎        | 54/400 [04:54<31:29,  5.46s/it]Train -ELBO: 19.57044, Val -ELBO: 39.22347:  14%|█▍        | 55/400 [05:00<31:22,  5.46s/it]Train -ELBO: 20.07184, Val -ELBO: 38.61610:  14%|█▍        | 56/400 [05:05<31:13,  5.45s/it]Train -ELBO: 20.17588, Val -ELBO: 38.36863:  14%|█▍        | 57/400 [05:11<31:13,  5.46s/it]Train -ELBO: 20.65496, Val -ELBO: 38.63479:  14%|█▍        | 58/400 [05:16<31:04,  5.45s/it]Train -ELBO: 21.12643, Val -ELBO: 38.51430:  15%|█▍        | 59/400 [05:22<30:59,  5.45s/it]Train -ELBO: 21.46837, Val -ELBO: 38.64135:  15%|█▌        | 60/400 [05:27<30:53,  5.45s/it]Train -ELBO: 21.89038, Val -ELBO: 38.50069:  15%|█▌        | 61/400 [05:33<30:49,  5.45s/it]Train -ELBO: 22.07682, Val -ELBO: 38.59929:  16%|█▌        | 62/400 [05:38<30:39,  5.44s/it]Train -ELBO: 22.60861, Val -ELBO: 38.23970:  16%|█▌        | 63/400 [05:43<30:37,  5.45s/it]Train -ELBO: 23.08527, Val -ELBO: 38.15262:  16%|█▌        | 64/400 [05:49<30:29,  5.45s/it]Train -ELBO: 23.29359, Val -ELBO: 38.09238:  16%|█▋        | 65/400 [05:54<30:26,  5.45s/it]Train -ELBO: 23.84056, Val -ELBO: 38.08247:  16%|█▋        | 66/400 [06:00<30:19,  5.45s/it]Train -ELBO: 24.13545, Val -ELBO: 38.03756:  17%|█▋        | 67/400 [06:05<30:13,  5.45s/it]Train -ELBO: 24.55633, Val -ELBO: 37.92030:  17%|█▋        | 68/400 [06:11<30:13,  5.46s/it]Train -ELBO: 24.84192, Val -ELBO: 37.61546:  17%|█▋        | 69/400 [06:16<30:03,  5.45s/it]Train -ELBO: 25.19205, Val -ELBO: 37.54160:  18%|█▊        | 70/400 [06:22<30:03,  5.47s/it]Train -ELBO: 25.68273, Val -ELBO: 37.81779:  18%|█▊        | 71/400 [06:27<29:56,  5.46s/it]Train -ELBO: 26.15672, Val -ELBO: 37.71142:  18%|█▊        | 72/400 [06:32<29:50,  5.46s/it]Train -ELBO: 26.28970, Val -ELBO: 37.54504:  18%|█▊        | 73/400 [06:38<29:39,  5.44s/it]Train -ELBO: 26.95839, Val -ELBO: 37.26935:  18%|█▊        | 74/400 [06:43<29:39,  5.46s/it]Train -ELBO: 27.21878, Val -ELBO: 37.39079:  19%|█▉        | 75/400 [06:49<29:31,  5.45s/it]Train -ELBO: 27.63848, Val -ELBO: 37.03827:  19%|█▉        | 76/400 [06:54<29:26,  5.45s/it]Train -ELBO: 27.92664, Val -ELBO: 37.38932:  19%|█▉        | 77/400 [07:00<29:18,  5.44s/it]Train -ELBO: 28.31692, Val -ELBO: 37.13606:  20%|█▉        | 78/400 [07:05<29:12,  5.44s/it]Train -ELBO: 28.74141, Val -ELBO: 36.91887:  20%|█▉        | 79/400 [07:11<29:08,  5.45s/it]Train -ELBO: 29.18459, Val -ELBO: 37.19672:  20%|██        | 80/400 [07:16<29:01,  5.44s/it]Train -ELBO: 29.49241, Val -ELBO: 37.03889:  20%|██        | 81/400 [07:22<28:58,  5.45s/it]Train -ELBO: 29.93806, Val -ELBO: 36.96161:  20%|██        | 82/400 [07:27<28:55,  5.46s/it]Train -ELBO: 30.37965, Val -ELBO: 36.72128:  21%|██        | 83/400 [07:32<28:52,  5.46s/it]Train -ELBO: 30.64410, Val -ELBO: 36.75294:  21%|██        | 84/400 [07:38<28:41,  5.45s/it]Train -ELBO: 31.05905, Val -ELBO: 36.88439:  21%|██▏       | 85/400 [07:43<28:39,  5.46s/it]Train -ELBO: 31.40914, Val -ELBO: 36.45932:  22%|██▏       | 86/400 [07:49<28:29,  5.44s/it]Train -ELBO: 31.84532, Val -ELBO: 36.62984:  22%|██▏       | 87/400 [07:54<28:25,  5.45s/it]Train -ELBO: 32.11350, Val -ELBO: 36.42968:  22%|██▏       | 88/400 [08:00<28:20,  5.45s/it]Train -ELBO: 32.54011, Val -ELBO: 36.33831:  22%|██▏       | 89/400 [08:05<28:12,  5.44s/it]Train -ELBO: 32.82416, Val -ELBO: 36.54297:  22%|██▎       | 90/400 [08:11<28:16,  5.47s/it]Train -ELBO: 33.21638, Val -ELBO: 36.36666:  23%|██▎       | 91/400 [08:16<28:10,  5.47s/it]Train -ELBO: 33.57836, Val -ELBO: 36.20388:  23%|██▎       | 92/400 [08:22<28:04,  5.47s/it]Train -ELBO: 33.88290, Val -ELBO: 36.19138:  23%|██▎       | 93/400 [08:27<27:52,  5.45s/it]Train -ELBO: 34.20183, Val -ELBO: 36.18118:  24%|██▎       | 94/400 [08:32<27:51,  5.46s/it]Train -ELBO: 34.52658, Val -ELBO: 36.22739:  24%|██▍       | 95/400 [08:38<27:41,  5.45s/it]Train -ELBO: 34.80855, Val -ELBO: 36.21003:  24%|██▍       | 96/400 [08:43<27:37,  5.45s/it]Train -ELBO: 35.15178, Val -ELBO: 36.04490:  24%|██▍       | 97/400 [08:49<27:29,  5.44s/it]Train -ELBO: 35.44055, Val -ELBO: 35.96609:  24%|██▍       | 98/400 [08:54<27:25,  5.45s/it]Train -ELBO: 35.72841, Val -ELBO: 35.88659:  25%|██▍       | 99/400 [09:00<27:18,  5.45s/it]Train -ELBO: 35.96999, Val -ELBO: 35.89679:  25%|██▌       | 100/400 [09:05<27:16,  5.45s/it]Train -ELBO: 35.93019, Val -ELBO: 35.86614:  25%|██▌       | 101/400 [09:11<27:13,  5.46s/it]Train -ELBO: 35.88548, Val -ELBO: 35.84115:  26%|██▌       | 102/400 [09:16<27:07,  5.46s/it]Train -ELBO: 35.85731, Val -ELBO: 35.77017:  26%|██▌       | 103/400 [09:22<27:03,  5.47s/it]Train -ELBO: 35.82839, Val -ELBO: 35.83522:  26%|██▌       | 104/400 [09:27<26:53,  5.45s/it]Train -ELBO: 35.82321, Val -ELBO: 35.81135:  26%|██▋       | 105/400 [09:32<26:53,  5.47s/it]Train -ELBO: 35.80455, Val -ELBO: 35.69280:  26%|██▋       | 106/400 [09:38<26:43,  5.45s/it]Train -ELBO: 35.76175, Val -ELBO: 35.73100:  27%|██▋       | 107/400 [09:43<26:38,  5.46s/it]Train -ELBO: 35.77147, Val -ELBO: 35.68206:  27%|██▋       | 108/400 [09:49<26:29,  5.44s/it]Train -ELBO: 35.73151, Val -ELBO: 35.67127:  27%|██▋       | 109/400 [09:54<26:26,  5.45s/it]Train -ELBO: 35.73105, Val -ELBO: 35.67730:  28%|██▊       | 110/400 [10:00<26:21,  5.45s/it]Train -ELBO: 35.69788, Val -ELBO: 35.65262:  28%|██▊       | 111/400 [10:05<26:17,  5.46s/it]Train -ELBO: 35.70850, Val -ELBO: 35.59468:  28%|██▊       | 112/400 [10:11<26:11,  5.46s/it]Train -ELBO: 35.66790, Val -ELBO: 35.66258:  28%|██▊       | 113/400 [10:16<26:02,  5.45s/it]Train -ELBO: 35.65080, Val -ELBO: 35.60475:  28%|██▊       | 114/400 [10:22<25:59,  5.45s/it]Train -ELBO: 35.65344, Val -ELBO: 35.59814:  29%|██▉       | 115/400 [10:27<25:50,  5.44s/it]Train -ELBO: 35.62295, Val -ELBO: 35.55083:  29%|██▉       | 116/400 [10:32<25:47,  5.45s/it]Train -ELBO: 35.63382, Val -ELBO: 35.65274:  29%|██▉       | 117/400 [10:38<25:40,  5.44s/it]Train -ELBO: 35.58893, Val -ELBO: 35.54281:  30%|██▉       | 118/400 [10:43<25:40,  5.46s/it]Train -ELBO: 35.58829, Val -ELBO: 35.50028:  30%|██▉       | 119/400 [10:49<25:31,  5.45s/it]Train -ELBO: 35.57526, Val -ELBO: 35.57271:  30%|███       | 120/400 [10:54<25:30,  5.46s/it]Train -ELBO: 35.56969, Val -ELBO: 35.57087:  30%|███       | 121/400 [11:00<25:24,  5.47s/it]Train -ELBO: 35.54060, Val -ELBO: 35.49363:  30%|███       | 122/400 [11:05<25:18,  5.46s/it]Train -ELBO: 35.54188, Val -ELBO: 35.49409:  31%|███       | 123/400 [11:11<25:12,  5.46s/it]Train -ELBO: 35.54165, Val -ELBO: 35.47732:  31%|███       | 124/400 [11:16<25:03,  5.45s/it]Train -ELBO: 35.53251, Val -ELBO: 35.49720:  31%|███▏      | 125/400 [11:22<25:00,  5.46s/it]Train -ELBO: 35.51508, Val -ELBO: 35.44578:  32%|███▏      | 126/400 [11:27<24:51,  5.44s/it]Train -ELBO: 35.50064, Val -ELBO: 35.46123:  32%|███▏      | 127/400 [11:32<24:49,  5.46s/it]Train -ELBO: 35.47493, Val -ELBO: 35.45345:  32%|███▏      | 128/400 [11:38<24:40,  5.44s/it]Train -ELBO: 35.44915, Val -ELBO: 35.38464:  32%|███▏      | 129/400 [11:43<24:36,  5.45s/it]Train -ELBO: 35.45602, Val -ELBO: 35.37572:  32%|███▎      | 130/400 [11:49<24:29,  5.44s/it]Train -ELBO: 35.44382, Val -ELBO: 35.37079:  33%|███▎      | 131/400 [11:54<24:27,  5.46s/it]Train -ELBO: 35.41527, Val -ELBO: 35.39640:  33%|███▎      | 132/400 [12:00<24:20,  5.45s/it]Train -ELBO: 35.42949, Val -ELBO: 35.41590:  33%|███▎      | 133/400 [12:05<24:13,  5.44s/it]Train -ELBO: 35.41852, Val -ELBO: 35.39062:  34%|███▎      | 134/400 [12:11<24:08,  5.45s/it]Train -ELBO: 35.38969, Val -ELBO: 35.38271:  34%|███▍      | 135/400 [12:16<24:00,  5.43s/it]Train -ELBO: 35.38548, Val -ELBO: 35.35704:  34%|███▍      | 136/400 [12:21<23:57,  5.45s/it]Train -ELBO: 35.37411, Val -ELBO: 35.33340:  34%|███▍      | 137/400 [12:27<23:53,  5.45s/it]Train -ELBO: 35.36031, Val -ELBO: 35.33184:  34%|███▍      | 138/400 [12:32<23:49,  5.46s/it]Train -ELBO: 35.35906, Val -ELBO: 35.31761:  35%|███▍      | 139/400 [12:38<23:42,  5.45s/it]Train -ELBO: 35.35214, Val -ELBO: 35.29461:  35%|███▌      | 140/400 [12:43<23:39,  5.46s/it]Train -ELBO: 35.34139, Val -ELBO: 35.32932:  35%|███▌      | 141/400 [12:49<23:33,  5.46s/it]Train -ELBO: 35.32939, Val -ELBO: 35.28480:  36%|███▌      | 142/400 [12:54<23:29,  5.46s/it]Train -ELBO: 35.31888, Val -ELBO: 35.30018:  36%|███▌      | 143/400 [13:00<23:23,  5.46s/it]Train -ELBO: 35.31608, Val -ELBO: 35.39174:  36%|███▌      | 144/400 [13:05<23:18,  5.46s/it]Train -ELBO: 35.31570, Val -ELBO: 35.24657:  36%|███▋      | 145/400 [13:11<23:13,  5.46s/it]Train -ELBO: 35.28744, Val -ELBO: 35.26517:  36%|███▋      | 146/400 [13:16<23:03,  5.45s/it]Train -ELBO: 35.30481, Val -ELBO: 35.30835:  37%|███▋      | 147/400 [13:21<23:00,  5.46s/it]Train -ELBO: 35.30449, Val -ELBO: 35.30883:  37%|███▋      | 148/400 [13:27<22:53,  5.45s/it]Train -ELBO: 35.30663, Val -ELBO: 35.27478:  37%|███▋      | 149/400 [13:32<22:49,  5.46s/it]Train -ELBO: 35.29350, Val -ELBO: 35.20674:  38%|███▊      | 150/400 [13:38<22:41,  5.45s/it]Train -ELBO: 35.27433, Val -ELBO: 35.21439:  38%|███▊      | 151/400 [13:43<22:39,  5.46s/it]Train -ELBO: 35.27330, Val -ELBO: 35.24974:  38%|███▊      | 152/400 [13:49<22:30,  5.45s/it]Train -ELBO: 35.26874, Val -ELBO: 35.22641:  38%|███▊      | 153/400 [13:54<22:27,  5.45s/it]Train -ELBO: 35.28995, Val -ELBO: 35.25596:  38%|███▊      | 154/400 [14:00<22:22,  5.46s/it]Train -ELBO: 35.25366, Val -ELBO: 35.21063:  39%|███▉      | 155/400 [14:05<22:16,  5.45s/it]Train -ELBO: 35.24654, Val -ELBO: 35.26949:  39%|███▉      | 156/400 [14:11<22:11,  5.46s/it]Train -ELBO: 35.26572, Val -ELBO: 35.20708:  39%|███▉      | 157/400 [14:16<22:02,  5.44s/it]Train -ELBO: 35.27025, Val -ELBO: 35.23354:  40%|███▉      | 158/400 [14:21<22:00,  5.46s/it]Train -ELBO: 35.24378, Val -ELBO: 35.23094:  40%|███▉      | 159/400 [14:27<21:53,  5.45s/it]Train -ELBO: 35.24370, Val -ELBO: 35.22928:  40%|████      | 160/400 [14:32<21:51,  5.47s/it]Train -ELBO: 35.22967, Val -ELBO: 35.28751:  40%|████      | 161/400 [14:38<21:46,  5.47s/it]Train -ELBO: 35.26625, Val -ELBO: 35.17450:  40%|████      | 162/400 [14:43<21:40,  5.47s/it]Train -ELBO: 35.23132, Val -ELBO: 35.23526:  41%|████      | 163/400 [14:49<21:31,  5.45s/it]Train -ELBO: 35.23603, Val -ELBO: 35.18256:  41%|████      | 164/400 [14:54<21:28,  5.46s/it]Train -ELBO: 35.22575, Val -ELBO: 35.16478:  41%|████▏     | 165/400 [15:00<21:20,  5.45s/it]Train -ELBO: 35.24376, Val -ELBO: 35.19209:  42%|████▏     | 166/400 [15:05<21:12,  5.44s/it]Train -ELBO: 35.22894, Val -ELBO: 35.17249:  42%|████▏     | 167/400 [15:11<21:08,  5.45s/it]Train -ELBO: 35.22154, Val -ELBO: 35.23672:  42%|████▏     | 168/400 [15:16<21:03,  5.45s/it]Train -ELBO: 35.23027, Val -ELBO: 35.16760:  42%|████▏     | 169/400 [15:21<20:58,  5.45s/it]Train -ELBO: 35.22441, Val -ELBO: 35.13615:  42%|████▎     | 170/400 [15:27<20:51,  5.44s/it]Train -ELBO: 35.22469, Val -ELBO: 35.17230:  43%|████▎     | 171/400 [15:32<20:47,  5.45s/it]Train -ELBO: 35.23119, Val -ELBO: 35.20477:  43%|████▎     | 172/400 [15:38<20:45,  5.46s/it]Train -ELBO: 35.21929, Val -ELBO: 35.17136:  43%|████▎     | 173/400 [15:43<20:42,  5.47s/it]Train -ELBO: 35.22092, Val -ELBO: 35.19343:  44%|████▎     | 174/400 [15:49<20:34,  5.46s/it]Train -ELBO: 35.22365, Val -ELBO: 35.22948:  44%|████▍     | 175/400 [15:54<20:28,  5.46s/it]Train -ELBO: 35.20813, Val -ELBO: 35.12703:  44%|████▍     | 176/400 [16:00<20:21,  5.45s/it]Train -ELBO: 35.19537, Val -ELBO: 35.18267:  44%|████▍     | 177/400 [16:05<20:15,  5.45s/it]Train -ELBO: 35.20844, Val -ELBO: 35.15972:  44%|████▍     | 178/400 [16:11<20:10,  5.45s/it]Train -ELBO: 35.21013, Val -ELBO: 35.26160:  45%|████▍     | 179/400 [16:16<20:02,  5.44s/it]Train -ELBO: 35.20911, Val -ELBO: 35.16838:  45%|████▌     | 180/400 [16:21<20:01,  5.46s/it]Train -ELBO: 35.21860, Val -ELBO: 35.15497:  45%|████▌     | 181/400 [16:27<19:56,  5.46s/it]Train -ELBO: 35.20036, Val -ELBO: 35.17473:  46%|████▌     | 182/400 [16:32<19:51,  5.47s/it]Train -ELBO: 35.20363, Val -ELBO: 35.16621:  46%|████▌     | 183/400 [16:38<19:42,  5.45s/it]Train -ELBO: 35.20878, Val -ELBO: 35.16847:  46%|████▌     | 184/400 [16:43<19:39,  5.46s/it]Train -ELBO: 35.20379, Val -ELBO: 35.21028:  46%|████▋     | 185/400 [16:49<19:30,  5.45s/it]Train -ELBO: 35.20332, Val -ELBO: 35.24665:  46%|████▋     | 186/400 [16:54<19:26,  5.45s/it]Train -ELBO: 35.20260, Val -ELBO: 35.15408:  47%|████▋     | 187/400 [17:00<19:20,  5.45s/it]Train -ELBO: 35.19534, Val -ELBO: 35.19047:  47%|████▋     | 188/400 [17:05<19:14,  5.45s/it]Train -ELBO: 35.20262, Val -ELBO: 35.17481:  47%|████▋     | 189/400 [17:11<19:11,  5.46s/it]Train -ELBO: 35.20081, Val -ELBO: 35.16369:  48%|████▊     | 190/400 [17:16<19:04,  5.45s/it]Train -ELBO: 35.18817, Val -ELBO: 35.13567:  48%|████▊     | 191/400 [17:21<18:59,  5.45s/it]Train -ELBO: 35.20817, Val -ELBO: 35.22991:  48%|████▊     | 192/400 [17:27<18:54,  5.46s/it]Train -ELBO: 35.18952, Val -ELBO: 35.13335:  48%|████▊     | 193/400 [17:32<18:48,  5.45s/it]Train -ELBO: 35.18598, Val -ELBO: 35.16582:  48%|████▊     | 194/400 [17:38<18:40,  5.44s/it]Train -ELBO: 35.18877, Val -ELBO: 35.15772:  49%|████▉     | 195/400 [17:43<18:36,  5.45s/it]Train -ELBO: 35.17632, Val -ELBO: 35.14622:  49%|████▉     | 196/400 [17:49<18:29,  5.44s/it]Train -ELBO: 35.19280, Val -ELBO: 35.13668:  49%|████▉     | 197/400 [17:54<18:25,  5.45s/it]Train -ELBO: 35.18533, Val -ELBO: 35.15760:  50%|████▉     | 198/400 [18:00<18:19,  5.44s/it]Train -ELBO: 35.18863, Val -ELBO: 35.16866:  50%|████▉     | 199/400 [18:05<18:13,  5.44s/it]Train -ELBO: 35.20014, Val -ELBO: 35.15482:  50%|█████     | 200/400 [18:10<18:10,  5.45s/it]Train -ELBO: 35.16993, Val -ELBO: 35.12958:  50%|█████     | 201/400 [18:16<18:05,  5.45s/it]Train -ELBO: 35.17684, Val -ELBO: 35.12782:  50%|█████     | 202/400 [18:21<18:00,  5.46s/it]Train -ELBO: 35.16860, Val -ELBO: 35.16462:  51%|█████     | 203/400 [18:27<17:52,  5.45s/it]Train -ELBO: 35.18205, Val -ELBO: 35.11462:  51%|█████     | 204/400 [18:32<17:53,  5.47s/it]Train -ELBO: 35.18740, Val -ELBO: 35.20936:  51%|█████▏    | 205/400 [18:38<17:43,  5.45s/it]Train -ELBO: 35.18251, Val -ELBO: 35.18775:  52%|█████▏    | 206/400 [18:43<17:40,  5.46s/it]Train -ELBO: 35.17900, Val -ELBO: 35.10851:  52%|█████▏    | 207/400 [18:49<17:31,  5.45s/it]Train -ELBO: 35.16357, Val -ELBO: 35.16351:  52%|█████▏    | 208/400 [18:54<17:28,  5.46s/it]Train -ELBO: 35.17903, Val -ELBO: 35.15065:  52%|█████▏    | 209/400 [19:00<17:23,  5.46s/it]Train -ELBO: 35.19456, Val -ELBO: 35.18092:  52%|█████▎    | 210/400 [19:05<17:16,  5.46s/it]Train -ELBO: 35.18782, Val -ELBO: 35.20559:  53%|█████▎    | 211/400 [19:11<17:11,  5.46s/it]Train -ELBO: 35.18841, Val -ELBO: 35.13031:  53%|█████▎    | 212/400 [19:16<17:08,  5.47s/it]Train -ELBO: 35.17302, Val -ELBO: 35.13435:  53%|█████▎    | 213/400 [19:21<17:02,  5.47s/it]Train -ELBO: 35.19188, Val -ELBO: 35.16090:  54%|█████▎    | 214/400 [19:27<16:54,  5.45s/it]Train -ELBO: 35.18258, Val -ELBO: 35.14580:  54%|█████▍    | 215/400 [19:32<16:51,  5.47s/it]Train -ELBO: 35.17606, Val -ELBO: 35.19513:  54%|█████▍    | 216/400 [19:38<16:44,  5.46s/it]Train -ELBO: 35.17729, Val -ELBO: 35.14864:  54%|█████▍    | 217/400 [19:43<16:40,  5.47s/it]Train -ELBO: 35.16016, Val -ELBO: 35.12129:  55%|█████▍    | 218/400 [19:49<16:34,  5.46s/it]Train -ELBO: 35.16758, Val -ELBO: 35.14215:  55%|█████▍    | 219/400 [19:54<16:28,  5.46s/it]Train -ELBO: 35.15312, Val -ELBO: 35.15224:  55%|█████▌    | 220/400 [20:00<16:23,  5.46s/it]Train -ELBO: 35.16495, Val -ELBO: 35.13829:  55%|█████▌    | 221/400 [20:05<16:19,  5.47s/it]Train -ELBO: 35.16717, Val -ELBO: 35.11426:  56%|█████▌    | 222/400 [20:11<16:13,  5.47s/it]Train -ELBO: 35.16469, Val -ELBO: 35.20850:  56%|█████▌    | 223/400 [20:16<16:05,  5.45s/it]Train -ELBO: 35.18127, Val -ELBO: 35.16033:  56%|█████▌    | 224/400 [20:22<16:00,  5.46s/it]Train -ELBO: 35.16339, Val -ELBO: 35.10547:  56%|█████▋    | 225/400 [20:27<15:52,  5.44s/it]Train -ELBO: 35.17967, Val -ELBO: 35.11152:  56%|█████▋    | 226/400 [20:32<15:49,  5.46s/it]Train -ELBO: 35.18119, Val -ELBO: 35.07298:  57%|█████▋    | 227/400 [20:38<15:43,  5.45s/it]Train -ELBO: 35.14741, Val -ELBO: 35.13697:  57%|█████▋    | 228/400 [20:43<15:39,  5.46s/it]Train -ELBO: 35.15206, Val -ELBO: 35.10978:  57%|█████▋    | 229/400 [20:49<15:34,  5.47s/it]Train -ELBO: 35.17796, Val -ELBO: 35.16618:  57%|█████▊    | 230/400 [20:54<15:30,  5.47s/it]Train -ELBO: 35.15601, Val -ELBO: 35.20571:  58%|█████▊    | 231/400 [21:00<15:26,  5.48s/it]Train -ELBO: 35.15668, Val -ELBO: 35.16444:  58%|█████▊    | 232/400 [21:05<15:23,  5.50s/it]Train -ELBO: 35.17561, Val -ELBO: 35.14432:  58%|█████▊    | 233/400 [21:11<15:16,  5.49s/it]Train -ELBO: 35.15432, Val -ELBO: 35.10895:  58%|█████▊    | 234/400 [21:16<15:07,  5.47s/it]Train -ELBO: 35.17694, Val -ELBO: 35.11443:  59%|█████▉    | 235/400 [21:22<15:02,  5.47s/it]Train -ELBO: 35.16446, Val -ELBO: 35.12759:  59%|█████▉    | 236/400 [21:27<14:53,  5.45s/it]Train -ELBO: 35.16071, Val -ELBO: 35.09770:  59%|█████▉    | 237/400 [21:33<14:50,  5.46s/it]Train -ELBO: 35.16522, Val -ELBO: 35.11548:  60%|█████▉    | 238/400 [21:38<14:42,  5.45s/it]Train -ELBO: 35.15686, Val -ELBO: 35.13500:  60%|█████▉    | 239/400 [21:44<14:38,  5.46s/it]Train -ELBO: 35.15974, Val -ELBO: 35.11227:  60%|██████    | 240/400 [21:49<14:32,  5.45s/it]Train -ELBO: 35.15855, Val -ELBO: 35.10122:  60%|██████    | 241/400 [21:54<14:27,  5.46s/it]Train -ELBO: 35.14731, Val -ELBO: 35.12213:  60%|██████    | 242/400 [22:00<14:21,  5.45s/it]Train -ELBO: 35.16198, Val -ELBO: 35.10824:  61%|██████    | 243/400 [22:05<14:14,  5.44s/it]Train -ELBO: 35.15429, Val -ELBO: 35.15877:  61%|██████    | 244/400 [22:11<14:11,  5.46s/it]Train -ELBO: 35.15288, Val -ELBO: 35.08215:  61%|██████▏   | 245/400 [22:16<14:03,  5.45s/it]Train -ELBO: 35.15520, Val -ELBO: 35.07956:  62%|██████▏   | 246/400 [22:22<14:00,  5.46s/it]Train -ELBO: 35.16244, Val -ELBO: 35.12531:  62%|██████▏   | 247/400 [22:27<13:52,  5.44s/it]Train -ELBO: 35.14903, Val -ELBO: 35.09110:  62%|██████▏   | 248/400 [22:33<13:49,  5.46s/it]Epoch   149: reducing learning rate of group 0 to 1.0000e-04.
Train -ELBO: 35.15665, Val -ELBO: 35.10332:  62%|██████▏   | 249/400 [22:38<13:41,  5.44s/it]Train -ELBO: 35.07610, Val -ELBO: 35.03538:  62%|██████▎   | 250/400 [22:43<13:38,  5.46s/it]Train -ELBO: 35.05430, Val -ELBO: 35.03211:  63%|██████▎   | 251/400 [22:49<13:34,  5.47s/it]Train -ELBO: 35.05792, Val -ELBO: 35.02758:  63%|██████▎   | 252/400 [22:54<13:28,  5.47s/it]Train -ELBO: 35.05753, Val -ELBO: 35.03079:  63%|██████▎   | 253/400 [23:00<13:23,  5.46s/it]Train -ELBO: 35.05222, Val -ELBO: 35.03470:  64%|██████▎   | 254/400 [23:05<13:15,  5.45s/it]Train -ELBO: 35.05527, Val -ELBO: 35.02909:  64%|██████▍   | 255/400 [23:11<13:12,  5.46s/it]Train -ELBO: 35.05240, Val -ELBO: 35.03537:  64%|██████▍   | 256/400 [23:16<13:04,  5.45s/it]Train -ELBO: 35.05560, Val -ELBO: 35.02652:  64%|██████▍   | 257/400 [23:22<13:00,  5.46s/it]Train -ELBO: 35.05537, Val -ELBO: 35.02826:  64%|██████▍   | 258/400 [23:27<12:52,  5.44s/it]Train -ELBO: 35.05078, Val -ELBO: 35.02629:  65%|██████▍   | 259/400 [23:33<12:49,  5.45s/it]Train -ELBO: 35.05352, Val -ELBO: 35.02824:  65%|██████▌   | 260/400 [23:38<12:42,  5.45s/it]Train -ELBO: 35.05256, Val -ELBO: 35.03055:  65%|██████▌   | 261/400 [23:43<12:38,  5.46s/it]Train -ELBO: 35.05356, Val -ELBO: 35.02921:  66%|██████▌   | 262/400 [23:49<12:31,  5.45s/it]Train -ELBO: 35.05331, Val -ELBO: 35.03621:  66%|██████▌   | 263/400 [23:54<12:27,  5.46s/it]Train -ELBO: 35.05935, Val -ELBO: 35.02711:  66%|██████▌   | 264/400 [24:00<12:21,  5.45s/it]Train -ELBO: 35.05182, Val -ELBO: 35.02523:  66%|██████▋   | 265/400 [24:05<12:14,  5.44s/it]Train -ELBO: 35.05504, Val -ELBO: 35.02841:  66%|██████▋   | 266/400 [24:11<12:09,  5.45s/it]Train -ELBO: 35.05318, Val -ELBO: 35.03345:  67%|██████▋   | 267/400 [24:16<12:02,  5.43s/it]Train -ELBO: 35.05032, Val -ELBO: 35.02580:  67%|██████▋   | 268/400 [24:22<11:58,  5.44s/it]Train -ELBO: 35.05342, Val -ELBO: 35.03257:  67%|██████▋   | 269/400 [24:27<11:52,  5.44s/it]Train -ELBO: 35.05514, Val -ELBO: 35.02592:  68%|██████▊   | 270/400 [24:32<11:49,  5.46s/it]Train -ELBO: 35.04917, Val -ELBO: 35.02919:  68%|██████▊   | 271/400 [24:38<11:44,  5.46s/it]Train -ELBO: 35.05467, Val -ELBO: 35.02605:  68%|██████▊   | 272/400 [24:43<11:39,  5.46s/it]Train -ELBO: 35.05378, Val -ELBO: 35.01969:  68%|██████▊   | 273/400 [24:49<11:32,  5.45s/it]Train -ELBO: 35.05105, Val -ELBO: 35.02835:  68%|██████▊   | 274/400 [24:54<11:27,  5.46s/it]Train -ELBO: 35.05330, Val -ELBO: 35.03313:  69%|██████▉   | 275/400 [25:00<11:23,  5.46s/it]Train -ELBO: 35.05254, Val -ELBO: 35.03158:  69%|██████▉   | 276/400 [25:05<11:16,  5.45s/it]Train -ELBO: 35.05525, Val -ELBO: 35.03064:  69%|██████▉   | 277/400 [25:11<11:10,  5.45s/it]Train -ELBO: 35.04850, Val -ELBO: 35.02636:  70%|██████▉   | 278/400 [25:16<11:04,  5.44s/it]Train -ELBO: 35.05714, Val -ELBO: 35.02968:  70%|██████▉   | 279/400 [25:22<10:59,  5.45s/it]Epoch   180: reducing learning rate of group 0 to 1.0000e-05.
Train -ELBO: 35.05348, Val -ELBO: 35.02392:  70%|███████   | 280/400 [25:27<10:53,  5.45s/it]Train -ELBO: 35.04321, Val -ELBO: 35.02344:  70%|███████   | 281/400 [25:32<10:48,  5.45s/it]Train -ELBO: 35.04191, Val -ELBO: 35.02057:  70%|███████   | 282/400 [25:38<10:43,  5.45s/it]Train -ELBO: 35.03919, Val -ELBO: 35.02190:  71%|███████   | 283/400 [25:43<10:38,  5.46s/it]Train -ELBO: 35.03897, Val -ELBO: 35.01722:  71%|███████   | 284/400 [25:49<10:31,  5.44s/it]Train -ELBO: 35.04112, Val -ELBO: 35.01651:  71%|███████▏  | 285/400 [25:54<10:26,  5.45s/it]Train -ELBO: 35.03999, Val -ELBO: 35.01987:  72%|███████▏  | 286/400 [26:00<10:21,  5.45s/it]Train -ELBO: 35.04210, Val -ELBO: 35.01822:  72%|███████▏  | 287/400 [26:05<10:15,  5.45s/it]Train -ELBO: 35.03710, Val -ELBO: 35.01634:  72%|███████▏  | 288/400 [26:11<10:11,  5.46s/it]Train -ELBO: 35.03652, Val -ELBO: 35.02050:  72%|███████▏  | 289/400 [26:16<10:05,  5.46s/it]Train -ELBO: 35.03902, Val -ELBO: 35.02280:  72%|███████▎  | 290/400 [26:22<10:01,  5.47s/it]Train -ELBO: 35.04232, Val -ELBO: 35.02035:  73%|███████▎  | 291/400 [26:27<09:56,  5.47s/it]Train -ELBO: 35.03643, Val -ELBO: 35.02126:  73%|███████▎  | 292/400 [26:33<09:51,  5.47s/it]Train -ELBO: 35.04333, Val -ELBO: 35.02349:  73%|███████▎  | 293/400 [26:38<09:43,  5.45s/it]Train -ELBO: 35.04095, Val -ELBO: 35.02379:  74%|███████▎  | 294/400 [26:43<09:39,  5.47s/it]Train -ELBO: 35.03953, Val -ELBO: 35.02294:  74%|███████▍  | 295/400 [26:49<09:32,  5.45s/it]Train -ELBO: 35.03874, Val -ELBO: 35.02364:  74%|███████▍  | 296/400 [26:54<09:27,  5.46s/it]Train -ELBO: 35.04149, Val -ELBO: 35.01558:  74%|███████▍  | 297/400 [27:00<09:21,  5.45s/it]Train -ELBO: 35.04182, Val -ELBO: 35.01687:  74%|███████▍  | 298/400 [27:05<09:15,  5.45s/it]Train -ELBO: 35.04334, Val -ELBO: 35.01804:  75%|███████▍  | 299/400 [27:11<09:10,  5.45s/it]Train -ELBO: 35.03757, Val -ELBO: 35.01806:  75%|███████▌  | 300/400 [27:16<09:04,  5.45s/it]Train -ELBO: 35.03918, Val -ELBO: 35.02034:  75%|███████▌  | 301/400 [27:22<08:59,  5.45s/it]Train -ELBO: 35.04113, Val -ELBO: 35.01954:  76%|███████▌  | 302/400 [27:27<08:54,  5.46s/it]Train -ELBO: 35.03934, Val -ELBO: 35.00741:  76%|███████▌  | 303/400 [27:33<08:50,  5.46s/it]Train -ELBO: 35.03533, Val -ELBO: 35.01985:  76%|███████▌  | 304/400 [27:38<08:42,  5.45s/it]Train -ELBO: 35.04302, Val -ELBO: 35.01936:  76%|███████▋  | 305/400 [27:43<08:38,  5.45s/it]Train -ELBO: 35.03733, Val -ELBO: 35.01693:  76%|███████▋  | 306/400 [27:49<08:31,  5.44s/it]Train -ELBO: 35.04083, Val -ELBO: 35.02332:  77%|███████▋  | 307/400 [27:54<08:26,  5.45s/it]Train -ELBO: 35.03775, Val -ELBO: 35.02441:  77%|███████▋  | 308/400 [28:00<08:21,  5.45s/it]Train -ELBO: 35.03873, Val -ELBO: 35.02021:  77%|███████▋  | 309/400 [28:05<08:15,  5.44s/it]Train -ELBO: 35.04268, Val -ELBO: 35.02285:  78%|███████▊  | 310/400 [28:11<08:10,  5.46s/it]Train -ELBO: 35.04082, Val -ELBO: 35.01737:  78%|███████▊  | 311/400 [28:16<08:05,  5.46s/it]Train -ELBO: 35.03791, Val -ELBO: 35.02434:  78%|███████▊  | 312/400 [28:22<08:00,  5.46s/it]Train -ELBO: 35.03621, Val -ELBO: 35.01543:  78%|███████▊  | 313/400 [28:27<07:53,  5.45s/it]Train -ELBO: 35.03753, Val -ELBO: 35.01754:  78%|███████▊  | 314/400 [28:32<07:48,  5.45s/it]Train -ELBO: 35.04223, Val -ELBO: 35.01724:  79%|███████▉  | 315/400 [28:38<07:42,  5.44s/it]Train -ELBO: 35.04178, Val -ELBO: 35.01498:  79%|███████▉  | 316/400 [28:43<07:38,  5.46s/it]Train -ELBO: 35.03958, Val -ELBO: 35.01921:  79%|███████▉  | 317/400 [28:49<07:31,  5.44s/it]Train -ELBO: 35.03854, Val -ELBO: 35.02021:  80%|███████▉  | 318/400 [28:54<07:26,  5.45s/it]Train -ELBO: 35.03892, Val -ELBO: 35.02036:  80%|███████▉  | 319/400 [29:00<07:21,  5.45s/it]Train -ELBO: 35.03631, Val -ELBO: 35.01321:  80%|████████  | 320/400 [29:05<07:16,  5.46s/it]Train -ELBO: 35.03952, Val -ELBO: 35.01707:  80%|████████  | 321/400 [29:11<07:13,  5.48s/it]Train -ELBO: 35.04115, Val -ELBO: 35.02074:  80%|████████  | 322/400 [29:16<07:07,  5.48s/it]Train -ELBO: 35.03844, Val -ELBO: 35.01396:  81%|████████  | 323/400 [29:22<07:01,  5.47s/it]Train -ELBO: 35.03733, Val -ELBO: 35.02262:  81%|████████  | 324/400 [29:27<06:54,  5.45s/it]Epoch   225: reducing learning rate of group 0 to 1.0000e-06.
Train -ELBO: 35.04233, Val -ELBO: 35.02089:  81%|████████▏ | 325/400 [29:33<06:49,  5.45s/it]Train -ELBO: 35.04005, Val -ELBO: 35.01371:  82%|████████▏ | 326/400 [29:38<06:42,  5.44s/it]Train -ELBO: 35.03652, Val -ELBO: 35.02425:  82%|████████▏ | 327/400 [29:43<06:37,  5.45s/it]Train -ELBO: 35.04259, Val -ELBO: 35.01569:  82%|████████▏ | 328/400 [29:49<06:32,  5.45s/it]Train -ELBO: 35.03835, Val -ELBO: 35.01983:  82%|████████▏ | 329/400 [29:54<06:27,  5.45s/it]Train -ELBO: 35.03639, Val -ELBO: 35.01992:  82%|████████▎ | 330/400 [30:00<06:22,  5.46s/it]Train -ELBO: 35.03869, Val -ELBO: 35.02070:  83%|████████▎ | 331/400 [30:05<06:18,  5.48s/it]Train -ELBO: 35.03793, Val -ELBO: 35.01997:  83%|████████▎ | 332/400 [30:11<06:12,  5.48s/it]Train -ELBO: 35.03921, Val -ELBO: 35.01897:  83%|████████▎ | 333/400 [30:16<06:05,  5.46s/it]Train -ELBO: 35.03863, Val -ELBO: 35.01670:  84%|████████▎ | 334/400 [30:22<06:00,  5.47s/it]Train -ELBO: 35.03673, Val -ELBO: 35.01946:  84%|████████▍ | 335/400 [30:27<05:54,  5.45s/it]Train -ELBO: 35.03866, Val -ELBO: 35.01733:  84%|████████▍ | 336/400 [30:33<05:48,  5.45s/it]Train -ELBO: 35.03444, Val -ELBO: 35.01409:  84%|████████▍ | 337/400 [30:38<05:42,  5.44s/it]Train -ELBO: 35.04230, Val -ELBO: 35.02224:  84%|████████▍ | 338/400 [30:43<05:38,  5.45s/it]Train -ELBO: 35.03994, Val -ELBO: 35.01930:  85%|████████▍ | 339/400 [30:49<05:31,  5.44s/it]Train -ELBO: 35.04396, Val -ELBO: 35.01920:  85%|████████▌ | 340/400 [30:54<05:27,  5.45s/it]Train -ELBO: 35.03902, Val -ELBO: 35.02039:  85%|████████▌ | 341/400 [31:00<05:21,  5.46s/it]Train -ELBO: 35.03834, Val -ELBO: 35.02039:  86%|████████▌ | 342/400 [31:05<05:17,  5.48s/it]Train -ELBO: 35.04191, Val -ELBO: 35.02212:  86%|████████▌ | 343/400 [31:11<05:12,  5.47s/it]Train -ELBO: 35.03822, Val -ELBO: 35.02252:  86%|████████▌ | 344/400 [31:16<05:05,  5.46s/it]Train -ELBO: 35.03773, Val -ELBO: 35.01896:  86%|████████▋ | 345/400 [31:22<05:00,  5.47s/it]Train -ELBO: 35.03608, Val -ELBO: 35.01944:  86%|████████▋ | 346/400 [31:27<04:54,  5.45s/it]Train -ELBO: 35.03953, Val -ELBO: 35.01159:  87%|████████▋ | 347/400 [31:33<04:49,  5.46s/it]Train -ELBO: 35.03583, Val -ELBO: 35.01752:  87%|████████▋ | 348/400 [31:38<04:43,  5.45s/it]Train -ELBO: 35.03834, Val -ELBO: 35.01798:  87%|████████▋ | 349/400 [31:43<04:38,  5.45s/it]Train -ELBO: 35.03962, Val -ELBO: 35.01885:  88%|████████▊ | 350/400 [31:49<04:32,  5.45s/it]Train -ELBO: 35.03462, Val -ELBO: 35.02049:  88%|████████▊ | 351/400 [31:54<04:27,  5.46s/it]Train -ELBO: 35.04139, Val -ELBO: 35.01797:  88%|████████▊ | 352/400 [32:00<04:21,  5.45s/it]Train -ELBO: 35.03616, Val -ELBO: 35.01802:  88%|████████▊ | 353/400 [32:05<04:15,  5.45s/it]Train -ELBO: 35.03867, Val -ELBO: 35.01653:  88%|████████▊ | 354/400 [32:11<04:11,  5.46s/it]Train -ELBO: 35.04067, Val -ELBO: 35.01521:  89%|████████▉ | 355/400 [32:16<04:05,  5.45s/it]Train -ELBO: 35.03619, Val -ELBO: 35.01638:  89%|████████▉ | 356/400 [32:22<03:59,  5.45s/it]Train -ELBO: 35.04500, Val -ELBO: 35.02299:  89%|████████▉ | 357/400 [32:27<03:54,  5.45s/it]Train -ELBO: 35.04119, Val -ELBO: 35.01797:  90%|████████▉ | 358/400 [32:33<03:49,  5.45s/it]Train -ELBO: 35.03358, Val -ELBO: 35.02112:  90%|████████▉ | 359/400 [32:38<03:43,  5.44s/it]Train -ELBO: 35.04420, Val -ELBO: 35.02209:  90%|█████████ | 360/400 [32:44<03:38,  5.47s/it]Train -ELBO: 35.03640, Val -ELBO: 35.01663:  90%|█████████ | 361/400 [32:49<03:33,  5.48s/it]Train -ELBO: 35.04313, Val -ELBO: 35.01709:  90%|█████████ | 362/400 [32:55<03:28,  5.49s/it]Train -ELBO: 35.03655, Val -ELBO: 35.01862:  91%|█████████ | 363/400 [33:00<03:22,  5.48s/it]Train -ELBO: 35.03867, Val -ELBO: 35.01630:  91%|█████████ | 364/400 [33:05<03:16,  5.46s/it]Train -ELBO: 35.03798, Val -ELBO: 35.02305:  91%|█████████▏| 365/400 [33:11<03:11,  5.47s/it]Train -ELBO: 35.04167, Val -ELBO: 35.01327:  92%|█████████▏| 366/400 [33:16<03:05,  5.45s/it]Train -ELBO: 35.04168, Val -ELBO: 35.01953:  92%|█████████▏| 367/400 [33:22<03:00,  5.46s/it]Train -ELBO: 35.04098, Val -ELBO: 35.01759:  92%|█████████▏| 368/400 [33:27<02:54,  5.44s/it]Train -ELBO: 35.03856, Val -ELBO: 35.01838:  92%|█████████▏| 369/400 [33:33<02:49,  5.47s/it]Train -ELBO: 35.03783, Val -ELBO: 35.01843:  92%|█████████▎| 370/400 [33:38<02:43,  5.46s/it]Train -ELBO: 35.04181, Val -ELBO: 35.02201:  93%|█████████▎| 371/400 [33:44<02:38,  5.46s/it]Train -ELBO: 35.04031, Val -ELBO: 35.01769:  93%|█████████▎| 372/400 [33:49<02:32,  5.45s/it]Train -ELBO: 35.03864, Val -ELBO: 35.01797:  93%|█████████▎| 373/400 [33:55<02:27,  5.46s/it]Train -ELBO: 35.03378, Val -ELBO: 35.01248:  94%|█████████▎| 374/400 [34:00<02:22,  5.46s/it]Train -ELBO: 35.03531, Val -ELBO: 35.01670:  94%|█████████▍| 375/400 [34:05<02:16,  5.45s/it]Train -ELBO: 35.04036, Val -ELBO: 35.01752:  94%|█████████▍| 376/400 [34:11<02:10,  5.45s/it]Train -ELBO: 35.03896, Val -ELBO: 35.01733:  94%|█████████▍| 377/400 [34:16<02:05,  5.44s/it]Train -ELBO: 35.04025, Val -ELBO: 35.01634:  94%|█████████▍| 378/400 [34:22<01:59,  5.45s/it]Train -ELBO: 35.03857, Val -ELBO: 35.01678:  95%|█████████▍| 379/400 [34:27<01:54,  5.44s/it]Train -ELBO: 35.03637, Val -ELBO: 35.01424:  95%|█████████▌| 380/400 [34:33<01:48,  5.45s/it]Train -ELBO: 35.03798, Val -ELBO: 35.01780:  95%|█████████▌| 381/400 [34:38<01:43,  5.46s/it]Train -ELBO: 35.03673, Val -ELBO: 35.02610:  96%|█████████▌| 382/400 [34:44<01:38,  5.47s/it]Train -ELBO: 35.03912, Val -ELBO: 35.02137:  96%|█████████▌| 383/400 [34:49<01:32,  5.45s/it]Train -ELBO: 35.04029, Val -ELBO: 35.02155:  96%|█████████▌| 384/400 [34:55<01:27,  5.46s/it]Train -ELBO: 35.03942, Val -ELBO: 35.01680:  96%|█████████▋| 385/400 [35:00<01:21,  5.45s/it]Train -ELBO: 35.04028, Val -ELBO: 35.01334:  96%|█████████▋| 386/400 [35:05<01:16,  5.44s/it]Train -ELBO: 35.03637, Val -ELBO: 35.02343:  97%|█████████▋| 387/400 [35:11<01:10,  5.44s/it]Train -ELBO: 35.03769, Val -ELBO: 35.01538:  97%|█████████▋| 388/400 [35:16<01:05,  5.43s/it]Train -ELBO: 35.04308, Val -ELBO: 35.01659:  97%|█████████▋| 389/400 [35:22<00:59,  5.44s/it]Train -ELBO: 35.03921, Val -ELBO: 35.02057:  98%|█████████▊| 390/400 [35:27<00:54,  5.44s/it]Train -ELBO: 35.03720, Val -ELBO: 35.01497:  98%|█████████▊| 391/400 [35:33<00:49,  5.45s/it]Train -ELBO: 35.04016, Val -ELBO: 35.01638:  98%|█████████▊| 392/400 [35:38<00:43,  5.46s/it]Train -ELBO: 35.03787, Val -ELBO: 35.01554:  98%|█████████▊| 393/400 [35:44<00:38,  5.47s/it]Train -ELBO: 35.03955, Val -ELBO: 35.01920:  98%|█████████▊| 394/400 [35:49<00:32,  5.46s/it]Train -ELBO: 35.04157, Val -ELBO: 35.01598:  99%|█████████▉| 395/400 [35:54<00:27,  5.46s/it]Train -ELBO: 35.03626, Val -ELBO: 35.01659:  99%|█████████▉| 396/400 [36:00<00:21,  5.47s/it]Train -ELBO: 35.03881, Val -ELBO: 35.01751:  99%|█████████▉| 397/400 [36:05<00:16,  5.46s/it]Train -ELBO: 35.03634, Val -ELBO: 35.02094: 100%|█████████▉| 398/400 [36:11<00:10,  5.46s/it]Train -ELBO: 35.04285, Val -ELBO: 35.01405: 100%|█████████▉| 399/400 [36:16<00:05,  5.45s/it]Train -ELBO: 35.03541, Val -ELBO: 35.02140: 100%|██████████| 400/400 [36:22<00:00,  5.47s/it]Train -ELBO: 35.03541, Val -ELBO: 35.02140: 100%|██████████| 400/400 [36:22<00:00,  5.46s/it]
