{
  "test": {
    "steps": [
      0
    ],
    "timestamps": [
      "2022-07-04T23:23:18.815397"
    ],
    "values": [
      9.163637711192953
    ]
  },
  "train": {
    "steps": [
      0,
      1,
      2,
      3,
      4,
      5,
      6,
      7,
      8,
      9,
      10,
      11,
      12,
      13,
      14,
      15,
      16,
      17,
      18,
      19,
      20,
      21,
      22,
      23,
      24,
      25,
      26,
      27,
      28,
      29,
      30,
      31,
      32,
      33,
      34,
      35,
      36,
      37,
      38,
      39,
      40,
      41,
      42,
      43,
      44,
      45,
      46,
      47,
      48,
      49,
      50,
      51,
      52,
      53,
      54,
      55,
      56,
      57,
      58,
      59,
      60,
      61,
      62,
      63,
      64,
      65,
      66,
      67,
      68,
      69,
      70,
      71,
      72,
      73,
      74,
      75,
      76,
      77,
      78,
      79,
      80,
      81,
      82,
      83,
      84,
      85,
      86,
      87,
      88,
      89,
      90,
      91,
      92,
      93,
      94,
      95,
      96,
      97,
      98,
      99,
      100,
      101,
      102,
      103,
      104,
      105,
      106,
      107,
      108,
      109,
      110,
      111,
      112,
      113,
      114,
      115,
      116,
      117,
      118,
      119,
      120,
      121,
      122,
      123,
      124,
      125,
      126,
      127,
      128,
      129,
      130,
      131,
      132,
      133,
      134,
      135,
      136,
      137,
      138,
      139,
      140,
      141,
      142,
      143,
      144,
      145,
      146,
      147,
      148,
      149,
      150,
      151,
      152,
      153,
      154,
      155,
      156,
      157,
      158,
      159,
      160,
      161,
      162,
      163,
      164,
      165,
      166,
      167,
      168,
      169,
      170,
      171,
      172,
      173,
      174,
      175,
      176,
      177,
      178,
      179,
      180,
      181,
      182,
      183,
      184,
      185,
      186,
      187,
      188,
      189,
      190,
      191,
      192,
      193,
      194,
      195,
      196,
      197,
      198,
      199,
      200,
      201,
      202,
      203,
      204,
      205,
      206,
      207,
      208,
      209,
      210,
      211,
      212,
      213,
      214,
      215,
      216,
      217,
      218,
      219,
      220,
      221,
      222,
      223,
      224,
      225,
      226,
      227,
      228,
      229,
      230,
      231,
      232,
      233,
      234,
      235,
      236,
      237,
      238,
      239,
      240,
      241,
      242,
      243,
      244,
      245,
      246,
      247,
      248,
      249,
      250,
      251,
      252,
      253,
      254,
      255,
      256,
      257,
      258,
      259,
      260,
      261,
      262,
      263,
      264,
      265,
      266,
      267,
      268,
      269,
      270,
      271,
      272,
      273,
      274,
      275,
      276,
      277,
      278,
      279,
      280,
      281,
      282,
      283,
      284,
      285,
      286,
      287,
      288,
      289,
      290,
      291,
      292,
      293,
      294,
      295,
      296,
      297,
      298,
      299,
      300,
      301,
      302,
      303,
      304,
      305,
      306,
      307,
      308,
      309,
      310,
      311,
      312,
      313,
      314,
      315,
      316,
      317,
      318,
      319,
      320,
      321,
      322,
      323,
      324,
      325,
      326,
      327,
      328,
      329,
      330,
      331,
      332,
      333,
      334,
      335,
      336,
      337,
      338,
      339,
      340,
      341,
      342,
      343,
      344,
      345,
      346,
      347,
      348,
      349,
      350,
      351,
      352,
      353,
      354,
      355,
      356,
      357,
      358,
      359,
      360,
      361,
      362,
      363,
      364,
      365,
      366,
      367,
      368,
      369,
      370,
      371,
      372,
      373,
      374,
      375,
      376,
      377,
      378,
      379,
      380,
      381,
      382,
      383,
      384,
      385,
      386,
      387,
      388,
      389,
      390,
      391,
      392,
      393,
      394,
      395,
      396,
      397,
      398,
      399
    ],
    "timestamps": [
      "2022-07-04T23:18:10.533664",
      "2022-07-04T23:18:11.491303",
      "2022-07-04T23:18:13.576370",
      "2022-07-04T23:18:14.459989",
      "2022-07-04T23:18:15.200860",
      "2022-07-04T23:18:16.105665",
      "2022-07-04T23:18:17.053912",
      "2022-07-04T23:18:17.981584",
      "2022-07-04T23:18:18.863424",
      "2022-07-04T23:18:19.598752",
      "2022-07-04T23:18:20.332790",
      "2022-07-04T23:18:21.069745",
      "2022-07-04T23:18:21.808614",
      "2022-07-04T23:18:22.545055",
      "2022-07-04T23:18:23.279844",
      "2022-07-04T23:18:24.201006",
      "2022-07-04T23:18:24.911363",
      "2022-07-04T23:18:25.619503",
      "2022-07-04T23:18:26.392703",
      "2022-07-04T23:18:27.131578",
      "2022-07-04T23:18:28.080572",
      "2022-07-04T23:18:28.838584",
      "2022-07-04T23:18:29.553314",
      "2022-07-04T23:18:30.260076",
      "2022-07-04T23:18:30.972961",
      "2022-07-04T23:18:31.755273",
      "2022-07-04T23:18:32.485839",
      "2022-07-04T23:18:33.218736",
      "2022-07-04T23:18:34.014512",
      "2022-07-04T23:18:34.729222",
      "2022-07-04T23:18:35.452999",
      "2022-07-04T23:18:36.168847",
      "2022-07-04T23:18:36.881914",
      "2022-07-04T23:18:37.590028",
      "2022-07-04T23:18:38.302058",
      "2022-07-04T23:18:39.055427",
      "2022-07-04T23:18:39.803783",
      "2022-07-04T23:18:40.527474",
      "2022-07-04T23:18:41.233911",
      "2022-07-04T23:18:41.947488",
      "2022-07-04T23:18:42.654753",
      "2022-07-04T23:18:43.367191",
      "2022-07-04T23:18:44.116303",
      "2022-07-04T23:18:44.908727",
      "2022-07-04T23:18:45.640942",
      "2022-07-04T23:18:46.373312",
      "2022-07-04T23:18:47.109962",
      "2022-07-04T23:18:47.847437",
      "2022-07-04T23:18:48.590787",
      "2022-07-04T23:18:49.348272",
      "2022-07-04T23:18:50.096020",
      "2022-07-04T23:18:50.839759",
      "2022-07-04T23:18:51.582252",
      "2022-07-04T23:18:52.324675",
      "2022-07-04T23:18:53.070765",
      "2022-07-04T23:18:53.817620",
      "2022-07-04T23:18:54.562821",
      "2022-07-04T23:18:55.302515",
      "2022-07-04T23:18:56.046042",
      "2022-07-04T23:18:56.800645",
      "2022-07-04T23:18:57.561295",
      "2022-07-04T23:18:58.307884",
      "2022-07-04T23:18:59.056434",
      "2022-07-04T23:18:59.813649",
      "2022-07-04T23:19:00.555836",
      "2022-07-04T23:19:01.351151",
      "2022-07-04T23:19:02.134873",
      "2022-07-04T23:19:02.882652",
      "2022-07-04T23:19:03.627163",
      "2022-07-04T23:19:04.370255",
      "2022-07-04T23:19:05.116624",
      "2022-07-04T23:19:05.861616",
      "2022-07-04T23:19:06.606722",
      "2022-07-04T23:19:07.416254",
      "2022-07-04T23:19:08.141102",
      "2022-07-04T23:19:08.877147",
      "2022-07-04T23:19:09.606270",
      "2022-07-04T23:19:10.342377",
      "2022-07-04T23:19:11.080549",
      "2022-07-04T23:19:11.817415",
      "2022-07-04T23:19:12.605034",
      "2022-07-04T23:19:13.339943",
      "2022-07-04T23:19:14.070779",
      "2022-07-04T23:19:14.799222",
      "2022-07-04T23:19:15.532380",
      "2022-07-04T23:19:16.304627",
      "2022-07-04T23:19:17.037482",
      "2022-07-04T23:19:17.857828",
      "2022-07-04T23:19:18.606468",
      "2022-07-04T23:19:19.346345",
      "2022-07-04T23:19:20.086967",
      "2022-07-04T23:19:20.829072",
      "2022-07-04T23:19:21.693903",
      "2022-07-04T23:19:22.434201",
      "2022-07-04T23:19:23.199341",
      "2022-07-04T23:19:23.930675",
      "2022-07-04T23:19:24.862777",
      "2022-07-04T23:19:25.565353",
      "2022-07-04T23:19:26.336086",
      "2022-07-04T23:19:27.042561",
      "2022-07-04T23:19:27.770441",
      "2022-07-04T23:19:28.685113",
      "2022-07-04T23:19:29.553045",
      "2022-07-04T23:19:30.313109",
      "2022-07-04T23:19:31.221292",
      "2022-07-04T23:19:32.120876",
      "2022-07-04T23:19:32.853776",
      "2022-07-04T23:19:33.576968",
      "2022-07-04T23:19:34.285050",
      "2022-07-04T23:19:34.989179",
      "2022-07-04T23:19:35.716242",
      "2022-07-04T23:19:36.452110",
      "2022-07-04T23:19:37.250206",
      "2022-07-04T23:19:38.020392",
      "2022-07-04T23:19:38.743489",
      "2022-07-04T23:19:39.488951",
      "2022-07-04T23:19:40.222160",
      "2022-07-04T23:19:40.948987",
      "2022-07-04T23:19:41.679773",
      "2022-07-04T23:19:42.416054",
      "2022-07-04T23:19:43.189753",
      "2022-07-04T23:19:43.960983",
      "2022-07-04T23:19:44.692164",
      "2022-07-04T23:19:45.491221",
      "2022-07-04T23:19:46.231255",
      "2022-07-04T23:19:46.947054",
      "2022-07-04T23:19:47.652181",
      "2022-07-04T23:19:48.413074",
      "2022-07-04T23:19:49.133029",
      "2022-07-04T23:19:49.842584",
      "2022-07-04T23:19:50.549081",
      "2022-07-04T23:19:51.296203",
      "2022-07-04T23:19:52.005755",
      "2022-07-04T23:19:52.709741",
      "2022-07-04T23:19:53.444332",
      "2022-07-04T23:19:54.189515",
      "2022-07-04T23:19:54.942056",
      "2022-07-04T23:19:55.655137",
      "2022-07-04T23:19:56.362657",
      "2022-07-04T23:19:57.073979",
      "2022-07-04T23:19:57.842805",
      "2022-07-04T23:19:58.601885",
      "2022-07-04T23:19:59.364402",
      "2022-07-04T23:20:00.094821",
      "2022-07-04T23:20:00.829271",
      "2022-07-04T23:20:01.564958",
      "2022-07-04T23:20:02.300942",
      "2022-07-04T23:20:03.034704",
      "2022-07-04T23:20:03.793976",
      "2022-07-04T23:20:04.535283",
      "2022-07-04T23:20:05.310243",
      "2022-07-04T23:20:06.112337",
      "2022-07-04T23:20:06.846391",
      "2022-07-04T23:20:07.582053",
      "2022-07-04T23:20:08.322270",
      "2022-07-04T23:20:09.085346",
      "2022-07-04T23:20:09.821703",
      "2022-07-04T23:20:10.550629",
      "2022-07-04T23:20:11.283224",
      "2022-07-04T23:20:12.019659",
      "2022-07-04T23:20:12.726825",
      "2022-07-04T23:20:13.473267",
      "2022-07-04T23:20:14.216112",
      "2022-07-04T23:20:15.076004",
      "2022-07-04T23:20:16.029947",
      "2022-07-04T23:20:16.948573",
      "2022-07-04T23:20:17.917196",
      "2022-07-04T23:20:18.852488",
      "2022-07-04T23:20:19.725627",
      "2022-07-04T23:20:20.429375",
      "2022-07-04T23:20:21.141663",
      "2022-07-04T23:20:21.885077",
      "2022-07-04T23:20:22.595808",
      "2022-07-04T23:20:23.345163",
      "2022-07-04T23:20:24.067483",
      "2022-07-04T23:20:24.792273",
      "2022-07-04T23:20:25.503104",
      "2022-07-04T23:20:26.215919",
      "2022-07-04T23:20:26.922396",
      "2022-07-04T23:20:27.632372",
      "2022-07-04T23:20:28.344576",
      "2022-07-04T23:20:29.059164",
      "2022-07-04T23:20:29.821341",
      "2022-07-04T23:20:30.527134",
      "2022-07-04T23:20:31.235860",
      "2022-07-04T23:20:31.951160",
      "2022-07-04T23:20:32.657810",
      "2022-07-04T23:20:33.445080",
      "2022-07-04T23:20:34.187477",
      "2022-07-04T23:20:34.924485",
      "2022-07-04T23:20:35.660171",
      "2022-07-04T23:20:36.393705",
      "2022-07-04T23:20:37.159520",
      "2022-07-04T23:20:37.908354",
      "2022-07-04T23:20:38.664859",
      "2022-07-04T23:20:39.487767",
      "2022-07-04T23:20:40.194404",
      "2022-07-04T23:20:40.904873",
      "2022-07-04T23:20:41.623850",
      "2022-07-04T23:20:42.374240",
      "2022-07-04T23:20:43.093758",
      "2022-07-04T23:20:43.833195",
      "2022-07-04T23:20:44.582442",
      "2022-07-04T23:20:45.334194",
      "2022-07-04T23:20:46.084683",
      "2022-07-04T23:20:46.832014",
      "2022-07-04T23:20:47.622292",
      "2022-07-04T23:20:48.408335",
      "2022-07-04T23:20:49.173060",
      "2022-07-04T23:20:49.929005",
      "2022-07-04T23:20:50.685596",
      "2022-07-04T23:20:51.447249",
      "2022-07-04T23:20:52.258033",
      "2022-07-04T23:20:53.131662",
      "2022-07-04T23:20:53.893314",
      "2022-07-04T23:20:54.651386",
      "2022-07-04T23:20:55.506604",
      "2022-07-04T23:20:56.263729",
      "2022-07-04T23:20:57.019542",
      "2022-07-04T23:20:57.787625",
      "2022-07-04T23:20:58.542945",
      "2022-07-04T23:20:59.301682",
      "2022-07-04T23:21:00.061147",
      "2022-07-04T23:21:00.816950",
      "2022-07-04T23:21:01.577685",
      "2022-07-04T23:21:02.338444",
      "2022-07-04T23:21:03.314435",
      "2022-07-04T23:21:04.219977",
      "2022-07-04T23:21:05.013644",
      "2022-07-04T23:21:05.920530",
      "2022-07-04T23:21:06.793114",
      "2022-07-04T23:21:07.612671",
      "2022-07-04T23:21:08.371329",
      "2022-07-04T23:21:09.118099",
      "2022-07-04T23:21:09.864537",
      "2022-07-04T23:21:10.609064",
      "2022-07-04T23:21:11.354341",
      "2022-07-04T23:21:12.095780",
      "2022-07-04T23:21:12.852039",
      "2022-07-04T23:21:13.698827",
      "2022-07-04T23:21:14.606098",
      "2022-07-04T23:21:15.405974",
      "2022-07-04T23:21:16.319573",
      "2022-07-04T23:21:17.248300",
      "2022-07-04T23:21:18.199944",
      "2022-07-04T23:21:18.952674",
      "2022-07-04T23:21:19.664821",
      "2022-07-04T23:21:20.414330",
      "2022-07-04T23:21:21.123533",
      "2022-07-04T23:21:21.833112",
      "2022-07-04T23:21:22.543229",
      "2022-07-04T23:21:23.328759",
      "2022-07-04T23:21:24.043720",
      "2022-07-04T23:21:24.862335",
      "2022-07-04T23:21:25.576041",
      "2022-07-04T23:21:26.285547",
      "2022-07-04T23:21:26.993665",
      "2022-07-04T23:21:27.703522",
      "2022-07-04T23:21:28.498832",
      "2022-07-04T23:21:29.207971",
      "2022-07-04T23:21:29.917702",
      "2022-07-04T23:21:30.625821",
      "2022-07-04T23:21:31.333812",
      "2022-07-04T23:21:32.041895",
      "2022-07-04T23:21:32.746906",
      "2022-07-04T23:21:33.513737",
      "2022-07-04T23:21:34.226406",
      "2022-07-04T23:21:34.934209",
      "2022-07-04T23:21:35.643831",
      "2022-07-04T23:21:36.352129",
      "2022-07-04T23:21:37.059869",
      "2022-07-04T23:21:37.768979",
      "2022-07-04T23:21:38.506936",
      "2022-07-04T23:21:39.255216",
      "2022-07-04T23:21:39.966810",
      "2022-07-04T23:21:40.709195",
      "2022-07-04T23:21:41.421408",
      "2022-07-04T23:21:42.129222",
      "2022-07-04T23:21:42.835193",
      "2022-07-04T23:21:43.572873",
      "2022-07-04T23:21:44.317476",
      "2022-07-04T23:21:45.037112",
      "2022-07-04T23:21:45.750097",
      "2022-07-04T23:21:46.458322",
      "2022-07-04T23:21:47.183441",
      "2022-07-04T23:21:47.937435",
      "2022-07-04T23:21:48.687820",
      "2022-07-04T23:21:49.438624",
      "2022-07-04T23:21:50.136789",
      "2022-07-04T23:21:50.849490",
      "2022-07-04T23:21:51.557384",
      "2022-07-04T23:21:52.263046",
      "2022-07-04T23:21:53.231520",
      "2022-07-04T23:21:53.952373",
      "2022-07-04T23:21:54.669803",
      "2022-07-04T23:21:55.388896",
      "2022-07-04T23:21:56.167436",
      "2022-07-04T23:21:56.901484",
      "2022-07-04T23:21:57.632523",
      "2022-07-04T23:21:58.367198",
      "2022-07-04T23:21:59.138604",
      "2022-07-04T23:21:59.998121",
      "2022-07-04T23:22:00.730185",
      "2022-07-04T23:22:01.465185",
      "2022-07-04T23:22:02.197710",
      "2022-07-04T23:22:02.927606",
      "2022-07-04T23:22:03.708827",
      "2022-07-04T23:22:04.611551",
      "2022-07-04T23:22:05.320656",
      "2022-07-04T23:22:06.028411",
      "2022-07-04T23:22:06.737054",
      "2022-07-04T23:22:07.444127",
      "2022-07-04T23:22:08.155327",
      "2022-07-04T23:22:08.869582",
      "2022-07-04T23:22:09.621440",
      "2022-07-04T23:22:10.394127",
      "2022-07-04T23:22:11.284384",
      "2022-07-04T23:22:12.100947",
      "2022-07-04T23:22:13.039678",
      "2022-07-04T23:22:13.967020",
      "2022-07-04T23:22:14.756154",
      "2022-07-04T23:22:15.634963",
      "2022-07-04T23:22:16.577046",
      "2022-07-04T23:22:17.426637",
      "2022-07-04T23:22:18.279263",
      "2022-07-04T23:22:19.125244",
      "2022-07-04T23:22:20.063299",
      "2022-07-04T23:22:20.960512",
      "2022-07-04T23:22:21.741731",
      "2022-07-04T23:22:22.674037",
      "2022-07-04T23:22:23.640248",
      "2022-07-04T23:22:24.468879",
      "2022-07-04T23:22:25.289102",
      "2022-07-04T23:22:26.228798",
      "2022-07-04T23:22:27.132124",
      "2022-07-04T23:22:27.917576",
      "2022-07-04T23:22:28.755364",
      "2022-07-04T23:22:29.461095",
      "2022-07-04T23:22:30.168290",
      "2022-07-04T23:22:31.127964",
      "2022-07-04T23:22:31.922535",
      "2022-07-04T23:22:32.771863",
      "2022-07-04T23:22:33.678730",
      "2022-07-04T23:22:34.538297",
      "2022-07-04T23:22:35.317104",
      "2022-07-04T23:22:36.219404",
      "2022-07-04T23:22:37.085657",
      "2022-07-04T23:22:37.838497",
      "2022-07-04T23:22:38.555128",
      "2022-07-04T23:22:39.265292",
      "2022-07-04T23:22:39.973647",
      "2022-07-04T23:22:40.683281",
      "2022-07-04T23:22:41.417853",
      "2022-07-04T23:22:42.122508",
      "2022-07-04T23:22:42.888718",
      "2022-07-04T23:22:43.601328",
      "2022-07-04T23:22:44.306852",
      "2022-07-04T23:22:45.014180",
      "2022-07-04T23:22:45.722828",
      "2022-07-04T23:22:46.427470",
      "2022-07-04T23:22:47.156628",
      "2022-07-04T23:22:48.032009",
      "2022-07-04T23:22:48.982400",
      "2022-07-04T23:22:49.863305",
      "2022-07-04T23:22:50.643225",
      "2022-07-04T23:22:51.398014",
      "2022-07-04T23:22:52.148544",
      "2022-07-04T23:22:52.925700",
      "2022-07-04T23:22:53.691444",
      "2022-07-04T23:22:54.445349",
      "2022-07-04T23:22:55.198400",
      "2022-07-04T23:22:55.954636",
      "2022-07-04T23:22:56.709377",
      "2022-07-04T23:22:57.489828",
      "2022-07-04T23:22:58.337948",
      "2022-07-04T23:22:59.118544",
      "2022-07-04T23:22:59.874971",
      "2022-07-04T23:23:00.629023",
      "2022-07-04T23:23:01.382781",
      "2022-07-04T23:23:02.137961",
      "2022-07-04T23:23:02.893719",
      "2022-07-04T23:23:03.677974",
      "2022-07-04T23:23:04.434237",
      "2022-07-04T23:23:05.189993",
      "2022-07-04T23:23:05.952185",
      "2022-07-04T23:23:06.730487",
      "2022-07-04T23:23:07.509858",
      "2022-07-04T23:23:08.390282",
      "2022-07-04T23:23:09.349708",
      "2022-07-04T23:23:10.406814",
      "2022-07-04T23:23:11.210130",
      "2022-07-04T23:23:12.033248",
      "2022-07-04T23:23:12.774758",
      "2022-07-04T23:23:13.632908",
      "2022-07-04T23:23:14.570906",
      "2022-07-04T23:23:15.595946",
      "2022-07-04T23:23:16.397666",
      "2022-07-04T23:23:17.139049",
      "2022-07-04T23:23:17.858462",
      "2022-07-04T23:23:18.627623"
    ],
    "values": [
      9.965665801494096,
      9.643015692690073,
      9.467184951242304,
      9.316380502398495,
      9.263498933847467,
      9.23937151666136,
      9.201998856778118,
      9.190513480570154,
      9.189771432629154,
      9.172589943112856,
      9.17301472518608,
      9.167201147735392,
      9.169751948605844,
      9.171760414368606,
      9.164353695324836,
      9.162840054665491,
      9.162012266405837,
      9.163015236886652,
      9.161175699963543,
      9.15708176902502,
      9.154630105774613,
      9.161145913932506,
      9.155744632317008,
      9.15646190101915,
      9.15003738850383,
      9.151197553635123,
      9.148793472225785,
      9.153815454462363,
      9.148733878289084,
      9.155688016671187,
      9.158035275809674,
      9.148412029379482,
      9.14920227873876,
      9.14290000578602,
      9.150941659313757,
      9.1483570916196,
      9.143603000231998,
      9.137446187007136,
      9.14611141762924,
      9.14083141057869,
      9.149460438155739,
      9.143639780698656,
      9.14088958176538,
      9.147060967535902,
      9.146615477822166,
      9.139643863177854,
      9.13976045258409,
      9.140811221179431,
      9.139630119580325,
      9.141575434491573,
      9.1409399294156,
      9.137849777579794,
      9.14597611184306,
      9.146711736912085,
      9.144264876117848,
      9.142919524483755,
      9.140889709566517,
      9.13996521648957,
      9.14310602112528,
      9.12799103517381,
      9.10435617633169,
      9.100572770293098,
      9.10122914491431,
      9.100879790809598,
      9.09793436271932,
      9.098028571708939,
      9.096807799230346,
      9.098234968812841,
      9.099178847495523,
      9.096571355161739,
      9.099310275610868,
      9.096232104478357,
      9.099002661455177,
      9.096660391602452,
      9.099147670677104,
      9.096910197696154,
      9.095972272045492,
      9.096997536745384,
      9.099585710683298,
      9.096578090316406,
      9.097739427389556,
      9.097189276231806,
      9.098031898525207,
      9.097199121168947,
      9.097165219190845,
      9.096878668834862,
      9.09602087915136,
      9.099091829855002,
      9.103204146900739,
      9.09547174440329,
      9.090009533920341,
      9.092403627545318,
      9.09399442695734,
      9.09130621047081,
      9.091527316889833,
      9.092017892198298,
      9.09135092811369,
      9.091178554521159,
      9.091860340536043,
      9.091388520920075,
      9.08885009296164,
      9.092253294824307,
      9.090914441578072,
      9.091022780908014,
      9.091516853797833,
      9.089867553430176,
      9.090434514377826,
      9.09127583446316,
      9.090527244910632,
      9.090552018565853,
      9.089886828977308,
      9.091161132717133,
      9.090702486600112,
      9.090047553383217,
      9.090499834544694,
      9.090339836660837,
      9.090581273178671,
      9.089433860600446,
      9.09077826272116,
      9.08966045269138,
      9.09142572519546,
      9.089603124337396,
      9.093037970616562,
      9.092820591295453,
      9.092004316871183,
      9.091430851133076,
      9.090715689300863,
      9.089922172646748,
      9.089498528802844,
      9.089602128809467,
      9.089416352923276,
      9.089068102760152,
      9.089102550025702,
      9.090201240306367,
      9.090598244952469,
      9.090494841591015,
      9.090256127013609,
      9.090026971632946,
      9.089892793685129,
      9.089624564706101,
      9.089613671525306,
      9.089643768510182,
      9.089376140755697,
      9.089655831523933,
      9.090653582362327,
      9.09075413218794,
      9.09064832642019,
      9.090541235566258,
      9.090496487326057,
      9.090660095393533,
      9.090652325970433,
      9.090537748781689,
      9.0904232312284,
      9.090312920164903,
      9.090205098409728,
      9.090100354002173,
      9.089997979397422,
      9.08989746618147,
      9.089797914675167,
      9.08970124144519,
      9.089609202260826,
      9.089533128212308,
      9.08952981629783,
      9.089601937049343,
      9.089623261329326,
      9.089582402732134,
      9.089599048713376,
      9.0896966854207,
      9.08968434543776,
      9.08961623065348,
      9.089552539527022,
      9.089550940904179,
      9.08966299143787,
      9.089740104217613,
      9.089743006556919,
      9.089717559146004,
      9.089677441136564,
      9.089634186049782,
      9.089634660492434,
      9.089748566444149,
      9.089816559140447,
      9.089792815128016,
      9.089762890948526,
      9.089750888486158,
      9.08975905270816,
      9.089761780185489,
      9.08973561429442,
      9.089691045469582,
      9.089641555425775,
      9.089592860543062,
      9.089554757173374,
      9.089534066531755,
      9.089529579354963,
      9.089558408520476,
      9.089638555699851,
      9.08972242791718,
      9.08973304557096,
      9.089692707476727,
      9.089637245348857,
      9.089576671233916,
      9.089517855897098,
      9.089465271904121,
      9.08942028827824,
      9.089381123758283,
      9.089350935937086,
      9.089329707576757,
      9.089333462952414,
      9.089378116731046,
      9.089490920054695,
      9.089662260200322,
      9.089740168411744,
      9.089735434536006,
      9.089713343830077,
      9.089698022620865,
      9.089691964663382,
      9.089692525115488,
      9.089694367193452,
      9.089694372813554,
      9.089679117736834,
      9.089654966439397,
      9.089634271416593,
      9.089620410618519,
      9.089600431801413,
      9.089572662096051,
      9.089538822023323,
      9.08950538023354,
      9.089483161662853,
      9.089479715124114,
      9.089493540261524,
      9.089508865531393,
      9.08951401250292,
      9.08950501147475,
      9.089487392758691,
      9.089469517197506,
      9.089463125803697,
      9.089485786092721,
      9.089514799288608,
      9.089515060955511,
      9.08949499300524,
      9.089499954248321,
      9.089593039401972,
      9.089692759266988,
      9.089722862134252,
      9.089729136726621,
      9.089715377773848,
      9.089683449754308,
      9.089645623906689,
      9.089607606984323,
      9.08957218602938,
      9.089547143469652,
      9.089528023298282,
      9.089512463974422,
      9.089498410244278,
      9.089484067176562,
      9.089471044302764,
      9.089455760492992,
      9.089435673336437,
      9.089405126971876,
      9.08936929191787,
      9.089340361590466,
      9.089342870540268,
      9.089392409662567,
      9.089477655031978,
      9.08955730030549,
      9.089649383671672,
      9.0897190521572,
      9.089727292695656,
      9.089702580617871,
      9.089671332910774,
      9.08963643291571,
      9.089603202991654,
      9.089581653422076,
      9.089577149535288,
      9.089569074963594,
      9.089551423724078,
      9.089545300387346,
      9.08958193790387,
      9.089634421234928,
      9.089659082324259,
      9.089650403373877,
      9.089628096633694,
      9.089597989569338,
      9.089570710066303,
      9.08954971786329,
      9.08953939632856,
      9.089533329922707,
      9.08952873169972,
      9.089515551523561,
      9.089499495418794,
      9.089491062731334,
      9.089492303685212,
      9.089495378883221,
      9.089506388975165,
      9.089534525523929,
      9.089590634690822,
      9.089647148121129,
      9.089656155481746,
      9.08962740427121,
      9.089588563998829,
      9.089552570328532,
      9.089523351017824,
      9.08951020187768,
      9.089512821327933,
      9.089536297838599,
      9.089561890914819,
      9.08956631983254,
      9.089548856981908,
      9.089514832042523,
      9.089478017708986,
      9.089447415956034,
      9.089432028284987,
      9.089427372343634,
      9.0894261615612,
      9.089434074885286,
      9.08945444313568,
      9.08950048035351,
      9.08955602055545,
      9.089593453338777,
      9.089588925879985,
      9.089554797063549,
      9.089518045444366,
      9.089495124505826,
      9.08949698127099,
      9.089528634567618,
      9.089560441614843,
      9.089568549781722,
      9.089562144105209,
      9.089552982221424,
      9.089555776757681,
      9.089586148044635,
      9.089628251970282,
      9.089654929870491,
      9.089654673024429,
      9.089639843144289,
      9.089628279546055,
      9.089618667331376,
      9.089586633364114,
      9.089543088843453,
      9.089503472431595,
      9.089465078140455,
      9.089428225218029,
      9.089399079619785,
      9.089392745119074,
      9.089425411234966,
      9.089489654476761,
      9.089545057888438,
      9.089565331395061,
      9.08956491323876,
      9.089556660885421,
      9.089553654510555,
      9.089558630491007,
      9.089563977268002,
      9.089556484207835,
      9.089542145658076,
      9.089525041036282,
      9.089504407933882,
      9.089491094854168,
      9.089518729414955,
      9.089579879178736,
      9.08963766514506,
      9.089646274491312,
      9.089626284664932,
      9.089589659543014,
      9.089540690011729,
      9.089507693404487,
      9.089530557492612,
      9.089582721993956,
      9.08959312559625,
      9.089562602732746,
      9.089523091837108,
      9.089487238813398,
      9.089461081798193,
      9.08945694615968,
      9.089488805169788,
      9.089535465708604,
      9.08956037897534,
      9.08955663957923,
      9.089539330669176,
      9.089533024496715,
      9.089550157857376,
      9.089588147929103,
      9.089603002619882,
      9.089595165099512,
      9.089577553201588,
      9.089544226448663,
      9.089496612418175,
      9.08945414289226,
      9.089439045450751,
      9.08947059667031,
      9.089544555743505,
      9.089606693978931,
      9.0896051101958,
      9.089563601553394,
      9.089516863485493,
      9.08948809396331,
      9.089477394124208,
      9.089472444289562,
      9.08946998249262,
      9.089476802483006,
      9.089490991326347
    ]
  },
  "val": {
    "steps": [
      0,
      1,
      2,
      3,
      4,
      5,
      6,
      7,
      8,
      9,
      10,
      11,
      12,
      13,
      14,
      15,
      16,
      17,
      18,
      19,
      20,
      21,
      22,
      23,
      24,
      25,
      26,
      27,
      28,
      29,
      30,
      31,
      32,
      33,
      34,
      35,
      36,
      37,
      38,
      39,
      40,
      41,
      42,
      43,
      44,
      45,
      46,
      47,
      48,
      49,
      50,
      51,
      52,
      53,
      54,
      55,
      56,
      57,
      58,
      59,
      60,
      61,
      62,
      63,
      64,
      65,
      66,
      67,
      68,
      69,
      70,
      71,
      72,
      73,
      74,
      75,
      76,
      77,
      78,
      79,
      80,
      81,
      82,
      83,
      84,
      85,
      86,
      87,
      88,
      89,
      90,
      91,
      92,
      93,
      94,
      95,
      96,
      97,
      98,
      99,
      100,
      101,
      102,
      103,
      104,
      105,
      106,
      107,
      108,
      109,
      110,
      111,
      112,
      113,
      114,
      115,
      116,
      117,
      118,
      119,
      120,
      121,
      122,
      123,
      124,
      125,
      126,
      127,
      128,
      129,
      130,
      131,
      132,
      133,
      134,
      135,
      136,
      137,
      138,
      139,
      140,
      141,
      142,
      143,
      144,
      145,
      146,
      147,
      148,
      149,
      150,
      151,
      152,
      153,
      154,
      155,
      156,
      157,
      158,
      159,
      160,
      161,
      162,
      163,
      164,
      165,
      166,
      167,
      168,
      169,
      170,
      171,
      172,
      173,
      174,
      175,
      176,
      177,
      178,
      179,
      180,
      181,
      182,
      183,
      184,
      185,
      186,
      187,
      188,
      189,
      190,
      191,
      192,
      193,
      194,
      195,
      196,
      197,
      198,
      199,
      200,
      201,
      202,
      203,
      204,
      205,
      206,
      207,
      208,
      209,
      210,
      211,
      212,
      213,
      214,
      215,
      216,
      217,
      218,
      219,
      220,
      221,
      222,
      223,
      224,
      225,
      226,
      227,
      228,
      229,
      230,
      231,
      232,
      233,
      234,
      235,
      236,
      237,
      238,
      239,
      240,
      241,
      242,
      243,
      244,
      245,
      246,
      247,
      248,
      249,
      250,
      251,
      252,
      253,
      254,
      255,
      256,
      257,
      258,
      259,
      260,
      261,
      262,
      263,
      264,
      265,
      266,
      267,
      268,
      269,
      270,
      271,
      272,
      273,
      274,
      275,
      276,
      277,
      278,
      279,
      280,
      281,
      282,
      283,
      284,
      285,
      286,
      287,
      288,
      289,
      290,
      291,
      292,
      293,
      294,
      295,
      296,
      297,
      298,
      299,
      300,
      301,
      302,
      303,
      304,
      305,
      306,
      307,
      308,
      309,
      310,
      311,
      312,
      313,
      314,
      315,
      316,
      317,
      318,
      319,
      320,
      321,
      322,
      323,
      324,
      325,
      326,
      327,
      328,
      329,
      330,
      331,
      332,
      333,
      334,
      335,
      336,
      337,
      338,
      339,
      340,
      341,
      342,
      343,
      344,
      345,
      346,
      347,
      348,
      349,
      350,
      351,
      352,
      353,
      354,
      355,
      356,
      357,
      358,
      359,
      360,
      361,
      362,
      363,
      364,
      365,
      366,
      367,
      368,
      369,
      370,
      371,
      372,
      373,
      374,
      375,
      376,
      377,
      378,
      379,
      380,
      381,
      382,
      383,
      384,
      385,
      386,
      387,
      388,
      389,
      390,
      391,
      392,
      393,
      394,
      395,
      396,
      397,
      398,
      399
    ],
    "timestamps": [
      "2022-07-04T23:18:10.653025",
      "2022-07-04T23:18:11.644074",
      "2022-07-04T23:18:13.725340",
      "2022-07-04T23:18:14.563401",
      "2022-07-04T23:18:15.314444",
      "2022-07-04T23:18:16.219217",
      "2022-07-04T23:18:17.169847",
      "2022-07-04T23:18:18.099066",
      "2022-07-04T23:18:18.954459",
      "2022-07-04T23:18:19.689209",
      "2022-07-04T23:18:20.423148",
      "2022-07-04T23:18:21.160061",
      "2022-07-04T23:18:21.899038",
      "2022-07-04T23:18:22.635110",
      "2022-07-04T23:18:23.383429",
      "2022-07-04T23:18:24.290474",
      "2022-07-04T23:18:25.003606",
      "2022-07-04T23:18:25.737497",
      "2022-07-04T23:18:26.488403",
      "2022-07-04T23:18:27.244280",
      "2022-07-04T23:18:28.165113",
      "2022-07-04T23:18:28.927807",
      "2022-07-04T23:18:29.643015",
      "2022-07-04T23:18:30.349905",
      "2022-07-04T23:18:31.062746",
      "2022-07-04T23:18:31.845345",
      "2022-07-04T23:18:32.576375",
      "2022-07-04T23:18:33.307467",
      "2022-07-04T23:18:34.101754",
      "2022-07-04T23:18:34.817417",
      "2022-07-04T23:18:35.540879",
      "2022-07-04T23:18:36.257726",
      "2022-07-04T23:18:36.970007",
      "2022-07-04T23:18:37.678739",
      "2022-07-04T23:18:38.391999",
      "2022-07-04T23:18:39.159393",
      "2022-07-04T23:18:39.893421",
      "2022-07-04T23:18:40.615238",
      "2022-07-04T23:18:41.322718",
      "2022-07-04T23:18:42.036748",
      "2022-07-04T23:18:42.746506",
      "2022-07-04T23:18:43.462232",
      "2022-07-04T23:18:44.214815",
      "2022-07-04T23:18:44.998589",
      "2022-07-04T23:18:45.730970",
      "2022-07-04T23:18:46.466116",
      "2022-07-04T23:18:47.199711",
      "2022-07-04T23:18:47.940530",
      "2022-07-04T23:18:48.681032",
      "2022-07-04T23:18:49.438315",
      "2022-07-04T23:18:50.187796",
      "2022-07-04T23:18:50.933518",
      "2022-07-04T23:18:51.674379",
      "2022-07-04T23:18:52.418176",
      "2022-07-04T23:18:53.161191",
      "2022-07-04T23:18:53.907962",
      "2022-07-04T23:18:54.653225",
      "2022-07-04T23:18:55.393412",
      "2022-07-04T23:18:56.136316",
      "2022-07-04T23:18:56.892187",
      "2022-07-04T23:18:57.651345",
      "2022-07-04T23:18:58.401145",
      "2022-07-04T23:18:59.149503",
      "2022-07-04T23:18:59.903389",
      "2022-07-04T23:19:00.646782",
      "2022-07-04T23:19:01.438508",
      "2022-07-04T23:19:02.226045",
      "2022-07-04T23:19:02.973443",
      "2022-07-04T23:19:03.716783",
      "2022-07-04T23:19:04.462440",
      "2022-07-04T23:19:05.209997",
      "2022-07-04T23:19:05.955055",
      "2022-07-04T23:19:06.700601",
      "2022-07-04T23:19:07.505295",
      "2022-07-04T23:19:08.232111",
      "2022-07-04T23:19:08.966832",
      "2022-07-04T23:19:09.699792",
      "2022-07-04T23:19:10.432330",
      "2022-07-04T23:19:11.170008",
      "2022-07-04T23:19:11.906548",
      "2022-07-04T23:19:12.696241",
      "2022-07-04T23:19:13.429923",
      "2022-07-04T23:19:14.161091",
      "2022-07-04T23:19:14.892926",
      "2022-07-04T23:19:15.622563",
      "2022-07-04T23:19:16.392971",
      "2022-07-04T23:19:17.134880",
      "2022-07-04T23:19:17.953267",
      "2022-07-04T23:19:18.698009",
      "2022-07-04T23:19:19.438107",
      "2022-07-04T23:19:20.178804",
      "2022-07-04T23:19:20.919644",
      "2022-07-04T23:19:21.782745",
      "2022-07-04T23:19:22.528152",
      "2022-07-04T23:19:23.288990",
      "2022-07-04T23:19:24.016319",
      "2022-07-04T23:19:24.948947",
      "2022-07-04T23:19:25.678469",
      "2022-07-04T23:19:26.425318",
      "2022-07-04T23:19:27.130496",
      "2022-07-04T23:19:27.864060",
      "2022-07-04T23:19:28.771831",
      "2022-07-04T23:19:29.687771",
      "2022-07-04T23:19:30.452522",
      "2022-07-04T23:19:31.308814",
      "2022-07-04T23:19:32.206535",
      "2022-07-04T23:19:32.946559",
      "2022-07-04T23:19:33.665152",
      "2022-07-04T23:19:34.372958",
      "2022-07-04T23:19:35.080149",
      "2022-07-04T23:19:35.819464",
      "2022-07-04T23:19:36.541001",
      "2022-07-04T23:19:37.336437",
      "2022-07-04T23:19:38.113709",
      "2022-07-04T23:19:38.832350",
      "2022-07-04T23:19:39.579195",
      "2022-07-04T23:19:40.309269",
      "2022-07-04T23:19:41.038839",
      "2022-07-04T23:19:41.770414",
      "2022-07-04T23:19:42.505479",
      "2022-07-04T23:19:43.302185",
      "2022-07-04T23:19:44.049699",
      "2022-07-04T23:19:44.782281",
      "2022-07-04T23:19:45.621751",
      "2022-07-04T23:19:46.323394",
      "2022-07-04T23:19:47.035234",
      "2022-07-04T23:19:47.739040",
      "2022-07-04T23:19:48.504427",
      "2022-07-04T23:19:49.220659",
      "2022-07-04T23:19:49.931106",
      "2022-07-04T23:19:50.637452",
      "2022-07-04T23:19:51.383544",
      "2022-07-04T23:19:52.093412",
      "2022-07-04T23:19:52.797571",
      "2022-07-04T23:19:53.563744",
      "2022-07-04T23:19:54.278317",
      "2022-07-04T23:19:55.030700",
      "2022-07-04T23:19:55.744453",
      "2022-07-04T23:19:56.454455",
      "2022-07-04T23:19:57.190143",
      "2022-07-04T23:19:57.937904",
      "2022-07-04T23:19:58.719978",
      "2022-07-04T23:19:59.454669",
      "2022-07-04T23:20:00.187360",
      "2022-07-04T23:20:00.919210",
      "2022-07-04T23:20:01.654929",
      "2022-07-04T23:20:02.390950",
      "2022-07-04T23:20:03.124409",
      "2022-07-04T23:20:03.889389",
      "2022-07-04T23:20:04.628085",
      "2022-07-04T23:20:05.426778",
      "2022-07-04T23:20:06.202369",
      "2022-07-04T23:20:06.936092",
      "2022-07-04T23:20:07.671672",
      "2022-07-04T23:20:08.411922",
      "2022-07-04T23:20:09.176291",
      "2022-07-04T23:20:09.912359",
      "2022-07-04T23:20:10.644194",
      "2022-07-04T23:20:11.372476",
      "2022-07-04T23:20:12.106747",
      "2022-07-04T23:20:12.817888",
      "2022-07-04T23:20:13.563950",
      "2022-07-04T23:20:14.308136",
      "2022-07-04T23:20:15.191464",
      "2022-07-04T23:20:16.145070",
      "2022-07-04T23:20:17.066388",
      "2022-07-04T23:20:18.038139",
      "2022-07-04T23:20:18.976314",
      "2022-07-04T23:20:19.813082",
      "2022-07-04T23:20:20.518553",
      "2022-07-04T23:20:21.227749",
      "2022-07-04T23:20:21.975285",
      "2022-07-04T23:20:22.687959",
      "2022-07-04T23:20:23.434576",
      "2022-07-04T23:20:24.160815",
      "2022-07-04T23:20:24.880914",
      "2022-07-04T23:20:25.592334",
      "2022-07-04T23:20:26.304668",
      "2022-07-04T23:20:27.011046",
      "2022-07-04T23:20:27.723244",
      "2022-07-04T23:20:28.436206",
      "2022-07-04T23:20:29.151552",
      "2022-07-04T23:20:29.911713",
      "2022-07-04T23:20:30.615967",
      "2022-07-04T23:20:31.325700",
      "2022-07-04T23:20:32.040117",
      "2022-07-04T23:20:32.750190",
      "2022-07-04T23:20:33.533054",
      "2022-07-04T23:20:34.276909",
      "2022-07-04T23:20:35.014910",
      "2022-07-04T23:20:35.750919",
      "2022-07-04T23:20:36.484947",
      "2022-07-04T23:20:37.251918",
      "2022-07-04T23:20:38.003934",
      "2022-07-04T23:20:38.755752",
      "2022-07-04T23:20:39.575701",
      "2022-07-04T23:20:40.285041",
      "2022-07-04T23:20:40.993484",
      "2022-07-04T23:20:41.713615",
      "2022-07-04T23:20:42.462487",
      "2022-07-04T23:20:43.186502",
      "2022-07-04T23:20:43.923051",
      "2022-07-04T23:20:44.672641",
      "2022-07-04T23:20:45.425133",
      "2022-07-04T23:20:46.178516",
      "2022-07-04T23:20:46.926484",
      "2022-07-04T23:20:47.714859",
      "2022-07-04T23:20:48.503865",
      "2022-07-04T23:20:49.262629",
      "2022-07-04T23:20:50.021233",
      "2022-07-04T23:20:50.777118",
      "2022-07-04T23:20:51.541766",
      "2022-07-04T23:20:52.372311",
      "2022-07-04T23:20:53.223717",
      "2022-07-04T23:20:53.984507",
      "2022-07-04T23:20:54.742688",
      "2022-07-04T23:20:55.599875",
      "2022-07-04T23:20:56.355385",
      "2022-07-04T23:20:57.110679",
      "2022-07-04T23:20:57.878681",
      "2022-07-04T23:20:58.634801",
      "2022-07-04T23:20:59.393469",
      "2022-07-04T23:21:00.152673",
      "2022-07-04T23:21:00.908569",
      "2022-07-04T23:21:01.671891",
      "2022-07-04T23:21:02.445631",
      "2022-07-04T23:21:03.403768",
      "2022-07-04T23:21:04.355304",
      "2022-07-04T23:21:05.154794",
      "2022-07-04T23:21:06.008033",
      "2022-07-04T23:21:06.909498",
      "2022-07-04T23:21:07.708527",
      "2022-07-04T23:21:08.466756",
      "2022-07-04T23:21:09.211802",
      "2022-07-04T23:21:09.955293",
      "2022-07-04T23:21:10.699466",
      "2022-07-04T23:21:11.444913",
      "2022-07-04T23:21:12.186977",
      "2022-07-04T23:21:12.947255",
      "2022-07-04T23:21:13.786961",
      "2022-07-04T23:21:14.734690",
      "2022-07-04T23:21:15.495465",
      "2022-07-04T23:21:16.437548",
      "2022-07-04T23:21:17.366573",
      "2022-07-04T23:21:18.317888",
      "2022-07-04T23:21:19.041423",
      "2022-07-04T23:21:19.755368",
      "2022-07-04T23:21:20.500635",
      "2022-07-04T23:21:21.211621",
      "2022-07-04T23:21:21.921846",
      "2022-07-04T23:21:22.631869",
      "2022-07-04T23:21:23.418732",
      "2022-07-04T23:21:24.152416",
      "2022-07-04T23:21:24.950663",
      "2022-07-04T23:21:25.663950",
      "2022-07-04T23:21:26.374178",
      "2022-07-04T23:21:27.082218",
      "2022-07-04T23:21:27.792037",
      "2022-07-04T23:21:28.587859",
      "2022-07-04T23:21:29.296467",
      "2022-07-04T23:21:30.007162",
      "2022-07-04T23:21:30.716076",
      "2022-07-04T23:21:31.423669",
      "2022-07-04T23:21:32.131034",
      "2022-07-04T23:21:32.835163",
      "2022-07-04T23:21:33.602870",
      "2022-07-04T23:21:34.315695",
      "2022-07-04T23:21:35.022214",
      "2022-07-04T23:21:35.733241",
      "2022-07-04T23:21:36.440975",
      "2022-07-04T23:21:37.148547",
      "2022-07-04T23:21:37.857854",
      "2022-07-04T23:21:38.629257",
      "2022-07-04T23:21:39.344153",
      "2022-07-04T23:21:40.056097",
      "2022-07-04T23:21:40.797375",
      "2022-07-04T23:21:41.509862",
      "2022-07-04T23:21:42.218530",
      "2022-07-04T23:21:42.923931",
      "2022-07-04T23:21:43.667466",
      "2022-07-04T23:21:44.405603",
      "2022-07-04T23:21:45.125695",
      "2022-07-04T23:21:45.838428",
      "2022-07-04T23:21:46.548068",
      "2022-07-04T23:21:47.297184",
      "2022-07-04T23:21:48.032056",
      "2022-07-04T23:21:48.780883",
      "2022-07-04T23:21:49.525125",
      "2022-07-04T23:21:50.225412",
      "2022-07-04T23:21:50.936864",
      "2022-07-04T23:21:51.646410",
      "2022-07-04T23:21:52.378241",
      "2022-07-04T23:21:53.316365",
      "2022-07-04T23:21:54.046180",
      "2022-07-04T23:21:54.758996",
      "2022-07-04T23:21:55.527922",
      "2022-07-04T23:21:56.256895",
      "2022-07-04T23:21:56.992033",
      "2022-07-04T23:21:57.723393",
      "2022-07-04T23:21:58.459073",
      "2022-07-04T23:21:59.258157",
      "2022-07-04T23:22:00.084916",
      "2022-07-04T23:22:00.819174",
      "2022-07-04T23:22:01.554725",
      "2022-07-04T23:22:02.286814",
      "2022-07-04T23:22:03.017130",
      "2022-07-04T23:22:03.831487",
      "2022-07-04T23:22:04.699843",
      "2022-07-04T23:22:05.409324",
      "2022-07-04T23:22:06.117770",
      "2022-07-04T23:22:06.824836",
      "2022-07-04T23:22:07.532784",
      "2022-07-04T23:22:08.243415",
      "2022-07-04T23:22:08.957452",
      "2022-07-04T23:22:09.710559",
      "2022-07-04T23:22:10.507387",
      "2022-07-04T23:22:11.422632",
      "2022-07-04T23:22:12.233517",
      "2022-07-04T23:22:13.127676",
      "2022-07-04T23:22:14.072178",
      "2022-07-04T23:22:14.893861",
      "2022-07-04T23:22:15.725339",
      "2022-07-04T23:22:16.664242",
      "2022-07-04T23:22:17.541681",
      "2022-07-04T23:22:18.416502",
      "2022-07-04T23:22:19.214543",
      "2022-07-04T23:22:20.150404",
      "2022-07-04T23:22:21.091638",
      "2022-07-04T23:22:21.880640",
      "2022-07-04T23:22:22.763134",
      "2022-07-04T23:22:23.727313",
      "2022-07-04T23:22:24.606298",
      "2022-07-04T23:22:25.382243",
      "2022-07-04T23:22:26.316129",
      "2022-07-04T23:22:27.226208",
      "2022-07-04T23:22:28.049476",
      "2022-07-04T23:22:28.842900",
      "2022-07-04T23:22:29.550309",
      "2022-07-04T23:22:30.257224",
      "2022-07-04T23:22:31.214130",
      "2022-07-04T23:22:32.061469",
      "2022-07-04T23:22:32.860882",
      "2022-07-04T23:22:33.765656",
      "2022-07-04T23:22:34.675569",
      "2022-07-04T23:22:35.441644",
      "2022-07-04T23:22:36.306684",
      "2022-07-04T23:22:37.188397",
      "2022-07-04T23:22:37.928005",
      "2022-07-04T23:22:38.644169",
      "2022-07-04T23:22:39.353671",
      "2022-07-04T23:22:40.062763",
      "2022-07-04T23:22:40.771291",
      "2022-07-04T23:22:41.504885",
      "2022-07-04T23:22:42.211193",
      "2022-07-04T23:22:42.977108",
      "2022-07-04T23:22:43.690161",
      "2022-07-04T23:22:44.396121",
      "2022-07-04T23:22:45.102934",
      "2022-07-04T23:22:45.812115",
      "2022-07-04T23:22:46.516260",
      "2022-07-04T23:22:47.269444",
      "2022-07-04T23:22:48.123463",
      "2022-07-04T23:22:49.070722",
      "2022-07-04T23:22:50.000668",
      "2022-07-04T23:22:50.733837",
      "2022-07-04T23:22:51.489123",
      "2022-07-04T23:22:52.239826",
      "2022-07-04T23:22:53.020046",
      "2022-07-04T23:22:53.782586",
      "2022-07-04T23:22:54.537085",
      "2022-07-04T23:22:55.289818",
      "2022-07-04T23:22:56.048012",
      "2022-07-04T23:22:56.804398",
      "2022-07-04T23:22:57.580202",
      "2022-07-04T23:22:58.452476",
      "2022-07-04T23:22:59.211804",
      "2022-07-04T23:22:59.965522",
      "2022-07-04T23:23:00.719267",
      "2022-07-04T23:23:01.474197",
      "2022-07-04T23:23:02.229671",
      "2022-07-04T23:23:02.992183",
      "2022-07-04T23:23:03.769432",
      "2022-07-04T23:23:04.525956",
      "2022-07-04T23:23:05.295002",
      "2022-07-04T23:23:06.048213",
      "2022-07-04T23:23:06.827735",
      "2022-07-04T23:23:07.604025",
      "2022-07-04T23:23:08.508881",
      "2022-07-04T23:23:09.600160",
      "2022-07-04T23:23:10.524552",
      "2022-07-04T23:23:11.336098",
      "2022-07-04T23:23:12.120746",
      "2022-07-04T23:23:12.865422",
      "2022-07-04T23:23:13.751423",
      "2022-07-04T23:23:14.689919",
      "2022-07-04T23:23:15.715433",
      "2022-07-04T23:23:16.488258",
      "2022-07-04T23:23:17.229022",
      "2022-07-04T23:23:17.946156",
      "2022-07-04T23:23:18.721420"
    ],
    "values": [
      9.776959832458397,
      9.559043773806968,
      9.338173819516545,
      9.285283230286833,
      9.272289305773008,
      9.195840995117676,
      9.218683879623363,
      9.19285020754865,
      9.199709609167826,
      9.158253616536157,
      9.161725797755986,
      9.173469011147512,
      9.181411204648676,
      9.199836726601756,
      9.165322476265061,
      9.148469419354857,
      9.213045594294766,
      9.197647753822928,
      9.147435073490351,
      9.15700627843713,
      9.155831430257003,
      9.16327127092411,
      9.114272471999618,
      9.14842027890944,
      9.157363407763834,
      9.150562897788507,
      9.152130093288589,
      9.195937339679968,
      9.118896702379233,
      9.159506515506692,
      9.165429937660843,
      9.140000436369018,
      9.13864516234974,
      9.166574634810727,
      9.161705311237345,
      9.140994451864884,
      9.163971732681818,
      9.158765125304997,
      9.164007468080747,
      9.137106427193215,
      9.15481515004779,
      9.148605815058774,
      9.135208774047337,
      9.194467202133994,
      9.140948833996932,
      9.123983426822896,
      9.136968301730235,
      9.158255232956794,
      9.128527812972516,
      9.135004265675995,
      9.144116954751924,
      9.155301530835306,
      9.17439066648005,
      9.141422950849758,
      9.157406247833752,
      9.135381750277338,
      9.126719705065675,
      9.14099241839247,
      9.163186708867428,
      9.113195448850574,
      9.107976298879528,
      9.117562534374827,
      9.11098287773829,
      9.10751989205192,
      9.109215445843596,
      9.107685593586133,
      9.10239628380597,
      9.097121458364478,
      9.108550095032435,
      9.104502125529237,
      9.100350525771926,
      9.099787470613789,
      9.11031976664287,
      9.118674959239991,
      9.108926907687556,
      9.109318108697515,
      9.109282486119307,
      9.10925073294681,
      9.107906474093813,
      9.112971618624835,
      9.103766147624036,
      9.1138103103026,
      9.099970009908969,
      9.10352380215009,
      9.112272304473917,
      9.10417560240955,
      9.108104176939133,
      9.116682500120326,
      9.109788235856836,
      9.099131927892929,
      9.102125507134215,
      9.100208049729726,
      9.10134122618993,
      9.10038422490178,
      9.099388366935635,
      9.101053985365871,
      9.100326549598384,
      9.100257801582284,
      9.10095487213747,
      9.099112168091812,
      9.09666701231883,
      9.100776786175324,
      9.10070342167437,
      9.099174464255414,
      9.099202839730868,
      9.099001232519141,
      9.099069686000442,
      9.099671710393938,
      9.100073383178108,
      9.100594807231499,
      9.098733233540996,
      9.100053623290012,
      9.099988071883438,
      9.098340618127564,
      9.099944299895396,
      9.099549620508423,
      9.09933342736817,
      9.098461584821075,
      9.099822694834844,
      9.097886783394431,
      9.099778740920915,
      9.099098720168474,
      9.102266908907174,
      9.101379060203351,
      9.100716011804538,
      9.1002420923753,
      9.099323444955804,
      9.098761097030534,
      9.098684985901896,
      9.098641930507476,
      9.098291350260546,
      9.097937036634011,
      9.09833834548836,
      9.099736190426647,
      9.099520830703007,
      9.09942170230565,
      9.099156432359628,
      9.099052301245253,
      9.098806960799271,
      9.098626843994369,
      9.098738078449355,
      9.098651883478471,
      9.098363999818169,
      9.09936255970628,
      9.099851506717775,
      9.09976940590635,
      9.099663118566111,
      9.099570722689943,
      9.099624149457076,
      9.099744366276616,
      9.099649285616694,
      9.099537379256203,
      9.099428537712342,
      9.099322897244893,
      9.09922227983233,
      9.099120881121836,
      9.099022518492404,
      9.098926215776043,
      9.09883125243551,
      9.098739846169487,
      9.098653544856203,
      9.098602423658058,
      9.098655309736314,
      9.098720236310793,
      9.098690669851202,
      9.098657628680803,
      9.09873111840314,
      9.098784651882118,
      9.098729451017226,
      9.098661989317248,
      9.098618979317845,
      9.098667143532733,
      9.098785709022224,
      9.098811542912179,
      9.098797293821779,
      9.098766494983069,
      9.098724914169875,
      9.098691254766097,
      9.0987456660944,
      9.09887614428306,
      9.0988739666812,
      9.098841366212588,
      9.09881828782381,
      9.098817950359646,
      9.098829936382625,
      9.098819518245422,
      9.098782982841083,
      9.098733921861431,
      9.098686443894856,
      9.098642581571077,
      9.098613904389431,
      9.098601275783771,
      9.098609557349205,
      9.098661188368027,
      9.098755671488714,
      9.098801616565504,
      9.098779015105542,
      9.098730182856576,
      9.098671441398906,
      9.098616048935927,
      9.098563145241542,
      9.098515369423431,
      9.098474224691978,
      9.098440079045192,
      9.098411482613574,
      9.098399050638571,
      9.098417536767304,
      9.098481811728002,
      9.098637895386975,
      9.098774736677393,
      9.098796453037735,
      9.09877883222777,
      9.098760122902883,
      9.098751501962209,
      9.09875048055273,
      9.098756336838743,
      9.098759874603184,
      9.098753580743598,
      9.098734948346408,
      9.098713237578691,
      9.098698743809527,
      9.098683289339855,
      9.0986607182479,
      9.098631037336846,
      9.098599510698469,
      9.098570488503347,
      9.098558195126083,
      9.098565776661605,
      9.098582576016902,
      9.098593161276945,
      9.098590491128734,
      9.09857724140552,
      9.098557325353358,
      9.098541625537848,
      9.098547832147554,
      9.098577636106198,
      9.098596721362998,
      9.098583581491292,
      9.098570691471005,
      9.098614838609963,
      9.098736571466945,
      9.098793135252082,
      9.098808604930126,
      9.098807281404047,
      9.098782845447868,
      9.098747885163641,
      9.098708317846931,
      9.098671083733489,
      9.09864177252605,
      9.098622194246047,
      9.098604939468327,
      9.098589701206995,
      9.098575073802625,
      9.098561209099023,
      9.098545772097141,
      9.098529414078786,
      9.09850392296173,
      9.098470497623829,
      9.098435433658366,
      9.098416264776768,
      9.098436234680651,
      9.098500937183639,
      9.098576660169421,
      9.098657523773907,
      9.098749261135758,
      9.09878698425811,
      9.098772558770193,
      9.098745279229767,
      9.098716159014469,
      9.098682912639417,
      9.098656891886598,
      9.098646882055677,
      9.09864332003367,
      9.098631603196006,
      9.098616178101349,
      9.098629433132167,
      9.098686020151465,
      9.098728706520655,
      9.09873499335459,
      9.098720422393656,
      9.09869513719962,
      9.098667483154392,
      9.098642159898718,
      9.098624721625406,
      9.098615196271055,
      9.09860870158267,
      9.098596913242844,
      9.098579875091318,
      9.09856335080565,
      9.098560343065506,
      9.098562033063763,
      9.098565955022668,
      9.098581637624916,
      9.098622947666376,
      9.098687128952738,
      9.098723173982362,
      9.098709987497356,
      9.098675569222216,
      9.0986382502183,
      9.098606136950936,
      9.09858534636798,
      9.098577387543765,
      9.098591242367883,
      9.098618932796704,
      9.098635713638856,
      9.098629501871063,
      9.098602543815941,
      9.098564504758638,
      9.098530247597358,
      9.098508420439366,
      9.098498818167014,
      9.098496309742275,
      9.098496336505793,
      9.09850979314223,
      9.098540783388845,
      9.09859191564546,
      9.098641020929577,
      9.098657640859262,
      9.098633990515587,
      9.098599053540712,
      9.098569481929873,
      9.098559614546298,
      9.09857902398153,
      9.098614799287262,
      9.09863445550594,
      9.098634684393105,
      9.098625633115883,
      9.09862035527834,
      9.098637033104307,
      9.098676104075691,
      9.09870978987024,
      9.098723857717719,
      9.098715311391707,
      9.098700891347514,
      9.098694613600308,
      9.098676983231798,
      9.098637359537067,
      9.098596326944847,
      9.098559861754667,
      9.098521077504765,
      9.098486522362764,
      9.098468405589442,
      9.098477435743133,
      9.09852678460333,
      9.098591243533562,
      9.098627045774498,
      9.098633246275257,
      9.098629499013029,
      9.098623446148556,
      9.09862433253754,
      9.098634710134625,
      9.098638077428946,
      9.09862496974444,
      9.098612179888185,
      9.098592841410289,
      9.098573113840581,
      9.098574752043739,
      9.098618905520107,
      9.098687628632126,
      9.098719308466276,
      9.098709833931721,
      9.098683165769652,
      9.098638581062755,
      9.098590036454368,
      9.098579405432758,
      9.098623058369581,
      9.098659282239865,
      9.098643803067288,
      9.098606131877483,
      9.09856883914764,
      9.098538420388074,
      9.09852112120966,
      9.098532859262951,
      9.098575814115055,
      9.098617752247536,
      9.098626407936878,
      9.098612655283075,
      9.09859762612715,
      9.098600711756324,
      9.098632942861528,
      9.098660780312594,
      9.09865953866572,
      9.098647461938423,
      9.098624376395351,
      9.098583555590308,
      9.09853828245142,
      9.098506112146474,
      9.098513270360083,
      9.098571765235715,
      9.09865258213786,
      9.098683987273573,
      9.098660099236387,
      9.098614281508866,
      9.098577125805745,
      9.09855989273675,
      9.09855314029261,
      9.0985497891291,
      9.09854922975081,
      9.098558388778505,
      9.098575076921893
    ]
  }
}