{
  "memory.usage": {
    "steps": [
      0,
      1,
      2,
      3,
      4,
      5,
      6,
      7,
      8,
      9,
      10,
      0,
      1,
      2
    ],
    "timestamps": [
      "2022-09-05T15:22:01.548980",
      "2022-09-05T15:36:12.818111",
      "2022-09-05T15:52:04.221443",
      "2022-09-05T16:08:07.370499",
      "2022-09-05T16:24:55.542759",
      "2022-09-05T16:41:44.121138",
      "2022-09-05T16:57:43.186799",
      "2022-09-05T17:14:07.064988",
      "2022-09-05T17:30:34.139769",
      "2022-09-05T17:46:55.301293",
      "2022-09-05T18:03:10.656764",
      "2022-09-05T18:20:13.296889",
      "2022-09-05T18:37:00.680272",
      "2022-09-05T18:52:25.344581"
    ],
    "values": [
      627.460096,
      627.460096,
      627.460096,
      627.460096,
      627.460096,
      627.460096,
      627.460096,
      627.460096,
      627.460096,
      627.460096,
      627.460096,
      627.790848,
      627.790848,
      627.790848
    ]
  },
  "train": {
    "steps": [
      0,
      1,
      2,
      3,
      4,
      5,
      6,
      7,
      8,
      9,
      10,
      11,
      12,
      13,
      14,
      15,
      16,
      17,
      18,
      19,
      20,
      21,
      22,
      23,
      24,
      25,
      26,
      27,
      28,
      29,
      30,
      31,
      32,
      33,
      34,
      35,
      36,
      37,
      38,
      39,
      40,
      41,
      42,
      43,
      44,
      45,
      46,
      47,
      48,
      49,
      50,
      51,
      52,
      53,
      54,
      55,
      56,
      57,
      58,
      59,
      60,
      61,
      62,
      63,
      64,
      65,
      66,
      67,
      68,
      69,
      70,
      71,
      72,
      73,
      74,
      75,
      76,
      77,
      78,
      79,
      80,
      81,
      82,
      83,
      84,
      85,
      86,
      87,
      88,
      89,
      90,
      91,
      92,
      93,
      94,
      95,
      96,
      97,
      98,
      99,
      0,
      1,
      2,
      3,
      4,
      5,
      6,
      7,
      8,
      9,
      10,
      11,
      12,
      13,
      14,
      15,
      16,
      17,
      18,
      19,
      20,
      21,
      22,
      23,
      24,
      25,
      26,
      27,
      28,
      29
    ],
    "timestamps": [
      "2022-09-05T15:22:01.547734",
      "2022-09-05T15:23:36.334116",
      "2022-09-05T15:25:08.920742",
      "2022-09-05T15:26:44.879961",
      "2022-09-05T15:28:19.339421",
      "2022-09-05T15:29:52.589891",
      "2022-09-05T15:31:26.945152",
      "2022-09-05T15:33:02.472989",
      "2022-09-05T15:34:37.769442",
      "2022-09-05T15:36:12.817308",
      "2022-09-05T15:37:48.936527",
      "2022-09-05T15:39:26.050645",
      "2022-09-05T15:41:00.613960",
      "2022-09-05T15:42:34.644105",
      "2022-09-05T15:44:10.362393",
      "2022-09-05T15:45:47.389745",
      "2022-09-05T15:47:21.812322",
      "2022-09-05T15:48:55.892618",
      "2022-09-05T15:50:29.930809",
      "2022-09-05T15:52:04.220770",
      "2022-09-05T15:53:39.079920",
      "2022-09-05T15:55:13.177767",
      "2022-09-05T15:56:47.550575",
      "2022-09-05T15:58:21.696004",
      "2022-09-05T15:59:56.710653",
      "2022-09-05T16:01:31.151770",
      "2022-09-05T16:03:02.655802",
      "2022-09-05T16:04:43.933664",
      "2022-09-05T16:06:25.595732",
      "2022-09-05T16:08:07.369077",
      "2022-09-05T16:09:48.006100",
      "2022-09-05T16:11:29.088584",
      "2022-09-05T16:13:09.384340",
      "2022-09-05T16:14:50.782710",
      "2022-09-05T16:16:31.711060",
      "2022-09-05T16:18:12.505490",
      "2022-09-05T16:19:53.306561",
      "2022-09-05T16:21:34.386583",
      "2022-09-05T16:23:15.117928",
      "2022-09-05T16:24:55.540955",
      "2022-09-05T16:26:35.918822",
      "2022-09-05T16:28:16.959421",
      "2022-09-05T16:29:58.099976",
      "2022-09-05T16:31:39.042548",
      "2022-09-05T16:33:19.807114",
      "2022-09-05T16:35:01.078422",
      "2022-09-05T16:36:42.385254",
      "2022-09-05T16:38:23.106744",
      "2022-09-05T16:40:04.033306",
      "2022-09-05T16:41:44.119726",
      "2022-09-05T16:43:25.017403",
      "2022-09-05T16:45:05.839229",
      "2022-09-05T16:46:47.000791",
      "2022-09-05T16:48:18.953428",
      "2022-09-05T16:49:44.986271",
      "2022-09-05T16:51:10.971518",
      "2022-09-05T16:52:39.478057",
      "2022-09-05T16:54:21.198297",
      "2022-09-05T16:56:01.663889",
      "2022-09-05T16:57:43.186019",
      "2022-09-05T16:59:22.368968",
      "2022-09-05T17:01:03.125495",
      "2022-09-05T17:02:39.378050",
      "2022-09-05T17:04:15.382554",
      "2022-09-05T17:05:53.348670",
      "2022-09-05T17:07:29.981571",
      "2022-09-05T17:09:08.838157",
      "2022-09-05T17:10:49.017396",
      "2022-09-05T17:12:28.977458",
      "2022-09-05T17:14:07.063735",
      "2022-09-05T17:15:45.469685",
      "2022-09-05T17:17:24.469175",
      "2022-09-05T17:19:03.416924",
      "2022-09-05T17:20:44.668319",
      "2022-09-05T17:22:24.022091",
      "2022-09-05T17:24:01.611969",
      "2022-09-05T17:25:41.093796",
      "2022-09-05T17:27:16.247948",
      "2022-09-05T17:28:54.128267",
      "2022-09-05T17:30:34.138606",
      "2022-09-05T17:32:11.793842",
      "2022-09-05T17:33:47.669769",
      "2022-09-05T17:35:22.450117",
      "2022-09-05T17:36:59.078067",
      "2022-09-05T17:38:39.550552",
      "2022-09-05T17:40:19.594543",
      "2022-09-05T17:41:59.328531",
      "2022-09-05T17:43:38.448279",
      "2022-09-05T17:45:18.830986",
      "2022-09-05T17:46:55.300459",
      "2022-09-05T17:48:30.217417",
      "2022-09-05T17:50:04.392627",
      "2022-09-05T17:51:39.966709",
      "2022-09-05T17:53:15.499541",
      "2022-09-05T17:54:50.586315",
      "2022-09-05T17:56:31.021321",
      "2022-09-05T17:58:11.221128",
      "2022-09-05T17:59:50.562255",
      "2022-09-05T18:01:30.726330",
      "2022-09-05T18:03:10.655775",
      "2022-09-05T18:05:35.545176",
      "2022-09-05T18:07:03.138580",
      "2022-09-05T18:08:44.401941",
      "2022-09-05T18:10:25.687667",
      "2022-09-05T18:12:02.913423",
      "2022-09-05T18:13:40.052309",
      "2022-09-05T18:15:17.653997",
      "2022-09-05T18:16:55.565824",
      "2022-09-05T18:18:34.352438",
      "2022-09-05T18:20:13.295502",
      "2022-09-05T18:21:50.530195",
      "2022-09-05T18:23:31.095851",
      "2022-09-05T18:25:12.519462",
      "2022-09-05T18:26:52.357988",
      "2022-09-05T18:28:31.685315",
      "2022-09-05T18:30:15.797843",
      "2022-09-05T18:31:59.214889",
      "2022-09-05T18:33:39.382333",
      "2022-09-05T18:35:19.727887",
      "2022-09-05T18:37:00.679494",
      "2022-09-05T18:38:40.767105",
      "2022-09-05T18:40:22.894805",
      "2022-09-05T18:42:09.010369",
      "2022-09-05T18:43:47.922590",
      "2022-09-05T18:45:16.588307",
      "2022-09-05T18:46:42.431555",
      "2022-09-05T18:48:08.470183",
      "2022-09-05T18:49:33.812615",
      "2022-09-05T18:50:59.315073",
      "2022-09-05T18:52:25.343967"
    ],
    "values": [
      12.467598749955243,
      10.900031513261744,
      10.464591160341694,
      10.271532566047336,
      10.180793520333413,
      10.173072496160078,
      10.136027840918493,
      10.129125128689031,
      10.11652059304831,
      10.109604683722464,
      10.11057687242392,
      10.092305516093758,
      10.114811981929849,
      10.092278600953602,
      10.115246980518746,
      10.09272674041776,
      10.105293647106615,
      10.080518962476907,
      10.096874946726945,
      10.090238386633468,
      10.077996204228098,
      10.071230320173589,
      10.06842755438999,
      10.060677821846436,
      10.079435322571365,
      10.067502834819756,
      10.048879648722194,
      10.05795250851922,
      10.077421709720326,
      10.050146469377268,
      10.058189629946995,
      10.05717770638372,
      10.051664687543806,
      10.048348541966996,
      10.050600957600597,
      10.039029301756571,
      10.03389856261528,
      10.050042153907231,
      10.04240665777052,
      10.01856652225541,
      10.039162617597363,
      10.029494054411963,
      10.029488269022456,
      10.024660922798505,
      10.029264525488314,
      10.026877770093801,
      10.027011669411028,
      10.00815834258472,
      10.01594125248514,
      9.990898202478583,
      10.009036667306411,
      10.005229986778547,
      10.022375663705379,
      10.012098241823438,
      10.024241177352794,
      10.025233453046498,
      10.00354078419477,
      10.011395143403082,
      10.008730801976558,
      10.002346780825539,
      10.009029135728788,
      9.910961622222798,
      9.89503572523822,
      9.896695991316301,
      9.893754652480313,
      9.8963003566159,
      9.890946586196556,
      9.892534555424433,
      9.89672720759483,
      9.891865685684415,
      9.89144682106394,
      9.893676218877623,
      9.891614284781744,
      9.88659179828265,
      9.895028086157843,
      9.887221895266782,
      9.889032752008724,
      9.891153930796186,
      9.889899419872357,
      9.887324123406511,
      9.888000681734464,
      9.884396783406855,
      9.88967787782162,
      9.882710929864917,
      9.882318044975653,
      9.88914612861008,
      9.887867402709139,
      9.890436270726681,
      9.886491786421898,
      9.881212773742398,
      9.890217189913812,
      9.892009431422945,
      9.882056355468558,
      9.88518246532408,
      9.886718278502768,
      9.88005755044878,
      9.88344308001475,
      9.884719829197472,
      9.883156715483672,
      9.879607951112241,
      9.881092543878644,
      9.883997742580803,
      9.881319234086721,
      9.892528871261247,
      9.87937739642323,
      9.882110287531155,
      9.877273909425726,
      9.883789863852707,
      9.882620243230091,
      9.883809462839759,
      9.8826073412771,
      9.883231878812193,
      9.879698895656283,
      9.88225319516132,
      9.878215608850152,
      9.880453366778465,
      9.882126623803234,
      9.881245272860516,
      9.868520946268841,
      9.863749510466775,
      9.865136712134543,
      9.867987119388964,
      9.863051070078985,
      9.862890742440024,
      9.866197921439403,
      9.863199623656742,
      9.86249169006439,
      9.865254668793936,
      9.861218386607355,
      9.866408455422372
    ]
  },
  "val": {
    "steps": [
      0,
      1,
      2,
      3,
      4,
      5,
      6,
      7,
      8,
      9,
      10,
      11,
      12,
      13,
      14,
      15,
      16,
      17,
      18,
      19,
      20,
      21,
      22,
      23,
      24,
      25,
      26,
      27,
      28,
      29,
      30,
      31,
      32,
      33,
      34,
      35,
      36,
      37,
      38,
      39,
      40,
      41,
      42,
      43,
      44,
      45,
      46,
      47,
      48,
      49,
      50,
      51,
      52,
      53,
      54,
      55,
      56,
      57,
      58,
      59,
      60,
      61,
      62,
      63,
      64,
      65,
      66,
      67,
      68,
      69,
      70,
      71,
      72,
      73,
      74,
      75,
      76,
      77,
      78,
      79,
      80,
      81,
      82,
      83,
      84,
      85,
      86,
      87,
      88,
      89,
      90,
      91,
      92,
      93,
      94,
      95,
      96,
      97,
      98,
      99,
      0,
      1,
      2,
      3,
      4,
      5,
      6,
      7,
      8,
      9,
      10,
      11,
      12,
      13,
      14,
      15,
      16,
      17,
      18,
      19,
      20,
      21,
      22,
      23,
      24,
      25,
      26,
      27,
      28,
      29
    ],
    "timestamps": [
      "2022-09-05T15:22:15.171396",
      "2022-09-05T15:23:50.778246",
      "2022-09-05T15:25:23.603012",
      "2022-09-05T15:26:59.848157",
      "2022-09-05T15:28:34.943500",
      "2022-09-05T15:30:07.810291",
      "2022-09-05T15:31:42.462131",
      "2022-09-05T15:33:17.836125",
      "2022-09-05T15:34:53.769079",
      "2022-09-05T15:36:27.978892",
      "2022-09-05T15:38:04.968361",
      "2022-09-05T15:39:41.613065",
      "2022-09-05T15:41:15.900421",
      "2022-09-05T15:42:50.177202",
      "2022-09-05T15:44:26.032271",
      "2022-09-05T15:46:02.632567",
      "2022-09-05T15:47:37.235668",
      "2022-09-05T15:49:11.247037",
      "2022-09-05T15:50:45.299450",
      "2022-09-05T15:52:20.066951",
      "2022-09-05T15:53:54.612991",
      "2022-09-05T15:55:28.541207",
      "2022-09-05T15:57:02.754008",
      "2022-09-05T15:58:37.350990",
      "2022-09-05T16:00:12.161312",
      "2022-09-05T16:01:47.009740",
      "2022-09-05T16:03:18.805125",
      "2022-09-05T16:05:01.591227",
      "2022-09-05T16:06:42.559368",
      "2022-09-05T16:08:24.119203",
      "2022-09-05T16:10:04.915660",
      "2022-09-05T16:11:46.081847",
      "2022-09-05T16:13:26.641211",
      "2022-09-05T16:15:07.743864",
      "2022-09-05T16:16:48.669399",
      "2022-09-05T16:18:29.262492",
      "2022-09-05T16:20:10.348099",
      "2022-09-05T16:21:51.475329",
      "2022-09-05T16:23:31.722599",
      "2022-09-05T16:25:12.505431",
      "2022-09-05T16:26:53.143702",
      "2022-09-05T16:28:33.786808",
      "2022-09-05T16:30:14.975861",
      "2022-09-05T16:31:56.051802",
      "2022-09-05T16:33:36.923887",
      "2022-09-05T16:35:18.005317",
      "2022-09-05T16:36:59.496800",
      "2022-09-05T16:38:40.336500",
      "2022-09-05T16:40:20.642904",
      "2022-09-05T16:42:00.899849",
      "2022-09-05T16:43:41.933975",
      "2022-09-05T16:45:23.122547",
      "2022-09-05T16:47:03.780734",
      "2022-09-05T16:48:32.215178",
      "2022-09-05T16:49:58.087052",
      "2022-09-05T16:51:24.293075",
      "2022-09-05T16:52:56.036816",
      "2022-09-05T16:54:37.940764",
      "2022-09-05T16:56:18.577979",
      "2022-09-05T16:58:00.051180",
      "2022-09-05T16:59:38.296135",
      "2022-09-05T17:01:19.242810",
      "2022-09-05T17:02:54.896887",
      "2022-09-05T17:04:31.341413",
      "2022-09-05T17:06:09.198944",
      "2022-09-05T17:07:46.646763",
      "2022-09-05T17:09:25.368605",
      "2022-09-05T17:11:05.565102",
      "2022-09-05T17:12:45.223244",
      "2022-09-05T17:14:22.512142",
      "2022-09-05T17:16:01.822197",
      "2022-09-05T17:17:41.272459",
      "2022-09-05T17:19:20.418918",
      "2022-09-05T17:21:01.603475",
      "2022-09-05T17:22:39.775706",
      "2022-09-05T17:24:18.697903",
      "2022-09-05T17:25:56.284848",
      "2022-09-05T17:27:32.827419",
      "2022-09-05T17:29:10.821441",
      "2022-09-05T17:30:50.691327",
      "2022-09-05T17:32:26.984859",
      "2022-09-05T17:34:02.921591",
      "2022-09-05T17:35:38.115427",
      "2022-09-05T17:37:16.206047",
      "2022-09-05T17:38:56.058661",
      "2022-09-05T17:40:36.371142",
      "2022-09-05T17:42:15.383937",
      "2022-09-05T17:43:55.336504",
      "2022-09-05T17:45:35.303403",
      "2022-09-05T17:47:10.691335",
      "2022-09-05T17:48:45.315847",
      "2022-09-05T17:50:19.766366",
      "2022-09-05T17:51:55.562299",
      "2022-09-05T17:53:30.765248",
      "2022-09-05T17:55:07.260512",
      "2022-09-05T17:56:48.090068",
      "2022-09-05T17:58:27.661731",
      "2022-09-05T18:00:07.080371",
      "2022-09-05T18:01:47.113247",
      "2022-09-05T18:03:27.390789",
      "2022-09-05T18:05:48.755605",
      "2022-09-05T18:07:20.511614",
      "2022-09-05T18:09:00.714089",
      "2022-09-05T18:10:41.035033",
      "2022-09-05T18:12:18.973059",
      "2022-09-05T18:13:56.483508",
      "2022-09-05T18:15:33.299403",
      "2022-09-05T18:17:11.333543",
      "2022-09-05T18:18:49.889548",
      "2022-09-05T18:20:28.938760",
      "2022-09-05T18:22:07.193869",
      "2022-09-05T18:23:48.116240",
      "2022-09-05T18:25:29.448443",
      "2022-09-05T18:27:08.917234",
      "2022-09-05T18:28:47.184244",
      "2022-09-05T18:30:33.151176",
      "2022-09-05T18:32:15.893041",
      "2022-09-05T18:33:55.944315",
      "2022-09-05T18:35:36.840705",
      "2022-09-05T18:37:17.248190",
      "2022-09-05T18:38:57.499060",
      "2022-09-05T18:40:41.158174",
      "2022-09-05T18:42:26.970461",
      "2022-09-05T18:44:01.480158",
      "2022-09-05T18:45:29.892355",
      "2022-09-05T18:46:55.702018",
      "2022-09-05T18:48:21.323177",
      "2022-09-05T18:49:46.802803",
      "2022-09-05T18:51:12.364434",
      "2022-09-05T18:52:38.294057"
    ],
    "values": [
      11.153279792641552,
      10.72217678437809,
      10.398743977698766,
      10.241247381581358,
      10.217259066949516,
      10.157596935357514,
      10.132203752804607,
      10.127885789991304,
      10.101400869159441,
      10.120320499517817,
      10.096418971682024,
      10.083379078976632,
      10.16704272015164,
      10.140146410507697,
      10.168397374617701,
      10.082444063627413,
      10.105854112196829,
      10.14291330504202,
      10.121092168135817,
      10.119938039084799,
      10.09748235432841,
      10.094958952720543,
      10.053720679788485,
      10.093528792923303,
      10.117347014663302,
      10.071741088885231,
      10.12458035462293,
      10.065584682372723,
      10.080051557728346,
      10.079149827630832,
      10.073091011610607,
      10.098690490339203,
      10.05377805135266,
      10.064247857657081,
      10.094787886592261,
      10.076258953047438,
      10.1055519837242,
      10.03569564798247,
      10.031530422081909,
      10.043909260980495,
      10.036349398920779,
      10.026654833889898,
      10.096337999671633,
      10.06578420235291,
      10.028182373346858,
      10.02849260194438,
      10.11747314410084,
      9.97601810288868,
      10.104811316324795,
      10.030288667380454,
      10.036816765693157,
      10.015104276055816,
      10.08803907305803,
      10.003427202750792,
      10.026222678581666,
      10.007316411169052,
      10.079457543907044,
      10.052936759197273,
      10.00374903761562,
      10.004311176399154,
      10.017308701202456,
      9.94354682786422,
      9.93161157080857,
      9.941058516665503,
      9.93826187308099,
      9.933258638770706,
      9.934832882005237,
      9.9398455709832,
      9.927427383420794,
      9.922476107353798,
      9.939464521133063,
      9.92884643247071,
      9.934530001532318,
      9.923328397656753,
      9.93116294487232,
      9.937044142529949,
      9.931421072059644,
      9.920454815556482,
      9.932467877818738,
      9.920560804598464,
      9.924480374452862,
      9.923816424523833,
      9.940932338333381,
      9.92350726070778,
      9.928026122060658,
      9.931516621705445,
      9.939268941320108,
      9.932792833905811,
      9.925792490588758,
      9.926573178750973,
      9.936083201552977,
      9.926027801131417,
      9.926433793905728,
      9.929496738504085,
      9.920649135457335,
      9.930974620967095,
      9.918853141012418,
      9.922290681251404,
      9.921845602438934,
      9.91786262615237,
      9.921732398884247,
      9.927971155755268,
      9.920812761995206,
      9.92787347270248,
      9.927201533152392,
      9.917054854668718,
      9.909556356965659,
      9.911345105511897,
      9.923730410679934,
      9.916231541336309,
      9.924776749163273,
      9.92585872431836,
      9.922071770732844,
      9.918574822570722,
      9.923882906689114,
      9.935363940539412,
      9.92371351370484,
      9.90925789857519,
      9.905003831725487,
      9.908683491883227,
      9.90925476217559,
      9.914585088204658,
      9.909913198242316,
      9.90996423849942,
      9.905829939582475,
      9.909937654233437,
      9.906531248820913,
      9.90312598363886,
      9.912078377330461,
      9.90484691356382
    ]
  }
}