INFO - residual_nf - Running command 'run'
INFO - residual_nf - Started run with ID "5"
[CONFIG] {'bn': 'mehra-real', 'structure': 'faithful', 'coeff': 0.99, 'n_power_iterations': 5, 'num_blocks': 11, 'hidden_dims': [100], 'activation': 'lipswish', 'grad_in_forward': True, 'batch_size': 100, 'num_train_samples': 10000, 'num_val_samples': 5000, 'num_epochs': 300, 'num_train_batches': 100, 'num_val_batches': 50, 'lr': 0.01, 'seed': 4, 'patience': 20, 'double': True, 'run': 1, 'checkpoint_n': 10, 'load_from_checkpoint': False, 'ex_name': 'residual_nf_density_estimation', 'sub_folder': 'faithful_99_lipswish_11_[100]', 'path': './experiment_logs/residual_nf_density_estimation/mehra-real/faithful_99_lipswish_11_[100]', 'bt_config': {'depth': 5, 'seed': 4}}
[DEVICE] cpu
[LOADING DATA] Mehra
[ENCODED STRUCTURE] Using faithful BN structure.
  0%|          | 0/300 [00:00<?, ?it/s]Train NLL: 12.199, Val NLL: 11.760:   0%|          | 1/300 [00:02<12:52,  2.58s/it]Train NLL: 11.676, Val NLL: 11.651:   1%|          | 2/300 [00:06<16:29,  3.32s/it]Train NLL: 11.529, Val NLL: 11.521:   1%|          | 3/300 [00:08<13:05,  2.65s/it]Train NLL: 11.456, Val NLL: 11.488:   1%|▏         | 4/300 [00:10<11:53,  2.41s/it]Train NLL: 11.394, Val NLL: 11.415:   2%|▏         | 5/300 [00:12<11:01,  2.24s/it]Train NLL: 11.386, Val NLL: 11.398:   2%|▏         | 6/300 [00:14<11:04,  2.26s/it]Train NLL: 11.335, Val NLL: 11.336:   2%|▏         | 7/300 [00:16<10:19,  2.12s/it]Train NLL: 11.296, Val NLL: 11.307:   3%|▎         | 8/300 [00:18<09:58,  2.05s/it]Train NLL: 11.243, Val NLL: 11.331:   3%|▎         | 9/300 [00:20<09:38,  1.99s/it]Train NLL: 11.215, Val NLL: 11.256:   3%|▎         | 10/300 [00:22<09:50,  2.04s/it]Train NLL: 11.189, Val NLL: 11.312:   4%|▎         | 11/300 [00:24<10:21,  2.15s/it]Train NLL: 11.206, Val NLL: 11.273:   4%|▍         | 12/300 [00:26<10:09,  2.12s/it]Train NLL: 11.158, Val NLL: 11.270:   4%|▍         | 13/300 [00:28<10:07,  2.12s/it]Train NLL: 11.174, Val NLL: 11.294:   5%|▍         | 14/300 [00:30<09:55,  2.08s/it]Train NLL: 11.147, Val NLL: 11.234:   5%|▌         | 15/300 [00:33<10:28,  2.21s/it]Train NLL: 11.154, Val NLL: 11.243:   5%|▌         | 16/300 [00:35<09:58,  2.11s/it]Train NLL: 11.135, Val NLL: 11.251:   6%|▌         | 17/300 [00:37<09:34,  2.03s/it]Train NLL: 11.148, Val NLL: 11.198:   6%|▌         | 18/300 [00:38<09:21,  1.99s/it]Train NLL: 11.120, Val NLL: 11.248:   6%|▋         | 19/300 [00:40<09:19,  1.99s/it]Train NLL: 11.121, Val NLL: 11.199:   7%|▋         | 20/300 [00:43<09:37,  2.06s/it]Train NLL: 11.098, Val NLL: 11.200:   7%|▋         | 21/300 [00:45<10:23,  2.23s/it]Train NLL: 11.127, Val NLL: 11.261:   7%|▋         | 22/300 [00:47<10:15,  2.21s/it]Train NLL: 11.106, Val NLL: 11.192:   8%|▊         | 23/300 [00:50<10:05,  2.18s/it]Train NLL: 11.111, Val NLL: 11.217:   8%|▊         | 24/300 [00:52<09:39,  2.10s/it]Train NLL: 11.098, Val NLL: 11.195:   8%|▊         | 25/300 [00:54<09:40,  2.11s/it]Train NLL: 11.088, Val NLL: 11.188:   9%|▊         | 26/300 [00:56<09:29,  2.08s/it]Train NLL: 11.110, Val NLL: 11.217:   9%|▉         | 27/300 [00:58<09:26,  2.08s/it]Train NLL: 11.084, Val NLL: 11.228:   9%|▉         | 28/300 [01:00<09:15,  2.04s/it]Train NLL: 11.108, Val NLL: 11.172:  10%|▉         | 29/300 [01:02<09:05,  2.01s/it]Train NLL: 11.075, Val NLL: 11.182:  10%|█         | 30/300 [01:04<09:09,  2.03s/it]Train NLL: 11.065, Val NLL: 11.152:  10%|█         | 31/300 [01:06<08:49,  1.97s/it]Train NLL: 11.060, Val NLL: 11.152:  11%|█         | 32/300 [01:08<09:17,  2.08s/it]Train NLL: 11.058, Val NLL: 11.194:  11%|█         | 33/300 [01:10<09:15,  2.08s/it]Train NLL: 11.084, Val NLL: 11.245:  11%|█▏        | 34/300 [01:12<08:50,  2.00s/it]Train NLL: 11.065, Val NLL: 11.161:  12%|█▏        | 35/300 [01:14<09:04,  2.05s/it]Train NLL: 11.063, Val NLL: 11.191:  12%|█▏        | 36/300 [01:16<08:56,  2.03s/it]Train NLL: 11.069, Val NLL: 11.147:  12%|█▏        | 37/300 [01:18<08:37,  1.97s/it]Train NLL: 11.035, Val NLL: 11.170:  13%|█▎        | 38/300 [01:20<08:40,  1.99s/it]Train NLL: 11.051, Val NLL: 11.149:  13%|█▎        | 39/300 [01:22<08:53,  2.05s/it]Train NLL: 11.044, Val NLL: 11.150:  13%|█▎        | 40/300 [01:24<08:52,  2.05s/it]Train NLL: 11.050, Val NLL: 11.147:  14%|█▎        | 41/300 [01:27<09:35,  2.22s/it]Train NLL: 11.050, Val NLL: 11.146:  14%|█▍        | 42/300 [01:29<09:20,  2.17s/it]Train NLL: 11.048, Val NLL: 11.168:  14%|█▍        | 43/300 [01:31<09:08,  2.13s/it]Train NLL: 11.050, Val NLL: 11.174:  15%|█▍        | 44/300 [01:33<08:40,  2.03s/it]Train NLL: 11.032, Val NLL: 11.108:  15%|█▌        | 45/300 [01:35<08:39,  2.04s/it]Train NLL: 11.037, Val NLL: 11.158:  15%|█▌        | 46/300 [01:37<08:31,  2.02s/it]Train NLL: 11.022, Val NLL: 11.157:  16%|█▌        | 47/300 [01:39<09:15,  2.19s/it]Train NLL: 11.032, Val NLL: 11.155:  16%|█▌        | 48/300 [01:42<09:26,  2.25s/it]Train NLL: 11.018, Val NLL: 11.138:  16%|█▋        | 49/300 [01:43<08:59,  2.15s/it]Train NLL: 11.037, Val NLL: 11.126:  17%|█▋        | 50/300 [01:46<08:56,  2.15s/it]Train NLL: 11.032, Val NLL: 11.147:  17%|█▋        | 51/300 [01:48<09:18,  2.24s/it]Train NLL: 11.024, Val NLL: 11.176:  17%|█▋        | 52/300 [01:50<09:19,  2.26s/it]Train NLL: 11.035, Val NLL: 11.166:  18%|█▊        | 53/300 [01:53<09:45,  2.37s/it]Train NLL: 11.026, Val NLL: 11.138:  18%|█▊        | 54/300 [01:55<09:03,  2.21s/it]Train NLL: 11.029, Val NLL: 11.145:  18%|█▊        | 55/300 [01:57<08:50,  2.17s/it]Train NLL: 11.031, Val NLL: 11.125:  19%|█▊        | 56/300 [01:59<08:30,  2.09s/it]Train NLL: 11.002, Val NLL: 11.132:  19%|█▉        | 57/300 [02:01<08:21,  2.07s/it]Train NLL: 11.043, Val NLL: 11.139:  19%|█▉        | 58/300 [02:03<08:04,  2.00s/it]Train NLL: 11.013, Val NLL: 11.149:  20%|█▉        | 59/300 [02:05<07:51,  1.96s/it]Train NLL: 11.031, Val NLL: 11.142:  20%|██        | 60/300 [02:07<07:54,  1.98s/it]Train NLL: 11.047, Val NLL: 11.191:  20%|██        | 61/300 [02:09<07:55,  1.99s/it]Train NLL: 11.122, Val NLL: 11.224:  21%|██        | 62/300 [02:10<07:44,  1.95s/it]Train NLL: 11.053, Val NLL: 11.151:  21%|██        | 63/300 [02:13<08:19,  2.11s/it]Train NLL: 11.012, Val NLL: 11.111:  21%|██▏       | 64/300 [02:16<08:58,  2.28s/it]Train NLL: 11.007, Val NLL: 11.188:  22%|██▏       | 65/300 [02:17<08:24,  2.15s/it]Train NLL: 11.002, Val NLL: 11.133:  22%|██▏       | 66/300 [02:19<07:59,  2.05s/it]Train NLL: 10.996, Val NLL: 11.154:  22%|██▏       | 67/300 [02:21<08:00,  2.06s/it]Train NLL: 10.997, Val NLL: 11.153:  23%|██▎       | 68/300 [02:23<08:04,  2.09s/it]Train NLL: 10.994, Val NLL: 11.137:  23%|██▎       | 69/300 [02:25<07:42,  2.00s/it]Train NLL: 10.983, Val NLL: 11.120:  23%|██▎       | 70/300 [02:27<07:35,  1.98s/it]Train NLL: 10.994, Val NLL: 11.114:  24%|██▎       | 71/300 [02:29<07:43,  2.02s/it]Train NLL: 11.017, Val NLL: 11.135:  24%|██▍       | 72/300 [02:32<08:02,  2.11s/it]Train NLL: 10.997, Val NLL: 11.105:  24%|██▍       | 73/300 [02:34<08:28,  2.24s/it]Train NLL: 10.988, Val NLL: 11.105:  25%|██▍       | 74/300 [02:37<08:39,  2.30s/it]Train NLL: 10.988, Val NLL: 11.156:  25%|██▌       | 75/300 [02:39<08:48,  2.35s/it]Train NLL: 10.993, Val NLL: 11.106:  25%|██▌       | 76/300 [02:41<08:10,  2.19s/it]Train NLL: 10.983, Val NLL: 11.113:  26%|██▌       | 77/300 [02:43<07:43,  2.08s/it]Train NLL: 10.996, Val NLL: 11.109:  26%|██▌       | 78/300 [02:45<08:21,  2.26s/it]Train NLL: 10.983, Val NLL: 11.123:  26%|██▋       | 79/300 [02:48<08:19,  2.26s/it]Train NLL: 11.017, Val NLL: 11.133:  27%|██▋       | 80/300 [02:50<07:58,  2.17s/it]Train NLL: 10.994, Val NLL: 11.118:  27%|██▋       | 81/300 [02:52<07:38,  2.09s/it]Train NLL: 11.007, Val NLL: 11.091:  27%|██▋       | 82/300 [02:54<07:52,  2.17s/it]Train NLL: 10.975, Val NLL: 11.114:  28%|██▊       | 83/300 [02:56<07:27,  2.06s/it]Train NLL: 10.975, Val NLL: 11.089:  28%|██▊       | 84/300 [02:58<07:30,  2.09s/it]Train NLL: 10.966, Val NLL: 11.115:  28%|██▊       | 85/300 [03:00<07:11,  2.01s/it]Train NLL: 10.976, Val NLL: 11.106:  29%|██▊       | 86/300 [03:02<07:09,  2.01s/it]Train NLL: 10.992, Val NLL: 11.192:  29%|██▉       | 87/300 [03:04<07:21,  2.07s/it]Train NLL: 10.970, Val NLL: 11.102:  29%|██▉       | 88/300 [03:06<07:21,  2.08s/it]Train NLL: 10.963, Val NLL: 11.134:  30%|██▉       | 89/300 [03:08<07:19,  2.08s/it]Train NLL: 10.977, Val NLL: 11.083:  30%|███       | 90/300 [03:10<07:03,  2.02s/it]Train NLL: 10.959, Val NLL: 11.101:  30%|███       | 91/300 [03:12<07:15,  2.08s/it]Train NLL: 10.966, Val NLL: 11.164:  31%|███       | 92/300 [03:14<07:09,  2.06s/it]Train NLL: 10.976, Val NLL: 11.122:  31%|███       | 93/300 [03:16<06:50,  1.98s/it]Train NLL: 10.972, Val NLL: 11.107:  31%|███▏      | 94/300 [03:18<06:38,  1.93s/it]Train NLL: 11.004, Val NLL: 11.127:  32%|███▏      | 95/300 [03:20<06:45,  1.98s/it]Train NLL: 10.973, Val NLL: 11.151:  32%|███▏      | 96/300 [03:22<06:56,  2.04s/it]Train NLL: 10.969, Val NLL: 11.111:  32%|███▏      | 97/300 [03:24<07:00,  2.07s/it]Train NLL: 11.002, Val NLL: 11.074:  33%|███▎      | 98/300 [03:26<06:44,  2.00s/it]Train NLL: 10.961, Val NLL: 11.076:  33%|███▎      | 99/300 [03:29<07:13,  2.16s/it]Train NLL: 10.970, Val NLL: 11.152:  33%|███▎      | 100/300 [03:30<06:52,  2.06s/it]Train NLL: 10.964, Val NLL: 11.158:  34%|███▎      | 101/300 [03:32<06:43,  2.03s/it]Train NLL: 10.961, Val NLL: 11.081:  34%|███▍      | 102/300 [03:34<06:39,  2.02s/it]Train NLL: 10.950, Val NLL: 11.163:  34%|███▍      | 103/300 [03:36<06:34,  2.00s/it]Train NLL: 10.977, Val NLL: 11.115:  35%|███▍      | 104/300 [03:38<06:20,  1.94s/it]Train NLL: 10.973, Val NLL: 11.120:  35%|███▌      | 105/300 [03:40<06:17,  1.93s/it]Train NLL: 10.973, Val NLL: 11.106:  35%|███▌      | 106/300 [03:42<06:30,  2.01s/it]Train NLL: 10.967, Val NLL: 11.078:  36%|███▌      | 107/300 [03:44<06:28,  2.01s/it]Train NLL: 10.944, Val NLL: 11.095:  36%|███▌      | 108/300 [03:46<06:32,  2.05s/it]Train NLL: 10.985, Val NLL: 11.131:  36%|███▋      | 109/300 [03:48<06:20,  1.99s/it]Train NLL: 10.973, Val NLL: 11.093:  37%|███▋      | 110/300 [03:51<06:40,  2.11s/it]Train NLL: 10.980, Val NLL: 11.111:  37%|███▋      | 111/300 [03:53<06:27,  2.05s/it]Train NLL: 10.969, Val NLL: 11.149:  37%|███▋      | 112/300 [03:54<06:17,  2.01s/it]Train NLL: 10.954, Val NLL: 11.133:  38%|███▊      | 113/300 [03:57<06:47,  2.18s/it]Train NLL: 10.961, Val NLL: 11.117:  38%|███▊      | 114/300 [03:59<06:31,  2.11s/it]Train NLL: 10.960, Val NLL: 11.091:  38%|███▊      | 115/300 [04:01<06:42,  2.17s/it]Train NLL: 10.952, Val NLL: 11.106:  39%|███▊      | 116/300 [04:03<06:28,  2.11s/it]Train NLL: 10.965, Val NLL: 11.073:  39%|███▉      | 117/300 [04:06<06:43,  2.20s/it]Train NLL: 10.952, Val NLL: 11.107:  39%|███▉      | 118/300 [04:08<06:48,  2.24s/it]Train NLL: 10.992, Val NLL: 11.148:  40%|███▉      | 119/300 [04:11<07:08,  2.37s/it]Train NLL: 10.963, Val NLL: 11.066:  40%|████      | 120/300 [04:13<06:45,  2.25s/it]Train NLL: 10.959, Val NLL: 11.135:  40%|████      | 121/300 [04:15<06:21,  2.13s/it]Train NLL: 10.945, Val NLL: 11.099:  41%|████      | 122/300 [04:16<06:08,  2.07s/it]Train NLL: 10.952, Val NLL: 11.103:  41%|████      | 123/300 [04:18<06:01,  2.04s/it]Train NLL: 10.953, Val NLL: 11.102:  41%|████▏     | 124/300 [04:21<06:06,  2.08s/it]Train NLL: 10.951, Val NLL: 11.123:  42%|████▏     | 125/300 [04:23<06:34,  2.25s/it]Train NLL: 10.968, Val NLL: 11.079:  42%|████▏     | 126/300 [04:25<06:08,  2.12s/it]Train NLL: 10.981, Val NLL: 11.127:  42%|████▏     | 127/300 [04:27<05:58,  2.07s/it]Train NLL: 10.962, Val NLL: 11.089:  43%|████▎     | 128/300 [04:29<06:01,  2.10s/it]Epoch   129: reducing learning rate of group 0 to 1.0000e-03.
Train NLL: 10.950, Val NLL: 11.121:  43%|████▎     | 129/300 [04:31<05:46,  2.02s/it]Train NLL: 10.892, Val NLL: 11.043:  43%|████▎     | 130/300 [04:33<05:39,  2.00s/it]Train NLL: 10.877, Val NLL: 11.039:  44%|████▎     | 131/300 [04:35<05:51,  2.08s/it]Train NLL: 10.874, Val NLL: 11.035:  44%|████▍     | 132/300 [04:37<05:37,  2.01s/it]Train NLL: 10.873, Val NLL: 11.035:  44%|████▍     | 133/300 [04:39<05:31,  1.99s/it]Train NLL: 10.870, Val NLL: 11.034:  45%|████▍     | 134/300 [04:41<05:21,  1.94s/it]Train NLL: 10.871, Val NLL: 11.030:  45%|████▌     | 135/300 [04:43<05:27,  1.99s/it]Train NLL: 10.868, Val NLL: 11.032:  45%|████▌     | 136/300 [04:45<05:21,  1.96s/it]Train NLL: 10.869, Val NLL: 11.032:  46%|████▌     | 137/300 [04:47<05:33,  2.04s/it]Train NLL: 10.868, Val NLL: 11.037:  46%|████▌     | 138/300 [04:49<05:35,  2.07s/it]Train NLL: 10.869, Val NLL: 11.035:  46%|████▋     | 139/300 [04:51<05:31,  2.06s/it]Train NLL: 10.867, Val NLL: 11.027:  47%|████▋     | 140/300 [04:53<05:36,  2.10s/it]Train NLL: 10.868, Val NLL: 11.032:  47%|████▋     | 141/300 [04:56<05:44,  2.17s/it]Train NLL: 10.869, Val NLL: 11.027:  47%|████▋     | 142/300 [04:58<05:44,  2.18s/it]Train NLL: 10.868, Val NLL: 11.032:  48%|████▊     | 143/300 [05:00<05:34,  2.13s/it]Train NLL: 10.869, Val NLL: 11.035:  48%|████▊     | 144/300 [05:02<05:16,  2.03s/it]Train NLL: 10.869, Val NLL: 11.024:  48%|████▊     | 145/300 [05:04<05:29,  2.13s/it]Train NLL: 10.866, Val NLL: 11.029:  49%|████▊     | 146/300 [05:06<05:28,  2.13s/it]Train NLL: 10.865, Val NLL: 11.030:  49%|████▉     | 147/300 [05:08<05:16,  2.07s/it]Train NLL: 10.867, Val NLL: 11.035:  49%|████▉     | 148/300 [05:10<05:18,  2.10s/it]Train NLL: 10.866, Val NLL: 11.025:  50%|████▉     | 149/300 [05:12<05:13,  2.08s/it]Train NLL: 10.865, Val NLL: 11.027:  50%|█████     | 150/300 [05:14<05:05,  2.04s/it]Train NLL: 10.867, Val NLL: 11.032:  50%|█████     | 151/300 [05:16<04:56,  1.99s/it]Train NLL: 10.864, Val NLL: 11.032:  51%|█████     | 152/300 [05:18<04:53,  1.98s/it]Train NLL: 10.864, Val NLL: 11.031:  51%|█████     | 153/300 [05:20<04:52,  1.99s/it]Train NLL: 10.866, Val NLL: 11.022:  51%|█████▏    | 154/300 [05:22<04:41,  1.93s/it]Train NLL: 10.864, Val NLL: 11.026:  52%|█████▏    | 155/300 [05:24<04:38,  1.92s/it]Train NLL: 10.863, Val NLL: 11.033:  52%|█████▏    | 156/300 [05:26<04:40,  1.95s/it]Train NLL: 10.867, Val NLL: 11.030:  52%|█████▏    | 157/300 [05:28<04:34,  1.92s/it]Train NLL: 10.863, Val NLL: 11.034:  53%|█████▎    | 158/300 [05:30<04:27,  1.88s/it]Train NLL: 10.864, Val NLL: 11.036:  53%|█████▎    | 159/300 [05:31<04:24,  1.87s/it]Train NLL: 10.864, Val NLL: 11.030:  53%|█████▎    | 160/300 [05:34<04:40,  2.00s/it]Train NLL: 10.864, Val NLL: 11.033:  54%|█████▎    | 161/300 [05:35<04:29,  1.94s/it]Train NLL: 10.860, Val NLL: 11.031:  54%|█████▍    | 162/300 [05:37<04:22,  1.90s/it]Train NLL: 10.860, Val NLL: 11.037:  54%|█████▍    | 163/300 [05:39<04:19,  1.90s/it]Train NLL: 10.865, Val NLL: 11.038:  55%|█████▍    | 164/300 [05:41<04:27,  1.97s/it]Train NLL: 10.864, Val NLL: 11.031:  55%|█████▌    | 165/300 [05:44<04:45,  2.12s/it]Train NLL: 10.863, Val NLL: 11.029:  55%|█████▌    | 166/300 [05:46<05:00,  2.24s/it]Train NLL: 10.861, Val NLL: 11.031:  56%|█████▌    | 167/300 [05:49<05:01,  2.27s/it]Train NLL: 10.861, Val NLL: 11.022:  56%|█████▌    | 168/300 [05:50<04:41,  2.13s/it]Train NLL: 10.862, Val NLL: 11.023:  56%|█████▋    | 169/300 [05:52<04:26,  2.03s/it]Train NLL: 10.862, Val NLL: 11.025:  57%|█████▋    | 170/300 [05:54<04:20,  2.00s/it]Train NLL: 10.862, Val NLL: 11.026:  57%|█████▋    | 171/300 [05:56<04:22,  2.03s/it]Train NLL: 10.863, Val NLL: 11.045:  57%|█████▋    | 172/300 [05:58<04:12,  1.97s/it]Train NLL: 10.864, Val NLL: 11.028:  58%|█████▊    | 173/300 [06:00<04:04,  1.92s/it]Train NLL: 10.862, Val NLL: 11.027:  58%|█████▊    | 174/300 [06:02<04:01,  1.92s/it]Train NLL: 10.860, Val NLL: 11.022:  58%|█████▊    | 175/300 [06:04<04:00,  1.92s/it]Train NLL: 10.860, Val NLL: 11.023:  59%|█████▊    | 176/300 [06:06<03:53,  1.88s/it]Train NLL: 10.863, Val NLL: 11.026:  59%|█████▉    | 177/300 [06:07<03:48,  1.86s/it]Train NLL: 10.861, Val NLL: 11.022:  59%|█████▉    | 178/300 [06:09<03:55,  1.93s/it]Train NLL: 10.860, Val NLL: 11.025:  60%|█████▉    | 179/300 [06:12<04:00,  1.99s/it]Train NLL: 10.860, Val NLL: 11.028:  60%|██████    | 180/300 [06:13<03:51,  1.93s/it]Train NLL: 10.859, Val NLL: 11.025:  60%|██████    | 181/300 [06:15<03:47,  1.91s/it]Train NLL: 10.860, Val NLL: 11.023:  61%|██████    | 182/300 [06:17<03:48,  1.94s/it]Epoch   183: reducing learning rate of group 0 to 1.0000e-04.
Train NLL: 10.859, Val NLL: 11.029:  61%|██████    | 183/300 [06:19<03:46,  1.93s/it]Train NLL: 10.851, Val NLL: 11.022:  61%|██████▏   | 184/300 [06:21<03:39,  1.89s/it]Train NLL: 10.850, Val NLL: 11.021:  62%|██████▏   | 185/300 [06:23<03:33,  1.86s/it]Train NLL: 10.849, Val NLL: 11.020:  62%|██████▏   | 186/300 [06:25<03:33,  1.87s/it]Train NLL: 10.849, Val NLL: 11.020:  62%|██████▏   | 187/300 [06:27<03:37,  1.92s/it]Train NLL: 10.849, Val NLL: 11.020:  63%|██████▎   | 188/300 [06:29<03:33,  1.91s/it]Train NLL: 10.848, Val NLL: 11.020:  63%|██████▎   | 189/300 [06:30<03:29,  1.89s/it]Train NLL: 10.848, Val NLL: 11.020:  63%|██████▎   | 190/300 [06:32<03:29,  1.90s/it]Train NLL: 10.848, Val NLL: 11.020:  64%|██████▎   | 191/300 [06:34<03:29,  1.92s/it]Train NLL: 10.848, Val NLL: 11.020:  64%|██████▍   | 192/300 [06:36<03:23,  1.89s/it]Train NLL: 10.848, Val NLL: 11.020:  64%|██████▍   | 193/300 [06:39<03:40,  2.06s/it]Train NLL: 10.848, Val NLL: 11.020:  65%|██████▍   | 194/300 [06:40<03:33,  2.01s/it]Train NLL: 10.848, Val NLL: 11.020:  65%|██████▌   | 195/300 [06:43<03:35,  2.05s/it]Train NLL: 10.848, Val NLL: 11.020:  65%|██████▌   | 196/300 [06:45<03:38,  2.10s/it]Train NLL: 10.848, Val NLL: 11.021:  66%|██████▌   | 197/300 [06:47<03:27,  2.01s/it]Train NLL: 10.848, Val NLL: 11.020:  66%|██████▌   | 198/300 [06:49<03:26,  2.03s/it]Train NLL: 10.848, Val NLL: 11.020:  66%|██████▋   | 199/300 [06:51<03:26,  2.04s/it]Train NLL: 10.848, Val NLL: 11.020:  67%|██████▋   | 200/300 [06:53<03:20,  2.00s/it]Train NLL: 10.848, Val NLL: 11.020:  67%|██████▋   | 201/300 [06:55<03:27,  2.09s/it]Train NLL: 10.848, Val NLL: 11.020:  67%|██████▋   | 202/300 [06:57<03:22,  2.07s/it]Train NLL: 10.848, Val NLL: 11.020:  68%|██████▊   | 203/300 [06:59<03:14,  2.00s/it]Train NLL: 10.848, Val NLL: 11.020:  68%|██████▊   | 204/300 [07:01<03:06,  1.94s/it]Train NLL: 10.848, Val NLL: 11.020:  68%|██████▊   | 205/300 [07:03<03:11,  2.01s/it]Train NLL: 10.848, Val NLL: 11.020:  69%|██████▊   | 206/300 [07:05<03:06,  1.98s/it]Train NLL: 10.848, Val NLL: 11.020:  69%|██████▉   | 207/300 [07:07<03:19,  2.14s/it]Train NLL: 10.848, Val NLL: 11.020:  69%|██████▉   | 208/300 [07:09<03:11,  2.08s/it]Train NLL: 10.848, Val NLL: 11.020:  70%|██████▉   | 209/300 [07:11<03:04,  2.02s/it]Epoch   210: reducing learning rate of group 0 to 1.0000e-05.
Train NLL: 10.848, Val NLL: 11.020:  70%|███████   | 210/300 [07:13<03:00,  2.01s/it]Train NLL: 10.847, Val NLL: 11.020:  70%|███████   | 211/300 [07:15<02:56,  1.99s/it]Train NLL: 10.847, Val NLL: 11.020:  71%|███████   | 212/300 [07:17<02:50,  1.94s/it]Train NLL: 10.847, Val NLL: 11.020:  71%|███████   | 213/300 [07:19<02:47,  1.93s/it]Train NLL: 10.847, Val NLL: 11.020:  71%|███████▏  | 214/300 [07:21<02:44,  1.91s/it]Train NLL: 10.847, Val NLL: 11.020:  72%|███████▏  | 215/300 [07:23<02:44,  1.93s/it]Train NLL: 10.847, Val NLL: 11.020:  72%|███████▏  | 216/300 [07:25<02:42,  1.93s/it]Train NLL: 10.847, Val NLL: 11.020:  72%|███████▏  | 217/300 [07:26<02:37,  1.89s/it]Train NLL: 10.847, Val NLL: 11.020:  73%|███████▎  | 218/300 [07:28<02:34,  1.89s/it]Train NLL: 10.847, Val NLL: 11.020:  73%|███████▎  | 219/300 [07:30<02:31,  1.87s/it]Train NLL: 10.847, Val NLL: 11.020:  73%|███████▎  | 220/300 [07:33<02:45,  2.07s/it]Train NLL: 10.847, Val NLL: 11.020:  74%|███████▎  | 221/300 [07:35<02:50,  2.16s/it]Train NLL: 10.847, Val NLL: 11.020:  74%|███████▍  | 222/300 [07:37<02:40,  2.05s/it]Train NLL: 10.847, Val NLL: 11.020:  74%|███████▍  | 223/300 [07:39<02:31,  1.97s/it]Train NLL: 10.847, Val NLL: 11.020:  75%|███████▍  | 224/300 [07:40<02:26,  1.93s/it]Train NLL: 10.846, Val NLL: 11.020:  75%|███████▌  | 225/300 [07:42<02:26,  1.96s/it]Train NLL: 10.846, Val NLL: 11.020:  75%|███████▌  | 226/300 [07:44<02:24,  1.96s/it]Train NLL: 10.846, Val NLL: 11.020:  76%|███████▌  | 227/300 [07:46<02:19,  1.91s/it]Train NLL: 10.846, Val NLL: 11.020:  76%|███████▌  | 228/300 [07:48<02:16,  1.90s/it]Train NLL: 10.846, Val NLL: 11.020:  76%|███████▋  | 229/300 [07:50<02:18,  1.95s/it]Train NLL: 10.846, Val NLL: 11.020:  77%|███████▋  | 230/300 [07:52<02:19,  1.99s/it]Train NLL: 10.846, Val NLL: 11.020:  77%|███████▋  | 231/300 [07:54<02:17,  1.99s/it]Epoch   232: reducing learning rate of group 0 to 1.0000e-06.
Train NLL: 10.846, Val NLL: 11.020:  77%|███████▋  | 232/300 [07:56<02:11,  1.93s/it]Train NLL: 10.846, Val NLL: 11.020:  78%|███████▊  | 233/300 [07:58<02:21,  2.11s/it]Train NLL: 10.846, Val NLL: 11.020:  78%|███████▊  | 234/300 [08:01<02:20,  2.13s/it]Train NLL: 10.846, Val NLL: 11.020:  78%|███████▊  | 235/300 [08:03<02:24,  2.23s/it]Train NLL: 10.846, Val NLL: 11.020:  79%|███████▊  | 236/300 [08:05<02:22,  2.22s/it]Train NLL: 10.846, Val NLL: 11.020:  79%|███████▉  | 237/300 [08:07<02:13,  2.11s/it]Train NLL: 10.846, Val NLL: 11.020:  79%|███████▉  | 238/300 [08:09<02:08,  2.06s/it]Train NLL: 10.846, Val NLL: 11.020:  80%|███████▉  | 239/300 [08:11<02:06,  2.07s/it]Train NLL: 10.846, Val NLL: 11.020:  80%|████████  | 240/300 [08:13<02:02,  2.04s/it]Train NLL: 10.846, Val NLL: 11.020:  80%|████████  | 241/300 [08:15<02:01,  2.06s/it]Train NLL: 10.846, Val NLL: 11.020:  81%|████████  | 242/300 [08:17<01:57,  2.02s/it]Train NLL: 10.846, Val NLL: 11.020:  81%|████████  | 243/300 [08:19<01:53,  2.00s/it]Train NLL: 10.846, Val NLL: 11.020:  81%|████████▏ | 244/300 [08:21<01:49,  1.95s/it]Train NLL: 10.846, Val NLL: 11.020:  82%|████████▏ | 245/300 [08:23<01:45,  1.92s/it]Train NLL: 10.846, Val NLL: 11.020:  82%|████████▏ | 246/300 [08:25<01:44,  1.93s/it]Train NLL: 10.846, Val NLL: 11.020:  82%|████████▏ | 247/300 [08:27<01:42,  1.93s/it]Train NLL: 10.846, Val NLL: 11.020:  83%|████████▎ | 248/300 [08:29<01:38,  1.90s/it]Train NLL: 10.846, Val NLL: 11.020:  83%|████████▎ | 249/300 [08:30<01:35,  1.87s/it]Train NLL: 10.846, Val NLL: 11.020:  83%|████████▎ | 250/300 [08:32<01:34,  1.89s/it]Train NLL: 10.846, Val NLL: 11.020:  84%|████████▎ | 251/300 [08:34<01:33,  1.91s/it]Train NLL: 10.846, Val NLL: 11.020:  84%|████████▍ | 252/300 [08:36<01:32,  1.93s/it]Train NLL: 10.846, Val NLL: 11.020:  84%|████████▍ | 253/300 [08:38<01:28,  1.89s/it]Train NLL: 10.846, Val NLL: 11.020:  85%|████████▍ | 254/300 [08:40<01:28,  1.92s/it]Train NLL: 10.846, Val NLL: 11.020:  85%|████████▌ | 255/300 [08:42<01:26,  1.91s/it]Train NLL: 10.846, Val NLL: 11.020:  85%|████████▌ | 256/300 [08:44<01:24,  1.92s/it]Train NLL: 10.846, Val NLL: 11.020:  86%|████████▌ | 257/300 [08:46<01:21,  1.89s/it]Train NLL: 10.846, Val NLL: 11.020:  86%|████████▌ | 258/300 [08:48<01:19,  1.90s/it]Train NLL: 10.846, Val NLL: 11.020:  86%|████████▋ | 259/300 [08:49<01:17,  1.90s/it]Train NLL: 10.846, Val NLL: 11.020:  87%|████████▋ | 260/300 [08:52<01:19,  1.98s/it]Train NLL: 10.846, Val NLL: 11.020:  87%|████████▋ | 261/300 [08:54<01:22,  2.11s/it]Train NLL: 10.846, Val NLL: 11.020:  87%|████████▋ | 262/300 [08:56<01:18,  2.07s/it]Train NLL: 10.846, Val NLL: 11.020:  88%|████████▊ | 263/300 [08:58<01:14,  2.02s/it]Train NLL: 10.846, Val NLL: 11.020:  88%|████████▊ | 264/300 [09:00<01:10,  1.95s/it]Train NLL: 10.846, Val NLL: 11.020:  88%|████████▊ | 265/300 [09:02<01:15,  2.15s/it]Train NLL: 10.846, Val NLL: 11.020:  89%|████████▊ | 266/300 [09:04<01:11,  2.10s/it]Train NLL: 10.846, Val NLL: 11.020:  89%|████████▉ | 267/300 [09:06<01:06,  2.01s/it]Train NLL: 10.846, Val NLL: 11.020:  89%|████████▉ | 268/300 [09:08<01:02,  1.94s/it]Train NLL: 10.846, Val NLL: 11.020:  90%|████████▉ | 269/300 [09:10<00:59,  1.91s/it]Train NLL: 10.846, Val NLL: 11.020:  90%|█████████ | 270/300 [09:12<00:58,  1.94s/it]Train NLL: 10.846, Val NLL: 11.020:  90%|█████████ | 271/300 [09:14<00:58,  2.02s/it]Train NLL: 10.846, Val NLL: 11.020:  91%|█████████ | 272/300 [09:16<00:54,  1.95s/it]Train NLL: 10.846, Val NLL: 11.020:  91%|█████████ | 273/300 [09:18<00:51,  1.90s/it]Train NLL: 10.846, Val NLL: 11.020:  91%|█████████▏| 274/300 [09:20<00:51,  1.99s/it]Train NLL: 10.846, Val NLL: 11.020:  92%|█████████▏| 275/300 [09:22<00:49,  1.98s/it]Train NLL: 10.846, Val NLL: 11.020:  92%|█████████▏| 276/300 [09:23<00:46,  1.92s/it]Train NLL: 10.846, Val NLL: 11.020:  92%|█████████▏| 277/300 [09:25<00:43,  1.89s/it]Train NLL: 10.846, Val NLL: 11.020:  93%|█████████▎| 278/300 [09:27<00:43,  1.97s/it]Train NLL: 10.846, Val NLL: 11.020:  93%|█████████▎| 279/300 [09:29<00:41,  1.98s/it]Train NLL: 10.846, Val NLL: 11.020:  93%|█████████▎| 280/300 [09:31<00:38,  1.93s/it]Train NLL: 10.846, Val NLL: 11.020:  94%|█████████▎| 281/300 [09:33<00:36,  1.94s/it]Train NLL: 10.846, Val NLL: 11.020:  94%|█████████▍| 282/300 [09:35<00:34,  1.94s/it]Train NLL: 10.846, Val NLL: 11.020:  94%|█████████▍| 283/300 [09:37<00:32,  1.93s/it]Train NLL: 10.846, Val NLL: 11.020:  95%|█████████▍| 284/300 [09:39<00:31,  1.96s/it]Train NLL: 10.846, Val NLL: 11.020:  95%|█████████▌| 285/300 [09:41<00:29,  1.95s/it]Train NLL: 10.846, Val NLL: 11.020:  95%|█████████▌| 286/300 [09:43<00:27,  1.95s/it]Train NLL: 10.846, Val NLL: 11.020:  96%|█████████▌| 287/300 [09:45<00:25,  1.94s/it]Train NLL: 10.846, Val NLL: 11.020:  96%|█████████▌| 288/300 [09:47<00:22,  1.90s/it]Train NLL: 10.846, Val NLL: 11.020:  96%|█████████▋| 289/300 [09:49<00:22,  2.07s/it]Train NLL: 10.846, Val NLL: 11.020:  97%|█████████▋| 290/300 [09:51<00:20,  2.08s/it]Train NLL: 10.846, Val NLL: 11.020:  97%|█████████▋| 291/300 [09:53<00:18,  2.05s/it]Train NLL: 10.846, Val NLL: 11.020:  97%|█████████▋| 292/300 [09:55<00:16,  2.00s/it]Train NLL: 10.846, Val NLL: 11.020:  98%|█████████▊| 293/300 [09:57<00:13,  1.96s/it]Train NLL: 10.846, Val NLL: 11.020:  98%|█████████▊| 294/300 [09:59<00:11,  1.98s/it]Train NLL: 10.846, Val NLL: 11.020:  98%|█████████▊| 295/300 [10:01<00:10,  2.03s/it]Train NLL: 10.846, Val NLL: 11.020:  99%|█████████▊| 296/300 [10:03<00:08,  2.01s/it]Train NLL: 10.846, Val NLL: 11.020:  99%|█████████▉| 297/300 [10:05<00:06,  2.02s/it]Train NLL: 10.846, Val NLL: 11.020:  99%|█████████▉| 298/300 [10:07<00:04,  2.03s/it]Train NLL: 10.846, Val NLL: 11.020: 100%|█████████▉| 299/300 [10:09<00:02,  2.03s/it]Train NLL: 10.846, Val NLL: 11.020: 100%|██████████| 300/300 [10:11<00:00,  2.05s/it]Train NLL: 10.846, Val NLL: 11.020: 100%|██████████| 300/300 [10:11<00:00,  2.04s/it]
INFO - residual_nf - Completed after 0:10:12
