INFO - residual_nf - Running command 'run'
INFO - residual_nf - Started run with ID "5"
[CONFIG] {'bn': 'mehra-real', 'structure': 'faithful', 'coeff': 0.99, 'n_power_iterations': 5, 'num_blocks': 9, 'hidden_dims': [125], 'activation': 'lipswish', 'grad_in_forward': True, 'batch_size': 100, 'num_train_samples': 10000, 'num_val_samples': 5000, 'num_epochs': 600, 'num_train_batches': 100, 'num_val_batches': 50, 'lr': 0.01, 'seed': 4, 'patience': 20, 'double': True, 'run': 1, 'checkpoint_n': 10, 'load_from_checkpoint': False, 'ex_name': 'residual_nf_density_estimation', 'sub_folder': 'faithful_99_lipswish_9_[125]', 'path': './experiment_logs/residual_nf_density_estimation/mehra-real/faithful_99_lipswish_9_[125]', 'bt_config': {'depth': 5, 'seed': 4}}
[DEVICE] cpu
[LOADING DATA] Mehra
[ENCODED STRUCTURE] Using faithful BN structure.
  0%|          | 0/600 [00:00<?, ?it/s]Train NLL: 12.327, Val NLL: 11.744:   0%|          | 1/600 [00:08<1:23:57,  8.41s/it]Train NLL: 11.652, Val NLL: 11.643:   0%|          | 2/600 [00:10<44:37,  4.48s/it]  Train NLL: 11.513, Val NLL: 11.457:   0%|          | 3/600 [00:11<32:27,  3.26s/it]Train NLL: 11.396, Val NLL: 11.396:   1%|          | 4/600 [00:13<27:34,  2.78s/it]Train NLL: 11.371, Val NLL: 11.353:   1%|          | 5/600 [00:15<23:43,  2.39s/it]Train NLL: 11.298, Val NLL: 11.343:   1%|          | 6/600 [00:17<21:28,  2.17s/it]Train NLL: 11.319, Val NLL: 11.307:   1%|          | 7/600 [00:19<21:01,  2.13s/it]Train NLL: 11.265, Val NLL: 11.271:   1%|▏         | 8/600 [00:21<19:42,  2.00s/it]Train NLL: 11.238, Val NLL: 11.295:   2%|▏         | 9/600 [00:22<18:47,  1.91s/it]Train NLL: 11.237, Val NLL: 11.285:   2%|▏         | 10/600 [00:24<18:31,  1.88s/it]Train NLL: 11.223, Val NLL: 11.267:   2%|▏         | 11/600 [00:26<19:27,  1.98s/it]Train NLL: 11.215, Val NLL: 11.233:   2%|▏         | 12/600 [00:29<21:34,  2.20s/it]Train NLL: 11.193, Val NLL: 11.205:   2%|▏         | 13/600 [00:31<20:11,  2.06s/it]Train NLL: 11.211, Val NLL: 11.301:   2%|▏         | 14/600 [00:33<21:04,  2.16s/it]Train NLL: 11.188, Val NLL: 11.195:   2%|▎         | 15/600 [00:35<19:51,  2.04s/it]Train NLL: 11.159, Val NLL: 11.182:   3%|▎         | 16/600 [00:37<19:36,  2.02s/it]Train NLL: 11.138, Val NLL: 11.186:   3%|▎         | 17/600 [00:40<21:06,  2.17s/it]Train NLL: 11.149, Val NLL: 11.162:   3%|▎         | 18/600 [00:41<19:51,  2.05s/it]Train NLL: 11.127, Val NLL: 11.236:   3%|▎         | 19/600 [00:43<18:52,  1.95s/it]Train NLL: 11.126, Val NLL: 11.146:   3%|▎         | 20/600 [00:45<18:42,  1.94s/it]Train NLL: 11.117, Val NLL: 11.121:   4%|▎         | 21/600 [00:47<20:28,  2.12s/it]Train NLL: 11.090, Val NLL: 11.159:   4%|▎         | 22/600 [00:49<20:08,  2.09s/it]Train NLL: 11.135, Val NLL: 11.116:   4%|▍         | 23/600 [00:51<19:50,  2.06s/it]Train NLL: 11.084, Val NLL: 11.117:   4%|▍         | 24/600 [00:54<21:49,  2.27s/it]Train NLL: 11.095, Val NLL: 11.142:   4%|▍         | 25/600 [00:56<21:04,  2.20s/it]Train NLL: 11.098, Val NLL: 11.181:   4%|▍         | 26/600 [00:59<21:45,  2.27s/it]Train NLL: 11.090, Val NLL: 11.091:   4%|▍         | 27/600 [01:01<20:31,  2.15s/it]Train NLL: 11.116, Val NLL: 11.152:   5%|▍         | 28/600 [01:02<19:11,  2.01s/it]Train NLL: 11.098, Val NLL: 11.091:   5%|▍         | 29/600 [01:04<18:37,  1.96s/it]Train NLL: 11.086, Val NLL: 11.085:   5%|▌         | 30/600 [01:06<17:56,  1.89s/it]Train NLL: 11.081, Val NLL: 11.105:   5%|▌         | 31/600 [01:08<17:21,  1.83s/it]Train NLL: 11.087, Val NLL: 11.108:   5%|▌         | 32/600 [01:09<17:16,  1.82s/it]Train NLL: 11.063, Val NLL: 11.095:   6%|▌         | 33/600 [01:11<17:33,  1.86s/it]Train NLL: 11.051, Val NLL: 11.107:   6%|▌         | 34/600 [01:13<17:06,  1.81s/it]Train NLL: 11.048, Val NLL: 11.088:   6%|▌         | 35/600 [01:16<21:03,  2.24s/it]Train NLL: 11.063, Val NLL: 11.059:   6%|▌         | 36/600 [01:18<19:28,  2.07s/it]Train NLL: 11.066, Val NLL: 11.141:   6%|▌         | 37/600 [01:20<18:52,  2.01s/it]Train NLL: 11.055, Val NLL: 11.084:   6%|▋         | 38/600 [01:22<18:22,  1.96s/it]Train NLL: 11.053, Val NLL: 11.079:   6%|▋         | 39/600 [01:23<17:34,  1.88s/it]Train NLL: 11.031, Val NLL: 11.047:   7%|▋         | 40/600 [01:25<17:16,  1.85s/it]Train NLL: 11.048, Val NLL: 11.134:   7%|▋         | 41/600 [01:28<19:49,  2.13s/it]Train NLL: 11.068, Val NLL: 11.082:   7%|▋         | 42/600 [01:30<19:02,  2.05s/it]Train NLL: 11.054, Val NLL: 11.089:   7%|▋         | 43/600 [01:32<19:01,  2.05s/it]Train NLL: 11.062, Val NLL: 11.047:   7%|▋         | 44/600 [01:34<19:53,  2.15s/it]Train NLL: 11.014, Val NLL: 11.075:   8%|▊         | 45/600 [01:36<18:41,  2.02s/it]Train NLL: 11.031, Val NLL: 11.053:   8%|▊         | 46/600 [01:38<18:09,  1.97s/it]Train NLL: 11.011, Val NLL: 11.060:   8%|▊         | 47/600 [01:40<19:03,  2.07s/it]Train NLL: 11.025, Val NLL: 11.081:   8%|▊         | 48/600 [01:42<18:50,  2.05s/it]Train NLL: 11.051, Val NLL: 11.086:   8%|▊         | 49/600 [01:45<20:33,  2.24s/it]Train NLL: 11.027, Val NLL: 11.223:   8%|▊         | 50/600 [01:46<18:58,  2.07s/it]Train NLL: 11.044, Val NLL: 11.099:   8%|▊         | 51/600 [01:48<17:52,  1.95s/it]Train NLL: 11.031, Val NLL: 11.090:   9%|▊         | 52/600 [01:50<17:13,  1.89s/it]Train NLL: 11.016, Val NLL: 11.079:   9%|▉         | 53/600 [01:52<17:17,  1.90s/it]Train NLL: 11.001, Val NLL: 11.037:   9%|▉         | 54/600 [01:53<16:50,  1.85s/it]Train NLL: 11.009, Val NLL: 11.027:   9%|▉         | 55/600 [01:55<16:31,  1.82s/it]Train NLL: 10.995, Val NLL: 11.045:   9%|▉         | 56/600 [01:58<19:59,  2.21s/it]Train NLL: 11.009, Val NLL: 11.055:  10%|▉         | 57/600 [02:00<19:02,  2.10s/it]Train NLL: 10.990, Val NLL: 11.074:  10%|▉         | 58/600 [02:02<18:08,  2.01s/it]Train NLL: 10.990, Val NLL: 11.045:  10%|▉         | 59/600 [02:05<19:50,  2.20s/it]Train NLL: 11.040, Val NLL: 11.154:  10%|█         | 60/600 [02:06<18:32,  2.06s/it]Train NLL: 11.057, Val NLL: 11.061:  10%|█         | 61/600 [02:09<19:23,  2.16s/it]Train NLL: 11.000, Val NLL: 11.040:  10%|█         | 62/600 [02:11<18:40,  2.08s/it]Train NLL: 11.003, Val NLL: 11.019:  10%|█         | 63/600 [02:12<17:40,  1.97s/it]Train NLL: 10.989, Val NLL: 11.035:  11%|█         | 64/600 [02:14<17:53,  2.00s/it]Train NLL: 10.995, Val NLL: 11.013:  11%|█         | 65/600 [02:16<17:01,  1.91s/it]Train NLL: 10.997, Val NLL: 11.102:  11%|█         | 66/600 [02:18<16:24,  1.84s/it]Train NLL: 11.011, Val NLL: 11.042:  11%|█         | 67/600 [02:19<15:57,  1.80s/it]Train NLL: 10.980, Val NLL: 11.029:  11%|█▏        | 68/600 [02:21<15:44,  1.78s/it]Train NLL: 10.982, Val NLL: 11.037:  12%|█▏        | 69/600 [02:23<16:22,  1.85s/it]Train NLL: 10.986, Val NLL: 11.037:  12%|█▏        | 70/600 [02:25<16:01,  1.81s/it]Train NLL: 10.997, Val NLL: 11.045:  12%|█▏        | 71/600 [02:27<15:51,  1.80s/it]Train NLL: 10.995, Val NLL: 11.066:  12%|█▏        | 72/600 [02:29<16:15,  1.85s/it]Train NLL: 11.014, Val NLL: 11.052:  12%|█▏        | 73/600 [02:30<15:50,  1.80s/it]Train NLL: 10.992, Val NLL: 11.054:  12%|█▏        | 74/600 [02:32<15:58,  1.82s/it]Train NLL: 10.986, Val NLL: 11.053:  12%|█▎        | 75/600 [02:34<15:59,  1.83s/it]Train NLL: 10.997, Val NLL: 11.035:  13%|█▎        | 76/600 [02:36<15:36,  1.79s/it]Train NLL: 10.977, Val NLL: 11.081:  13%|█▎        | 77/600 [02:38<16:01,  1.84s/it]Train NLL: 10.973, Val NLL: 11.053:  13%|█▎        | 78/600 [02:40<16:01,  1.84s/it]Train NLL: 10.983, Val NLL: 11.002:  13%|█▎        | 79/600 [02:41<15:35,  1.80s/it]Train NLL: 10.974, Val NLL: 11.077:  13%|█▎        | 80/600 [02:43<15:20,  1.77s/it]Train NLL: 10.968, Val NLL: 11.041:  14%|█▎        | 81/600 [02:46<18:11,  2.10s/it]Train NLL: 10.986, Val NLL: 11.006:  14%|█▎        | 82/600 [02:48<17:06,  1.98s/it]Train NLL: 10.969, Val NLL: 11.066:  14%|█▍        | 83/600 [02:50<19:04,  2.21s/it]Train NLL: 10.976, Val NLL: 10.986:  14%|█▍        | 84/600 [02:52<18:10,  2.11s/it]Train NLL: 10.986, Val NLL: 11.067:  14%|█▍        | 85/600 [02:54<17:06,  1.99s/it]Train NLL: 10.956, Val NLL: 11.018:  14%|█▍        | 86/600 [02:56<17:58,  2.10s/it]Train NLL: 10.961, Val NLL: 11.036:  14%|█▍        | 87/600 [02:58<17:31,  2.05s/it]Train NLL: 10.974, Val NLL: 11.020:  15%|█▍        | 88/600 [03:00<16:38,  1.95s/it]Train NLL: 10.967, Val NLL: 11.035:  15%|█▍        | 89/600 [03:03<18:54,  2.22s/it]Train NLL: 10.957, Val NLL: 11.031:  15%|█▌        | 90/600 [03:05<17:39,  2.08s/it]Train NLL: 10.949, Val NLL: 11.007:  15%|█▌        | 91/600 [03:07<17:35,  2.07s/it]Train NLL: 10.959, Val NLL: 10.998:  15%|█▌        | 92/600 [03:08<17:10,  2.03s/it]Train NLL: 10.966, Val NLL: 11.067:  16%|█▌        | 93/600 [03:10<16:18,  1.93s/it]Train NLL: 10.976, Val NLL: 11.014:  16%|█▌        | 94/600 [03:12<16:55,  2.01s/it]Train NLL: 10.970, Val NLL: 11.028:  16%|█▌        | 95/600 [03:15<18:36,  2.21s/it]Train NLL: 10.959, Val NLL: 11.035:  16%|█▌        | 96/600 [03:17<17:17,  2.06s/it]Train NLL: 10.966, Val NLL: 11.022:  16%|█▌        | 97/600 [03:19<16:27,  1.96s/it]Train NLL: 10.969, Val NLL: 11.004:  16%|█▋        | 98/600 [03:20<15:57,  1.91s/it]Train NLL: 10.934, Val NLL: 11.066:  16%|█▋        | 99/600 [03:22<15:42,  1.88s/it]Train NLL: 10.963, Val NLL: 11.035:  17%|█▋        | 100/600 [03:24<15:14,  1.83s/it]Train NLL: 10.946, Val NLL: 11.026:  17%|█▋        | 101/600 [03:26<14:55,  1.80s/it]Train NLL: 10.948, Val NLL: 11.015:  17%|█▋        | 102/600 [03:28<17:00,  2.05s/it]Train NLL: 10.955, Val NLL: 11.026:  17%|█▋        | 103/600 [03:30<16:09,  1.95s/it]Train NLL: 10.970, Val NLL: 11.025:  17%|█▋        | 104/600 [03:32<16:38,  2.01s/it]Train NLL: 10.950, Val NLL: 11.028:  18%|█▊        | 105/600 [03:34<16:43,  2.03s/it]Train NLL: 10.951, Val NLL: 11.004:  18%|█▊        | 106/600 [03:36<15:54,  1.93s/it]Train NLL: 10.921, Val NLL: 10.994:  18%|█▊        | 107/600 [03:38<15:51,  1.93s/it]Train NLL: 10.930, Val NLL: 11.014:  18%|█▊        | 108/600 [03:39<15:12,  1.85s/it]Train NLL: 10.951, Val NLL: 11.042:  18%|█▊        | 109/600 [03:41<14:44,  1.80s/it]Train NLL: 10.935, Val NLL: 11.001:  18%|█▊        | 110/600 [03:43<16:01,  1.96s/it]Train NLL: 10.943, Val NLL: 11.043:  18%|█▊        | 111/600 [03:46<16:43,  2.05s/it]Train NLL: 10.956, Val NLL: 11.064:  19%|█▊        | 112/600 [03:48<16:15,  2.00s/it]Train NLL: 10.942, Val NLL: 11.014:  19%|█▉        | 113/600 [03:50<16:42,  2.06s/it]Train NLL: 10.934, Val NLL: 11.015:  19%|█▉        | 114/600 [03:51<15:49,  1.95s/it]Train NLL: 10.933, Val NLL: 10.999:  19%|█▉        | 115/600 [03:53<15:09,  1.88s/it]Train NLL: 10.929, Val NLL: 11.022:  19%|█▉        | 116/600 [03:55<15:10,  1.88s/it]Train NLL: 10.926, Val NLL: 10.994:  20%|█▉        | 117/600 [03:57<15:58,  1.98s/it]Train NLL: 10.965, Val NLL: 11.057:  20%|█▉        | 118/600 [03:59<15:14,  1.90s/it]Train NLL: 10.965, Val NLL: 11.038:  20%|█▉        | 119/600 [04:01<15:49,  1.97s/it]Train NLL: 10.952, Val NLL: 11.001:  20%|██        | 120/600 [04:03<15:24,  1.93s/it]Train NLL: 10.925, Val NLL: 11.032:  20%|██        | 121/600 [04:05<14:51,  1.86s/it]Train NLL: 10.925, Val NLL: 11.012:  20%|██        | 122/600 [04:06<14:33,  1.83s/it]Train NLL: 10.936, Val NLL: 11.000:  20%|██        | 123/600 [04:08<15:06,  1.90s/it]Train NLL: 10.934, Val NLL: 11.025:  21%|██        | 124/600 [04:10<14:47,  1.86s/it]Train NLL: 10.921, Val NLL: 10.995:  21%|██        | 125/600 [04:13<15:42,  1.98s/it]Train NLL: 10.931, Val NLL: 10.988:  21%|██        | 126/600 [04:15<15:57,  2.02s/it]Train NLL: 10.909, Val NLL: 11.006:  21%|██        | 127/600 [04:16<15:14,  1.93s/it]Train NLL: 10.941, Val NLL: 11.033:  21%|██▏       | 128/600 [04:18<15:11,  1.93s/it]Train NLL: 10.922, Val NLL: 10.986:  22%|██▏       | 129/600 [04:20<14:39,  1.87s/it]Train NLL: 10.947, Val NLL: 11.070:  22%|██▏       | 130/600 [04:22<14:15,  1.82s/it]Train NLL: 10.947, Val NLL: 11.006:  22%|██▏       | 131/600 [04:24<16:11,  2.07s/it]Train NLL: 10.941, Val NLL: 10.996:  22%|██▏       | 132/600 [04:26<15:18,  1.96s/it]Train NLL: 10.914, Val NLL: 11.003:  22%|██▏       | 133/600 [04:28<14:51,  1.91s/it]Train NLL: 10.923, Val NLL: 10.999:  22%|██▏       | 134/600 [04:30<14:40,  1.89s/it]Train NLL: 10.919, Val NLL: 11.001:  22%|██▎       | 135/600 [04:31<14:11,  1.83s/it]Train NLL: 10.932, Val NLL: 11.043:  23%|██▎       | 136/600 [04:33<13:49,  1.79s/it]Train NLL: 10.912, Val NLL: 11.003:  23%|██▎       | 137/600 [04:35<13:39,  1.77s/it]Train NLL: 10.920, Val NLL: 11.052:  23%|██▎       | 138/600 [04:38<16:03,  2.09s/it]Train NLL: 10.925, Val NLL: 10.977:  23%|██▎       | 139/600 [04:39<15:08,  1.97s/it]Train NLL: 10.927, Val NLL: 11.032:  23%|██▎       | 140/600 [04:41<14:31,  1.89s/it]Train NLL: 10.917, Val NLL: 11.029:  24%|██▎       | 141/600 [04:43<14:13,  1.86s/it]Train NLL: 10.947, Val NLL: 11.039:  24%|██▎       | 142/600 [04:45<14:48,  1.94s/it]Train NLL: 10.925, Val NLL: 11.029:  24%|██▍       | 143/600 [04:47<14:57,  1.96s/it]Train NLL: 10.911, Val NLL: 10.987:  24%|██▍       | 144/600 [04:50<17:14,  2.27s/it]Train NLL: 10.908, Val NLL: 10.993:  24%|██▍       | 145/600 [04:52<16:01,  2.11s/it]Train NLL: 10.935, Val NLL: 11.006:  24%|██▍       | 146/600 [04:54<15:13,  2.01s/it]Train NLL: 10.926, Val NLL: 11.008:  24%|██▍       | 147/600 [04:56<16:44,  2.22s/it]Epoch   148: reducing learning rate of group 0 to 1.0000e-03.
Train NLL: 10.918, Val NLL: 10.978:  25%|██▍       | 148/600 [04:58<15:35,  2.07s/it]Train NLL: 10.861, Val NLL: 10.952:  25%|██▍       | 149/600 [05:00<14:46,  1.97s/it]Train NLL: 10.845, Val NLL: 10.950:  25%|██▌       | 150/600 [05:02<15:20,  2.05s/it]Train NLL: 10.843, Val NLL: 10.956:  25%|██▌       | 151/600 [05:04<14:54,  1.99s/it]Train NLL: 10.842, Val NLL: 10.949:  25%|██▌       | 152/600 [05:06<14:25,  1.93s/it]Train NLL: 10.841, Val NLL: 10.954:  26%|██▌       | 153/600 [05:08<15:06,  2.03s/it]Train NLL: 10.840, Val NLL: 10.956:  26%|██▌       | 154/600 [05:10<14:23,  1.94s/it]Train NLL: 10.840, Val NLL: 10.961:  26%|██▌       | 155/600 [05:11<14:04,  1.90s/it]Train NLL: 10.838, Val NLL: 10.948:  26%|██▌       | 156/600 [05:13<13:32,  1.83s/it]Train NLL: 10.840, Val NLL: 10.957:  26%|██▌       | 157/600 [05:15<13:16,  1.80s/it]Train NLL: 10.839, Val NLL: 10.957:  26%|██▋       | 158/600 [05:16<13:03,  1.77s/it]Train NLL: 10.839, Val NLL: 10.960:  26%|██▋       | 159/600 [05:18<13:16,  1.81s/it]Train NLL: 10.839, Val NLL: 10.958:  27%|██▋       | 160/600 [05:21<14:49,  2.02s/it]Train NLL: 10.838, Val NLL: 10.960:  27%|██▋       | 161/600 [05:23<14:04,  1.92s/it]Train NLL: 10.839, Val NLL: 10.950:  27%|██▋       | 162/600 [05:25<14:25,  1.98s/it]Train NLL: 10.839, Val NLL: 10.949:  27%|██▋       | 163/600 [05:27<14:22,  1.97s/it]Train NLL: 10.839, Val NLL: 10.960:  27%|██▋       | 164/600 [05:29<14:26,  1.99s/it]Train NLL: 10.837, Val NLL: 10.967:  28%|██▊       | 165/600 [05:30<14:06,  1.95s/it]Train NLL: 10.836, Val NLL: 10.951:  28%|██▊       | 166/600 [05:32<13:39,  1.89s/it]Train NLL: 10.838, Val NLL: 10.951:  28%|██▊       | 167/600 [05:34<13:13,  1.83s/it]Train NLL: 10.838, Val NLL: 10.954:  28%|██▊       | 168/600 [05:36<12:54,  1.79s/it]Train NLL: 10.837, Val NLL: 10.954:  28%|██▊       | 169/600 [05:38<13:08,  1.83s/it]Train NLL: 10.841, Val NLL: 10.956:  28%|██▊       | 170/600 [05:39<12:56,  1.81s/it]Train NLL: 10.836, Val NLL: 10.950:  28%|██▊       | 171/600 [05:41<12:42,  1.78s/it]Train NLL: 10.836, Val NLL: 10.961:  29%|██▊       | 172/600 [05:43<13:27,  1.89s/it]Train NLL: 10.835, Val NLL: 10.961:  29%|██▉       | 173/600 [05:46<15:07,  2.12s/it]Train NLL: 10.836, Val NLL: 10.950:  29%|██▉       | 174/600 [05:48<14:10,  2.00s/it]Train NLL: 10.837, Val NLL: 10.956:  29%|██▉       | 175/600 [05:49<13:30,  1.91s/it]Train NLL: 10.837, Val NLL: 10.954:  29%|██▉       | 176/600 [05:51<14:15,  2.02s/it]Train NLL: 10.835, Val NLL: 10.949:  30%|██▉       | 177/600 [05:53<13:34,  1.93s/it]Train NLL: 10.838, Val NLL: 10.956:  30%|██▉       | 178/600 [05:55<13:15,  1.89s/it]Train NLL: 10.837, Val NLL: 10.950:  30%|██▉       | 179/600 [05:57<12:48,  1.83s/it]Train NLL: 10.835, Val NLL: 10.955:  30%|███       | 180/600 [05:58<12:42,  1.82s/it]Train NLL: 10.835, Val NLL: 10.952:  30%|███       | 181/600 [06:00<12:32,  1.80s/it]Train NLL: 10.838, Val NLL: 10.951:  30%|███       | 182/600 [06:02<12:35,  1.81s/it]Train NLL: 10.835, Val NLL: 10.953:  30%|███       | 183/600 [06:04<12:38,  1.82s/it]Train NLL: 10.834, Val NLL: 10.952:  31%|███       | 184/600 [06:06<12:28,  1.80s/it]Train NLL: 10.833, Val NLL: 10.955:  31%|███       | 185/600 [06:09<15:54,  2.30s/it]Train NLL: 10.835, Val NLL: 10.953:  31%|███       | 186/600 [06:11<14:40,  2.13s/it]Train NLL: 10.835, Val NLL: 10.951:  31%|███       | 187/600 [06:13<15:23,  2.24s/it]Train NLL: 10.835, Val NLL: 10.962:  31%|███▏      | 188/600 [06:15<14:14,  2.07s/it]Train NLL: 10.832, Val NLL: 10.957:  32%|███▏      | 189/600 [06:17<13:23,  1.95s/it]Train NLL: 10.833, Val NLL: 10.958:  32%|███▏      | 190/600 [06:18<13:00,  1.90s/it]Train NLL: 10.838, Val NLL: 10.963:  32%|███▏      | 191/600 [06:21<14:27,  2.12s/it]Train NLL: 10.834, Val NLL: 10.954:  32%|███▏      | 192/600 [06:23<13:30,  1.99s/it]Train NLL: 10.833, Val NLL: 10.958:  32%|███▏      | 193/600 [06:24<12:52,  1.90s/it]Train NLL: 10.834, Val NLL: 10.955:  32%|███▏      | 194/600 [06:26<12:37,  1.87s/it]Train NLL: 10.835, Val NLL: 10.957:  32%|███▎      | 195/600 [06:28<12:49,  1.90s/it]Train NLL: 10.832, Val NLL: 10.953:  33%|███▎      | 196/600 [06:30<12:24,  1.84s/it]Train NLL: 10.833, Val NLL: 10.957:  33%|███▎      | 197/600 [06:33<13:56,  2.08s/it]Train NLL: 10.834, Val NLL: 10.953:  33%|███▎      | 198/600 [06:35<13:57,  2.08s/it]Train NLL: 10.834, Val NLL: 10.955:  33%|███▎      | 199/600 [06:37<13:47,  2.06s/it]Train NLL: 10.834, Val NLL: 10.957:  33%|███▎      | 200/600 [06:39<14:32,  2.18s/it]Train NLL: 10.835, Val NLL: 10.956:  34%|███▎      | 201/600 [06:41<13:31,  2.03s/it]Train NLL: 10.834, Val NLL: 10.966:  34%|███▎      | 202/600 [06:43<14:23,  2.17s/it]Train NLL: 10.833, Val NLL: 10.952:  34%|███▍      | 203/600 [06:45<13:29,  2.04s/it]Train NLL: 10.832, Val NLL: 10.951:  34%|███▍      | 204/600 [06:47<12:45,  1.93s/it]Train NLL: 10.832, Val NLL: 10.952:  34%|███▍      | 205/600 [06:49<12:56,  1.97s/it]Train NLL: 10.833, Val NLL: 10.960:  34%|███▍      | 206/600 [06:51<12:40,  1.93s/it]Train NLL: 10.832, Val NLL: 10.956:  34%|███▍      | 207/600 [06:53<12:33,  1.92s/it]Train NLL: 10.834, Val NLL: 10.965:  35%|███▍      | 208/600 [06:55<12:46,  1.95s/it]Train NLL: 10.837, Val NLL: 10.951:  35%|███▍      | 209/600 [06:56<12:17,  1.89s/it]Epoch   210: reducing learning rate of group 0 to 1.0000e-04.
Train NLL: 10.832, Val NLL: 10.958:  35%|███▌      | 210/600 [06:58<12:14,  1.88s/it]Train NLL: 10.825, Val NLL: 10.952:  35%|███▌      | 211/600 [07:01<14:06,  2.18s/it]Train NLL: 10.823, Val NLL: 10.950:  35%|███▌      | 212/600 [07:03<13:13,  2.04s/it]Train NLL: 10.823, Val NLL: 10.950:  36%|███▌      | 213/600 [07:05<12:37,  1.96s/it]Train NLL: 10.823, Val NLL: 10.950:  36%|███▌      | 214/600 [07:07<13:11,  2.05s/it]Train NLL: 10.822, Val NLL: 10.949:  36%|███▌      | 215/600 [07:09<13:36,  2.12s/it]Train NLL: 10.822, Val NLL: 10.950:  36%|███▌      | 216/600 [07:12<14:34,  2.28s/it]Train NLL: 10.822, Val NLL: 10.951:  36%|███▌      | 217/600 [07:14<14:21,  2.25s/it]Train NLL: 10.822, Val NLL: 10.950:  36%|███▋      | 218/600 [07:16<13:15,  2.08s/it]Train NLL: 10.822, Val NLL: 10.951:  36%|███▋      | 219/600 [07:18<13:03,  2.06s/it]Train NLL: 10.822, Val NLL: 10.950:  37%|███▋      | 220/600 [07:20<12:59,  2.05s/it]Train NLL: 10.822, Val NLL: 10.950:  37%|███▋      | 221/600 [07:21<12:19,  1.95s/it]Train NLL: 10.822, Val NLL: 10.950:  37%|███▋      | 222/600 [07:23<12:01,  1.91s/it]Train NLL: 10.822, Val NLL: 10.949:  37%|███▋      | 223/600 [07:25<12:40,  2.02s/it]Train NLL: 10.822, Val NLL: 10.950:  37%|███▋      | 224/600 [07:27<12:34,  2.01s/it]Train NLL: 10.822, Val NLL: 10.950:  38%|███▊      | 225/600 [07:30<14:08,  2.26s/it]Train NLL: 10.822, Val NLL: 10.950:  38%|███▊      | 226/600 [07:32<13:29,  2.16s/it]Train NLL: 10.822, Val NLL: 10.950:  38%|███▊      | 227/600 [07:34<12:42,  2.04s/it]Train NLL: 10.822, Val NLL: 10.949:  38%|███▊      | 228/600 [07:36<13:04,  2.11s/it]Train NLL: 10.822, Val NLL: 10.950:  38%|███▊      | 229/600 [07:38<12:33,  2.03s/it]Train NLL: 10.822, Val NLL: 10.950:  38%|███▊      | 230/600 [07:40<11:56,  1.94s/it]Train NLL: 10.822, Val NLL: 10.950:  38%|███▊      | 231/600 [07:41<11:28,  1.86s/it]Train NLL: 10.822, Val NLL: 10.950:  39%|███▊      | 232/600 [07:44<12:51,  2.10s/it]Train NLL: 10.822, Val NLL: 10.951:  39%|███▉      | 233/600 [07:46<12:20,  2.02s/it]Train NLL: 10.822, Val NLL: 10.950:  39%|███▉      | 234/600 [07:48<11:44,  1.93s/it]Train NLL: 10.822, Val NLL: 10.950:  39%|███▉      | 235/600 [07:50<12:00,  1.97s/it]Train NLL: 10.822, Val NLL: 10.950:  39%|███▉      | 236/600 [07:51<11:30,  1.90s/it]Train NLL: 10.822, Val NLL: 10.950:  40%|███▉      | 237/600 [07:53<11:31,  1.90s/it]Train NLL: 10.822, Val NLL: 10.950:  40%|███▉      | 238/600 [07:56<12:04,  2.00s/it]Epoch   239: reducing learning rate of group 0 to 1.0000e-05.
Train NLL: 10.822, Val NLL: 10.951:  40%|███▉      | 239/600 [07:57<11:28,  1.91s/it]Train NLL: 10.821, Val NLL: 10.951:  40%|████      | 240/600 [07:59<11:30,  1.92s/it]Train NLL: 10.821, Val NLL: 10.951:  40%|████      | 241/600 [08:01<12:01,  2.01s/it]Train NLL: 10.821, Val NLL: 10.950:  40%|████      | 242/600 [08:03<11:28,  1.92s/it]Train NLL: 10.821, Val NLL: 10.950:  40%|████      | 243/600 [08:05<11:04,  1.86s/it]Train NLL: 10.821, Val NLL: 10.951:  41%|████      | 244/600 [08:08<12:30,  2.11s/it]Train NLL: 10.821, Val NLL: 10.950:  41%|████      | 245/600 [08:09<12:02,  2.03s/it]Train NLL: 10.821, Val NLL: 10.951:  41%|████      | 246/600 [08:11<11:28,  1.95s/it]Train NLL: 10.821, Val NLL: 10.950:  41%|████      | 247/600 [08:13<11:02,  1.88s/it]Train NLL: 10.821, Val NLL: 10.951:  41%|████▏     | 248/600 [08:15<10:46,  1.84s/it]Train NLL: 10.821, Val NLL: 10.950:  42%|████▏     | 249/600 [08:18<12:41,  2.17s/it]Train NLL: 10.821, Val NLL: 10.950:  42%|████▏     | 250/600 [08:19<11:53,  2.04s/it]Train NLL: 10.821, Val NLL: 10.950:  42%|████▏     | 251/600 [08:21<11:53,  2.04s/it]Train NLL: 10.821, Val NLL: 10.950:  42%|████▏     | 252/600 [08:23<11:57,  2.06s/it]Train NLL: 10.821, Val NLL: 10.950:  42%|████▏     | 253/600 [08:25<11:18,  1.96s/it]Train NLL: 10.821, Val NLL: 10.950:  42%|████▏     | 254/600 [08:27<11:12,  1.94s/it]Train NLL: 10.821, Val NLL: 10.950:  42%|████▎     | 255/600 [08:29<11:35,  2.01s/it]Train NLL: 10.821, Val NLL: 10.950:  43%|████▎     | 256/600 [08:31<11:00,  1.92s/it]Train NLL: 10.821, Val NLL: 10.950:  43%|████▎     | 257/600 [08:34<12:04,  2.11s/it]Train NLL: 10.821, Val NLL: 10.950:  43%|████▎     | 258/600 [08:36<11:46,  2.07s/it]Train NLL: 10.821, Val NLL: 10.950:  43%|████▎     | 259/600 [08:38<11:40,  2.05s/it]Train NLL: 10.821, Val NLL: 10.950:  43%|████▎     | 260/600 [08:40<13:09,  2.32s/it]Epoch   261: reducing learning rate of group 0 to 1.0000e-06.
Train NLL: 10.821, Val NLL: 10.950:  44%|████▎     | 261/600 [08:42<12:17,  2.17s/it]Train NLL: 10.821, Val NLL: 10.950:  44%|████▎     | 262/600 [08:44<11:35,  2.06s/it]Train NLL: 10.821, Val NLL: 10.950:  44%|████▍     | 263/600 [08:46<11:24,  2.03s/it]Train NLL: 10.821, Val NLL: 10.950:  44%|████▍     | 264/600 [08:48<10:51,  1.94s/it]Train NLL: 10.821, Val NLL: 10.950:  44%|████▍     | 265/600 [08:50<10:27,  1.87s/it]Train NLL: 10.821, Val NLL: 10.950:  44%|████▍     | 266/600 [08:52<11:05,  1.99s/it]Train NLL: 10.821, Val NLL: 10.950:  44%|████▍     | 267/600 [08:54<11:50,  2.13s/it]Train NLL: 10.821, Val NLL: 10.950:  45%|████▍     | 268/600 [08:56<11:07,  2.01s/it]Train NLL: 10.821, Val NLL: 10.950:  45%|████▍     | 269/600 [08:58<11:50,  2.15s/it]Train NLL: 10.821, Val NLL: 10.950:  45%|████▌     | 270/600 [09:00<11:28,  2.08s/it]Train NLL: 10.821, Val NLL: 10.950:  45%|████▌     | 271/600 [09:03<12:02,  2.20s/it]Train NLL: 10.821, Val NLL: 10.950:  45%|████▌     | 272/600 [09:05<12:44,  2.33s/it]Train NLL: 10.821, Val NLL: 10.950:  46%|████▌     | 273/600 [09:07<11:43,  2.15s/it]Train NLL: 10.821, Val NLL: 10.950:  46%|████▌     | 274/600 [09:09<11:33,  2.13s/it]Train NLL: 10.821, Val NLL: 10.950:  46%|████▌     | 275/600 [09:11<11:32,  2.13s/it]Train NLL: 10.821, Val NLL: 10.950:  46%|████▌     | 276/600 [09:13<10:47,  2.00s/it]Train NLL: 10.821, Val NLL: 10.950:  46%|████▌     | 277/600 [09:15<10:17,  1.91s/it]Train NLL: 10.821, Val NLL: 10.950:  46%|████▋     | 278/600 [09:18<12:20,  2.30s/it]Train NLL: 10.821, Val NLL: 10.950:  46%|████▋     | 279/600 [09:20<11:50,  2.21s/it]Train NLL: 10.821, Val NLL: 10.950:  47%|████▋     | 280/600 [09:23<12:47,  2.40s/it]Train NLL: 10.821, Val NLL: 10.950:  47%|████▋     | 281/600 [09:25<11:39,  2.19s/it]Train NLL: 10.821, Val NLL: 10.950:  47%|████▋     | 282/600 [09:27<11:39,  2.20s/it]Train NLL: 10.821, Val NLL: 10.950:  47%|████▋     | 283/600 [09:29<11:30,  2.18s/it]Train NLL: 10.821, Val NLL: 10.950:  47%|████▋     | 284/600 [09:31<10:46,  2.05s/it]Train NLL: 10.821, Val NLL: 10.950:  48%|████▊     | 285/600 [09:32<10:22,  1.98s/it]Train NLL: 10.821, Val NLL: 10.950:  48%|████▊     | 286/600 [09:34<10:08,  1.94s/it]Train NLL: 10.821, Val NLL: 10.950:  48%|████▊     | 287/600 [09:36<09:46,  1.87s/it]Train NLL: 10.821, Val NLL: 10.950:  48%|████▊     | 288/600 [09:38<09:29,  1.83s/it]Train NLL: 10.821, Val NLL: 10.950:  48%|████▊     | 289/600 [09:40<10:02,  1.94s/it]Train NLL: 10.821, Val NLL: 10.950:  48%|████▊     | 290/600 [09:42<10:45,  2.08s/it]Train NLL: 10.821, Val NLL: 10.950:  48%|████▊     | 291/600 [09:44<10:14,  1.99s/it]Train NLL: 10.821, Val NLL: 10.950:  49%|████▊     | 292/600 [09:46<09:49,  1.92s/it]Train NLL: 10.821, Val NLL: 10.950:  49%|████▉     | 293/600 [09:48<10:18,  2.01s/it]Train NLL: 10.821, Val NLL: 10.950:  49%|████▉     | 294/600 [09:50<09:54,  1.94s/it]Train NLL: 10.821, Val NLL: 10.950:  49%|████▉     | 295/600 [09:52<09:34,  1.88s/it]Train NLL: 10.821, Val NLL: 10.950:  49%|████▉     | 296/600 [09:53<09:17,  1.83s/it]Train NLL: 10.821, Val NLL: 10.950:  50%|████▉     | 297/600 [09:55<09:07,  1.81s/it]Train NLL: 10.821, Val NLL: 10.950:  50%|████▉     | 298/600 [09:58<09:57,  1.98s/it]Train NLL: 10.821, Val NLL: 10.950:  50%|████▉     | 299/600 [09:59<09:33,  1.91s/it]Train NLL: 10.821, Val NLL: 10.950:  50%|█████     | 300/600 [10:03<11:46,  2.35s/it]Train NLL: 10.821, Val NLL: 10.950:  50%|█████     | 301/600 [10:04<10:47,  2.17s/it]Train NLL: 10.821, Val NLL: 10.950:  50%|█████     | 302/600 [10:06<10:04,  2.03s/it]Train NLL: 10.821, Val NLL: 10.950:  50%|█████     | 303/600 [10:08<09:39,  1.95s/it]Train NLL: 10.821, Val NLL: 10.950:  51%|█████     | 304/600 [10:10<10:21,  2.10s/it]Train NLL: 10.821, Val NLL: 10.950:  51%|█████     | 305/600 [10:12<09:48,  1.99s/it]Train NLL: 10.821, Val NLL: 10.950:  51%|█████     | 306/600 [10:14<09:25,  1.92s/it]Train NLL: 10.821, Val NLL: 10.950:  51%|█████     | 307/600 [10:16<09:40,  1.98s/it]Train NLL: 10.821, Val NLL: 10.950:  51%|█████▏    | 308/600 [10:18<09:59,  2.05s/it]Train NLL: 10.821, Val NLL: 10.950:  52%|█████▏    | 309/600 [10:20<09:28,  1.95s/it]Train NLL: 10.821, Val NLL: 10.950:  52%|█████▏    | 310/600 [10:23<10:37,  2.20s/it]Train NLL: 10.821, Val NLL: 10.950:  52%|█████▏    | 311/600 [10:24<09:52,  2.05s/it]Train NLL: 10.821, Val NLL: 10.950:  52%|█████▏    | 312/600 [10:27<10:01,  2.09s/it]Train NLL: 10.821, Val NLL: 10.950:  52%|█████▏    | 313/600 [10:28<09:31,  1.99s/it]Train NLL: 10.821, Val NLL: 10.950:  52%|█████▏    | 314/600 [10:30<09:04,  1.91s/it]Train NLL: 10.821, Val NLL: 10.950:  52%|█████▎    | 315/600 [10:32<09:00,  1.90s/it]Train NLL: 10.821, Val NLL: 10.950:  53%|█████▎    | 316/600 [10:34<09:32,  2.02s/it]Train NLL: 10.821, Val NLL: 10.950:  53%|█████▎    | 317/600 [10:36<09:32,  2.02s/it]Train NLL: 10.821, Val NLL: 10.950:  53%|█████▎    | 318/600 [10:38<09:33,  2.03s/it]Train NLL: 10.821, Val NLL: 10.950:  53%|█████▎    | 319/600 [10:41<10:03,  2.15s/it]Train NLL: 10.821, Val NLL: 10.950:  53%|█████▎    | 320/600 [10:42<09:24,  2.02s/it]Train NLL: 10.821, Val NLL: 10.950:  54%|█████▎    | 321/600 [10:44<08:59,  1.93s/it]Train NLL: 10.821, Val NLL: 10.950:  54%|█████▎    | 322/600 [10:47<09:37,  2.08s/it]Train NLL: 10.821, Val NLL: 10.950:  54%|█████▍    | 323/600 [10:48<09:04,  1.96s/it]Train NLL: 10.821, Val NLL: 10.950:  54%|█████▍    | 324/600 [10:51<09:51,  2.14s/it]Train NLL: 10.821, Val NLL: 10.950:  54%|█████▍    | 325/600 [10:53<09:18,  2.03s/it]Train NLL: 10.821, Val NLL: 10.950:  54%|█████▍    | 326/600 [10:54<08:52,  1.94s/it]Train NLL: 10.821, Val NLL: 10.950:  55%|█████▍    | 327/600 [10:56<08:32,  1.88s/it]Train NLL: 10.821, Val NLL: 10.950:  55%|█████▍    | 328/600 [10:58<08:35,  1.90s/it]Train NLL: 10.821, Val NLL: 10.950:  55%|█████▍    | 329/600 [11:00<08:22,  1.85s/it]Train NLL: 10.821, Val NLL: 10.950:  55%|█████▌    | 330/600 [11:02<08:50,  1.96s/it]Train NLL: 10.821, Val NLL: 10.950:  55%|█████▌    | 331/600 [11:04<09:19,  2.08s/it]Train NLL: 10.821, Val NLL: 10.950:  55%|█████▌    | 332/600 [11:06<08:47,  1.97s/it]Train NLL: 10.821, Val NLL: 10.950:  56%|█████▌    | 333/600 [11:08<08:26,  1.90s/it]Train NLL: 10.821, Val NLL: 10.950:  56%|█████▌    | 334/600 [11:11<09:54,  2.24s/it]Train NLL: 10.821, Val NLL: 10.950:  56%|█████▌    | 335/600 [11:13<09:36,  2.17s/it]Train NLL: 10.821, Val NLL: 10.950:  56%|█████▌    | 336/600 [11:16<10:19,  2.35s/it]Train NLL: 10.821, Val NLL: 10.950:  56%|█████▌    | 337/600 [11:17<09:30,  2.17s/it]Train NLL: 10.821, Val NLL: 10.950:  56%|█████▋    | 338/600 [11:19<08:58,  2.06s/it]Train NLL: 10.821, Val NLL: 10.950:  56%|█████▋    | 339/600 [11:21<09:21,  2.15s/it]Train NLL: 10.821, Val NLL: 10.950:  57%|█████▋    | 340/600 [11:23<08:44,  2.02s/it]Train NLL: 10.821, Val NLL: 10.950:  57%|█████▋    | 341/600 [11:25<08:20,  1.93s/it]Train NLL: 10.821, Val NLL: 10.950:  57%|█████▋    | 342/600 [11:28<10:03,  2.34s/it]Train NLL: 10.821, Val NLL: 10.950:  57%|█████▋    | 343/600 [11:30<09:16,  2.16s/it]Train NLL: 10.821, Val NLL: 10.950:  57%|█████▋    | 344/600 [11:32<09:33,  2.24s/it]Train NLL: 10.821, Val NLL: 10.950:  57%|█████▊    | 345/600 [11:34<09:18,  2.19s/it]Train NLL: 10.821, Val NLL: 10.950:  58%|█████▊    | 346/600 [11:36<08:43,  2.06s/it]Train NLL: 10.821, Val NLL: 10.950:  58%|█████▊    | 347/600 [11:38<08:55,  2.12s/it]Train NLL: 10.821, Val NLL: 10.950:  58%|█████▊    | 348/600 [11:40<08:24,  2.00s/it]Train NLL: 10.821, Val NLL: 10.950:  58%|█████▊    | 349/600 [11:42<08:10,  1.95s/it]Train NLL: 10.821, Val NLL: 10.950:  58%|█████▊    | 350/600 [11:44<08:21,  2.00s/it]Train NLL: 10.821, Val NLL: 10.950:  58%|█████▊    | 351/600 [11:46<07:56,  1.92s/it]Train NLL: 10.821, Val NLL: 10.950:  59%|█████▊    | 352/600 [11:48<08:09,  1.97s/it]Train NLL: 10.821, Val NLL: 10.950:  59%|█████▉    | 353/600 [11:50<08:03,  1.96s/it]Train NLL: 10.821, Val NLL: 10.950:  59%|█████▉    | 354/600 [11:52<07:45,  1.89s/it]Train NLL: 10.821, Val NLL: 10.950:  59%|█████▉    | 355/600 [11:54<08:08,  2.00s/it]Train NLL: 10.821, Val NLL: 10.950:  59%|█████▉    | 356/600 [11:56<08:25,  2.07s/it]Train NLL: 10.820, Val NLL: 10.950:  60%|█████▉    | 357/600 [11:58<07:57,  1.96s/it]Train NLL: 10.820, Val NLL: 10.950:  60%|█████▉    | 358/600 [12:01<08:48,  2.18s/it]Train NLL: 10.820, Val NLL: 10.950:  60%|█████▉    | 359/600 [12:02<08:12,  2.04s/it]Train NLL: 10.821, Val NLL: 10.950:  60%|██████    | 360/600 [12:04<08:01,  2.01s/it]Train NLL: 10.820, Val NLL: 10.950:  60%|██████    | 361/600 [12:06<08:19,  2.09s/it]Train NLL: 10.820, Val NLL: 10.950:  60%|██████    | 362/600 [12:08<07:49,  1.97s/it]Train NLL: 10.820, Val NLL: 10.950:  60%|██████    | 363/600 [12:10<07:48,  1.98s/it]Train NLL: 10.820, Val NLL: 10.950:  61%|██████    | 364/600 [12:12<07:32,  1.92s/it]Train NLL: 10.820, Val NLL: 10.950:  61%|██████    | 365/600 [12:14<07:14,  1.85s/it]Train NLL: 10.820, Val NLL: 10.950:  61%|██████    | 366/600 [12:16<08:05,  2.07s/it]Train NLL: 10.820, Val NLL: 10.950:  61%|██████    | 367/600 [12:18<08:17,  2.14s/it]Train NLL: 10.820, Val NLL: 10.950:  61%|██████▏   | 368/600 [12:20<07:46,  2.01s/it]Train NLL: 10.820, Val NLL: 10.950:  62%|██████▏   | 369/600 [12:22<07:23,  1.92s/it]Train NLL: 10.820, Val NLL: 10.950:  62%|██████▏   | 370/600 [12:24<07:15,  1.89s/it]Train NLL: 10.820, Val NLL: 10.950:  62%|██████▏   | 371/600 [12:26<07:40,  2.01s/it]Train NLL: 10.820, Val NLL: 10.950:  62%|██████▏   | 372/600 [12:28<07:17,  1.92s/it]Train NLL: 10.820, Val NLL: 10.950:  62%|██████▏   | 373/600 [12:29<07:01,  1.86s/it]Train NLL: 10.820, Val NLL: 10.950:  62%|██████▏   | 374/600 [12:31<06:59,  1.86s/it]Train NLL: 10.820, Val NLL: 10.950:  62%|██████▎   | 375/600 [12:33<07:18,  1.95s/it]Train NLL: 10.820, Val NLL: 10.950:  63%|██████▎   | 376/600 [12:35<07:03,  1.89s/it]Train NLL: 10.820, Val NLL: 10.950:  63%|██████▎   | 377/600 [12:37<06:57,  1.87s/it]Train NLL: 10.820, Val NLL: 10.950:  63%|██████▎   | 378/600 [12:39<06:56,  1.88s/it]Train NLL: 10.820, Val NLL: 10.950:  63%|██████▎   | 379/600 [12:41<06:43,  1.82s/it]Train NLL: 10.820, Val NLL: 10.950:  63%|██████▎   | 380/600 [12:42<06:43,  1.83s/it]Train NLL: 10.820, Val NLL: 10.950:  64%|██████▎   | 381/600 [12:45<07:10,  1.96s/it]Train NLL: 10.820, Val NLL: 10.950:  64%|██████▎   | 382/600 [12:46<06:51,  1.89s/it]Train NLL: 10.820, Val NLL: 10.950:  64%|██████▍   | 383/600 [12:49<08:02,  2.22s/it]Train NLL: 10.820, Val NLL: 10.950:  64%|██████▍   | 384/600 [12:51<07:26,  2.07s/it]Train NLL: 10.820, Val NLL: 10.950:  64%|██████▍   | 385/600 [12:53<07:01,  1.96s/it]Train NLL: 10.820, Val NLL: 10.950:  64%|██████▍   | 386/600 [12:55<06:43,  1.88s/it]Train NLL: 10.820, Val NLL: 10.950:  64%|██████▍   | 387/600 [12:57<07:10,  2.02s/it]Train NLL: 10.820, Val NLL: 10.950:  65%|██████▍   | 388/600 [12:59<06:51,  1.94s/it]Train NLL: 10.820, Val NLL: 10.950:  65%|██████▍   | 389/600 [13:00<06:34,  1.87s/it]Train NLL: 10.820, Val NLL: 10.950:  65%|██████▌   | 390/600 [13:02<06:22,  1.82s/it]Train NLL: 10.820, Val NLL: 10.950:  65%|██████▌   | 391/600 [13:04<06:56,  1.99s/it]Train NLL: 10.820, Val NLL: 10.950:  65%|██████▌   | 392/600 [13:06<06:47,  1.96s/it]Train NLL: 10.820, Val NLL: 10.950:  66%|██████▌   | 393/600 [13:08<06:46,  1.96s/it]Train NLL: 10.820, Val NLL: 10.950:  66%|██████▌   | 394/600 [13:11<07:01,  2.05s/it]Train NLL: 10.820, Val NLL: 10.950:  66%|██████▌   | 395/600 [13:12<06:39,  1.95s/it]Train NLL: 10.820, Val NLL: 10.950:  66%|██████▌   | 396/600 [13:15<07:20,  2.16s/it]Train NLL: 10.820, Val NLL: 10.950:  66%|██████▌   | 397/600 [13:17<06:55,  2.05s/it]Train NLL: 10.820, Val NLL: 10.950:  66%|██████▋   | 398/600 [13:18<06:35,  1.96s/it]Train NLL: 10.820, Val NLL: 10.950:  66%|██████▋   | 399/600 [13:21<07:06,  2.12s/it]Train NLL: 10.820, Val NLL: 10.950:  67%|██████▋   | 400/600 [13:23<06:40,  2.00s/it]Train NLL: 10.820, Val NLL: 10.950:  67%|██████▋   | 401/600 [13:25<06:39,  2.01s/it]Train NLL: 10.820, Val NLL: 10.950:  67%|██████▋   | 402/600 [13:27<06:40,  2.02s/it]Train NLL: 10.820, Val NLL: 10.950:  67%|██████▋   | 403/600 [13:28<06:21,  1.93s/it]Train NLL: 10.820, Val NLL: 10.950:  67%|██████▋   | 404/600 [13:31<06:29,  1.99s/it]Train NLL: 10.820, Val NLL: 10.950:  68%|██████▊   | 405/600 [13:33<06:30,  2.00s/it]Train NLL: 10.820, Val NLL: 10.950:  68%|██████▊   | 406/600 [13:34<06:15,  1.94s/it]Train NLL: 10.820, Val NLL: 10.950:  68%|██████▊   | 407/600 [13:36<06:17,  1.96s/it]Train NLL: 10.820, Val NLL: 10.950:  68%|██████▊   | 408/600 [13:40<07:34,  2.37s/it]Train NLL: 10.820, Val NLL: 10.950:  68%|██████▊   | 409/600 [13:41<06:55,  2.18s/it]Train NLL: 10.820, Val NLL: 10.950:  68%|██████▊   | 410/600 [13:43<06:28,  2.05s/it]Train NLL: 10.820, Val NLL: 10.950:  68%|██████▊   | 411/600 [13:45<06:11,  1.96s/it]Train NLL: 10.820, Val NLL: 10.950:  69%|██████▊   | 412/600 [13:47<06:17,  2.01s/it]Train NLL: 10.820, Val NLL: 10.950:  69%|██████▉   | 413/600 [13:49<06:07,  1.96s/it]Train NLL: 10.820, Val NLL: 10.950:  69%|██████▉   | 414/600 [13:51<05:53,  1.90s/it]Train NLL: 10.820, Val NLL: 10.950:  69%|██████▉   | 415/600 [13:53<05:52,  1.91s/it]Train NLL: 10.820, Val NLL: 10.950:  69%|██████▉   | 416/600 [13:54<05:40,  1.85s/it]Train NLL: 10.820, Val NLL: 10.950:  70%|██████▉   | 417/600 [13:56<05:31,  1.81s/it]Train NLL: 10.820, Val NLL: 10.950:  70%|██████▉   | 418/600 [13:58<05:43,  1.89s/it]Train NLL: 10.820, Val NLL: 10.950:  70%|██████▉   | 419/600 [14:00<05:31,  1.83s/it]Train NLL: 10.820, Val NLL: 10.950:  70%|███████   | 420/600 [14:02<05:22,  1.79s/it]Train NLL: 10.820, Val NLL: 10.950:  70%|███████   | 421/600 [14:03<05:16,  1.77s/it]Train NLL: 10.820, Val NLL: 10.950:  70%|███████   | 422/600 [14:06<05:59,  2.02s/it]Train NLL: 10.820, Val NLL: 10.950:  70%|███████   | 423/600 [14:08<05:41,  1.93s/it]Train NLL: 10.820, Val NLL: 10.950:  71%|███████   | 424/600 [14:09<05:27,  1.86s/it]Train NLL: 10.820, Val NLL: 10.950:  71%|███████   | 425/600 [14:11<05:22,  1.84s/it]Train NLL: 10.820, Val NLL: 10.950:  71%|███████   | 426/600 [14:13<05:20,  1.84s/it]Train NLL: 10.820, Val NLL: 10.950:  71%|███████   | 427/600 [14:15<05:13,  1.81s/it]Train NLL: 10.820, Val NLL: 10.950:  71%|███████▏  | 428/600 [14:18<06:28,  2.26s/it]Train NLL: 10.820, Val NLL: 10.950:  72%|███████▏  | 429/600 [14:20<05:58,  2.10s/it]Train NLL: 10.820, Val NLL: 10.950:  72%|███████▏  | 430/600 [14:21<05:35,  1.97s/it]Train NLL: 10.820, Val NLL: 10.950:  72%|███████▏  | 431/600 [14:23<05:38,  2.00s/it]Train NLL: 10.820, Val NLL: 10.950:  72%|███████▏  | 432/600 [14:26<05:55,  2.12s/it]Train NLL: 10.820, Val NLL: 10.950:  72%|███████▏  | 433/600 [14:28<05:32,  1.99s/it]Train NLL: 10.820, Val NLL: 10.950:  72%|███████▏  | 434/600 [14:29<05:17,  1.91s/it]Train NLL: 10.820, Val NLL: 10.950:  72%|███████▎  | 435/600 [14:31<05:21,  1.95s/it]Train NLL: 10.820, Val NLL: 10.950:  73%|███████▎  | 436/600 [14:34<05:35,  2.04s/it]Train NLL: 10.820, Val NLL: 10.950:  73%|███████▎  | 437/600 [14:35<05:18,  1.95s/it]Train NLL: 10.820, Val NLL: 10.950:  73%|███████▎  | 438/600 [14:37<05:23,  2.00s/it]Train NLL: 10.820, Val NLL: 10.950:  73%|███████▎  | 439/600 [14:39<05:12,  1.94s/it]Train NLL: 10.820, Val NLL: 10.950:  73%|███████▎  | 440/600 [14:41<05:00,  1.88s/it]Train NLL: 10.820, Val NLL: 10.950:  74%|███████▎  | 441/600 [14:44<05:39,  2.13s/it]Train NLL: 10.820, Val NLL: 10.950:  74%|███████▎  | 442/600 [14:45<05:16,  2.00s/it]Train NLL: 10.820, Val NLL: 10.950:  74%|███████▍  | 443/600 [14:47<05:09,  1.97s/it]Train NLL: 10.820, Val NLL: 10.950:  74%|███████▍  | 444/600 [14:50<05:29,  2.11s/it]Train NLL: 10.820, Val NLL: 10.950:  74%|███████▍  | 445/600 [14:51<05:08,  1.99s/it]Train NLL: 10.820, Val NLL: 10.950:  74%|███████▍  | 446/600 [14:53<04:54,  1.91s/it]Train NLL: 10.820, Val NLL: 10.950:  74%|███████▍  | 447/600 [14:55<04:51,  1.90s/it]Train NLL: 10.820, Val NLL: 10.950:  75%|███████▍  | 448/600 [14:57<04:41,  1.85s/it]Train NLL: 10.820, Val NLL: 10.950:  75%|███████▍  | 449/600 [14:59<04:42,  1.87s/it]Train NLL: 10.820, Val NLL: 10.950:  75%|███████▌  | 450/600 [15:01<04:41,  1.87s/it]Train NLL: 10.820, Val NLL: 10.950:  75%|███████▌  | 451/600 [15:02<04:33,  1.83s/it]Train NLL: 10.820, Val NLL: 10.950:  75%|███████▌  | 452/600 [15:04<04:28,  1.82s/it]Train NLL: 10.820, Val NLL: 10.950:  76%|███████▌  | 453/600 [15:06<04:45,  1.94s/it]Train NLL: 10.820, Val NLL: 10.950:  76%|███████▌  | 454/600 [15:09<04:55,  2.03s/it]Train NLL: 10.820, Val NLL: 10.950:  76%|███████▌  | 455/600 [15:10<04:42,  1.95s/it]Train NLL: 10.820, Val NLL: 10.950:  76%|███████▌  | 456/600 [15:13<04:52,  2.03s/it]Train NLL: 10.820, Val NLL: 10.950:  76%|███████▌  | 457/600 [15:15<05:24,  2.27s/it]Train NLL: 10.820, Val NLL: 10.950:  76%|███████▋  | 458/600 [15:17<04:59,  2.11s/it]Train NLL: 10.820, Val NLL: 10.950:  76%|███████▋  | 459/600 [15:19<04:41,  2.00s/it]Train NLL: 10.820, Val NLL: 10.950:  77%|███████▋  | 460/600 [15:21<04:43,  2.03s/it]Train NLL: 10.820, Val NLL: 10.950:  77%|███████▋  | 461/600 [15:23<04:34,  1.97s/it]Train NLL: 10.820, Val NLL: 10.950:  77%|███████▋  | 462/600 [15:24<04:22,  1.90s/it]Train NLL: 10.820, Val NLL: 10.950:  77%|███████▋  | 463/600 [15:26<04:13,  1.85s/it]Train NLL: 10.820, Val NLL: 10.950:  77%|███████▋  | 464/600 [15:29<04:52,  2.15s/it]Train NLL: 10.820, Val NLL: 10.950:  78%|███████▊  | 465/600 [15:31<04:32,  2.02s/it]Train NLL: 10.820, Val NLL: 10.950:  78%|███████▊  | 466/600 [15:32<04:18,  1.93s/it]Train NLL: 10.820, Val NLL: 10.950:  78%|███████▊  | 467/600 [15:34<04:08,  1.87s/it]Train NLL: 10.820, Val NLL: 10.950:  78%|███████▊  | 468/600 [15:36<04:19,  1.97s/it]Train NLL: 10.820, Val NLL: 10.950:  78%|███████▊  | 469/600 [15:39<04:34,  2.10s/it]Train NLL: 10.820, Val NLL: 10.950:  78%|███████▊  | 470/600 [15:41<04:35,  2.12s/it]Train NLL: 10.820, Val NLL: 10.950:  78%|███████▊  | 471/600 [15:44<04:56,  2.30s/it]Train NLL: 10.820, Val NLL: 10.950:  79%|███████▊  | 472/600 [15:47<05:23,  2.53s/it]Train NLL: 10.820, Val NLL: 10.950:  79%|███████▉  | 473/600 [15:49<05:23,  2.55s/it]Train NLL: 10.820, Val NLL: 10.950:  79%|███████▉  | 474/600 [15:51<04:58,  2.37s/it]Train NLL: 10.820, Val NLL: 10.950:  79%|███████▉  | 475/600 [15:53<04:44,  2.28s/it]Train NLL: 10.820, Val NLL: 10.950:  79%|███████▉  | 476/600 [15:55<04:30,  2.18s/it]Train NLL: 10.820, Val NLL: 10.950:  80%|███████▉  | 477/600 [15:58<04:51,  2.37s/it]Train NLL: 10.820, Val NLL: 10.950:  80%|███████▉  | 478/600 [16:00<04:35,  2.26s/it]Train NLL: 10.820, Val NLL: 10.950:  80%|███████▉  | 479/600 [16:02<04:18,  2.14s/it]Train NLL: 10.820, Val NLL: 10.950:  80%|████████  | 480/600 [16:05<04:30,  2.25s/it]Train NLL: 10.820, Val NLL: 10.950:  80%|████████  | 481/600 [16:07<04:28,  2.26s/it]Train NLL: 10.820, Val NLL: 10.950:  80%|████████  | 482/600 [16:09<04:31,  2.30s/it]Train NLL: 10.820, Val NLL: 10.950:  80%|████████  | 483/600 [16:11<04:23,  2.25s/it]Train NLL: 10.820, Val NLL: 10.950:  81%|████████  | 484/600 [16:13<04:07,  2.13s/it]Train NLL: 10.820, Val NLL: 10.950:  81%|████████  | 485/600 [16:17<05:11,  2.71s/it]Train NLL: 10.820, Val NLL: 10.950:  81%|████████  | 486/600 [16:21<06:00,  3.16s/it]Train NLL: 10.820, Val NLL: 10.950:  81%|████████  | 487/600 [16:25<06:03,  3.21s/it]Train NLL: 10.820, Val NLL: 10.950:  81%|████████▏ | 488/600 [16:32<08:17,  4.45s/it]Train NLL: 10.820, Val NLL: 10.950:  82%|████████▏ | 489/600 [16:36<07:51,  4.25s/it]Train NLL: 10.820, Val NLL: 10.950:  82%|████████▏ | 490/600 [16:38<06:24,  3.49s/it]Train NLL: 10.820, Val NLL: 10.950:  82%|████████▏ | 491/600 [16:40<05:31,  3.04s/it]Train NLL: 10.820, Val NLL: 10.950:  82%|████████▏ | 492/600 [16:42<05:14,  2.91s/it]Train NLL: 10.820, Val NLL: 10.950:  82%|████████▏ | 493/600 [16:44<04:33,  2.56s/it]Train NLL: 10.820, Val NLL: 10.950:  82%|████████▏ | 494/600 [16:46<04:10,  2.36s/it]Train NLL: 10.820, Val NLL: 10.950:  82%|████████▎ | 495/600 [16:48<04:09,  2.38s/it]Train NLL: 10.820, Val NLL: 10.950:  83%|████████▎ | 496/600 [16:50<03:47,  2.19s/it]Train NLL: 10.820, Val NLL: 10.950:  83%|████████▎ | 497/600 [16:52<03:30,  2.05s/it]Train NLL: 10.820, Val NLL: 10.950:  83%|████████▎ | 498/600 [16:54<03:34,  2.11s/it]Train NLL: 10.820, Val NLL: 10.950:  83%|████████▎ | 499/600 [16:56<03:36,  2.14s/it]Train NLL: 10.820, Val NLL: 10.950:  83%|████████▎ | 500/600 [16:58<03:22,  2.02s/it]Train NLL: 10.820, Val NLL: 10.950:  84%|████████▎ | 501/600 [17:00<03:11,  1.93s/it]Train NLL: 10.820, Val NLL: 10.950:  84%|████████▎ | 502/600 [17:02<03:20,  2.04s/it]Train NLL: 10.820, Val NLL: 10.950:  84%|████████▍ | 503/600 [17:04<03:12,  1.98s/it]Train NLL: 10.820, Val NLL: 10.950:  84%|████████▍ | 504/600 [17:06<03:02,  1.90s/it]Train NLL: 10.820, Val NLL: 10.950:  84%|████████▍ | 505/600 [17:08<03:06,  1.97s/it]Train NLL: 10.820, Val NLL: 10.950:  84%|████████▍ | 506/600 [17:10<03:20,  2.13s/it]Train NLL: 10.820, Val NLL: 10.950:  84%|████████▍ | 507/600 [17:12<03:08,  2.03s/it]Train NLL: 10.820, Val NLL: 10.950:  85%|████████▍ | 508/600 [17:14<02:59,  1.95s/it]Train NLL: 10.820, Val NLL: 10.950:  85%|████████▍ | 509/600 [17:16<03:07,  2.06s/it]Train NLL: 10.820, Val NLL: 10.950:  85%|████████▌ | 510/600 [17:18<03:06,  2.08s/it]Train NLL: 10.820, Val NLL: 10.950:  85%|████████▌ | 511/600 [17:20<02:57,  2.00s/it]Train NLL: 10.820, Val NLL: 10.950:  85%|████████▌ | 512/600 [17:22<02:52,  1.96s/it]Train NLL: 10.820, Val NLL: 10.950:  86%|████████▌ | 513/600 [17:24<02:55,  2.02s/it]Train NLL: 10.820, Val NLL: 10.950:  86%|████████▌ | 514/600 [17:27<03:14,  2.26s/it]Train NLL: 10.820, Val NLL: 10.950:  86%|████████▌ | 515/600 [17:29<03:14,  2.29s/it]Train NLL: 10.820, Val NLL: 10.950:  86%|████████▌ | 516/600 [17:31<03:12,  2.30s/it]Train NLL: 10.820, Val NLL: 10.950:  86%|████████▌ | 517/600 [17:34<03:13,  2.33s/it]Train NLL: 10.820, Val NLL: 10.950:  86%|████████▋ | 518/600 [17:37<03:18,  2.42s/it]Train NLL: 10.820, Val NLL: 10.950:  86%|████████▋ | 519/600 [17:40<03:46,  2.80s/it]Train NLL: 10.820, Val NLL: 10.950:  87%|████████▋ | 520/600 [17:43<03:48,  2.85s/it]Train NLL: 10.820, Val NLL: 10.950:  87%|████████▋ | 521/600 [17:47<03:59,  3.03s/it]Train NLL: 10.820, Val NLL: 10.950:  87%|████████▋ | 522/600 [17:50<03:54,  3.00s/it]Train NLL: 10.820, Val NLL: 10.950:  87%|████████▋ | 523/600 [17:52<03:46,  2.95s/it]Train NLL: 10.820, Val NLL: 10.950:  87%|████████▋ | 524/600 [17:54<03:24,  2.68s/it]Train NLL: 10.820, Val NLL: 10.950:  88%|████████▊ | 525/600 [17:57<03:13,  2.58s/it]Train NLL: 10.820, Val NLL: 10.950:  88%|████████▊ | 526/600 [17:59<02:53,  2.35s/it]Train NLL: 10.820, Val NLL: 10.950:  88%|████████▊ | 527/600 [18:01<02:45,  2.27s/it]Train NLL: 10.820, Val NLL: 10.950:  88%|████████▊ | 528/600 [18:02<02:32,  2.11s/it]Train NLL: 10.820, Val NLL: 10.950:  88%|████████▊ | 529/600 [18:06<02:54,  2.46s/it]Train NLL: 10.820, Val NLL: 10.950:  88%|████████▊ | 530/600 [18:08<02:54,  2.49s/it]Train NLL: 10.820, Val NLL: 10.950:  88%|████████▊ | 531/600 [18:11<03:06,  2.70s/it]Train NLL: 10.820, Val NLL: 10.950:  89%|████████▊ | 532/600 [18:14<03:00,  2.66s/it]Train NLL: 10.820, Val NLL: 10.950:  89%|████████▉ | 533/600 [18:17<02:58,  2.66s/it]Train NLL: 10.820, Val NLL: 10.950:  89%|████████▉ | 534/600 [18:21<03:32,  3.22s/it]Train NLL: 10.820, Val NLL: 10.950:  89%|████████▉ | 535/600 [18:23<03:00,  2.78s/it]Train NLL: 10.820, Val NLL: 10.950:  89%|████████▉ | 536/600 [18:25<02:37,  2.46s/it]Train NLL: 10.820, Val NLL: 10.950:  90%|████████▉ | 537/600 [18:27<02:30,  2.39s/it]Train NLL: 10.820, Val NLL: 10.950:  90%|████████▉ | 538/600 [18:29<02:14,  2.18s/it]Train NLL: 10.820, Val NLL: 10.950:  90%|████████▉ | 539/600 [18:30<02:04,  2.03s/it]Train NLL: 10.820, Val NLL: 10.950:  90%|█████████ | 540/600 [18:32<01:59,  1.99s/it]Train NLL: 10.820, Val NLL: 10.950:  90%|█████████ | 541/600 [18:35<02:09,  2.19s/it]Train NLL: 10.820, Val NLL: 10.950:  90%|█████████ | 542/600 [18:37<02:01,  2.10s/it]Train NLL: 10.820, Val NLL: 10.950:  90%|█████████ | 543/600 [18:39<01:57,  2.05s/it]Train NLL: 10.820, Val NLL: 10.950:  91%|█████████ | 544/600 [18:41<01:56,  2.07s/it]Train NLL: 10.820, Val NLL: 10.950:  91%|█████████ | 545/600 [18:42<01:47,  1.96s/it]Train NLL: 10.820, Val NLL: 10.950:  91%|█████████ | 546/600 [18:44<01:42,  1.89s/it]Train NLL: 10.820, Val NLL: 10.950:  91%|█████████ | 547/600 [18:47<01:49,  2.07s/it]Train NLL: 10.820, Val NLL: 10.950:  91%|█████████▏| 548/600 [18:49<01:55,  2.22s/it]Train NLL: 10.820, Val NLL: 10.950:  92%|█████████▏| 549/600 [18:51<01:46,  2.08s/it]Train NLL: 10.820, Val NLL: 10.950:  92%|█████████▏| 550/600 [18:54<01:51,  2.23s/it]Train NLL: 10.820, Val NLL: 10.950:  92%|█████████▏| 551/600 [18:56<01:55,  2.35s/it]Train NLL: 10.820, Val NLL: 10.950:  92%|█████████▏| 552/600 [18:58<01:44,  2.18s/it]Train NLL: 10.820, Val NLL: 10.950:  92%|█████████▏| 553/600 [19:00<01:39,  2.11s/it]Train NLL: 10.820, Val NLL: 10.950:  92%|█████████▏| 554/600 [19:03<01:49,  2.38s/it]Train NLL: 10.820, Val NLL: 10.950:  92%|█████████▎| 555/600 [19:05<01:38,  2.19s/it]Train NLL: 10.820, Val NLL: 10.950:  93%|█████████▎| 556/600 [19:08<01:45,  2.39s/it]Train NLL: 10.820, Val NLL: 10.950:  93%|█████████▎| 557/600 [19:10<01:40,  2.33s/it]Train NLL: 10.820, Val NLL: 10.950:  93%|█████████▎| 558/600 [19:13<01:50,  2.63s/it]Train NLL: 10.820, Val NLL: 10.950:  93%|█████████▎| 559/600 [19:16<01:48,  2.65s/it]Train NLL: 10.820, Val NLL: 10.950:  93%|█████████▎| 560/600 [19:20<02:05,  3.14s/it]Train NLL: 10.820, Val NLL: 10.950:  94%|█████████▎| 561/600 [19:50<07:16, 11.19s/it]Train NLL: 10.820, Val NLL: 10.950:  94%|█████████▎| 562/600 [20:16<09:52, 15.59s/it]Train NLL: 10.820, Val NLL: 10.950:  94%|█████████▍| 563/600 [20:51<13:12, 21.41s/it]Train NLL: 10.820, Val NLL: 10.950:  94%|█████████▍| 564/600 [21:23<14:46, 24.62s/it]Train NLL: 10.820, Val NLL: 10.950:  94%|█████████▍| 565/600 [21:53<15:17, 26.21s/it]Train NLL: 10.820, Val NLL: 10.950:  94%|█████████▍| 566/600 [22:24<15:45, 27.82s/it]Train NLL: 10.820, Val NLL: 10.950:  94%|█████████▍| 567/600 [22:55<15:47, 28.70s/it]Train NLL: 10.820, Val NLL: 10.950:  95%|█████████▍| 568/600 [23:28<15:58, 29.94s/it]Train NLL: 10.820, Val NLL: 10.950:  95%|█████████▍| 569/600 [23:59<15:32, 30.09s/it]Train NLL: 10.820, Val NLL: 10.950:  95%|█████████▌| 570/600 [24:35<16:03, 32.12s/it]Train NLL: 10.820, Val NLL: 10.950:  95%|█████████▌| 571/600 [25:06<15:19, 31.70s/it]Train NLL: 10.820, Val NLL: 10.950:  95%|█████████▌| 572/600 [25:37<14:42, 31.53s/it]Train NLL: 10.820, Val NLL: 10.950:  96%|█████████▌| 573/600 [26:06<13:52, 30.83s/it]Train NLL: 10.820, Val NLL: 10.950:  96%|█████████▌| 574/600 [26:40<13:45, 31.74s/it]Train NLL: 10.820, Val NLL: 10.950:  96%|█████████▌| 575/600 [27:10<12:55, 31.01s/it]Train NLL: 10.820, Val NLL: 10.950:  96%|█████████▌| 576/600 [27:39<12:14, 30.62s/it]Train NLL: 10.820, Val NLL: 10.950:  96%|█████████▌| 577/600 [28:11<11:48, 30.81s/it]Train NLL: 10.820, Val NLL: 10.950:  96%|█████████▋| 578/600 [28:43<11:25, 31.16s/it]Train NLL: 10.820, Val NLL: 10.950:  96%|█████████▋| 579/600 [29:14<10:56, 31.28s/it]Train NLL: 10.820, Val NLL: 10.950:  97%|█████████▋| 580/600 [29:46<10:29, 31.49s/it]Train NLL: 10.820, Val NLL: 10.950:  97%|█████████▋| 581/600 [30:13<09:32, 30.11s/it]Train NLL: 10.820, Val NLL: 10.950:  97%|█████████▋| 582/600 [30:42<08:57, 29.84s/it]Train NLL: 10.820, Val NLL: 10.950:  97%|█████████▋| 583/600 [31:11<08:20, 29.41s/it]Train NLL: 10.820, Val NLL: 10.950:  97%|█████████▋| 584/600 [31:41<07:54, 29.63s/it]Train NLL: 10.820, Val NLL: 10.950:  98%|█████████▊| 585/600 [32:09<07:19, 29.29s/it]Train NLL: 10.820, Val NLL: 10.950:  98%|█████████▊| 586/600 [32:42<07:06, 30.45s/it]Train NLL: 10.820, Val NLL: 10.950:  98%|█████████▊| 587/600 [33:12<06:33, 30.30s/it]Train NLL: 10.820, Val NLL: 10.950:  98%|█████████▊| 588/600 [33:41<05:57, 29.78s/it]Train NLL: 10.820, Val NLL: 10.950:  98%|█████████▊| 589/600 [34:14<05:38, 30.75s/it]Train NLL: 10.820, Val NLL: 10.950:  98%|█████████▊| 590/600 [34:44<05:05, 30.57s/it]Train NLL: 10.820, Val NLL: 10.950:  98%|█████████▊| 591/600 [35:13<04:30, 30.09s/it]Train NLL: 10.820, Val NLL: 10.950:  99%|█████████▊| 592/600 [35:47<04:10, 31.34s/it]Train NLL: 10.820, Val NLL: 10.950:  99%|█████████▉| 593/600 [36:15<03:32, 30.33s/it]Train NLL: 10.820, Val NLL: 10.950:  99%|█████████▉| 594/600 [36:51<03:12, 32.07s/it]Train NLL: 10.820, Val NLL: 10.950:  99%|█████████▉| 595/600 [37:22<02:38, 31.78s/it]Train NLL: 10.820, Val NLL: 10.950:  99%|█████████▉| 596/600 [37:54<02:06, 31.65s/it]Train NLL: 10.820, Val NLL: 10.950: 100%|█████████▉| 597/600 [38:28<01:37, 32.37s/it]Train NLL: 10.820, Val NLL: 10.950: 100%|█████████▉| 598/600 [39:01<01:05, 32.56s/it]Train NLL: 10.820, Val NLL: 10.950: 100%|█████████▉| 599/600 [39:36<00:33, 33.28s/it]Train NLL: 10.820, Val NLL: 10.950: 100%|██████████| 600/600 [40:10<00:00, 33.66s/it]Train NLL: 10.820, Val NLL: 10.950: 100%|██████████| 600/600 [40:10<00:00,  4.02s/it]
INFO - residual_nf - Completed after 0:40:15
