INFO - residual_nf - Running command 'run'
INFO - residual_nf - Started run with ID "3"
[CONFIG] {'bn': 'mehra-real', 'structure': 'faithful', 'coeff': 0.99, 'n_power_iterations': 5, 'num_blocks': 2, 'hidden_dims': [100], 'activation': 'lipswish', 'grad_in_forward': True, 'batch_size': 100, 'num_train_samples': 10000, 'num_val_samples': 5000, 'num_epochs': 300, 'num_train_batches': 100, 'num_val_batches': 50, 'lr': 0.01, 'seed': 2, 'patience': 20, 'double': True, 'run': 1, 'checkpoint_n': 10, 'load_from_checkpoint': False, 'ex_name': 'residual_nf_density_estimation', 'sub_folder': 'faithful_99_lipswish_2_[100]', 'path': './experiment_logs/residual_nf_density_estimation/mehra-real/faithful_99_lipswish_2_[100]', 'bt_config': {'depth': 5, 'seed': 4}}
[DEVICE] cpu
[LOADING DATA] Mehra
[ENCODED STRUCTURE] Using faithful BN structure.
  0%|          | 0/300 [00:00<?, ?it/s]Train NLL: 11.843, Val NLL: 11.731:   1%|          | 3/300 [00:01<02:08,  2.32it/s]Train NLL: 11.654, Val NLL: 11.570:   2%|▏         | 6/300 [00:03<03:25,  1.43it/s]Train NLL: 11.613, Val NLL: 11.552:   3%|▎         | 9/300 [00:05<02:39,  1.82it/s]Train NLL: 11.590, Val NLL: 11.543:   4%|▍         | 12/300 [00:06<02:13,  2.15it/s]Train NLL: 11.572, Val NLL: 11.515:   5%|▌         | 15/300 [00:07<02:00,  2.36it/s]Train NLL: 11.559, Val NLL: 11.481:   6%|▌         | 18/300 [00:08<01:58,  2.37it/s]Train NLL: 11.530, Val NLL: 11.452:   7%|▋         | 21/300 [00:09<01:51,  2.50it/s]Train NLL: 11.515, Val NLL: 11.474:   8%|▊         | 24/300 [00:10<01:44,  2.63it/s]Train NLL: 11.510, Val NLL: 11.477:   9%|▉         | 27/300 [00:11<01:46,  2.56it/s]Train NLL: 11.512, Val NLL: 11.464:  10%|█         | 30/300 [00:12<01:41,  2.65it/s]Train NLL: 11.512, Val NLL: 11.437:  11%|█         | 33/300 [00:13<01:37,  2.74it/s]Train NLL: 11.504, Val NLL: 11.493:  12%|█▏        | 36/300 [00:14<01:33,  2.81it/s]Train NLL: 11.495, Val NLL: 11.440:  13%|█▎        | 39/300 [00:15<01:31,  2.86it/s]Train NLL: 11.501, Val NLL: 11.448:  14%|█▍        | 42/300 [00:16<01:30,  2.84it/s]Train NLL: 11.509, Val NLL: 11.425:  15%|█▌        | 45/300 [00:18<01:37,  2.62it/s]Train NLL: 11.506, Val NLL: 11.443:  16%|█▌        | 48/300 [00:19<01:32,  2.72it/s]Train NLL: 11.492, Val NLL: 11.461:  17%|█▋        | 51/300 [00:20<01:29,  2.79it/s]Train NLL: 11.501, Val NLL: 11.383:  18%|█▊        | 54/300 [00:21<01:34,  2.60it/s]Train NLL: 11.495, Val NLL: 11.416:  19%|█▉        | 57/300 [00:22<01:39,  2.44it/s]Train NLL: 11.496, Val NLL: 11.448:  20%|██        | 60/300 [00:24<01:35,  2.51it/s]Train NLL: 11.498, Val NLL: 11.434:  21%|██        | 63/300 [00:25<01:39,  2.38it/s]Train NLL: 11.492, Val NLL: 11.449:  22%|██▏       | 66/300 [00:26<01:42,  2.29it/s]Train NLL: 11.486, Val NLL: 11.422:  23%|██▎       | 69/300 [00:27<01:35,  2.43it/s]Train NLL: 11.479, Val NLL: 11.421:  24%|██▍       | 72/300 [00:29<01:34,  2.41it/s]Train NLL: 11.486, Val NLL: 11.427:  25%|██▌       | 75/300 [00:30<01:28,  2.53it/s]Train NLL: 11.486, Val NLL: 11.438:  26%|██▌       | 78/300 [00:31<01:28,  2.51it/s]Train NLL: 11.486, Val NLL: 11.432:  27%|██▋       | 81/300 [00:32<01:25,  2.55it/s]Train NLL: 11.488, Val NLL: 11.425:  28%|██▊       | 84/300 [00:33<01:21,  2.64it/s]Train NLL: 11.485, Val NLL: 11.425:  29%|██▉       | 87/300 [00:34<01:18,  2.73it/s]Train NLL: 11.487, Val NLL: 11.437:  30%|███       | 90/300 [00:35<01:15,  2.80it/s]Train NLL: 11.479, Val NLL: 11.422:  31%|███▏      | 94/300 [00:37<01:11,  2.88it/s]Train NLL: 11.478, Val NLL: 11.412:  33%|███▎      | 98/300 [00:38<01:09,  2.92it/s]Train NLL: 11.491, Val NLL: 11.411:  34%|███▎      | 101/300 [00:39<01:07,  2.94it/s]Epoch   104: reducing learning rate of group 0 to 1.0000e-03.
Train NLL: 11.478, Val NLL: 11.435:  35%|███▍      | 104/300 [00:40<01:08,  2.87it/s]Train NLL: 11.434, Val NLL: 11.373:  36%|███▌      | 107/300 [00:41<01:10,  2.75it/s]Train NLL: 11.433, Val NLL: 11.379:  37%|███▋      | 110/300 [00:43<01:14,  2.55it/s]Train NLL: 11.431, Val NLL: 11.379:  38%|███▊      | 113/300 [00:44<01:17,  2.42it/s]Train NLL: 11.429, Val NLL: 11.374:  39%|███▉      | 117/300 [00:45<01:10,  2.60it/s]Train NLL: 11.427, Val NLL: 11.379:  40%|████      | 120/300 [00:46<01:06,  2.70it/s]Train NLL: 11.429, Val NLL: 11.372:  41%|████      | 123/300 [00:47<01:04,  2.76it/s]Train NLL: 11.428, Val NLL: 11.374:  42%|████▏     | 126/300 [00:48<01:02,  2.80it/s]Train NLL: 11.428, Val NLL: 11.375:  43%|████▎     | 129/300 [00:49<01:00,  2.82it/s]Train NLL: 11.428, Val NLL: 11.371:  44%|████▍     | 132/300 [00:50<00:58,  2.86it/s]Train NLL: 11.428, Val NLL: 11.369:  45%|████▌     | 135/300 [00:51<00:57,  2.89it/s]Train NLL: 11.427, Val NLL: 11.374:  46%|████▌     | 138/300 [00:52<00:56,  2.86it/s]Train NLL: 11.428, Val NLL: 11.372:  47%|████▋     | 141/300 [00:54<00:58,  2.71it/s]Train NLL: 11.428, Val NLL: 11.371:  48%|████▊     | 144/300 [00:55<01:03,  2.44it/s]Train NLL: 11.427, Val NLL: 11.370:  49%|████▉     | 147/300 [00:56<00:59,  2.59it/s]Train NLL: 11.428, Val NLL: 11.375:  50%|█████     | 150/300 [00:57<00:55,  2.69it/s]Epoch   151: reducing learning rate of group 0 to 1.0000e-04.
Train NLL: 11.426, Val NLL: 11.370:  51%|█████     | 153/300 [00:58<00:53,  2.74it/s]Train NLL: 11.422, Val NLL: 11.368:  52%|█████▏    | 156/300 [00:59<00:51,  2.81it/s]Train NLL: 11.421, Val NLL: 11.366:  53%|█████▎    | 159/300 [01:00<00:49,  2.86it/s]Train NLL: 11.422, Val NLL: 11.366:  54%|█████▍    | 162/300 [01:01<00:47,  2.88it/s]Train NLL: 11.421, Val NLL: 11.367:  55%|█████▌    | 165/300 [01:02<00:46,  2.91it/s]Train NLL: 11.422, Val NLL: 11.367:  56%|█████▌    | 168/300 [01:03<00:45,  2.92it/s]Train NLL: 11.420, Val NLL: 11.367:  57%|█████▋    | 171/300 [01:04<00:44,  2.91it/s]Train NLL: 11.420, Val NLL: 11.366:  58%|█████▊    | 174/300 [01:05<00:43,  2.90it/s]Train NLL: 11.422, Val NLL: 11.366:  59%|█████▉    | 177/300 [01:06<00:42,  2.88it/s]Epoch   179: reducing learning rate of group 0 to 1.0000e-05.
Train NLL: 11.421, Val NLL: 11.367:  60%|██████    | 180/300 [01:08<00:43,  2.76it/s]Train NLL: 11.420, Val NLL: 11.365:  61%|██████    | 183/300 [01:09<00:43,  2.72it/s]Train NLL: 11.420, Val NLL: 11.366:  62%|██████▏   | 186/300 [01:10<00:43,  2.65it/s]Train NLL: 11.420, Val NLL: 11.365:  63%|██████▎   | 189/300 [01:11<00:43,  2.53it/s]Train NLL: 11.420, Val NLL: 11.366:  64%|██████▍   | 192/300 [01:12<00:42,  2.54it/s]Train NLL: 11.420, Val NLL: 11.366:  65%|██████▌   | 195/300 [01:14<00:40,  2.58it/s]Train NLL: 11.420, Val NLL: 11.366:  66%|██████▌   | 198/300 [01:15<00:38,  2.67it/s]Train NLL: 11.420, Val NLL: 11.365:  67%|██████▋   | 201/300 [01:16<00:36,  2.71it/s]Train NLL: 11.420, Val NLL: 11.366:  68%|██████▊   | 204/300 [01:17<00:36,  2.63it/s]Epoch   205: reducing learning rate of group 0 to 1.0000e-06.
Train NLL: 11.420, Val NLL: 11.366:  69%|██████▉   | 207/300 [01:18<00:34,  2.67it/s]Train NLL: 11.420, Val NLL: 11.366:  70%|███████   | 210/300 [01:19<00:33,  2.65it/s]Train NLL: 11.421, Val NLL: 11.366:  71%|███████   | 213/300 [01:20<00:32,  2.69it/s]Train NLL: 11.421, Val NLL: 11.366:  72%|███████▏  | 216/300 [01:21<00:30,  2.72it/s]Train NLL: 11.420, Val NLL: 11.366:  73%|███████▎  | 219/300 [01:22<00:29,  2.77it/s]Train NLL: 11.420, Val NLL: 11.366:  74%|███████▍  | 222/300 [01:23<00:27,  2.81it/s]Train NLL: 11.420, Val NLL: 11.366:  75%|███████▌  | 225/300 [01:24<00:26,  2.85it/s]Train NLL: 11.420, Val NLL: 11.366:  76%|███████▌  | 228/300 [01:25<00:25,  2.87it/s]Train NLL: 11.420, Val NLL: 11.366:  77%|███████▋  | 231/300 [01:26<00:24,  2.86it/s]Train NLL: 11.420, Val NLL: 11.366:  78%|███████▊  | 234/300 [01:27<00:22,  2.88it/s]Train NLL: 11.420, Val NLL: 11.366:  79%|███████▉  | 237/300 [01:29<00:21,  2.89it/s]Train NLL: 11.420, Val NLL: 11.366:  80%|████████  | 240/300 [01:30<00:21,  2.82it/s]Train NLL: 11.420, Val NLL: 11.366:  81%|████████  | 243/300 [01:31<00:21,  2.64it/s]Train NLL: 11.420, Val NLL: 11.366:  82%|████████▏ | 246/300 [01:32<00:21,  2.55it/s]Train NLL: 11.420, Val NLL: 11.366:  83%|████████▎ | 249/300 [01:33<00:19,  2.60it/s]Train NLL: 11.420, Val NLL: 11.366:  84%|████████▍ | 252/300 [01:34<00:18,  2.60it/s]Train NLL: 11.420, Val NLL: 11.366:  85%|████████▌ | 255/300 [01:36<00:16,  2.68it/s]Train NLL: 11.420, Val NLL: 11.365:  86%|████████▌ | 258/300 [01:37<00:15,  2.76it/s]Train NLL: 11.420, Val NLL: 11.365:  87%|████████▋ | 261/300 [01:38<00:13,  2.82it/s]Train NLL: 11.420, Val NLL: 11.365:  88%|████████▊ | 264/300 [01:39<00:12,  2.86it/s]Train NLL: 11.420, Val NLL: 11.365:  89%|████████▉ | 267/300 [01:40<00:11,  2.88it/s]Train NLL: 11.420, Val NLL: 11.366:  90%|█████████ | 270/300 [01:41<00:10,  2.90it/s]Train NLL: 11.420, Val NLL: 11.366:  91%|█████████ | 273/300 [01:42<00:09,  2.91it/s]Train NLL: 11.420, Val NLL: 11.365:  92%|█████████▏| 276/300 [01:43<00:08,  2.88it/s]Train NLL: 11.420, Val NLL: 11.365:  93%|█████████▎| 279/300 [01:44<00:07,  2.82it/s]Train NLL: 11.420, Val NLL: 11.365:  94%|█████████▍| 282/300 [01:45<00:07,  2.53it/s]Train NLL: 11.420, Val NLL: 11.365:  95%|█████████▌| 285/300 [01:47<00:06,  2.49it/s]Train NLL: 11.420, Val NLL: 11.366:  96%|█████████▌| 288/300 [01:48<00:04,  2.58it/s]Train NLL: 11.420, Val NLL: 11.366:  97%|█████████▋| 291/300 [01:49<00:03,  2.63it/s]Train NLL: 11.420, Val NLL: 11.365:  98%|█████████▊| 294/300 [01:50<00:02,  2.63it/s]Train NLL: 11.420, Val NLL: 11.365:  99%|█████████▉| 297/300 [01:51<00:01,  2.64it/s]Train NLL: 11.420, Val NLL: 11.365: 100%|██████████| 300/300 [01:52<00:00,  2.71it/s]Train NLL: 11.420, Val NLL: 11.365: 100%|██████████| 300/300 [01:52<00:00,  2.67it/s]
INFO - residual_nf - Completed after 0:01:53
