INFO - residual_nf - Running command 'run'
INFO - residual_nf - Started run with ID "4"
[CONFIG] {'bn': 'ecoli70-alt', 'structure': 'faithful', 'coeff': 0.99, 'n_power_iterations': 5, 'num_blocks': 7, 'hidden_dims': [100], 'activation': 'lipswish', 'grad_in_forward': True, 'batch_size': 100, 'num_train_samples': 10000, 'num_val_samples': 5000, 'num_epochs': 200, 'num_train_batches': 100, 'num_val_batches': 50, 'lr': 0.01, 'seed': 3, 'patience': 20, 'ex_name': 'residual_nf_density_estimation', 'sub_folder': 'faithful_99_lipswish_7_[100]', 'path': './experiment_logs/residual_nf_density_estimation/ecoli70-alt/faithful_99_lipswish_7_[100]', 'bt_config': {'depth': 5, 'seed': 4}}
[ENCODED STRUCTURE] Using faithful BN structure.
  0%|          | 0/200 [00:00<?, ?it/s]Train NLL: 54.911, Val NLL: 41.509:   0%|          | 1/200 [00:06<20:17,  6.12s/it]Train NLL: 40.951, Val NLL: 40.854:   1%|          | 2/200 [00:11<18:22,  5.57s/it]Train NLL: 40.618, Val NLL: 40.632:   2%|▏         | 3/200 [00:16<17:48,  5.43s/it]Train NLL: 40.501, Val NLL: 40.546:   2%|▏         | 4/200 [00:21<17:32,  5.37s/it]Train NLL: 40.461, Val NLL: 40.571:   2%|▎         | 5/200 [00:26<17:12,  5.29s/it]Train NLL: 40.423, Val NLL: 40.626:   3%|▎         | 6/200 [00:31<16:45,  5.18s/it]Train NLL: 40.414, Val NLL: 40.583:   4%|▎         | 7/200 [00:37<16:45,  5.21s/it]Train NLL: 40.384, Val NLL: 40.507:   4%|▍         | 8/200 [00:42<16:36,  5.19s/it]Train NLL: 40.385, Val NLL: 40.572:   4%|▍         | 9/200 [00:47<16:13,  5.10s/it]Train NLL: 40.387, Val NLL: 40.593:   5%|▌         | 10/200 [00:52<16:02,  5.06s/it]Train NLL: 40.379, Val NLL: 40.486:   6%|▌         | 11/200 [00:57<16:04,  5.10s/it]Train NLL: 40.348, Val NLL: 40.471:   6%|▌         | 12/200 [01:02<15:54,  5.08s/it]Train NLL: 40.355, Val NLL: 40.426:   6%|▋         | 13/200 [01:07<15:37,  5.02s/it]Train NLL: 40.354, Val NLL: 40.432:   7%|▋         | 14/200 [01:12<15:29,  5.00s/it]Train NLL: 40.348, Val NLL: 40.491:   8%|▊         | 15/200 [01:17<15:36,  5.06s/it]Train NLL: 40.329, Val NLL: 40.453:   8%|▊         | 16/200 [01:22<15:41,  5.12s/it]Train NLL: 40.344, Val NLL: 40.491:   8%|▊         | 17/200 [01:27<15:41,  5.15s/it]Train NLL: 40.331, Val NLL: 40.486:   9%|▉         | 18/200 [01:33<15:39,  5.16s/it]Train NLL: 40.332, Val NLL: 40.485:  10%|▉         | 19/200 [01:38<15:20,  5.09s/it]Train NLL: 40.342, Val NLL: 40.438:  10%|█         | 20/200 [01:43<15:17,  5.10s/it]Train NLL: 40.324, Val NLL: 40.441:  10%|█         | 21/200 [01:48<15:04,  5.05s/it]Train NLL: 40.303, Val NLL: 40.432:  11%|█         | 22/200 [01:53<14:50,  5.00s/it]Train NLL: 40.319, Val NLL: 40.437:  12%|█▏        | 23/200 [01:58<14:55,  5.06s/it]Train NLL: 40.303, Val NLL: 40.454:  12%|█▏        | 24/200 [02:03<14:58,  5.10s/it]Train NLL: 40.308, Val NLL: 40.437:  12%|█▎        | 25/200 [02:08<14:48,  5.08s/it]Train NLL: 40.313, Val NLL: 40.418:  13%|█▎        | 26/200 [02:13<14:36,  5.04s/it]Train NLL: 40.296, Val NLL: 40.453:  14%|█▎        | 27/200 [02:18<14:25,  5.01s/it]Train NLL: 40.302, Val NLL: 40.430:  14%|█▍        | 28/200 [02:23<14:15,  4.97s/it]Train NLL: 40.289, Val NLL: 40.449:  14%|█▍        | 29/200 [02:28<14:13,  4.99s/it]Train NLL: 40.296, Val NLL: 40.395:  15%|█▌        | 30/200 [02:33<14:29,  5.11s/it]Train NLL: 40.298, Val NLL: 40.465:  16%|█▌        | 31/200 [02:39<14:41,  5.22s/it]Train NLL: 40.287, Val NLL: 40.410:  16%|█▌        | 32/200 [02:44<14:20,  5.12s/it]Train NLL: 40.304, Val NLL: 40.432:  16%|█▋        | 33/200 [02:49<14:49,  5.33s/it]Train NLL: 40.303, Val NLL: 40.465:  17%|█▋        | 34/200 [02:55<14:53,  5.38s/it]Train NLL: 40.292, Val NLL: 40.504:  18%|█▊        | 35/200 [03:01<15:13,  5.54s/it]Train NLL: 40.296, Val NLL: 40.475:  18%|█▊        | 36/200 [03:06<15:01,  5.50s/it]Train NLL: 40.293, Val NLL: 40.521:  18%|█▊        | 37/200 [03:11<14:43,  5.42s/it]Train NLL: 40.286, Val NLL: 40.483:  19%|█▉        | 38/200 [03:17<14:57,  5.54s/it]Train NLL: 40.285, Val NLL: 40.433:  20%|█▉        | 39/200 [03:23<14:46,  5.50s/it]Train NLL: 40.275, Val NLL: 40.455:  20%|██        | 40/200 [03:28<14:38,  5.49s/it]Train NLL: 40.298, Val NLL: 40.441:  20%|██        | 41/200 [03:33<14:14,  5.37s/it]Train NLL: 40.284, Val NLL: 40.387:  21%|██        | 42/200 [03:38<13:53,  5.27s/it]Train NLL: 40.283, Val NLL: 40.411:  22%|██▏       | 43/200 [03:44<14:28,  5.53s/it]Train NLL: 40.300, Val NLL: 40.454:  22%|██▏       | 44/200 [03:51<15:04,  5.80s/it]Train NLL: 40.285, Val NLL: 40.596:  22%|██▎       | 45/200 [03:57<14:58,  5.80s/it]Train NLL: 40.291, Val NLL: 40.400:  23%|██▎       | 46/200 [04:02<14:39,  5.71s/it]Train NLL: 40.297, Val NLL: 40.471:  24%|██▎       | 47/200 [04:08<14:24,  5.65s/it]Train NLL: 40.292, Val NLL: 40.443:  24%|██▍       | 48/200 [04:13<14:21,  5.66s/it]Train NLL: 40.277, Val NLL: 40.404:  24%|██▍       | 49/200 [04:19<14:16,  5.67s/it]Train NLL: 40.285, Val NLL: 40.395:  25%|██▌       | 50/200 [04:24<14:04,  5.63s/it]Train NLL: 40.285, Val NLL: 40.521:  26%|██▌       | 51/200 [04:30<13:40,  5.51s/it]Train NLL: 40.265, Val NLL: 40.515:  26%|██▌       | 52/200 [04:35<13:26,  5.45s/it]Train NLL: 40.281, Val NLL: 40.432:  26%|██▋       | 53/200 [04:41<14:02,  5.73s/it]Train NLL: 40.299, Val NLL: 40.393:  27%|██▋       | 54/200 [04:48<14:18,  5.88s/it]Train NLL: 40.275, Val NLL: 40.439:  28%|██▊       | 55/200 [04:54<14:37,  6.05s/it]Train NLL: 40.274, Val NLL: 40.559:  28%|██▊       | 56/200 [05:01<14:47,  6.16s/it]Train NLL: 40.266, Val NLL: 40.386:  28%|██▊       | 57/200 [05:07<14:48,  6.21s/it]Train NLL: 40.265, Val NLL: 40.467:  29%|██▉       | 58/200 [05:13<14:49,  6.27s/it]Train NLL: 40.270, Val NLL: 40.469:  30%|██▉       | 59/200 [05:19<14:27,  6.15s/it]Train NLL: 40.271, Val NLL: 40.393:  30%|███       | 60/200 [05:25<14:14,  6.10s/it]Train NLL: 40.281, Val NLL: 40.435:  30%|███       | 61/200 [05:31<14:17,  6.17s/it]Train NLL: 40.269, Val NLL: 40.472:  31%|███       | 62/200 [05:38<14:06,  6.14s/it]Train NLL: 40.304, Val NLL: 40.544:  32%|███▏      | 63/200 [05:44<13:59,  6.13s/it]Train NLL: 40.282, Val NLL: 40.382:  32%|███▏      | 64/200 [05:49<13:27,  5.94s/it]Train NLL: 40.263, Val NLL: 40.370:  32%|███▎      | 65/200 [05:55<13:22,  5.95s/it]Train NLL: 40.258, Val NLL: 40.448:  33%|███▎      | 66/200 [06:00<12:52,  5.77s/it]Train NLL: 40.273, Val NLL: 40.417:  34%|███▎      | 67/200 [06:06<12:53,  5.81s/it]Train NLL: 40.277, Val NLL: 40.396:  34%|███▍      | 68/200 [06:13<13:01,  5.92s/it]Train NLL: 40.257, Val NLL: 40.407:  34%|███▍      | 69/200 [06:18<12:44,  5.84s/it]Train NLL: 40.291, Val NLL: 40.463:  35%|███▌      | 70/200 [06:24<12:32,  5.79s/it]Train NLL: 40.261, Val NLL: 40.424:  36%|███▌      | 71/200 [06:29<12:21,  5.75s/it]Train NLL: 40.256, Val NLL: 40.425:  36%|███▌      | 72/200 [06:35<11:59,  5.62s/it]Train NLL: 40.260, Val NLL: 40.399:  36%|███▋      | 73/200 [06:40<11:24,  5.39s/it]Train NLL: 40.270, Val NLL: 40.395:  37%|███▋      | 74/200 [06:45<11:00,  5.24s/it]Train NLL: 40.272, Val NLL: 40.424:  38%|███▊      | 75/200 [06:49<10:30,  5.05s/it]Train NLL: 40.233, Val NLL: 40.413:  38%|███▊      | 76/200 [06:54<10:29,  5.08s/it]Train NLL: 40.242, Val NLL: 40.394:  38%|███▊      | 77/200 [06:59<10:10,  4.96s/it]Train NLL: 40.256, Val NLL: 40.419:  39%|███▉      | 78/200 [07:04<09:55,  4.88s/it]Train NLL: 40.287, Val NLL: 40.353:  40%|███▉      | 79/200 [07:08<09:39,  4.79s/it]Train NLL: 40.260, Val NLL: 40.459:  40%|████      | 80/200 [07:13<09:30,  4.76s/it]Train NLL: 40.276, Val NLL: 40.378:  40%|████      | 81/200 [07:18<09:19,  4.70s/it]Train NLL: 40.244, Val NLL: 40.437:  41%|████      | 82/200 [07:22<09:14,  4.70s/it]Train NLL: 40.244, Val NLL: 40.390:  42%|████▏     | 83/200 [07:27<09:06,  4.67s/it]Train NLL: 40.253, Val NLL: 40.413:  42%|████▏     | 84/200 [07:31<09:00,  4.66s/it]Train NLL: 40.260, Val NLL: 40.387:  42%|████▎     | 85/200 [07:36<08:54,  4.65s/it]Train NLL: 40.262, Val NLL: 40.402:  43%|████▎     | 86/200 [07:41<08:48,  4.64s/it]Train NLL: 40.251, Val NLL: 40.385:  44%|████▎     | 87/200 [07:45<08:45,  4.65s/it]Train NLL: 40.260, Val NLL: 40.366:  44%|████▍     | 88/200 [07:50<08:40,  4.65s/it]Train NLL: 40.259, Val NLL: 40.468:  44%|████▍     | 89/200 [07:55<08:37,  4.66s/it]Train NLL: 40.263, Val NLL: 40.417:  45%|████▌     | 90/200 [07:59<08:31,  4.65s/it]Train NLL: 40.251, Val NLL: 40.429:  46%|████▌     | 91/200 [08:04<08:29,  4.67s/it]Train NLL: 40.254, Val NLL: 40.438:  46%|████▌     | 92/200 [08:09<08:22,  4.65s/it]Train NLL: 40.251, Val NLL: 40.406:  46%|████▋     | 93/200 [08:13<08:20,  4.68s/it]Train NLL: 40.254, Val NLL: 40.362:  47%|████▋     | 94/200 [08:18<08:15,  4.67s/it]Train NLL: 40.266, Val NLL: 40.371:  48%|████▊     | 95/200 [08:23<08:12,  4.69s/it]Train NLL: 40.257, Val NLL: 40.381:  48%|████▊     | 96/200 [08:27<08:05,  4.67s/it]Epoch    97: reducing learning rate of group 0 to 1.0000e-03.
Train NLL: 40.236, Val NLL: 40.416:  48%|████▊     | 97/200 [08:32<08:02,  4.68s/it]Train NLL: 40.101, Val NLL: 40.242:  49%|████▉     | 98/200 [08:37<07:55,  4.66s/it]Train NLL: 40.077, Val NLL: 40.241:  50%|████▉     | 99/200 [08:42<07:58,  4.74s/it]Train NLL: 40.077, Val NLL: 40.240:  50%|█████     | 100/200 [08:46<07:50,  4.70s/it]Train NLL: 40.075, Val NLL: 40.245:  50%|█████     | 101/200 [08:51<07:46,  4.72s/it]Train NLL: 40.076, Val NLL: 40.244:  51%|█████     | 102/200 [08:56<07:44,  4.73s/it]Train NLL: 40.075, Val NLL: 40.245:  52%|█████▏    | 103/200 [09:00<07:36,  4.70s/it]Train NLL: 40.080, Val NLL: 40.248:  52%|█████▏    | 104/200 [09:05<07:35,  4.75s/it]Train NLL: 40.075, Val NLL: 40.253:  52%|█████▎    | 105/200 [09:10<07:27,  4.71s/it]Train NLL: 40.075, Val NLL: 40.250:  53%|█████▎    | 106/200 [09:15<07:24,  4.72s/it]Train NLL: 40.074, Val NLL: 40.257:  54%|█████▎    | 107/200 [09:19<07:15,  4.68s/it]Train NLL: 40.080, Val NLL: 40.242:  54%|█████▍    | 108/200 [09:24<07:17,  4.75s/it]Train NLL: 40.078, Val NLL: 40.256:  55%|█████▍    | 109/200 [09:29<07:08,  4.71s/it]Train NLL: 40.080, Val NLL: 40.240:  55%|█████▌    | 110/200 [09:33<07:04,  4.71s/it]Train NLL: 40.077, Val NLL: 40.247:  56%|█████▌    | 111/200 [09:38<06:57,  4.69s/it]Train NLL: 40.077, Val NLL: 40.252:  56%|█████▌    | 112/200 [09:43<06:57,  4.74s/it]Train NLL: 40.079, Val NLL: 40.252:  56%|█████▋    | 113/200 [09:48<06:49,  4.71s/it]Train NLL: 40.077, Val NLL: 40.253:  57%|█████▋    | 114/200 [09:52<06:49,  4.76s/it]Train NLL: 40.078, Val NLL: 40.246:  57%|█████▊    | 115/200 [09:57<06:40,  4.71s/it]Train NLL: 40.078, Val NLL: 40.253:  58%|█████▊    | 116/200 [10:02<06:39,  4.75s/it]Train NLL: 40.077, Val NLL: 40.249:  58%|█████▊    | 117/200 [10:07<06:30,  4.71s/it]Train NLL: 40.077, Val NLL: 40.243:  59%|█████▉    | 118/200 [10:11<06:24,  4.69s/it]Train NLL: 40.074, Val NLL: 40.271:  60%|█████▉    | 119/200 [10:16<06:18,  4.67s/it]Epoch   120: reducing learning rate of group 0 to 1.0000e-04.
Train NLL: 40.082, Val NLL: 40.248:  60%|██████    | 120/200 [10:20<06:12,  4.66s/it]Train NLL: 40.058, Val NLL: 40.234:  60%|██████    | 121/200 [10:25<06:11,  4.71s/it]Train NLL: 40.056, Val NLL: 40.234:  61%|██████    | 122/200 [10:30<06:05,  4.68s/it]Train NLL: 40.054, Val NLL: 40.233:  62%|██████▏   | 123/200 [10:35<06:06,  4.75s/it]Train NLL: 40.055, Val NLL: 40.233:  62%|██████▏   | 124/200 [10:39<05:57,  4.71s/it]Train NLL: 40.054, Val NLL: 40.234:  62%|██████▎   | 125/200 [10:44<05:52,  4.69s/it]Train NLL: 40.054, Val NLL: 40.234:  63%|██████▎   | 126/200 [10:49<05:44,  4.66s/it]Train NLL: 40.054, Val NLL: 40.233:  64%|██████▎   | 127/200 [10:53<05:40,  4.66s/it]Train NLL: 40.054, Val NLL: 40.232:  64%|██████▍   | 128/200 [10:58<05:33,  4.64s/it]Train NLL: 40.054, Val NLL: 40.232:  64%|██████▍   | 129/200 [11:03<05:30,  4.65s/it]Train NLL: 40.054, Val NLL: 40.234:  65%|██████▌   | 130/200 [11:07<05:24,  4.63s/it]Train NLL: 40.054, Val NLL: 40.233:  66%|██████▌   | 131/200 [11:12<05:20,  4.65s/it]Train NLL: 40.054, Val NLL: 40.232:  66%|██████▌   | 132/200 [11:16<05:15,  4.64s/it]Train NLL: 40.054, Val NLL: 40.232:  66%|██████▋   | 133/200 [11:21<05:09,  4.62s/it]Train NLL: 40.054, Val NLL: 40.232:  67%|██████▋   | 134/200 [11:26<05:04,  4.62s/it]Train NLL: 40.054, Val NLL: 40.233:  68%|██████▊   | 135/200 [11:30<05:00,  4.62s/it]Train NLL: 40.054, Val NLL: 40.233:  68%|██████▊   | 136/200 [11:35<05:02,  4.72s/it]Train NLL: 40.054, Val NLL: 40.232:  68%|██████▊   | 137/200 [11:40<04:54,  4.67s/it]Train NLL: 40.055, Val NLL: 40.233:  69%|██████▉   | 138/200 [11:44<04:49,  4.66s/it]Train NLL: 40.054, Val NLL: 40.233:  70%|██████▉   | 139/200 [11:49<04:42,  4.63s/it]Train NLL: 40.054, Val NLL: 40.233:  70%|███████   | 140/200 [11:54<04:39,  4.65s/it]Train NLL: 40.054, Val NLL: 40.233:  70%|███████   | 141/200 [11:58<04:34,  4.66s/it]Train NLL: 40.054, Val NLL: 40.233:  71%|███████   | 142/200 [12:03<04:30,  4.66s/it]Train NLL: 40.054, Val NLL: 40.233:  72%|███████▏  | 143/200 [12:08<04:23,  4.63s/it]Epoch   144: reducing learning rate of group 0 to 1.0000e-05.
Train NLL: 40.054, Val NLL: 40.234:  72%|███████▏  | 144/200 [12:12<04:22,  4.69s/it]Train NLL: 40.051, Val NLL: 40.233:  72%|███████▎  | 145/200 [12:17<04:16,  4.66s/it]Train NLL: 40.051, Val NLL: 40.233:  73%|███████▎  | 146/200 [12:22<04:11,  4.66s/it]Train NLL: 40.051, Val NLL: 40.233:  74%|███████▎  | 147/200 [12:26<04:05,  4.64s/it]Train NLL: 40.051, Val NLL: 40.233:  74%|███████▍  | 148/200 [12:31<04:01,  4.65s/it]Train NLL: 40.051, Val NLL: 40.233:  74%|███████▍  | 149/200 [12:36<03:56,  4.64s/it]Train NLL: 40.051, Val NLL: 40.233:  75%|███████▌  | 150/200 [12:40<03:51,  4.64s/it]Train NLL: 40.051, Val NLL: 40.233:  76%|███████▌  | 151/200 [12:45<03:48,  4.67s/it]Train NLL: 40.051, Val NLL: 40.232:  76%|███████▌  | 152/200 [12:50<03:43,  4.66s/it]Train NLL: 40.051, Val NLL: 40.232:  76%|███████▋  | 153/200 [12:54<03:39,  4.68s/it]Train NLL: 40.051, Val NLL: 40.232:  77%|███████▋  | 154/200 [12:59<03:34,  4.65s/it]Train NLL: 40.051, Val NLL: 40.232:  78%|███████▊  | 155/200 [13:04<03:29,  4.67s/it]Train NLL: 40.051, Val NLL: 40.232:  78%|███████▊  | 156/200 [13:08<03:24,  4.65s/it]Train NLL: 40.051, Val NLL: 40.232:  78%|███████▊  | 157/200 [13:13<03:22,  4.71s/it]Train NLL: 40.051, Val NLL: 40.232:  79%|███████▉  | 158/200 [13:18<03:16,  4.67s/it]Train NLL: 40.051, Val NLL: 40.232:  80%|███████▉  | 159/200 [13:22<03:11,  4.68s/it]Train NLL: 40.051, Val NLL: 40.232:  80%|████████  | 160/200 [13:27<03:05,  4.65s/it]Train NLL: 40.051, Val NLL: 40.232:  80%|████████  | 161/200 [13:32<03:02,  4.68s/it]Train NLL: 40.051, Val NLL: 40.232:  81%|████████  | 162/200 [13:36<02:56,  4.66s/it]Train NLL: 40.051, Val NLL: 40.232:  82%|████████▏ | 163/200 [13:41<02:52,  4.66s/it]Train NLL: 40.051, Val NLL: 40.233:  82%|████████▏ | 164/200 [13:46<02:49,  4.72s/it]Epoch   165: reducing learning rate of group 0 to 1.0000e-06.
Train NLL: 40.051, Val NLL: 40.233:  82%|████████▎ | 165/200 [13:50<02:43,  4.68s/it]Train NLL: 40.051, Val NLL: 40.233:  83%|████████▎ | 166/200 [13:55<02:38,  4.67s/it]Train NLL: 40.051, Val NLL: 40.232:  84%|████████▎ | 167/200 [14:00<02:33,  4.65s/it]Train NLL: 40.051, Val NLL: 40.232:  84%|████████▍ | 168/200 [14:04<02:28,  4.65s/it]Train NLL: 40.051, Val NLL: 40.232:  84%|████████▍ | 169/200 [14:09<02:23,  4.62s/it]Train NLL: 40.051, Val NLL: 40.232:  85%|████████▌ | 170/200 [14:14<02:19,  4.64s/it]Train NLL: 40.051, Val NLL: 40.232:  86%|████████▌ | 171/200 [14:18<02:13,  4.62s/it]Train NLL: 40.051, Val NLL: 40.232:  86%|████████▌ | 172/200 [14:23<02:10,  4.64s/it]Train NLL: 40.051, Val NLL: 40.232:  86%|████████▋ | 173/200 [14:27<02:04,  4.63s/it]Train NLL: 40.051, Val NLL: 40.232:  87%|████████▋ | 174/200 [14:32<02:00,  4.63s/it]Train NLL: 40.051, Val NLL: 40.232:  88%|████████▊ | 175/200 [14:37<01:55,  4.62s/it]Train NLL: 40.051, Val NLL: 40.232:  88%|████████▊ | 176/200 [14:41<01:50,  4.62s/it]Train NLL: 40.051, Val NLL: 40.232:  88%|████████▊ | 177/200 [14:46<01:46,  4.63s/it]Train NLL: 40.051, Val NLL: 40.232:  89%|████████▉ | 178/200 [14:50<01:41,  4.61s/it]Train NLL: 40.051, Val NLL: 40.232:  90%|████████▉ | 179/200 [14:55<01:37,  4.62s/it]Train NLL: 40.051, Val NLL: 40.232:  90%|█████████ | 180/200 [15:00<01:32,  4.61s/it]Train NLL: 40.051, Val NLL: 40.232:  90%|█████████ | 181/200 [15:04<01:27,  4.63s/it]Train NLL: 40.051, Val NLL: 40.232:  91%|█████████ | 182/200 [15:09<01:23,  4.62s/it]Train NLL: 40.051, Val NLL: 40.232:  92%|█████████▏| 183/200 [15:14<01:18,  4.64s/it]Train NLL: 40.051, Val NLL: 40.232:  92%|█████████▏| 184/200 [15:18<01:13,  4.62s/it]Train NLL: 40.051, Val NLL: 40.232:  92%|█████████▎| 185/200 [15:23<01:09,  4.63s/it]Train NLL: 40.051, Val NLL: 40.232:  93%|█████████▎| 186/200 [15:27<01:04,  4.61s/it]Train NLL: 40.051, Val NLL: 40.232:  94%|█████████▎| 187/200 [15:32<01:00,  4.63s/it]Train NLL: 40.051, Val NLL: 40.232:  94%|█████████▍| 188/200 [15:37<00:55,  4.61s/it]Train NLL: 40.051, Val NLL: 40.232:  94%|█████████▍| 189/200 [15:41<00:51,  4.66s/it]Train NLL: 40.051, Val NLL: 40.232:  95%|█████████▌| 190/200 [15:46<00:46,  4.66s/it]Train NLL: 40.051, Val NLL: 40.232:  96%|█████████▌| 191/200 [15:51<00:41,  4.63s/it]Train NLL: 40.051, Val NLL: 40.232:  96%|█████████▌| 192/200 [15:55<00:37,  4.63s/it]Train NLL: 40.051, Val NLL: 40.232:  96%|█████████▋| 193/200 [16:00<00:32,  4.62s/it]Train NLL: 40.051, Val NLL: 40.232:  97%|█████████▋| 194/200 [16:05<00:27,  4.66s/it]Train NLL: 40.051, Val NLL: 40.232:  98%|█████████▊| 195/200 [16:09<00:23,  4.65s/it]Train NLL: 40.051, Val NLL: 40.232:  98%|█████████▊| 196/200 [16:14<00:18,  4.67s/it]Train NLL: 40.051, Val NLL: 40.232:  98%|█████████▊| 197/200 [16:19<00:14,  4.69s/it]Train NLL: 40.051, Val NLL: 40.232:  99%|█████████▉| 198/200 [16:23<00:09,  4.68s/it]Train NLL: 40.051, Val NLL: 40.232: 100%|█████████▉| 199/200 [16:28<00:04,  4.67s/it]Train NLL: 40.051, Val NLL: 40.232: 100%|██████████| 200/200 [16:33<00:00,  4.68s/it]Train NLL: 40.051, Val NLL: 40.232: 100%|██████████| 200/200 [16:33<00:00,  4.97s/it]
INFO - residual_nf - Completed after 0:16:34
