INFO - standard_residual_nf - Running command 'run'
INFO - standard_residual_nf - Started run with ID "5"
[CONFIG] {'bn': 'arithmetic-circuit', 'coeff': 0.99, 'n_power_iterations': 5, 'num_blocks': 8, 'hidden_dims': [35], 'activation': 'lipmish', 'grad_in_forward': True, 'batch_size': 100, 'num_train_samples': 10000, 'num_val_samples': 5000, 'num_epochs': 316, 'num_train_batches': 100, 'num_val_batches': 50, 'lr': 0.001, 'seed': 4, 'patience': 20, 'double': True, 'run': 1, 'checkpoint_n': 10, 'load_from_checkpoint': False, 'ex_name': 'standard_residual_nf_density_estimation', 'sub_folder': '99_lipmish_8_[35]', 'path': './experiment_logs/standard_residual_nf_density_estimation/arithmetic-circuit/99_lipmish_8_[35]'}
[DEVICE] cuda:0
  0%|          | 0/316 [00:00<?, ?it/s]Train NLL: 37.645, Val NLL: 13.276:   0%|          | 1/316 [00:05<27:27,  5.23s/it]Train NLL: 11.617, Val NLL: 10.205:   1%|          | 2/316 [00:10<26:11,  5.00s/it]Train NLL: 8.989, Val NLL: 7.943:   1%|          | 3/316 [00:14<25:53,  4.96s/it]  Train NLL: 7.242, Val NLL: 6.607:   1%|▏         | 4/316 [00:19<25:31,  4.91s/it]Train NLL: 6.135, Val NLL: 5.768:   2%|▏         | 5/316 [00:24<25:29,  4.92s/it]Train NLL: 5.344, Val NLL: 5.021:   2%|▏         | 6/316 [00:29<25:19,  4.90s/it]Train NLL: 4.769, Val NLL: 4.441:   2%|▏         | 7/316 [00:34<25:09,  4.88s/it]Train NLL: 4.405, Val NLL: 4.464:   3%|▎         | 8/316 [00:39<24:56,  4.86s/it]Train NLL: 3.894, Val NLL: 3.749:   3%|▎         | 9/316 [00:44<24:55,  4.87s/it]Train NLL: 3.653, Val NLL: 3.644:   3%|▎         | 10/316 [00:49<24:51,  4.87s/it]Train NLL: 3.415, Val NLL: 3.225:   3%|▎         | 11/316 [00:53<24:45,  4.87s/it]Train NLL: 3.259, Val NLL: 3.174:   4%|▍         | 12/316 [00:58<24:41,  4.87s/it]Train NLL: 2.973, Val NLL: 3.007:   4%|▍         | 13/316 [01:03<24:34,  4.87s/it]Train NLL: 2.904, Val NLL: 2.728:   4%|▍         | 14/316 [01:08<24:20,  4.84s/it]Train NLL: 2.715, Val NLL: 2.736:   5%|▍         | 15/316 [01:13<24:18,  4.84s/it]Train NLL: 2.638, Val NLL: 2.609:   5%|▌         | 16/316 [01:18<24:12,  4.84s/it]Train NLL: 2.611, Val NLL: 2.438:   5%|▌         | 17/316 [01:22<24:08,  4.84s/it]Train NLL: 2.497, Val NLL: 2.328:   6%|▌         | 18/316 [01:27<24:03,  4.85s/it]Train NLL: 2.382, Val NLL: 2.407:   6%|▌         | 19/316 [01:32<23:57,  4.84s/it]Train NLL: 2.364, Val NLL: 2.273:   6%|▋         | 20/316 [01:37<23:54,  4.85s/it]Train NLL: 2.296, Val NLL: 2.335:   7%|▋         | 21/316 [01:42<23:51,  4.85s/it]Train NLL: 2.328, Val NLL: 2.306:   7%|▋         | 22/316 [01:47<23:40,  4.83s/it]Train NLL: 2.151, Val NLL: 2.249:   7%|▋         | 23/316 [01:52<23:38,  4.84s/it]Train NLL: 2.323, Val NLL: 2.330:   8%|▊         | 24/316 [01:56<23:29,  4.83s/it]Train NLL: 2.056, Val NLL: 2.118:   8%|▊         | 25/316 [02:01<23:25,  4.83s/it]Train NLL: 2.152, Val NLL: 2.369:   8%|▊         | 26/316 [02:06<23:22,  4.84s/it]Train NLL: 2.030, Val NLL: 2.062:   9%|▊         | 27/316 [02:11<23:22,  4.85s/it]Train NLL: 2.120, Val NLL: 2.227:   9%|▉         | 28/316 [02:16<23:17,  4.85s/it]Train NLL: 2.373, Val NLL: 2.275:   9%|▉         | 29/316 [02:21<23:15,  4.86s/it]Train NLL: 2.032, Val NLL: 2.072:   9%|▉         | 30/316 [02:25<23:05,  4.85s/it]Train NLL: 2.174, Val NLL: 2.107:  10%|▉         | 31/316 [02:30<23:04,  4.86s/it]Train NLL: 1.991, Val NLL: 1.856:  10%|█         | 32/316 [02:35<23:04,  4.88s/it]Train NLL: 2.001, Val NLL: 2.235:  10%|█         | 33/316 [02:40<23:00,  4.88s/it]Train NLL: 2.071, Val NLL: 2.000:  11%|█         | 34/316 [02:45<22:56,  4.88s/it]Train NLL: 1.881, Val NLL: 1.906:  11%|█         | 35/316 [02:50<22:53,  4.89s/it]Train NLL: 1.974, Val NLL: 1.875:  11%|█▏        | 36/316 [02:55<22:44,  4.87s/it]Train NLL: 1.997, Val NLL: 2.069:  12%|█▏        | 37/316 [03:00<22:42,  4.88s/it]Train NLL: 1.733, Val NLL: 2.032:  12%|█▏        | 38/316 [03:04<22:34,  4.87s/it]Train NLL: 1.899, Val NLL: 1.884:  12%|█▏        | 39/316 [03:09<22:29,  4.87s/it]Train NLL: 2.165, Val NLL: 1.822:  13%|█▎        | 40/316 [03:14<22:22,  4.86s/it]Train NLL: 1.871, Val NLL: 1.838:  13%|█▎        | 41/316 [03:19<22:21,  4.88s/it]Train NLL: 1.967, Val NLL: 1.822:  13%|█▎        | 42/316 [03:24<22:16,  4.88s/it]Train NLL: 1.824, Val NLL: 1.785:  14%|█▎        | 43/316 [03:29<22:06,  4.86s/it]Train NLL: 1.784, Val NLL: 1.734:  14%|█▍        | 44/316 [03:34<21:59,  4.85s/it]Train NLL: 1.813, Val NLL: 1.682:  14%|█▍        | 45/316 [03:38<21:48,  4.83s/it]Train NLL: 1.811, Val NLL: 2.471:  15%|█▍        | 46/316 [03:43<21:45,  4.84s/it]Train NLL: 1.793, Val NLL: 1.696:  15%|█▍        | 47/316 [03:48<21:48,  4.86s/it]Train NLL: 1.950, Val NLL: 1.689:  15%|█▌        | 48/316 [03:53<21:43,  4.86s/it]Train NLL: 1.853, Val NLL: 1.926:  16%|█▌        | 49/316 [03:58<21:36,  4.86s/it]Train NLL: 1.727, Val NLL: 1.792:  16%|█▌        | 50/316 [04:03<21:37,  4.88s/it]Train NLL: 1.810, Val NLL: 1.770:  16%|█▌        | 51/316 [04:08<21:31,  4.87s/it]Train NLL: 1.757, Val NLL: 1.917:  16%|█▋        | 52/316 [04:13<21:27,  4.88s/it]Train NLL: 1.769, Val NLL: 1.965:  17%|█▋        | 53/316 [04:17<21:19,  4.86s/it]Train NLL: 1.637, Val NLL: 1.890:  17%|█▋        | 54/316 [04:22<21:11,  4.85s/it]Train NLL: 1.709, Val NLL: 1.684:  17%|█▋        | 55/316 [04:27<21:04,  4.85s/it]Train NLL: 1.739, Val NLL: 1.930:  18%|█▊        | 56/316 [04:32<21:06,  4.87s/it]Train NLL: 1.873, Val NLL: 2.484:  18%|█▊        | 57/316 [04:37<20:56,  4.85s/it]Train NLL: 1.709, Val NLL: 1.796:  18%|█▊        | 58/316 [04:42<20:54,  4.86s/it]Train NLL: 1.699, Val NLL: 1.665:  19%|█▊        | 59/316 [04:47<20:49,  4.86s/it]Train NLL: 1.657, Val NLL: 1.764:  19%|█▉        | 60/316 [04:52<20:51,  4.89s/it]Train NLL: 1.719, Val NLL: 1.679:  19%|█▉        | 61/316 [04:56<20:43,  4.88s/it]Train NLL: 1.806, Val NLL: 1.836:  20%|█▉        | 62/316 [05:01<20:36,  4.87s/it]Train NLL: 1.797, Val NLL: 1.685:  20%|█▉        | 63/316 [05:06<20:28,  4.85s/it]Train NLL: 1.752, Val NLL: 1.726:  20%|██        | 64/316 [05:11<20:25,  4.86s/it]Train NLL: 1.632, Val NLL: 1.650:  21%|██        | 65/316 [05:16<20:21,  4.87s/it]Train NLL: 1.696, Val NLL: 1.799:  21%|██        | 66/316 [05:21<20:17,  4.87s/it]Train NLL: 1.887, Val NLL: 1.654:  21%|██        | 67/316 [05:26<20:11,  4.87s/it]Train NLL: 2.778, Val NLL: 1.884:  22%|██▏       | 68/316 [05:30<20:05,  4.86s/it]Train NLL: 1.799, Val NLL: 1.814:  22%|██▏       | 69/316 [05:35<20:00,  4.86s/it]Train NLL: 1.636, Val NLL: 1.659:  22%|██▏       | 70/316 [05:40<19:55,  4.86s/it]Train NLL: 1.632, Val NLL: 1.761:  22%|██▏       | 71/316 [05:45<19:48,  4.85s/it]Train NLL: 1.670, Val NLL: 1.668:  23%|██▎       | 72/316 [05:50<19:47,  4.87s/it]Train NLL: 1.631, Val NLL: 1.732:  23%|██▎       | 73/316 [05:55<19:45,  4.88s/it]Train NLL: 1.542, Val NLL: 1.746:  23%|██▎       | 74/316 [06:00<19:42,  4.89s/it]Train NLL: 1.646, Val NLL: 1.723:  24%|██▎       | 75/316 [06:05<19:39,  4.90s/it]Train NLL: 1.551, Val NLL: 1.698:  24%|██▍       | 76/316 [06:09<19:30,  4.88s/it]Train NLL: 1.677, Val NLL: 1.780:  24%|██▍       | 77/316 [06:14<19:22,  4.87s/it]Train NLL: 1.639, Val NLL: 1.842:  25%|██▍       | 78/316 [06:19<19:20,  4.88s/it]Train NLL: 1.679, Val NLL: 1.702:  25%|██▌       | 79/316 [06:24<19:18,  4.89s/it]Train NLL: 1.518, Val NLL: 1.551:  25%|██▌       | 80/316 [06:29<19:13,  4.89s/it]Train NLL: 1.737, Val NLL: 1.817:  26%|██▌       | 81/316 [06:34<19:05,  4.87s/it]Train NLL: 1.571, Val NLL: 1.722:  26%|██▌       | 82/316 [06:39<18:55,  4.85s/it]Train NLL: 1.681, Val NLL: 1.637:  26%|██▋       | 83/316 [06:43<18:50,  4.85s/it]Train NLL: 1.482, Val NLL: 1.557:  27%|██▋       | 84/316 [06:48<18:49,  4.87s/it]Train NLL: 1.679, Val NLL: 1.759:  27%|██▋       | 85/316 [06:53<18:48,  4.88s/it]Train NLL: 1.633, Val NLL: 1.746:  27%|██▋       | 86/316 [06:58<18:40,  4.87s/it]Train NLL: 1.579, Val NLL: 1.715:  28%|██▊       | 87/316 [07:03<18:47,  4.92s/it]Train NLL: 1.693, Val NLL: 1.695:  28%|██▊       | 88/316 [07:08<18:37,  4.90s/it]Train NLL: 1.616, Val NLL: 1.739:  28%|██▊       | 89/316 [07:13<18:34,  4.91s/it]Train NLL: 1.476, Val NLL: 1.604:  28%|██▊       | 90/316 [07:18<18:27,  4.90s/it]Train NLL: 1.735, Val NLL: 1.735:  29%|██▉       | 91/316 [07:23<18:20,  4.89s/it]Train NLL: 1.668, Val NLL: 1.559:  29%|██▉       | 92/316 [07:28<18:12,  4.88s/it]Train NLL: 1.611, Val NLL: 1.575:  29%|██▉       | 93/316 [07:32<18:06,  4.87s/it]Train NLL: 1.538, Val NLL: 1.618:  30%|██▉       | 94/316 [07:37<17:57,  4.85s/it]Train NLL: 1.622, Val NLL: 1.452:  30%|███       | 95/316 [07:42<17:55,  4.87s/it]Train NLL: 1.599, Val NLL: 1.735:  30%|███       | 96/316 [07:47<17:47,  4.85s/it]Train NLL: 1.582, Val NLL: 1.470:  31%|███       | 97/316 [07:52<17:43,  4.86s/it]Train NLL: 1.554, Val NLL: 1.618:  31%|███       | 98/316 [07:57<17:36,  4.85s/it]Train NLL: 1.537, Val NLL: 1.556:  31%|███▏      | 99/316 [08:01<17:34,  4.86s/it]Train NLL: 1.497, Val NLL: 1.575:  32%|███▏      | 100/316 [08:06<17:30,  4.86s/it]Train NLL: 1.648, Val NLL: 1.615:  32%|███▏      | 101/316 [08:11<17:27,  4.87s/it]Train NLL: 1.354, Val NLL: 1.641:  32%|███▏      | 102/316 [08:16<17:23,  4.88s/it]Train NLL: 1.487, Val NLL: 1.772:  33%|███▎      | 103/316 [08:21<17:20,  4.89s/it]Train NLL: 1.560, Val NLL: 1.522:  33%|███▎      | 104/316 [08:26<17:09,  4.86s/it]Train NLL: 1.584, Val NLL: 1.802:  33%|███▎      | 105/316 [08:31<17:04,  4.85s/it]Train NLL: 1.683, Val NLL: 1.616:  34%|███▎      | 106/316 [08:35<16:56,  4.84s/it]Train NLL: 1.527, Val NLL: 1.681:  34%|███▍      | 107/316 [08:40<16:55,  4.86s/it]Train NLL: 1.418, Val NLL: 2.129:  34%|███▍      | 108/316 [08:45<16:53,  4.87s/it]Train NLL: 1.598, Val NLL: 1.648:  34%|███▍      | 109/316 [08:50<16:50,  4.88s/it]Train NLL: 1.473, Val NLL: 1.658:  35%|███▍      | 110/316 [08:55<16:40,  4.86s/it]Train NLL: 1.458, Val NLL: 1.623:  35%|███▌      | 111/316 [09:00<16:35,  4.86s/it]Train NLL: 1.579, Val NLL: 1.628:  35%|███▌      | 112/316 [09:05<16:34,  4.88s/it]Train NLL: 1.582, Val NLL: 1.519:  36%|███▌      | 113/316 [09:10<16:27,  4.87s/it]Train NLL: 1.564, Val NLL: 1.595:  36%|███▌      | 114/316 [09:14<16:23,  4.87s/it]Train NLL: 1.532, Val NLL: 1.565:  36%|███▋      | 115/316 [09:19<16:16,  4.86s/it]Train NLL: 1.485, Val NLL: 1.581:  37%|███▋      | 116/316 [09:24<16:15,  4.88s/it]Train NLL: 1.753, Val NLL: 1.488:  37%|███▋      | 117/316 [09:29<16:06,  4.85s/it]Train NLL: 1.523, Val NLL: 1.506:  37%|███▋      | 118/316 [09:34<15:59,  4.84s/it]Train NLL: 1.583, Val NLL: 1.403:  38%|███▊      | 119/316 [09:39<15:54,  4.85s/it]Train NLL: 1.538, Val NLL: 1.566:  38%|███▊      | 120/316 [09:44<15:53,  4.86s/it]Train NLL: 1.609, Val NLL: 1.567:  38%|███▊      | 121/316 [09:48<15:49,  4.87s/it]Train NLL: 1.526, Val NLL: 1.701:  39%|███▊      | 122/316 [09:53<15:43,  4.87s/it]Epoch   123: reducing learning rate of group 0 to 1.0000e-04.
Train NLL: 1.592, Val NLL: 1.482:  39%|███▉      | 123/316 [09:58<15:37,  4.86s/it]Train NLL: 1.014, Val NLL: 1.374:  39%|███▉      | 124/316 [10:03<15:35,  4.87s/it]Train NLL: 1.417, Val NLL: 1.425:  40%|███▉      | 125/316 [10:08<15:28,  4.86s/it]Train NLL: 1.231, Val NLL: 1.345:  40%|███▉      | 126/316 [10:13<15:27,  4.88s/it]Train NLL: 1.311, Val NLL: 1.391:  40%|████      | 127/316 [10:18<15:20,  4.87s/it]Train NLL: 1.276, Val NLL: 1.355:  41%|████      | 128/316 [10:23<15:16,  4.88s/it]Train NLL: 1.423, Val NLL: 1.591:  41%|████      | 129/316 [10:27<15:08,  4.86s/it]Train NLL: 1.447, Val NLL: 1.397:  41%|████      | 130/316 [10:32<15:05,  4.87s/it]Train NLL: 1.251, Val NLL: 1.312:  41%|████▏     | 131/316 [10:37<15:11,  4.93s/it]Train NLL: 1.539, Val NLL: 1.483:  42%|████▏     | 132/316 [10:42<15:03,  4.91s/it]Train NLL: 1.248, Val NLL: 1.354:  42%|████▏     | 133/316 [10:47<14:55,  4.89s/it]Train NLL: 1.265, Val NLL: 1.425:  42%|████▏     | 134/316 [10:52<14:53,  4.91s/it]Train NLL: 1.221, Val NLL: 1.324:  43%|████▎     | 135/316 [10:57<14:44,  4.89s/it]Train NLL: 1.261, Val NLL: 1.364:  43%|████▎     | 136/316 [11:02<14:38,  4.88s/it]Train NLL: 1.243, Val NLL: 1.380:  43%|████▎     | 137/316 [11:07<14:28,  4.85s/it]Train NLL: 1.196, Val NLL: 1.443:  44%|████▎     | 138/316 [11:11<14:23,  4.85s/it]Train NLL: 1.292, Val NLL: 1.480:  44%|████▍     | 139/316 [11:16<14:17,  4.84s/it]Train NLL: 1.392, Val NLL: 1.417:  44%|████▍     | 140/316 [11:21<14:16,  4.87s/it]Train NLL: 2.133, Val NLL: 1.356:  45%|████▍     | 141/316 [11:26<14:10,  4.86s/it]Train NLL: 0.854, Val NLL: 1.458:  45%|████▍     | 142/316 [11:31<14:08,  4.88s/it]Train NLL: 1.050, Val NLL: 1.363:  45%|████▌     | 143/316 [11:36<14:01,  4.87s/it]Train NLL: 1.246, Val NLL: 1.331:  46%|████▌     | 144/316 [11:41<13:58,  4.87s/it]Train NLL: 1.235, Val NLL: 1.361:  46%|████▌     | 145/316 [11:45<13:49,  4.85s/it]Train NLL: 1.363, Val NLL: 1.398:  46%|████▌     | 146/316 [11:50<13:45,  4.86s/it]Train NLL: 1.284, Val NLL: 1.334:  47%|████▋     | 147/316 [11:55<13:41,  4.86s/it]Train NLL: 1.364, Val NLL: 1.501:  47%|████▋     | 148/316 [12:00<13:34,  4.85s/it]Train NLL: 1.317, Val NLL: 1.373:  47%|████▋     | 149/316 [12:05<13:29,  4.85s/it]Train NLL: 1.228, Val NLL: 1.393:  47%|████▋     | 150/316 [12:10<13:28,  4.87s/it]Train NLL: 1.318, Val NLL: 1.388:  48%|████▊     | 151/316 [12:15<13:21,  4.86s/it]Train NLL: 1.292, Val NLL: 1.343:  48%|████▊     | 152/316 [12:19<13:16,  4.86s/it]Train NLL: 1.280, Val NLL: 1.371:  48%|████▊     | 153/316 [12:24<13:14,  4.87s/it]Train NLL: 1.380, Val NLL: 1.419:  49%|████▊     | 154/316 [12:29<13:08,  4.87s/it]Train NLL: 1.215, Val NLL: 1.446:  49%|████▉     | 155/316 [12:34<13:04,  4.87s/it]Train NLL: 0.573, Val NLL: 1.403:  49%|████▉     | 156/316 [12:39<12:59,  4.87s/it]Train NLL: 1.417, Val NLL: 1.455:  50%|████▉     | 157/316 [12:44<12:53,  4.87s/it]Train NLL: 1.113, Val NLL: 1.347:  50%|█████     | 158/316 [12:49<12:47,  4.86s/it]Train NLL: 1.350, Val NLL: 1.276:  50%|█████     | 159/316 [12:53<12:42,  4.86s/it]Train NLL: 1.259, Val NLL: 1.262:  51%|█████     | 160/316 [12:58<12:35,  4.84s/it]Train NLL: 1.290, Val NLL: 1.334:  51%|█████     | 161/316 [13:03<12:31,  4.85s/it]Train NLL: 1.487, Val NLL: 1.408:  51%|█████▏    | 162/316 [13:08<12:28,  4.86s/it]Train NLL: 1.205, Val NLL: 1.313:  52%|█████▏    | 163/316 [13:13<12:28,  4.90s/it]Train NLL: 1.313, Val NLL: 1.378:  52%|█████▏    | 164/316 [13:18<12:20,  4.87s/it]Train NLL: 1.191, Val NLL: 1.422:  52%|█████▏    | 165/316 [13:23<12:17,  4.88s/it]Train NLL: 1.292, Val NLL: 1.330:  53%|█████▎    | 166/316 [13:28<12:08,  4.86s/it]Train NLL: 1.341, Val NLL: 1.365:  53%|█████▎    | 167/316 [13:32<12:06,  4.88s/it]Train NLL: 1.476, Val NLL: 1.399:  53%|█████▎    | 168/316 [13:37<12:00,  4.87s/it]Train NLL: 3.612, Val NLL: 1.502:  53%|█████▎    | 169/316 [13:42<11:55,  4.87s/it]Train NLL: 1.234, Val NLL: 1.411:  54%|█████▍    | 170/316 [13:47<11:50,  4.87s/it]Train NLL: 1.121, Val NLL: 1.382:  54%|█████▍    | 171/316 [13:52<11:50,  4.90s/it]Train NLL: 1.434, Val NLL: 1.408:  54%|█████▍    | 172/316 [13:57<11:43,  4.89s/it]Train NLL: 1.367, Val NLL: 1.292:  55%|█████▍    | 173/316 [14:02<11:41,  4.90s/it]Train NLL: 1.402, Val NLL: 1.385:  55%|█████▌    | 174/316 [14:07<11:33,  4.88s/it]Train NLL: 1.212, Val NLL: 1.352:  55%|█████▌    | 175/316 [14:12<11:28,  4.89s/it]Train NLL: 1.236, Val NLL: 1.319:  56%|█████▌    | 176/316 [14:16<11:21,  4.87s/it]Epoch   177: reducing learning rate of group 0 to 1.0000e-05.
Train NLL: 1.283, Val NLL: 1.376:  56%|█████▌    | 177/316 [14:21<11:15,  4.86s/it]Train NLL: 1.512, Val NLL: 1.383:  56%|█████▋    | 178/316 [14:26<11:10,  4.86s/it]Train NLL: 1.169, Val NLL: 1.261:  57%|█████▋    | 179/316 [14:31<11:06,  4.87s/it]Train NLL: 1.273, Val NLL: 1.397:  57%|█████▋    | 180/316 [14:36<10:59,  4.85s/it]Train NLL: 1.294, Val NLL: 1.376:  57%|█████▋    | 181/316 [14:41<10:54,  4.85s/it]Train NLL: 1.316, Val NLL: 1.514:  58%|█████▊    | 182/316 [14:45<10:49,  4.85s/it]Train NLL: 1.293, Val NLL: 1.343:  58%|█████▊    | 183/316 [14:50<10:44,  4.85s/it]Train NLL: 1.253, Val NLL: 1.254:  58%|█████▊    | 184/316 [14:55<10:38,  4.84s/it]Train NLL: 1.264, Val NLL: 1.283:  59%|█████▊    | 185/316 [15:00<10:37,  4.86s/it]Train NLL: 1.303, Val NLL: 1.411:  59%|█████▉    | 186/316 [15:05<10:31,  4.86s/it]Train NLL: 1.104, Val NLL: 1.279:  59%|█████▉    | 187/316 [15:10<10:30,  4.88s/it]Train NLL: 1.131, Val NLL: 1.319:  59%|█████▉    | 188/316 [15:15<10:24,  4.88s/it]Train NLL: 1.275, Val NLL: 1.467:  60%|█████▉    | 189/316 [15:20<10:19,  4.88s/it]Train NLL: 1.277, Val NLL: 1.451:  60%|██████    | 190/316 [15:25<10:17,  4.90s/it]Train NLL: 1.297, Val NLL: 1.438:  60%|██████    | 191/316 [15:29<10:09,  4.88s/it]Train NLL: 1.256, Val NLL: 1.324:  61%|██████    | 192/316 [15:34<10:09,  4.92s/it]Train NLL: 1.455, Val NLL: 1.382:  61%|██████    | 193/316 [15:39<10:01,  4.89s/it]Train NLL: 1.215, Val NLL: 1.427:  61%|██████▏   | 194/316 [15:44<09:55,  4.88s/it]Train NLL: 1.214, Val NLL: 1.365:  62%|██████▏   | 195/316 [15:49<09:49,  4.87s/it]Train NLL: 1.254, Val NLL: 1.306:  62%|██████▏   | 196/316 [15:54<09:45,  4.88s/it]Train NLL: 1.306, Val NLL: 1.318:  62%|██████▏   | 197/316 [15:59<09:37,  4.86s/it]Epoch   198: reducing learning rate of group 0 to 1.0000e-06.
Train NLL: 1.297, Val NLL: 1.311:  63%|██████▎   | 198/316 [16:03<09:33,  4.86s/it]Train NLL: 1.144, Val NLL: 1.324:  63%|██████▎   | 199/316 [16:08<09:31,  4.88s/it]Train NLL: 1.186, Val NLL: 1.265:  63%|██████▎   | 200/316 [16:13<09:26,  4.88s/it]Train NLL: 1.255, Val NLL: 1.347:  64%|██████▎   | 201/316 [16:18<09:21,  4.89s/it]Train NLL: 1.254, Val NLL: 1.357:  64%|██████▍   | 202/316 [16:23<09:17,  4.89s/it]Train NLL: 1.259, Val NLL: 1.324:  64%|██████▍   | 203/316 [16:28<09:13,  4.89s/it]Train NLL: 1.325, Val NLL: 1.276:  65%|██████▍   | 204/316 [16:33<09:07,  4.89s/it]Train NLL: 1.275, Val NLL: 1.340:  65%|██████▍   | 205/316 [16:38<09:01,  4.88s/it]Train NLL: 0.941, Val NLL: 1.327:  65%|██████▌   | 206/316 [16:43<08:56,  4.88s/it]Train NLL: 1.206, Val NLL: 1.362:  66%|██████▌   | 207/316 [16:47<08:49,  4.85s/it]Train NLL: 1.075, Val NLL: 1.306:  66%|██████▌   | 208/316 [16:52<08:44,  4.85s/it]Train NLL: 1.318, Val NLL: 1.339:  66%|██████▌   | 209/316 [16:57<08:40,  4.87s/it]Train NLL: 1.233, Val NLL: 1.298:  66%|██████▋   | 210/316 [17:02<08:36,  4.87s/it]Train NLL: 1.342, Val NLL: 1.397:  67%|██████▋   | 211/316 [17:07<08:32,  4.88s/it]Train NLL: 1.325, Val NLL: 1.306:  67%|██████▋   | 212/316 [17:12<08:26,  4.87s/it]Train NLL: 1.222, Val NLL: 1.389:  67%|██████▋   | 213/316 [17:17<08:22,  4.87s/it]Train NLL: 1.210, Val NLL: 1.265:  68%|██████▊   | 214/316 [17:22<08:17,  4.88s/it]Train NLL: 1.186, Val NLL: 1.452:  68%|██████▊   | 215/316 [17:26<08:11,  4.87s/it]Train NLL: 1.262, Val NLL: 1.333:  68%|██████▊   | 216/316 [17:31<08:07,  4.87s/it]Train NLL: 1.172, Val NLL: 1.507:  69%|██████▊   | 217/316 [17:36<08:01,  4.86s/it]Train NLL: 1.328, Val NLL: 1.353:  69%|██████▉   | 218/316 [17:41<07:56,  4.86s/it]Train NLL: 1.204, Val NLL: 1.387:  69%|██████▉   | 219/316 [17:46<07:49,  4.84s/it]Train NLL: 3.975, Val NLL: 1.308:  70%|██████▉   | 220/316 [17:51<07:45,  4.85s/it]Train NLL: 1.154, Val NLL: 1.489:  70%|██████▉   | 221/316 [17:55<07:40,  4.85s/it]Train NLL: 1.325, Val NLL: 1.433:  70%|███████   | 222/316 [18:00<07:35,  4.85s/it]Train NLL: 1.712, Val NLL: 1.295:  71%|███████   | 223/316 [18:05<07:32,  4.86s/it]Train NLL: 1.163, Val NLL: 1.356:  71%|███████   | 224/316 [18:10<07:28,  4.87s/it]Train NLL: 1.277, Val NLL: 1.293:  71%|███████   | 225/316 [18:15<07:23,  4.87s/it]Train NLL: 1.162, Val NLL: 1.406:  72%|███████▏  | 226/316 [18:20<07:18,  4.87s/it]Train NLL: 1.267, Val NLL: 1.363:  72%|███████▏  | 227/316 [18:25<07:14,  4.88s/it]Train NLL: 1.225, Val NLL: 1.396:  72%|███████▏  | 228/316 [18:30<07:09,  4.88s/it]Train NLL: 1.218, Val NLL: 1.235:  72%|███████▏  | 229/316 [18:35<07:04,  4.87s/it]Train NLL: 1.443, Val NLL: 1.218:  73%|███████▎  | 230/316 [18:39<06:58,  4.86s/it]Train NLL: 1.260, Val NLL: 1.355:  73%|███████▎  | 231/316 [18:44<06:53,  4.86s/it]Train NLL: 1.284, Val NLL: 1.375:  73%|███████▎  | 232/316 [18:49<06:47,  4.85s/it]Train NLL: 1.224, Val NLL: 1.378:  74%|███████▎  | 233/316 [18:54<06:42,  4.85s/it]Train NLL: 1.111, Val NLL: 1.348:  74%|███████▍  | 234/316 [18:59<06:37,  4.85s/it]Train NLL: 1.254, Val NLL: 1.361:  74%|███████▍  | 235/316 [19:04<06:32,  4.85s/it]Train NLL: 1.307, Val NLL: 1.479:  75%|███████▍  | 236/316 [19:08<06:27,  4.84s/it]Train NLL: 1.276, Val NLL: 1.466:  75%|███████▌  | 237/316 [19:13<06:22,  4.84s/it]Train NLL: 1.332, Val NLL: 1.379:  75%|███████▌  | 238/316 [19:18<06:17,  4.83s/it]Train NLL: 1.302, Val NLL: 1.325:  76%|███████▌  | 239/316 [19:23<06:14,  4.86s/it]Train NLL: 1.305, Val NLL: 1.262:  76%|███████▌  | 240/316 [19:28<06:09,  4.86s/it]Train NLL: 1.308, Val NLL: 1.343:  76%|███████▋  | 241/316 [19:33<06:05,  4.87s/it]Train NLL: 2.160, Val NLL: 1.204:  77%|███████▋  | 242/316 [19:38<05:59,  4.86s/it]Train NLL: 1.288, Val NLL: 1.419:  77%|███████▋  | 243/316 [19:42<05:55,  4.86s/it]Train NLL: 1.231, Val NLL: 1.305:  77%|███████▋  | 244/316 [19:47<05:49,  4.85s/it]Train NLL: 1.203, Val NLL: 1.366:  78%|███████▊  | 245/316 [19:52<05:44,  4.86s/it]Train NLL: 1.220, Val NLL: 1.412:  78%|███████▊  | 246/316 [19:57<05:40,  4.87s/it]Train NLL: 1.301, Val NLL: 1.262:  78%|███████▊  | 247/316 [20:02<05:36,  4.88s/it]Train NLL: 1.255, Val NLL: 1.432:  78%|███████▊  | 248/316 [20:07<05:29,  4.85s/it]Train NLL: 1.301, Val NLL: 1.411:  79%|███████▉  | 249/316 [20:12<05:25,  4.86s/it]Train NLL: 1.380, Val NLL: 1.349:  79%|███████▉  | 250/316 [20:16<05:20,  4.86s/it]Train NLL: 1.189, Val NLL: 1.269:  79%|███████▉  | 251/316 [20:21<05:16,  4.87s/it]Train NLL: 1.165, Val NLL: 1.301:  80%|███████▉  | 252/316 [20:26<05:11,  4.87s/it]Train NLL: 1.116, Val NLL: 1.396:  80%|████████  | 253/316 [20:31<05:07,  4.89s/it]Train NLL: 1.319, Val NLL: 1.224:  80%|████████  | 254/316 [20:36<05:02,  4.88s/it]Train NLL: 1.227, Val NLL: 1.297:  81%|████████  | 255/316 [20:41<04:57,  4.88s/it]Train NLL: 1.343, Val NLL: 1.290:  81%|████████  | 256/316 [20:46<04:52,  4.88s/it]Train NLL: 1.301, Val NLL: 1.325:  81%|████████▏ | 257/316 [20:51<04:47,  4.87s/it]Train NLL: 1.289, Val NLL: 1.314:  82%|████████▏ | 258/316 [20:55<04:42,  4.87s/it]Train NLL: 1.268, Val NLL: 1.258:  82%|████████▏ | 259/316 [21:00<04:37,  4.87s/it]Train NLL: 1.293, Val NLL: 1.358:  82%|████████▏ | 260/316 [21:05<04:32,  4.87s/it]Train NLL: 1.332, Val NLL: 1.370:  83%|████████▎ | 261/316 [21:10<04:26,  4.85s/it]Train NLL: 1.188, Val NLL: 1.329:  83%|████████▎ | 262/316 [21:15<04:25,  4.91s/it]Train NLL: 1.245, Val NLL: 1.381:  83%|████████▎ | 263/316 [21:20<04:19,  4.90s/it]Train NLL: 1.253, Val NLL: 1.420:  84%|████████▎ | 264/316 [21:25<04:15,  4.91s/it]Train NLL: 1.178, Val NLL: 1.359:  84%|████████▍ | 265/316 [21:30<04:10,  4.91s/it]Train NLL: 1.197, Val NLL: 1.424:  84%|████████▍ | 266/316 [21:35<04:04,  4.88s/it]Train NLL: 1.227, Val NLL: 1.322:  84%|████████▍ | 267/316 [21:39<03:58,  4.87s/it]Train NLL: 1.361, Val NLL: 1.238:  85%|████████▍ | 268/316 [21:44<03:54,  4.89s/it]Train NLL: 1.237, Val NLL: 1.434:  85%|████████▌ | 269/316 [21:49<03:48,  4.87s/it]Train NLL: 1.175, Val NLL: 1.343:  85%|████████▌ | 270/316 [21:54<03:45,  4.89s/it]Train NLL: 1.150, Val NLL: 1.406:  86%|████████▌ | 271/316 [21:59<03:40,  4.89s/it]Train NLL: 1.294, Val NLL: 1.378:  86%|████████▌ | 272/316 [22:04<03:36,  4.92s/it]Train NLL: 1.248, Val NLL: 1.426:  86%|████████▋ | 273/316 [22:09<03:30,  4.89s/it]Train NLL: 1.409, Val NLL: 1.287:  87%|████████▋ | 274/316 [22:14<03:25,  4.90s/it]Train NLL: 1.376, Val NLL: 1.351:  87%|████████▋ | 275/316 [22:19<03:20,  4.88s/it]Train NLL: 1.385, Val NLL: 1.359:  87%|████████▋ | 276/316 [22:24<03:15,  4.89s/it]Train NLL: 1.315, Val NLL: 1.351:  88%|████████▊ | 277/316 [22:28<03:10,  4.87s/it]Train NLL: 1.398, Val NLL: 1.393:  88%|████████▊ | 278/316 [22:33<03:04,  4.87s/it]Train NLL: 1.120, Val NLL: 1.357:  88%|████████▊ | 279/316 [22:38<02:59,  4.86s/it]Train NLL: 1.302, Val NLL: 1.373:  89%|████████▊ | 280/316 [22:43<02:55,  4.87s/it]Train NLL: 1.275, Val NLL: 1.454:  89%|████████▉ | 281/316 [22:48<02:50,  4.86s/it]Train NLL: 1.252, Val NLL: 1.309:  89%|████████▉ | 282/316 [22:53<02:45,  4.86s/it]Train NLL: 1.334, Val NLL: 1.233:  90%|████████▉ | 283/316 [22:57<02:40,  4.86s/it]Train NLL: 1.025, Val NLL: 1.375:  90%|████████▉ | 284/316 [23:02<02:36,  4.89s/it]Train NLL: 1.412, Val NLL: 1.426:  90%|█████████ | 285/316 [23:07<02:30,  4.87s/it]Train NLL: 1.380, Val NLL: 1.381:  91%|█████████ | 286/316 [23:12<02:26,  4.90s/it]Train NLL: 1.182, Val NLL: 1.413:  91%|█████████ | 287/316 [23:17<02:21,  4.86s/it]Train NLL: 1.227, Val NLL: 1.276:  91%|█████████ | 288/316 [23:22<02:16,  4.87s/it]Train NLL: 1.342, Val NLL: 1.248:  91%|█████████▏| 289/316 [23:27<02:11,  4.85s/it]Train NLL: 1.089, Val NLL: 1.414:  92%|█████████▏| 290/316 [23:32<02:06,  4.86s/it]Train NLL: 1.211, Val NLL: 1.408:  92%|█████████▏| 291/316 [23:37<02:02,  4.88s/it]Train NLL: 1.265, Val NLL: 1.381:  92%|█████████▏| 292/316 [23:41<01:57,  4.89s/it]Train NLL: 1.216, Val NLL: 1.321:  93%|█████████▎| 293/316 [23:46<01:52,  4.88s/it]Train NLL: 1.262, Val NLL: 1.288:  93%|█████████▎| 294/316 [23:51<01:47,  4.87s/it]Train NLL: 1.432, Val NLL: 1.348:  93%|█████████▎| 295/316 [23:56<01:42,  4.86s/it]Train NLL: 1.163, Val NLL: 1.245:  94%|█████████▎| 296/316 [24:01<01:37,  4.86s/it]Train NLL: 1.135, Val NLL: 1.436:  94%|█████████▍| 297/316 [24:06<01:32,  4.86s/it]Train NLL: 1.211, Val NLL: 1.437:  94%|█████████▍| 298/316 [24:11<01:27,  4.86s/it]Train NLL: 2.075, Val NLL: 1.422:  95%|█████████▍| 299/316 [24:15<01:22,  4.84s/it]Train NLL: 1.326, Val NLL: 1.308:  95%|█████████▍| 300/316 [24:20<01:17,  4.86s/it]Train NLL: 1.300, Val NLL: 1.262:  95%|█████████▌| 301/316 [24:25<01:13,  4.88s/it]Train NLL: 1.265, Val NLL: 1.366:  96%|█████████▌| 302/316 [24:30<01:07,  4.84s/it]Train NLL: 1.210, Val NLL: 1.336:  96%|█████████▌| 303/316 [24:35<01:03,  4.86s/it]Train NLL: 1.222, Val NLL: 1.311:  96%|█████████▌| 304/316 [24:40<00:59,  4.95s/it]Train NLL: 1.137, Val NLL: 1.421:  97%|█████████▋| 305/316 [24:45<00:54,  4.96s/it]Train NLL: 1.273, Val NLL: 1.522:  97%|█████████▋| 306/316 [24:50<00:49,  4.93s/it]Train NLL: 1.336, Val NLL: 1.381:  97%|█████████▋| 307/316 [24:55<00:44,  4.93s/it]Train NLL: 1.086, Val NLL: 1.398:  97%|█████████▋| 308/316 [25:00<00:39,  4.94s/it]Train NLL: 1.226, Val NLL: 1.416:  98%|█████████▊| 309/316 [25:05<00:34,  4.94s/it]Train NLL: 1.457, Val NLL: 1.420:  98%|█████████▊| 310/316 [25:10<00:29,  4.91s/it]Train NLL: 1.175, Val NLL: 1.353:  98%|█████████▊| 311/316 [25:14<00:24,  4.91s/it]Train NLL: 1.286, Val NLL: 1.290:  99%|█████████▊| 312/316 [25:19<00:19,  4.89s/it]Train NLL: 1.269, Val NLL: 1.332:  99%|█████████▉| 313/316 [25:24<00:14,  4.89s/it]Train NLL: 1.286, Val NLL: 1.365:  99%|█████████▉| 314/316 [25:29<00:09,  4.87s/it]Train NLL: 1.217, Val NLL: 1.282: 100%|█████████▉| 315/316 [25:34<00:04,  4.87s/it]