[
    {
        "converged": true,
        "alpha": 1.0,
        "num_steps": 4
    },
    {
        "converged": true,
        "alpha": 1.0,
        "num_steps": 4
    },
    {
        "converged": true,
        "alpha": 1.0,
        "num_steps": 4
    },
    {
        "converged": true,
        "alpha": 1.0,
        "num_steps": 3
    },
    {
        "converged": true,
        "alpha": 1.0,
        "num_steps": 4
    },
    {
        "converged": true,
        "alpha": 1.0,
        "num_steps": 3
    },
    {
        "converged": true,
        "alpha": 1.0,
        "num_steps": 3
    },
    {
        "converged": true,
        "alpha": 1.0,
        "num_steps": 3
    },
    {
        "converged": true,
        "alpha": 1.0,
        "num_steps": 3
    },
    {
        "converged": true,
        "alpha": 1.0,
        "num_steps": 3
    },
    {
        "converged": true,
        "alpha": 1.0,
        "num_steps": 3
    },
    {
        "converged": true,
        "alpha": 1.0,
        "num_steps": 3
    },
    {
        "converged": true,
        "alpha": 1.0,
        "num_steps": 3
    },
    {
        "converged": true,
        "alpha": 1.0,
        "num_steps": 3
    },
    {
        "converged": true,
        "alpha": 1.0,
        "num_steps": 3
    },
    {
        "converged": true,
        "alpha": 1.0,
        "num_steps": 3
    },
    {
        "converged": true,
        "alpha": 1.0,
        "num_steps": 3
    },
    {
        "converged": true,
        "alpha": 1.0,
        "num_steps": 3
    },
    {
        "converged": true,
        "alpha": 1.0,
        "num_steps": 3
    },
    {
        "converged": true,
        "alpha": 1.0,
        "num_steps": 3
    },
    {
        "converged": true,
        "alpha": 1.0,
        "num_steps": 3
    },
    {
        "converged": true,
        "alpha": 1.0,
        "num_steps": 3
    },
    {
        "converged": true,
        "alpha": 1.0,
        "num_steps": 3
    },
    {
        "converged": true,
        "alpha": 1.0,
        "num_steps": 4
    },
    {
        "converged": true,
        "alpha": 1.0,
        "num_steps": 3
    },
    {
        "converged": true,
        "alpha": 1.0,
        "num_steps": 4
    },
    {
        "converged": true,
        "alpha": 1.0,
        "num_steps": 3
    },
    {
        "converged": true,
        "alpha": 1.0,
        "num_steps": 3
    },
    {
        "converged": true,
        "alpha": 1.0,
        "num_steps": 3
    },
    {
        "converged": true,
        "alpha": 1.0,
        "num_steps": 3
    },
    {
        "converged": true,
        "alpha": 1.0,
        "num_steps": 3
    },
    {
        "converged": true,
        "alpha": 1.0,
        "num_steps": 3
    },
    {
        "converged": true,
        "alpha": 1.0,
        "num_steps": 3
    },
    {
        "converged": true,
        "alpha": 1.0,
        "num_steps": 3
    },
    {
        "converged": true,
        "alpha": 1.0,
        "num_steps": 3
    },
    {
        "converged": true,
        "alpha": 1.0,
        "num_steps": 3
    },
    {
        "converged": true,
        "alpha": 1.0,
        "num_steps": 3
    },
    {
        "converged": true,
        "alpha": 1.0,
        "num_steps": 3
    },
    {
        "converged": true,
        "alpha": 1.0,
        "num_steps": 3
    },
    {
        "converged": true,
        "alpha": 1.0,
        "num_steps": 3
    },
    {
        "converged": true,
        "alpha": 1.0,
        "num_steps": 3
    },
    {
        "converged": true,
        "alpha": 1.0,
        "num_steps": 3
    },
    {
        "converged": true,
        "alpha": 1.0,
        "num_steps": 3
    },
    {
        "converged": true,
        "alpha": 1.0,
        "num_steps": 3
    },
    {
        "converged": true,
        "alpha": 1.0,
        "num_steps": 3
    },
    {
        "converged": true,
        "alpha": 1.0,
        "num_steps": 3
    },
    {
        "converged": true,
        "alpha": 1.0,
        "num_steps": 3
    },
    {
        "converged": true,
        "alpha": 1.0,
        "num_steps": 3
    },
    {
        "converged": true,
        "alpha": 1.0,
        "num_steps": 3
    },
    {
        "converged": true,
        "alpha": 1.0,
        "num_steps": 3
    },
    {
        "converged": true,
        "alpha": 1.0,
        "num_steps": 3
    },
    {
        "converged": true,
        "alpha": 1.0,
        "num_steps": 3
    },
    {
        "converged": true,
        "alpha": 1.0,
        "num_steps": 3
    },
    {
        "converged": true,
        "alpha": 1.0,
        "num_steps": 3
    },
    {
        "converged": true,
        "alpha": 1.0,
        "num_steps": 3
    },
    {
        "converged": true,
        "alpha": 1.0,
        "num_steps": 3
    },
    {
        "converged": true,
        "alpha": 1.0,
        "num_steps": 3
    },
    {
        "converged": true,
        "alpha": 1.0,
        "num_steps": 3
    },
    {
        "converged": true,
        "alpha": 1.0,
        "num_steps": 3
    },
    {
        "converged": true,
        "alpha": 1.0,
        "num_steps": 3
    },
    {
        "converged": true,
        "alpha": 1.0,
        "num_steps": 3
    },
    {
        "converged": true,
        "alpha": 1.0,
        "num_steps": 4
    },
    {
        "converged": true,
        "alpha": 1.0,
        "num_steps": 3
    },
    {
        "converged": true,
        "alpha": 1.0,
        "num_steps": 3
    },
    {
        "converged": true,
        "alpha": 1.0,
        "num_steps": 3
    },
    {
        "converged": true,
        "alpha": 1.0,
        "num_steps": 3
    },
    {
        "converged": true,
        "alpha": 1.0,
        "num_steps": 3
    },
    {
        "converged": true,
        "alpha": 1.0,
        "num_steps": 4
    },
    {
        "converged": true,
        "alpha": 1.0,
        "num_steps": 3
    },
    {
        "converged": true,
        "alpha": 1.0,
        "num_steps": 3
    },
    {
        "converged": true,
        "alpha": 1.0,
        "num_steps": 3
    },
    {
        "converged": true,
        "alpha": 1.0,
        "num_steps": 3
    },
    {
        "converged": true,
        "alpha": 1.0,
        "num_steps": 3
    },
    {
        "converged": true,
        "alpha": 1.0,
        "num_steps": 3
    },
    {
        "converged": true,
        "alpha": 1.0,
        "num_steps": 3
    },
    {
        "converged": true,
        "alpha": 1.0,
        "num_steps": 3
    },
    {
        "converged": true,
        "alpha": 1.0,
        "num_steps": 3
    },
    {
        "converged": true,
        "alpha": 1.0,
        "num_steps": 3
    },
    {
        "converged": true,
        "alpha": 1.0,
        "num_steps": 3
    },
    {
        "converged": true,
        "alpha": 1.0,
        "num_steps": 3
    },
    {
        "converged": true,
        "alpha": 1.0,
        "num_steps": 3
    },
    {
        "converged": true,
        "alpha": 1.0,
        "num_steps": 3
    },
    {
        "converged": true,
        "alpha": 1.0,
        "num_steps": 3
    },
    {
        "converged": true,
        "alpha": 1.0,
        "num_steps": 4
    },
    {
        "converged": true,
        "alpha": 1.0,
        "num_steps": 3
    },
    {
        "converged": true,
        "alpha": 1.0,
        "num_steps": 3
    },
    {
        "converged": true,
        "alpha": 1.0,
        "num_steps": 3
    },
    {
        "converged": true,
        "alpha": 1.0,
        "num_steps": 3
    },
    {
        "converged": true,
        "alpha": 1.0,
        "num_steps": 3
    },
    {
        "converged": true,
        "alpha": 1.0,
        "num_steps": 3
    },
    {
        "converged": true,
        "alpha": 1.0,
        "num_steps": 3
    },
    {
        "converged": true,
        "alpha": 1.0,
        "num_steps": 3
    },
    {
        "converged": true,
        "alpha": 1.0,
        "num_steps": 3
    },
    {
        "converged": true,
        "alpha": 1.0,
        "num_steps": 3
    },
    {
        "converged": true,
        "alpha": 1.0,
        "num_steps": 3
    },
    {
        "converged": true,
        "alpha": 1.0,
        "num_steps": 3
    },
    {
        "converged": true,
        "alpha": 1.0,
        "num_steps": 4
    },
    {
        "converged": true,
        "alpha": 1.0,
        "num_steps": 3
    },
    {
        "converged": true,
        "alpha": 1.0,
        "num_steps": 3
    },
    {
        "converged": true,
        "alpha": 1.0,
        "num_steps": 3
    }
]