{
  "memory.usage": {
    "steps": [
      0,
      1,
      2,
      3,
      4,
      5,
      6,
      7,
      8,
      9,
      10,
      11,
      12,
      13,
      14,
      15,
      16,
      17,
      18,
      19,
      20,
      21,
      22,
      23,
      24,
      25,
      26,
      27,
      28,
      29,
      30,
      31,
      32,
      33,
      34,
      35,
      36,
      37,
      38,
      39,
      40,
      41,
      42,
      43,
      44,
      45,
      46,
      47,
      48,
      49,
      50,
      51,
      52,
      53,
      54,
      55,
      56,
      57,
      58,
      59,
      60,
      61,
      62,
      63,
      64,
      65,
      66,
      67,
      68,
      69,
      70,
      71,
      72,
      73,
      74,
      75,
      76,
      77,
      78,
      79,
      80,
      81,
      82,
      83,
      84,
      85,
      86,
      87,
      88,
      89,
      90,
      91,
      92,
      93,
      94,
      95,
      96,
      97,
      98,
      99,
      100,
      101,
      102,
      103,
      104,
      105,
      106,
      107,
      108,
      109,
      110,
      111,
      112,
      113,
      114,
      115,
      116,
      117,
      118,
      119,
      120,
      121,
      122,
      123,
      124,
      125,
      126,
      127,
      128,
      129,
      130,
      131,
      132,
      133,
      134,
      135,
      136,
      137,
      138,
      139,
      140,
      141,
      142,
      143,
      144,
      145,
      146,
      147,
      148,
      149,
      150,
      151,
      152,
      153,
      154,
      155,
      156,
      157,
      158,
      159,
      160,
      161,
      162
    ],
    "timestamps": [
      "2022-01-13T07:19:55.356248",
      "2022-01-13T07:20:03.927514",
      "2022-01-13T07:20:12.445768",
      "2022-01-13T07:20:21.118337",
      "2022-01-13T07:20:29.918591",
      "2022-01-13T07:20:38.554185",
      "2022-01-13T07:20:47.101735",
      "2022-01-13T07:20:56.009621",
      "2022-01-13T07:21:04.709774",
      "2022-01-13T07:21:13.425645",
      "2022-01-13T07:21:22.071947",
      "2022-01-13T07:21:30.673081",
      "2022-01-13T07:21:39.510157",
      "2022-01-13T07:21:48.006648",
      "2022-01-13T07:21:56.608351",
      "2022-01-13T07:22:05.370704",
      "2022-01-13T07:22:14.022523",
      "2022-01-13T07:22:22.765584",
      "2022-01-13T07:22:31.454106",
      "2022-01-13T07:22:40.080152",
      "2022-01-13T07:22:48.903538",
      "2022-01-13T07:22:57.815655",
      "2022-01-13T07:23:06.536663",
      "2022-01-13T07:23:15.133311",
      "2022-01-13T07:23:24.939347",
      "2022-01-13T07:23:35.808210",
      "2022-01-13T07:23:47.850153",
      "2022-01-13T07:23:59.826575",
      "2022-01-13T07:24:11.874621",
      "2022-01-13T07:24:23.834888",
      "2022-01-13T07:24:35.847575",
      "2022-01-13T07:24:49.220261",
      "2022-01-13T07:25:01.125116",
      "2022-01-13T07:25:13.032015",
      "2022-01-13T07:25:25.582492",
      "2022-01-13T07:25:37.854211",
      "2022-01-13T07:25:49.977393",
      "2022-01-13T07:26:02.292028",
      "2022-01-13T07:26:14.572404",
      "2022-01-13T07:26:26.639422",
      "2022-01-13T07:26:38.541691",
      "2022-01-13T07:26:51.724017",
      "2022-01-13T07:27:04.148793",
      "2022-01-13T07:27:16.425443",
      "2022-01-13T07:27:28.571671",
      "2022-01-13T07:27:42.076776",
      "2022-01-13T07:27:54.130989",
      "2022-01-13T07:28:06.147732",
      "2022-01-13T07:28:18.555115",
      "2022-01-13T07:28:30.598916",
      "2022-01-13T07:28:42.506535",
      "2022-01-13T07:28:54.424228",
      "2022-01-13T07:29:06.319837",
      "2022-01-13T07:29:18.201432",
      "2022-01-13T07:29:30.095368",
      "2022-01-13T07:29:41.979442",
      "2022-01-13T07:29:53.863237",
      "2022-01-13T07:30:05.782039",
      "2022-01-13T07:30:17.679651",
      "2022-01-13T07:30:29.514503",
      "2022-01-13T07:30:41.395172",
      "2022-01-13T07:30:53.329806",
      "2022-01-13T07:31:05.218081",
      "2022-01-13T07:31:17.110113",
      "2022-01-13T07:31:29.052475",
      "2022-01-13T07:31:41.334687",
      "2022-01-13T07:31:53.586093",
      "2022-01-13T07:32:07.252455",
      "2022-01-13T07:32:19.517197",
      "2022-01-13T07:32:31.779428",
      "2022-01-13T07:32:43.897957",
      "2022-01-13T07:32:56.179634",
      "2022-01-13T07:33:08.545634",
      "2022-01-13T07:33:19.174441",
      "2022-01-13T07:33:27.746718",
      "2022-01-13T07:33:36.419959",
      "2022-01-13T07:33:44.920986",
      "2022-01-13T07:33:53.530845",
      "2022-01-13T07:34:02.109661",
      "2022-01-13T07:34:10.652810",
      "2022-01-13T07:34:19.266007",
      "2022-01-13T07:34:27.876728",
      "2022-01-13T07:34:36.512589",
      "2022-01-13T07:34:45.492799",
      "2022-01-13T07:34:54.206460",
      "2022-01-13T07:35:02.962900",
      "2022-01-13T07:35:11.607650",
      "2022-01-13T07:35:20.232035",
      "2022-01-13T07:35:28.762791",
      "2022-01-13T07:35:37.270876",
      "2022-01-13T07:35:46.147705",
      "2022-01-13T07:35:55.018358",
      "2022-01-13T07:36:03.855197",
      "2022-01-13T07:36:12.488901",
      "2022-01-13T07:36:21.148446",
      "2022-01-13T07:36:29.847569",
      "2022-01-13T07:36:38.607115",
      "2022-01-13T07:36:48.011596",
      "2022-01-13T07:36:56.787339",
      "2022-01-13T07:37:05.475398",
      "2022-01-13T07:37:14.499603",
      "2022-01-13T07:37:23.127131",
      "2022-01-13T07:37:31.689049",
      "2022-01-13T07:37:40.211177",
      "2022-01-13T07:37:48.750186",
      "2022-01-13T07:37:57.370906",
      "2022-01-13T07:38:06.007092",
      "2022-01-13T07:38:14.731075",
      "2022-01-13T07:38:23.239317",
      "2022-01-13T07:38:31.744272",
      "2022-01-13T07:38:40.238525",
      "2022-01-13T07:38:48.745132",
      "2022-01-13T07:38:57.246154",
      "2022-01-13T07:39:05.893120",
      "2022-01-13T07:39:14.461355",
      "2022-01-13T07:39:23.028556",
      "2022-01-13T07:39:31.610827",
      "2022-01-13T07:39:40.364308",
      "2022-01-13T07:39:48.978332",
      "2022-01-13T07:39:57.608707",
      "2022-01-13T07:40:06.199995",
      "2022-01-13T07:40:14.925489",
      "2022-01-13T07:40:23.590800",
      "2022-01-13T07:40:32.236089",
      "2022-01-13T07:40:40.916101",
      "2022-01-13T07:40:49.712668",
      "2022-01-13T07:40:58.415701",
      "2022-01-13T07:41:07.053927",
      "2022-01-13T07:41:15.607877",
      "2022-01-13T07:41:24.183245",
      "2022-01-13T07:41:41.093628",
      "2022-01-13T07:42:04.165136",
      "2022-01-13T07:42:25.471236",
      "2022-01-13T07:42:46.676589",
      "2022-01-13T07:43:07.222591",
      "2022-01-13T07:43:28.074005",
      "2022-01-13T07:43:48.910168",
      "2022-01-13T07:44:09.876702",
      "2022-01-13T07:44:30.724281",
      "2022-01-13T07:44:51.493395",
      "2022-01-13T07:45:12.831458",
      "2022-01-13T07:45:33.864839",
      "2022-01-13T07:45:54.974462",
      "2022-01-13T07:46:15.868376",
      "2022-01-13T07:46:36.965054",
      "2022-01-13T07:46:57.839902",
      "2022-01-13T07:47:18.713912",
      "2022-01-13T07:47:39.466792",
      "2022-01-13T07:48:00.699539",
      "2022-01-13T07:48:19.020895",
      "2022-01-13T07:48:27.713701",
      "2022-01-13T07:48:36.691496",
      "2022-01-13T07:48:45.539124",
      "2022-01-13T07:48:54.386995",
      "2022-01-13T07:49:03.076214",
      "2022-01-13T07:49:11.824781",
      "2022-01-13T07:49:20.478623",
      "2022-01-13T07:49:29.141412",
      "2022-01-13T07:49:37.929219",
      "2022-01-13T07:49:46.828851",
      "2022-01-13T07:49:55.345837",
      "2022-01-13T07:50:04.273203",
      "2022-01-13T07:50:13.091808"
    ],
    "values": [
      10.487808,
      10.494464,
      10.494464,
      10.494464,
      10.494464,
      10.494464,
      10.494464,
      10.494464,
      10.494464,
      10.494464,
      10.494464,
      10.494464,
      10.494464,
      10.494464,
      10.494464,
      10.494464,
      10.494464,
      10.494464,
      10.494464,
      10.494464,
      10.494464,
      10.494464,
      10.494464,
      10.494464,
      10.494464,
      10.494464,
      10.494464,
      10.494464,
      10.494464,
      10.494464,
      10.494464,
      10.494464,
      10.494464,
      10.494464,
      10.494464,
      10.494464,
      10.494464,
      10.494464,
      10.494464,
      10.494464,
      10.494464,
      10.494464,
      10.494464,
      10.494464,
      10.494464,
      10.494464,
      10.494464,
      10.494464,
      10.494464,
      10.494464,
      10.494464,
      10.494464,
      10.494464,
      10.494464,
      10.494464,
      10.494464,
      10.494464,
      10.494464,
      10.494464,
      10.494464,
      10.494464,
      10.494464,
      10.494464,
      10.494464,
      10.494464,
      10.494464,
      10.494464,
      10.494464,
      10.494464,
      10.494464,
      10.494464,
      10.494464,
      10.494464,
      10.494464,
      10.494464,
      10.494464,
      10.494464,
      10.494464,
      10.494464,
      10.494464,
      10.494464,
      10.494464,
      10.494464,
      10.494464,
      10.494464,
      10.494464,
      10.494464,
      10.494464,
      10.494464,
      10.494464,
      10.494464,
      10.494464,
      10.494464,
      10.494464,
      10.494464,
      10.494464,
      10.494464,
      10.494464,
      10.494464,
      10.494464,
      10.494464,
      10.494464,
      10.494464,
      10.494464,
      10.494464,
      10.494464,
      10.494464,
      10.494464,
      10.494464,
      10.494464,
      10.494464,
      10.494464,
      10.494464,
      10.494464,
      10.494464,
      10.494464,
      10.494464,
      10.494464,
      10.494464,
      10.494464,
      10.494464,
      10.494464,
      10.494464,
      10.494464,
      10.494464,
      10.494464,
      10.494464,
      10.494464,
      10.494464,
      10.494464,
      10.494464,
      10.494464,
      10.494464,
      10.494464,
      10.494464,
      10.494464,
      10.494464,
      10.494464,
      10.494464,
      10.494464,
      10.494464,
      10.494464,
      10.494464,
      10.494464,
      10.494464,
      10.494464,
      10.494464,
      10.494464,
      10.494464,
      10.494464,
      10.494464,
      10.494464,
      10.494464,
      10.494464,
      10.494464,
      10.494464,
      10.494464,
      10.494464,
      10.494464,
      10.494464,
      10.494464,
      10.494464,
      10.494464
    ]
  },
  "val": {
    "steps": [
      0,
      1,
      2,
      3,
      4,
      5,
      6,
      7,
      8,
      9,
      10,
      11,
      12,
      13,
      14,
      15,
      16,
      17,
      18,
      19,
      20,
      21,
      22,
      23,
      24,
      25,
      26,
      27,
      28,
      29,
      30,
      31,
      32,
      33,
      34,
      35,
      36,
      37,
      38,
      39,
      40,
      41,
      42,
      43,
      44,
      45,
      46,
      47,
      48,
      49,
      50,
      51,
      52,
      53,
      54,
      55,
      56,
      57,
      58,
      59,
      60,
      61,
      62,
      63,
      64,
      65,
      66,
      67,
      68,
      69,
      70,
      71,
      72,
      73,
      74,
      75,
      76,
      77,
      78,
      79,
      80,
      81,
      82,
      83,
      84,
      85,
      86,
      87,
      88,
      89,
      90,
      91,
      92,
      93,
      94,
      95,
      96,
      97,
      98,
      99,
      100,
      101,
      102,
      103,
      104,
      105,
      106,
      107,
      108,
      109,
      110,
      111,
      112,
      113,
      114,
      115,
      116,
      117,
      118,
      119,
      120,
      121,
      122,
      123,
      124,
      125,
      126,
      127,
      128,
      129,
      130,
      131,
      132,
      133,
      134,
      135,
      136,
      137,
      138,
      139,
      140,
      141,
      142,
      143,
      144,
      145,
      146,
      147,
      148,
      149,
      150,
      151,
      152,
      153,
      154,
      155,
      156,
      157,
      158,
      159,
      160,
      161,
      162
    ],
    "timestamps": [
      "2022-01-13T07:19:55.678683",
      "2022-01-13T07:20:04.248688",
      "2022-01-13T07:20:12.767989",
      "2022-01-13T07:20:21.441192",
      "2022-01-13T07:20:30.240003",
      "2022-01-13T07:20:38.880072",
      "2022-01-13T07:20:47.424556",
      "2022-01-13T07:20:56.334947",
      "2022-01-13T07:21:05.052711",
      "2022-01-13T07:21:13.756581",
      "2022-01-13T07:21:22.393668",
      "2022-01-13T07:21:30.995783",
      "2022-01-13T07:21:39.831901",
      "2022-01-13T07:21:48.328529",
      "2022-01-13T07:21:56.931183",
      "2022-01-13T07:22:05.693680",
      "2022-01-13T07:22:14.348888",
      "2022-01-13T07:22:23.091175",
      "2022-01-13T07:22:31.783622",
      "2022-01-13T07:22:40.406112",
      "2022-01-13T07:22:49.225858",
      "2022-01-13T07:22:58.140654",
      "2022-01-13T07:23:06.858038",
      "2022-01-13T07:23:15.459094",
      "2022-01-13T07:23:25.261801",
      "2022-01-13T07:23:36.141593",
      "2022-01-13T07:23:48.187147",
      "2022-01-13T07:24:00.162189",
      "2022-01-13T07:24:12.211789",
      "2022-01-13T07:24:24.167139",
      "2022-01-13T07:24:36.181478",
      "2022-01-13T07:24:49.552905",
      "2022-01-13T07:25:01.460601",
      "2022-01-13T07:25:13.368812",
      "2022-01-13T07:25:25.922430",
      "2022-01-13T07:25:38.186779",
      "2022-01-13T07:25:50.313875",
      "2022-01-13T07:26:02.625105",
      "2022-01-13T07:26:14.907216",
      "2022-01-13T07:26:26.969794",
      "2022-01-13T07:26:38.880303",
      "2022-01-13T07:26:52.055382",
      "2022-01-13T07:27:04.483278",
      "2022-01-13T07:27:16.758067",
      "2022-01-13T07:27:28.904009",
      "2022-01-13T07:27:42.411474",
      "2022-01-13T07:27:54.462434",
      "2022-01-13T07:28:06.495302",
      "2022-01-13T07:28:18.890802",
      "2022-01-13T07:28:30.930943",
      "2022-01-13T07:28:42.856198",
      "2022-01-13T07:28:54.752455",
      "2022-01-13T07:29:06.647344",
      "2022-01-13T07:29:18.533370",
      "2022-01-13T07:29:30.431084",
      "2022-01-13T07:29:42.313409",
      "2022-01-13T07:29:54.195287",
      "2022-01-13T07:30:06.114686",
      "2022-01-13T07:30:18.010005",
      "2022-01-13T07:30:29.841594",
      "2022-01-13T07:30:41.727428",
      "2022-01-13T07:30:53.659817",
      "2022-01-13T07:31:05.549491",
      "2022-01-13T07:31:17.437997",
      "2022-01-13T07:31:29.396371",
      "2022-01-13T07:31:41.662709",
      "2022-01-13T07:31:53.924871",
      "2022-01-13T07:32:07.611074",
      "2022-01-13T07:32:19.865534",
      "2022-01-13T07:32:32.119340",
      "2022-01-13T07:32:44.238732",
      "2022-01-13T07:32:56.521057",
      "2022-01-13T07:33:08.877032",
      "2022-01-13T07:33:19.494876",
      "2022-01-13T07:33:28.069698",
      "2022-01-13T07:33:36.742151",
      "2022-01-13T07:33:45.243092",
      "2022-01-13T07:33:53.851805",
      "2022-01-13T07:34:02.431702",
      "2022-01-13T07:34:10.975780",
      "2022-01-13T07:34:19.590126",
      "2022-01-13T07:34:28.198137",
      "2022-01-13T07:34:36.841496",
      "2022-01-13T07:34:45.816642",
      "2022-01-13T07:34:54.528136",
      "2022-01-13T07:35:03.285441",
      "2022-01-13T07:35:11.930151",
      "2022-01-13T07:35:20.555086",
      "2022-01-13T07:35:29.085644",
      "2022-01-13T07:35:37.593892",
      "2022-01-13T07:35:46.472148",
      "2022-01-13T07:35:55.340661",
      "2022-01-13T07:36:04.175895",
      "2022-01-13T07:36:12.813666",
      "2022-01-13T07:36:21.482148",
      "2022-01-13T07:36:30.170210",
      "2022-01-13T07:36:38.955490",
      "2022-01-13T07:36:48.336061",
      "2022-01-13T07:36:57.112721",
      "2022-01-13T07:37:05.827217",
      "2022-01-13T07:37:14.826077",
      "2022-01-13T07:37:23.449788",
      "2022-01-13T07:37:32.010470",
      "2022-01-13T07:37:40.531914",
      "2022-01-13T07:37:49.072417",
      "2022-01-13T07:37:57.697269",
      "2022-01-13T07:38:06.331005",
      "2022-01-13T07:38:15.052129",
      "2022-01-13T07:38:23.562450",
      "2022-01-13T07:38:32.065845",
      "2022-01-13T07:38:40.561242",
      "2022-01-13T07:38:49.066738",
      "2022-01-13T07:38:57.567292",
      "2022-01-13T07:39:06.216155",
      "2022-01-13T07:39:14.783232",
      "2022-01-13T07:39:23.349480",
      "2022-01-13T07:39:31.937213",
      "2022-01-13T07:39:40.689686",
      "2022-01-13T07:39:49.301162",
      "2022-01-13T07:39:57.931817",
      "2022-01-13T07:40:06.523244",
      "2022-01-13T07:40:15.248141",
      "2022-01-13T07:40:23.912685",
      "2022-01-13T07:40:32.559665",
      "2022-01-13T07:40:41.244460",
      "2022-01-13T07:40:50.036840",
      "2022-01-13T07:40:58.738197",
      "2022-01-13T07:41:07.376503",
      "2022-01-13T07:41:15.928180",
      "2022-01-13T07:41:24.505790",
      "2022-01-13T07:41:41.492317",
      "2022-01-13T07:42:04.567166",
      "2022-01-13T07:42:25.873522",
      "2022-01-13T07:42:47.077516",
      "2022-01-13T07:43:07.624055",
      "2022-01-13T07:43:28.479136",
      "2022-01-13T07:43:49.311946",
      "2022-01-13T07:44:10.277426",
      "2022-01-13T07:44:31.121047",
      "2022-01-13T07:44:51.894178",
      "2022-01-13T07:45:13.233548",
      "2022-01-13T07:45:34.265036",
      "2022-01-13T07:45:55.371814",
      "2022-01-13T07:46:16.272097",
      "2022-01-13T07:46:37.367526",
      "2022-01-13T07:46:58.240770",
      "2022-01-13T07:47:19.128554",
      "2022-01-13T07:47:39.872708",
      "2022-01-13T07:48:01.098025",
      "2022-01-13T07:48:19.354271",
      "2022-01-13T07:48:28.066149",
      "2022-01-13T07:48:37.052532",
      "2022-01-13T07:48:45.883229",
      "2022-01-13T07:48:54.723395",
      "2022-01-13T07:49:03.412955",
      "2022-01-13T07:49:12.162512",
      "2022-01-13T07:49:20.810261",
      "2022-01-13T07:49:29.477329",
      "2022-01-13T07:49:38.256391",
      "2022-01-13T07:49:47.161719",
      "2022-01-13T07:49:55.678176",
      "2022-01-13T07:50:04.614111",
      "2022-01-13T07:50:13.453048"
    ],
    "values": [
      9.273918339177154,
      6.024434034523307,
      4.953171999931754,
      4.041705894639769,
      4.17312264925151,
      3.5478395924492543,
      3.1074451298427226,
      2.976738714634371,
      3.2280114554374406,
      3.018663172168414,
      2.930174868712678,
      3.026708509655874,
      2.56837245922735,
      2.8278304310395668,
      2.4088467397191904,
      2.5273519855093123,
      2.5300385128773217,
      2.3616992738720772,
      2.4044629818676455,
      2.464859106169888,
      2.735385208005031,
      2.4113923008707934,
      2.367916514640232,
      2.446196465639911,
      2.299985901214643,
      2.460446069684213,
      2.2997034621685213,
      2.2379641817324174,
      2.275445321407609,
      2.2998979123469385,
      2.196575302676176,
      2.1402835164305727,
      2.448930668258403,
      2.087827717606395,
      2.5051630959506057,
      2.123750879617386,
      2.103300778749927,
      2.4404686317150652,
      1.9199744283656355,
      2.0964500664246635,
      2.1555070888962704,
      1.9827564096216654,
      2.065353409295397,
      2.579906502368769,
      1.9274153660390285,
      2.0004202728340634,
      2.3438955707119344,
      2.1465445783328976,
      1.9063126558591457,
      1.9128609715150646,
      2.018809540919349,
      2.203639646647834,
      1.8649386693510064,
      2.3053365459463793,
      1.9243510539539854,
      2.0195414158742206,
      1.9698198204583095,
      2.0995042715632346,
      2.1191573663882948,
      2.053301068317303,
      2.1229267823326055,
      1.986585530428443,
      2.435237480532569,
      1.8828550254359493,
      2.1631003462440304,
      1.9474870611679025,
      1.8446591089470752,
      2.0855451868006,
      1.8063818807828096,
      1.8524450807344912,
      2.0366522951259145,
      2.053290584757198,
      1.8330396377614246,
      2.2672269188307737,
      2.0290565943523045,
      1.8900157061428784,
      2.1557655258737136,
      1.951965728815649,
      1.701944779195341,
      1.6520412107965268,
      1.5778816294467493,
      1.6405497944455822,
      1.5350608000464956,
      1.5375166743974293,
      1.579305087851703,
      1.6101669465490993,
      1.5614726638924277,
      1.628566442669782,
      1.5722775604850991,
      1.5239512123992633,
      1.5699427473260081,
      1.5853727384115404,
      1.5989580544139121,
      1.5403629491100452,
      1.545585722848681,
      1.6440537663825388,
      1.567647724383128,
      1.575740087372702,
      1.6147978782671475,
      1.5969679086655464,
      1.5955063746805296,
      1.5749449822012596,
      1.5097792209247152,
      1.477319416315993,
      1.573584155305314,
      1.5554633458369056,
      1.5129062230042283,
      1.5036698493498413,
      1.53738757000521,
      1.471669114881225,
      1.5150426759015818,
      1.523590065842734,
      1.5713861644181362,
      1.4676422293740172,
      1.477978967535503,
      1.4877147654612477,
      1.5221598949571575,
      1.5284067101604726,
      1.4716146919733384,
      1.5661915020934267,
      1.5725689007525303,
      1.462587175866778,
      1.552459957202101,
      1.5321114769742274,
      1.6086584799958805,
      1.5154627827126146,
      1.5182794145903236,
      1.4863072426184636,
      1.5584876133242462,
      1.5142295371053813,
      1.5086510731693459,
      1.4273222833701322,
      1.6095031723722915,
      1.512584035526852,
      1.508523201184787,
      1.4497201254032288,
      1.5171685067590648,
      1.485873948129803,
      1.5371873164940502,
      1.4755257001235906,
      1.4773876313643444,
      1.544147669928562,
      1.5491888895001367,
      1.5013226551517076,
      1.5030037125720923,
      1.5142777287425457,
      1.5322584024903607,
      1.4891829582160503,
      1.547971120809866,
      1.499789496714589,
      1.5574771006453814,
      1.5093723892315716,
      1.5297653407504257,
      1.5191529295046577,
      1.5149470561301903,
      1.531897787211598,
      1.5007746525038543,
      1.5782153677912623,
      1.5235971298666255,
      1.509923066213788,
      1.5293049239783636,
      1.5429614092705919,
      1.5596731784732614
    ]
  },
  "train": {
    "steps": [
      0,
      1,
      2,
      3,
      4,
      5,
      6,
      7,
      8,
      9,
      10,
      11,
      12,
      13,
      14,
      15,
      16,
      17,
      18,
      19,
      20,
      21,
      22,
      23,
      24,
      25,
      26,
      27,
      28,
      29,
      30,
      31,
      32,
      33,
      34,
      35,
      36,
      37,
      38,
      39,
      40,
      41,
      42,
      43,
      44,
      45,
      46,
      47,
      48,
      49,
      50,
      51,
      52,
      53,
      54,
      55,
      56,
      57,
      58,
      59,
      60,
      61,
      62,
      63,
      64,
      65,
      66,
      67,
      68,
      69,
      70,
      71,
      72,
      73,
      74,
      75,
      76,
      77,
      78,
      79,
      80,
      81,
      82,
      83,
      84,
      85,
      86,
      87,
      88,
      89,
      90,
      91,
      92,
      93,
      94,
      95,
      96,
      97,
      98,
      99,
      100,
      101,
      102,
      103,
      104,
      105,
      106,
      107,
      108,
      109,
      110,
      111,
      112,
      113,
      114,
      115,
      116,
      117,
      118,
      119,
      120,
      121,
      122,
      123,
      124,
      125,
      126,
      127,
      128,
      129,
      130,
      131,
      132,
      133,
      134,
      135,
      136,
      137,
      138,
      139,
      140,
      141,
      142,
      143,
      144,
      145,
      146,
      147,
      148,
      149,
      150,
      151,
      152,
      153,
      154,
      155,
      156,
      157,
      158,
      159,
      160,
      161,
      162
    ],
    "timestamps": [
      "2022-01-13T07:19:55.356087",
      "2022-01-13T07:20:03.927365",
      "2022-01-13T07:20:12.445629",
      "2022-01-13T07:20:21.118194",
      "2022-01-13T07:20:29.918445",
      "2022-01-13T07:20:38.554021",
      "2022-01-13T07:20:47.101595",
      "2022-01-13T07:20:56.009412",
      "2022-01-13T07:21:04.709628",
      "2022-01-13T07:21:13.425470",
      "2022-01-13T07:21:22.071809",
      "2022-01-13T07:21:30.672942",
      "2022-01-13T07:21:39.510015",
      "2022-01-13T07:21:48.006507",
      "2022-01-13T07:21:56.608218",
      "2022-01-13T07:22:05.370564",
      "2022-01-13T07:22:14.022362",
      "2022-01-13T07:22:22.765432",
      "2022-01-13T07:22:31.453942",
      "2022-01-13T07:22:40.080004",
      "2022-01-13T07:22:48.903391",
      "2022-01-13T07:22:57.815506",
      "2022-01-13T07:23:06.536522",
      "2022-01-13T07:23:15.133178",
      "2022-01-13T07:23:24.939223",
      "2022-01-13T07:23:35.808063",
      "2022-01-13T07:23:47.850017",
      "2022-01-13T07:23:59.826416",
      "2022-01-13T07:24:11.874473",
      "2022-01-13T07:24:23.834742",
      "2022-01-13T07:24:35.847415",
      "2022-01-13T07:24:49.220113",
      "2022-01-13T07:25:01.124980",
      "2022-01-13T07:25:13.031883",
      "2022-01-13T07:25:25.582318",
      "2022-01-13T07:25:37.854064",
      "2022-01-13T07:25:49.977226",
      "2022-01-13T07:26:02.291884",
      "2022-01-13T07:26:14.572230",
      "2022-01-13T07:26:26.639275",
      "2022-01-13T07:26:38.541546",
      "2022-01-13T07:26:51.723876",
      "2022-01-13T07:27:04.148626",
      "2022-01-13T07:27:16.425300",
      "2022-01-13T07:27:28.571518",
      "2022-01-13T07:27:42.076644",
      "2022-01-13T07:27:54.130846",
      "2022-01-13T07:28:06.147566",
      "2022-01-13T07:28:18.554968",
      "2022-01-13T07:28:30.598772",
      "2022-01-13T07:28:42.506362",
      "2022-01-13T07:28:54.424085",
      "2022-01-13T07:29:06.319695",
      "2022-01-13T07:29:18.201290",
      "2022-01-13T07:29:30.095221",
      "2022-01-13T07:29:41.979297",
      "2022-01-13T07:29:53.863093",
      "2022-01-13T07:30:05.781877",
      "2022-01-13T07:30:17.679522",
      "2022-01-13T07:30:29.514361",
      "2022-01-13T07:30:41.395049",
      "2022-01-13T07:30:53.329662",
      "2022-01-13T07:31:05.217938",
      "2022-01-13T07:31:17.109988",
      "2022-01-13T07:31:29.052308",
      "2022-01-13T07:31:41.334543",
      "2022-01-13T07:31:53.585944",
      "2022-01-13T07:32:07.252293",
      "2022-01-13T07:32:19.517038",
      "2022-01-13T07:32:31.779306",
      "2022-01-13T07:32:43.897808",
      "2022-01-13T07:32:56.179481",
      "2022-01-13T07:33:08.545481",
      "2022-01-13T07:33:19.174301",
      "2022-01-13T07:33:27.746575",
      "2022-01-13T07:33:36.419804",
      "2022-01-13T07:33:44.920844",
      "2022-01-13T07:33:53.530701",
      "2022-01-13T07:34:02.109517",
      "2022-01-13T07:34:10.652666",
      "2022-01-13T07:34:19.265867",
      "2022-01-13T07:34:27.876587",
      "2022-01-13T07:34:36.512274",
      "2022-01-13T07:34:45.492656",
      "2022-01-13T07:34:54.206344",
      "2022-01-13T07:35:02.962745",
      "2022-01-13T07:35:11.607492",
      "2022-01-13T07:35:20.231918",
      "2022-01-13T07:35:28.762648",
      "2022-01-13T07:35:37.270733",
      "2022-01-13T07:35:46.147590",
      "2022-01-13T07:35:55.018205",
      "2022-01-13T07:36:03.855063",
      "2022-01-13T07:36:12.488771",
      "2022-01-13T07:36:21.148299",
      "2022-01-13T07:36:29.847427",
      "2022-01-13T07:36:38.606984",
      "2022-01-13T07:36:48.011449",
      "2022-01-13T07:36:56.787160",
      "2022-01-13T07:37:05.475199",
      "2022-01-13T07:37:14.499462",
      "2022-01-13T07:37:23.126971",
      "2022-01-13T07:37:31.688903",
      "2022-01-13T07:37:40.211036",
      "2022-01-13T07:37:48.750038",
      "2022-01-13T07:37:57.370775",
      "2022-01-13T07:38:06.006951",
      "2022-01-13T07:38:14.730941",
      "2022-01-13T07:38:23.239174",
      "2022-01-13T07:38:31.744131",
      "2022-01-13T07:38:40.238378",
      "2022-01-13T07:38:48.744989",
      "2022-01-13T07:38:57.246012",
      "2022-01-13T07:39:05.892994",
      "2022-01-13T07:39:14.461220",
      "2022-01-13T07:39:23.028427",
      "2022-01-13T07:39:31.610687",
      "2022-01-13T07:39:40.364158",
      "2022-01-13T07:39:48.978200",
      "2022-01-13T07:39:57.608569",
      "2022-01-13T07:40:06.199852",
      "2022-01-13T07:40:14.925343",
      "2022-01-13T07:40:23.590649",
      "2022-01-13T07:40:32.235957",
      "2022-01-13T07:40:40.915983",
      "2022-01-13T07:40:49.712524",
      "2022-01-13T07:40:58.415545",
      "2022-01-13T07:41:07.053785",
      "2022-01-13T07:41:15.607740",
      "2022-01-13T07:41:24.183102",
      "2022-01-13T07:41:41.093474",
      "2022-01-13T07:42:04.164995",
      "2022-01-13T07:42:25.471074",
      "2022-01-13T07:42:46.676419",
      "2022-01-13T07:43:07.222436",
      "2022-01-13T07:43:28.073875",
      "2022-01-13T07:43:48.910016",
      "2022-01-13T07:44:09.876548",
      "2022-01-13T07:44:30.724112",
      "2022-01-13T07:44:51.493236",
      "2022-01-13T07:45:12.831283",
      "2022-01-13T07:45:33.864696",
      "2022-01-13T07:45:54.974338",
      "2022-01-13T07:46:15.868218",
      "2022-01-13T07:46:36.964888",
      "2022-01-13T07:46:57.839737",
      "2022-01-13T07:47:18.713755",
      "2022-01-13T07:47:39.466634",
      "2022-01-13T07:48:00.699378",
      "2022-01-13T07:48:19.020718",
      "2022-01-13T07:48:27.713554",
      "2022-01-13T07:48:36.691342",
      "2022-01-13T07:48:45.538973",
      "2022-01-13T07:48:54.386826",
      "2022-01-13T07:49:03.076072",
      "2022-01-13T07:49:11.824586",
      "2022-01-13T07:49:20.478477",
      "2022-01-13T07:49:29.141256",
      "2022-01-13T07:49:37.929070",
      "2022-01-13T07:49:46.828703",
      "2022-01-13T07:49:55.345695",
      "2022-01-13T07:50:04.273028",
      "2022-01-13T07:50:13.091659"
    ],
    "values": [
      17.976854825810673,
      7.712346510263413,
      5.8009519785810495,
      4.680758145569144,
      4.212787628750936,
      4.046248610570213,
      3.4840567076840534,
      3.365098031508482,
      3.279287287946191,
      3.2489219396374422,
      2.9823378833100525,
      3.015270415742902,
      2.9674360374502338,
      3.0018141096003523,
      2.8097151528564797,
      2.7607145557737947,
      2.750627925227002,
      2.707682964557979,
      2.733500882662394,
      2.526708575539582,
      2.586629841723353,
      2.6217309530292776,
      2.504187818023909,
      2.3974552287569604,
      2.5947871787931427,
      2.4817988586585193,
      2.4605691519494104,
      2.4478739217911327,
      2.378430540809313,
      2.314847793295477,
      2.3795591302417596,
      2.300111919612355,
      2.4391553872800746,
      2.307131417907044,
      2.413428907385876,
      2.3482135391372077,
      2.3629177398126298,
      2.2518814881843134,
      2.2296170965285516,
      2.2021807268087543,
      2.3576790921732056,
      2.236083212212448,
      2.2166300639245544,
      2.2049198905981275,
      2.142342655941729,
      2.1758118546533036,
      2.2005906618988296,
      2.1557199139304406,
      2.1519449720233093,
      2.2016831022495453,
      2.0632693692399426,
      2.092976660060235,
      2.0970381871571773,
      2.235668468845974,
      2.1615750903584994,
      2.0641165495194405,
      2.1405339723638876,
      2.0573784129592125,
      2.1197812253772876,
      2.1216137120081084,
      2.081620619245267,
      2.0904905756549286,
      2.0327009633071613,
      1.9874042054635674,
      2.0627396900421586,
      2.095832773064499,
      1.9794055631040886,
      2.072908251862299,
      2.0808580178712193,
      2.004377817854814,
      2.047086553991381,
      2.088319412282194,
      2.0572044115614596,
      1.9902145241045213,
      2.0070066080189495,
      1.9870453175621747,
      2.093809882488472,
      2.048743302900404,
      1.6666831371462074,
      1.6420786629385704,
      1.6243259890263335,
      1.606430559119945,
      1.5876984133408287,
      1.647536760063117,
      1.5828830612572222,
      1.5726269199199394,
      1.582018982321523,
      1.624157759393177,
      1.5973510363581247,
      1.5145721805081669,
      1.6262604932457447,
      1.5627482690704497,
      1.6050779463630516,
      1.5794649013481696,
      1.5278898777689849,
      1.5860144538302783,
      1.6023889238005293,
      1.557500514805622,
      1.539985258021014,
      1.600633817776921,
      1.5907566986251425,
      1.5188553053051799,
      1.5230236852658874,
      1.5481738927415665,
      1.5197560810284267,
      1.5590828276541,
      1.55302407580914,
      1.5604458170396813,
      1.526102358786279,
      1.5268559505969526,
      1.5809270084998195,
      1.5593497183509328,
      1.5334225617233008,
      1.5322152314064927,
      1.5467863951864205,
      1.5889551687034549,
      1.5782531857429964,
      1.5504657125617904,
      1.533507264344554,
      1.498500351552332,
      1.5438453674847614,
      1.5769055721868426,
      1.516147773284669,
      1.5512307345148904,
      1.4988300965158645,
      1.5123217522525565,
      1.5145361340163805,
      1.5507428456837886,
      1.5138857934723922,
      1.5228458113160468,
      1.5304518724434524,
      1.526683685324944,
      1.517388395705788,
      1.48720830671787,
      1.5341613885535366,
      1.5348513931914258,
      1.4776204430456419,
      1.5060485985737602,
      1.5504667304911492,
      1.5127464940759887,
      1.5055402965445588,
      1.5370436061388018,
      1.4942822767118173,
      1.5079823890692563,
      1.5685245414017024,
      1.563392094520165,
      1.5128773453202355,
      1.520019668303779,
      1.451349464735333,
      1.5144208391977767,
      1.4839428763698905,
      1.494943795676277,
      1.5248269600387365,
      1.5223066181508493,
      1.5665413179599141,
      1.545444399398687,
      1.565736368294854,
      1.5681084962414409,
      1.508376914316109,
      1.5037490736643184,
      1.5868822350508336,
      1.517889532111746,
      1.5295250300916092
    ]
  }
}
