{
  "memory.usage": {
    "steps": [
      0,
      1,
      2,
      3,
      4,
      5,
      6,
      7,
      8,
      9,
      10,
      11,
      12,
      13,
      14,
      15,
      16,
      17,
      18,
      19,
      20,
      21,
      22,
      23,
      24,
      25,
      26,
      27,
      28,
      29,
      30,
      31,
      32,
      33,
      34,
      35,
      36,
      37,
      38,
      39,
      40,
      41,
      42,
      43,
      44,
      45,
      46,
      47,
      48,
      49,
      50,
      51,
      52,
      53,
      54,
      55,
      56,
      57,
      58,
      59,
      60
    ],
    "timestamps": [
      "2022-10-14T08:19:20.934235",
      "2022-10-14T08:20:14.329148",
      "2022-10-14T08:21:14.574397",
      "2022-10-14T08:22:16.276285",
      "2022-10-14T08:23:15.383100",
      "2022-10-14T08:24:15.499935",
      "2022-10-14T08:25:18.175220",
      "2022-10-14T08:26:20.012255",
      "2022-10-14T08:27:19.783491",
      "2022-10-14T08:28:18.907287",
      "2022-10-14T08:29:19.578845",
      "2022-10-14T08:30:19.999442",
      "2022-10-14T08:31:20.723876",
      "2022-10-14T08:32:21.593644",
      "2022-10-14T08:33:25.459211",
      "2022-10-14T08:34:27.950444",
      "2022-10-14T08:35:27.973217",
      "2022-10-14T08:36:25.232185",
      "2022-10-14T08:37:22.987904",
      "2022-10-14T08:38:22.121433",
      "2022-10-14T08:39:21.910934",
      "2022-10-14T08:40:23.509371",
      "2022-10-14T08:41:26.094939",
      "2022-10-14T08:42:28.055573",
      "2022-10-14T08:43:30.488000",
      "2022-10-14T08:44:34.102524",
      "2022-10-14T08:45:36.713453",
      "2022-10-14T08:46:38.601909",
      "2022-10-14T08:47:40.505650",
      "2022-10-14T08:48:41.916076",
      "2022-10-14T08:49:43.287263",
      "2022-10-14T08:50:44.352128",
      "2022-10-14T08:51:46.845930",
      "2022-10-14T08:52:49.264695",
      "2022-10-14T08:53:50.611781",
      "2022-10-14T08:54:51.909044",
      "2022-10-14T08:55:53.351857",
      "2022-10-14T08:56:54.534351",
      "2022-10-14T08:57:55.717207",
      "2022-10-14T08:58:57.191116",
      "2022-10-14T08:59:59.425423",
      "2022-10-14T09:01:00.227578",
      "2022-10-14T09:02:04.859493",
      "2022-10-14T09:03:04.944980",
      "2022-10-14T09:04:05.220639",
      "2022-10-14T09:05:04.871473",
      "2022-10-14T09:06:04.119472",
      "2022-10-14T09:07:06.628091",
      "2022-10-14T09:08:07.594538",
      "2022-10-14T09:09:09.482041",
      "2022-10-14T09:10:11.163877",
      "2022-10-14T09:11:12.381243",
      "2022-10-14T09:12:12.431998",
      "2022-10-14T09:13:11.376400",
      "2022-10-14T09:14:11.075801",
      "2022-10-14T09:15:10.711161",
      "2022-10-14T09:16:10.477834",
      "2022-10-14T09:17:09.651053",
      "2022-10-14T09:18:09.493564",
      "2022-10-14T09:19:08.193931",
      "2022-10-14T09:20:07.041669"
    ],
    "values": [
      131.237376,
      131.237376,
      131.237376,
      131.237376,
      131.237376,
      131.237376,
      131.237376,
      131.237376,
      131.237376,
      131.237376,
      131.237376,
      131.237376,
      131.237376,
      131.237376,
      131.237376,
      131.237376,
      131.237376,
      131.237376,
      131.237376,
      131.237376,
      131.237376,
      131.237376,
      131.237376,
      131.237376,
      131.237376,
      131.237376,
      131.237376,
      131.237376,
      131.237376,
      131.237376,
      131.237376,
      131.237376,
      131.237376,
      131.237376,
      131.237376,
      131.237376,
      131.237376,
      131.237376,
      131.237376,
      131.237376,
      131.237376,
      131.237376,
      131.237376,
      131.237376,
      131.237376,
      131.237376,
      131.237376,
      131.237376,
      131.237376,
      131.237376,
      131.237376,
      131.237376,
      131.237376,
      131.237376,
      131.237376,
      131.237376,
      131.237376,
      131.237376,
      131.237376,
      131.237376,
      131.237376
    ]
  },
  "train": {
    "steps": [
      0,
      1,
      2,
      3,
      4,
      5,
      6,
      7,
      8,
      9,
      10,
      11,
      12,
      13,
      14,
      15,
      16,
      17,
      18,
      19,
      20,
      21,
      22,
      23,
      24,
      25,
      26,
      27,
      28,
      29,
      30,
      31,
      32,
      33,
      34,
      35,
      36,
      37,
      38,
      39,
      40,
      41,
      42,
      43,
      44,
      45,
      46,
      47,
      48,
      49,
      50,
      51,
      52,
      53,
      54,
      55,
      56,
      57,
      58,
      59,
      60,
      61,
      62,
      63,
      64,
      65,
      66,
      67,
      68,
      69,
      70,
      71,
      72,
      73,
      74,
      75,
      76,
      77,
      78,
      79,
      80,
      81,
      82,
      83,
      84,
      85,
      86,
      87,
      88,
      89,
      90,
      91,
      92,
      93,
      94,
      95,
      96,
      97,
      98,
      99,
      100,
      101,
      102,
      103,
      104,
      105,
      106,
      107,
      108,
      109,
      110,
      111,
      112,
      113,
      114,
      115,
      116,
      117,
      118,
      119,
      120,
      121,
      122,
      123,
      124,
      125,
      126,
      127,
      128,
      129,
      130,
      131,
      132,
      133,
      134,
      135,
      136,
      137,
      138,
      139,
      140,
      141,
      142,
      143,
      144,
      145,
      146,
      147,
      148,
      149,
      150,
      151,
      152,
      153,
      154,
      155,
      156,
      157,
      158,
      159,
      160,
      161,
      162,
      163,
      164,
      165,
      166,
      167,
      168,
      169,
      170,
      171,
      172,
      173,
      174,
      175,
      176,
      177,
      178,
      179,
      180,
      181,
      182,
      183,
      184,
      185,
      186,
      187,
      188,
      189,
      190,
      191,
      192,
      193,
      194,
      195,
      196,
      197,
      198,
      199,
      200,
      201,
      202,
      203,
      204,
      205,
      206,
      207,
      208,
      209,
      210,
      211,
      212,
      213,
      214,
      215,
      216,
      217,
      218,
      219,
      220,
      221,
      222,
      223,
      224,
      225,
      226,
      227,
      228,
      229,
      230,
      231,
      232,
      233,
      234,
      235,
      236,
      237,
      238,
      239,
      240,
      241,
      242,
      243,
      244,
      245,
      246,
      247,
      248,
      249,
      250,
      251,
      252,
      253,
      254,
      255,
      256,
      257,
      258,
      259,
      260,
      261,
      262,
      263,
      264,
      265,
      266,
      267,
      268,
      269,
      270,
      271,
      272,
      273,
      274,
      275,
      276,
      277,
      278,
      279,
      280,
      281,
      282,
      283,
      284,
      285,
      286,
      287,
      288,
      289,
      290,
      291,
      292,
      293,
      294,
      295,
      296,
      297,
      298,
      299,
      300,
      301,
      302,
      303,
      304,
      305,
      306,
      307,
      308,
      309,
      310,
      311,
      312,
      313,
      314,
      315,
      316,
      317,
      318,
      319,
      320,
      321,
      322,
      323,
      324,
      325,
      326,
      327,
      328,
      329,
      330,
      331,
      332,
      333,
      334,
      335,
      336,
      337,
      338,
      339,
      340,
      341,
      342,
      343,
      344,
      345,
      346,
      347,
      348,
      349,
      350,
      351,
      352,
      353,
      354,
      355,
      356,
      357,
      358,
      359,
      360,
      361,
      362,
      363,
      364,
      365,
      366,
      367,
      368,
      369,
      370,
      371,
      372,
      373,
      374,
      375,
      376,
      377,
      378,
      379,
      380,
      381,
      382,
      383,
      384,
      385,
      386,
      387,
      388,
      389,
      390,
      391,
      392,
      393,
      394,
      395,
      396,
      397,
      398,
      399,
      400,
      401,
      402,
      403,
      404,
      405,
      406,
      407,
      408,
      409,
      410,
      411,
      412,
      413,
      414,
      415,
      416,
      417,
      418,
      419,
      420,
      421,
      422,
      423,
      424,
      425,
      426,
      427,
      428,
      429,
      430,
      431,
      432,
      433,
      434,
      435,
      436,
      437,
      438,
      439,
      440,
      441,
      442,
      443,
      444,
      445,
      446,
      447,
      448,
      449,
      450,
      451,
      452,
      453,
      454,
      455,
      456,
      457,
      458,
      459,
      460,
      461,
      462,
      463,
      464,
      465,
      466,
      467,
      468,
      469,
      470,
      471,
      472,
      473,
      474,
      475,
      476,
      477,
      478,
      479,
      480,
      481,
      482,
      483,
      484,
      485,
      486,
      487,
      488,
      489,
      490,
      491,
      492,
      493,
      494,
      495,
      496,
      497,
      498,
      499,
      500,
      501,
      502,
      503,
      504,
      505,
      506,
      507,
      508,
      509,
      510,
      511,
      512,
      513,
      514,
      515,
      516,
      517,
      518,
      519,
      520,
      521,
      522,
      523,
      524,
      525,
      526,
      527,
      528,
      529,
      530,
      531,
      532,
      533,
      534,
      535,
      536,
      537,
      538,
      539,
      540,
      541,
      542,
      543,
      544,
      545,
      546,
      547,
      548,
      549,
      550,
      551,
      552,
      553,
      554,
      555,
      556,
      557,
      558,
      559,
      560,
      561,
      562,
      563,
      564,
      565,
      566,
      567,
      568,
      569,
      570,
      571,
      572,
      573,
      574,
      575,
      576,
      577,
      578,
      579,
      580,
      581,
      582,
      583,
      584,
      585,
      586,
      587,
      588,
      589,
      590,
      591,
      592,
      593,
      594,
      595,
      596,
      597,
      598,
      599
    ],
    "timestamps": [
      "2022-10-14T08:19:20.934026",
      "2022-10-14T08:19:27.268452",
      "2022-10-14T08:19:33.380109",
      "2022-10-14T08:19:39.677604",
      "2022-10-14T08:19:45.512118",
      "2022-10-14T08:19:51.282324",
      "2022-10-14T08:19:57.033156",
      "2022-10-14T08:20:02.801524",
      "2022-10-14T08:20:08.559399",
      "2022-10-14T08:20:14.329031",
      "2022-10-14T08:20:20.247309",
      "2022-10-14T08:20:26.331122",
      "2022-10-14T08:20:32.461817",
      "2022-10-14T08:20:38.581871",
      "2022-10-14T08:20:44.535822",
      "2022-10-14T08:20:50.293287",
      "2022-10-14T08:20:56.050539",
      "2022-10-14T08:21:02.065333",
      "2022-10-14T08:21:08.451582",
      "2022-10-14T08:21:14.574231",
      "2022-10-14T08:21:20.899071",
      "2022-10-14T08:21:27.220159",
      "2022-10-14T08:21:33.365902",
      "2022-10-14T08:21:39.292755",
      "2022-10-14T08:21:45.257298",
      "2022-10-14T08:21:51.360405",
      "2022-10-14T08:21:58.140211",
      "2022-10-14T08:22:04.612690",
      "2022-10-14T08:22:10.458009",
      "2022-10-14T08:22:16.276117",
      "2022-10-14T08:22:22.089715",
      "2022-10-14T08:22:27.860573",
      "2022-10-14T08:22:33.595381",
      "2022-10-14T08:22:39.369232",
      "2022-10-14T08:22:45.139322",
      "2022-10-14T08:22:51.334070",
      "2022-10-14T08:22:57.356845",
      "2022-10-14T08:23:03.187828",
      "2022-10-14T08:23:09.330241",
      "2022-10-14T08:23:15.382916",
      "2022-10-14T08:23:21.399333",
      "2022-10-14T08:23:27.301915",
      "2022-10-14T08:23:33.381099",
      "2022-10-14T08:23:39.335057",
      "2022-10-14T08:23:45.265301",
      "2022-10-14T08:23:51.269618",
      "2022-10-14T08:23:57.113951",
      "2022-10-14T08:24:03.053769",
      "2022-10-14T08:24:09.065776",
      "2022-10-14T08:24:15.499748",
      "2022-10-14T08:24:21.883937",
      "2022-10-14T08:24:28.051838",
      "2022-10-14T08:24:34.193621",
      "2022-10-14T08:24:40.513861",
      "2022-10-14T08:24:46.683512",
      "2022-10-14T08:24:52.907124",
      "2022-10-14T08:24:59.165088",
      "2022-10-14T08:25:05.533689",
      "2022-10-14T08:25:11.690921",
      "2022-10-14T08:25:18.175089",
      "2022-10-14T08:25:24.134312",
      "2022-10-14T08:25:30.368335",
      "2022-10-14T08:25:36.750013",
      "2022-10-14T08:25:43.075223",
      "2022-10-14T08:25:49.067671",
      "2022-10-14T08:25:55.073977",
      "2022-10-14T08:26:01.279040",
      "2022-10-14T08:26:07.200228",
      "2022-10-14T08:26:13.643816",
      "2022-10-14T08:26:20.012071",
      "2022-10-14T08:26:26.244307",
      "2022-10-14T08:26:32.406967",
      "2022-10-14T08:26:38.525722",
      "2022-10-14T08:26:44.762192",
      "2022-10-14T08:26:51.030020",
      "2022-10-14T08:26:56.902729",
      "2022-10-14T08:27:02.623775",
      "2022-10-14T08:27:08.343021",
      "2022-10-14T08:27:14.064981",
      "2022-10-14T08:27:19.783326",
      "2022-10-14T08:27:25.532587",
      "2022-10-14T08:27:31.252694",
      "2022-10-14T08:27:37.242330",
      "2022-10-14T08:27:43.572899",
      "2022-10-14T08:27:49.725404",
      "2022-10-14T08:27:55.782040",
      "2022-10-14T08:28:01.551044",
      "2022-10-14T08:28:07.364102",
      "2022-10-14T08:28:13.137734",
      "2022-10-14T08:28:18.907115",
      "2022-10-14T08:28:24.790649",
      "2022-10-14T08:28:30.743185",
      "2022-10-14T08:28:36.983394",
      "2022-10-14T08:28:43.030180",
      "2022-10-14T08:28:48.815401",
      "2022-10-14T08:28:55.002314",
      "2022-10-14T08:29:01.233165",
      "2022-10-14T08:29:07.443331",
      "2022-10-14T08:29:13.589172",
      "2022-10-14T08:29:19.578659",
      "2022-10-14T08:29:25.504726",
      "2022-10-14T08:29:31.705986",
      "2022-10-14T08:29:37.881372",
      "2022-10-14T08:29:43.863441",
      "2022-10-14T08:29:49.881470",
      "2022-10-14T08:29:55.901541",
      "2022-10-14T08:30:02.000341",
      "2022-10-14T08:30:08.117583",
      "2022-10-14T08:30:13.939724",
      "2022-10-14T08:30:19.999279",
      "2022-10-14T08:30:26.036060",
      "2022-10-14T08:30:31.931150",
      "2022-10-14T08:30:37.934557",
      "2022-10-14T08:30:44.016904",
      "2022-10-14T08:30:49.990257",
      "2022-10-14T08:30:56.190605",
      "2022-10-14T08:31:02.595745",
      "2022-10-14T08:31:08.662181",
      "2022-10-14T08:31:14.721839",
      "2022-10-14T08:31:20.723696",
      "2022-10-14T08:31:26.712167",
      "2022-10-14T08:31:33.084009",
      "2022-10-14T08:31:39.452505",
      "2022-10-14T08:31:45.218356",
      "2022-10-14T08:31:50.985485",
      "2022-10-14T08:31:57.379517",
      "2022-10-14T08:32:03.329930",
      "2022-10-14T08:32:09.289551",
      "2022-10-14T08:32:15.580080",
      "2022-10-14T08:32:21.593467",
      "2022-10-14T08:32:27.962629",
      "2022-10-14T08:32:35.560485",
      "2022-10-14T08:32:42.301876",
      "2022-10-14T08:32:48.517900",
      "2022-10-14T08:32:54.437375",
      "2022-10-14T08:33:00.296975",
      "2022-10-14T08:33:06.426448",
      "2022-10-14T08:33:12.688078",
      "2022-10-14T08:33:19.040791",
      "2022-10-14T08:33:25.459081",
      "2022-10-14T08:33:31.835005",
      "2022-10-14T08:33:38.046107",
      "2022-10-14T08:33:44.312679",
      "2022-10-14T08:33:51.331217",
      "2022-10-14T08:33:57.325883",
      "2022-10-14T08:34:03.227808",
      "2022-10-14T08:34:09.467879",
      "2022-10-14T08:34:15.333425",
      "2022-10-14T08:34:21.383149",
      "2022-10-14T08:34:27.950213",
      "2022-10-14T08:34:36.100350",
      "2022-10-14T08:34:42.064930",
      "2022-10-14T08:34:47.867587",
      "2022-10-14T08:34:53.629013",
      "2022-10-14T08:34:59.350296",
      "2022-10-14T08:35:05.076615",
      "2022-10-14T08:35:10.796726",
      "2022-10-14T08:35:16.523106",
      "2022-10-14T08:35:22.246000",
      "2022-10-14T08:35:27.973106",
      "2022-10-14T08:35:33.722484",
      "2022-10-14T08:35:39.438193",
      "2022-10-14T08:35:45.163138",
      "2022-10-14T08:35:50.880457",
      "2022-10-14T08:35:56.598158",
      "2022-10-14T08:36:02.317663",
      "2022-10-14T08:36:08.039289",
      "2022-10-14T08:36:13.768145",
      "2022-10-14T08:36:19.507416",
      "2022-10-14T08:36:25.232016",
      "2022-10-14T08:36:30.986706",
      "2022-10-14T08:36:36.707388",
      "2022-10-14T08:36:42.427113",
      "2022-10-14T08:36:48.151865",
      "2022-10-14T08:36:53.873309",
      "2022-10-14T08:36:59.592421",
      "2022-10-14T08:37:05.320327",
      "2022-10-14T08:37:11.042718",
      "2022-10-14T08:37:17.173450",
      "2022-10-14T08:37:22.987740",
      "2022-10-14T08:37:28.747308",
      "2022-10-14T08:37:34.716635",
      "2022-10-14T08:37:40.647863",
      "2022-10-14T08:37:46.838249",
      "2022-10-14T08:37:52.823073",
      "2022-10-14T08:37:58.600603",
      "2022-10-14T08:38:04.474661",
      "2022-10-14T08:38:10.585748",
      "2022-10-14T08:38:16.377474",
      "2022-10-14T08:38:22.121265",
      "2022-10-14T08:38:27.959729",
      "2022-10-14T08:38:33.784466",
      "2022-10-14T08:38:39.510115",
      "2022-10-14T08:38:45.382641",
      "2022-10-14T08:38:51.415102",
      "2022-10-14T08:38:57.583581",
      "2022-10-14T08:39:03.741618",
      "2022-10-14T08:39:09.711093",
      "2022-10-14T08:39:15.705942",
      "2022-10-14T08:39:21.910752",
      "2022-10-14T08:39:27.972563",
      "2022-10-14T08:39:33.920020",
      "2022-10-14T08:39:40.039613",
      "2022-10-14T08:39:46.063815",
      "2022-10-14T08:39:52.022407",
      "2022-10-14T08:39:58.126533",
      "2022-10-14T08:40:04.374856",
      "2022-10-14T08:40:10.746173",
      "2022-10-14T08:40:17.326839",
      "2022-10-14T08:40:23.509181",
      "2022-10-14T08:40:29.906246",
      "2022-10-14T08:40:36.146001",
      "2022-10-14T08:40:42.495328",
      "2022-10-14T08:40:48.979422",
      "2022-10-14T08:40:55.216108",
      "2022-10-14T08:41:01.489181",
      "2022-10-14T08:41:07.524719",
      "2022-10-14T08:41:13.713767",
      "2022-10-14T08:41:20.032380",
      "2022-10-14T08:41:26.094815",
      "2022-10-14T08:41:32.206551",
      "2022-10-14T08:41:38.204127",
      "2022-10-14T08:41:44.335575",
      "2022-10-14T08:41:50.460096",
      "2022-10-14T08:41:56.595674",
      "2022-10-14T08:42:02.710605",
      "2022-10-14T08:42:09.129926",
      "2022-10-14T08:42:15.284137",
      "2022-10-14T08:42:21.398381",
      "2022-10-14T08:42:28.055387",
      "2022-10-14T08:42:34.683852",
      "2022-10-14T08:42:41.543971",
      "2022-10-14T08:42:47.651213",
      "2022-10-14T08:42:53.761611",
      "2022-10-14T08:42:59.858600",
      "2022-10-14T08:43:05.967823",
      "2022-10-14T08:43:12.134904",
      "2022-10-14T08:43:18.309852",
      "2022-10-14T08:43:24.356921",
      "2022-10-14T08:43:30.487818",
      "2022-10-14T08:43:36.561080",
      "2022-10-14T08:43:43.552195",
      "2022-10-14T08:43:50.056365",
      "2022-10-14T08:43:56.053204",
      "2022-10-14T08:44:02.436515",
      "2022-10-14T08:44:08.732396",
      "2022-10-14T08:44:15.093631",
      "2022-10-14T08:44:21.477247",
      "2022-10-14T08:44:27.738889",
      "2022-10-14T08:44:34.102336",
      "2022-10-14T08:44:40.511581",
      "2022-10-14T08:44:46.734483",
      "2022-10-14T08:44:52.951862",
      "2022-10-14T08:44:59.075979",
      "2022-10-14T08:45:05.425541",
      "2022-10-14T08:45:11.651706",
      "2022-10-14T08:45:17.958117",
      "2022-10-14T08:45:23.982077",
      "2022-10-14T08:45:30.436264",
      "2022-10-14T08:45:36.713279",
      "2022-10-14T08:45:42.850024",
      "2022-10-14T08:45:48.749414",
      "2022-10-14T08:45:54.653514",
      "2022-10-14T08:46:00.738930",
      "2022-10-14T08:46:07.017014",
      "2022-10-14T08:46:13.422985",
      "2022-10-14T08:46:19.777618",
      "2022-10-14T08:46:26.128735",
      "2022-10-14T08:46:32.295520",
      "2022-10-14T08:46:38.601788",
      "2022-10-14T08:46:45.096923",
      "2022-10-14T08:46:51.750689",
      "2022-10-14T08:46:58.042884",
      "2022-10-14T08:47:04.389410",
      "2022-10-14T08:47:10.747608",
      "2022-10-14T08:47:16.687014",
      "2022-10-14T08:47:22.665246",
      "2022-10-14T08:47:28.546744",
      "2022-10-14T08:47:34.441173",
      "2022-10-14T08:47:40.505462",
      "2022-10-14T08:47:46.569118",
      "2022-10-14T08:47:52.652741",
      "2022-10-14T08:47:58.795732",
      "2022-10-14T08:48:04.886954",
      "2022-10-14T08:48:10.970203",
      "2022-10-14T08:48:17.080674",
      "2022-10-14T08:48:23.233746",
      "2022-10-14T08:48:29.395359",
      "2022-10-14T08:48:35.599254",
      "2022-10-14T08:48:41.915942",
      "2022-10-14T08:48:48.394345",
      "2022-10-14T08:48:54.670742",
      "2022-10-14T08:49:00.787776",
      "2022-10-14T08:49:06.902139",
      "2022-10-14T08:49:12.964673",
      "2022-10-14T08:49:19.097787",
      "2022-10-14T08:49:25.031825",
      "2022-10-14T08:49:31.127105",
      "2022-10-14T08:49:37.251999",
      "2022-10-14T08:49:43.287079",
      "2022-10-14T08:49:49.515581",
      "2022-10-14T08:49:55.654716",
      "2022-10-14T08:50:01.690084",
      "2022-10-14T08:50:07.744292",
      "2022-10-14T08:50:13.857470",
      "2022-10-14T08:50:20.049395",
      "2022-10-14T08:50:26.096022",
      "2022-10-14T08:50:32.156571",
      "2022-10-14T08:50:38.306569",
      "2022-10-14T08:50:44.351943",
      "2022-10-14T08:50:50.633276",
      "2022-10-14T08:50:57.215416",
      "2022-10-14T08:51:03.667762",
      "2022-10-14T08:51:09.689016",
      "2022-10-14T08:51:15.776174",
      "2022-10-14T08:51:21.990631",
      "2022-10-14T08:51:28.337601",
      "2022-10-14T08:51:34.545779",
      "2022-10-14T08:51:40.645159",
      "2022-10-14T08:51:46.845757",
      "2022-10-14T08:51:52.869517",
      "2022-10-14T08:51:59.010423",
      "2022-10-14T08:52:04.877635",
      "2022-10-14T08:52:11.558457",
      "2022-10-14T08:52:17.761170",
      "2022-10-14T08:52:24.024939",
      "2022-10-14T08:52:30.213825",
      "2022-10-14T08:52:36.602037",
      "2022-10-14T08:52:42.925750",
      "2022-10-14T08:52:49.264502",
      "2022-10-14T08:52:55.484108",
      "2022-10-14T08:53:01.569334",
      "2022-10-14T08:53:07.712031",
      "2022-10-14T08:53:13.812123",
      "2022-10-14T08:53:19.901696",
      "2022-10-14T08:53:25.988666",
      "2022-10-14T08:53:32.122277",
      "2022-10-14T08:53:38.264540",
      "2022-10-14T08:53:44.395175",
      "2022-10-14T08:53:50.611646",
      "2022-10-14T08:53:56.721664",
      "2022-10-14T08:54:02.831528",
      "2022-10-14T08:54:09.058136",
      "2022-10-14T08:54:15.125630",
      "2022-10-14T08:54:21.280193",
      "2022-10-14T08:54:27.429890",
      "2022-10-14T08:54:33.510195",
      "2022-10-14T08:54:39.588530",
      "2022-10-14T08:54:45.777985",
      "2022-10-14T08:54:51.908916",
      "2022-10-14T08:54:58.002609",
      "2022-10-14T08:55:04.229798",
      "2022-10-14T08:55:10.337126",
      "2022-10-14T08:55:16.455432",
      "2022-10-14T08:55:22.635616",
      "2022-10-14T08:55:28.755958",
      "2022-10-14T08:55:34.807665",
      "2022-10-14T08:55:40.927265",
      "2022-10-14T08:55:47.177623",
      "2022-10-14T08:55:53.351663",
      "2022-10-14T08:55:59.519959",
      "2022-10-14T08:56:05.721701",
      "2022-10-14T08:56:11.777550",
      "2022-10-14T08:56:17.866063",
      "2022-10-14T08:56:23.924359",
      "2022-10-14T08:56:30.007941",
      "2022-10-14T08:56:36.145288",
      "2022-10-14T08:56:42.327687",
      "2022-10-14T08:56:48.391032",
      "2022-10-14T08:56:54.534222",
      "2022-10-14T08:57:00.687482",
      "2022-10-14T08:57:06.799406",
      "2022-10-14T08:57:12.888038",
      "2022-10-14T08:57:19.028116",
      "2022-10-14T08:57:25.143859",
      "2022-10-14T08:57:31.150745",
      "2022-10-14T08:57:37.191636",
      "2022-10-14T08:57:43.423616",
      "2022-10-14T08:57:49.568103",
      "2022-10-14T08:57:55.717031",
      "2022-10-14T08:58:01.878223",
      "2022-10-14T08:58:08.007960",
      "2022-10-14T08:58:14.116616",
      "2022-10-14T08:58:20.305508",
      "2022-10-14T08:58:26.407381",
      "2022-10-14T08:58:32.613554",
      "2022-10-14T08:58:38.788890",
      "2022-10-14T08:58:44.874522",
      "2022-10-14T08:58:50.995910",
      "2022-10-14T08:58:57.190947",
      "2022-10-14T08:59:03.376115",
      "2022-10-14T08:59:09.575664",
      "2022-10-14T08:59:15.723680",
      "2022-10-14T08:59:21.849227",
      "2022-10-14T08:59:28.057526",
      "2022-10-14T08:59:34.267791",
      "2022-10-14T08:59:40.494860",
      "2022-10-14T08:59:46.911856",
      "2022-10-14T08:59:53.298639",
      "2022-10-14T08:59:59.425241",
      "2022-10-14T09:00:05.527234",
      "2022-10-14T09:00:11.951384",
      "2022-10-14T09:00:17.835412",
      "2022-10-14T09:00:23.691196",
      "2022-10-14T09:00:29.551106",
      "2022-10-14T09:00:35.747376",
      "2022-10-14T09:00:41.921299",
      "2022-10-14T09:00:48.156047",
      "2022-10-14T09:00:54.173009",
      "2022-10-14T09:01:00.227394",
      "2022-10-14T09:01:06.304927",
      "2022-10-14T09:01:12.557446",
      "2022-10-14T09:01:18.888351",
      "2022-10-14T09:01:25.850876",
      "2022-10-14T09:01:32.239500",
      "2022-10-14T09:01:40.121240",
      "2022-10-14T09:01:46.339437",
      "2022-10-14T09:01:52.227071",
      "2022-10-14T09:01:58.588708",
      "2022-10-14T09:02:04.859310",
      "2022-10-14T09:02:10.932747",
      "2022-10-14T09:02:16.828054",
      "2022-10-14T09:02:22.721703",
      "2022-10-14T09:02:28.931653",
      "2022-10-14T09:02:35.081993",
      "2022-10-14T09:02:41.031810",
      "2022-10-14T09:02:46.976606",
      "2022-10-14T09:02:53.007849",
      "2022-10-14T09:02:58.970078",
      "2022-10-14T09:03:04.944773",
      "2022-10-14T09:03:11.181939",
      "2022-10-14T09:03:17.260130",
      "2022-10-14T09:03:23.307326",
      "2022-10-14T09:03:29.166712",
      "2022-10-14T09:03:35.055723",
      "2022-10-14T09:03:41.053119",
      "2022-10-14T09:03:47.182788",
      "2022-10-14T09:03:53.069041",
      "2022-10-14T09:03:58.988176",
      "2022-10-14T09:04:05.220505",
      "2022-10-14T09:04:11.184705",
      "2022-10-14T09:04:17.136543",
      "2022-10-14T09:04:23.051577",
      "2022-10-14T09:04:29.155108",
      "2022-10-14T09:04:35.087734",
      "2022-10-14T09:04:41.255601",
      "2022-10-14T09:04:47.184882",
      "2022-10-14T09:04:53.027939",
      "2022-10-14T09:04:58.893279",
      "2022-10-14T09:05:04.871310",
      "2022-10-14T09:05:10.818473",
      "2022-10-14T09:05:16.718888",
      "2022-10-14T09:05:22.737245",
      "2022-10-14T09:05:28.655528",
      "2022-10-14T09:05:34.536299",
      "2022-10-14T09:05:40.466721",
      "2022-10-14T09:05:46.368355",
      "2022-10-14T09:05:52.267175",
      "2022-10-14T09:05:58.171365",
      "2022-10-14T09:06:04.119286",
      "2022-10-14T09:06:10.471421",
      "2022-10-14T09:06:16.865845",
      "2022-10-14T09:06:23.368233",
      "2022-10-14T09:06:29.870572",
      "2022-10-14T09:06:36.192471",
      "2022-10-14T09:06:42.289056",
      "2022-10-14T09:06:48.371977",
      "2022-10-14T09:06:54.363696",
      "2022-10-14T09:07:00.561047",
      "2022-10-14T09:07:06.627893",
      "2022-10-14T09:07:12.770277",
      "2022-10-14T09:07:18.971233",
      "2022-10-14T09:07:25.074220",
      "2022-10-14T09:07:31.334042",
      "2022-10-14T09:07:37.410525",
      "2022-10-14T09:07:43.551859",
      "2022-10-14T09:07:49.566728",
      "2022-10-14T09:07:55.653641",
      "2022-10-14T09:08:01.594400",
      "2022-10-14T09:08:07.594353",
      "2022-10-14T09:08:13.816524",
      "2022-10-14T09:08:20.503148",
      "2022-10-14T09:08:26.581329",
      "2022-10-14T09:08:32.786245",
      "2022-10-14T09:08:38.847839",
      "2022-10-14T09:08:44.905831",
      "2022-10-14T09:08:50.853147",
      "2022-10-14T09:08:56.944922",
      "2022-10-14T09:09:03.371791",
      "2022-10-14T09:09:09.481849",
      "2022-10-14T09:09:15.830193",
      "2022-10-14T09:09:21.844150",
      "2022-10-14T09:09:28.063022",
      "2022-10-14T09:09:34.301667",
      "2022-10-14T09:09:40.400412",
      "2022-10-14T09:09:47.120789",
      "2022-10-14T09:09:53.205428",
      "2022-10-14T09:09:59.151662",
      "2022-10-14T09:10:05.199476",
      "2022-10-14T09:10:11.163710",
      "2022-10-14T09:10:17.151048",
      "2022-10-14T09:10:23.139625",
      "2022-10-14T09:10:29.117347",
      "2022-10-14T09:10:35.232384",
      "2022-10-14T09:10:41.504000",
      "2022-10-14T09:10:47.709406",
      "2022-10-14T09:10:53.827744",
      "2022-10-14T09:10:59.992669",
      "2022-10-14T09:11:06.210501",
      "2022-10-14T09:11:12.381054",
      "2022-10-14T09:11:18.544830",
      "2022-10-14T09:11:24.461067",
      "2022-10-14T09:11:30.586774",
      "2022-10-14T09:11:36.642741",
      "2022-10-14T09:11:42.582584",
      "2022-10-14T09:11:48.720459",
      "2022-10-14T09:11:54.792548",
      "2022-10-14T09:12:00.699258",
      "2022-10-14T09:12:06.550045",
      "2022-10-14T09:12:12.431872",
      "2022-10-14T09:12:18.363631",
      "2022-10-14T09:12:24.237349",
      "2022-10-14T09:12:30.094965",
      "2022-10-14T09:12:36.011302",
      "2022-10-14T09:12:41.866605",
      "2022-10-14T09:12:47.851043",
      "2022-10-14T09:12:53.729719",
      "2022-10-14T09:12:59.611544",
      "2022-10-14T09:13:05.472016",
      "2022-10-14T09:13:11.376234",
      "2022-10-14T09:13:17.309983",
      "2022-10-14T09:13:23.234642",
      "2022-10-14T09:13:29.161661",
      "2022-10-14T09:13:35.021289",
      "2022-10-14T09:13:40.979705",
      "2022-10-14T09:13:47.183805",
      "2022-10-14T09:13:53.232031",
      "2022-10-14T09:13:59.307710",
      "2022-10-14T09:14:05.215594",
      "2022-10-14T09:14:11.075629",
      "2022-10-14T09:14:16.979145",
      "2022-10-14T09:14:22.915482",
      "2022-10-14T09:14:28.868869",
      "2022-10-14T09:14:34.735540",
      "2022-10-14T09:14:40.608919",
      "2022-10-14T09:14:46.464415",
      "2022-10-14T09:14:52.472022",
      "2022-10-14T09:14:58.684483",
      "2022-10-14T09:15:04.835625",
      "2022-10-14T09:15:10.710980",
      "2022-10-14T09:15:16.632335",
      "2022-10-14T09:15:22.485992",
      "2022-10-14T09:15:28.360152",
      "2022-10-14T09:15:34.282206",
      "2022-10-14T09:15:40.456198",
      "2022-10-14T09:15:46.324980",
      "2022-10-14T09:15:52.180790",
      "2022-10-14T09:15:58.352263",
      "2022-10-14T09:16:04.357138",
      "2022-10-14T09:16:10.477649",
      "2022-10-14T09:16:16.479106",
      "2022-10-14T09:16:22.361513",
      "2022-10-14T09:16:28.268995",
      "2022-10-14T09:16:34.114080",
      "2022-10-14T09:16:40.022617",
      "2022-10-14T09:16:45.956455",
      "2022-10-14T09:16:51.819800",
      "2022-10-14T09:16:57.689663",
      "2022-10-14T09:17:03.614612",
      "2022-10-14T09:17:09.650869",
      "2022-10-14T09:17:15.751889",
      "2022-10-14T09:17:21.821052",
      "2022-10-14T09:17:27.827363",
      "2022-10-14T09:17:33.758198",
      "2022-10-14T09:17:39.761693",
      "2022-10-14T09:17:45.667777",
      "2022-10-14T09:17:51.719341",
      "2022-10-14T09:17:57.643668",
      "2022-10-14T09:18:03.626415",
      "2022-10-14T09:18:09.493397",
      "2022-10-14T09:18:15.381226",
      "2022-10-14T09:18:21.252448",
      "2022-10-14T09:18:27.147439",
      "2022-10-14T09:18:33.007256",
      "2022-10-14T09:18:38.867285",
      "2022-10-14T09:18:44.738216",
      "2022-10-14T09:18:50.583420",
      "2022-10-14T09:18:56.444183",
      "2022-10-14T09:19:02.326959",
      "2022-10-14T09:19:08.193816",
      "2022-10-14T09:19:14.064018",
      "2022-10-14T09:19:19.964932",
      "2022-10-14T09:19:25.828554",
      "2022-10-14T09:19:31.706376",
      "2022-10-14T09:19:37.598345",
      "2022-10-14T09:19:43.453905",
      "2022-10-14T09:19:49.406728",
      "2022-10-14T09:19:55.277873",
      "2022-10-14T09:20:01.149817",
      "2022-10-14T09:20:07.041550"
    ],
    "values": [
      863.3668139911599,
      214.2786539213191,
      173.2245659851087,
      142.66093381253407,
      110.85624538590892,
      83.59645392029078,
      64.52256825574993,
      52.70793552745211,
      45.29426105845216,
      40.661824937152275,
      36.997301297799794,
      34.638431094015594,
      33.47741586876285,
      32.813367166026325,
      32.03224670236465,
      31.356972224676305,
      30.89265367341848,
      30.133582157794734,
      29.75592950275591,
      29.052909774654786,
      29.494946924202065,
      29.22719117841908,
      28.315821809391426,
      28.27892631130942,
      28.665548342413345,
      28.787846778811844,
      28.081287583466555,
      28.125304874963994,
      27.8810928809857,
      27.71757226171881,
      27.776894889200015,
      27.517773782803257,
      28.246524651209715,
      27.571031949446663,
      27.62213930564911,
      27.278485680188318,
      28.21587909709042,
      27.582117409128227,
      27.906418493108802,
      27.556650904994786,
      27.632791952098657,
      27.54091890915517,
      27.66595910583768,
      27.87359229108469,
      27.98137402666655,
      28.219682199761387,
      27.88864559061902,
      28.088232269648614,
      28.45325707334741,
      28.516098655714494,
      28.379108787304766,
      29.30500137028064,
      28.980151273280708,
      29.18046589261835,
      29.291016744103043,
      29.57329408482989,
      29.616290413134482,
      29.878974322680346,
      30.518619145540686,
      30.46164246434735,
      30.60748572036977,
      31.138329151165102,
      31.029016635411946,
      31.323819156974352,
      31.513687632270493,
      32.18921024381639,
      31.989177423869954,
      32.48555317484571,
      32.683407090680795,
      32.970790429161546,
      33.07227309731857,
      33.529524924510895,
      33.80131753179698,
      33.916744838205815,
      34.289485645972746,
      34.64392294333581,
      34.76990809873017,
      35.18997370733825,
      35.26304089803065,
      35.73736281519772,
      35.93015625785667,
      36.25610667200904,
      36.45404300265753,
      36.810253967712434,
      37.00589369423949,
      37.25289301466859,
      37.37537223844026,
      37.6866147695446,
      37.96267534246723,
      38.27351788779844,
      38.63849975116698,
      38.71873167907378,
      38.909980642446186,
      39.07389739101256,
      39.366565741300434,
      39.445544597937925,
      39.76674310685673,
      39.84119620960839,
      40.079613433397206,
      40.283063746892246,
      40.16218870673736,
      40.14218910874493,
      40.00546520294189,
      40.013402254780836,
      40.03514404061901,
      39.95541921777466,
      39.84680421961105,
      39.863690657550414,
      39.92885013064786,
      39.89483733714756,
      39.8733095797585,
      39.842340949709495,
      39.684578682431564,
      39.76369473590918,
      39.68166690216322,
      39.7235025510865,
      39.77512957081112,
      39.656862034530306,
      39.536614388675744,
      39.62891679841072,
      39.605647405356734,
      39.520529394218215,
      39.69909946448754,
      39.480233804974,
      39.53843393088732,
      39.51160337874628,
      39.53313891182851,
      39.62322108991223,
      39.45782775037546,
      39.44104048836189,
      39.438222052682136,
      39.421587190048086,
      39.516067553296246,
      39.42371725215426,
      39.34715056954642,
      39.43141940116148,
      39.40552515086476,
      39.423651964530876,
      39.28663356480357,
      39.340856180384385,
      39.27347470008591,
      39.34330832080909,
      39.31545960384713,
      39.28035851846996,
      39.27750514135255,
      39.345367587108086,
      39.247178057106446,
      39.27246447786675,
      39.191560265802316,
      39.237565219181334,
      39.21292858685828,
      39.30652505762458,
      39.25329623469449,
      39.28389427768797,
      39.20691809416154,
      39.24890594336607,
      39.16664063387311,
      39.118023608384846,
      39.19215509327627,
      39.182709824333735,
      39.16357309397526,
      39.17952016959037,
      39.133211731269846,
      39.14387967826293,
      39.172563261307005,
      39.109437507787646,
      39.182439470803764,
      39.073539805834336,
      39.03278162756845,
      39.12016573558059,
      39.12198211666906,
      39.068261542991465,
      39.078190255029895,
      39.10311847099713,
      39.07217156049294,
      39.047060009290114,
      39.13530853432012,
      39.0268174318805,
      39.00497481532621,
      39.04373904073444,
      39.06653186591277,
      38.983588522017904,
      39.021458669949915,
      38.9537484370435,
      38.97842388490341,
      39.08128998112088,
      39.03655273828602,
      39.100210924192965,
      39.01491091026035,
      38.990627868897725,
      38.996741906228365,
      39.062030658732255,
      38.94917057031319,
      38.945589852379996,
      38.93621142089498,
      38.927597876685624,
      38.97442136320627,
      38.981243783465565,
      38.913857886597924,
      38.96748009557555,
      38.863598980072865,
      38.88855551458711,
      38.878073237283914,
      38.91099274302175,
      38.89121472638972,
      38.95626550146112,
      38.90430187307007,
      38.93338204322756,
      38.923448209720334,
      38.88918403352035,
      38.81655472138796,
      38.86194888882692,
      38.866679688275255,
      38.80250872818479,
      38.84616257099231,
      38.862164947649546,
      38.83032489295841,
      38.94420012155989,
      38.84777262041288,
      38.81801969824834,
      38.873862097761915,
      38.93299684164816,
      38.8696101733419,
      38.845626344977006,
      38.87350549357704,
      38.805028621430125,
      38.87087155077189,
      38.842906056271765,
      38.83207840544968,
      38.80252386683067,
      38.757882583435894,
      38.82741911154801,
      38.810524447882926,
      38.81418901380571,
      38.718478508913684,
      38.792412613730924,
      38.80960164256843,
      38.80043201359073,
      38.794225349896266,
      38.74025476199941,
      38.832899754169254,
      38.79187858238519,
      38.71704951714328,
      38.76252812017892,
      38.724353022063895,
      38.73609696006288,
      38.733240919894094,
      38.70539890476563,
      38.74794140255244,
      38.78786387127138,
      38.82623659599381,
      38.78006029354502,
      38.74450860244016,
      38.77872222247639,
      38.70537913320843,
      38.73076038040302,
      38.70030278719074,
      38.76564821451238,
      38.730154182233285,
      38.7564355871342,
      38.75124783129169,
      38.65687328873823,
      38.684196414675554,
      38.72967959897806,
      38.68153883484513,
      38.648164489926366,
      38.70767540334708,
      38.662154814112995,
      38.73067379938569,
      38.662487864433835,
      38.59689073989352,
      38.739363667189245,
      38.64037944029315,
      38.67152680438318,
      38.6756108733535,
      38.62140092993417,
      38.68353353151615,
      38.65684765812132,
      38.69580434614153,
      38.58985917373162,
      38.65429395742234,
      38.616239454545195,
      38.666305762290705,
      38.6237096341788,
      38.728883691703814,
      38.66516695351593,
      38.57728029364253,
      38.655604524800786,
      38.57965243387081,
      38.59675854539892,
      38.644015580312505,
      38.64322130258003,
      38.61602359093682,
      38.63464712628669,
      38.56286451133314,
      38.63531601618922,
      38.57241500198981,
      38.586457646263426,
      38.64274033318103,
      38.624667778296036,
      38.59687566028755,
      38.63136457447813,
      38.62147493694602,
      38.627036192889875,
      38.56775077893365,
      38.59616429549278,
      38.64663198325609,
      38.581296295818305,
      38.57268680166316,
      38.57795434016775,
      38.5758916167273,
      38.54848145494871,
      38.5721855229925,
      38.59643609747612,
      38.53653890394087,
      38.621957750697,
      38.51521250215878,
      38.633098519673574,
      38.556722954977936,
      38.56878743257412,
      38.56010689344312,
      38.52690324693059,
      38.57265962720854,
      38.56122855811498,
      38.55875628615749,
      38.55757430024348,
      38.55948218387418,
      38.56419122036352,
      38.50795001248058,
      38.58660122277594,
      38.50261803285776,
      38.512541681927615,
      38.61496731199673,
      38.52006778986366,
      38.50647341974529,
      38.50275916723513,
      38.487084448697345,
      38.5953933964497,
      38.50099330981224,
      38.50225818091033,
      38.54112423984541,
      38.45771911412589,
      38.46658746630038,
      38.57592482219403,
      38.431367820888056,
      38.49687514583149,
      38.44693435591902,
      38.461909467970116,
      38.52105976031144,
      38.45875719725066,
      38.55010557013438,
      38.46331827786967,
      38.5420135907252,
      38.54141985535799,
      38.441156039630386,
      38.47676316439775,
      38.49803294836084,
      38.48156808680284,
      38.47422129180832,
      38.522256222116965,
      38.457447044408866,
      38.470310839847166,
      38.48975403809063,
      38.441813321816255,
      38.512277341812336,
      38.46580591262072,
      38.00802966122102,
      37.95472889530877,
      37.946435537279804,
      37.954871960144516,
      37.95528755574043,
      37.95214029084529,
      37.95911246200543,
      37.944670531314266,
      37.947853546202005,
      37.94672469467636,
      37.95490492494434,
      37.95976517947133,
      37.94689108529305,
      37.94502645345114,
      37.95542031417942,
      37.95320045128005,
      37.948000448313586,
      37.95686294253154,
      37.945625989275406,
      37.95284246651529,
      37.9624031338309,
      37.95168728261709,
      37.947389758929575,
      37.953625890366304,
      37.89943946416555,
      37.892963467376404,
      37.886671982294914,
      37.87982899704502,
      37.89376456896606,
      37.881315301720974,
      37.89231155758803,
      37.893290614749446,
      37.879405325815235,
      37.881759994604366,
      37.889306696668655,
      37.87830456721509,
      37.88558517006059,
      37.8900252535711,
      37.88223372487119,
      37.88196259826714,
      37.895727334291294,
      37.87485053851286,
      37.88511157712766,
      37.885325679846325,
      37.88902250017024,
      37.87767292826111,
      37.88290116116445,
      37.88490492339339,
      37.87980060582427,
      37.88575444266248,
      37.87980072238768,
      37.8809298636761,
      37.87946290128168,
      37.88816179746289,
      37.882127980735234,
      37.89460565543056,
      37.88393924164623,
      37.88187935464728,
      37.87668398773065,
      37.878730968465526,
      37.88420428197903,
      37.881811001840894,
      37.87991226232165,
      37.87945738554632,
      37.88470924268421,
      37.87959953783993,
      37.87783620642735,
      37.87678359592968,
      37.872097211933486,
      37.86953700272242,
      37.87024530056678,
      37.87431320652345,
      37.876964645679614,
      37.88025853440824,
      37.880221921329884,
      37.88202413111337,
      37.87841964722741,
      37.878327331936546,
      37.8692433805355,
      37.8742287453075,
      37.87752811648765,
      37.86987773397291,
      37.87945502051635,
      37.86883257791555,
      37.87034801517686,
      37.87812628848363,
      37.873637919627754,
      37.87724099676579,
      37.86891591233073,
      37.868896036146005,
      37.87093351070326,
      37.8701640850691,
      37.86965611255839,
      37.881567451156535,
      37.87080843494805,
      37.873627110237415,
      37.87459189716106,
      37.874313539783465,
      37.86245560148949,
      37.87512318962095,
      37.87287989142729,
      37.87500706794124,
      37.86859984497051,
      37.87119883478131,
      37.87244432241545,
      37.87173854753105,
      37.88141028344463,
      37.87790568414367,
      37.86951058031633,
      37.86937351296874,
      37.87720938321366,
      37.87461466178236,
      37.88420047388251,
      37.88020883998016,
      37.879127070666065,
      37.87737405118316,
      37.87536758770606,
      37.87927125189678,
      37.87139727888279,
      37.8806389435377,
      37.87094817353915,
      37.87536034091742,
      37.87492040774466,
      37.8749994468749,
      37.872448861183464,
      37.871796501540395,
      37.87075293657516,
      37.86856039180815,
      37.87497440351205,
      37.874130608506356,
      37.86969176162526,
      37.871485104622735,
      37.8740342638826,
      37.880398810251,
      37.876010197433864,
      37.86563335026866,
      37.87250282648322,
      37.87521404763796,
      37.88006489463333,
      37.870435553161336,
      37.87191489688804,
      37.876877977823874,
      37.87579697335671,
      37.87384574399325,
      37.87781398205298,
      37.87442720832038,
      37.86973305252243,
      37.87280136879558,
      37.87222298577062,
      37.87650659556595,
      37.86891903491665,
      37.8739257996521,
      37.87552803075906,
      37.87533138030608,
      37.8788801968549,
      37.87712071600034,
      37.867290717041776,
      37.87566951465926,
      37.8740575363912,
      37.86847384433759,
      37.87124457088984,
      37.87732093116109,
      37.87738507178046,
      37.877779603461825,
      37.87062538708961,
      37.87755188447018,
      37.87211343822736,
      37.8754639460258,
      37.87467783599634,
      37.87562491961297,
      37.869703605627045,
      37.873421718443254,
      37.875324770639644,
      37.88131496456024,
      37.88193108505809,
      37.878162136753765,
      37.87281839333999,
      37.87761510380102,
      37.87285237389576,
      37.87239714698408,
      37.87035543189543,
      37.871163544993976,
      37.87588862556539,
      37.8697255578547,
      37.876505536187416,
      37.864694286108524,
      37.87483970630902,
      37.87433028656615,
      37.877839149876024,
      37.869561554103925,
      37.8707633578074,
      37.87581260850617,
      37.869710878000696,
      37.87026204357111,
      37.88112343942811,
      37.881378123750494,
      37.87469980673794,
      37.86821720279335,
      37.87603568396563,
      37.88244183869418,
      37.876885559524766,
      37.87052546180063,
      37.87238740744517,
      37.86868375263311,
      37.87825033547685,
      37.872877901266605,
      37.87515625863281,
      37.87585346724397,
      37.872310765465194,
      37.87640840865632,
      37.867966911543924,
      37.87675401276063,
      37.87712490700383,
      37.87395340934368,
      37.87645846863108,
      37.87014356902998,
      37.87212946538636,
      37.87068199031069,
      37.86915025771257,
      37.87039598481096,
      37.87272248486877,
      37.87878715738471,
      37.869109119230494,
      37.87056315790558,
      37.87096821851901,
      37.87303415822716,
      37.87777263133214,
      37.87264280288247,
      37.8774352192842,
      37.872873730403604,
      37.87155003780013,
      37.87514804313651,
      37.86945242152651,
      37.87418103223896
    ]
  },
  "val": {
    "steps": [
      0,
      1,
      2,
      3,
      4,
      5,
      6,
      7,
      8,
      9,
      10,
      11,
      12,
      13,
      14,
      15,
      16,
      17,
      18,
      19,
      20,
      21,
      22,
      23,
      24,
      25,
      26,
      27,
      28,
      29,
      30,
      31,
      32,
      33,
      34,
      35,
      36,
      37,
      38,
      39,
      40,
      41,
      42,
      43,
      44,
      45,
      46,
      47,
      48,
      49,
      50,
      51,
      52,
      53,
      54,
      55,
      56,
      57,
      58,
      59,
      60,
      61,
      62,
      63,
      64,
      65,
      66,
      67,
      68,
      69,
      70,
      71,
      72,
      73,
      74,
      75,
      76,
      77,
      78,
      79,
      80,
      81,
      82,
      83,
      84,
      85,
      86,
      87,
      88,
      89,
      90,
      91,
      92,
      93,
      94,
      95,
      96,
      97,
      98,
      99,
      100,
      101,
      102,
      103,
      104,
      105,
      106,
      107,
      108,
      109,
      110,
      111,
      112,
      113,
      114,
      115,
      116,
      117,
      118,
      119,
      120,
      121,
      122,
      123,
      124,
      125,
      126,
      127,
      128,
      129,
      130,
      131,
      132,
      133,
      134,
      135,
      136,
      137,
      138,
      139,
      140,
      141,
      142,
      143,
      144,
      145,
      146,
      147,
      148,
      149,
      150,
      151,
      152,
      153,
      154,
      155,
      156,
      157,
      158,
      159,
      160,
      161,
      162,
      163,
      164,
      165,
      166,
      167,
      168,
      169,
      170,
      171,
      172,
      173,
      174,
      175,
      176,
      177,
      178,
      179,
      180,
      181,
      182,
      183,
      184,
      185,
      186,
      187,
      188,
      189,
      190,
      191,
      192,
      193,
      194,
      195,
      196,
      197,
      198,
      199,
      200,
      201,
      202,
      203,
      204,
      205,
      206,
      207,
      208,
      209,
      210,
      211,
      212,
      213,
      214,
      215,
      216,
      217,
      218,
      219,
      220,
      221,
      222,
      223,
      224,
      225,
      226,
      227,
      228,
      229,
      230,
      231,
      232,
      233,
      234,
      235,
      236,
      237,
      238,
      239,
      240,
      241,
      242,
      243,
      244,
      245,
      246,
      247,
      248,
      249,
      250,
      251,
      252,
      253,
      254,
      255,
      256,
      257,
      258,
      259,
      260,
      261,
      262,
      263,
      264,
      265,
      266,
      267,
      268,
      269,
      270,
      271,
      272,
      273,
      274,
      275,
      276,
      277,
      278,
      279,
      280,
      281,
      282,
      283,
      284,
      285,
      286,
      287,
      288,
      289,
      290,
      291,
      292,
      293,
      294,
      295,
      296,
      297,
      298,
      299,
      300,
      301,
      302,
      303,
      304,
      305,
      306,
      307,
      308,
      309,
      310,
      311,
      312,
      313,
      314,
      315,
      316,
      317,
      318,
      319,
      320,
      321,
      322,
      323,
      324,
      325,
      326,
      327,
      328,
      329,
      330,
      331,
      332,
      333,
      334,
      335,
      336,
      337,
      338,
      339,
      340,
      341,
      342,
      343,
      344,
      345,
      346,
      347,
      348,
      349,
      350,
      351,
      352,
      353,
      354,
      355,
      356,
      357,
      358,
      359,
      360,
      361,
      362,
      363,
      364,
      365,
      366,
      367,
      368,
      369,
      370,
      371,
      372,
      373,
      374,
      375,
      376,
      377,
      378,
      379,
      380,
      381,
      382,
      383,
      384,
      385,
      386,
      387,
      388,
      389,
      390,
      391,
      392,
      393,
      394,
      395,
      396,
      397,
      398,
      399,
      400,
      401,
      402,
      403,
      404,
      405,
      406,
      407,
      408,
      409,
      410,
      411,
      412,
      413,
      414,
      415,
      416,
      417,
      418,
      419,
      420,
      421,
      422,
      423,
      424,
      425,
      426,
      427,
      428,
      429,
      430,
      431,
      432,
      433,
      434,
      435,
      436,
      437,
      438,
      439,
      440,
      441,
      442,
      443,
      444,
      445,
      446,
      447,
      448,
      449,
      450,
      451,
      452,
      453,
      454,
      455,
      456,
      457,
      458,
      459,
      460,
      461,
      462,
      463,
      464,
      465,
      466,
      467,
      468,
      469,
      470,
      471,
      472,
      473,
      474,
      475,
      476,
      477,
      478,
      479,
      480,
      481,
      482,
      483,
      484,
      485,
      486,
      487,
      488,
      489,
      490,
      491,
      492,
      493,
      494,
      495,
      496,
      497,
      498,
      499,
      500,
      501,
      502,
      503,
      504,
      505,
      506,
      507,
      508,
      509,
      510,
      511,
      512,
      513,
      514,
      515,
      516,
      517,
      518,
      519,
      520,
      521,
      522,
      523,
      524,
      525,
      526,
      527,
      528,
      529,
      530,
      531,
      532,
      533,
      534,
      535,
      536,
      537,
      538,
      539,
      540,
      541,
      542,
      543,
      544,
      545,
      546,
      547,
      548,
      549,
      550,
      551,
      552,
      553,
      554,
      555,
      556,
      557,
      558,
      559,
      560,
      561,
      562,
      563,
      564,
      565,
      566,
      567,
      568,
      569,
      570,
      571,
      572,
      573,
      574,
      575,
      576,
      577,
      578,
      579,
      580,
      581,
      582,
      583,
      584,
      585,
      586,
      587,
      588,
      589,
      590,
      591,
      592,
      593,
      594,
      595,
      596,
      597,
      598,
      599
    ],
    "timestamps": [
      "2022-10-14T08:19:21.629968",
      "2022-10-14T08:19:27.938302",
      "2022-10-14T08:19:34.151010",
      "2022-10-14T08:19:40.357294",
      "2022-10-14T08:19:46.153357",
      "2022-10-14T08:19:51.918600",
      "2022-10-14T08:19:57.669798",
      "2022-10-14T08:20:03.440349",
      "2022-10-14T08:20:09.197471",
      "2022-10-14T08:20:14.965991",
      "2022-10-14T08:20:20.886593",
      "2022-10-14T08:20:27.010607",
      "2022-10-14T08:20:33.124109",
      "2022-10-14T08:20:39.224408",
      "2022-10-14T08:20:45.173084",
      "2022-10-14T08:20:50.930739",
      "2022-10-14T08:20:56.686533",
      "2022-10-14T08:21:02.702451",
      "2022-10-14T08:21:09.158745",
      "2022-10-14T08:21:15.272196",
      "2022-10-14T08:21:21.644618",
      "2022-10-14T08:21:27.899298",
      "2022-10-14T08:21:34.001693",
      "2022-10-14T08:21:39.990879",
      "2022-10-14T08:21:45.914664",
      "2022-10-14T08:21:52.134909",
      "2022-10-14T08:21:58.990866",
      "2022-10-14T08:22:05.259078",
      "2022-10-14T08:22:11.092708",
      "2022-10-14T08:22:16.911750",
      "2022-10-14T08:22:22.723854",
      "2022-10-14T08:22:28.494919",
      "2022-10-14T08:22:34.229743",
      "2022-10-14T08:22:40.003195",
      "2022-10-14T08:22:45.817732",
      "2022-10-14T08:22:51.975844",
      "2022-10-14T08:22:57.998913",
      "2022-10-14T08:23:03.845801",
      "2022-10-14T08:23:09.983346",
      "2022-10-14T08:23:16.040838",
      "2022-10-14T08:23:22.041287",
      "2022-10-14T08:23:27.961421",
      "2022-10-14T08:23:34.065490",
      "2022-10-14T08:23:39.975764",
      "2022-10-14T08:23:45.939885",
      "2022-10-14T08:23:51.909109",
      "2022-10-14T08:23:57.751784",
      "2022-10-14T08:24:03.721323",
      "2022-10-14T08:24:09.799956",
      "2022-10-14T08:24:16.194981",
      "2022-10-14T08:24:22.535537",
      "2022-10-14T08:24:28.800887",
      "2022-10-14T08:24:34.952922",
      "2022-10-14T08:24:41.282864",
      "2022-10-14T08:24:47.317726",
      "2022-10-14T08:24:53.563893",
      "2022-10-14T08:24:59.886557",
      "2022-10-14T08:25:06.296110",
      "2022-10-14T08:25:12.395510",
      "2022-10-14T08:25:18.899165",
      "2022-10-14T08:25:24.791006",
      "2022-10-14T08:25:31.024950",
      "2022-10-14T08:25:37.484430",
      "2022-10-14T08:25:43.762175",
      "2022-10-14T08:25:49.767070",
      "2022-10-14T08:25:55.708966",
      "2022-10-14T08:26:01.914279",
      "2022-10-14T08:26:07.943641",
      "2022-10-14T08:26:14.321768",
      "2022-10-14T08:26:20.674344",
      "2022-10-14T08:26:26.958178",
      "2022-10-14T08:26:33.084497",
      "2022-10-14T08:26:39.176492",
      "2022-10-14T08:26:45.450735",
      "2022-10-14T08:26:51.664764",
      "2022-10-14T08:26:57.536628",
      "2022-10-14T08:27:03.258277",
      "2022-10-14T08:27:08.977228",
      "2022-10-14T08:27:14.698596",
      "2022-10-14T08:27:20.417734",
      "2022-10-14T08:27:26.165834",
      "2022-10-14T08:27:31.888897",
      "2022-10-14T08:27:38.084311",
      "2022-10-14T08:27:44.247784",
      "2022-10-14T08:27:50.412255",
      "2022-10-14T08:27:56.420204",
      "2022-10-14T08:28:02.224489",
      "2022-10-14T08:28:08.005067",
      "2022-10-14T08:28:13.777694",
      "2022-10-14T08:28:19.544739",
      "2022-10-14T08:28:25.428688",
      "2022-10-14T08:28:31.454694",
      "2022-10-14T08:28:37.637273",
      "2022-10-14T08:28:43.690341",
      "2022-10-14T08:28:49.450200",
      "2022-10-14T08:28:55.877368",
      "2022-10-14T08:29:01.895672",
      "2022-10-14T08:29:08.183885",
      "2022-10-14T08:29:14.229644",
      "2022-10-14T08:29:20.283485",
      "2022-10-14T08:29:26.252102",
      "2022-10-14T08:29:32.388485",
      "2022-10-14T08:29:38.547439",
      "2022-10-14T08:29:44.519950",
      "2022-10-14T08:29:50.542196",
      "2022-10-14T08:29:56.606867",
      "2022-10-14T08:30:02.695841",
      "2022-10-14T08:30:08.756702",
      "2022-10-14T08:30:14.591314",
      "2022-10-14T08:30:20.635495",
      "2022-10-14T08:30:26.676861",
      "2022-10-14T08:30:32.573715",
      "2022-10-14T08:30:38.595088",
      "2022-10-14T08:30:44.682711",
      "2022-10-14T08:30:50.648943",
      "2022-10-14T08:30:56.854757",
      "2022-10-14T08:31:03.274464",
      "2022-10-14T08:31:09.341713",
      "2022-10-14T08:31:15.386242",
      "2022-10-14T08:31:21.386129",
      "2022-10-14T08:31:27.349290",
      "2022-10-14T08:31:33.768790",
      "2022-10-14T08:31:40.092110",
      "2022-10-14T08:31:45.856542",
      "2022-10-14T08:31:51.623241",
      "2022-10-14T08:31:58.019025",
      "2022-10-14T08:32:03.993765",
      "2022-10-14T08:32:09.949593",
      "2022-10-14T08:32:16.249649",
      "2022-10-14T08:32:22.243853",
      "2022-10-14T08:32:28.653545",
      "2022-10-14T08:32:36.291515",
      "2022-10-14T08:32:43.049938",
      "2022-10-14T08:32:49.161278",
      "2022-10-14T08:32:55.128631",
      "2022-10-14T08:33:00.931107",
      "2022-10-14T08:33:07.099584",
      "2022-10-14T08:33:13.371054",
      "2022-10-14T08:33:19.747554",
      "2022-10-14T08:33:26.182264",
      "2022-10-14T08:33:32.547810",
      "2022-10-14T08:33:38.746058",
      "2022-10-14T08:33:45.901380",
      "2022-10-14T08:33:51.990615",
      "2022-10-14T08:33:57.964679",
      "2022-10-14T08:34:03.904361",
      "2022-10-14T08:34:10.124983",
      "2022-10-14T08:34:15.987134",
      "2022-10-14T08:34:22.057538",
      "2022-10-14T08:34:28.769325",
      "2022-10-14T08:34:36.735488",
      "2022-10-14T08:34:42.700868",
      "2022-10-14T08:34:48.502135",
      "2022-10-14T08:34:54.263371",
      "2022-10-14T08:34:59.984281",
      "2022-10-14T08:35:05.709656",
      "2022-10-14T08:35:11.431097",
      "2022-10-14T08:35:17.156817",
      "2022-10-14T08:35:22.880373",
      "2022-10-14T08:35:28.607039",
      "2022-10-14T08:35:34.356909",
      "2022-10-14T08:35:40.077262",
      "2022-10-14T08:35:45.796917",
      "2022-10-14T08:35:51.513792",
      "2022-10-14T08:35:57.231949",
      "2022-10-14T08:36:02.951546",
      "2022-10-14T08:36:08.673790",
      "2022-10-14T08:36:14.405013",
      "2022-10-14T08:36:20.140812",
      "2022-10-14T08:36:25.870769",
      "2022-10-14T08:36:31.620716",
      "2022-10-14T08:36:37.342160",
      "2022-10-14T08:36:43.062490",
      "2022-10-14T08:36:48.786425",
      "2022-10-14T08:36:54.507214",
      "2022-10-14T08:37:00.226752",
      "2022-10-14T08:37:05.954944",
      "2022-10-14T08:37:11.677780",
      "2022-10-14T08:37:17.836741",
      "2022-10-14T08:37:23.625061",
      "2022-10-14T08:37:29.380415",
      "2022-10-14T08:37:35.446122",
      "2022-10-14T08:37:41.423440",
      "2022-10-14T08:37:47.584673",
      "2022-10-14T08:37:53.464679",
      "2022-10-14T08:37:59.241718",
      "2022-10-14T08:38:05.164510",
      "2022-10-14T08:38:11.224123",
      "2022-10-14T08:38:17.015658",
      "2022-10-14T08:38:22.756160",
      "2022-10-14T08:38:28.654147",
      "2022-10-14T08:38:34.419740",
      "2022-10-14T08:38:40.144320",
      "2022-10-14T08:38:46.040511",
      "2022-10-14T08:38:52.097948",
      "2022-10-14T08:38:58.261804",
      "2022-10-14T08:39:04.388072",
      "2022-10-14T08:39:10.368991",
      "2022-10-14T08:39:16.372420",
      "2022-10-14T08:39:22.647367",
      "2022-10-14T08:39:28.635472",
      "2022-10-14T08:39:34.580779",
      "2022-10-14T08:39:40.702645",
      "2022-10-14T08:39:46.762302",
      "2022-10-14T08:39:52.681768",
      "2022-10-14T08:39:58.805799",
      "2022-10-14T08:40:05.035466",
      "2022-10-14T08:40:11.431837",
      "2022-10-14T08:40:17.978963",
      "2022-10-14T08:40:24.232586",
      "2022-10-14T08:40:30.542034",
      "2022-10-14T08:40:36.789678",
      "2022-10-14T08:40:43.155426",
      "2022-10-14T08:40:49.615492",
      "2022-10-14T08:40:56.033344",
      "2022-10-14T08:41:02.140222",
      "2022-10-14T08:41:08.275654",
      "2022-10-14T08:41:14.396910",
      "2022-10-14T08:41:20.718412",
      "2022-10-14T08:41:26.775808",
      "2022-10-14T08:41:32.865035",
      "2022-10-14T08:41:38.988381",
      "2022-10-14T08:41:45.007870",
      "2022-10-14T08:41:51.122513",
      "2022-10-14T08:41:57.267653",
      "2022-10-14T08:42:03.390863",
      "2022-10-14T08:42:09.814831",
      "2022-10-14T08:42:15.963754",
      "2022-10-14T08:42:22.067156",
      "2022-10-14T08:42:28.783977",
      "2022-10-14T08:42:35.580874",
      "2022-10-14T08:42:42.187030",
      "2022-10-14T08:42:48.296794",
      "2022-10-14T08:42:54.407667",
      "2022-10-14T08:43:00.498986",
      "2022-10-14T08:43:06.633732",
      "2022-10-14T08:43:12.802562",
      "2022-10-14T08:43:19.000416",
      "2022-10-14T08:43:25.033832",
      "2022-10-14T08:43:31.124622",
      "2022-10-14T08:43:37.529852",
      "2022-10-14T08:43:44.230441",
      "2022-10-14T08:43:50.727863",
      "2022-10-14T08:43:56.744208",
      "2022-10-14T08:44:03.138589",
      "2022-10-14T08:44:09.447971",
      "2022-10-14T08:44:15.796278",
      "2022-10-14T08:44:22.175041",
      "2022-10-14T08:44:28.419659",
      "2022-10-14T08:44:34.820036",
      "2022-10-14T08:44:41.194386",
      "2022-10-14T08:44:47.417407",
      "2022-10-14T08:44:53.608544",
      "2022-10-14T08:44:59.727787",
      "2022-10-14T08:45:06.210009",
      "2022-10-14T08:45:12.559947",
      "2022-10-14T08:45:18.598885",
      "2022-10-14T08:45:24.886830",
      "2022-10-14T08:45:31.137715",
      "2022-10-14T08:45:37.556681",
      "2022-10-14T08:45:43.511389",
      "2022-10-14T08:45:49.406987",
      "2022-10-14T08:45:55.293863",
      "2022-10-14T08:46:01.463470",
      "2022-10-14T08:46:07.769707",
      "2022-10-14T08:46:14.099926",
      "2022-10-14T08:46:20.458695",
      "2022-10-14T08:46:26.858305",
      "2022-10-14T08:46:32.946886",
      "2022-10-14T08:46:39.299587",
      "2022-10-14T08:46:46.061588",
      "2022-10-14T08:46:52.635122",
      "2022-10-14T08:46:58.716192",
      "2022-10-14T08:47:05.516473",
      "2022-10-14T08:47:11.405577",
      "2022-10-14T08:47:17.333443",
      "2022-10-14T08:47:23.308697",
      "2022-10-14T08:47:29.183779",
      "2022-10-14T08:47:35.089137",
      "2022-10-14T08:47:41.158045",
      "2022-10-14T08:47:47.210396",
      "2022-10-14T08:47:53.327840",
      "2022-10-14T08:47:59.499545",
      "2022-10-14T08:48:05.562411",
      "2022-10-14T08:48:11.652959",
      "2022-10-14T08:48:17.764730",
      "2022-10-14T08:48:23.930371",
      "2022-10-14T08:48:30.065372",
      "2022-10-14T08:48:36.301404",
      "2022-10-14T08:48:42.650479",
      "2022-10-14T08:48:49.060685",
      "2022-10-14T08:48:55.332534",
      "2022-10-14T08:49:01.438833",
      "2022-10-14T08:49:07.558514",
      "2022-10-14T08:49:13.622246",
      "2022-10-14T08:49:19.754392",
      "2022-10-14T08:49:25.691127",
      "2022-10-14T08:49:31.768758",
      "2022-10-14T08:49:37.904888",
      "2022-10-14T08:49:43.957915",
      "2022-10-14T08:49:50.167303",
      "2022-10-14T08:49:56.294220",
      "2022-10-14T08:50:02.334233",
      "2022-10-14T08:50:08.393209",
      "2022-10-14T08:50:14.553256",
      "2022-10-14T08:50:20.706593",
      "2022-10-14T08:50:26.800543",
      "2022-10-14T08:50:32.855076",
      "2022-10-14T08:50:38.959583",
      "2022-10-14T08:50:45.050444",
      "2022-10-14T08:50:51.332863",
      "2022-10-14T08:50:57.939290",
      "2022-10-14T08:51:04.317347",
      "2022-10-14T08:51:10.361622",
      "2022-10-14T08:51:16.446876",
      "2022-10-14T08:51:22.735374",
      "2022-10-14T08:51:28.985530",
      "2022-10-14T08:51:35.280084",
      "2022-10-14T08:51:41.322496",
      "2022-10-14T08:51:47.509960",
      "2022-10-14T08:51:53.527772",
      "2022-10-14T08:51:59.659425",
      "2022-10-14T08:52:05.529400",
      "2022-10-14T08:52:12.219730",
      "2022-10-14T08:52:18.449558",
      "2022-10-14T08:52:24.691270",
      "2022-10-14T08:52:30.882143",
      "2022-10-14T08:52:37.274249",
      "2022-10-14T08:52:43.654506",
      "2022-10-14T08:52:49.922391",
      "2022-10-14T08:52:56.139461",
      "2022-10-14T08:53:02.274400",
      "2022-10-14T08:53:08.396561",
      "2022-10-14T08:53:14.477630",
      "2022-10-14T08:53:20.557025",
      "2022-10-14T08:53:26.682340",
      "2022-10-14T08:53:32.789090",
      "2022-10-14T08:53:38.968066",
      "2022-10-14T08:53:45.073907",
      "2022-10-14T08:53:51.296394",
      "2022-10-14T08:53:57.409034",
      "2022-10-14T08:54:03.543373",
      "2022-10-14T08:54:09.736585",
      "2022-10-14T08:54:15.787563",
      "2022-10-14T08:54:21.996896",
      "2022-10-14T08:54:28.117958",
      "2022-10-14T08:54:34.179422",
      "2022-10-14T08:54:40.230431",
      "2022-10-14T08:54:46.452804",
      "2022-10-14T08:54:52.578076",
      "2022-10-14T08:54:58.708184",
      "2022-10-14T08:55:04.931569",
      "2022-10-14T08:55:11.026754",
      "2022-10-14T08:55:17.156200",
      "2022-10-14T08:55:23.284932",
      "2022-10-14T08:55:29.400279",
      "2022-10-14T08:55:35.469362",
      "2022-10-14T08:55:41.601156",
      "2022-10-14T08:55:47.850410",
      "2022-10-14T08:55:54.021597",
      "2022-10-14T08:56:00.205758",
      "2022-10-14T08:56:06.362854",
      "2022-10-14T08:56:12.438953",
      "2022-10-14T08:56:18.505911",
      "2022-10-14T08:56:24.575883",
      "2022-10-14T08:56:30.674484",
      "2022-10-14T08:56:36.833837",
      "2022-10-14T08:56:42.994148",
      "2022-10-14T08:56:49.059019",
      "2022-10-14T08:56:55.183218",
      "2022-10-14T08:57:01.344101",
      "2022-10-14T08:57:07.449380",
      "2022-10-14T08:57:13.543060",
      "2022-10-14T08:57:19.677727",
      "2022-10-14T08:57:25.803546",
      "2022-10-14T08:57:31.824246",
      "2022-10-14T08:57:37.871789",
      "2022-10-14T08:57:44.106498",
      "2022-10-14T08:57:50.227353",
      "2022-10-14T08:57:56.402260",
      "2022-10-14T08:58:02.562104",
      "2022-10-14T08:58:08.711515",
      "2022-10-14T08:58:14.811491",
      "2022-10-14T08:58:21.006128",
      "2022-10-14T08:58:27.103253",
      "2022-10-14T08:58:33.300883",
      "2022-10-14T08:58:39.444030",
      "2022-10-14T08:58:45.572690",
      "2022-10-14T08:58:51.676150",
      "2022-10-14T08:58:57.869078",
      "2022-10-14T08:59:04.051855",
      "2022-10-14T08:59:10.223478",
      "2022-10-14T08:59:16.365557",
      "2022-10-14T08:59:22.549177",
      "2022-10-14T08:59:28.779384",
      "2022-10-14T08:59:34.929728",
      "2022-10-14T08:59:41.197679",
      "2022-10-14T08:59:47.667929",
      "2022-10-14T08:59:53.987840",
      "2022-10-14T09:00:00.089220",
      "2022-10-14T09:00:06.169165",
      "2022-10-14T09:00:12.587308",
      "2022-10-14T09:00:18.471352",
      "2022-10-14T09:00:24.330008",
      "2022-10-14T09:00:30.193310",
      "2022-10-14T09:00:36.446312",
      "2022-10-14T09:00:42.560544",
      "2022-10-14T09:00:48.810914",
      "2022-10-14T09:00:54.821539",
      "2022-10-14T09:01:00.885164",
      "2022-10-14T09:01:06.962032",
      "2022-10-14T09:01:13.221128",
      "2022-10-14T09:01:19.845878",
      "2022-10-14T09:01:26.739506",
      "2022-10-14T09:01:34.606938",
      "2022-10-14T09:01:40.873054",
      "2022-10-14T09:01:47.002509",
      "2022-10-14T09:01:52.887251",
      "2022-10-14T09:01:59.325087",
      "2022-10-14T09:02:05.595471",
      "2022-10-14T09:02:11.590440",
      "2022-10-14T09:02:17.472463",
      "2022-10-14T09:02:23.358636",
      "2022-10-14T09:02:29.713608",
      "2022-10-14T09:02:35.749273",
      "2022-10-14T09:02:41.695921",
      "2022-10-14T09:02:47.639343",
      "2022-10-14T09:02:53.690012",
      "2022-10-14T09:02:59.618427",
      "2022-10-14T09:03:05.623415",
      "2022-10-14T09:03:11.842375",
      "2022-10-14T09:03:17.954861",
      "2022-10-14T09:03:23.959951",
      "2022-10-14T09:03:29.824560",
      "2022-10-14T09:03:35.712455",
      "2022-10-14T09:03:41.704912",
      "2022-10-14T09:03:47.834719",
      "2022-10-14T09:03:53.725793",
      "2022-10-14T09:03:59.668417",
      "2022-10-14T09:04:05.905906",
      "2022-10-14T09:04:11.843310",
      "2022-10-14T09:04:17.813821",
      "2022-10-14T09:04:23.717227",
      "2022-10-14T09:04:29.814611",
      "2022-10-14T09:04:35.795024",
      "2022-10-14T09:04:41.922346",
      "2022-10-14T09:04:47.838842",
      "2022-10-14T09:04:53.681872",
      "2022-10-14T09:04:59.540512",
      "2022-10-14T09:05:05.570193",
      "2022-10-14T09:05:11.459000",
      "2022-10-14T09:05:17.370112",
      "2022-10-14T09:05:23.398314",
      "2022-10-14T09:05:29.294335",
      "2022-10-14T09:05:35.205101",
      "2022-10-14T09:05:41.120548",
      "2022-10-14T09:05:47.045132",
      "2022-10-14T09:05:52.927081",
      "2022-10-14T09:05:58.859447",
      "2022-10-14T09:06:04.829895",
      "2022-10-14T09:06:11.151007",
      "2022-10-14T09:06:17.559456",
      "2022-10-14T09:06:24.217319",
      "2022-10-14T09:06:30.815587",
      "2022-10-14T09:06:36.837581",
      "2022-10-14T09:06:42.934133",
      "2022-10-14T09:06:49.039985",
      "2022-10-14T09:06:55.041011",
      "2022-10-14T09:07:01.206136",
      "2022-10-14T09:07:07.318372",
      "2022-10-14T09:07:13.440608",
      "2022-10-14T09:07:19.633130",
      "2022-10-14T09:07:25.767924",
      "2022-10-14T09:07:32.019103",
      "2022-10-14T09:07:38.091066",
      "2022-10-14T09:07:44.187388",
      "2022-10-14T09:07:50.202838",
      "2022-10-14T09:07:56.290000",
      "2022-10-14T09:08:02.235428",
      "2022-10-14T09:08:08.235673",
      "2022-10-14T09:08:14.506834",
      "2022-10-14T09:08:21.177931",
      "2022-10-14T09:08:27.250703",
      "2022-10-14T09:08:33.444859",
      "2022-10-14T09:08:39.512653",
      "2022-10-14T09:08:45.589682",
      "2022-10-14T09:08:51.521418",
      "2022-10-14T09:08:57.591913",
      "2022-10-14T09:09:04.085471",
      "2022-10-14T09:09:10.132763",
      "2022-10-14T09:09:16.488700",
      "2022-10-14T09:09:22.530586",
      "2022-10-14T09:09:28.746303",
      "2022-10-14T09:09:34.999580",
      "2022-10-14T09:09:41.514360",
      "2022-10-14T09:09:47.840563",
      "2022-10-14T09:09:53.864759",
      "2022-10-14T09:09:59.810783",
      "2022-10-14T09:10:05.870598",
      "2022-10-14T09:10:11.824913",
      "2022-10-14T09:10:17.824535",
      "2022-10-14T09:10:23.798896",
      "2022-10-14T09:10:29.803150",
      "2022-10-14T09:10:35.892767",
      "2022-10-14T09:10:42.164855",
      "2022-10-14T09:10:48.376466",
      "2022-10-14T09:10:54.498488",
      "2022-10-14T09:11:00.712212",
      "2022-10-14T09:11:06.877700",
      "2022-10-14T09:11:13.066560",
      "2022-10-14T09:11:19.183765",
      "2022-10-14T09:11:25.100570",
      "2022-10-14T09:11:31.275681",
      "2022-10-14T09:11:37.292767",
      "2022-10-14T09:11:43.224736",
      "2022-10-14T09:11:49.425355",
      "2022-10-14T09:11:55.472597",
      "2022-10-14T09:12:01.339597",
      "2022-10-14T09:12:07.185762",
      "2022-10-14T09:12:13.081112",
      "2022-10-14T09:12:19.000020",
      "2022-10-14T09:12:24.877830",
      "2022-10-14T09:12:30.731011",
      "2022-10-14T09:12:36.649512",
      "2022-10-14T09:12:42.504010",
      "2022-10-14T09:12:48.486052",
      "2022-10-14T09:12:54.366810",
      "2022-10-14T09:13:00.254805",
      "2022-10-14T09:13:06.128045",
      "2022-10-14T09:13:12.031858",
      "2022-10-14T09:13:17.977733",
      "2022-10-14T09:13:23.890276",
      "2022-10-14T09:13:29.814039",
      "2022-10-14T09:13:35.672333",
      "2022-10-14T09:13:41.752217",
      "2022-10-14T09:13:47.840375",
      "2022-10-14T09:13:53.901435",
      "2022-10-14T09:13:59.958297",
      "2022-10-14T09:14:05.873304",
      "2022-10-14T09:14:11.730564",
      "2022-10-14T09:14:17.627342",
      "2022-10-14T09:14:23.584296",
      "2022-10-14T09:14:29.508244",
      "2022-10-14T09:14:35.375075",
      "2022-10-14T09:14:41.256170",
      "2022-10-14T09:14:47.170435",
      "2022-10-14T09:14:53.195668",
      "2022-10-14T09:14:59.374387",
      "2022-10-14T09:15:05.470146",
      "2022-10-14T09:15:11.349936",
      "2022-10-14T09:15:17.280193",
      "2022-10-14T09:15:23.146160",
      "2022-10-14T09:15:29.019854",
      "2022-10-14T09:15:34.983259",
      "2022-10-14T09:15:41.114361",
      "2022-10-14T09:15:46.983785",
      "2022-10-14T09:15:52.855682",
      "2022-10-14T09:15:59.022036",
      "2022-10-14T09:16:05.016403",
      "2022-10-14T09:16:11.175560",
      "2022-10-14T09:16:17.138623",
      "2022-10-14T09:16:23.018621",
      "2022-10-14T09:16:28.932129",
      "2022-10-14T09:16:34.792843",
      "2022-10-14T09:16:40.669463",
      "2022-10-14T09:16:46.610246",
      "2022-10-14T09:16:52.481497",
      "2022-10-14T09:16:58.332873",
      "2022-10-14T09:17:04.260157",
      "2022-10-14T09:17:10.297661",
      "2022-10-14T09:17:16.390356",
      "2022-10-14T09:17:22.469400",
      "2022-10-14T09:17:28.485270",
      "2022-10-14T09:17:34.401585",
      "2022-10-14T09:17:40.408389",
      "2022-10-14T09:17:46.347584",
      "2022-10-14T09:17:52.367608",
      "2022-10-14T09:17:58.304394",
      "2022-10-14T09:18:04.278466",
      "2022-10-14T09:18:10.145394",
      "2022-10-14T09:18:16.039382",
      "2022-10-14T09:18:21.908102",
      "2022-10-14T09:18:27.802909",
      "2022-10-14T09:18:33.652317",
      "2022-10-14T09:18:39.502710",
      "2022-10-14T09:18:45.378797",
      "2022-10-14T09:18:51.233181",
      "2022-10-14T09:18:57.100880",
      "2022-10-14T09:19:02.984789",
      "2022-10-14T09:19:08.845986",
      "2022-10-14T09:19:14.722993",
      "2022-10-14T09:19:20.608067",
      "2022-10-14T09:19:26.463271",
      "2022-10-14T09:19:32.341675",
      "2022-10-14T09:19:38.233387",
      "2022-10-14T09:19:44.097810",
      "2022-10-14T09:19:50.043676",
      "2022-10-14T09:19:55.932114",
      "2022-10-14T09:20:01.808193",
      "2022-10-14T09:20:07.678257"
    ],
    "values": [
      931.0026386544102,
      296.63300807792655,
      192.4767818593737,
      147.01418410252916,
      115.00675152687555,
      91.7976273813734,
      79.12822892490868,
      71.3282501196114,
      66.80038188306199,
      63.26089067782505,
      60.759065826264205,
      59.823298591585356,
      59.45805794648788,
      58.897854415983964,
      57.64564699835334,
      56.751902112413866,
      57.36224369983756,
      55.796284823330005,
      55.28316379818697,
      53.84997254173377,
      55.65667790027348,
      52.98173077432847,
      52.653280749349754,
      52.82495884791381,
      49.73204069493565,
      50.22271438577941,
      51.168017456466366,
      52.31718784780969,
      51.244627973590866,
      51.79454956305513,
      50.12297114287889,
      49.47047577692713,
      49.06122197354892,
      50.80574463798185,
      48.73401148863178,
      47.82460289484156,
      48.6066565016815,
      47.98749474715413,
      47.85472016621307,
      47.982451259672,
      49.610592385983615,
      47.06778210575501,
      47.16740244424559,
      50.63325776631845,
      46.10639710400672,
      45.70899785788219,
      46.89340827735742,
      46.96182565168622,
      45.401209096439345,
      45.122547295440924,
      45.47837651606175,
      44.61737822751413,
      45.02797917163304,
      44.53144030413659,
      44.778396584628126,
      44.38540636064611,
      44.111958058806096,
      44.73341693871661,
      44.194097213743504,
      43.86019728089036,
      43.669387416538704,
      43.63314268953406,
      43.15558842089478,
      43.361789366279524,
      43.08901568059549,
      43.526562237562075,
      42.80444518507488,
      42.70178778224573,
      42.94518700831846,
      43.00279489851023,
      43.033963672671014,
      42.964451057140614,
      42.47537158623424,
      41.8816950188606,
      42.34619355736125,
      42.0127591134045,
      41.67271717144985,
      41.63364249160945,
      41.6861951198298,
      41.80015560142099,
      42.00791007827119,
      41.63802266903407,
      41.36250379005369,
      41.04953695851321,
      41.85996422357839,
      41.19428087419037,
      41.03982912882419,
      40.64500052550489,
      41.16121655248922,
      41.12949899417421,
      40.757089894206906,
      40.85248461573265,
      40.6189409213192,
      40.305752638548476,
      40.31534025529301,
      40.51841963008714,
      40.300986604885445,
      40.000698088830404,
      39.878394858571546,
      40.23986328756662,
      39.9147550774592,
      39.96285481513897,
      39.70229065296323,
      39.892842914802365,
      39.80179209587311,
      39.96812634285236,
      39.55846679191983,
      39.75732129774283,
      39.404194795405225,
      39.83853060933176,
      40.065108270084586,
      39.68186253749514,
      39.653233609150114,
      39.39766500205247,
      39.68631512800117,
      39.47389980250229,
      39.53078355646071,
      39.26718310766913,
      39.460405994875025,
      39.35514604569535,
      39.83643121468141,
      39.45777753669414,
      39.32460613678151,
      39.193040639274,
      39.31263376352307,
      39.31620829271509,
      39.28100554538334,
      39.29223694795533,
      39.24394804037928,
      39.353176349466864,
      39.27510882899046,
      39.135333112659715,
      39.25955512535283,
      39.10580038569094,
      39.184874187973094,
      39.17653360651865,
      39.124960723566524,
      39.28186683981424,
      38.99540916090288,
      39.037243693726644,
      39.10005841948662,
      39.085408837110016,
      39.17683200242223,
      39.002059107573004,
      39.27847968532364,
      39.0663186415612,
      39.09894151563446,
      38.92915204925153,
      39.410796249599606,
      39.05570270194545,
      39.080626460826615,
      39.14549685212164,
      39.31795950504562,
      39.17171331563357,
      38.970415019652314,
      39.039986425567584,
      39.053559670886116,
      39.20090096315541,
      38.87328269242662,
      39.15102931613264,
      38.86194646184684,
      38.842561026242905,
      38.83410189534611,
      39.27092973768243,
      39.037281563213874,
      38.93633635205647,
      39.10690096511619,
      38.95259495736484,
      39.0151121663661,
      39.09834961691669,
      38.91217016590333,
      39.09636709483604,
      38.69381055611821,
      39.01545772726814,
      39.188912425928166,
      38.841704311118626,
      39.05688990068354,
      38.84017902129595,
      38.795931816667604,
      38.810719737514745,
      38.8119819613489,
      38.802407411490016,
      38.68813232632511,
      38.81684911972067,
      38.864587466924434,
      38.9899871329885,
      38.93081021414199,
      39.087607964410424,
      38.64220846249864,
      38.93331276577432,
      38.89710496663026,
      38.70907540857504,
      38.67001886697562,
      38.67221250251392,
      39.00290968664622,
      38.77040371587036,
      38.74343405740953,
      38.71416667150871,
      38.74685004239694,
      38.95793794918179,
      38.70261625471901,
      38.82504174478092,
      38.754246077257115,
      38.5749505894526,
      38.81851205025195,
      38.98089310962332,
      39.29756954557842,
      38.76585751815312,
      38.67975914427279,
      38.721097807303316,
      38.94776021788713,
      38.85153738140507,
      38.592321272668265,
      38.48351366726374,
      38.77981825945503,
      38.7747742699431,
      38.577790683660645,
      38.592435011980385,
      38.8896466202122,
      38.469806452531245,
      38.782294118396315,
      38.697562251355066,
      38.94357985395061,
      38.57071668299226,
      38.65182224411277,
      38.765593903986876,
      38.63674818894124,
      38.61528665538183,
      38.52748235571507,
      38.479073349990536,
      38.426242363775735,
      38.55470064745146,
      38.609025545674754,
      38.42973237701872,
      38.508938693050325,
      38.695944125881326,
      38.80017375275356,
      38.71615932952231,
      38.66724869718736,
      38.720393984063236,
      38.6869937110952,
      38.8675215195416,
      38.489214488792896,
      38.573354381242176,
      38.60902673429778,
      38.49634859614645,
      38.2971714614668,
      38.50148933320287,
      38.603055201841556,
      38.578795280338,
      38.52880098256503,
      38.52098647384093,
      38.588060926237056,
      38.49102517241116,
      38.55282047185588,
      38.60689749176097,
      38.5783632115208,
      38.631894652341074,
      38.63551411967519,
      38.730764463366604,
      38.575180727543696,
      38.70662253116349,
      38.50417643950082,
      38.28397638989415,
      38.57684150716216,
      38.39349485394186,
      38.409286500891085,
      38.61125779779768,
      38.4983197327386,
      38.36417618840172,
      38.59671475512134,
      38.416933988636536,
      38.570408891503796,
      38.736441100151495,
      38.48643781993723,
      38.42900205236311,
      38.43814431432729,
      38.57071438461522,
      38.40723841626929,
      38.51849155437734,
      38.48700158509777,
      38.72894400720209,
      38.6088130375945,
      38.458641909535075,
      38.561437268974316,
      38.619342750575946,
      38.530318317056405,
      38.36838867684076,
      38.38547846720796,
      38.48418515699899,
      38.41242298155864,
      38.468675553127945,
      38.84252391782658,
      38.41076973628509,
      38.42639781749274,
      38.48866600093956,
      38.35692535976994,
      38.307132081174274,
      38.59468554033131,
      38.481661932185354,
      38.3424462630788,
      38.22087701528512,
      38.40151478799496,
      38.418433099199845,
      38.41171515723269,
      38.31528573746357,
      38.540055044541965,
      38.41232237868962,
      38.39718707352115,
      38.58729237139723,
      38.31848581927821,
      38.448305492895706,
      38.469880333796056,
      38.398920684560025,
      38.27950718960883,
      38.31678024589113,
      38.35786355618151,
      38.412407964860236,
      38.49151632510693,
      38.584271475269716,
      38.1923726200626,
      38.52760162318757,
      38.57297806586666,
      38.38822404947366,
      38.3290533627846,
      38.27506568836598,
      38.430536969925264,
      38.53096565433512,
      38.25091053615989,
      38.33713960184115,
      38.43504778614454,
      38.242645242399355,
      38.72356556931669,
      38.31357780190347,
      38.306134886108794,
      38.35742555640932,
      38.558940331881765,
      38.363967091643616,
      38.29416694545013,
      38.32255565509648,
      38.26184903649482,
      38.397872920588426,
      38.33639080748379,
      38.436625549957014,
      38.29574955999911,
      38.26768746363039,
      38.373917694937596,
      38.434401762544105,
      38.38371161878416,
      38.31612576952761,
      38.194674956072156,
      38.43364669396708,
      38.284311169526205,
      38.205616047367776,
      38.21311654639437,
      38.2528861597568,
      38.36843681298409,
      38.41098765420728,
      38.50563052238808,
      38.443718801290714,
      38.18652515275044,
      38.84570167918449,
      38.18152343764303,
      38.27521072624361,
      38.391261015084076,
      38.299217086463266,
      37.82313246999556,
      37.83529269172479,
      37.845083944613066,
      37.82531489692376,
      37.84885936470798,
      37.87145601750306,
      37.82708876463288,
      37.83055399051223,
      37.85051343966725,
      37.81426905035017,
      37.8779163116877,
      37.828685270083255,
      37.8209023530148,
      37.83507385920177,
      37.83176626737513,
      37.84327274698261,
      37.81682397288909,
      37.87718928276294,
      37.83732072075719,
      37.85569706708848,
      37.85755117326381,
      37.84116294886765,
      37.84177243993673,
      37.827373447495944,
      37.78763559171514,
      37.781949969917086,
      37.76962145878469,
      37.77365939051867,
      37.77538393409013,
      37.77657671280879,
      37.780496775419536,
      37.77621207094305,
      37.766278502535535,
      37.78619858682097,
      37.79221010811862,
      37.772803764042635,
      37.762238530203746,
      37.77336664379948,
      37.77453502076017,
      37.77170912009459,
      37.77319136891051,
      37.78282147317819,
      37.77139740409667,
      37.772216154660555,
      37.77943179999407,
      37.77116696784309,
      37.76853535984553,
      37.771273660119014,
      37.772455187701645,
      37.77156424029739,
      37.79058056784872,
      37.77938461510185,
      37.76859043605408,
      37.76959305119694,
      37.77392218195624,
      37.76959849570159,
      37.77014784352168,
      37.770438517177446,
      37.78354500700402,
      37.772453360362164,
      37.77605079300777,
      37.78009463724325,
      37.772383004485455,
      37.76562261574357,
      37.76618110970684,
      37.754785517212525,
      37.76987535448985,
      37.76624644958431,
      37.76772441373032,
      37.76310859060083,
      37.770155117352935,
      37.76946000843598,
      37.76633569907981,
      37.76561072858912,
      37.77092230932946,
      37.756057083841874,
      37.76893947721935,
      37.757660840120444,
      37.77393104391449,
      37.762892986330456,
      37.76495222930161,
      37.76752048813036,
      37.765526765962726,
      37.776838606285054,
      37.76381331386792,
      37.75793911979817,
      37.76335447040391,
      37.76840879504873,
      37.76689449936632,
      37.77280041025359,
      37.76741622534248,
      37.76925241903774,
      37.75859624859549,
      37.761187265973284,
      37.75415674355727,
      37.76232837625717,
      37.759930645514224,
      37.76456683430096,
      37.78246672961218,
      37.76177885696812,
      37.76305999484085,
      37.76937546453235,
      37.765606133837274,
      37.75893199367113,
      37.772495482079385,
      37.767038471593175,
      37.76250925352129,
      37.77456619313618,
      37.770009191936445,
      37.76436893479462,
      37.77930361974861,
      37.77335963837323,
      37.76714640976069,
      37.76618623488951,
      37.75714214739385,
      37.76395125038875,
      37.766200215292386,
      37.760462681659746,
      37.76522681113818,
      37.76672165133911,
      37.76925216039504,
      37.76638240743288,
      37.773729571414016,
      37.76189043947288,
      37.76815730204431,
      37.76773510980621,
      37.77416903225173,
      37.77259455828376,
      37.76864212858547,
      37.7630135537607,
      37.77286896908738,
      37.76377416485287,
      37.765690118818746,
      37.77092061472374,
      37.76680401011905,
      37.7667096527913,
      37.774666384158536,
      37.76223813976046,
      37.75916053458808,
      37.76630688037917,
      37.756912457004205,
      37.761516862847266,
      37.76912473944783,
      37.768366389506056,
      37.7712242693183,
      37.76087958360456,
      37.76973081393162,
      37.77163558735564,
      37.77062544592808,
      37.767800547584386,
      37.76559570322641,
      37.77063559857213,
      37.7618528158782,
      37.768871217493405,
      37.76510649435042,
      37.767253607162296,
      37.766734494916065,
      37.7656859520763,
      37.766170084546054,
      37.767626680521765,
      37.77424660736344,
      37.76689329377423,
      37.7644897385888,
      37.784448472469286,
      37.7625189486624,
      37.76876041714593,
      37.76618143270281,
      37.76698979244233,
      37.76348331661944,
      37.76102864618924,
      37.76395502010735,
      37.76460418946267,
      37.76798042222018,
      37.77056472147375,
      37.76719837337241,
      37.77210080396405,
      37.76831305624995,
      37.75839718781194,
      37.774480174636125,
      37.766265684378766,
      37.77359945391102,
      37.77477577950757,
      37.7698894880198,
      37.76825236935489,
      37.776085416881166,
      37.768441338490476,
      37.76511943043581,
      37.77141844917002,
      37.76958820460885,
      37.77146132137767,
      37.77264375321164,
      37.76968428932778,
      37.76007604857848,
      37.76493208518784,
      37.75869520939434,
      37.76468915429983,
      37.76155162449711,
      37.772480012119125,
      37.78129415776621,
      37.77215093819152,
      37.772367201625734,
      37.76540289859445,
      37.76745353514227,
      37.758660269084245,
      37.760994291489595,
      37.76365151929267,
      37.77164782199743,
      37.77137146160496,
      37.7629217594756,
      37.76711013566284,
      37.769391611295575,
      37.77739936597854,
      37.769956456382374,
      37.765270885723254,
      37.7720174333475,
      37.76477222919064,
      37.76326989656716,
      37.77153200454382,
      37.7752241011033,
      37.756830541678966,
      37.76174323824136,
      37.76258960677525,
      37.766239089423834,
      37.76480915106599,
      37.766328948180764,
      37.75682987424971,
      37.75901430620094,
      37.77188273465066,
      37.774121997816906,
      37.768600681490156,
      37.762087490375805,
      37.76147868197037,
      37.76617168977013,
      37.76512126843728
    ]
  }
}