INFO - residual_nf - Running command 'run'
INFO - residual_nf - Started run with ID "8"
[1]: test 3.4622740285627813, train 4.010309363004338
[2]: test 3.6226236034947994, train 3.47785954515893
[3]: test 3.0675721296022247, train 3.1611437618315046
[4]: test 3.0978282018428316, train 2.998005861184929
[5]: test 2.6586745182298603, train 2.8171765751255915
[6]: test 2.56140995193054, train 2.636280348040564
[7]: test 2.4827307335149533, train 2.575881028160322
[8]: test 2.338680613727365, train 2.526514664534892
[9]: test 2.078771064480756, train 2.290803316410857
[10]: test 1.9953243951880861, train 2.0209321049780034
[11]: test 2.0025154691390723, train 1.9494138674708932
[12]: test 1.9295611915317126, train 1.9342235816095854
[13]: test 1.9448814470690854, train 1.9177955080196585
[14]: test 1.9434693119819197, train 1.8469605295787963
[15]: test 1.7117700212756983, train 1.8793906641949183
[16]: test 1.8481520786241032, train 1.8674396235238373
[17]: test 1.9964250531287, train 1.8492095793690861
[18]: test 1.9130702198966905, train 1.8440591589822715
[19]: test 1.9761804243248102, train 1.8480366577122493
[20]: test 1.9346984004209375, train 1.8229277214609458
[21]: test 1.9766795941637196, train 1.8494320283064456
[22]: test 1.8010857804726768, train 1.8621529995355732
[23]: test 1.8128783257672485, train 1.8406747455222412
[24]: test 1.7754392477179635, train 1.8414053762531142
[25]: test 1.9288388022531902, train 1.8216778563101697
[26]: test 1.680996201370364, train 1.8167529808168337
[27]: test 2.0811184874655995, train 1.810176666919166
[28]: test 1.9119188518431163, train 1.834534777641222
[29]: test 1.8341781151029504, train 1.8188569391046412
[30]: test 1.7444463024795596, train 1.8220077868854534
[31]: test 1.727729485242389, train 1.8123397410289892
[32]: test 1.718921702643223, train 1.8039976570691334
[33]: test 1.6306738064707018, train 1.8375137786063318
[34]: test 1.9151558470299552, train 1.818618897135037
[35]: test 1.8634805649892605, train 1.809526296228865
[36]: test 1.8708182362293109, train 1.8104862140758333
[37]: test 1.694017500023203, train 1.8082255059214092
[38]: test 1.695828862076484, train 1.7864557777823
[39]: test 1.7511927431229146, train 1.8112493308854891
[40]: test 1.813729160785996, train 1.8054948483681486
[41]: test 1.8552446161647205, train 1.8172386285061435
[42]: test 1.7991686714434252, train 1.7906323750423194
[43]: test 2.106135405348007, train 1.8116579522133296
[44]: test 1.8087410675006315, train 1.7831895694938635
[45]: test 1.689251135546931, train 1.7864694312901332
[46]: test 1.8398104874799261, train 1.8013729192883843
[47]: test 1.874223249308766, train 1.8045999033577218
[48]: test 1.9281483235157488, train 1.7882347622772599
[49]: test 1.674956734483182, train 1.8108947045875454
[50]: test 1.8474426020674324, train 1.8195270555590142
[51]: test 1.668898088822521, train 1.7931954338247298
[52]: test 1.7066031275051021, train 1.798895864225099
[53]: test 1.6418734460080637, train 1.8099482687363102
[54]: test 1.892773228812077, train 1.789197539310623
Epoch    55: reducing learning rate of group 0 to 1.0000e-03.
[55]: test 1.7021907431392964, train 1.8126157677573405
[56]: test 1.7261758008696213, train 1.740582613226142
[57]: test 1.7102461002333875, train 1.715697356015494
[58]: test 1.7343599136125962, train 1.7112519677915872
[59]: test 1.7401859560472637, train 1.7174173058549393
[60]: test 1.9633477208796872, train 1.6874887086923338
[61]: test 1.8310679093173785, train 1.7027354566510982
[62]: test 1.662258006333393, train 1.7016462422095555
[63]: test 1.6791021196986877, train 1.717314871332605
[64]: test 1.7129723001680228, train 1.714324201200944
[65]: test 1.7751518953577383, train 1.7145005626929342
[66]: test 1.6576956922858812, train 1.6729940246567019
[67]: test 1.796863136522237, train 1.6941006446216014
[68]: test 1.741405752257181, train 1.71501146134966
[69]: test 1.7027830034623026, train 1.7080882822146028
[70]: test 1.7169123320258823, train 1.7059703938277615
[71]: test 1.6924302095745858, train 1.6896257595767523
[72]: test 1.629396521116426, train 1.6892092601990911
[73]: test 1.599571524372275, train 1.6943212691948144
[74]: test 1.6502179266068715, train 1.696585452254084
[75]: test 1.743966125928002, train 1.7000157940282496
[76]: test 1.737265169894943, train 1.708569478787335
Epoch    77: reducing learning rate of group 0 to 1.0000e-04.
[77]: test 1.6049688160123272, train 1.7105630786566661
[78]: test 1.6042342356209685, train 1.7062299175888782
[79]: test 1.5991769205033581, train 1.7135237686389582
[80]: test 1.5701463945233736, train 1.6698087891135847
[81]: test 1.7749514338666006, train 1.7034711031817975
[82]: test 1.6727263213317274, train 1.7149450409811537
[83]: test 1.6304924326004981, train 1.687717370883079
[84]: test 1.7083591955546007, train 1.6935610668146384
[85]: test 1.7561940751370713, train 1.7013428263558408
[86]: test 1.826551604754794, train 1.682274346456362
[87]: test 1.7625783314178225, train 1.6912438003310186
[88]: test 1.660218386870825, train 1.6944503650166687
[89]: test 1.739816513886176, train 1.6871949640110189
[90]: test 1.6939475551183882, train 1.7202903750507554
Epoch    91: reducing learning rate of group 0 to 1.0000e-05.
[91]: test 1.5808689496723847, train 1.711524157545876
[92]: test 1.6896947241764095, train 1.69502950847429
[93]: test 1.6951132674288814, train 1.676351981524593
[94]: test 1.7984832193143026, train 1.6986999293460838
[95]: test 1.7475160902392046, train 1.6942311549914917
[96]: test 1.695248604260171, train 1.6927669007721797
[97]: test 1.7781756239222655, train 1.6958264552403584
[98]: test 1.7468490792588314, train 1.6920212636431393
[99]: test 1.7396036967563633, train 1.6953917995962045
[100]: test 1.656396197528175, train 1.6926711454225793
[101]: test 1.43053211822805, train 1.7032101777605502
Epoch   102: reducing learning rate of group 0 to 1.0000e-06.
[102]: test 1.9229267568964992, train 1.697758459655207
[103]: test 1.612853468098121, train 1.7060906107748406
[104]: test 1.6925858656558919, train 1.6937610270305334
[105]: test 1.6866061361885725, train 1.6872556377241381
[106]: test 1.7383751329163415, train 1.7013001077032397
[107]: test 1.7755499262341699, train 1.7000489559636534
[108]: test 1.74178155017873, train 1.6918800665106106
[109]: test 1.6695314141085382, train 1.690885880513061
[110]: test 1.7369849348313524, train 1.699903465907311
[111]: test 1.5729261955150557, train 1.6981695002625363
[112]: test 1.5907717534647015, train 1.6944943569466284
[113]: test 1.6948612019995615, train 1.6867676854776497
[114]: test 1.6110530005166142, train 1.6928742122166065
[115]: test 1.632810409663119, train 1.6908034713412803
[116]: test 1.5591632271553364, train 1.7040209302836815
[117]: test 1.6845160213916153, train 1.7177710882194066
[118]: test 1.5500374064539262, train 1.6881229949168866
[119]: test 1.7417068766341781, train 1.6948603983035486
[120]: test 1.636779405397328, train 1.69389372143004
[121]: test 1.6953872099416476, train 1.7303532225480507
[122]: test 1.824727641990066, train 1.6875644903838691
[123]: test 1.785103582838044, train 1.675595460366399
[124]: test 1.6751551220745453, train 1.6643377081159147
[125]: test 1.7482084907535425, train 1.6941478127525185
[126]: test 1.7704500545299926, train 1.7077838158699619
[127]: test 1.7110933588647153, train 1.6939117175356757
[128]: test 1.6890068269747256, train 1.6916423648203391
[129]: test 1.75736246715191, train 1.7093962068969426
[130]: test 1.7504425997172426, train 1.7021001504245266
[131]: test 1.7470404968461248, train 1.7075358739599344
[132]: test 1.6742387922023119, train 1.7127374067165113
[133]: test 1.7543728562905119, train 1.71585430710557
[134]: test 1.7995493082636291, train 1.709381554349427
[135]: test 1.6837748385189872, train 1.6941013136794887
[136]: test 1.7904708213428677, train 1.7058556846016786
[137]: test 1.6187192895491203, train 1.7024707351005843
[138]: test 1.73077875927273, train 1.6968103562127448
[139]: test 1.6155311738306908, train 1.6759450013378847
[140]: test 1.7107208429390675, train 1.6984626332521966
[141]: test 1.5695361382806892, train 1.705927517964705
[142]: test 1.651823456665146, train 1.7042092015978998
[143]: test 1.7100808428354963, train 1.6982949833288046
[144]: test 1.7208942459082814, train 1.7064962618440114
[145]: test 1.66996882560415, train 1.7020788393365982
[146]: test 1.6487293003615175, train 1.7031292377922
[147]: test 1.7039464936200461, train 1.692050590364694
[148]: test 1.642495081987641, train 1.6905002324263831
[149]: test 1.8586290144963808, train 1.6858629869953643
[150]: test 1.6925411169251718, train 1.6957207740330864
[151]: test 1.6793236177378221, train 1.689666929749596
[152]: test 1.6113407210442312, train 1.6901259717310397
[153]: test 1.7525290497544042, train 1.7133215410203086
[154]: test 1.7711173084366012, train 1.6812564947681332
[155]: test 1.6403218948953961, train 1.7055511973560025
[156]: test 1.7043836672214256, train 1.6938060975523426
[157]: test 1.6964712267678217, train 1.6942776000180455
[158]: test 1.6389480114543826, train 1.6878154039275262
[159]: test 1.6603436989818272, train 1.696133719808465
[160]: test 1.8303156575923503, train 1.7134746360310877
[161]: test 1.891969965172688, train 1.7142359449819806
[162]: test 1.8862542737929275, train 1.6821457668690445
[163]: test 1.663847989168167, train 1.6790588632609171
[164]: test 1.4847240466539333, train 1.6870236524021118
[165]: test 1.8036314526000512, train 1.713638324538352
[166]: test 1.6646762248542875, train 1.677976484939596
[167]: test 1.6363033343337225, train 1.697293551973709
[168]: test 1.855782636739844, train 1.6953154484843578
[169]: test 1.7388048184501768, train 1.6979661077443986
[170]: test 1.7461655137837024, train 1.6828290693954608
[171]: test 1.783395884107086, train 1.687747772400616
[172]: test 1.729204285768408, train 1.6924886007594848
[173]: test 1.5303153241087013, train 1.6806427497909309
[174]: test 1.8043284507857207, train 1.698052861691225
[175]: test 1.5641083241833726, train 1.6910411241620065
[176]: test 1.8070633303549986, train 1.6975520693370936
[177]: test 1.6637949238272065, train 1.712057519487535
[178]: test 1.7153044357961502, train 1.6767099561334762
[179]: test 1.6142683760887218, train 1.689752093529771
[180]: test 1.8655239336335356, train 1.6969166643584321
[181]: test 1.4643477673520107, train 1.698801668700038
[182]: test 1.6734350508104683, train 1.686413716551033
[183]: test 1.6751988049874698, train 1.6922371756327623
[184]: test 1.643560431761918, train 1.689515131791665
[185]: test 1.6282909468988491, train 1.6976993378902536
[186]: test 1.702801248788718, train 1.6881314163723116
[187]: test 1.5694563117310194, train 1.696886410975839
[188]: test 1.81457307624603, train 1.6945795819556846
[189]: test 1.8310034272899154, train 1.710206534485213
[190]: test 1.5820325971056068, train 1.7190539082732297
[191]: test 1.6405852186872767, train 1.6979417534683376
[192]: test 1.6514727438120362, train 1.67980628926376
[193]: test 1.6962676159440526, train 1.7094739647085837
[194]: test 1.7043888197586086, train 1.7026071953940392
[195]: test 1.590674392072446, train 1.6896177815956688
[196]: test 1.7180861151276958, train 1.6859919033578663
[197]: test 1.6685120240500386, train 1.6863351804379392
[198]: test 1.5392194309803635, train 1.7102375501146059
[199]: test 1.5680896851979609, train 1.701914383476775
[200]: test 1.7539738785533918, train 1.6981103930598065

-- Invertibility Verification --
Largest singular values of the weight matrices of each layer of residual block i:
For invertibility: sigma_max < 1 and will approximately = 0.99
[0] [0.9900000324383991, 0.989999989338013]
[1] [0.990000003136283, 0.9899999566015945]
[2] [0.9900000449457514, 0.9899999827629179]
[3] [0.9899999595575093, 0.9900000097713451]
[4] [0.9900000430528886, 0.9900000069998635]
[5] [0.9900000393964442, 0.9900000224524426]
[6] [0.9899999733773618, 0.9899999984746439]
[7] [0.9900000421510577, 0.8319681957532804]
[8] [0.9900000162506544, 0.4152002119439418]
[9] [0.9900000002051229, 0.6536701241900068]
[10] [0.9900000335520519, 0.9899999712645492]
[11] [0.9900000522534521, 0.29158135542527397]
[12] [0.9899999697522552, 0.9900000372092201]
[13] [0.9899999958626922, 0.9900000091678463]
[14] [0.9900000307288677, 0.9900000096080627]
[15] [0.9900000074400955, 0.9900000328027051]
[16] [0.9900000189296984, 0.9900000154634019]
[17] [0.9900000130632934, 0.8901573689127813]
[18] [0.9899999957988462, 0.9899999879259066]
[19] [0.9900000393821033, 0.9899999759095713]
[20] [0.9899999851295324, 0.9899999901798877]
INFO - residual_nf - Completed after 0:41:08
