{
  "inactive_units": {
    "10": 2,
    "100": 4,
    "110": 4,
    "120": 6,
    "130": 5,
    "140": 5,
    "150": 6,
    "160": 6,
    "170": 6,
    "180": 5,
    "190": 5,
    "20": 2,
    "200": 6,
    "210": 4,
    "220": 4,
    "230": 4,
    "240": 4,
    "250": 4,
    "260": 4,
    "270": 4,
    "280": 4,
    "290": 4,
    "30": 2,
    "40": 4,
    "50": 4,
    "60": 4,
    "70": 4,
    "80": 4,
    "90": 3
  },
  "train": {
    "steps": [
      0,
      1,
      2,
      3,
      4,
      5,
      6,
      7,
      8,
      9,
      10,
      11,
      12,
      13,
      14,
      15,
      16,
      17,
      18,
      19,
      20,
      21,
      22,
      23,
      24,
      25,
      26,
      27,
      28,
      29,
      30,
      31,
      32,
      33,
      34,
      35,
      36,
      37,
      38,
      39,
      40,
      41,
      42,
      43,
      44,
      45,
      46,
      47,
      48,
      49,
      50,
      51,
      52,
      53,
      54,
      55,
      56,
      57,
      58,
      59,
      60,
      61,
      62,
      63,
      64,
      65,
      66,
      67,
      68,
      69,
      70,
      71,
      72,
      73,
      74,
      75,
      76,
      77,
      78,
      79,
      80,
      81,
      82,
      83,
      84,
      85,
      86,
      87,
      88,
      89,
      90,
      91,
      92,
      93,
      94,
      95,
      96,
      97,
      98,
      99,
      100,
      101,
      102,
      103,
      104,
      105,
      106,
      107,
      108,
      109,
      110,
      111,
      112,
      113,
      114,
      115,
      116,
      117,
      118,
      119,
      120,
      121,
      122,
      123,
      124,
      125,
      126,
      127,
      128,
      129,
      130,
      131,
      132,
      133,
      134,
      135,
      136,
      137,
      138,
      139,
      140,
      141,
      142,
      143,
      144,
      145,
      146,
      147,
      148,
      149,
      150,
      151,
      152,
      153,
      154,
      155,
      156,
      157,
      158,
      159,
      160,
      161,
      162,
      163,
      164,
      165,
      166,
      167,
      168,
      169,
      170,
      171,
      172,
      173,
      174,
      175,
      176,
      177,
      178,
      179,
      180,
      181,
      182,
      183,
      184,
      185,
      186,
      187,
      188,
      189,
      190,
      191,
      192,
      193,
      194,
      195,
      196,
      197,
      198,
      199,
      200,
      201,
      202,
      203,
      204,
      205,
      206,
      207,
      208,
      209,
      210,
      211,
      212,
      213,
      214,
      215,
      216,
      217,
      218,
      219,
      220,
      221,
      222,
      223,
      224,
      225,
      226,
      227,
      228,
      229,
      230,
      231,
      232,
      233,
      234,
      235,
      236,
      237,
      238,
      239,
      240,
      241,
      242,
      243,
      244,
      245,
      246,
      247,
      248,
      249,
      250,
      251,
      252,
      253,
      254,
      255,
      256,
      257,
      258,
      259,
      260,
      261,
      262,
      263,
      264,
      265,
      266,
      267,
      268,
      269,
      270,
      271,
      272,
      273,
      274,
      275,
      276,
      277,
      278,
      279,
      280,
      281,
      282,
      283,
      284,
      285,
      286,
      287,
      288,
      289,
      290,
      293,
      294,
      295,
      296,
      297,
      298,
      299
    ],
    "timestamps": [
      "2022-06-15T10:26:50.101851",
      "2022-06-15T10:28:12.940018",
      "2022-06-15T10:29:46.568102",
      "2022-06-15T10:31:23.300623",
      "2022-06-15T10:32:59.874730",
      "2022-06-15T10:34:36.471077",
      "2022-06-15T10:36:14.851443",
      "2022-06-15T10:37:55.542174",
      "2022-06-15T10:39:36.775611",
      "2022-06-15T10:41:16.940617",
      "2022-06-15T10:42:59.744688",
      "2022-06-15T10:44:43.370648",
      "2022-06-15T10:46:27.662563",
      "2022-06-15T10:48:09.588798",
      "2022-06-15T10:49:50.956548",
      "2022-06-15T10:51:31.005824",
      "2022-06-15T10:53:11.001565",
      "2022-06-15T10:54:52.088681",
      "2022-06-15T10:56:33.480426",
      "2022-06-15T10:58:14.853138",
      "2022-06-15T10:59:57.033598",
      "2022-06-15T11:01:39.454461",
      "2022-06-15T11:03:22.955384",
      "2022-06-15T11:05:05.626605",
      "2022-06-15T11:06:48.323519",
      "2022-06-15T11:08:32.172461",
      "2022-06-15T11:10:14.167489",
      "2022-06-15T11:11:56.125981",
      "2022-06-15T11:13:37.790666",
      "2022-06-15T11:15:19.566711",
      "2022-06-15T11:17:01.368235",
      "2022-06-15T11:18:43.100479",
      "2022-06-15T11:20:24.760143",
      "2022-06-15T11:22:06.690559",
      "2022-06-15T11:23:48.654795",
      "2022-06-15T11:25:37.888139",
      "2022-06-15T11:27:23.096741",
      "2022-06-15T11:29:09.162813",
      "2022-06-15T11:30:55.049728",
      "2022-06-15T11:32:41.374484",
      "2022-06-15T11:34:27.601393",
      "2022-06-15T11:36:13.816750",
      "2022-06-15T11:38:00.189107",
      "2022-06-15T11:39:46.510624",
      "2022-06-15T11:41:32.767379",
      "2022-06-15T11:43:24.566242",
      "2022-06-15T11:45:17.505768",
      "2022-06-15T11:47:03.923660",
      "2022-06-15T11:49:05.881861",
      "2022-06-15T11:51:36.884368",
      "2022-06-15T11:53:58.322329",
      "2022-06-15T11:55:49.095855",
      "2022-06-15T11:57:37.058670",
      "2022-06-15T11:59:24.404507",
      "2022-06-15T12:01:10.138881",
      "2022-06-15T12:02:55.843014",
      "2022-06-15T12:04:41.441035",
      "2022-06-15T12:06:27.262366",
      "2022-06-15T12:08:13.466095",
      "2022-06-15T12:09:59.288463",
      "2022-06-15T12:11:44.925633",
      "2022-06-15T12:13:30.427215",
      "2022-06-15T12:15:16.218082",
      "2022-06-15T12:17:01.837102",
      "2022-06-15T12:18:47.474242",
      "2022-06-15T12:20:33.097035",
      "2022-06-15T12:22:18.855259",
      "2022-06-15T12:24:04.320254",
      "2022-06-15T12:25:49.860870",
      "2022-06-15T12:27:35.467211",
      "2022-06-15T12:29:21.153979",
      "2022-06-15T12:31:06.863034",
      "2022-06-15T12:32:52.467188",
      "2022-06-15T12:34:38.210151",
      "2022-06-15T12:36:23.912944",
      "2022-06-15T12:38:09.569264",
      "2022-06-15T12:39:55.106609",
      "2022-06-15T12:41:41.086212",
      "2022-06-15T12:43:27.616271",
      "2022-06-15T12:45:13.318508",
      "2022-06-15T12:46:59.168557",
      "2022-06-15T12:48:44.631624",
      "2022-06-15T12:50:30.232111",
      "2022-06-15T12:52:15.854140",
      "2022-06-15T12:54:01.432219",
      "2022-06-15T12:55:47.025188",
      "2022-06-15T12:57:32.568749",
      "2022-06-15T12:59:18.125306",
      "2022-06-15T13:01:03.714545",
      "2022-06-15T13:02:49.540240",
      "2022-06-15T13:04:31.534668",
      "2022-06-15T13:06:15.419440",
      "2022-06-15T13:08:00.761534",
      "2022-06-15T13:09:46.695693",
      "2022-06-15T13:11:32.386474",
      "2022-06-15T13:13:18.149623",
      "2022-06-15T13:15:03.728060",
      "2022-06-15T13:16:50.227082",
      "2022-06-15T13:18:35.907212",
      "2022-06-15T13:20:21.609909",
      "2022-06-15T13:22:07.288137",
      "2022-06-15T13:23:52.855125",
      "2022-06-15T13:25:38.585803",
      "2022-06-15T13:27:24.406650",
      "2022-06-15T13:29:10.071842",
      "2022-06-15T13:30:55.735067",
      "2022-06-15T13:32:41.415522",
      "2022-06-15T13:34:27.042049",
      "2022-06-15T13:36:12.848360",
      "2022-06-15T13:37:59.335435",
      "2022-06-15T13:39:45.186223",
      "2022-06-15T13:41:30.891759",
      "2022-06-15T13:43:16.668436",
      "2022-06-15T13:45:02.375146",
      "2022-06-15T13:46:48.164128",
      "2022-06-15T13:48:33.832936",
      "2022-06-15T13:50:19.609471",
      "2022-06-15T13:52:05.327074",
      "2022-06-15T13:53:51.343113",
      "2022-06-15T13:55:37.197758",
      "2022-06-15T13:57:22.944329",
      "2022-06-15T13:59:08.704060",
      "2022-06-15T14:00:54.348788",
      "2022-06-15T14:02:40.191148",
      "2022-06-15T14:04:25.993382",
      "2022-06-15T14:06:12.749262",
      "2022-06-15T14:07:59.501346",
      "2022-06-15T14:09:45.718386",
      "2022-06-15T14:11:32.829169",
      "2022-06-15T14:13:20.344397",
      "2022-06-15T14:15:07.761636",
      "2022-06-15T14:16:55.177513",
      "2022-06-15T14:18:42.699440",
      "2022-06-15T14:20:30.180670",
      "2022-06-15T14:22:17.616431",
      "2022-06-15T14:24:05.097414",
      "2022-06-15T14:25:52.667336",
      "2022-06-15T14:27:40.203674",
      "2022-06-15T14:29:26.816883",
      "2022-06-15T14:31:13.761474",
      "2022-06-15T14:33:00.414950",
      "2022-06-15T14:34:45.113360",
      "2022-06-15T14:36:29.148746",
      "2022-06-15T14:38:13.204497",
      "2022-06-15T14:39:59.022481",
      "2022-06-15T14:41:44.940313",
      "2022-06-15T14:43:30.629013",
      "2022-06-15T14:45:18.015722",
      "2022-06-15T14:47:05.423287",
      "2022-06-15T14:48:52.441468",
      "2022-06-15T14:50:39.965549",
      "2022-06-15T14:52:27.710920",
      "2022-06-15T14:54:15.001137",
      "2022-06-15T14:56:02.517972",
      "2022-06-15T14:57:49.799704",
      "2022-06-15T14:59:37.498321",
      "2022-06-15T15:01:24.748845",
      "2022-06-15T15:03:12.370554",
      "2022-06-15T15:04:59.739992",
      "2022-06-15T15:06:46.181257",
      "2022-06-15T15:08:32.449183",
      "2022-06-15T15:10:18.403222",
      "2022-06-15T15:12:05.251123",
      "2022-06-15T15:13:52.147791",
      "2022-06-15T15:15:39.381094",
      "2022-06-15T15:17:25.909298",
      "2022-06-15T15:19:12.072500",
      "2022-06-15T15:20:57.695458",
      "2022-06-15T15:22:43.668268",
      "2022-06-15T15:24:31.514736",
      "2022-06-15T15:26:19.280502",
      "2022-06-15T15:28:06.695919",
      "2022-06-15T15:29:52.669006",
      "2022-06-15T15:31:38.316499",
      "2022-06-15T15:33:24.073029",
      "2022-06-15T15:35:09.753131",
      "2022-06-15T15:36:55.457510",
      "2022-06-15T15:38:41.447680",
      "2022-06-15T15:40:27.128789",
      "2022-06-15T15:42:13.352184",
      "2022-06-15T15:43:59.224685",
      "2022-06-15T15:45:45.130068",
      "2022-06-15T15:47:31.334599",
      "2022-06-15T15:49:17.680510",
      "2022-06-15T15:51:03.401048",
      "2022-06-15T15:52:49.087567",
      "2022-06-15T15:54:34.995423",
      "2022-06-15T15:56:20.493128",
      "2022-06-15T15:58:06.516199",
      "2022-06-15T15:59:52.426499",
      "2022-06-15T16:01:37.989366",
      "2022-06-15T16:03:23.721166",
      "2022-06-15T16:05:09.453535",
      "2022-06-15T16:06:55.251375",
      "2022-06-15T16:08:40.899426",
      "2022-06-15T16:10:26.811534",
      "2022-06-15T16:12:12.597053",
      "2022-06-15T16:13:58.299673",
      "2022-06-15T16:15:44.401409",
      "2022-06-15T16:17:30.207498",
      "2022-06-15T16:19:15.986313",
      "2022-06-15T16:21:01.993595",
      "2022-06-15T16:22:47.817906",
      "2022-06-15T16:24:33.598787",
      "2022-06-15T16:26:19.428395",
      "2022-06-15T16:28:04.865149",
      "2022-06-15T16:29:51.278325",
      "2022-06-15T16:31:37.291442",
      "2022-06-15T16:33:23.129241",
      "2022-06-15T16:35:09.550271",
      "2022-06-15T16:36:54.830925",
      "2022-06-15T16:38:38.713997",
      "2022-06-15T16:40:23.011063",
      "2022-06-15T16:42:08.953865",
      "2022-06-15T16:43:54.837785",
      "2022-06-15T16:45:40.665800",
      "2022-06-15T16:47:26.417522",
      "2022-06-15T16:49:12.246304",
      "2022-06-15T16:50:58.074955",
      "2022-06-15T16:52:43.935877",
      "2022-06-15T16:54:29.848842",
      "2022-06-15T16:56:15.609406",
      "2022-06-15T16:58:01.404216",
      "2022-06-15T16:59:47.075450",
      "2022-06-15T17:01:32.946931",
      "2022-06-15T17:03:18.868932",
      "2022-06-15T17:05:04.821974",
      "2022-06-15T17:06:50.654842",
      "2022-06-15T17:08:36.416581",
      "2022-06-15T17:10:22.334831",
      "2022-06-15T17:12:08.235390",
      "2022-06-15T17:13:54.247561",
      "2022-06-15T17:15:40.149731",
      "2022-06-15T17:17:26.059210",
      "2022-06-15T17:19:11.902425",
      "2022-06-15T17:20:57.691120",
      "2022-06-15T17:22:44.244397",
      "2022-06-15T17:24:30.139137",
      "2022-06-15T17:26:16.041072",
      "2022-06-15T17:28:02.125942",
      "2022-06-15T17:29:48.124780",
      "2022-06-15T17:31:36.421480",
      "2022-06-15T17:33:22.675894",
      "2022-06-15T17:35:08.966146",
      "2022-06-15T17:36:55.052170",
      "2022-06-15T17:38:41.011655",
      "2022-06-15T17:40:26.972578",
      "2022-06-15T17:42:13.982077",
      "2022-06-15T17:44:01.165574",
      "2022-06-15T17:45:46.692592",
      "2022-06-15T17:47:32.247469",
      "2022-06-15T17:49:18.622510",
      "2022-06-15T17:51:05.765583",
      "2022-06-15T17:52:54.552362",
      "2022-06-15T17:54:40.681418",
      "2022-06-15T17:56:27.491739",
      "2022-06-15T17:58:15.819538",
      "2022-06-15T18:00:04.863906",
      "2022-06-15T18:01:54.332703",
      "2022-06-15T18:03:42.345112",
      "2022-06-15T18:05:33.764211",
      "2022-06-15T18:07:25.363960",
      "2022-06-15T18:09:15.796971",
      "2022-06-15T18:11:05.005436",
      "2022-06-15T18:12:54.082502",
      "2022-06-15T18:14:43.071036",
      "2022-06-15T18:16:32.018614",
      "2022-06-15T18:18:19.357526",
      "2022-06-15T18:20:08.669627",
      "2022-06-15T18:22:00.255057",
      "2022-06-15T18:23:47.937121",
      "2022-06-15T18:25:34.858439",
      "2022-06-15T18:27:23.515380",
      "2022-06-15T18:29:15.071452",
      "2022-06-15T18:31:08.722158",
      "2022-06-15T18:32:56.215277",
      "2022-06-15T18:34:49.133982",
      "2022-06-15T18:36:40.901215",
      "2022-06-15T18:38:31.206276",
      "2022-06-15T18:40:21.617812",
      "2022-06-15T18:42:14.283609",
      "2022-06-15T18:44:07.053441",
      "2022-06-15T18:45:59.298806",
      "2022-06-15T18:47:50.834513",
      "2022-06-15T18:49:54.803414",
      "2022-06-15T18:51:59.422529",
      "2022-06-15T18:53:51.136001",
      "2022-06-15T18:55:55.682295",
      "2022-06-15T18:58:00.400721",
      "2022-06-15T18:59:52.185529",
      "2022-06-15T19:01:41.010243",
      "2022-06-15T19:08:02.944825",
      "2022-06-15T19:09:51.661144",
      "2022-06-15T19:11:38.207149",
      "2022-06-15T19:13:24.650096",
      "2022-06-15T19:15:11.161305",
      "2022-06-15T19:16:57.620097",
      "2022-06-15T19:18:43.842012"
    ],
    "values": [
      1060.4907692499175,
      290.672457514669,
      203.34444298283196,
      179.91321806719,
      157.39322970885848,
      135.10597677317392,
      115.58749067007074,
      97.2637969431373,
      82.66876678824258,
      72.59834112380116,
      64.9763734385684,
      59.25807913838918,
      55.43472141504049,
      52.8000123061602,
      51.11452040438481,
      50.0417140428647,
      49.30783398372795,
      48.67308282223555,
      48.044871690208176,
      47.48481797674274,
      46.94541805469668,
      46.480265498184544,
      46.021121372884735,
      45.61203504511706,
      45.216064700975764,
      44.81648493065177,
      44.49745687907868,
      44.22146588329384,
      43.93615858305156,
      43.67296678189502,
      43.396608086851984,
      43.22762669858175,
      43.02490796961983,
      42.80932738577842,
      42.6205835217138,
      42.39223585546115,
      42.19619321260764,
      42.032601315814134,
      41.90669568523819,
      41.7389388208504,
      41.58573517106002,
      41.459124981845854,
      41.376181127176025,
      41.18587108928987,
      41.086299571169036,
      40.97396848173318,
      40.854235252996425,
      40.75305927312029,
      40.64901457422782,
      40.56958448993083,
      40.524768190447055,
      40.41635641479156,
      40.36421760138735,
      40.324272833693065,
      40.226513646212695,
      40.19705756667893,
      40.152084840174446,
      40.10695339298431,
      40.05739635975684,
      40.0599326209449,
      39.967964313819316,
      39.93993247558334,
      39.89956405218497,
      39.85586185227887,
      39.83444626844498,
      39.78474123564042,
      39.74520687744937,
      39.70222057707764,
      39.68013394473738,
      39.64882351609162,
      39.59318720488939,
      39.578863613739365,
      39.60328853771031,
      39.58565315489392,
      39.52578608915286,
      39.48784970276042,
      39.46985245486223,
      39.48986720786838,
      39.44465310951544,
      39.42541417843312,
      39.430504943127396,
      39.38283477667685,
      39.38679222584977,
      39.331488009896965,
      39.34089871292606,
      39.30932068181487,
      39.28334246884548,
      39.261188823129906,
      39.25556740385886,
      41.98181554414776,
      40.452681032936965,
      39.31308766042141,
      39.22017517868871,
      39.202506593288696,
      39.18413239569742,
      39.19090351588545,
      39.16206782677281,
      39.14855076298346,
      39.12542956126989,
      39.09244025332936,
      39.0878190250412,
      39.102195272160856,
      39.08378725564151,
      39.05193600362798,
      39.037867472622025,
      39.059236480993924,
      39.02524475358804,
      39.028037972570424,
      38.99240654535037,
      39.00105043169308,
      39.00771013822645,
      38.966565887134195,
      38.970457524007884,
      38.95714327406317,
      38.93406109869965,
      38.958622647759356,
      38.912248866426474,
      38.920911776410854,
      38.923958478143646,
      38.889512651458496,
      38.889695723533855,
      38.87580298017131,
      38.8670474114839,
      38.86421670874776,
      38.84239160178167,
      38.849173223233265,
      38.81916130151719,
      38.8215476094665,
      38.82205802970645,
      38.828728964277495,
      38.79486299471394,
      38.788468856988814,
      38.760986304158216,
      38.798516283944714,
      38.78122044887681,
      38.74254027116249,
      38.73421151770828,
      38.741455324397954,
      38.725906343700245,
      38.732780006740875,
      38.680924676727756,
      44.471348397542336,
      39.14834952509272,
      38.78286767885632,
      38.68603108375894,
      38.647893720475956,
      38.63443459953989,
      38.61702103616903,
      38.61096218853034,
      38.599654307306515,
      38.602639604311456,
      38.59342861477537,
      38.561736046493714,
      38.57128066145616,
      38.557514221839554,
      38.53056649284277,
      38.49945672166828,
      38.49583830288204,
      38.516769881580906,
      38.49689535620446,
      38.46319970307,
      38.4655503023224,
      38.40542683214701,
      38.41123170566507,
      38.37603462477209,
      38.371682632640066,
      38.343229155686565,
      38.315892422188995,
      38.30606580124502,
      38.27952346511283,
      38.2441238713215,
      38.21658301418947,
      38.15379095696218,
      38.170090541899405,
      38.14488568274291,
      38.1157704031793,
      38.065782493654545,
      38.01289322185366,
      38.015974372278826,
      38.00481366851803,
      37.949171967301965,
      37.92900216761324,
      37.9206811525375,
      37.88140217260541,
      37.91336071242821,
      37.85412519859372,
      37.88744170444071,
      37.846447116577124,
      37.86201036029726,
      37.83476077349041,
      37.845858438826596,
      37.836496171114625,
      37.84312308238133,
      37.834482029933895,
      37.84441954243956,
      37.82634002052533,
      37.85555277400687,
      37.810739187488245,
      37.810940090169105,
      37.80737244663163,
      37.819791442592944,
      37.810413569036534,
      37.837466343088515,
      37.794688857377366,
      37.76900781986906,
      37.797579472948165,
      37.82630799358718,
      37.806968940645724,
      37.806769515878145,
      37.78571185691464,
      43.166364981009316,
      38.0857891555403,
      37.82631991402113,
      37.77615568566427,
      37.766384636156864,
      37.77148195589757,
      37.618225767170955,
      37.595733738098,
      37.598903783387705,
      37.60227082135867,
      37.60366155869771,
      37.60068525847736,
      37.602043183326685,
      37.59471219877713,
      37.60082554595774,
      37.59490531568267,
      37.5958638122,
      37.59102345064531,
      37.59555996286517,
      37.587840882786224,
      37.593209740462115,
      37.58879973091282,
      37.59537351921007,
      37.5903419587755,
      37.59713270723058,
      37.58786098463329,
      37.593631210522595,
      37.59439160479116,
      37.58969588642387,
      37.57104119675784,
      37.565180392456675,
      37.568755037895706,
      37.571645770783874,
      37.57124970770558,
      37.56651757404738,
      37.56935131430583,
      37.56782260151303,
      37.56853962141043,
      37.56467600757534,
      37.56527207138297,
      37.56453347678618,
      37.56712071384361,
      37.56603069368711,
      37.561752807119355,
      37.565183489298356,
      37.568023785456205,
      37.56322701133071,
      37.56508521771659,
      37.56158377006055,
      37.562859374689396,
      37.56460940987059,
      37.56766820929739,
      37.56159520822961,
      37.56631084595717,
      37.56428538822872,
      37.56267738474242,
      37.56254822063748,
      37.561087793191845,
      37.56603463162897,
      37.56284127964043,
      37.563229452447445,
      37.56830251588251,
      37.560308889133374,
      37.56377754744626,
      37.565400304109595,
      37.564881370317735,
      37.56312015285518,
      37.56007048067002,
      37.56741421619656,
      37.55944718911799,
      37.56253151222092,
      37.56138507403217,
      37.5634976682283,
      37.56167234629534,
      37.56349960871602,
      37.563853502363166,
      37.56232890890126,
      37.56326704495697,
      37.561616990960104,
      37.563518774724386,
      37.56069485308613,
      37.56117881734903,
      37.561917275251496,
      37.56314192385145,
      37.56406183836625,
      37.563522878349296,
      37.56236794544779,
      37.55896436061325
    ]
  },
  "val": {
    "steps": [
      0,
      1,
      2,
      3,
      4,
      5,
      6,
      7,
      8,
      9,
      10,
      11,
      12,
      13,
      14,
      15,
      16,
      17,
      18,
      19,
      20,
      21,
      22,
      23,
      24,
      25,
      26,
      27,
      28,
      29,
      30,
      31,
      32,
      33,
      34,
      35,
      36,
      37,
      38,
      39,
      40,
      41,
      42,
      43,
      44,
      45,
      46,
      47,
      48,
      49,
      50,
      51,
      52,
      53,
      54,
      55,
      56,
      57,
      58,
      59,
      60,
      61,
      62,
      63,
      64,
      65,
      66,
      67,
      68,
      69,
      70,
      71,
      72,
      73,
      74,
      75,
      76,
      77,
      78,
      79,
      80,
      81,
      82,
      83,
      84,
      85,
      86,
      87,
      88,
      89,
      90,
      91,
      92,
      93,
      94,
      95,
      96,
      97,
      98,
      99,
      100,
      101,
      102,
      103,
      104,
      105,
      106,
      107,
      108,
      109,
      110,
      111,
      112,
      113,
      114,
      115,
      116,
      117,
      118,
      119,
      120,
      121,
      122,
      123,
      124,
      125,
      126,
      127,
      128,
      129,
      130,
      131,
      132,
      133,
      134,
      135,
      136,
      137,
      138,
      139,
      140,
      141,
      142,
      143,
      144,
      145,
      146,
      147,
      148,
      149,
      150,
      151,
      152,
      153,
      154,
      155,
      156,
      157,
      158,
      159,
      160,
      161,
      162,
      163,
      164,
      165,
      166,
      167,
      168,
      169,
      170,
      171,
      172,
      173,
      174,
      175,
      176,
      177,
      178,
      179,
      180,
      181,
      182,
      183,
      184,
      185,
      186,
      187,
      188,
      189,
      190,
      191,
      192,
      193,
      194,
      195,
      196,
      197,
      198,
      199,
      200,
      201,
      202,
      203,
      204,
      205,
      206,
      207,
      208,
      209,
      210,
      211,
      212,
      213,
      214,
      215,
      216,
      217,
      218,
      219,
      220,
      221,
      222,
      223,
      224,
      225,
      226,
      227,
      228,
      229,
      230,
      231,
      232,
      233,
      234,
      235,
      236,
      237,
      238,
      239,
      240,
      241,
      242,
      243,
      244,
      245,
      246,
      247,
      248,
      249,
      250,
      251,
      252,
      253,
      254,
      255,
      256,
      257,
      258,
      259,
      260,
      261,
      262,
      263,
      264,
      265,
      266,
      267,
      268,
      269,
      270,
      271,
      272,
      273,
      274,
      275,
      276,
      277,
      278,
      279,
      280,
      281,
      282,
      283,
      284,
      285,
      286,
      287,
      288,
      289,
      290,
      293,
      294,
      295,
      296,
      297,
      298,
      299
    ],
    "timestamps": [
      "2022-06-15T10:26:53.472458",
      "2022-06-15T10:28:16.251597",
      "2022-06-15T10:29:50.019548",
      "2022-06-15T10:31:26.606239",
      "2022-06-15T10:33:03.148851",
      "2022-06-15T10:34:39.744781",
      "2022-06-15T10:36:18.139331",
      "2022-06-15T10:37:59.109138",
      "2022-06-15T10:39:40.090265",
      "2022-06-15T10:41:20.256224",
      "2022-06-15T10:43:03.090104",
      "2022-06-15T10:44:46.905419",
      "2022-06-15T10:46:31.023973",
      "2022-06-15T10:48:13.242227",
      "2022-06-15T10:49:54.277950",
      "2022-06-15T10:51:34.328243",
      "2022-06-15T10:53:14.347942",
      "2022-06-15T10:54:55.413064",
      "2022-06-15T10:56:36.767048",
      "2022-06-15T10:58:18.168772",
      "2022-06-15T11:00:00.373955",
      "2022-06-15T11:01:42.782385",
      "2022-06-15T11:03:26.357895",
      "2022-06-15T11:05:09.005385",
      "2022-06-15T11:06:51.652902",
      "2022-06-15T11:08:35.504545",
      "2022-06-15T11:10:17.493099",
      "2022-06-15T11:11:59.448035",
      "2022-06-15T11:13:41.178984",
      "2022-06-15T11:15:22.892440",
      "2022-06-15T11:17:04.702318",
      "2022-06-15T11:18:46.372451",
      "2022-06-15T11:20:28.098765",
      "2022-06-15T11:22:10.017543",
      "2022-06-15T11:23:52.470852",
      "2022-06-15T11:25:41.267147",
      "2022-06-15T11:27:26.542312",
      "2022-06-15T11:29:12.463720",
      "2022-06-15T11:30:58.449752",
      "2022-06-15T11:32:44.798810",
      "2022-06-15T11:34:30.947899",
      "2022-06-15T11:36:17.169390",
      "2022-06-15T11:38:03.565334",
      "2022-06-15T11:39:49.853303",
      "2022-06-15T11:41:36.225727",
      "2022-06-15T11:43:28.468750",
      "2022-06-15T11:45:20.833509",
      "2022-06-15T11:47:07.286856",
      "2022-06-15T11:49:12.584514",
      "2022-06-15T11:51:46.878713",
      "2022-06-15T11:54:01.713541",
      "2022-06-15T11:55:52.388646",
      "2022-06-15T11:57:40.420920",
      "2022-06-15T11:59:27.765203",
      "2022-06-15T12:01:13.426888",
      "2022-06-15T12:02:59.175397",
      "2022-06-15T12:04:44.783948",
      "2022-06-15T12:06:30.639614",
      "2022-06-15T12:08:16.850314",
      "2022-06-15T12:10:02.583108",
      "2022-06-15T12:11:48.161494",
      "2022-06-15T12:13:33.729354",
      "2022-06-15T12:15:19.511869",
      "2022-06-15T12:17:05.146354",
      "2022-06-15T12:18:50.776857",
      "2022-06-15T12:20:36.474439",
      "2022-06-15T12:22:22.144765",
      "2022-06-15T12:24:07.642600",
      "2022-06-15T12:25:53.141885",
      "2022-06-15T12:27:38.752517",
      "2022-06-15T12:29:24.476890",
      "2022-06-15T12:31:10.118110",
      "2022-06-15T12:32:55.881859",
      "2022-06-15T12:34:41.509585",
      "2022-06-15T12:36:27.285654",
      "2022-06-15T12:38:12.858763",
      "2022-06-15T12:39:58.396119",
      "2022-06-15T12:41:44.402861",
      "2022-06-15T12:43:30.884952",
      "2022-06-15T12:45:16.742216",
      "2022-06-15T12:47:02.463768",
      "2022-06-15T12:48:47.962582",
      "2022-06-15T12:50:33.530163",
      "2022-06-15T12:52:19.139997",
      "2022-06-15T12:54:04.755587",
      "2022-06-15T12:55:50.314327",
      "2022-06-15T12:57:35.882981",
      "2022-06-15T12:59:21.418356",
      "2022-06-15T13:01:07.099150",
      "2022-06-15T13:02:52.789500",
      "2022-06-15T13:04:34.851228",
      "2022-06-15T13:06:18.758926",
      "2022-06-15T13:08:04.006419",
      "2022-06-15T13:09:49.980948",
      "2022-06-15T13:11:35.826013",
      "2022-06-15T13:13:21.390190",
      "2022-06-15T13:15:07.140834",
      "2022-06-15T13:16:53.532858",
      "2022-06-15T13:18:39.208819",
      "2022-06-15T13:20:24.913527",
      "2022-06-15T13:22:10.593034",
      "2022-06-15T13:23:56.228700",
      "2022-06-15T13:25:41.929257",
      "2022-06-15T13:27:27.718244",
      "2022-06-15T13:29:13.360822",
      "2022-06-15T13:30:59.074069",
      "2022-06-15T13:32:44.673680",
      "2022-06-15T13:34:30.378752",
      "2022-06-15T13:36:16.244648",
      "2022-06-15T13:38:02.645745",
      "2022-06-15T13:39:48.510433",
      "2022-06-15T13:41:34.244502",
      "2022-06-15T13:43:19.967225",
      "2022-06-15T13:45:05.713701",
      "2022-06-15T13:46:51.461111",
      "2022-06-15T13:48:37.209610",
      "2022-06-15T13:50:22.901694",
      "2022-06-15T13:52:08.697166",
      "2022-06-15T13:53:54.690629",
      "2022-06-15T13:55:40.511563",
      "2022-06-15T13:57:26.320325",
      "2022-06-15T13:59:11.938904",
      "2022-06-15T14:00:57.727204",
      "2022-06-15T14:02:43.492666",
      "2022-06-15T14:04:29.299398",
      "2022-06-15T14:06:16.108504",
      "2022-06-15T14:08:02.857107",
      "2022-06-15T14:09:49.094023",
      "2022-06-15T14:11:36.181912",
      "2022-06-15T14:13:23.591982",
      "2022-06-15T14:15:11.020196",
      "2022-06-15T14:16:58.562562",
      "2022-06-15T14:18:46.010719",
      "2022-06-15T14:20:33.474358",
      "2022-06-15T14:22:20.921046",
      "2022-06-15T14:24:08.467315",
      "2022-06-15T14:25:55.913575",
      "2022-06-15T14:27:43.491572",
      "2022-06-15T14:29:30.132866",
      "2022-06-15T14:31:17.147592",
      "2022-06-15T14:33:03.704696",
      "2022-06-15T14:34:48.465213",
      "2022-06-15T14:36:32.440624",
      "2022-06-15T14:38:16.518537",
      "2022-06-15T14:40:02.319809",
      "2022-06-15T14:41:48.298505",
      "2022-06-15T14:43:33.996441",
      "2022-06-15T14:45:21.316952",
      "2022-06-15T14:47:08.789452",
      "2022-06-15T14:48:55.762763",
      "2022-06-15T14:50:43.211421",
      "2022-06-15T14:52:31.019323",
      "2022-06-15T14:54:18.387339",
      "2022-06-15T14:56:05.819796",
      "2022-06-15T14:57:53.098302",
      "2022-06-15T14:59:40.770858",
      "2022-06-15T15:01:28.169523",
      "2022-06-15T15:03:15.668061",
      "2022-06-15T15:05:03.034497",
      "2022-06-15T15:06:49.561568",
      "2022-06-15T15:08:35.727110",
      "2022-06-15T15:10:21.718069",
      "2022-06-15T15:12:08.673090",
      "2022-06-15T15:13:55.451842",
      "2022-06-15T15:15:42.688731",
      "2022-06-15T15:17:29.217101",
      "2022-06-15T15:19:15.347190",
      "2022-06-15T15:21:01.002349",
      "2022-06-15T15:22:46.970565",
      "2022-06-15T15:24:34.760273",
      "2022-06-15T15:26:22.533358",
      "2022-06-15T15:28:10.090300",
      "2022-06-15T15:29:55.948490",
      "2022-06-15T15:31:41.617292",
      "2022-06-15T15:33:27.345005",
      "2022-06-15T15:35:13.053756",
      "2022-06-15T15:36:58.822682",
      "2022-06-15T15:38:44.703606",
      "2022-06-15T15:40:30.475447",
      "2022-06-15T15:42:16.646398",
      "2022-06-15T15:44:02.527246",
      "2022-06-15T15:45:48.507202",
      "2022-06-15T15:47:34.586642",
      "2022-06-15T15:49:21.066715",
      "2022-06-15T15:51:06.693495",
      "2022-06-15T15:52:52.386846",
      "2022-06-15T15:54:38.399247",
      "2022-06-15T15:56:23.785660",
      "2022-06-15T15:58:09.881049",
      "2022-06-15T15:59:55.679334",
      "2022-06-15T16:01:41.314400",
      "2022-06-15T16:03:27.009343",
      "2022-06-15T16:05:12.794700",
      "2022-06-15T16:06:58.569484",
      "2022-06-15T16:08:44.254436",
      "2022-06-15T16:10:30.176077",
      "2022-06-15T16:12:15.884205",
      "2022-06-15T16:14:01.680221",
      "2022-06-15T16:15:47.607127",
      "2022-06-15T16:17:33.489858",
      "2022-06-15T16:19:19.366307",
      "2022-06-15T16:21:05.278998",
      "2022-06-15T16:22:51.179788",
      "2022-06-15T16:24:36.899188",
      "2022-06-15T16:26:22.676966",
      "2022-06-15T16:28:08.187432",
      "2022-06-15T16:29:54.594958",
      "2022-06-15T16:31:40.615952",
      "2022-06-15T16:33:26.429948",
      "2022-06-15T16:35:12.854920",
      "2022-06-15T16:36:58.121704",
      "2022-06-15T16:38:42.079270",
      "2022-06-15T16:40:26.315613",
      "2022-06-15T16:42:12.297165",
      "2022-06-15T16:43:58.151229",
      "2022-06-15T16:45:43.970896",
      "2022-06-15T16:47:29.800785",
      "2022-06-15T16:49:15.552080",
      "2022-06-15T16:51:01.455071",
      "2022-06-15T16:52:47.232961",
      "2022-06-15T16:54:33.181265",
      "2022-06-15T16:56:18.899353",
      "2022-06-15T16:58:04.690389",
      "2022-06-15T16:59:50.453718",
      "2022-06-15T17:01:36.315385",
      "2022-06-15T17:03:22.221876",
      "2022-06-15T17:05:08.112117",
      "2022-06-15T17:06:53.946968",
      "2022-06-15T17:08:39.762889",
      "2022-06-15T17:10:25.572224",
      "2022-06-15T17:12:11.608020",
      "2022-06-15T17:13:57.534443",
      "2022-06-15T17:15:43.465215",
      "2022-06-15T17:17:29.318996",
      "2022-06-15T17:19:15.193539",
      "2022-06-15T17:21:01.074629",
      "2022-06-15T17:22:47.559065",
      "2022-06-15T17:24:33.455812",
      "2022-06-15T17:26:19.330946",
      "2022-06-15T17:28:05.415937",
      "2022-06-15T17:29:51.507826",
      "2022-06-15T17:31:39.712532",
      "2022-06-15T17:33:26.018937",
      "2022-06-15T17:35:12.420357",
      "2022-06-15T17:36:58.294893",
      "2022-06-15T17:38:44.375730",
      "2022-06-15T17:40:30.304181",
      "2022-06-15T17:42:17.832971",
      "2022-06-15T17:44:04.459595",
      "2022-06-15T17:45:49.993730",
      "2022-06-15T17:47:35.558491",
      "2022-06-15T17:49:21.924116",
      "2022-06-15T17:51:09.028602",
      "2022-06-15T17:52:57.841025",
      "2022-06-15T17:54:44.022790",
      "2022-06-15T17:56:30.809351",
      "2022-06-15T17:58:19.128161",
      "2022-06-15T18:00:08.212309",
      "2022-06-15T18:01:57.699214",
      "2022-06-15T18:03:45.855287",
      "2022-06-15T18:05:37.578169",
      "2022-06-15T18:07:28.752538",
      "2022-06-15T18:09:19.503712",
      "2022-06-15T18:11:08.315541",
      "2022-06-15T18:12:57.646363",
      "2022-06-15T18:14:46.442600",
      "2022-06-15T18:16:35.524225",
      "2022-06-15T18:18:22.806321",
      "2022-06-15T18:20:12.397214",
      "2022-06-15T18:22:04.031350",
      "2022-06-15T18:23:51.357098",
      "2022-06-15T18:25:38.201328",
      "2022-06-15T18:27:26.847484",
      "2022-06-15T18:29:18.793592",
      "2022-06-15T18:31:12.083335",
      "2022-06-15T18:32:59.568430",
      "2022-06-15T18:34:52.913357",
      "2022-06-15T18:36:44.233305",
      "2022-06-15T18:38:34.890600",
      "2022-06-15T18:40:25.534749",
      "2022-06-15T18:42:17.952680",
      "2022-06-15T18:44:10.513031",
      "2022-06-15T18:46:02.847646",
      "2022-06-15T18:47:54.775162",
      "2022-06-15T18:49:59.996308",
      "2022-06-15T18:52:03.051342",
      "2022-06-15T18:53:54.709887",
      "2022-06-15T18:56:00.937111",
      "2022-06-15T18:58:03.734533",
      "2022-06-15T18:59:55.645673",
      "2022-06-15T19:01:44.585673",
      "2022-06-15T19:08:06.558163",
      "2022-06-15T19:09:55.033690",
      "2022-06-15T19:11:41.580631",
      "2022-06-15T19:13:27.908409",
      "2022-06-15T19:15:14.608818",
      "2022-06-15T19:17:00.917787",
      "2022-06-15T19:18:47.092783"
    ],
    "values": [
      473.1162076927613,
      219.45406751981997,
      191.0879245574856,
      167.56524734923983,
      146.7229399897667,
      124.64720345383569,
      106.05186328031033,
      89.15182266698618,
      77.00455134582865,
      68.5086137875988,
      61.77882437569818,
      57.088251740789616,
      53.96531080436191,
      51.88390642038255,
      50.556182742361315,
      49.651225671674986,
      49.04650684960362,
      48.38127012456861,
      47.879399094744876,
      47.251508311324685,
      46.71646403482331,
      46.29029672321958,
      45.87648245294064,
      45.40326679347721,
      45.02218559084655,
      44.72515769591051,
      44.40910509022437,
      44.107674305193974,
      43.88942982969041,
      43.615055261926265,
      43.37835983045101,
      43.13020781929208,
      43.01658173724236,
      42.749604304870694,
      42.59342551596234,
      42.43746959813958,
      42.166511492310576,
      42.162716309644686,
      41.83048476633553,
      41.684498996826214,
      41.60706753152189,
      41.47434351400418,
      41.32472244044604,
      41.21637176065678,
      41.10108684003907,
      41.01441473205866,
      40.8491597072857,
      40.78830710222016,
      40.64619825420384,
      40.60599818797915,
      40.49577047991906,
      40.4948186133718,
      40.54233856777219,
      40.34378754583424,
      40.2688095861309,
      40.24356271694201,
      40.21786366250794,
      40.16101358183964,
      40.2614879222122,
      40.03556985445436,
      40.00115372705575,
      39.99451757687464,
      40.00838056887299,
      39.905739178866334,
      39.88526994222312,
      39.85344993469299,
      39.817787503888134,
      39.82508767769132,
      39.670679967481746,
      39.656854516423934,
      39.75137977908283,
      39.70061817520266,
      39.65822105889205,
      39.61604308340761,
      39.57317433706932,
      39.524888182132514,
      39.52645950090413,
      39.54544609157803,
      39.42914325068452,
      39.52918144334763,
      39.46050362653453,
      39.39670080915296,
      39.48560942683736,
      39.430432535721,
      39.3621304943712,
      39.281352195452804,
      39.26467337915273,
      39.34908180527093,
      39.26347603977249,
      45.308372578112895,
      39.51946446207395,
      39.26524898043981,
      39.29120012538601,
      39.28617360532814,
      39.229566132189994,
      39.21871978827443,
      39.21277533393768,
      39.21225299502962,
      39.19703382218675,
      39.13097043483457,
      39.086925086007184,
      39.131538949661845,
      39.11072738646372,
      39.162257451714865,
      39.096853197632775,
      39.14336504457427,
      39.14080417794494,
      39.0974605361063,
      39.14687976736215,
      39.13685986338789,
      38.990447813091066,
      38.972131328589924,
      39.005331459007806,
      39.03122246816476,
      38.97671398752312,
      39.03811835180685,
      39.06140711152985,
      39.006521210123836,
      38.942124864397805,
      38.95627691197407,
      38.918154354145734,
      38.94004601148792,
      38.96793662665437,
      38.88950026078196,
      38.889055721910786,
      38.879375917831275,
      38.9743593228355,
      38.85149676228872,
      38.86112589221429,
      39.02153057584874,
      38.82325532507428,
      38.880670136202994,
      38.781374130342584,
      38.8443570019766,
      38.8179043586453,
      38.81753110878022,
      38.74777863200046,
      38.80635402373347,
      38.761176211696544,
      38.78014981596952,
      38.76229498683793,
      39.769336065859655,
      38.93245225161768,
      38.744606261146174,
      38.67790203796269,
      38.73334120158342,
      38.659014704038384,
      38.646483868495224,
      38.64464722975267,
      38.58096025899554,
      38.69540560731034,
      38.59549861730657,
      38.63514206440599,
      38.58872574897426,
      38.5515126754271,
      38.567791939168224,
      38.50691046826981,
      38.66862572482146,
      38.54620689776606,
      38.534870340565696,
      38.536370572172295,
      38.48813714381824,
      38.42147199127121,
      38.46888300103401,
      38.450503796378236,
      38.38998295723521,
      38.335685342065915,
      38.3915091095412,
      38.380156261927844,
      38.36995466055951,
      38.26801449891735,
      38.20638872167033,
      38.21803208367842,
      38.152556009864064,
      38.23097224474699,
      38.09870630065048,
      38.09740130649814,
      38.08048264749445,
      38.049127142735216,
      38.00698287019805,
      38.041351043004,
      38.02034758527736,
      37.97508372050185,
      37.9778900592832,
      37.90207985832265,
      37.96879193915646,
      37.928950726914465,
      37.93039321511658,
      37.908764969386255,
      37.896032828556436,
      37.88852690289993,
      37.987669224942664,
      37.876323911653024,
      37.87375224471213,
      37.88074917583515,
      37.859761100595904,
      37.90685699330555,
      37.88054540879644,
      37.9820457384062,
      37.917421374954124,
      37.916347364160146,
      37.858531889415616,
      37.93126383176505,
      37.83843024934324,
      37.83016058858118,
      37.90236844829954,
      37.93551952150745,
      37.887702545911935,
      37.839714448833504,
      37.87819292612355,
      38.55412570199298,
      37.92026234040609,
      37.79581656255447,
      37.84076000986739,
      37.89778953920459,
      37.82016720619438,
      37.67899321012334,
      37.67858678621089,
      37.67190196698411,
      37.68559150880153,
      37.67814050223072,
      37.691504443274496,
      37.67955357349859,
      37.68946168849347,
      37.69324827751741,
      37.68427622383161,
      37.680983319035164,
      37.67697331803212,
      37.67987790980454,
      37.67763579103745,
      37.66743724202547,
      37.68297436828758,
      37.67183256147946,
      37.680535287497314,
      37.67540379937143,
      37.67758548734452,
      37.6692420215227,
      37.67882292944126,
      37.67621179322043,
      37.6564349895166,
      37.66213609910763,
      37.66488324441227,
      37.65554501488216,
      37.65784567742462,
      37.65805450190544,
      37.65790506311229,
      37.65995077266321,
      37.652348571449984,
      37.66638504664798,
      37.658616839799,
      37.65562930342559,
      37.66102567593684,
      37.65608501536053,
      37.65333560539213,
      37.656683087563124,
      37.657043421364044,
      37.65359568644852,
      37.649782433388026,
      37.65446084095305,
      37.659439091923474,
      37.65854657787316,
      37.653694639087796,
      37.65494189684646,
      37.6562184752648,
      37.651893994740384,
      37.65703745322049,
      37.65767162955525,
      37.653049657107296,
      37.65372143937777,
      37.65496107926407,
      37.65059009876838,
      37.65457585941922,
      37.65843490085676,
      37.65479646758845,
      37.65975735582848,
      37.65834637549139,
      37.65403330189997,
      37.6544353204725,
      37.65617184333666,
      37.6566550950587,
      37.651065086592304,
      37.66307489910976,
      37.65582781917566,
      37.65412787498454,
      37.65449738686768,
      37.64855512427009,
      37.64929857361264,
      37.65252444495683,
      37.65761953879539,
      37.6596178771217,
      37.65411829698233,
      37.65728478116037,
      37.653285912309364,
      37.65283435578398,
      37.660150864785216,
      37.65703370878086,
      37.652325286453625,
      37.658185521954074
    ]
  }
}