INFO - discrete_nf - Running command 'run'
INFO - discrete_nf - Started run with ID "6"
[CONFIG] {'bn': 'arithmetic-circuit2', 'conditioner_type': 'dag', 'normalizer_type': 'monotonic', 'int_net_hidden': [100], 'int_net_final_activation': 'elu', 'cond_size': 10, 'mono_num_steps': 15, 'mono_solver': 'CC', 'num_flow_steps': 1, 'hidden_dims': [125], 'batch_size': 100, 'num_train_samples': 10000, 'num_val_samples': 5000, 'num_epochs': 300, 'num_train_batches': 100, 'num_val_batches': 50, 'lr': 0.01, 'seed': 5, 'patience': 20, 'run': 1, 'double': False, 'checkpoint_n': 10, 'load_from_checkpoint': False, 'ex_name': 'discrete_nf_density_estimation', 'sub_folder': 'dag_monotonic_1_[125]', 'path': './experiment_logs/discrete_nf_density_estimation/arithmetic-circuit2/dag_monotonic_1_[125]', 'bt_config': {'depth': 5, 'seed': 4}}
[DEVICE] cuda:0
  0%|          | 0/300 [00:00<?, ?it/s]Train NLL: 30.075, Val NLL: 24.690:   0%|          | 1/300 [00:01<08:33,  1.72s/it]Train NLL: 23.079, Val NLL: 21.734:   1%|          | 2/300 [00:02<07:10,  1.44s/it]Train NLL: 21.066, Val NLL: 20.355:   1%|          | 3/300 [00:04<06:42,  1.36s/it]Train NLL: 20.257, Val NLL: 19.948:   1%|▏         | 4/300 [00:05<06:28,  1.31s/it]Train NLL: 19.595, Val NLL: 19.200:   2%|▏         | 5/300 [00:06<06:20,  1.29s/it]Train NLL: 19.252, Val NLL: 18.926:   2%|▏         | 6/300 [00:07<06:15,  1.28s/it]Train NLL: 18.788, Val NLL: 18.832:   2%|▏         | 7/300 [00:09<06:11,  1.27s/it]Train NLL: 18.705, Val NLL: 18.477:   3%|▎         | 8/300 [00:10<06:11,  1.27s/it]Train NLL: 18.545, Val NLL: 17.838:   3%|▎         | 9/300 [00:11<06:07,  1.26s/it]Train NLL: 18.151, Val NLL: 17.889:   3%|▎         | 10/300 [00:13<06:05,  1.26s/it]Train NLL: 18.111, Val NLL: 17.480:   4%|▎         | 11/300 [00:14<06:04,  1.26s/it]Train NLL: 17.752, Val NLL: 17.337:   4%|▍         | 12/300 [00:15<06:05,  1.27s/it]Train NLL: 17.877, Val NLL: 19.139:   4%|▍         | 13/300 [00:16<06:02,  1.26s/it]Train NLL: 17.949, Val NLL: 17.334:   5%|▍         | 14/300 [00:18<06:01,  1.27s/it]Train NLL: 17.425, Val NLL: 17.471:   5%|▌         | 15/300 [00:19<06:01,  1.27s/it]Train NLL: 17.312, Val NLL: 17.032:   5%|▌         | 16/300 [00:20<06:01,  1.27s/it]Train NLL: 19.275, Val NLL: 20.226:   6%|▌         | 17/300 [00:21<05:58,  1.27s/it]Train NLL: 18.084, Val NLL: 17.003:   6%|▌         | 18/300 [00:23<05:55,  1.26s/it]Train NLL: 16.997, Val NLL: 16.726:   6%|▋         | 19/300 [00:24<05:53,  1.26s/it]Train NLL: 17.196, Val NLL: 16.800:   7%|▋         | 20/300 [00:25<05:51,  1.26s/it]Train NLL: 16.872, Val NLL: 17.054:   7%|▋         | 21/300 [00:26<05:51,  1.26s/it]Train NLL: 16.880, Val NLL: 16.753:   7%|▋         | 22/300 [00:28<05:51,  1.27s/it]Train NLL: 16.764, Val NLL: 16.712:   8%|▊         | 23/300 [00:29<05:49,  1.26s/it]Train NLL: 17.082, Val NLL: 17.924:   8%|▊         | 24/300 [00:30<05:47,  1.26s/it]Train NLL: 16.990, Val NLL: 16.578:   8%|▊         | 25/300 [00:31<05:47,  1.27s/it]Train NLL: 16.762, Val NLL: 16.762:   9%|▊         | 26/300 [00:33<05:47,  1.27s/it]Train NLL: 16.579, Val NLL: 16.449:   9%|▉         | 27/300 [00:34<05:45,  1.27s/it]Train NLL: 16.653, Val NLL: 17.112:   9%|▉         | 28/300 [00:35<05:43,  1.26s/it]Train NLL: 16.668, Val NLL: 17.205:  10%|▉         | 29/300 [00:37<05:42,  1.26s/it]Train NLL: 16.827, Val NLL: 16.618:  10%|█         | 30/300 [00:38<05:40,  1.26s/it]Train NLL: 16.719, Val NLL: 16.594:  10%|█         | 31/300 [00:39<05:38,  1.26s/it]Train NLL: 16.359, Val NLL: 16.499:  11%|█         | 32/300 [00:40<05:40,  1.27s/it]Train NLL: 16.385, Val NLL: 16.218:  11%|█         | 33/300 [00:42<05:37,  1.27s/it]Train NLL: 16.369, Val NLL: 16.054:  11%|█▏        | 34/300 [00:43<05:36,  1.26s/it]Train NLL: 17.737, Val NLL: 19.439:  12%|█▏        | 35/300 [00:44<05:34,  1.26s/it]Train NLL: 17.706, Val NLL: 16.082:  12%|█▏        | 36/300 [00:45<05:32,  1.26s/it]Train NLL: 16.408, Val NLL: 16.291:  12%|█▏        | 37/300 [00:47<05:30,  1.26s/it]Train NLL: 16.405, Val NLL: 16.602:  13%|█▎        | 38/300 [00:48<05:29,  1.26s/it]Train NLL: 16.485, Val NLL: 17.235:  13%|█▎        | 39/300 [00:49<05:28,  1.26s/it]Train NLL: 16.404, Val NLL: 17.018:  13%|█▎        | 40/300 [00:50<05:29,  1.27s/it]Train NLL: 16.370, Val NLL: 15.792:  14%|█▎        | 41/300 [00:52<05:27,  1.26s/it]Train NLL: 16.146, Val NLL: 17.025:  14%|█▍        | 42/300 [00:53<05:25,  1.26s/it]Train NLL: 16.398, Val NLL: 16.536:  14%|█▍        | 43/300 [00:54<05:23,  1.26s/it]Train NLL: 16.234, Val NLL: 16.520:  15%|█▍        | 44/300 [00:55<05:25,  1.27s/it]Train NLL: 16.152, Val NLL: 15.906:  15%|█▌        | 45/300 [00:57<05:22,  1.27s/it]Train NLL: 18.064, Val NLL: 16.048:  15%|█▌        | 46/300 [00:58<05:20,  1.26s/it]Train NLL: 16.451, Val NLL: 16.896:  16%|█▌        | 47/300 [00:59<05:18,  1.26s/it]Train NLL: 16.509, Val NLL: 16.060:  16%|█▌        | 48/300 [01:01<05:20,  1.27s/it]Train NLL: 16.183, Val NLL: 15.981:  16%|█▋        | 49/300 [01:02<05:17,  1.27s/it]Train NLL: 15.875, Val NLL: 15.857:  17%|█▋        | 50/300 [01:03<05:15,  1.26s/it]Train NLL: 15.975, Val NLL: 16.255:  17%|█▋        | 51/300 [01:04<05:13,  1.26s/it]Train NLL: 15.916, Val NLL: 16.364:  17%|█▋        | 52/300 [01:06<05:15,  1.27s/it]Train NLL: 16.377, Val NLL: 20.557:  18%|█▊        | 53/300 [01:07<05:13,  1.27s/it]Train NLL: 18.195, Val NLL: 16.467:  18%|█▊        | 54/300 [01:08<05:10,  1.26s/it]Train NLL: 16.309, Val NLL: 15.864:  18%|█▊        | 55/300 [01:09<05:08,  1.26s/it]Train NLL: 16.111, Val NLL: 16.300:  19%|█▊        | 56/300 [01:11<05:08,  1.27s/it]Train NLL: 16.011, Val NLL: 15.802:  19%|█▉        | 57/300 [01:12<05:07,  1.26s/it]Train NLL: 16.409, Val NLL: 15.820:  19%|█▉        | 58/300 [01:13<05:05,  1.26s/it]Train NLL: 16.016, Val NLL: 15.571:  20%|█▉        | 59/300 [01:14<05:03,  1.26s/it]Train NLL: 15.967, Val NLL: 16.816:  20%|██        | 60/300 [01:16<05:02,  1.26s/it]Train NLL: 16.076, Val NLL: 15.895:  20%|██        | 61/300 [01:17<05:01,  1.26s/it]Train NLL: 15.899, Val NLL: 15.930:  21%|██        | 62/300 [01:18<05:01,  1.27s/it]Train NLL: 15.818, Val NLL: 15.764:  21%|██        | 63/300 [01:19<04:59,  1.26s/it]Train NLL: 15.900, Val NLL: 16.243:  21%|██▏       | 64/300 [01:21<04:57,  1.26s/it]Train NLL: 16.313, Val NLL: 17.956:  22%|██▏       | 65/300 [01:22<04:56,  1.26s/it]Train NLL: 16.020, Val NLL: 15.663:  22%|██▏       | 66/300 [01:23<04:56,  1.27s/it]Train NLL: 16.024, Val NLL: 15.687:  22%|██▏       | 67/300 [01:25<04:54,  1.26s/it]Train NLL: 15.721, Val NLL: 15.744:  23%|██▎       | 68/300 [01:26<04:52,  1.26s/it]Train NLL: 15.728, Val NLL: 15.618:  23%|██▎       | 69/300 [01:27<04:50,  1.26s/it]Train NLL: 16.433, Val NLL: 15.806:  23%|██▎       | 70/300 [01:28<04:49,  1.26s/it]Train NLL: 15.836, Val NLL: 16.487:  24%|██▎       | 71/300 [01:30<04:47,  1.26s/it]Train NLL: 15.808, Val NLL: 15.994:  24%|██▍       | 72/300 [01:31<04:47,  1.26s/it]Train NLL: 15.710, Val NLL: 15.760:  24%|██▍       | 73/300 [01:32<04:46,  1.26s/it]Train NLL: 15.902, Val NLL: 15.767:  25%|██▍       | 74/300 [01:33<04:44,  1.26s/it]Train NLL: 15.655, Val NLL: 16.142:  25%|██▌       | 75/300 [01:35<04:42,  1.26s/it]Train NLL: 15.723, Val NLL: 16.195:  25%|██▌       | 76/300 [01:36<04:41,  1.26s/it]Train NLL: 15.827, Val NLL: 15.534:  26%|██▌       | 77/300 [01:37<04:39,  1.25s/it]Train NLL: 15.666, Val NLL: 15.536:  26%|██▌       | 78/300 [01:38<04:38,  1.26s/it]Train NLL: 15.637, Val NLL: 16.068:  26%|██▋       | 79/300 [01:40<04:38,  1.26s/it]Train NLL: 15.729, Val NLL: 15.982:  27%|██▋       | 80/300 [01:41<04:38,  1.26s/it]Train NLL: 16.004, Val NLL: 15.810:  27%|██▋       | 81/300 [01:42<04:36,  1.26s/it]Train NLL: 15.786, Val NLL: 15.487:  27%|██▋       | 82/300 [01:43<04:34,  1.26s/it]Train NLL: 15.625, Val NLL: 15.534:  28%|██▊       | 83/300 [01:45<04:34,  1.26s/it]Train NLL: 15.662, Val NLL: 15.327:  28%|██▊       | 84/300 [01:46<04:33,  1.27s/it]Train NLL: 15.573, Val NLL: 15.438:  28%|██▊       | 85/300 [01:47<04:31,  1.26s/it]Train NLL: 15.668, Val NLL: 16.447:  29%|██▊       | 86/300 [01:48<04:29,  1.26s/it]Train NLL: 16.118, Val NLL: 15.860:  29%|██▉       | 87/300 [01:50<04:28,  1.26s/it]Train NLL: 17.600, Val NLL: 17.637:  29%|██▉       | 88/300 [01:51<04:27,  1.26s/it]Train NLL: 17.159, Val NLL: 19.165:  30%|██▉       | 89/300 [01:52<04:25,  1.26s/it]Train NLL: 17.094, Val NLL: 16.424:  30%|███       | 90/300 [01:53<04:24,  1.26s/it]Train NLL: 16.065, Val NLL: 16.682:  30%|███       | 91/300 [01:55<04:23,  1.26s/it]Train NLL: 15.935, Val NLL: 15.701:  31%|███       | 92/300 [01:56<04:22,  1.26s/it]Train NLL: 15.924, Val NLL: 15.847:  31%|███       | 93/300 [01:57<04:21,  1.26s/it]Train NLL: 16.023, Val NLL: 16.343:  31%|███▏      | 94/300 [01:59<04:19,  1.26s/it]Train NLL: 15.895, Val NLL: 15.508:  32%|███▏      | 95/300 [02:00<04:19,  1.27s/it]Train NLL: 15.808, Val NLL: 15.844:  32%|███▏      | 96/300 [02:01<04:19,  1.27s/it]Train NLL: 15.650, Val NLL: 15.475:  32%|███▏      | 97/300 [02:02<04:18,  1.27s/it]Train NLL: 15.574, Val NLL: 15.671:  33%|███▎      | 98/300 [02:04<04:15,  1.27s/it]Train NLL: 15.671, Val NLL: 15.560:  33%|███▎      | 99/300 [02:05<04:14,  1.26s/it]Train NLL: 15.634, Val NLL: 15.864:  33%|███▎      | 100/300 [02:06<04:12,  1.26s/it]Train NLL: 16.107, Val NLL: 16.035:  34%|███▎      | 101/300 [02:07<04:11,  1.26s/it]Train NLL: 15.959, Val NLL: 15.606:  34%|███▍      | 102/300 [02:09<04:11,  1.27s/it]Train NLL: 15.979, Val NLL: 17.558:  34%|███▍      | 103/300 [02:10<04:12,  1.28s/it]Train NLL: 16.706, Val NLL: 16.520:  35%|███▍      | 104/300 [02:11<04:09,  1.27s/it]Train NLL: 15.933, Val NLL: 15.484:  35%|███▌      | 105/300 [02:13<04:07,  1.27s/it]Epoch   106: reducing learning rate of group 0 to 1.0000e-03.
Train NLL: 15.952, Val NLL: 15.658:  35%|███▌      | 106/300 [02:14<04:06,  1.27s/it]Train NLL: 15.247, Val NLL: 15.213:  36%|███▌      | 107/300 [02:15<04:04,  1.27s/it]Train NLL: 15.181, Val NLL: 15.199:  36%|███▌      | 108/300 [02:16<04:02,  1.26s/it]Train NLL: 15.171, Val NLL: 15.194:  36%|███▋      | 109/300 [02:18<04:00,  1.26s/it]Train NLL: 15.172, Val NLL: 15.185:  37%|███▋      | 110/300 [02:19<03:59,  1.26s/it]Train NLL: 15.161, Val NLL: 15.182:  37%|███▋      | 111/300 [02:20<03:58,  1.26s/it]Train NLL: 15.152, Val NLL: 15.180:  37%|███▋      | 112/300 [02:21<03:58,  1.27s/it]Train NLL: 15.148, Val NLL: 15.147:  38%|███▊      | 113/300 [02:23<03:56,  1.26s/it]Train NLL: 15.148, Val NLL: 15.196:  38%|███▊      | 114/300 [02:24<03:54,  1.26s/it]Train NLL: 15.135, Val NLL: 15.176:  38%|███▊      | 115/300 [02:25<03:52,  1.26s/it]Train NLL: 15.136, Val NLL: 15.137:  39%|███▊      | 116/300 [02:26<03:51,  1.26s/it]Train NLL: 15.138, Val NLL: 15.156:  39%|███▉      | 117/300 [02:28<03:52,  1.27s/it]Train NLL: 15.128, Val NLL: 15.149:  39%|███▉      | 118/300 [02:29<03:50,  1.27s/it]Train NLL: 15.119, Val NLL: 15.159:  40%|███▉      | 119/300 [02:30<03:51,  1.28s/it]Train NLL: 15.115, Val NLL: 15.225:  40%|████      | 120/300 [02:32<03:49,  1.27s/it]Train NLL: 15.102, Val NLL: 15.094:  40%|████      | 121/300 [02:33<03:47,  1.27s/it]Train NLL: 15.109, Val NLL: 15.149:  41%|████      | 122/300 [02:34<03:48,  1.29s/it]Train NLL: 15.111, Val NLL: 15.099:  41%|████      | 123/300 [02:35<03:49,  1.30s/it]Train NLL: 15.095, Val NLL: 15.100:  41%|████▏     | 124/300 [02:37<03:46,  1.29s/it]Train NLL: 15.095, Val NLL: 15.119:  42%|████▏     | 125/300 [02:38<03:44,  1.29s/it]Train NLL: 15.085, Val NLL: 15.090:  42%|████▏     | 126/300 [02:39<03:46,  1.30s/it]Train NLL: 15.076, Val NLL: 15.068:  42%|████▏     | 127/300 [02:41<03:46,  1.31s/it]Train NLL: 15.078, Val NLL: 15.090:  43%|████▎     | 128/300 [02:42<03:45,  1.31s/it]Train NLL: 15.070, Val NLL: 15.084:  43%|████▎     | 129/300 [02:43<03:41,  1.30s/it]Train NLL: 15.072, Val NLL: 15.088:  43%|████▎     | 130/300 [02:44<03:38,  1.29s/it]Train NLL: 15.065, Val NLL: 15.087:  44%|████▎     | 131/300 [02:46<03:36,  1.28s/it]Train NLL: 15.066, Val NLL: 15.102:  44%|████▍     | 132/300 [02:47<03:35,  1.28s/it]Train NLL: 15.059, Val NLL: 15.094:  44%|████▍     | 133/300 [02:48<03:33,  1.28s/it]Train NLL: 15.042, Val NLL: 15.041:  45%|████▍     | 134/300 [02:50<03:30,  1.27s/it]Train NLL: 15.054, Val NLL: 15.066:  45%|████▌     | 135/300 [02:51<03:28,  1.27s/it]Train NLL: 15.047, Val NLL: 15.053:  45%|████▌     | 136/300 [02:52<03:28,  1.27s/it]Train NLL: 15.033, Val NLL: 15.025:  46%|████▌     | 137/300 [02:53<03:26,  1.26s/it]Train NLL: 15.014, Val NLL: 15.072:  46%|████▌     | 138/300 [02:55<03:24,  1.26s/it]Train NLL: 15.031, Val NLL: 15.072:  46%|████▋     | 139/300 [02:56<03:22,  1.26s/it]Train NLL: 15.013, Val NLL: 15.011:  47%|████▋     | 140/300 [02:57<03:21,  1.26s/it]Train NLL: 15.020, Val NLL: 15.057:  47%|████▋     | 141/300 [02:58<03:20,  1.26s/it]Train NLL: 15.010, Val NLL: 14.994:  47%|████▋     | 142/300 [03:00<03:19,  1.26s/it]Train NLL: 14.997, Val NLL: 14.984:  48%|████▊     | 143/300 [03:01<03:18,  1.27s/it]Train NLL: 14.998, Val NLL: 15.027:  48%|████▊     | 144/300 [03:02<03:17,  1.26s/it]Train NLL: 15.005, Val NLL: 14.983:  48%|████▊     | 145/300 [03:03<03:15,  1.26s/it]Train NLL: 14.991, Val NLL: 15.013:  49%|████▊     | 146/300 [03:05<03:13,  1.26s/it]Train NLL: 14.991, Val NLL: 14.967:  49%|████▉     | 147/300 [03:06<03:12,  1.26s/it]Train NLL: 14.969, Val NLL: 14.953:  49%|████▉     | 148/300 [03:07<03:10,  1.26s/it]Train NLL: 14.982, Val NLL: 14.965:  50%|████▉     | 149/300 [03:08<03:09,  1.26s/it]Train NLL: 14.968, Val NLL: 14.958:  50%|█████     | 150/300 [03:10<03:09,  1.26s/it]Train NLL: 14.978, Val NLL: 15.004:  50%|█████     | 151/300 [03:11<03:08,  1.27s/it]Train NLL: 14.971, Val NLL: 14.975:  51%|█████     | 152/300 [03:12<03:06,  1.26s/it]Train NLL: 14.965, Val NLL: 14.949:  51%|█████     | 153/300 [03:13<03:05,  1.26s/it]Train NLL: 14.950, Val NLL: 14.970:  51%|█████▏    | 154/300 [03:15<03:04,  1.26s/it]Train NLL: 14.944, Val NLL: 14.968:  52%|█████▏    | 155/300 [03:16<03:03,  1.26s/it]Train NLL: 14.946, Val NLL: 14.956:  52%|█████▏    | 156/300 [03:17<03:01,  1.26s/it]Train NLL: 14.939, Val NLL: 14.944:  52%|█████▏    | 157/300 [03:19<03:00,  1.26s/it]Train NLL: 14.954, Val NLL: 14.997:  53%|█████▎    | 158/300 [03:20<03:00,  1.27s/it]Train NLL: 14.941, Val NLL: 14.974:  53%|█████▎    | 159/300 [03:21<02:58,  1.27s/it]Train NLL: 14.939, Val NLL: 14.979:  53%|█████▎    | 160/300 [03:22<02:56,  1.26s/it]Train NLL: 14.940, Val NLL: 14.922:  54%|█████▎    | 161/300 [03:24<02:55,  1.26s/it]Train NLL: 14.917, Val NLL: 14.938:  54%|█████▍    | 162/300 [03:25<02:54,  1.26s/it]Train NLL: 14.930, Val NLL: 14.899:  54%|█████▍    | 163/300 [03:26<02:53,  1.27s/it]Train NLL: 14.916, Val NLL: 14.987:  55%|█████▍    | 164/300 [03:27<02:51,  1.26s/it]Train NLL: 14.913, Val NLL: 14.974:  55%|█████▌    | 165/300 [03:29<02:50,  1.26s/it]Train NLL: 14.916, Val NLL: 14.921:  55%|█████▌    | 166/300 [03:30<02:49,  1.26s/it]Train NLL: 14.903, Val NLL: 14.909:  56%|█████▌    | 167/300 [03:31<02:48,  1.27s/it]Train NLL: 14.897, Val NLL: 14.889:  56%|█████▌    | 168/300 [03:32<02:46,  1.26s/it]Train NLL: 14.917, Val NLL: 14.869:  56%|█████▋    | 169/300 [03:34<02:45,  1.26s/it]Train NLL: 14.919, Val NLL: 14.909:  57%|█████▋    | 170/300 [03:35<02:43,  1.26s/it]Train NLL: 14.899, Val NLL: 14.885:  57%|█████▋    | 171/300 [03:36<02:42,  1.26s/it]Train NLL: 14.888, Val NLL: 14.873:  57%|█████▋    | 172/300 [03:37<02:41,  1.26s/it]Train NLL: 14.895, Val NLL: 14.868:  58%|█████▊    | 173/300 [03:39<02:40,  1.26s/it]Train NLL: 14.888, Val NLL: 14.868:  58%|█████▊    | 174/300 [03:40<02:38,  1.26s/it]Train NLL: 14.902, Val NLL: 14.969:  58%|█████▊    | 175/300 [03:41<02:37,  1.26s/it]Train NLL: 14.867, Val NLL: 14.919:  59%|█████▊    | 176/300 [03:43<02:38,  1.28s/it]Train NLL: 14.881, Val NLL: 14.874:  59%|█████▉    | 177/300 [03:44<02:36,  1.28s/it]Train NLL: 14.871, Val NLL: 14.859:  59%|█████▉    | 178/300 [03:45<02:35,  1.28s/it]Train NLL: 14.862, Val NLL: 14.832:  60%|█████▉    | 179/300 [03:46<02:34,  1.28s/it]Train NLL: 14.854, Val NLL: 14.865:  60%|██████    | 180/300 [03:48<02:33,  1.28s/it]Train NLL: 14.892, Val NLL: 14.867:  60%|██████    | 181/300 [03:49<02:34,  1.30s/it]Train NLL: 14.868, Val NLL: 14.909:  61%|██████    | 182/300 [03:50<02:36,  1.32s/it]Train NLL: 14.850, Val NLL: 14.845:  61%|██████    | 183/300 [03:52<02:34,  1.32s/it]Train NLL: 14.849, Val NLL: 14.920:  61%|██████▏   | 184/300 [03:53<02:30,  1.30s/it]Train NLL: 14.854, Val NLL: 14.847:  62%|██████▏   | 185/300 [03:54<02:28,  1.29s/it]Train NLL: 14.853, Val NLL: 14.897:  62%|██████▏   | 186/300 [03:55<02:25,  1.28s/it]Train NLL: 14.873, Val NLL: 14.837:  62%|██████▏   | 187/300 [03:57<02:23,  1.27s/it]Train NLL: 14.844, Val NLL: 14.866:  63%|██████▎   | 188/300 [03:58<02:22,  1.27s/it]Train NLL: 14.849, Val NLL: 14.851:  63%|██████▎   | 189/300 [03:59<02:21,  1.27s/it]Train NLL: 14.853, Val NLL: 14.835:  63%|██████▎   | 190/300 [04:01<02:20,  1.28s/it]Train NLL: 14.825, Val NLL: 14.831:  64%|██████▎   | 191/300 [04:02<02:18,  1.27s/it]Train NLL: 14.829, Val NLL: 14.833:  64%|██████▍   | 192/300 [04:03<02:16,  1.27s/it]Train NLL: 14.841, Val NLL: 14.809:  64%|██████▍   | 193/300 [04:04<02:15,  1.26s/it]Train NLL: 14.823, Val NLL: 14.849:  65%|██████▍   | 194/300 [04:06<02:14,  1.27s/it]Train NLL: 14.833, Val NLL: 14.822:  65%|██████▌   | 195/300 [04:07<02:12,  1.27s/it]Train NLL: 14.828, Val NLL: 14.865:  65%|██████▌   | 196/300 [04:08<02:11,  1.26s/it]Train NLL: 14.825, Val NLL: 14.814:  66%|██████▌   | 197/300 [04:09<02:09,  1.26s/it]Train NLL: 14.828, Val NLL: 14.868:  66%|██████▌   | 198/300 [04:11<02:09,  1.27s/it]Train NLL: 14.820, Val NLL: 14.856:  66%|██████▋   | 199/300 [04:12<02:07,  1.26s/it]Train NLL: 14.840, Val NLL: 14.801:  67%|██████▋   | 200/300 [04:13<02:06,  1.26s/it]Train NLL: 14.822, Val NLL: 14.826:  67%|██████▋   | 201/300 [04:14<02:04,  1.26s/it]Train NLL: 14.815, Val NLL: 14.883:  67%|██████▋   | 202/300 [04:16<02:04,  1.27s/it]Train NLL: 14.822, Val NLL: 14.882:  68%|██████▊   | 203/300 [04:17<02:02,  1.26s/it]Train NLL: 14.817, Val NLL: 14.887:  68%|██████▊   | 204/300 [04:18<02:01,  1.26s/it]Train NLL: 14.851, Val NLL: 14.813:  68%|██████▊   | 205/300 [04:20<01:59,  1.26s/it]Train NLL: 14.811, Val NLL: 14.814:  69%|██████▊   | 206/300 [04:21<01:59,  1.27s/it]Train NLL: 14.798, Val NLL: 14.779:  69%|██████▉   | 207/300 [04:22<01:57,  1.27s/it]Train NLL: 14.812, Val NLL: 14.795:  69%|██████▉   | 208/300 [04:23<01:56,  1.26s/it]Train NLL: 14.809, Val NLL: 14.847:  70%|██████▉   | 209/300 [04:25<01:54,  1.26s/it]Train NLL: 14.824, Val NLL: 14.828:  70%|███████   | 210/300 [04:26<01:53,  1.26s/it]Train NLL: 14.811, Val NLL: 14.925:  70%|███████   | 211/300 [04:27<01:52,  1.26s/it]Train NLL: 14.813, Val NLL: 14.816:  71%|███████   | 212/300 [04:28<01:51,  1.27s/it]Train NLL: 14.797, Val NLL: 14.861:  71%|███████   | 213/300 [04:30<01:49,  1.26s/it]Train NLL: 14.816, Val NLL: 14.839:  71%|███████▏  | 214/300 [04:31<01:48,  1.26s/it]Train NLL: 14.785, Val NLL: 14.772:  72%|███████▏  | 215/300 [04:32<01:47,  1.26s/it]Train NLL: 14.812, Val NLL: 14.852:  72%|███████▏  | 216/300 [04:33<01:46,  1.27s/it]Train NLL: 14.796, Val NLL: 14.894:  72%|███████▏  | 217/300 [04:35<01:44,  1.26s/it]Train NLL: 14.778, Val NLL: 14.792:  73%|███████▎  | 218/300 [04:36<01:43,  1.26s/it]Train NLL: 14.792, Val NLL: 14.816:  73%|███████▎  | 219/300 [04:37<01:41,  1.26s/it]Train NLL: 14.788, Val NLL: 14.805:  73%|███████▎  | 220/300 [04:38<01:40,  1.26s/it]Train NLL: 14.779, Val NLL: 14.822:  74%|███████▎  | 221/300 [04:40<01:39,  1.26s/it]Train NLL: 14.776, Val NLL: 14.747:  74%|███████▍  | 222/300 [04:41<01:38,  1.26s/it]Train NLL: 14.771, Val NLL: 14.761:  74%|███████▍  | 223/300 [04:42<01:37,  1.26s/it]Train NLL: 14.779, Val NLL: 14.812:  75%|███████▍  | 224/300 [04:43<01:35,  1.26s/it]Train NLL: 14.779, Val NLL: 14.755:  75%|███████▌  | 225/300 [04:45<01:34,  1.26s/it]Train NLL: 14.777, Val NLL: 14.807:  75%|███████▌  | 226/300 [04:46<01:32,  1.25s/it]Train NLL: 14.758, Val NLL: 14.799:  76%|███████▌  | 227/300 [04:47<01:31,  1.25s/it]Train NLL: 14.759, Val NLL: 14.809:  76%|███████▌  | 228/300 [04:48<01:30,  1.26s/it]Train NLL: 14.765, Val NLL: 14.804:  76%|███████▋  | 229/300 [04:50<01:29,  1.26s/it]Train NLL: 14.764, Val NLL: 14.793:  77%|███████▋  | 230/300 [04:51<01:28,  1.26s/it]Train NLL: 14.768, Val NLL: 14.773:  77%|███████▋  | 231/300 [04:52<01:27,  1.26s/it]Train NLL: 14.759, Val NLL: 14.730:  77%|███████▋  | 232/300 [04:54<01:25,  1.26s/it]Train NLL: 14.763, Val NLL: 14.747:  78%|███████▊  | 233/300 [04:55<01:24,  1.26s/it]Train NLL: 14.762, Val NLL: 14.774:  78%|███████▊  | 234/300 [04:56<01:23,  1.26s/it]Train NLL: 14.758, Val NLL: 14.797:  78%|███████▊  | 235/300 [04:57<01:21,  1.26s/it]Train NLL: 14.747, Val NLL: 14.764:  79%|███████▊  | 236/300 [04:59<01:20,  1.26s/it]Train NLL: 14.770, Val NLL: 14.775:  79%|███████▉  | 237/300 [05:00<01:19,  1.26s/it]Train NLL: 14.750, Val NLL: 14.850:  79%|███████▉  | 238/300 [05:01<01:18,  1.27s/it]Train NLL: 14.751, Val NLL: 14.772:  80%|███████▉  | 239/300 [05:02<01:17,  1.26s/it]Train NLL: 14.773, Val NLL: 14.749:  80%|████████  | 240/300 [05:04<01:15,  1.26s/it]Train NLL: 14.741, Val NLL: 14.756:  80%|████████  | 241/300 [05:05<01:14,  1.26s/it]Train NLL: 14.751, Val NLL: 14.766:  81%|████████  | 242/300 [05:06<01:13,  1.27s/it]Train NLL: 14.769, Val NLL: 14.743:  81%|████████  | 243/300 [05:07<01:12,  1.27s/it]Train NLL: 14.766, Val NLL: 14.748:  81%|████████▏ | 244/300 [05:09<01:10,  1.26s/it]Train NLL: 14.741, Val NLL: 14.775:  82%|████████▏ | 245/300 [05:10<01:09,  1.26s/it]Train NLL: 14.743, Val NLL: 14.787:  82%|████████▏ | 246/300 [05:11<01:08,  1.27s/it]Train NLL: 14.729, Val NLL: 14.767:  82%|████████▏ | 247/300 [05:12<01:06,  1.26s/it]Train NLL: 14.746, Val NLL: 14.761:  83%|████████▎ | 248/300 [05:14<01:05,  1.26s/it]Train NLL: 14.735, Val NLL: 14.716:  83%|████████▎ | 249/300 [05:15<01:04,  1.26s/it]Train NLL: 14.720, Val NLL: 14.740:  83%|████████▎ | 250/300 [05:16<01:02,  1.26s/it]Train NLL: 14.727, Val NLL: 14.760:  84%|████████▎ | 251/300 [05:18<01:01,  1.26s/it]Train NLL: 14.753, Val NLL: 14.783:  84%|████████▍ | 252/300 [05:19<01:00,  1.27s/it]Train NLL: 14.740, Val NLL: 14.764:  84%|████████▍ | 253/300 [05:20<00:59,  1.27s/it]Train NLL: 14.721, Val NLL: 14.733:  85%|████████▍ | 254/300 [05:21<00:58,  1.26s/it]Train NLL: 14.726, Val NLL: 14.762:  85%|████████▌ | 255/300 [05:23<00:56,  1.27s/it]Train NLL: 14.742, Val NLL: 14.720:  85%|████████▌ | 256/300 [05:24<00:55,  1.27s/it]Train NLL: 14.717, Val NLL: 14.712:  86%|████████▌ | 257/300 [05:25<00:54,  1.27s/it]Train NLL: 14.731, Val NLL: 14.757:  86%|████████▌ | 258/300 [05:26<00:53,  1.26s/it]Train NLL: 14.731, Val NLL: 14.729:  86%|████████▋ | 259/300 [05:28<00:51,  1.26s/it]Train NLL: 14.712, Val NLL: 14.718:  87%|████████▋ | 260/300 [05:29<00:50,  1.26s/it]Train NLL: 14.722, Val NLL: 14.761:  87%|████████▋ | 261/300 [05:30<00:49,  1.26s/it]Train NLL: 14.725, Val NLL: 14.774:  87%|████████▋ | 262/300 [05:31<00:48,  1.27s/it]Train NLL: 14.730, Val NLL: 14.743:  88%|████████▊ | 263/300 [05:33<00:46,  1.26s/it]Train NLL: 14.709, Val NLL: 14.845:  88%|████████▊ | 264/300 [05:34<00:45,  1.26s/it]Train NLL: 14.719, Val NLL: 14.759:  88%|████████▊ | 265/300 [05:35<00:44,  1.26s/it]Train NLL: 14.724, Val NLL: 14.782:  89%|████████▊ | 266/300 [05:36<00:42,  1.26s/it]Train NLL: 14.711, Val NLL: 14.726:  89%|████████▉ | 267/300 [05:38<00:41,  1.26s/it]Train NLL: 14.736, Val NLL: 14.687:  89%|████████▉ | 268/300 [05:39<00:40,  1.26s/it]Train NLL: 14.708, Val NLL: 14.716:  90%|████████▉ | 269/300 [05:40<00:39,  1.27s/it]Train NLL: 14.722, Val NLL: 14.753:  90%|█████████ | 270/300 [05:42<00:37,  1.27s/it]Train NLL: 14.704, Val NLL: 14.700:  90%|█████████ | 271/300 [05:43<00:36,  1.26s/it]Train NLL: 14.696, Val NLL: 14.798:  91%|█████████ | 272/300 [05:44<00:35,  1.26s/it]Train NLL: 14.723, Val NLL: 14.710:  91%|█████████ | 273/300 [05:45<00:34,  1.27s/it]Train NLL: 14.698, Val NLL: 14.733:  91%|█████████▏| 274/300 [05:47<00:32,  1.27s/it]Train NLL: 14.706, Val NLL: 14.765:  92%|█████████▏| 275/300 [05:48<00:31,  1.26s/it]Train NLL: 14.708, Val NLL: 14.691:  92%|█████████▏| 276/300 [05:49<00:30,  1.26s/it]Train NLL: 14.713, Val NLL: 14.703:  92%|█████████▏| 277/300 [05:50<00:29,  1.27s/it]Train NLL: 14.699, Val NLL: 14.678:  93%|█████████▎| 278/300 [05:52<00:27,  1.27s/it]Train NLL: 14.692, Val NLL: 14.693:  93%|█████████▎| 279/300 [05:53<00:26,  1.26s/it]Train NLL: 14.694, Val NLL: 14.687:  93%|█████████▎| 280/300 [05:54<00:25,  1.26s/it]Train NLL: 14.692, Val NLL: 14.733:  94%|█████████▎| 281/300 [05:55<00:23,  1.26s/it]Train NLL: 14.694, Val NLL: 14.795:  94%|█████████▍| 282/300 [05:57<00:22,  1.27s/it]Train NLL: 14.697, Val NLL: 14.748:  94%|█████████▍| 283/300 [05:58<00:21,  1.27s/it]Train NLL: 14.701, Val NLL: 14.708:  95%|█████████▍| 284/300 [05:59<00:20,  1.27s/it]Train NLL: 14.698, Val NLL: 14.699:  95%|█████████▌| 285/300 [06:01<00:19,  1.28s/it]Train NLL: 14.694, Val NLL: 14.735:  95%|█████████▌| 286/300 [06:02<00:18,  1.29s/it]Train NLL: 14.708, Val NLL: 14.703:  96%|█████████▌| 287/300 [06:03<00:16,  1.29s/it]Train NLL: 14.685, Val NLL: 14.671:  96%|█████████▌| 288/300 [06:04<00:15,  1.28s/it]Train NLL: 14.688, Val NLL: 14.694:  96%|█████████▋| 289/300 [06:06<00:14,  1.28s/it]Train NLL: 14.691, Val NLL: 14.692:  97%|█████████▋| 290/300 [06:07<00:12,  1.29s/it]Train NLL: 14.673, Val NLL: 14.700:  97%|█████████▋| 291/300 [06:08<00:11,  1.30s/it]Train NLL: 14.694, Val NLL: 14.731:  97%|█████████▋| 292/300 [06:10<00:10,  1.32s/it]Train NLL: 14.699, Val NLL: 14.719:  98%|█████████▊| 293/300 [06:11<00:09,  1.31s/it]Train NLL: 14.700, Val NLL: 14.790:  98%|█████████▊| 294/300 [06:12<00:07,  1.30s/it]Train NLL: 14.692, Val NLL: 14.669:  98%|█████████▊| 295/300 [06:14<00:06,  1.28s/it]Train NLL: 14.683, Val NLL: 14.777:  99%|█████████▊| 296/300 [06:15<00:05,  1.28s/it]Train NLL: 14.666, Val NLL: 14.681:  99%|█████████▉| 297/300 [06:16<00:03,  1.29s/it]Train NLL: 14.682, Val NLL: 14.682:  99%|█████████▉| 298/300 [06:17<00:02,  1.28s/it]Train NLL: 14.669, Val NLL: 14.678: 100%|█████████▉| 299/300 [06:19<00:01,  1.29s/it]Train NLL: 14.668, Val NLL: 14.725: 100%|██████████| 300/300 [06:20<00:00,  1.29s/it]Train NLL: 14.668, Val NLL: 14.725: 100%|██████████| 300/300 [06:20<00:00,  1.27s/it]
