INFO - residual_nf - Running command 'run'
INFO - residual_nf - Started run with ID "1"
[CONFIG] {'bn': 'mehra-real', 'structure': 'faithful', 'coeff': 0.99, 'n_power_iterations': 5, 'num_blocks': 1, 'hidden_dims': [100], 'activation': 'lipmish', 'grad_in_forward': True, 'batch_size': 100, 'num_train_samples': 10000, 'num_val_samples': 5000, 'num_epochs': 400, 'num_train_batches': 100, 'num_val_batches': 50, 'lr': 0.01, 'seed': 0, 'patience': 20, 'ex_name': 'residual_nf_density_estimation', 'sub_folder': 'faithful_99_lipmish_1_[100]', 'path': './experiment_logs/residual_nf_density_estimation/mehra-real/faithful_99_lipmish_1_[100]', 'bt_config': {'depth': 5, 'seed': 4}}
[LOADING DATA] Mehra
[ENCODED STRUCTURE] Using faithful BN structure.
  0%|          | 0/400 [00:00<?, ?it/s]Train NLL: 12.567, Val NLL: 12.439:   1%|▏         | 5/400 [00:01<01:42,  3.87it/s]Train NLL: 12.507, Val NLL: 12.323:   2%|▏         | 9/400 [00:02<01:53,  3.44it/s]Train NLL: 12.482, Val NLL: 12.349:   3%|▎         | 13/400 [00:03<01:52,  3.45it/s]Train NLL: 12.478, Val NLL: 12.359:   4%|▍         | 17/400 [00:05<02:10,  2.94it/s]Train NLL: 12.455, Val NLL: 12.334:   5%|▌         | 21/400 [00:07<02:30,  2.52it/s]Train NLL: 12.475, Val NLL: 12.340:   6%|▋         | 25/400 [00:08<02:11,  2.86it/s]Train NLL: 12.439, Val NLL: 12.234:   7%|▋         | 29/400 [00:09<01:58,  3.13it/s]Train NLL: 12.452, Val NLL: 12.250:   8%|▊         | 34/400 [00:10<01:41,  3.61it/s]Train NLL: 12.434, Val NLL: 12.301:  10%|▉         | 39/400 [00:11<01:32,  3.89it/s]Train NLL: 12.437, Val NLL: 12.271:  11%|█         | 44/400 [00:12<01:26,  4.09it/s]Train NLL: 12.442, Val NLL: 12.302:  12%|█▏        | 49/400 [00:13<01:23,  4.19it/s]Train NLL: 12.452, Val NLL: 12.269:  14%|█▎        | 54/400 [00:15<01:23,  4.13it/s]Train NLL: 12.436, Val NLL: 12.221:  15%|█▍        | 59/400 [00:16<01:20,  4.26it/s]Train NLL: 12.434, Val NLL: 12.251:  16%|█▌        | 64/400 [00:17<01:17,  4.35it/s]Train NLL: 12.425, Val NLL: 12.261:  17%|█▋        | 69/400 [00:18<01:17,  4.25it/s]Train NLL: 12.425, Val NLL: 12.236:  18%|█▊        | 74/400 [00:19<01:16,  4.26it/s]Train NLL: 12.431, Val NLL: 12.264:  20%|█▉        | 79/400 [00:20<01:12,  4.42it/s]Train NLL: 12.433, Val NLL: 12.220:  21%|██        | 84/400 [00:21<01:11,  4.39it/s]Train NLL: 12.427, Val NLL: 12.253:  22%|██▏       | 89/400 [00:22<01:09,  4.51it/s]Train NLL: 12.424, Val NLL: 12.255:  24%|██▎       | 94/400 [00:23<01:08,  4.49it/s]Train NLL: 12.413, Val NLL: 12.223:  25%|██▍       | 99/400 [00:25<01:11,  4.20it/s]Train NLL: 12.421, Val NLL: 12.223:  26%|██▌       | 104/400 [00:26<01:10,  4.23it/s]Train NLL: 12.418, Val NLL: 12.255:  27%|██▋       | 109/400 [00:27<01:09,  4.21it/s]Epoch   114: reducing learning rate of group 0 to 1.0000e-03.
Train NLL: 12.411, Val NLL: 12.252:  28%|██▊       | 114/400 [00:28<01:07,  4.22it/s]Train NLL: 12.379, Val NLL: 12.211:  30%|██▉       | 119/400 [00:30<01:07,  4.19it/s]Train NLL: 12.366, Val NLL: 12.187:  31%|███       | 124/400 [00:31<01:06,  4.15it/s]Train NLL: 12.366, Val NLL: 12.201:  32%|███▏      | 129/400 [00:32<01:05,  4.13it/s]Train NLL: 12.364, Val NLL: 12.192:  34%|███▎      | 134/400 [00:33<01:02,  4.23it/s]Train NLL: 12.366, Val NLL: 12.198:  35%|███▍      | 139/400 [00:34<01:03,  4.10it/s]Train NLL: 12.363, Val NLL: 12.205:  36%|███▌      | 144/400 [00:36<01:03,  4.02it/s]Epoch   147: reducing learning rate of group 0 to 1.0000e-04.
Train NLL: 12.370, Val NLL: 12.202:  37%|███▋      | 149/400 [00:37<01:04,  3.92it/s]Train NLL: 12.358, Val NLL: 12.190:  38%|███▊      | 153/400 [00:38<01:02,  3.93it/s]Train NLL: 12.357, Val NLL: 12.189:  40%|███▉      | 158/400 [00:39<01:01,  3.95it/s]Train NLL: 12.357, Val NLL: 12.190:  41%|████      | 163/400 [00:40<00:57,  4.15it/s]Train NLL: 12.357, Val NLL: 12.192:  42%|████▏     | 168/400 [00:42<00:53,  4.30it/s]Train NLL: 12.357, Val NLL: 12.185:  43%|████▎     | 173/400 [00:43<00:54,  4.13it/s]Train NLL: 12.358, Val NLL: 12.189:  44%|████▍     | 178/400 [00:44<00:57,  3.89it/s]Train NLL: 12.356, Val NLL: 12.188:  46%|████▌     | 182/400 [00:45<00:57,  3.80it/s]Train NLL: 12.357, Val NLL: 12.190:  46%|████▋     | 186/400 [00:46<00:55,  3.83it/s]Train NLL: 12.357, Val NLL: 12.187:  48%|████▊     | 190/400 [00:48<00:55,  3.79it/s]Epoch   193: reducing learning rate of group 0 to 1.0000e-05.
Train NLL: 12.359, Val NLL: 12.190:  49%|████▉     | 195/400 [00:49<00:53,  3.81it/s]Train NLL: 12.357, Val NLL: 12.188:  50%|█████     | 200/400 [00:50<00:49,  4.02it/s]Train NLL: 12.356, Val NLL: 12.188:  51%|█████▏    | 205/400 [00:51<00:47,  4.12it/s]Train NLL: 12.356, Val NLL: 12.187:  52%|█████▎    | 210/400 [00:52<00:45,  4.18it/s]Epoch   214: reducing learning rate of group 0 to 1.0000e-06.
Train NLL: 12.355, Val NLL: 12.188:  54%|█████▍    | 215/400 [00:54<00:45,  4.08it/s]Train NLL: 12.357, Val NLL: 12.188:  55%|█████▌    | 220/400 [00:55<00:45,  3.96it/s]Train NLL: 12.356, Val NLL: 12.188:  56%|█████▌    | 224/400 [00:56<00:44,  3.92it/s]Train NLL: 12.356, Val NLL: 12.187:  57%|█████▋    | 228/400 [00:57<00:44,  3.87it/s]Train NLL: 12.356, Val NLL: 12.188:  58%|█████▊    | 232/400 [00:58<00:43,  3.83it/s]Train NLL: 12.356, Val NLL: 12.187:  59%|█████▉    | 236/400 [00:59<00:42,  3.85it/s]Train NLL: 12.355, Val NLL: 12.187:  60%|██████    | 241/400 [01:00<00:40,  3.93it/s]Train NLL: 12.355, Val NLL: 12.187:  62%|██████▏   | 246/400 [01:01<00:37,  4.09it/s]Train NLL: 12.356, Val NLL: 12.188:  63%|██████▎   | 251/400 [01:02<00:34,  4.34it/s]Train NLL: 12.356, Val NLL: 12.187:  64%|██████▍   | 256/400 [01:04<00:32,  4.46it/s]Train NLL: 12.355, Val NLL: 12.187:  65%|██████▌   | 261/400 [01:05<00:31,  4.43it/s]Train NLL: 12.355, Val NLL: 12.187:  66%|██████▋   | 266/400 [01:06<00:30,  4.42it/s]Train NLL: 12.355, Val NLL: 12.187:  68%|██████▊   | 271/400 [01:07<00:29,  4.41it/s]Train NLL: 12.355, Val NLL: 12.187:  69%|██████▉   | 276/400 [01:08<00:27,  4.45it/s]Train NLL: 12.355, Val NLL: 12.187:  70%|███████   | 281/400 [01:09<00:25,  4.59it/s]Train NLL: 12.355, Val NLL: 12.187:  72%|███████▏  | 286/400 [01:10<00:25,  4.42it/s]Train NLL: 12.355, Val NLL: 12.187:  73%|███████▎  | 291/400 [01:12<00:25,  4.29it/s]Train NLL: 12.355, Val NLL: 12.187:  74%|███████▍  | 296/400 [01:13<00:24,  4.33it/s]Train NLL: 12.355, Val NLL: 12.187:  75%|███████▌  | 301/400 [01:14<00:22,  4.44it/s]Train NLL: 12.356, Val NLL: 12.187:  76%|███████▋  | 306/400 [01:15<00:20,  4.50it/s]Train NLL: 12.355, Val NLL: 12.187:  78%|███████▊  | 311/400 [01:16<00:20,  4.41it/s]Train NLL: 12.355, Val NLL: 12.187:  79%|███████▉  | 316/400 [01:17<00:19,  4.28it/s]Train NLL: 12.355, Val NLL: 12.187:  80%|████████  | 321/400 [01:19<00:19,  4.14it/s]Train NLL: 12.355, Val NLL: 12.187:  82%|████████▏ | 326/400 [01:20<00:17,  4.18it/s]Train NLL: 12.355, Val NLL: 12.187:  83%|████████▎ | 331/400 [01:21<00:17,  3.97it/s]Train NLL: 12.355, Val NLL: 12.187:  84%|████████▍ | 336/400 [01:22<00:16,  3.89it/s]Train NLL: 12.355, Val NLL: 12.187:  85%|████████▌ | 340/400 [01:24<00:15,  3.76it/s]Train NLL: 12.355, Val NLL: 12.187:  86%|████████▌ | 344/400 [01:25<00:15,  3.73it/s]Train NLL: 12.355, Val NLL: 12.187:  88%|████████▊ | 350/400 [01:26<00:12,  4.11it/s]Train NLL: 12.355, Val NLL: 12.187:  89%|████████▉ | 356/400 [01:27<00:10,  4.38it/s]Train NLL: 12.355, Val NLL: 12.187:  90%|█████████ | 361/400 [01:28<00:08,  4.53it/s]Train NLL: 12.355, Val NLL: 12.187:  92%|█████████▏| 366/400 [01:29<00:07,  4.51it/s]Train NLL: 12.355, Val NLL: 12.187:  93%|█████████▎| 371/400 [01:30<00:06,  4.59it/s]Train NLL: 12.355, Val NLL: 12.187:  94%|█████████▍| 376/400 [01:31<00:05,  4.64it/s]Train NLL: 12.355, Val NLL: 12.187:  95%|█████████▌| 381/400 [01:32<00:04,  4.68it/s]Train NLL: 12.355, Val NLL: 12.187:  96%|█████████▋| 386/400 [01:33<00:03,  4.65it/s]Train NLL: 12.355, Val NLL: 12.187:  98%|█████████▊| 391/400 [01:35<00:02,  4.21it/s]Train NLL: 12.355, Val NLL: 12.187:  99%|█████████▉| 396/400 [01:36<00:00,  4.37it/s]Train NLL: 12.355, Val NLL: 12.187: 100%|██████████| 400/400 [01:37<00:00,  4.11it/s]
INFO - residual_nf - Completed after 0:01:37
