{
  "train": {
    "steps": [
      0,
      1,
      2,
      3,
      4,
      5,
      6,
      7,
      8,
      9,
      10,
      11,
      12,
      13,
      14,
      15,
      16,
      17,
      18,
      19,
      20,
      21,
      22,
      23,
      24,
      25,
      26,
      27,
      28,
      29,
      30,
      31,
      32,
      33,
      34,
      35,
      36,
      37,
      38,
      39,
      40,
      41,
      42,
      43,
      44,
      45,
      46,
      47,
      48,
      49,
      50,
      51,
      52,
      53,
      54,
      55,
      56,
      57,
      58,
      59,
      60,
      61,
      62,
      63,
      64,
      65,
      66,
      67,
      68,
      69,
      70,
      71,
      72,
      73,
      74,
      75,
      76,
      77,
      78,
      79,
      80,
      81,
      82,
      83,
      84,
      85,
      86,
      87,
      88,
      89,
      90,
      91,
      92,
      93,
      94,
      95,
      96,
      97,
      98,
      99,
      100,
      101,
      102,
      103,
      104,
      105,
      106,
      107,
      108,
      109,
      110,
      111,
      112,
      113,
      114,
      115,
      116,
      117,
      118,
      119,
      120,
      121,
      122,
      123,
      124,
      125,
      126,
      127,
      128,
      129,
      130,
      131,
      132,
      133,
      134,
      135,
      136,
      137,
      138,
      139,
      140,
      141,
      142,
      143,
      144,
      145,
      146,
      147,
      148,
      149,
      150,
      151,
      152,
      153,
      154,
      155,
      156,
      157,
      158,
      159,
      160,
      161,
      162,
      163,
      164,
      165,
      166,
      167,
      168,
      169,
      170,
      171,
      172,
      173,
      174,
      175,
      176,
      177,
      178,
      179,
      180,
      181,
      182,
      183,
      184,
      185,
      186,
      187,
      188,
      189,
      190,
      191,
      192,
      193,
      194,
      195,
      196,
      197,
      198,
      199
    ],
    "timestamps": [
      "2022-11-11T13:06:49.739494",
      "2022-11-11T13:06:49.784410",
      "2022-11-11T13:06:49.842499",
      "2022-11-11T13:06:49.898150",
      "2022-11-11T13:06:49.953430",
      "2022-11-11T13:06:49.998913",
      "2022-11-11T13:06:50.041786",
      "2022-11-11T13:06:50.087398",
      "2022-11-11T13:06:50.130041",
      "2022-11-11T13:06:50.171581",
      "2022-11-11T13:06:50.216185",
      "2022-11-11T13:06:50.259126",
      "2022-11-11T13:06:50.299987",
      "2022-11-11T13:06:50.342415",
      "2022-11-11T13:06:50.392130",
      "2022-11-11T13:06:50.436600",
      "2022-11-11T13:06:50.486369",
      "2022-11-11T13:06:50.538756",
      "2022-11-11T13:06:50.612192",
      "2022-11-11T13:06:50.682844",
      "2022-11-11T13:06:50.747877",
      "2022-11-11T13:06:50.811736",
      "2022-11-11T13:06:50.874523",
      "2022-11-11T13:06:50.943885",
      "2022-11-11T13:06:51.004342",
      "2022-11-11T13:06:51.067567",
      "2022-11-11T13:06:51.129355",
      "2022-11-11T13:06:51.195494",
      "2022-11-11T13:06:51.256622",
      "2022-11-11T13:06:51.314104",
      "2022-11-11T13:06:51.374004",
      "2022-11-11T13:06:51.434991",
      "2022-11-11T13:06:51.487965",
      "2022-11-11T13:06:51.544599",
      "2022-11-11T13:06:51.600631",
      "2022-11-11T13:06:51.642451",
      "2022-11-11T13:06:51.688751",
      "2022-11-11T13:06:51.729918",
      "2022-11-11T13:06:51.768031",
      "2022-11-11T13:06:51.805757",
      "2022-11-11T13:06:51.844984",
      "2022-11-11T13:06:51.882873",
      "2022-11-11T13:06:51.923514",
      "2022-11-11T13:06:51.963634",
      "2022-11-11T13:06:52.003085",
      "2022-11-11T13:06:52.041036",
      "2022-11-11T13:06:52.078912",
      "2022-11-11T13:06:52.116412",
      "2022-11-11T13:06:52.154078",
      "2022-11-11T13:06:52.191932",
      "2022-11-11T13:06:52.231355",
      "2022-11-11T13:06:52.268867",
      "2022-11-11T13:06:52.306349",
      "2022-11-11T13:06:52.344094",
      "2022-11-11T13:06:52.381552",
      "2022-11-11T13:06:52.421694",
      "2022-11-11T13:06:52.459353",
      "2022-11-11T13:06:52.496814",
      "2022-11-11T13:06:52.534265",
      "2022-11-11T13:06:52.592637",
      "2022-11-11T13:06:52.656274",
      "2022-11-11T13:06:52.714742",
      "2022-11-11T13:06:52.781215",
      "2022-11-11T13:06:52.849471",
      "2022-11-11T13:06:52.900293",
      "2022-11-11T13:06:52.958381",
      "2022-11-11T13:06:53.015272",
      "2022-11-11T13:06:53.070548",
      "2022-11-11T13:06:53.129033",
      "2022-11-11T13:06:53.186613",
      "2022-11-11T13:06:53.240767",
      "2022-11-11T13:06:53.304105",
      "2022-11-11T13:06:53.362525",
      "2022-11-11T13:06:53.424221",
      "2022-11-11T13:06:53.482174",
      "2022-11-11T13:06:53.533178",
      "2022-11-11T13:06:53.576025",
      "2022-11-11T13:06:53.613744",
      "2022-11-11T13:06:53.653131",
      "2022-11-11T13:06:53.690920",
      "2022-11-11T13:06:53.730070",
      "2022-11-11T13:06:53.768342",
      "2022-11-11T13:06:53.806745",
      "2022-11-11T13:06:53.844443",
      "2022-11-11T13:06:53.882311",
      "2022-11-11T13:06:53.920072",
      "2022-11-11T13:06:53.957620",
      "2022-11-11T13:06:53.994984",
      "2022-11-11T13:06:54.032707",
      "2022-11-11T13:06:54.070374",
      "2022-11-11T13:06:54.109766",
      "2022-11-11T13:06:54.148725",
      "2022-11-11T13:06:54.188292",
      "2022-11-11T13:06:54.225757",
      "2022-11-11T13:06:54.263336",
      "2022-11-11T13:06:54.300691",
      "2022-11-11T13:06:54.338171",
      "2022-11-11T13:06:54.375655",
      "2022-11-11T13:06:54.413356",
      "2022-11-11T13:06:54.451292",
      "2022-11-11T13:06:54.490669",
      "2022-11-11T13:06:54.530412",
      "2022-11-11T13:06:54.568444",
      "2022-11-11T13:06:54.614748",
      "2022-11-11T13:06:54.654795",
      "2022-11-11T13:06:54.692654",
      "2022-11-11T13:06:54.731114",
      "2022-11-11T13:06:54.769440",
      "2022-11-11T13:06:54.811060",
      "2022-11-11T13:06:54.851205",
      "2022-11-11T13:06:54.891577",
      "2022-11-11T13:06:54.931259",
      "2022-11-11T13:06:54.974136",
      "2022-11-11T13:06:55.017142",
      "2022-11-11T13:06:55.055091",
      "2022-11-11T13:06:55.095322",
      "2022-11-11T13:06:55.133987",
      "2022-11-11T13:06:55.175422",
      "2022-11-11T13:06:55.216886",
      "2022-11-11T13:06:55.257069",
      "2022-11-11T13:06:55.296232",
      "2022-11-11T13:06:55.334712",
      "2022-11-11T13:06:55.376300",
      "2022-11-11T13:06:55.414655",
      "2022-11-11T13:06:55.453075",
      "2022-11-11T13:06:55.490791",
      "2022-11-11T13:06:55.532832",
      "2022-11-11T13:06:55.573304",
      "2022-11-11T13:06:55.614316",
      "2022-11-11T13:06:55.652546",
      "2022-11-11T13:06:55.692385",
      "2022-11-11T13:06:55.730063",
      "2022-11-11T13:06:55.767745",
      "2022-11-11T13:06:55.805844",
      "2022-11-11T13:06:55.844403",
      "2022-11-11T13:06:55.882667",
      "2022-11-11T13:06:55.920515",
      "2022-11-11T13:06:55.965876",
      "2022-11-11T13:06:56.007725",
      "2022-11-11T13:06:56.047297",
      "2022-11-11T13:06:56.087352",
      "2022-11-11T13:06:56.125343",
      "2022-11-11T13:06:56.163430",
      "2022-11-11T13:06:56.201561",
      "2022-11-11T13:06:56.239627",
      "2022-11-11T13:06:56.277444",
      "2022-11-11T13:06:56.315444",
      "2022-11-11T13:06:56.353321",
      "2022-11-11T13:06:56.391297",
      "2022-11-11T13:06:56.429571",
      "2022-11-11T13:06:56.470092",
      "2022-11-11T13:06:56.508161",
      "2022-11-11T13:06:56.548098",
      "2022-11-11T13:06:56.585861",
      "2022-11-11T13:06:56.625214",
      "2022-11-11T13:06:56.679373",
      "2022-11-11T13:06:56.740394",
      "2022-11-11T13:06:56.792133",
      "2022-11-11T13:06:56.848853",
      "2022-11-11T13:06:56.904847",
      "2022-11-11T13:06:56.962980",
      "2022-11-11T13:06:57.023955",
      "2022-11-11T13:06:57.075374",
      "2022-11-11T13:06:57.133513",
      "2022-11-11T13:06:57.188469",
      "2022-11-11T13:06:57.247403",
      "2022-11-11T13:06:57.300963",
      "2022-11-11T13:06:57.356844",
      "2022-11-11T13:06:57.417883",
      "2022-11-11T13:06:57.475190",
      "2022-11-11T13:06:57.534941",
      "2022-11-11T13:06:57.591955",
      "2022-11-11T13:06:57.646089",
      "2022-11-11T13:06:57.691666",
      "2022-11-11T13:06:57.729418",
      "2022-11-11T13:06:57.770852",
      "2022-11-11T13:06:57.817935",
      "2022-11-11T13:06:57.855535",
      "2022-11-11T13:06:57.892914",
      "2022-11-11T13:06:57.930440",
      "2022-11-11T13:06:57.973815",
      "2022-11-11T13:06:58.011575",
      "2022-11-11T13:06:58.048979",
      "2022-11-11T13:06:58.086433",
      "2022-11-11T13:06:58.123916",
      "2022-11-11T13:06:58.161283",
      "2022-11-11T13:06:58.198600",
      "2022-11-11T13:06:58.240462",
      "2022-11-11T13:06:58.278775",
      "2022-11-11T13:06:58.316522",
      "2022-11-11T13:06:58.364222",
      "2022-11-11T13:06:58.409499",
      "2022-11-11T13:06:58.448533",
      "2022-11-11T13:06:58.486895",
      "2022-11-11T13:06:58.524564",
      "2022-11-11T13:06:58.562018",
      "2022-11-11T13:06:58.599616",
      "2022-11-11T13:06:58.636931",
      "2022-11-11T13:06:58.676253",
      "2022-11-11T13:06:58.716538"
    ],
    "values": [
      10.724733001562036,
      10.2018264618089,
      10.10543229460766,
      9.955575251075556,
      9.86748169500865,
      9.763936393167219,
      9.676167672952873,
      9.6505214735176,
      9.567647091488496,
      9.507708249963597,
      9.47131562698116,
      9.41202560393698,
      9.32487294938544,
      9.235570998711502,
      9.046602416314037,
      8.841854021093274,
      8.733615254048987,
      8.57793590100136,
      8.438944107780593,
      8.41186033545043,
      8.320888054373551,
      8.284157423144427,
      8.384636255098002,
      8.19598516208018,
      8.162318699779316,
      8.062059310223573,
      8.072284345952465,
      8.038230130943123,
      8.070960538122627,
      8.082534896857032,
      8.00011459474512,
      7.993505275002613,
      7.935895666355137,
      7.931926692105074,
      7.9609542640378175,
      7.9347143445972055,
      7.964557258477558,
      7.966532975015951,
      7.890385779750136,
      7.92607326503479,
      7.840582394791172,
      7.911067384745406,
      7.7899669026573815,
      7.792884729993947,
      7.824065919017904,
      7.835544740754638,
      7.888578440678393,
      7.780081197530962,
      7.840417191017275,
      7.834512508500067,
      7.7827682661146005,
      7.756462605569071,
      7.748543470896682,
      7.834083226162808,
      7.768758305444521,
      7.750696785948984,
      7.706029220252669,
      7.764505980616555,
      7.747229964044043,
      7.741056108554456,
      7.76110340905763,
      7.761864842518775,
      7.779537658034688,
      7.719697537517722,
      7.731192484330242,
      7.75781420578109,
      7.685371803752201,
      7.706788979506711,
      7.705670468629102,
      7.661992555608647,
      7.658435994012632,
      7.680173125944797,
      7.6919050612101865,
      7.705543698488034,
      7.68518751530368,
      7.672457530206,
      7.75289002185465,
      7.760027327273791,
      7.616891963159736,
      7.591137895352854,
      7.674922402223459,
      7.598275050030978,
      7.618009992092296,
      7.641220461438143,
      7.597787843426067,
      7.585487776678255,
      7.6458131884459695,
      7.608179886391094,
      7.573092985368433,
      7.621965121822858,
      7.628489987880041,
      7.542266055904107,
      7.577824696753168,
      7.58624167890554,
      7.605898740723871,
      7.60089699069961,
      7.6331272348296455,
      7.598638811542443,
      7.559788728706101,
      7.586686188877271,
      7.58765546696177,
      7.619178800346875,
      7.6196778198733774,
      7.544558151070458,
      7.519790166865851,
      7.507834215156786,
      7.540427810163106,
      7.473339209279934,
      7.552931649001256,
      7.496184829083503,
      7.507962522827991,
      7.5129302729755345,
      7.488061276490879,
      7.514032380283126,
      7.440813808662573,
      7.560068691141877,
      7.478454163819664,
      7.484429359203279,
      7.531802192561403,
      7.49418268715179,
      7.5205123225157635,
      7.446330759772457,
      7.527162844673022,
      7.476260714070423,
      7.482087291803748,
      7.4937097978892995,
      7.511703908793634,
      7.486988393037122,
      7.528701070372883,
      7.452108960990442,
      7.511653823235482,
      7.495950785264661,
      7.525085630476994,
      7.475372345901978,
      7.477591123402379,
      7.5060048421782275,
      7.4728714621972365,
      7.503215576282389,
      7.47579103606719,
      7.465889081211995,
      7.475092968824013,
      7.487856866490157,
      7.461887260935508,
      7.512725722748083,
      7.474153966441065,
      7.477414864143464,
      7.486343524182086,
      7.466948068404294,
      7.520206454794381,
      7.480196932298445,
      7.493887862122533,
      7.509850609098353,
      7.468115643885246,
      7.476646721362679,
      7.50102741455988,
      7.46335315822676,
      7.469972982772178,
      7.5168279513597565,
      7.510699318459739,
      7.507209589102291,
      7.461962290484564,
      7.516545804227241,
      7.44833659441176,
      7.5027844305785685,
      7.4370742623948605,
      7.4914889149598896,
      7.487587541461395,
      7.487815985014525,
      7.51729848110474,
      7.515414434648851,
      7.508624093287284,
      7.476185285985666,
      7.501602801130993,
      7.501195026635512,
      7.503265440185059,
      7.5340678244284485,
      7.491425712314318,
      7.486432600639026,
      7.500435926724956,
      7.508721473219297,
      7.452221532833948,
      7.505340421194467,
      7.4734597145616535,
      7.495567372464462,
      7.514363965056005,
      7.470479235938099,
      7.4675743667785,
      7.425605968273879,
      7.516038768218608,
      7.489906852742824,
      7.5157560588784245,
      7.476370957707196,
      7.528122899913072,
      7.484425106984213,
      7.4870118285497025,
      7.487559070809707,
      7.497711573251982,
      7.490122074077889,
      7.548406627029605,
      7.4857520088305485
    ]
  },
  "val": {
    "steps": [
      0,
      1,
      2,
      3,
      4,
      5,
      6,
      7,
      8,
      9,
      10,
      11,
      12,
      13,
      14,
      15,
      16,
      17,
      18,
      19,
      20,
      21,
      22,
      23,
      24,
      25,
      26,
      27,
      28,
      29,
      30,
      31,
      32,
      33,
      34,
      35,
      36,
      37,
      38,
      39,
      40,
      41,
      42,
      43,
      44,
      45,
      46,
      47,
      48,
      49,
      50,
      51,
      52,
      53,
      54,
      55,
      56,
      57,
      58,
      59,
      60,
      61,
      62,
      63,
      64,
      65,
      66,
      67,
      68,
      69,
      70,
      71,
      72,
      73,
      74,
      75,
      76,
      77,
      78,
      79,
      80,
      81,
      82,
      83,
      84,
      85,
      86,
      87,
      88,
      89,
      90,
      91,
      92,
      93,
      94,
      95,
      96,
      97,
      98,
      99,
      100,
      101,
      102,
      103,
      104,
      105,
      106,
      107,
      108,
      109,
      110,
      111,
      112,
      113,
      114,
      115,
      116,
      117,
      118,
      119,
      120,
      121,
      122,
      123,
      124,
      125,
      126,
      127,
      128,
      129,
      130,
      131,
      132,
      133,
      134,
      135,
      136,
      137,
      138,
      139,
      140,
      141,
      142,
      143,
      144,
      145,
      146,
      147,
      148,
      149,
      150,
      151,
      152,
      153,
      154,
      155,
      156,
      157,
      158,
      159,
      160,
      161,
      162,
      163,
      164,
      165,
      166,
      167,
      168,
      169,
      170,
      171,
      172,
      173,
      174,
      175,
      176,
      177,
      178,
      179,
      180,
      181,
      182,
      183,
      184,
      185,
      186,
      187,
      188,
      189,
      190,
      191,
      192,
      193,
      194,
      195,
      196,
      197,
      198,
      199
    ],
    "timestamps": [
      "2022-11-11T13:06:49.749224",
      "2022-11-11T13:06:49.797965",
      "2022-11-11T13:06:49.855414",
      "2022-11-11T13:06:49.910909",
      "2022-11-11T13:06:49.964146",
      "2022-11-11T13:06:50.007413",
      "2022-11-11T13:06:50.050670",
      "2022-11-11T13:06:50.096153",
      "2022-11-11T13:06:50.138499",
      "2022-11-11T13:06:50.180541",
      "2022-11-11T13:06:50.224619",
      "2022-11-11T13:06:50.267547",
      "2022-11-11T13:06:50.308327",
      "2022-11-11T13:06:50.351705",
      "2022-11-11T13:06:50.402390",
      "2022-11-11T13:06:50.445286",
      "2022-11-11T13:06:50.495108",
      "2022-11-11T13:06:50.550808",
      "2022-11-11T13:06:50.622572",
      "2022-11-11T13:06:50.700165",
      "2022-11-11T13:06:50.761631",
      "2022-11-11T13:06:50.829985",
      "2022-11-11T13:06:50.890468",
      "2022-11-11T13:06:50.953374",
      "2022-11-11T13:06:51.020724",
      "2022-11-11T13:06:51.079934",
      "2022-11-11T13:06:51.145328",
      "2022-11-11T13:06:51.212608",
      "2022-11-11T13:06:51.274233",
      "2022-11-11T13:06:51.328209",
      "2022-11-11T13:06:51.388548",
      "2022-11-11T13:06:51.444812",
      "2022-11-11T13:06:51.504392",
      "2022-11-11T13:06:51.561002",
      "2022-11-11T13:06:51.609374",
      "2022-11-11T13:06:51.651873",
      "2022-11-11T13:06:51.698661",
      "2022-11-11T13:06:51.738105",
      "2022-11-11T13:06:51.775973",
      "2022-11-11T13:06:51.813659",
      "2022-11-11T13:06:51.852983",
      "2022-11-11T13:06:51.890795",
      "2022-11-11T13:06:51.932370",
      "2022-11-11T13:06:51.973280",
      "2022-11-11T13:06:52.011020",
      "2022-11-11T13:06:52.049312",
      "2022-11-11T13:06:52.086816",
      "2022-11-11T13:06:52.124290",
      "2022-11-11T13:06:52.161982",
      "2022-11-11T13:06:52.199829",
      "2022-11-11T13:06:52.239281",
      "2022-11-11T13:06:52.276745",
      "2022-11-11T13:06:52.314224",
      "2022-11-11T13:06:52.351989",
      "2022-11-11T13:06:52.389417",
      "2022-11-11T13:06:52.429628",
      "2022-11-11T13:06:52.467218",
      "2022-11-11T13:06:52.504717",
      "2022-11-11T13:06:52.549360",
      "2022-11-11T13:06:52.609416",
      "2022-11-11T13:06:52.668240",
      "2022-11-11T13:06:52.734435",
      "2022-11-11T13:06:52.799955",
      "2022-11-11T13:06:52.857625",
      "2022-11-11T13:06:52.917010",
      "2022-11-11T13:06:52.969984",
      "2022-11-11T13:06:53.025167",
      "2022-11-11T13:06:53.087470",
      "2022-11-11T13:06:53.146771",
      "2022-11-11T13:06:53.195605",
      "2022-11-11T13:06:53.258643",
      "2022-11-11T13:06:53.315054",
      "2022-11-11T13:06:53.381083",
      "2022-11-11T13:06:53.438477",
      "2022-11-11T13:06:53.491107",
      "2022-11-11T13:06:53.546334",
      "2022-11-11T13:06:53.583901",
      "2022-11-11T13:06:53.621641",
      "2022-11-11T13:06:53.661017",
      "2022-11-11T13:06:53.698763",
      "2022-11-11T13:06:53.737946",
      "2022-11-11T13:06:53.776350",
      "2022-11-11T13:06:53.814650",
      "2022-11-11T13:06:53.852522",
      "2022-11-11T13:06:53.890300",
      "2022-11-11T13:06:53.927951",
      "2022-11-11T13:06:53.965473",
      "2022-11-11T13:06:54.002883",
      "2022-11-11T13:06:54.040512",
      "2022-11-11T13:06:54.078247",
      "2022-11-11T13:06:54.117624",
      "2022-11-11T13:06:54.156737",
      "2022-11-11T13:06:54.196223",
      "2022-11-11T13:06:54.233595",
      "2022-11-11T13:06:54.271232",
      "2022-11-11T13:06:54.308549",
      "2022-11-11T13:06:54.346091",
      "2022-11-11T13:06:54.383532",
      "2022-11-11T13:06:54.421211",
      "2022-11-11T13:06:54.459177",
      "2022-11-11T13:06:54.498489",
      "2022-11-11T13:06:54.538472",
      "2022-11-11T13:06:54.576308",
      "2022-11-11T13:06:54.624246",
      "2022-11-11T13:06:54.662660",
      "2022-11-11T13:06:54.700608",
      "2022-11-11T13:06:54.739030",
      "2022-11-11T13:06:54.777367",
      "2022-11-11T13:06:54.819240",
      "2022-11-11T13:06:54.859209",
      "2022-11-11T13:06:54.899615",
      "2022-11-11T13:06:54.939214",
      "2022-11-11T13:06:54.984204",
      "2022-11-11T13:06:55.025135",
      "2022-11-11T13:06:55.063033",
      "2022-11-11T13:06:55.103653",
      "2022-11-11T13:06:55.142014",
      "2022-11-11T13:06:55.183463",
      "2022-11-11T13:06:55.225469",
      "2022-11-11T13:06:55.264953",
      "2022-11-11T13:06:55.304166",
      "2022-11-11T13:06:55.345341",
      "2022-11-11T13:06:55.384299",
      "2022-11-11T13:06:55.422489",
      "2022-11-11T13:06:55.460984",
      "2022-11-11T13:06:55.498591",
      "2022-11-11T13:06:55.542437",
      "2022-11-11T13:06:55.582662",
      "2022-11-11T13:06:55.622339",
      "2022-11-11T13:06:55.660419",
      "2022-11-11T13:06:55.700284",
      "2022-11-11T13:06:55.737917",
      "2022-11-11T13:06:55.775704",
      "2022-11-11T13:06:55.813675",
      "2022-11-11T13:06:55.852508",
      "2022-11-11T13:06:55.890526",
      "2022-11-11T13:06:55.928394",
      "2022-11-11T13:06:55.975605",
      "2022-11-11T13:06:56.015707",
      "2022-11-11T13:06:56.055318",
      "2022-11-11T13:06:56.095251",
      "2022-11-11T13:06:56.133232",
      "2022-11-11T13:06:56.171467",
      "2022-11-11T13:06:56.209572",
      "2022-11-11T13:06:56.247598",
      "2022-11-11T13:06:56.285266",
      "2022-11-11T13:06:56.323309",
      "2022-11-11T13:06:56.361209",
      "2022-11-11T13:06:56.399194",
      "2022-11-11T13:06:56.437456",
      "2022-11-11T13:06:56.478010",
      "2022-11-11T13:06:56.516017",
      "2022-11-11T13:06:56.556098",
      "2022-11-11T13:06:56.593717",
      "2022-11-11T13:06:56.639138",
      "2022-11-11T13:06:56.696086",
      "2022-11-11T13:06:56.751717",
      "2022-11-11T13:06:56.807965",
      "2022-11-11T13:06:56.862544",
      "2022-11-11T13:06:56.921095",
      "2022-11-11T13:06:56.977209",
      "2022-11-11T13:06:57.036375",
      "2022-11-11T13:06:57.092787",
      "2022-11-11T13:06:57.147994",
      "2022-11-11T13:06:57.205773",
      "2022-11-11T13:06:57.260582",
      "2022-11-11T13:06:57.317106",
      "2022-11-11T13:06:57.375547",
      "2022-11-11T13:06:57.433272",
      "2022-11-11T13:06:57.492227",
      "2022-11-11T13:06:57.549552",
      "2022-11-11T13:06:57.607363",
      "2022-11-11T13:06:57.661173",
      "2022-11-11T13:06:57.699516",
      "2022-11-11T13:06:57.737324",
      "2022-11-11T13:06:57.779152",
      "2022-11-11T13:06:57.825875",
      "2022-11-11T13:06:57.863393",
      "2022-11-11T13:06:57.900768",
      "2022-11-11T13:06:57.938285",
      "2022-11-11T13:06:57.981962",
      "2022-11-11T13:06:58.019403",
      "2022-11-11T13:06:58.056808",
      "2022-11-11T13:06:58.094264",
      "2022-11-11T13:06:58.131734",
      "2022-11-11T13:06:58.169121",
      "2022-11-11T13:06:58.206431",
      "2022-11-11T13:06:58.248722",
      "2022-11-11T13:06:58.286650",
      "2022-11-11T13:06:58.324382",
      "2022-11-11T13:06:58.378373",
      "2022-11-11T13:06:58.417494",
      "2022-11-11T13:06:58.456550",
      "2022-11-11T13:06:58.495205",
      "2022-11-11T13:06:58.532429",
      "2022-11-11T13:06:58.569882",
      "2022-11-11T13:06:58.607458",
      "2022-11-11T13:06:58.645234",
      "2022-11-11T13:06:58.685261",
      "2022-11-11T13:06:58.724357"
    ],
    "values": [
      10.20993292457683,
      10.037802115486464,
      9.919525103140591,
      9.867275891388967,
      9.693622790408948,
      9.654288894000569,
      9.636126502832983,
      9.589659179055808,
      9.517695345325752,
      9.526625895653302,
      9.412439023648158,
      9.348232147901479,
      9.325060220609569,
      9.08640438109928,
      8.960971333863741,
      8.775330206487029,
      8.659826445109754,
      8.549833069663553,
      8.37436496258838,
      8.314394247833786,
      8.395850578419047,
      8.230627371027982,
      8.209888639526177,
      8.157338489743543,
      8.09360699768703,
      8.17272190751878,
      8.157977658158591,
      8.02875137891831,
      8.051975557409767,
      8.009559228598228,
      8.011682527049421,
      8.015430980695633,
      7.9292012728911745,
      7.957961443990181,
      7.948766369860847,
      7.960352866003772,
      8.019751600813475,
      7.915840931721678,
      7.8961215103152185,
      7.89271174793415,
      7.881064180768237,
      7.894066792352743,
      7.877895028312854,
      7.886644479988625,
      7.955596840924594,
      7.894283778522673,
      7.83171885742504,
      7.905709187735927,
      7.8595758920752985,
      7.9163425881074145,
      7.864476274206322,
      7.8071522873913946,
      7.75758623582035,
      7.83594442456958,
      7.818717579053176,
      7.812821417307525,
      7.808731095840723,
      7.788702963645065,
      7.774409695010965,
      7.800455017453382,
      7.809633879746528,
      7.820870808238652,
      7.829114111029021,
      7.7600412621979045,
      7.824887156171764,
      7.798363570602376,
      7.848024786470726,
      7.75875843588147,
      7.813722441551538,
      7.770469249002922,
      7.71769817823642,
      7.780658893551835,
      7.750382792596939,
      7.8182592015200525,
      7.80109840190767,
      7.717216444322794,
      7.8060233767383504,
      7.813478349278664,
      7.746095634212201,
      7.766141374567935,
      7.751768495309349,
      7.809407818007289,
      7.756572631328808,
      7.746225490851548,
      7.732513828076456,
      7.668716742404939,
      7.7320064906857215,
      7.718579648041235,
      7.683311743356441,
      7.7346582288431875,
      7.66194855102218,
      7.719447192538686,
      7.702298543047419,
      7.69296495665869,
      7.841246344652697,
      7.729099127466408,
      7.672852266514927,
      7.738525090523194,
      7.728471712652871,
      7.653954456364039,
      7.701017365562682,
      7.76887610675166,
      7.692643850434592,
      7.62638819001377,
      7.6512999206213665,
      7.65176758131219,
      7.640384177159687,
      7.6318270158849275,
      7.662504135189505,
      7.654842113518006,
      7.6356697923766905,
      7.627575153486447,
      7.623197381251686,
      7.666457390875799,
      7.658343974313643,
      7.653120906946127,
      7.617174173933785,
      7.623075609937044,
      7.611637676075745,
      7.65003833195365,
      7.652406210792852,
      7.680955766935699,
      7.6082252743636785,
      7.657289213245936,
      7.617729096948835,
      7.616354472530849,
      7.6436332680488634,
      7.677563034607113,
      7.635850159684011,
      7.641371807292328,
      7.653465780449754,
      7.649739133668769,
      7.62309619142926,
      7.620592441412578,
      7.69971598023412,
      7.635744058659093,
      7.629396514817313,
      7.589528380986917,
      7.682117189661912,
      7.622436253504063,
      7.668780350651718,
      7.650780924101655,
      7.659944208903579,
      7.61998641762154,
      7.64264817639108,
      7.642259797540656,
      7.637834050596479,
      7.652294638035732,
      7.647667301280366,
      7.596560513086021,
      7.650505599704623,
      7.632593202657027,
      7.642481238256254,
      7.630835632285519,
      7.616558705238191,
      7.644855973033695,
      7.641733784606506,
      7.644418875081243,
      7.639244234047162,
      7.647469203972014,
      7.624869042078778,
      7.612794675133384,
      7.613737619786851,
      7.616037546231658,
      7.6314895595702055,
      7.657425209669188,
      7.641517160719343,
      7.625371328010628,
      7.650838947101811,
      7.637496079670991,
      7.621709351668301,
      7.680682325376905,
      7.624743187334727,
      7.6319225917233435,
      7.630354867981325,
      7.611382023942833,
      7.606583426323311,
      7.635770381944399,
      7.654256576751836,
      7.6481609349776365,
      7.609822566001853,
      7.621768979672031,
      7.667512888510453,
      7.647797259597452,
      7.668533746371625,
      7.635097868445023,
      7.614851232355251,
      7.651672176726398,
      7.595849782302446,
      7.632809807976363,
      7.625346098755303,
      7.6564275031357765,
      7.612359575614329,
      7.5777092926310115,
      7.670785293167053,
      7.673768177896436,
      7.595990356485279,
      7.654294837713604,
      7.613457939980913,
      7.672790830583338
    ]
  }
}