{
  "memory.usage": {
    "steps": [
      0,
      1,
      2,
      3,
      4,
      5,
      6,
      7,
      8,
      9,
      10,
      11,
      12,
      13,
      14,
      15,
      16,
      17,
      18,
      19,
      20,
      21,
      22,
      23,
      24,
      25,
      26,
      27,
      28,
      29,
      30,
      31,
      32,
      33,
      34,
      35,
      36,
      37,
      38,
      39,
      40,
      41,
      42,
      43,
      44,
      45,
      46,
      47,
      48,
      49,
      50,
      51,
      52,
      53,
      54,
      55,
      56,
      57,
      58,
      59,
      60,
      61,
      62,
      63,
      64,
      65,
      66,
      67,
      68,
      69,
      70,
      71,
      72,
      73,
      74,
      75,
      76,
      77,
      78,
      79,
      80,
      81,
      82,
      83,
      84,
      85,
      86,
      87,
      88,
      89,
      90,
      91,
      92,
      93,
      94,
      95,
      96,
      97,
      98,
      99,
      100,
      101,
      102,
      103,
      104,
      105,
      106,
      107,
      108,
      109,
      110,
      111,
      112,
      113,
      114,
      115,
      116,
      117,
      118,
      119,
      120,
      121,
      122,
      123,
      124,
      125,
      126,
      127,
      128,
      129,
      130,
      131,
      132,
      133,
      134,
      135,
      136,
      137,
      138,
      139,
      140,
      141,
      142,
      143,
      144,
      145,
      146,
      147,
      148,
      149,
      150,
      151,
      152,
      153,
      154,
      155,
      156,
      157,
      158,
      159,
      160,
      161,
      162,
      163,
      164,
      165,
      166,
      167,
      168,
      169,
      170,
      171,
      172,
      173,
      174,
      175,
      176,
      177,
      178,
      179,
      180,
      181,
      182,
      183,
      184,
      185,
      186,
      187,
      188,
      189,
      190,
      191,
      192,
      193,
      194,
      195,
      196,
      197,
      198,
      199
    ],
    "timestamps": [
      "2022-08-05T13:05:12.872633",
      "2022-08-05T13:05:13.890972",
      "2022-08-05T13:05:14.867373",
      "2022-08-05T13:05:15.917169",
      "2022-08-05T13:05:16.819693",
      "2022-08-05T13:05:17.663134",
      "2022-08-05T13:05:18.322351",
      "2022-08-05T13:05:18.984419",
      "2022-08-05T13:05:19.729082",
      "2022-08-05T13:05:20.480184",
      "2022-08-05T13:05:21.255121",
      "2022-08-05T13:05:22.162712",
      "2022-08-05T13:05:23.285524",
      "2022-08-05T13:05:25.520826",
      "2022-08-05T13:05:26.643927",
      "2022-08-05T13:05:27.634435",
      "2022-08-05T13:05:28.653139",
      "2022-08-05T13:05:29.670039",
      "2022-08-05T13:05:30.691129",
      "2022-08-05T13:05:31.758622",
      "2022-08-05T13:05:32.800418",
      "2022-08-05T13:05:33.823611",
      "2022-08-05T13:05:34.847585",
      "2022-08-05T13:05:35.868637",
      "2022-08-05T13:05:36.994815",
      "2022-08-05T13:05:38.026274",
      "2022-08-05T13:05:39.027253",
      "2022-08-05T13:05:40.057498",
      "2022-08-05T13:05:41.086753",
      "2022-08-05T13:05:42.145533",
      "2022-08-05T13:05:43.179719",
      "2022-08-05T13:05:44.202389",
      "2022-08-05T13:05:45.226996",
      "2022-08-05T13:05:46.276283",
      "2022-08-05T13:05:47.255284",
      "2022-08-05T13:05:48.266966",
      "2022-08-05T13:05:49.279391",
      "2022-08-05T13:05:50.293026",
      "2022-08-05T13:05:51.305328",
      "2022-08-05T13:05:52.358947",
      "2022-08-05T13:05:53.392360",
      "2022-08-05T13:05:54.402845",
      "2022-08-05T13:05:55.416114",
      "2022-08-05T13:05:56.431362",
      "2022-08-05T13:05:57.503223",
      "2022-08-05T13:05:58.516244",
      "2022-08-05T13:05:59.519136",
      "2022-08-05T13:06:00.533527",
      "2022-08-05T13:06:01.547654",
      "2022-08-05T13:06:02.601817",
      "2022-08-05T13:06:03.634112",
      "2022-08-05T13:06:04.753111",
      "2022-08-05T13:06:05.810058",
      "2022-08-05T13:06:06.853316",
      "2022-08-05T13:06:07.900797",
      "2022-08-05T13:06:09.015810",
      "2022-08-05T13:06:10.136953",
      "2022-08-05T13:06:11.170762",
      "2022-08-05T13:06:12.246750",
      "2022-08-05T13:06:13.280592",
      "2022-08-05T13:06:14.316268",
      "2022-08-05T13:06:15.371630",
      "2022-08-05T13:06:16.392375",
      "2022-08-05T13:06:17.442993",
      "2022-08-05T13:06:18.523049",
      "2022-08-05T13:06:19.600969",
      "2022-08-05T13:06:20.656305",
      "2022-08-05T13:06:21.689673",
      "2022-08-05T13:06:22.857179",
      "2022-08-05T13:06:23.846810",
      "2022-08-05T13:06:24.869279",
      "2022-08-05T13:06:25.858905",
      "2022-08-05T13:06:26.889736",
      "2022-08-05T13:06:27.919481",
      "2022-08-05T13:06:28.981499",
      "2022-08-05T13:06:29.779476",
      "2022-08-05T13:06:30.560500",
      "2022-08-05T13:06:31.576321",
      "2022-08-05T13:06:32.644978",
      "2022-08-05T13:06:33.653099",
      "2022-08-05T13:06:34.692057",
      "2022-08-05T13:06:35.809538",
      "2022-08-05T13:06:36.910733",
      "2022-08-05T13:06:37.993608",
      "2022-08-05T13:06:39.081493",
      "2022-08-05T13:06:40.139939",
      "2022-08-05T13:06:40.802680",
      "2022-08-05T13:06:41.444506",
      "2022-08-05T13:06:42.085432",
      "2022-08-05T13:06:42.744921",
      "2022-08-05T13:06:43.429074",
      "2022-08-05T13:06:44.117945",
      "2022-08-05T13:06:44.792374",
      "2022-08-05T13:06:45.435242",
      "2022-08-05T13:06:46.105909",
      "2022-08-05T13:06:46.754155",
      "2022-08-05T13:06:47.409463",
      "2022-08-05T13:06:48.063237",
      "2022-08-05T13:06:48.704952",
      "2022-08-05T13:06:49.345503",
      "2022-08-05T13:06:49.997056",
      "2022-08-05T13:06:50.637098",
      "2022-08-05T13:06:51.277307",
      "2022-08-05T13:06:51.917793",
      "2022-08-05T13:06:52.557435",
      "2022-08-05T13:06:53.212887",
      "2022-08-05T13:06:53.862371",
      "2022-08-05T13:06:54.500612",
      "2022-08-05T13:06:55.140018",
      "2022-08-05T13:06:55.790274",
      "2022-08-05T13:06:56.469041",
      "2022-08-05T13:06:57.140630",
      "2022-08-05T13:06:57.790992",
      "2022-08-05T13:06:58.430488",
      "2022-08-05T13:06:59.102572",
      "2022-08-05T13:06:59.883775",
      "2022-08-05T13:07:00.664708",
      "2022-08-05T13:07:01.419712",
      "2022-08-05T13:07:02.076047",
      "2022-08-05T13:07:02.733436",
      "2022-08-05T13:07:03.396627",
      "2022-08-05T13:07:04.074695",
      "2022-08-05T13:07:04.741170",
      "2022-08-05T13:07:05.407998",
      "2022-08-05T13:07:06.083540",
      "2022-08-05T13:07:06.767423",
      "2022-08-05T13:07:07.411001",
      "2022-08-05T13:07:08.066713",
      "2022-08-05T13:07:08.710856",
      "2022-08-05T13:07:09.389832",
      "2022-08-05T13:07:10.080200",
      "2022-08-05T13:07:10.727474",
      "2022-08-05T13:07:11.402873",
      "2022-08-05T13:07:12.062244",
      "2022-08-05T13:07:12.720315",
      "2022-08-05T13:07:13.392767",
      "2022-08-05T13:07:14.045118",
      "2022-08-05T13:07:14.725286",
      "2022-08-05T13:07:15.385879",
      "2022-08-05T13:07:16.071235",
      "2022-08-05T13:07:16.736514",
      "2022-08-05T13:07:17.402969",
      "2022-08-05T13:07:18.081478",
      "2022-08-05T13:07:18.742643",
      "2022-08-05T13:07:19.414416",
      "2022-08-05T13:07:20.082086",
      "2022-08-05T13:07:20.741066",
      "2022-08-05T13:07:21.407827",
      "2022-08-05T13:07:22.060622",
      "2022-08-05T13:07:22.706934",
      "2022-08-05T13:07:23.382047",
      "2022-08-05T13:07:24.050422",
      "2022-08-05T13:07:24.694601",
      "2022-08-05T13:07:25.336070",
      "2022-08-05T13:07:25.985137",
      "2022-08-05T13:07:26.632299",
      "2022-08-05T13:07:27.274309",
      "2022-08-05T13:07:27.917951",
      "2022-08-05T13:07:28.575120",
      "2022-08-05T13:07:29.238428",
      "2022-08-05T13:07:29.893491",
      "2022-08-05T13:07:30.533708",
      "2022-08-05T13:07:31.180966",
      "2022-08-05T13:07:31.865854",
      "2022-08-05T13:07:32.560147",
      "2022-08-05T13:07:33.264500",
      "2022-08-05T13:07:33.923206",
      "2022-08-05T13:07:34.581675",
      "2022-08-05T13:07:35.225881",
      "2022-08-05T13:07:35.870096",
      "2022-08-05T13:07:36.523888",
      "2022-08-05T13:07:37.193365",
      "2022-08-05T13:07:37.837339",
      "2022-08-05T13:07:38.492762",
      "2022-08-05T13:07:39.158409",
      "2022-08-05T13:07:39.820183",
      "2022-08-05T13:07:40.460485",
      "2022-08-05T13:07:41.106214",
      "2022-08-05T13:07:41.772127",
      "2022-08-05T13:07:42.453877",
      "2022-08-05T13:07:43.115360",
      "2022-08-05T13:07:43.770103",
      "2022-08-05T13:07:44.429562",
      "2022-08-05T13:07:45.079183",
      "2022-08-05T13:07:45.760406",
      "2022-08-05T13:07:46.423828",
      "2022-08-05T13:07:47.085038",
      "2022-08-05T13:07:47.737236",
      "2022-08-05T13:07:48.381431",
      "2022-08-05T13:07:49.023127",
      "2022-08-05T13:07:49.680688",
      "2022-08-05T13:07:50.327542",
      "2022-08-05T13:07:50.974190",
      "2022-08-05T13:07:51.620822",
      "2022-08-05T13:07:52.285025",
      "2022-08-05T13:07:52.977919",
      "2022-08-05T13:07:53.629402",
      "2022-08-05T13:07:54.288086",
      "2022-08-05T13:07:54.966746",
      "2022-08-05T13:07:55.623747"
    ],
    "values": [
      5.296128,
      5.296128,
      5.296128,
      5.296128,
      5.296128,
      5.296128,
      5.296128,
      5.296128,
      5.296128,
      5.296128,
      5.296128,
      5.296128,
      5.296128,
      5.296128,
      5.296128,
      5.296128,
      5.296128,
      5.296128,
      5.296128,
      5.296128,
      5.296128,
      5.296128,
      5.296128,
      5.296128,
      5.296128,
      5.296128,
      5.296128,
      5.296128,
      5.296128,
      5.296128,
      5.296128,
      5.296128,
      5.296128,
      5.296128,
      5.296128,
      5.296128,
      5.296128,
      5.296128,
      5.296128,
      5.296128,
      5.296128,
      5.296128,
      5.296128,
      5.296128,
      5.296128,
      5.296128,
      5.296128,
      5.296128,
      5.296128,
      5.296128,
      5.296128,
      5.296128,
      5.296128,
      5.296128,
      5.296128,
      5.296128,
      5.296128,
      5.296128,
      5.296128,
      5.296128,
      5.296128,
      5.296128,
      5.296128,
      5.296128,
      5.296128,
      5.296128,
      5.296128,
      5.296128,
      5.296128,
      5.296128,
      5.296128,
      5.296128,
      5.296128,
      5.296128,
      5.296128,
      5.296128,
      5.296128,
      5.296128,
      5.296128,
      5.296128,
      5.296128,
      5.296128,
      5.296128,
      5.296128,
      5.296128,
      5.296128,
      5.296128,
      5.296128,
      5.296128,
      5.296128,
      5.296128,
      5.296128,
      5.296128,
      5.296128,
      5.296128,
      5.296128,
      5.296128,
      5.296128,
      5.296128,
      5.296128,
      5.296128,
      5.296128,
      5.296128,
      5.296128,
      5.296128,
      5.296128,
      5.296128,
      5.296128,
      5.296128,
      5.296128,
      5.296128,
      5.296128,
      5.296128,
      5.296128,
      5.296128,
      5.296128,
      5.296128,
      5.296128,
      5.296128,
      5.296128,
      5.296128,
      5.296128,
      5.296128,
      5.296128,
      5.296128,
      5.296128,
      5.296128,
      5.296128,
      5.296128,
      5.296128,
      5.296128,
      5.296128,
      5.296128,
      5.296128,
      5.296128,
      5.296128,
      5.296128,
      5.296128,
      5.296128,
      5.296128,
      5.296128,
      5.296128,
      5.296128,
      5.296128,
      5.296128,
      5.296128,
      5.296128,
      5.296128,
      5.296128,
      5.296128,
      5.296128,
      5.296128,
      5.296128,
      5.296128,
      5.296128,
      5.296128,
      5.296128,
      5.296128,
      5.296128,
      5.296128,
      5.296128,
      5.296128,
      5.296128,
      5.296128,
      5.296128,
      5.296128,
      5.296128,
      5.296128,
      5.296128,
      5.296128,
      5.296128,
      5.296128,
      5.296128,
      5.296128,
      5.296128,
      5.296128,
      5.296128,
      5.296128,
      5.296128,
      5.296128,
      5.296128,
      5.296128,
      5.296128,
      5.296128,
      5.296128,
      5.296128,
      5.296128,
      5.296128,
      5.296128,
      5.296128,
      5.296128,
      5.296128,
      5.296128,
      5.296128,
      5.296128,
      5.296128,
      5.296128,
      5.296128,
      5.296128,
      5.296128
    ]
  },
  "test": {
    "steps": [
      0
    ],
    "timestamps": [
      "2022-08-05T13:07:55.789848"
    ],
    "values": [
      9.314970569610596
    ]
  },
  "train": {
    "steps": [
      0,
      1,
      2,
      3,
      4,
      5,
      6,
      7,
      8,
      9,
      10,
      11,
      12,
      13,
      14,
      15,
      16,
      17,
      18,
      19,
      20,
      21,
      22,
      23,
      24,
      25,
      26,
      27,
      28,
      29,
      30,
      31,
      32,
      33,
      34,
      35,
      36,
      37,
      38,
      39,
      40,
      41,
      42,
      43,
      44,
      45,
      46,
      47,
      48,
      49,
      50,
      51,
      52,
      53,
      54,
      55,
      56,
      57,
      58,
      59,
      60,
      61,
      62,
      63,
      64,
      65,
      66,
      67,
      68,
      69,
      70,
      71,
      72,
      73,
      74,
      75,
      76,
      77,
      78,
      79,
      80,
      81,
      82,
      83,
      84,
      85,
      86,
      87,
      88,
      89,
      90,
      91,
      92,
      93,
      94,
      95,
      96,
      97,
      98,
      99,
      100,
      101,
      102,
      103,
      104,
      105,
      106,
      107,
      108,
      109,
      110,
      111,
      112,
      113,
      114,
      115,
      116,
      117,
      118,
      119,
      120,
      121,
      122,
      123,
      124,
      125,
      126,
      127,
      128,
      129,
      130,
      131,
      132,
      133,
      134,
      135,
      136,
      137,
      138,
      139,
      140,
      141,
      142,
      143,
      144,
      145,
      146,
      147,
      148,
      149,
      150,
      151,
      152,
      153,
      154,
      155,
      156,
      157,
      158,
      159,
      160,
      161,
      162,
      163,
      164,
      165,
      166,
      167,
      168,
      169,
      170,
      171,
      172,
      173,
      174,
      175,
      176,
      177,
      178,
      179,
      180,
      181,
      182,
      183,
      184,
      185,
      186,
      187,
      188,
      189,
      190,
      191,
      192,
      193,
      194,
      195,
      196,
      197,
      198,
      199
    ],
    "timestamps": [
      "2022-08-05T13:05:12.872440",
      "2022-08-05T13:05:13.890803",
      "2022-08-05T13:05:14.867200",
      "2022-08-05T13:05:15.916930",
      "2022-08-05T13:05:16.819499",
      "2022-08-05T13:05:17.663018",
      "2022-08-05T13:05:18.322232",
      "2022-08-05T13:05:18.984287",
      "2022-08-05T13:05:19.728952",
      "2022-08-05T13:05:20.480056",
      "2022-08-05T13:05:21.255001",
      "2022-08-05T13:05:22.162544",
      "2022-08-05T13:05:23.285336",
      "2022-08-05T13:05:25.520643",
      "2022-08-05T13:05:26.643702",
      "2022-08-05T13:05:27.634264",
      "2022-08-05T13:05:28.652942",
      "2022-08-05T13:05:29.669871",
      "2022-08-05T13:05:30.690938",
      "2022-08-05T13:05:31.758454",
      "2022-08-05T13:05:32.800249",
      "2022-08-05T13:05:33.823438",
      "2022-08-05T13:05:34.847384",
      "2022-08-05T13:05:35.868470",
      "2022-08-05T13:05:36.994628",
      "2022-08-05T13:05:38.026090",
      "2022-08-05T13:05:39.027083",
      "2022-08-05T13:05:40.057328",
      "2022-08-05T13:05:41.086564",
      "2022-08-05T13:05:42.145345",
      "2022-08-05T13:05:43.179544",
      "2022-08-05T13:05:44.202215",
      "2022-08-05T13:05:45.226825",
      "2022-08-05T13:05:46.276139",
      "2022-08-05T13:05:47.255115",
      "2022-08-05T13:05:48.266784",
      "2022-08-05T13:05:49.279211",
      "2022-08-05T13:05:50.292847",
      "2022-08-05T13:05:51.305159",
      "2022-08-05T13:05:52.358771",
      "2022-08-05T13:05:53.392191",
      "2022-08-05T13:05:54.402675",
      "2022-08-05T13:05:55.415939",
      "2022-08-05T13:05:56.431192",
      "2022-08-05T13:05:57.503048",
      "2022-08-05T13:05:58.516075",
      "2022-08-05T13:05:59.518943",
      "2022-08-05T13:06:00.533350",
      "2022-08-05T13:06:01.547476",
      "2022-08-05T13:06:02.601638",
      "2022-08-05T13:06:03.633935",
      "2022-08-05T13:06:04.752935",
      "2022-08-05T13:06:05.809865",
      "2022-08-05T13:06:06.853128",
      "2022-08-05T13:06:07.900621",
      "2022-08-05T13:06:09.015608",
      "2022-08-05T13:06:10.136779",
      "2022-08-05T13:06:11.170591",
      "2022-08-05T13:06:12.246582",
      "2022-08-05T13:06:13.280417",
      "2022-08-05T13:06:14.316091",
      "2022-08-05T13:06:15.371451",
      "2022-08-05T13:06:16.392206",
      "2022-08-05T13:06:17.442829",
      "2022-08-05T13:06:18.522867",
      "2022-08-05T13:06:19.600789",
      "2022-08-05T13:06:20.656115",
      "2022-08-05T13:06:21.689491",
      "2022-08-05T13:06:22.856998",
      "2022-08-05T13:06:23.846636",
      "2022-08-05T13:06:24.869101",
      "2022-08-05T13:06:25.858735",
      "2022-08-05T13:06:26.889539",
      "2022-08-05T13:06:27.919311",
      "2022-08-05T13:06:28.981297",
      "2022-08-05T13:06:29.779334",
      "2022-08-05T13:06:30.560328",
      "2022-08-05T13:06:31.576146",
      "2022-08-05T13:06:32.644794",
      "2022-08-05T13:06:33.652894",
      "2022-08-05T13:06:34.691822",
      "2022-08-05T13:06:35.809319",
      "2022-08-05T13:06:36.910564",
      "2022-08-05T13:06:37.993434",
      "2022-08-05T13:06:39.081325",
      "2022-08-05T13:06:40.139785",
      "2022-08-05T13:06:40.802561",
      "2022-08-05T13:06:41.444386",
      "2022-08-05T13:06:42.085319",
      "2022-08-05T13:06:42.744794",
      "2022-08-05T13:06:43.428935",
      "2022-08-05T13:06:44.117779",
      "2022-08-05T13:06:44.792255",
      "2022-08-05T13:06:45.435104",
      "2022-08-05T13:06:46.105762",
      "2022-08-05T13:06:46.754033",
      "2022-08-05T13:06:47.409343",
      "2022-08-05T13:06:48.063119",
      "2022-08-05T13:06:48.704833",
      "2022-08-05T13:06:49.345384",
      "2022-08-05T13:06:49.996933",
      "2022-08-05T13:06:50.636983",
      "2022-08-05T13:06:51.277188",
      "2022-08-05T13:06:51.917674",
      "2022-08-05T13:06:52.557318",
      "2022-08-05T13:06:53.212765",
      "2022-08-05T13:06:53.862253",
      "2022-08-05T13:06:54.500505",
      "2022-08-05T13:06:55.139898",
      "2022-08-05T13:06:55.790155",
      "2022-08-05T13:06:56.468922",
      "2022-08-05T13:06:57.140505",
      "2022-08-05T13:06:57.790870",
      "2022-08-05T13:06:58.430324",
      "2022-08-05T13:06:59.102446",
      "2022-08-05T13:06:59.883623",
      "2022-08-05T13:07:00.664569",
      "2022-08-05T13:07:01.419577",
      "2022-08-05T13:07:02.075918",
      "2022-08-05T13:07:02.733311",
      "2022-08-05T13:07:03.396507",
      "2022-08-05T13:07:04.074570",
      "2022-08-05T13:07:04.741044",
      "2022-08-05T13:07:05.407875",
      "2022-08-05T13:07:06.083417",
      "2022-08-05T13:07:06.767305",
      "2022-08-05T13:07:07.410881",
      "2022-08-05T13:07:08.066592",
      "2022-08-05T13:07:08.710734",
      "2022-08-05T13:07:09.389716",
      "2022-08-05T13:07:10.080076",
      "2022-08-05T13:07:10.727353",
      "2022-08-05T13:07:11.402748",
      "2022-08-05T13:07:12.062100",
      "2022-08-05T13:07:12.720189",
      "2022-08-05T13:07:13.392642",
      "2022-08-05T13:07:14.044983",
      "2022-08-05T13:07:14.725163",
      "2022-08-05T13:07:15.385754",
      "2022-08-05T13:07:16.071112",
      "2022-08-05T13:07:16.736393",
      "2022-08-05T13:07:17.402843",
      "2022-08-05T13:07:18.081360",
      "2022-08-05T13:07:18.742524",
      "2022-08-05T13:07:19.414296",
      "2022-08-05T13:07:20.081966",
      "2022-08-05T13:07:20.740946",
      "2022-08-05T13:07:21.407709",
      "2022-08-05T13:07:22.060508",
      "2022-08-05T13:07:22.706818",
      "2022-08-05T13:07:23.381925",
      "2022-08-05T13:07:24.050298",
      "2022-08-05T13:07:24.694478",
      "2022-08-05T13:07:25.335948",
      "2022-08-05T13:07:25.985012",
      "2022-08-05T13:07:26.632178",
      "2022-08-05T13:07:27.274190",
      "2022-08-05T13:07:27.917830",
      "2022-08-05T13:07:28.575002",
      "2022-08-05T13:07:29.238310",
      "2022-08-05T13:07:29.893368",
      "2022-08-05T13:07:30.533587",
      "2022-08-05T13:07:31.180845",
      "2022-08-05T13:07:31.865724",
      "2022-08-05T13:07:32.560010",
      "2022-08-05T13:07:33.264376",
      "2022-08-05T13:07:33.923086",
      "2022-08-05T13:07:34.581552",
      "2022-08-05T13:07:35.225762",
      "2022-08-05T13:07:35.869975",
      "2022-08-05T13:07:36.523766",
      "2022-08-05T13:07:37.193240",
      "2022-08-05T13:07:37.837219",
      "2022-08-05T13:07:38.492634",
      "2022-08-05T13:07:39.158282",
      "2022-08-05T13:07:39.820061",
      "2022-08-05T13:07:40.460359",
      "2022-08-05T13:07:41.106079",
      "2022-08-05T13:07:41.771978",
      "2022-08-05T13:07:42.453753",
      "2022-08-05T13:07:43.115240",
      "2022-08-05T13:07:43.769982",
      "2022-08-05T13:07:44.429438",
      "2022-08-05T13:07:45.079044",
      "2022-08-05T13:07:45.760282",
      "2022-08-05T13:07:46.423708",
      "2022-08-05T13:07:47.084913",
      "2022-08-05T13:07:47.737116",
      "2022-08-05T13:07:48.381314",
      "2022-08-05T13:07:49.023009",
      "2022-08-05T13:07:49.680566",
      "2022-08-05T13:07:50.327416",
      "2022-08-05T13:07:50.974066",
      "2022-08-05T13:07:51.620698",
      "2022-08-05T13:07:52.284900",
      "2022-08-05T13:07:52.977798",
      "2022-08-05T13:07:53.629283",
      "2022-08-05T13:07:54.287962",
      "2022-08-05T13:07:54.966623",
      "2022-08-05T13:07:55.623624"
    ],
    "values": [
      9.94084683418274,
      9.49264479637146,
      9.474836158752442,
      9.470827083587647,
      9.422456092834473,
      9.422782678604126,
      9.402957181930542,
      9.390797653198241,
      9.40250186920166,
      9.404881887435913,
      9.398373956680297,
      9.390723257064819,
      9.406878175735473,
      9.386956911087037,
      9.382372312545776,
      9.385459480285645,
      9.377487621307374,
      9.382324123382569,
      9.384827585220338,
      9.380120830535889,
      9.374744443893432,
      9.373579845428466,
      9.377400455474854,
      9.384589614868164,
      9.386516294479371,
      9.377313632965087,
      9.36881371498108,
      9.372298164367676,
      9.369066848754883,
      9.373479385375976,
      9.373485498428344,
      9.363287830352784,
      9.379310111999512,
      9.3723796749115,
      9.366637773513794,
      9.366736555099488,
      9.36700740814209,
      9.368418550491333,
      9.378139657974243,
      9.379473724365234,
      9.369551315307618,
      9.36849778175354,
      9.366104412078858,
      9.363533229827881,
      9.359642152786256,
      9.363976249694824,
      9.36283345222473,
      9.364603519439697,
      9.360165395736693,
      9.367257900238037,
      9.361289939880372,
      9.363238925933837,
      9.369501724243165,
      9.35941475868225,
      9.36125503540039,
      9.360842161178589,
      9.358857412338256,
      9.357943925857544,
      9.371997747421265,
      9.362745714187621,
      9.368269577026368,
      9.36148331642151,
      9.37205389022827,
      9.36726333618164,
      9.364971628189087,
      9.374327545166016,
      9.369927062988282,
      9.357532358169555,
      9.350514764785766,
      9.357912588119508,
      9.365669736862182,
      9.36105357170105,
      9.355074300765992,
      9.366555233001709,
      9.362144470214844,
      9.3618745803833,
      9.352959136962891,
      9.360088653564453,
      9.35729208946228,
      9.361234245300293,
      9.352914562225342,
      9.357058668136597,
      9.354013252258301,
      9.35910813331604,
      9.353532762527466,
      9.355989274978638,
      9.358695449829101,
      9.354696702957153,
      9.353944311141968,
      9.359003400802612,
      9.313651885986328,
      9.308430862426757,
      9.307144241333008,
      9.306489877700805,
      9.307459716796876,
      9.3078573513031,
      9.307257347106933,
      9.307379817962646,
      9.307962579727173,
      9.305910930633544,
      9.306749086380005,
      9.306894330978393,
      9.305914669036865,
      9.305783071517943,
      9.30588222503662,
      9.306204175949096,
      9.305995712280273,
      9.306875514984132,
      9.304815807342528,
      9.306343126296998,
      9.304909267425536,
      9.306243829727173,
      9.305203323364259,
      9.306024322509765,
      9.305848531723022,
      9.30492896080017,
      9.305753936767578,
      9.305932312011718,
      9.30552547454834,
      9.305764532089233,
      9.307248754501343,
      9.306186141967773,
      9.304117431640625,
      9.305327730178833,
      9.305352087020873,
      9.30530068397522,
      9.30600034713745,
      9.304479961395264,
      9.304335794448853,
      9.304366645812989,
      9.299377574920655,
      9.298283128738403,
      9.298147945404052,
      9.298069086074829,
      9.29794090270996,
      9.29811285018921,
      9.298073835372925,
      9.297978887557983,
      9.29805453300476,
      9.297920379638672,
      9.298024110794067,
      9.297834911346435,
      9.297982320785522,
      9.297951135635376,
      9.298101415634155,
      9.297955017089844,
      9.297871646881104,
      9.297755584716796,
      9.297895050048828,
      9.29799457550049,
      9.297925548553467,
      9.297752208709717,
      9.297930994033813,
      9.297069244384765,
      9.297016735076904,
      9.296999292373657,
      9.296992483139038,
      9.296985921859742,
      9.296986694335937,
      9.297010383605958,
      9.296963682174683,
      9.296990785598755,
      9.296989755630493,
      9.296981239318848,
      9.29698634147644,
      9.296989860534667,
      9.296980562210083,
      9.2969859790802,
      9.296973962783813,
      9.296984605789184,
      9.29695993423462,
      9.296973304748535,
      9.29697027206421,
      9.296967277526855,
      9.296985912322999,
      9.296864652633667,
      9.296866703033448,
      9.296867752075196,
      9.296865482330322,
      9.29686679840088,
      9.296867389678955,
      9.29686487197876,
      9.296866703033448,
      9.296865243911743,
      9.296865243911743,
      9.296863574981689,
      9.2968643283844,
      9.296863574981689,
      9.296865253448486,
      9.296863384246826,
      9.29686511039734,
      9.296865139007569,
      9.296862068176269,
      9.296863260269165,
      9.296864519119262,
      9.296863384246826,
      9.296862993240357,
      9.296862478256225,
      9.296862068176269,
      9.296862325668336
    ]
  },
  "val": {
    "steps": [
      0,
      1,
      2,
      3,
      4,
      5,
      6,
      7,
      8,
      9,
      10,
      11,
      12,
      13,
      14,
      15,
      16,
      17,
      18,
      19,
      20,
      21,
      22,
      23,
      24,
      25,
      26,
      27,
      28,
      29,
      30,
      31,
      32,
      33,
      34,
      35,
      36,
      37,
      38,
      39,
      40,
      41,
      42,
      43,
      44,
      45,
      46,
      47,
      48,
      49,
      50,
      51,
      52,
      53,
      54,
      55,
      56,
      57,
      58,
      59,
      60,
      61,
      62,
      63,
      64,
      65,
      66,
      67,
      68,
      69,
      70,
      71,
      72,
      73,
      74,
      75,
      76,
      77,
      78,
      79,
      80,
      81,
      82,
      83,
      84,
      85,
      86,
      87,
      88,
      89,
      90,
      91,
      92,
      93,
      94,
      95,
      96,
      97,
      98,
      99,
      100,
      101,
      102,
      103,
      104,
      105,
      106,
      107,
      108,
      109,
      110,
      111,
      112,
      113,
      114,
      115,
      116,
      117,
      118,
      119,
      120,
      121,
      122,
      123,
      124,
      125,
      126,
      127,
      128,
      129,
      130,
      131,
      132,
      133,
      134,
      135,
      136,
      137,
      138,
      139,
      140,
      141,
      142,
      143,
      144,
      145,
      146,
      147,
      148,
      149,
      150,
      151,
      152,
      153,
      154,
      155,
      156,
      157,
      158,
      159,
      160,
      161,
      162,
      163,
      164,
      165,
      166,
      167,
      168,
      169,
      170,
      171,
      172,
      173,
      174,
      175,
      176,
      177,
      178,
      179,
      180,
      181,
      182,
      183,
      184,
      185,
      186,
      187,
      188,
      189,
      190,
      191,
      192,
      193,
      194,
      195,
      196,
      197,
      198,
      199
    ],
    "timestamps": [
      "2022-08-05T13:05:12.978849",
      "2022-08-05T13:05:13.983001",
      "2022-08-05T13:05:14.971856",
      "2022-08-05T13:05:16.020499",
      "2022-08-05T13:05:16.922983",
      "2022-08-05T13:05:17.735512",
      "2022-08-05T13:05:18.396327",
      "2022-08-05T13:05:19.064391",
      "2022-08-05T13:05:19.808252",
      "2022-08-05T13:05:20.559254",
      "2022-08-05T13:05:21.328791",
      "2022-08-05T13:05:22.258401",
      "2022-08-05T13:05:23.401113",
      "2022-08-05T13:05:25.637450",
      "2022-08-05T13:05:26.741702",
      "2022-08-05T13:05:27.740560",
      "2022-08-05T13:05:28.758600",
      "2022-08-05T13:05:29.775698",
      "2022-08-05T13:05:30.797837",
      "2022-08-05T13:05:31.865341",
      "2022-08-05T13:05:32.906756",
      "2022-08-05T13:05:33.930602",
      "2022-08-05T13:05:34.954277",
      "2022-08-05T13:05:35.957850",
      "2022-08-05T13:05:37.102216",
      "2022-08-05T13:05:38.134350",
      "2022-08-05T13:05:39.135212",
      "2022-08-05T13:05:40.164751",
      "2022-08-05T13:05:41.196544",
      "2022-08-05T13:05:42.252075",
      "2022-08-05T13:05:43.287400",
      "2022-08-05T13:05:44.310314",
      "2022-08-05T13:05:45.334498",
      "2022-08-05T13:05:46.372905",
      "2022-08-05T13:05:47.360383",
      "2022-08-05T13:05:48.371424",
      "2022-08-05T13:05:49.383918",
      "2022-08-05T13:05:50.397084",
      "2022-08-05T13:05:51.411227",
      "2022-08-05T13:05:52.465071",
      "2022-08-05T13:05:53.496505",
      "2022-08-05T13:05:54.507443",
      "2022-08-05T13:05:55.521591",
      "2022-08-05T13:05:56.535841",
      "2022-08-05T13:05:57.608753",
      "2022-08-05T13:05:58.622400",
      "2022-08-05T13:05:59.624881",
      "2022-08-05T13:06:00.638671",
      "2022-08-05T13:06:01.653726",
      "2022-08-05T13:06:02.707739",
      "2022-08-05T13:06:03.742933",
      "2022-08-05T13:06:04.862682",
      "2022-08-05T13:06:05.922374",
      "2022-08-05T13:06:06.962009",
      "2022-08-05T13:06:08.005441",
      "2022-08-05T13:06:09.156730",
      "2022-08-05T13:06:10.244649",
      "2022-08-05T13:06:11.276881",
      "2022-08-05T13:06:12.355427",
      "2022-08-05T13:06:13.386742",
      "2022-08-05T13:06:14.422859",
      "2022-08-05T13:06:15.478294",
      "2022-08-05T13:06:16.497272",
      "2022-08-05T13:06:17.546518",
      "2022-08-05T13:06:18.631598",
      "2022-08-05T13:06:19.711247",
      "2022-08-05T13:06:20.769885",
      "2022-08-05T13:06:21.797264",
      "2022-08-05T13:06:22.974204",
      "2022-08-05T13:06:23.950114",
      "2022-08-05T13:06:24.977437",
      "2022-08-05T13:06:25.966182",
      "2022-08-05T13:06:26.998046",
      "2022-08-05T13:06:28.028193",
      "2022-08-05T13:06:29.089602",
      "2022-08-05T13:06:29.867891",
      "2022-08-05T13:06:30.665484",
      "2022-08-05T13:06:31.682252",
      "2022-08-05T13:06:32.752615",
      "2022-08-05T13:06:33.765875",
      "2022-08-05T13:06:34.834939",
      "2022-08-05T13:06:35.919473",
      "2022-08-05T13:06:37.016470",
      "2022-08-05T13:06:38.098886",
      "2022-08-05T13:06:39.188507",
      "2022-08-05T13:06:40.219464",
      "2022-08-05T13:06:40.874712",
      "2022-08-05T13:06:41.516762",
      "2022-08-05T13:06:42.157991",
      "2022-08-05T13:06:42.820845",
      "2022-08-05T13:06:43.504675",
      "2022-08-05T13:06:44.195755",
      "2022-08-05T13:06:44.864810",
      "2022-08-05T13:06:45.509469",
      "2022-08-05T13:06:46.180381",
      "2022-08-05T13:06:46.827761",
      "2022-08-05T13:06:47.483202",
      "2022-08-05T13:06:48.136325",
      "2022-08-05T13:06:48.777104",
      "2022-08-05T13:06:49.418480",
      "2022-08-05T13:06:50.070168",
      "2022-08-05T13:06:50.709453",
      "2022-08-05T13:06:51.349618",
      "2022-08-05T13:06:51.990387",
      "2022-08-05T13:06:52.631199",
      "2022-08-05T13:06:53.286395",
      "2022-08-05T13:06:53.934394",
      "2022-08-05T13:06:54.572722",
      "2022-08-05T13:06:55.212154",
      "2022-08-05T13:06:55.863798",
      "2022-08-05T13:06:56.541188",
      "2022-08-05T13:06:57.213783",
      "2022-08-05T13:06:57.863236",
      "2022-08-05T13:06:58.504808",
      "2022-08-05T13:06:59.174995",
      "2022-08-05T13:06:59.961000",
      "2022-08-05T13:07:00.745743",
      "2022-08-05T13:07:01.493176",
      "2022-08-05T13:07:02.148700",
      "2022-08-05T13:07:02.805659",
      "2022-08-05T13:07:03.468607",
      "2022-08-05T13:07:04.148479",
      "2022-08-05T13:07:04.813832",
      "2022-08-05T13:07:05.482472",
      "2022-08-05T13:07:06.155667",
      "2022-08-05T13:07:06.840394",
      "2022-08-05T13:07:07.483330",
      "2022-08-05T13:07:08.139102",
      "2022-08-05T13:07:08.783037",
      "2022-08-05T13:07:09.462624",
      "2022-08-05T13:07:10.152887",
      "2022-08-05T13:07:10.799972",
      "2022-08-05T13:07:11.475066",
      "2022-08-05T13:07:12.135887",
      "2022-08-05T13:07:12.794240",
      "2022-08-05T13:07:13.465231",
      "2022-08-05T13:07:14.117835",
      "2022-08-05T13:07:14.798020",
      "2022-08-05T13:07:15.458836",
      "2022-08-05T13:07:16.143979",
      "2022-08-05T13:07:16.809594",
      "2022-08-05T13:07:17.477069",
      "2022-08-05T13:07:18.159064",
      "2022-08-05T13:07:18.815627",
      "2022-08-05T13:07:19.487143",
      "2022-08-05T13:07:20.155369",
      "2022-08-05T13:07:20.813774",
      "2022-08-05T13:07:21.480559",
      "2022-08-05T13:07:22.133098",
      "2022-08-05T13:07:22.779361",
      "2022-08-05T13:07:23.455634",
      "2022-08-05T13:07:24.124338",
      "2022-08-05T13:07:24.767328",
      "2022-08-05T13:07:25.409828",
      "2022-08-05T13:07:26.058162",
      "2022-08-05T13:07:26.705351",
      "2022-08-05T13:07:27.346412",
      "2022-08-05T13:07:27.991564",
      "2022-08-05T13:07:28.647510",
      "2022-08-05T13:07:29.311045",
      "2022-08-05T13:07:29.965831",
      "2022-08-05T13:07:30.609030",
      "2022-08-05T13:07:31.253529",
      "2022-08-05T13:07:31.939893",
      "2022-08-05T13:07:32.639799",
      "2022-08-05T13:07:33.337131",
      "2022-08-05T13:07:33.995962",
      "2022-08-05T13:07:34.654198",
      "2022-08-05T13:07:35.298233",
      "2022-08-05T13:07:35.942857",
      "2022-08-05T13:07:36.598864",
      "2022-08-05T13:07:37.266570",
      "2022-08-05T13:07:37.909663",
      "2022-08-05T13:07:38.564991",
      "2022-08-05T13:07:39.232774",
      "2022-08-05T13:07:39.892657",
      "2022-08-05T13:07:40.533194",
      "2022-08-05T13:07:41.179961",
      "2022-08-05T13:07:41.849029",
      "2022-08-05T13:07:42.526626",
      "2022-08-05T13:07:43.188778",
      "2022-08-05T13:07:43.842453",
      "2022-08-05T13:07:44.501799",
      "2022-08-05T13:07:45.154470",
      "2022-08-05T13:07:45.835512",
      "2022-08-05T13:07:46.496057",
      "2022-08-05T13:07:47.159585",
      "2022-08-05T13:07:47.810655",
      "2022-08-05T13:07:48.453585",
      "2022-08-05T13:07:49.095999",
      "2022-08-05T13:07:49.753364",
      "2022-08-05T13:07:50.400094",
      "2022-08-05T13:07:51.046768",
      "2022-08-05T13:07:51.694677",
      "2022-08-05T13:07:52.359443",
      "2022-08-05T13:07:53.050586",
      "2022-08-05T13:07:53.702723",
      "2022-08-05T13:07:54.360430",
      "2022-08-05T13:07:55.040501",
      "2022-08-05T13:07:55.697706"
    ],
    "values": [
      9.599583339691161,
      9.435946502685546,
      9.557479496002196,
      9.430086765289307,
      9.496880855560303,
      9.460904521942139,
      9.392251319885254,
      9.383993606567383,
      9.367913761138915,
      9.412534294128418,
      9.418668308258056,
      9.379803009033203,
      9.393467330932618,
      9.377247009277344,
      9.413501605987548,
      9.438255634307861,
      9.424869117736817,
      9.417673244476319,
      9.394498958587647,
      9.391196746826171,
      9.425464992523194,
      9.383283958435058,
      9.374533004760742,
      9.402760467529298,
      9.42890884399414,
      9.405060806274413,
      9.363051853179932,
      9.394616928100586,
      9.359556961059571,
      9.374185848236085,
      9.344606475830078,
      9.373867473602296,
      9.382999229431153,
      9.374549961090088,
      9.370132484436034,
      9.35637752532959,
      9.38153896331787,
      9.381529750823974,
      9.434758758544922,
      9.366035919189454,
      9.414958438873292,
      9.379914722442628,
      9.413910350799561,
      9.332804908752442,
      9.35847427368164,
      9.384428329467774,
      9.381331253051759,
      9.365627098083497,
      9.355325469970703,
      9.42638391494751,
      9.359657096862794,
      9.372193660736084,
      9.365740547180176,
      9.363727493286133,
      9.395456504821777,
      9.393067989349365,
      9.378642368316651,
      9.372278423309327,
      9.379022521972656,
      9.411551818847656,
      9.379878883361817,
      9.381011524200439,
      9.380590057373047,
      9.345191383361817,
      9.406724109649659,
      9.398473205566406,
      9.350749034881591,
      9.36294776916504,
      9.34236837387085,
      9.423888568878175,
      9.356529712677002,
      9.347606830596924,
      9.354902210235595,
      9.355547790527345,
      9.368356761932374,
      9.370690231323243,
      9.36393871307373,
      9.356898021697997,
      9.374929218292236,
      9.371053085327148,
      9.373358173370361,
      9.371004199981689,
      9.363356971740723,
      9.378199768066406,
      9.351150016784668,
      9.352335586547852,
      9.339830169677734,
      9.349264869689941,
      9.400822734832763,
      9.359703273773194,
      9.32578037261963,
      9.320544548034668,
      9.326278457641601,
      9.325451736450196,
      9.3243284034729,
      9.330091438293458,
      9.325576152801514,
      9.32037935256958,
      9.323195152282715,
      9.32696153640747,
      9.32836711883545,
      9.329043445587159,
      9.326647834777832,
      9.322643337249756,
      9.324429130554199,
      9.323521690368652,
      9.32315731048584,
      9.323977298736573,
      9.327215747833252,
      9.323287658691406,
      9.327954502105714,
      9.324354553222657,
      9.32331506729126,
      9.322521896362305,
      9.326051330566406,
      9.325169811248779,
      9.32717514038086,
      9.324681243896485,
      9.323932723999024,
      9.327222480773926,
      9.324284706115723,
      9.325032386779785,
      9.32527400970459,
      9.324635143280029,
      9.322306213378907,
      9.33001760482788,
      9.325166530609131,
      9.322555103302001,
      9.331718254089356,
      9.32494478225708,
      9.321818504333496,
      9.321670417785645,
      9.321764469146729,
      9.321311511993407,
      9.321573257446289,
      9.321507778167724,
      9.321400184631347,
      9.32159273147583,
      9.32181308746338,
      9.321727771759033,
      9.321599407196045,
      9.321611042022704,
      9.321751918792724,
      9.32172914505005,
      9.321856422424316,
      9.321712017059326,
      9.32189416885376,
      9.321982879638671,
      9.321826934814453,
      9.321504802703858,
      9.321595478057862,
      9.321871757507324,
      9.321770820617676,
      9.321765918731689,
      9.321739082336427,
      9.321733093261718,
      9.321738166809082,
      9.321739730834961,
      9.32174129486084,
      9.321742458343506,
      9.32175048828125,
      9.321778755187989,
      9.321764373779297,
      9.321765232086182,
      9.321745471954346,
      9.321768379211425,
      9.321783676147462,
      9.321780662536622,
      9.321785640716552,
      9.321775817871094,
      9.321809406280517,
      9.321792316436767,
      9.321778812408446,
      9.321791439056396,
      9.321794662475586,
      9.321797828674317,
      9.321796436309814,
      9.321795959472656,
      9.321796417236328,
      9.321799507141113,
      9.321799392700195,
      9.321801452636718,
      9.321800193786622,
      9.321801109313965,
      9.321800441741944,
      9.32180326461792,
      9.321804599761963,
      9.321802806854247,
      9.321806697845458,
      9.321804656982422,
      9.32180570602417,
      9.321803226470948,
      9.321803169250488,
      9.32180362701416,
      9.321803455352784,
      9.321807346343995,
      9.321805038452148,
      9.32180576324463,
      9.321807518005372,
      9.321806716918946
    ]
  }
}