INFO - residual_nf - Running command 'run'
INFO - residual_nf - Started run with ID "1"
[CONFIG] {'bn': 'ecoli70-alt', 'structure': 'faithful', 'coeff': 0.99, 'n_power_iterations': 5, 'num_blocks': 16, 'hidden_dims': [200], 'activation': 'lipmish', 'grad_in_forward': True, 'batch_size': 100, 'num_train_samples': 10000, 'num_val_samples': 5000, 'num_epochs': 200, 'num_train_batches': 100, 'num_val_batches': 50, 'lr': 0.01, 'seed': 0, 'patience': 20, 'double': True, 'run': 1, 'checkpoint_n': 10, 'load_from_checkpoint': False, 'ex_name': 'residual_nf', 'sub_folder': 'faithful_99_lipmish_16_[200]', 'path': './experiment_logs/residual_nf/ecoli70-alt/faithful_99_lipmish_16_[200]', 'bt_config': {'depth': 5, 'seed': 4}}
[DEVICE] cpu
[ENCODED STRUCTURE] Using faithful BN structure.
  0%|          | 0/200 [00:00<?, ?it/s]Train: 55.479, Val: 35.628:   0%|          | 1/200 [00:27<1:32:26, 27.87s/it]Train: 35.565, Val: 35.366:   1%|          | 2/200 [00:44<1:09:17, 21.00s/it]Train: 35.456, Val: 35.504:   2%|▏         | 3/200 [01:01<1:02:58, 19.18s/it]Train: 35.417, Val: 35.387:   2%|▏         | 4/200 [01:15<56:12, 17.21s/it]  Train: 35.419, Val: 35.377:   2%|▎         | 5/200 [01:52<1:19:43, 24.53s/it]Train: 35.435, Val: 35.424:   3%|▎         | 6/200 [02:16<1:18:46, 24.36s/it]Train: 35.432, Val: 35.415:   4%|▎         | 7/200 [02:45<1:22:55, 25.78s/it]Train: 35.403, Val: 35.263:   4%|▍         | 8/200 [03:14<1:26:15, 26.95s/it]Train: 35.384, Val: 35.417:   4%|▍         | 9/200 [03:44<1:28:19, 27.75s/it]Train: 35.376, Val: 35.340:   5%|▌         | 10/200 [04:14<1:29:37, 28.30s/it]Train: 35.339, Val: 35.331:   6%|▌         | 11/200 [04:43<1:29:59, 28.57s/it]Train: 35.368, Val: 35.323:   6%|▌         | 12/200 [05:10<1:28:44, 28.32s/it]Train: 35.350, Val: 35.335:   6%|▋         | 13/200 [05:36<1:25:37, 27.48s/it]Train: 35.358, Val: 35.261:   7%|▋         | 14/200 [06:04<1:25:48, 27.68s/it]Train: 35.317, Val: 35.302:   8%|▊         | 15/200 [06:32<1:25:19, 27.67s/it]Train: 35.345, Val: 35.271:   8%|▊         | 16/200 [07:01<1:26:25, 28.18s/it]Train: 35.345, Val: 35.234:   8%|▊         | 17/200 [07:27<1:23:27, 27.36s/it]Train: 35.368, Val: 35.298:   9%|▉         | 18/200 [07:54<1:23:26, 27.51s/it]Train: 35.316, Val: 35.330:  10%|▉         | 19/200 [08:23<1:23:45, 27.76s/it]Train: 35.349, Val: 35.261:  10%|█         | 20/200 [08:51<1:23:25, 27.81s/it]Train: 35.343, Val: 35.331:  10%|█         | 21/200 [09:16<1:20:42, 27.05s/it]Train: 35.368, Val: 35.329:  11%|█         | 22/200 [09:43<1:20:37, 27.18s/it]Train: 35.357, Val: 35.423:  12%|█▏        | 23/200 [10:12<1:21:02, 27.47s/it]Train: 35.285, Val: 35.251:  12%|█▏        | 24/200 [10:41<1:21:52, 27.91s/it]Train: 35.285, Val: 35.299:  12%|█▎        | 25/200 [11:07<1:19:59, 27.42s/it]Train: 35.306, Val: 35.304:  13%|█▎        | 26/200 [11:34<1:19:27, 27.40s/it]Train: 35.283, Val: 35.203:  14%|█▎        | 27/200 [12:01<1:18:38, 27.28s/it]Train: 35.342, Val: 35.346:  14%|█▍        | 28/200 [12:27<1:16:47, 26.79s/it]Train: 35.342, Val: 35.375:  14%|█▍        | 29/200 [12:54<1:16:48, 26.95s/it]Train: 35.329, Val: 35.490:  15%|█▌        | 30/200 [13:22<1:16:56, 27.16s/it]Train: 35.337, Val: 35.204:  16%|█▌        | 31/200 [13:50<1:17:19, 27.45s/it]Train: 35.284, Val: 35.333:  16%|█▌        | 32/200 [14:16<1:15:31, 26.97s/it]Train: 35.290, Val: 35.221:  16%|█▋        | 33/200 [14:44<1:16:09, 27.36s/it]Train: 35.301, Val: 35.318:  17%|█▋        | 34/200 [15:12<1:16:21, 27.60s/it]Train: 35.289, Val: 35.241:  18%|█▊        | 35/200 [15:37<1:13:49, 26.85s/it]Train: 35.328, Val: 35.324:  18%|█▊        | 36/200 [16:06<1:15:05, 27.47s/it]Train: 35.322, Val: 35.375:  18%|█▊        | 37/200 [16:33<1:14:26, 27.40s/it]Train: 35.315, Val: 35.285:  19%|█▉        | 38/200 [17:01<1:13:58, 27.40s/it]Train: 35.299, Val: 35.471:  20%|█▉        | 39/200 [17:31<1:15:46, 28.24s/it]Train: 35.280, Val: 35.281:  20%|██        | 40/200 [17:57<1:13:09, 27.43s/it]Train: 35.287, Val: 35.230:  20%|██        | 41/200 [18:24<1:12:50, 27.49s/it]Train: 35.272, Val: 35.255:  21%|██        | 42/200 [18:52<1:12:52, 27.67s/it]Train: 35.332, Val: 35.335:  22%|██▏       | 43/200 [19:24<1:15:36, 28.90s/it]Train: 35.302, Val: 35.267:  22%|██▏       | 44/200 [19:52<1:14:35, 28.69s/it]Train: 35.258, Val: 35.183:  22%|██▎       | 45/200 [20:21<1:14:23, 28.80s/it]Train: 35.269, Val: 35.166:  23%|██▎       | 46/200 [20:51<1:14:34, 29.06s/it]Train: 35.301, Val: 35.262:  24%|██▎       | 47/200 [21:16<1:10:53, 27.80s/it]Train: 35.314, Val: 35.205:  24%|██▍       | 48/200 [21:44<1:10:21, 27.77s/it]Train: 35.282, Val: 35.202:  24%|██▍       | 49/200 [22:13<1:10:59, 28.21s/it]Train: 35.254, Val: 35.181:  25%|██▌       | 50/200 [22:42<1:10:54, 28.36s/it]Train: 35.262, Val: 35.236:  26%|██▌       | 51/200 [23:07<1:08:30, 27.59s/it]Train: 35.263, Val: 35.252:  26%|██▌       | 52/200 [23:35<1:08:19, 27.70s/it]Train: 35.271, Val: 35.206:  26%|██▋       | 53/200 [24:04<1:08:23, 27.92s/it]Train: 35.293, Val: 35.290:  27%|██▋       | 54/200 [24:32<1:08:08, 28.01s/it]Train: 35.285, Val: 35.204:  28%|██▊       | 55/200 [24:57<1:05:47, 27.22s/it]Train: 35.279, Val: 35.268:  28%|██▊       | 56/200 [25:25<1:05:54, 27.46s/it]Train: 35.310, Val: 35.274:  28%|██▊       | 57/200 [25:54<1:06:33, 27.92s/it]Train: 35.266, Val: 35.236:  29%|██▉       | 58/200 [26:23<1:06:20, 28.03s/it]Train: 35.291, Val: 35.262:  30%|██▉       | 59/200 [26:51<1:06:02, 28.10s/it]Train: 35.284, Val: 35.149:  30%|███       | 60/200 [27:17<1:03:59, 27.43s/it]Train: 35.297, Val: 35.229:  30%|███       | 61/200 [27:45<1:04:11, 27.71s/it]Train: 35.243, Val: 35.166:  31%|███       | 62/200 [28:13<1:03:48, 27.74s/it]Train: 35.247, Val: 35.221:  32%|███▏      | 63/200 [28:41<1:03:22, 27.76s/it]Train: 35.267, Val: 35.223:  32%|███▏      | 64/200 [29:07<1:02:00, 27.36s/it]Train: 35.250, Val: 35.184:  32%|███▎      | 65/200 [29:35<1:01:59, 27.55s/it]Train: 35.270, Val: 35.349:  33%|███▎      | 66/200 [30:03<1:01:56, 27.74s/it]Train: 35.275, Val: 35.200:  34%|███▎      | 67/200 [30:34<1:03:25, 28.61s/it]Train: 35.300, Val: 35.250:  34%|███▍      | 68/200 [31:02<1:02:48, 28.55s/it]Train: 35.247, Val: 35.204:  34%|███▍      | 69/200 [31:28<1:00:15, 27.60s/it]Train: 35.282, Val: 35.330:  35%|███▌      | 70/200 [31:56<1:00:21, 27.86s/it]Train: 35.265, Val: 35.209:  36%|███▌      | 71/200 [32:24<59:58, 27.89s/it]  Train: 35.254, Val: 35.237:  36%|███▌      | 72/200 [32:52<59:40, 27.98s/it]Train: 35.259, Val: 35.258:  36%|███▋      | 73/200 [33:18<57:50, 27.33s/it]Train: 35.249, Val: 35.230:  37%|███▋      | 74/200 [33:46<57:32, 27.40s/it]Train: 35.230, Val: 35.224:  38%|███▊      | 75/200 [34:14<57:44, 27.72s/it]Train: 35.223, Val: 35.257:  38%|███▊      | 76/200 [34:42<57:37, 27.88s/it]Train: 35.270, Val: 35.278:  38%|███▊      | 77/200 [35:13<58:36, 28.59s/it]Train: 35.257, Val: 35.232:  39%|███▉      | 78/200 [35:38<55:58, 27.53s/it]Train: 35.245, Val: 35.163:  40%|███▉      | 79/200 [36:07<56:48, 28.17s/it]Train: 35.229, Val: 35.205:  40%|████      | 80/200 [36:35<56:14, 28.12s/it]Train: 35.264, Val: 35.204:  40%|████      | 81/200 [37:03<55:32, 28.00s/it]Train: 35.230, Val: 35.238:  41%|████      | 82/200 [37:37<58:19, 29.65s/it]Train: 35.277, Val: 35.213:  42%|████▏     | 83/200 [38:11<1:00:41, 31.12s/it]Train: 35.243, Val: 35.274:  42%|████▏     | 84/200 [38:37<57:12, 29.59s/it]  Train: 35.267, Val: 35.257:  42%|████▎     | 85/200 [39:11<58:50, 30.70s/it]Train: 35.222, Val: 35.172:  43%|████▎     | 86/200 [39:34<54:10, 28.51s/it]Train: 35.238, Val: 35.293:  44%|████▎     | 87/200 [40:04<54:25, 28.90s/it]Train: 35.254, Val: 35.184:  44%|████▍     | 88/200 [40:44<1:00:19, 32.32s/it]Train: 35.235, Val: 35.277:  44%|████▍     | 89/200 [41:16<59:48, 32.32s/it]  Train: 35.242, Val: 35.160:  45%|████▌     | 90/200 [41:49<59:33, 32.49s/it]Train: 35.239, Val: 35.246:  46%|████▌     | 91/200 [42:14<54:52, 30.20s/it]Train: 35.223, Val: 35.210:  46%|████▌     | 92/200 [42:45<54:30, 30.28s/it]Train: 35.246, Val: 35.204:  46%|████▋     | 93/200 [43:07<49:51, 27.96s/it]Train: 35.229, Val: 35.177:  47%|████▋     | 94/200 [43:45<54:26, 30.82s/it]Train: 35.217, Val: 35.193:  48%|████▊     | 95/200 [44:24<58:37, 33.50s/it]Train: 35.234, Val: 35.320:  48%|████▊     | 96/200 [44:58<57:54, 33.41s/it]Train: 35.220, Val: 35.191:  48%|████▊     | 97/200 [45:32<57:52, 33.72s/it]Train: 35.229, Val: 35.228:  49%|████▉     | 98/200 [46:08<58:19, 34.31s/it]Train: 35.239, Val: 35.155:  50%|████▉     | 99/200 [46:22<47:33, 28.25s/it]Train: 35.232, Val: 35.200:  50%|█████     | 100/200 [46:35<39:37, 23.77s/it]Train: 35.258, Val: 35.168:  50%|█████     | 101/200 [46:53<36:24, 22.07s/it]Train: 35.198, Val: 35.184:  51%|█████     | 102/200 [47:10<33:21, 20.42s/it]Train: 35.234, Val: 35.176:  52%|█████▏    | 103/200 [47:26<30:49, 19.07s/it]Train: 35.233, Val: 35.255:  52%|█████▏    | 104/200 [47:42<29:04, 18.18s/it]Train: 35.214, Val: 35.180:  52%|█████▎    | 105/200 [47:58<27:53, 17.62s/it]Train: 35.247, Val: 35.332:  53%|█████▎    | 106/200 [48:15<27:03, 17.27s/it]Train: 35.207, Val: 35.188:  54%|█████▎    | 107/200 [48:31<26:19, 16.98s/it]Train: 35.217, Val: 35.241:  54%|█████▍    | 108/200 [48:47<25:35, 16.70s/it]Train: 35.222, Val: 35.237:  55%|█████▍    | 109/200 [49:03<25:03, 16.53s/it]Train: 35.232, Val: 35.164:  55%|█████▌    | 110/200 [49:19<24:43, 16.48s/it]Train: 35.214, Val: 35.264:  56%|█████▌    | 111/200 [49:36<24:20, 16.41s/it]Train: 35.231, Val: 35.200:  56%|█████▌    | 112/200 [49:50<23:22, 15.94s/it]Train: 35.242, Val: 35.182:  56%|█████▋    | 113/200 [50:03<21:48, 15.04s/it]Train: 35.232, Val: 35.159:  57%|█████▋    | 114/200 [50:16<20:33, 14.35s/it]Train: 35.212, Val: 35.196:  57%|█████▊    | 115/200 [50:29<19:39, 13.88s/it]Train: 35.217, Val: 35.188:  58%|█████▊    | 116/200 [50:42<19:05, 13.63s/it]Train: 35.217, Val: 35.297:  58%|█████▊    | 117/200 [50:55<18:33, 13.42s/it]Train: 35.213, Val: 35.159:  59%|█████▉    | 118/200 [51:08<18:06, 13.25s/it]Train: 35.198, Val: 35.219:  60%|█████▉    | 119/200 [51:21<17:50, 13.21s/it]Train: 35.182, Val: 35.231:  60%|██████    | 120/200 [51:34<17:36, 13.20s/it]Train: 35.203, Val: 35.138:  60%|██████    | 121/200 [51:48<17:30, 13.30s/it]Train: 35.205, Val: 35.152:  61%|██████    | 122/200 [52:01<17:19, 13.32s/it]Train: 35.215, Val: 35.138:  62%|██████▏   | 123/200 [52:19<18:52, 14.70s/it]Train: 35.192, Val: 35.165:  62%|██████▏   | 124/200 [52:36<19:25, 15.33s/it]Train: 35.191, Val: 35.143:  62%|██████▎   | 125/200 [52:53<19:43, 15.78s/it]Train: 35.210, Val: 35.163:  63%|██████▎   | 126/200 [53:08<19:28, 15.79s/it]Train: 35.204, Val: 35.170:  64%|██████▎   | 127/200 [53:25<19:26, 15.98s/it]Train: 35.193, Val: 35.211:  64%|██████▍   | 128/200 [53:41<19:23, 16.16s/it]Train: 35.193, Val: 35.180:  64%|██████▍   | 129/200 [53:57<19:05, 16.13s/it]Train: 35.206, Val: 35.154:  65%|██████▌   | 130/200 [54:14<18:55, 16.21s/it]Train: 35.205, Val: 35.198:  66%|██████▌   | 131/200 [54:30<18:39, 16.23s/it]Train: 35.229, Val: 35.183:  66%|██████▌   | 132/200 [54:47<18:30, 16.33s/it]Train: 35.219, Val: 35.227:  66%|██████▋   | 133/200 [55:06<19:08, 17.14s/it]Train: 35.230, Val: 35.137:  67%|██████▋   | 134/200 [55:22<18:33, 16.87s/it]Train: 35.219, Val: 35.227:  68%|██████▊   | 135/200 [55:36<17:17, 15.96s/it]Train: 35.209, Val: 35.164:  68%|██████▊   | 136/200 [55:49<16:02, 15.03s/it]Train: 35.207, Val: 35.177:  68%|██████▊   | 137/200 [56:02<15:07, 14.41s/it]Train: 35.190, Val: 35.165:  69%|██████▉   | 138/200 [56:16<14:58, 14.49s/it]Train: 35.183, Val: 35.141:  70%|██████▉   | 139/200 [56:30<14:35, 14.35s/it]Train: 35.193, Val: 35.192:  70%|███████   | 140/200 [56:44<14:05, 14.09s/it]Epoch   141: reducing learning rate of group 0 to 1.0000e-03.
Train: 35.202, Val: 35.185:  70%|███████   | 141/200 [56:57<13:33, 13.80s/it]Train: 35.066, Val: 35.029:  71%|███████   | 142/200 [57:10<13:02, 13.49s/it]Train: 35.043, Val: 35.033:  72%|███████▏  | 143/200 [57:23<12:45, 13.42s/it]Train: 35.042, Val: 35.034:  72%|███████▏  | 144/200 [57:36<12:26, 13.32s/it]Train: 35.037, Val: 35.022:  72%|███████▎  | 145/200 [57:49<12:13, 13.34s/it]Train: 35.036, Val: 35.036:  73%|███████▎  | 146/200 [58:02<11:55, 13.25s/it]Train: 35.042, Val: 35.023:  74%|███████▎  | 147/200 [58:17<11:57, 13.54s/it]Train: 35.037, Val: 35.037:  74%|███████▍  | 148/200 [58:35<12:54, 14.89s/it]Train: 35.041, Val: 35.036:  74%|███████▍  | 149/200 [58:51<13:03, 15.37s/it]Train: 35.042, Val: 35.025:  75%|███████▌  | 150/200 [59:09<13:21, 16.02s/it]Train: 35.036, Val: 35.026:  76%|███████▌  | 151/200 [59:25<13:12, 16.16s/it]Train: 35.042, Val: 35.027:  76%|███████▌  | 152/200 [59:41<12:47, 15.99s/it]Train: 35.038, Val: 35.030:  76%|███████▋  | 153/200 [59:56<12:26, 15.89s/it]Train: 35.039, Val: 35.026:  77%|███████▋  | 154/200 [1:00:12<12:08, 15.84s/it]Train: 35.039, Val: 35.039:  78%|███████▊  | 155/200 [1:00:28<11:49, 15.77s/it]Train: 35.042, Val: 35.025:  78%|███████▊  | 156/200 [1:00:43<11:31, 15.71s/it]Train: 35.041, Val: 35.031:  78%|███████▊  | 157/200 [1:00:59<11:17, 15.76s/it]Train: 35.042, Val: 35.029:  79%|███████▉  | 158/200 [1:01:15<11:02, 15.78s/it]Train: 35.040, Val: 35.027:  80%|███████▉  | 159/200 [1:01:30<10:31, 15.39s/it]Train: 35.044, Val: 35.027:  80%|████████  | 160/200 [1:01:44<09:59, 14.98s/it]Train: 35.037, Val: 35.041:  80%|████████  | 161/200 [1:02:02<10:20, 15.92s/it]Train: 35.037, Val: 35.027:  81%|████████  | 162/200 [1:02:19<10:19, 16.30s/it]Train: 35.041, Val: 35.028:  82%|████████▏ | 163/200 [1:02:36<10:12, 16.55s/it]Train: 35.042, Val: 35.019:  82%|████████▏ | 164/200 [1:02:53<10:00, 16.67s/it]Train: 35.041, Val: 35.031:  82%|████████▎ | 165/200 [1:03:09<09:42, 16.63s/it]Epoch   166: reducing learning rate of group 0 to 1.0000e-04.
Train: 35.041, Val: 35.035:  83%|████████▎ | 166/200 [1:03:26<09:25, 16.64s/it]Train: 35.030, Val: 35.011:  84%|████████▎ | 167/200 [1:03:43<09:09, 16.66s/it]Train: 35.023, Val: 35.010:  84%|████████▍ | 168/200 [1:04:00<08:53, 16.68s/it]Train: 35.022, Val: 35.014:  84%|████████▍ | 169/200 [1:04:16<08:37, 16.69s/it]Train: 35.022, Val: 35.012:  85%|████████▌ | 170/200 [1:04:33<08:22, 16.73s/it]Train: 35.022, Val: 35.008:  86%|████████▌ | 171/200 [1:04:50<08:03, 16.67s/it]Train: 35.020, Val: 35.013:  86%|████████▌ | 172/200 [1:05:05<07:32, 16.15s/it]Train: 35.021, Val: 35.012:  86%|████████▋ | 173/200 [1:05:18<06:51, 15.24s/it]Train: 35.022, Val: 35.010:  87%|████████▋ | 174/200 [1:05:31<06:21, 14.66s/it]Train: 35.021, Val: 35.011:  88%|████████▊ | 175/200 [1:05:44<05:54, 14.18s/it]Train: 35.021, Val: 35.008:  88%|████████▊ | 176/200 [1:05:57<05:32, 13.85s/it]Train: 35.021, Val: 35.009:  88%|████████▊ | 177/200 [1:06:10<05:13, 13.63s/it]Train: 35.021, Val: 35.010:  89%|████████▉ | 178/200 [1:06:23<04:56, 13.48s/it]Train: 35.021, Val: 35.009:  90%|████████▉ | 179/200 [1:06:37<04:43, 13.51s/it]Train: 35.020, Val: 35.009:  90%|█████████ | 180/200 [1:06:50<04:26, 13.35s/it]Train: 35.020, Val: 35.009:  90%|█████████ | 181/200 [1:07:03<04:12, 13.27s/it]Train: 35.021, Val: 35.007:  91%|█████████ | 182/200 [1:07:17<04:00, 13.34s/it]Train: 35.022, Val: 35.007:  92%|█████████▏| 183/200 [1:07:33<04:05, 14.42s/it]Train: 35.021, Val: 35.012:  92%|█████████▏| 184/200 [1:07:47<03:47, 14.21s/it]Train: 35.020, Val: 35.008:  92%|█████████▎| 185/200 [1:08:00<03:28, 13.90s/it]Train: 35.021, Val: 35.011:  93%|█████████▎| 186/200 [1:08:14<03:11, 13.70s/it]Train: 35.020, Val: 35.011:  94%|█████████▎| 187/200 [1:08:26<02:54, 13.40s/it]Train: 35.022, Val: 35.006:  94%|█████████▍| 188/200 [1:08:41<02:43, 13.64s/it]Epoch   189: reducing learning rate of group 0 to 1.0000e-05.
Train: 35.021, Val: 35.008:  94%|█████████▍| 189/200 [1:08:55<02:32, 13.89s/it]Train: 35.021, Val: 35.009:  95%|█████████▌| 190/200 [1:09:09<02:18, 13.80s/it]Train: 35.019, Val: 35.008:  96%|█████████▌| 191/200 [1:09:22<02:02, 13.66s/it]Train: 35.020, Val: 35.009:  96%|█████████▌| 192/200 [1:09:35<01:48, 13.54s/it]Train: 35.021, Val: 35.007:  96%|█████████▋| 193/200 [1:09:48<01:34, 13.44s/it]Train: 35.020, Val: 35.008:  97%|█████████▋| 194/200 [1:10:02<01:20, 13.36s/it]Train: 35.019, Val: 35.008:  98%|█████████▊| 195/200 [1:10:15<01:06, 13.32s/it]Train: 35.018, Val: 35.010:  98%|█████████▊| 196/200 [1:10:30<00:55, 13.92s/it]Train: 35.020, Val: 35.008:  98%|█████████▊| 197/200 [1:10:43<00:41, 13.68s/it]Train: 35.020, Val: 35.006:  99%|█████████▉| 198/200 [1:10:57<00:27, 13.63s/it]Train: 35.020, Val: 35.008: 100%|█████████▉| 199/200 [1:11:17<00:15, 15.51s/it]Train: 35.019, Val: 35.007: 100%|██████████| 200/200 [1:11:32<00:00, 15.37s/it]Train: 35.019, Val: 35.007: 100%|██████████| 200/200 [1:11:32<00:00, 21.46s/it]
INFO - residual_nf - Completed after 1:11:34
