{
  "memory.usage": {
    "steps": [
      0,
      1,
      2,
      3,
      4,
      5,
      6,
      7,
      8,
      9,
      10,
      11,
      12,
      13,
      14,
      15,
      16,
      17,
      18,
      19,
      20,
      21,
      22,
      23,
      24,
      25,
      26,
      27,
      28,
      29,
      30,
      31,
      32,
      33,
      34,
      35,
      36,
      37,
      38,
      39,
      40,
      41,
      42,
      43,
      44,
      45,
      46,
      47,
      48,
      49,
      50,
      51,
      52,
      53,
      54,
      55,
      56,
      57,
      58,
      59,
      60,
      61,
      62,
      63,
      64,
      65,
      66,
      67,
      68,
      69,
      70,
      71,
      72,
      73,
      74,
      75,
      76,
      77,
      78,
      79,
      80,
      81,
      82,
      83,
      84,
      85,
      86,
      87,
      88,
      89,
      90,
      91,
      92,
      93,
      94,
      95,
      96,
      97,
      98,
      99,
      100,
      101,
      102,
      103,
      104,
      105,
      106,
      107,
      108,
      109,
      110,
      111,
      112,
      113,
      114,
      115,
      116,
      117,
      118,
      119,
      120,
      121,
      122,
      123,
      124,
      125,
      126,
      127,
      128,
      129,
      130,
      131,
      132,
      133,
      134,
      135,
      136,
      137,
      138,
      139,
      140,
      141,
      142,
      143,
      144,
      145,
      146,
      147,
      148,
      149,
      150,
      151,
      152,
      153,
      154,
      155,
      156,
      157,
      158,
      159,
      160,
      161,
      162,
      163,
      164,
      165,
      166,
      167,
      168,
      169,
      170,
      171,
      172,
      173,
      174,
      175,
      176,
      177,
      178,
      179,
      180,
      181,
      182,
      183,
      184,
      185,
      186,
      187,
      188,
      189,
      190,
      191,
      192,
      193,
      194,
      195,
      196,
      197,
      198,
      199,
      200,
      201,
      202,
      203,
      204,
      205,
      206,
      207,
      208,
      209,
      210,
      211,
      212,
      213,
      214,
      215,
      216,
      217,
      218,
      219,
      220,
      221,
      222,
      223,
      224,
      225,
      226,
      227,
      228,
      229,
      230,
      231,
      232,
      233,
      234,
      235,
      236,
      237,
      238,
      239,
      240,
      241,
      242,
      243,
      244,
      245,
      246,
      247,
      248,
      249,
      250,
      251,
      252,
      253,
      254,
      255,
      256,
      257,
      258,
      259,
      260,
      261,
      262,
      263,
      264,
      265,
      266,
      267,
      268,
      269,
      270,
      271,
      272,
      273,
      274,
      275,
      276,
      277,
      278,
      279,
      280,
      281,
      282,
      283,
      284,
      285,
      286,
      287,
      288,
      289,
      290,
      291,
      292,
      293,
      294,
      295,
      296,
      297,
      298,
      299,
      300,
      301,
      302,
      303,
      304,
      305,
      306,
      307,
      308,
      309,
      310,
      311,
      312,
      313,
      314,
      315,
      316,
      317,
      318,
      319,
      320,
      321,
      322,
      323,
      324,
      325,
      326,
      327,
      328,
      329,
      330,
      331,
      332,
      333,
      334,
      335,
      336,
      337,
      338,
      339,
      340,
      341,
      342,
      343,
      344,
      345,
      346,
      347,
      348,
      349,
      350,
      351,
      352,
      353,
      354,
      355,
      356,
      357,
      358,
      359,
      360,
      361,
      362,
      363,
      364,
      365,
      366,
      367,
      368,
      369,
      370,
      371,
      372,
      373,
      374,
      375,
      376,
      377,
      378,
      379,
      380,
      381,
      382,
      383,
      384,
      385,
      386,
      387,
      388,
      389,
      390,
      391,
      392,
      393,
      394,
      395,
      396,
      397,
      398,
      399
    ],
    "timestamps": [
      "2023-03-07T03:15:58.351266",
      "2023-03-07T03:16:07.532928",
      "2023-03-07T03:16:16.759057",
      "2023-03-07T03:16:25.927588",
      "2023-03-07T03:16:35.104123",
      "2023-03-07T03:16:44.240109",
      "2023-03-07T03:16:53.454664",
      "2023-03-07T03:17:02.651086",
      "2023-03-07T03:17:11.844358",
      "2023-03-07T03:17:21.160898",
      "2023-03-07T03:17:30.324342",
      "2023-03-07T03:17:39.496875",
      "2023-03-07T03:17:48.637760",
      "2023-03-07T03:17:57.845147",
      "2023-03-07T03:18:06.965850",
      "2023-03-07T03:18:16.089245",
      "2023-03-07T03:18:25.212772",
      "2023-03-07T03:18:34.371551",
      "2023-03-07T03:18:43.518919",
      "2023-03-07T03:18:52.684771",
      "2023-03-07T03:19:01.862944",
      "2023-03-07T03:19:11.010351",
      "2023-03-07T03:19:20.253413",
      "2023-03-07T03:19:29.450086",
      "2023-03-07T03:19:38.558836",
      "2023-03-07T03:19:47.719899",
      "2023-03-07T03:19:56.839968",
      "2023-03-07T03:20:05.971128",
      "2023-03-07T03:20:15.127669",
      "2023-03-07T03:20:24.373794",
      "2023-03-07T03:20:33.543227",
      "2023-03-07T03:20:42.732976",
      "2023-03-07T03:20:52.066096",
      "2023-03-07T03:21:01.246330",
      "2023-03-07T03:21:10.388680",
      "2023-03-07T03:21:19.537734",
      "2023-03-07T03:21:28.697239",
      "2023-03-07T03:21:37.822652",
      "2023-03-07T03:21:46.989424",
      "2023-03-07T03:21:56.145814",
      "2023-03-07T03:22:05.294749",
      "2023-03-07T03:22:14.480704",
      "2023-03-07T03:22:23.639480",
      "2023-03-07T03:22:32.831214",
      "2023-03-07T03:22:42.001477",
      "2023-03-07T03:22:51.156594",
      "2023-03-07T03:23:00.312755",
      "2023-03-07T03:23:09.436268",
      "2023-03-07T03:23:18.562408",
      "2023-03-07T03:23:27.775562",
      "2023-03-07T03:23:36.949175",
      "2023-03-07T03:23:46.091235",
      "2023-03-07T03:23:55.252466",
      "2023-03-07T03:24:04.397017",
      "2023-03-07T03:24:13.548032",
      "2023-03-07T03:24:22.712533",
      "2023-03-07T03:24:31.936861",
      "2023-03-07T03:24:41.064718",
      "2023-03-07T03:24:50.208252",
      "2023-03-07T03:24:59.353401",
      "2023-03-07T03:25:08.579226",
      "2023-03-07T03:25:17.708224",
      "2023-03-07T03:25:26.870121",
      "2023-03-07T03:25:35.986286",
      "2023-03-07T03:25:45.191147",
      "2023-03-07T03:25:54.411907",
      "2023-03-07T03:26:03.533197",
      "2023-03-07T03:26:12.662940",
      "2023-03-07T03:26:21.775604",
      "2023-03-07T03:26:30.928123",
      "2023-03-07T03:26:40.151991",
      "2023-03-07T03:26:49.277274",
      "2023-03-07T03:26:58.468144",
      "2023-03-07T03:27:07.652942",
      "2023-03-07T03:27:16.868104",
      "2023-03-07T03:27:26.032270",
      "2023-03-07T03:27:35.152509",
      "2023-03-07T03:27:44.311349",
      "2023-03-07T03:27:53.472223",
      "2023-03-07T03:28:02.715639",
      "2023-03-07T03:28:11.900885",
      "2023-03-07T03:28:21.142839",
      "2023-03-07T03:28:30.350462",
      "2023-03-07T03:28:39.494085",
      "2023-03-07T03:28:48.608425",
      "2023-03-07T03:28:57.719084",
      "2023-03-07T03:29:06.942316",
      "2023-03-07T03:29:16.152461",
      "2023-03-07T03:29:25.395211",
      "2023-03-07T03:29:34.624062",
      "2023-03-07T03:29:43.804099",
      "2023-03-07T03:29:52.948945",
      "2023-03-07T03:30:02.191101",
      "2023-03-07T03:30:11.350710",
      "2023-03-07T03:30:20.493659",
      "2023-03-07T03:30:29.627504",
      "2023-03-07T03:30:38.818059",
      "2023-03-07T03:30:47.952228",
      "2023-03-07T03:30:57.079504",
      "2023-03-07T03:31:06.237249",
      "2023-03-07T03:31:15.424456",
      "2023-03-07T03:31:24.562163",
      "2023-03-07T03:31:33.682816",
      "2023-03-07T03:31:42.791753",
      "2023-03-07T03:31:51.927275",
      "2023-03-07T03:32:01.086571",
      "2023-03-07T03:32:10.220434",
      "2023-03-07T03:32:19.360918",
      "2023-03-07T03:32:28.476115",
      "2023-03-07T03:32:37.592191",
      "2023-03-07T03:32:46.743576",
      "2023-03-07T03:32:55.904664",
      "2023-03-07T03:33:05.076179",
      "2023-03-07T03:33:14.190983",
      "2023-03-07T03:33:23.295729",
      "2023-03-07T03:33:32.440831",
      "2023-03-07T03:33:41.598056",
      "2023-03-07T03:33:50.757385",
      "2023-03-07T03:33:59.918896",
      "2023-03-07T03:34:09.034883",
      "2023-03-07T03:34:18.265582",
      "2023-03-07T03:34:27.423783",
      "2023-03-07T03:34:36.642554",
      "2023-03-07T03:34:45.834209",
      "2023-03-07T03:34:54.953073",
      "2023-03-07T03:35:04.076989",
      "2023-03-07T03:35:13.213827",
      "2023-03-07T03:35:22.384455",
      "2023-03-07T03:35:31.540373",
      "2023-03-07T03:35:40.661940",
      "2023-03-07T03:35:49.863512",
      "2023-03-07T03:35:58.979313",
      "2023-03-07T03:36:08.154158",
      "2023-03-07T03:36:17.278917",
      "2023-03-07T03:36:26.408258",
      "2023-03-07T03:36:35.519887",
      "2023-03-07T03:36:44.723897",
      "2023-03-07T03:36:53.934763",
      "2023-03-07T03:37:03.158983",
      "2023-03-07T03:37:12.327368",
      "2023-03-07T03:37:21.463973",
      "2023-03-07T03:37:30.594606",
      "2023-03-07T03:37:39.714677",
      "2023-03-07T03:37:48.857469",
      "2023-03-07T03:37:58.052796",
      "2023-03-07T03:38:07.222378",
      "2023-03-07T03:38:16.403023",
      "2023-03-07T03:38:25.536290",
      "2023-03-07T03:38:34.712505",
      "2023-03-07T03:38:43.887014",
      "2023-03-07T03:38:53.085230",
      "2023-03-07T03:39:02.176194",
      "2023-03-07T03:39:11.414735",
      "2023-03-07T03:39:20.632340",
      "2023-03-07T03:39:29.799712",
      "2023-03-07T03:39:38.917381",
      "2023-03-07T03:39:48.069435",
      "2023-03-07T03:39:57.209542",
      "2023-03-07T03:40:06.336759",
      "2023-03-07T03:40:15.514159",
      "2023-03-07T03:40:24.682623",
      "2023-03-07T03:40:33.812063",
      "2023-03-07T03:40:42.967448",
      "2023-03-07T03:40:52.071182",
      "2023-03-07T03:41:01.226852",
      "2023-03-07T03:41:10.395314",
      "2023-03-07T03:41:19.525304",
      "2023-03-07T03:41:28.699565",
      "2023-03-07T03:41:37.845102",
      "2023-03-07T03:41:46.970082",
      "2023-03-07T03:41:56.136021",
      "2023-03-07T03:42:05.270066",
      "2023-03-07T03:42:14.384713",
      "2023-03-07T03:42:23.519874",
      "2023-03-07T03:42:32.711565",
      "2023-03-07T03:42:41.850666",
      "2023-03-07T03:42:51.043333",
      "2023-03-07T03:43:00.155474",
      "2023-03-07T03:43:09.312722",
      "2023-03-07T03:43:18.450772",
      "2023-03-07T03:43:27.629911",
      "2023-03-07T03:43:36.808188",
      "2023-03-07T03:43:45.932070",
      "2023-03-07T03:43:55.084180",
      "2023-03-07T03:44:04.172787",
      "2023-03-07T03:44:13.446582",
      "2023-03-07T03:44:22.600589",
      "2023-03-07T03:44:31.764247",
      "2023-03-07T03:44:40.894851",
      "2023-03-07T03:44:50.037715",
      "2023-03-07T03:44:59.185971",
      "2023-03-07T03:45:08.394701",
      "2023-03-07T03:45:17.500858",
      "2023-03-07T03:45:26.638402",
      "2023-03-07T03:45:35.755536",
      "2023-03-07T03:45:44.887817",
      "2023-03-07T03:45:54.008966",
      "2023-03-07T03:46:03.293784",
      "2023-03-07T03:46:12.567549",
      "2023-03-07T03:46:21.729253",
      "2023-03-07T03:46:30.968370",
      "2023-03-07T03:46:40.091741",
      "2023-03-07T03:46:49.281798",
      "2023-03-07T03:46:58.547400",
      "2023-03-07T03:47:07.690396",
      "2023-03-07T03:47:16.877131",
      "2023-03-07T03:47:26.010830",
      "2023-03-07T03:47:35.148064",
      "2023-03-07T03:47:44.260592",
      "2023-03-07T03:47:53.428211",
      "2023-03-07T03:48:02.536380",
      "2023-03-07T03:48:11.720762",
      "2023-03-07T03:48:20.831961",
      "2023-03-07T03:48:29.992900",
      "2023-03-07T03:48:39.127925",
      "2023-03-07T03:48:48.275438",
      "2023-03-07T03:48:57.426353",
      "2023-03-07T03:49:06.548256",
      "2023-03-07T03:49:15.651446",
      "2023-03-07T03:49:24.862246",
      "2023-03-07T03:49:34.009959",
      "2023-03-07T03:49:43.165914",
      "2023-03-07T03:49:52.319466",
      "2023-03-07T03:50:01.476935",
      "2023-03-07T03:50:10.616205",
      "2023-03-07T03:50:19.802003",
      "2023-03-07T03:50:28.945086",
      "2023-03-07T03:50:38.124775",
      "2023-03-07T03:50:47.288197",
      "2023-03-07T03:50:56.505903",
      "2023-03-07T03:51:05.702922",
      "2023-03-07T03:51:14.852909",
      "2023-03-07T03:51:24.067192",
      "2023-03-07T03:51:33.249052",
      "2023-03-07T03:51:42.404058",
      "2023-03-07T03:51:51.674210",
      "2023-03-07T03:52:00.846165",
      "2023-03-07T03:52:09.969184",
      "2023-03-07T03:52:19.098904",
      "2023-03-07T03:52:28.224245",
      "2023-03-07T03:52:37.463232",
      "2023-03-07T03:52:46.665147",
      "2023-03-07T03:52:55.752249",
      "2023-03-07T03:53:04.936197",
      "2023-03-07T03:53:14.196316",
      "2023-03-07T03:53:23.443457",
      "2023-03-07T03:53:32.655023",
      "2023-03-07T03:53:41.865244",
      "2023-03-07T03:53:50.986344",
      "2023-03-07T03:54:00.238327",
      "2023-03-07T03:54:09.432117",
      "2023-03-07T03:54:18.556994",
      "2023-03-07T03:54:27.716514",
      "2023-03-07T03:54:36.867660",
      "2023-03-07T03:54:46.032855",
      "2023-03-07T03:54:55.203122",
      "2023-03-07T03:55:04.374998",
      "2023-03-07T03:55:13.503142",
      "2023-03-07T03:55:22.623954",
      "2023-03-07T03:55:31.809078",
      "2023-03-07T03:55:40.939311",
      "2023-03-07T03:55:50.105157",
      "2023-03-07T03:55:59.264681",
      "2023-03-07T03:56:08.438189",
      "2023-03-07T03:56:17.612195",
      "2023-03-07T03:56:26.754539",
      "2023-03-07T03:56:35.911958",
      "2023-03-07T03:56:45.129355",
      "2023-03-07T03:56:54.355595",
      "2023-03-07T03:57:03.468141",
      "2023-03-07T03:57:12.728198",
      "2023-03-07T03:57:21.838279",
      "2023-03-07T03:57:30.972611",
      "2023-03-07T03:57:40.126359",
      "2023-03-07T03:57:49.242292",
      "2023-03-07T03:57:58.406778",
      "2023-03-07T03:58:07.581113",
      "2023-03-07T03:58:16.755515",
      "2023-03-07T03:58:25.960922",
      "2023-03-07T03:58:35.200582",
      "2023-03-07T03:58:44.392418",
      "2023-03-07T03:58:53.604270",
      "2023-03-07T03:59:02.775033",
      "2023-03-07T03:59:12.032157",
      "2023-03-07T03:59:21.157400",
      "2023-03-07T03:59:30.294597",
      "2023-03-07T03:59:39.458503",
      "2023-03-07T03:59:48.602665",
      "2023-03-07T03:59:57.831241",
      "2023-03-07T04:00:07.037336",
      "2023-03-07T04:00:16.195730",
      "2023-03-07T04:00:25.319286",
      "2023-03-07T04:00:34.484517",
      "2023-03-07T04:00:43.625037",
      "2023-03-07T04:00:52.771650",
      "2023-03-07T04:01:01.981185",
      "2023-03-07T04:01:11.147368",
      "2023-03-07T04:01:20.368257",
      "2023-03-07T04:01:29.517071",
      "2023-03-07T04:01:38.703718",
      "2023-03-07T04:01:47.926728",
      "2023-03-07T04:01:57.097947",
      "2023-03-07T04:02:06.353050",
      "2023-03-07T04:02:15.553379",
      "2023-03-07T04:02:24.725785",
      "2023-03-07T04:02:33.873463",
      "2023-03-07T04:02:43.045079",
      "2023-03-07T04:02:52.175387",
      "2023-03-07T04:03:01.305814",
      "2023-03-07T04:03:10.463692",
      "2023-03-07T04:03:19.678699",
      "2023-03-07T04:03:28.800386",
      "2023-03-07T04:03:37.974819",
      "2023-03-07T04:03:47.300093",
      "2023-03-07T04:03:56.457792",
      "2023-03-07T04:04:05.648699",
      "2023-03-07T04:04:14.771256",
      "2023-03-07T04:04:23.956326",
      "2023-03-07T04:04:33.119463",
      "2023-03-07T04:04:42.265227",
      "2023-03-07T04:04:51.459150",
      "2023-03-07T04:05:00.673174",
      "2023-03-07T04:05:09.872563",
      "2023-03-07T04:05:19.084089",
      "2023-03-07T04:05:28.184373",
      "2023-03-07T04:05:37.453237",
      "2023-03-07T04:05:46.649152",
      "2023-03-07T04:05:55.806128",
      "2023-03-07T04:06:04.928257",
      "2023-03-07T04:06:14.236817",
      "2023-03-07T04:06:23.480687",
      "2023-03-07T04:06:32.661888",
      "2023-03-07T04:06:41.848179",
      "2023-03-07T04:06:51.003024",
      "2023-03-07T04:07:00.148273",
      "2023-03-07T04:07:09.400968",
      "2023-03-07T04:07:18.558491",
      "2023-03-07T04:07:27.745928",
      "2023-03-07T04:07:36.888148",
      "2023-03-07T04:07:46.009166",
      "2023-03-07T04:07:55.199922",
      "2023-03-07T04:08:04.355775",
      "2023-03-07T04:08:13.487439",
      "2023-03-07T04:08:22.635726",
      "2023-03-07T04:08:31.776940",
      "2023-03-07T04:08:40.856898",
      "2023-03-07T04:08:49.999348",
      "2023-03-07T04:08:59.177760",
      "2023-03-07T04:09:08.299930",
      "2023-03-07T04:09:17.586675",
      "2023-03-07T04:09:26.758972",
      "2023-03-07T04:09:35.973539",
      "2023-03-07T04:09:45.165792",
      "2023-03-07T04:09:54.443642",
      "2023-03-07T04:10:03.682226",
      "2023-03-07T04:10:12.830194",
      "2023-03-07T04:10:21.980011",
      "2023-03-07T04:10:31.246341",
      "2023-03-07T04:10:40.406892",
      "2023-03-07T04:10:49.629698",
      "2023-03-07T04:10:58.743517",
      "2023-03-07T04:11:07.950786",
      "2023-03-07T04:11:17.093374",
      "2023-03-07T04:11:26.266156",
      "2023-03-07T04:11:35.454788",
      "2023-03-07T04:11:44.611275",
      "2023-03-07T04:11:53.788413",
      "2023-03-07T04:12:02.965597",
      "2023-03-07T04:12:12.094943",
      "2023-03-07T04:12:21.305718",
      "2023-03-07T04:12:30.516738",
      "2023-03-07T04:12:39.761190",
      "2023-03-07T04:12:48.978118",
      "2023-03-07T04:12:58.228944",
      "2023-03-07T04:13:07.338246",
      "2023-03-07T04:13:16.578108",
      "2023-03-07T04:13:25.727303",
      "2023-03-07T04:13:34.833375",
      "2023-03-07T04:13:43.954440",
      "2023-03-07T04:13:53.102424",
      "2023-03-07T04:14:02.259673",
      "2023-03-07T04:14:11.386282",
      "2023-03-07T04:14:20.540932",
      "2023-03-07T04:14:29.691137",
      "2023-03-07T04:14:38.857253",
      "2023-03-07T04:14:48.025922",
      "2023-03-07T04:14:57.254369",
      "2023-03-07T04:15:06.413604",
      "2023-03-07T04:15:15.577385",
      "2023-03-07T04:15:24.791470",
      "2023-03-07T04:15:33.998730",
      "2023-03-07T04:15:43.151519",
      "2023-03-07T04:15:52.316532",
      "2023-03-07T04:16:01.441010",
      "2023-03-07T04:16:10.712489",
      "2023-03-07T04:16:19.833890",
      "2023-03-07T04:16:29.010482",
      "2023-03-07T04:16:38.274555",
      "2023-03-07T04:16:47.488022",
      "2023-03-07T04:16:56.675659"
    ],
    "values": [
      10.335744,
      10.335744,
      10.335744,
      10.335744,
      10.335744,
      10.335744,
      10.335744,
      10.335744,
      10.335744,
      10.335744,
      10.335744,
      10.335744,
      10.335744,
      10.335744,
      10.335744,
      10.335744,
      10.335744,
      10.335744,
      10.335744,
      10.335744,
      10.335744,
      10.335744,
      10.335744,
      10.335744,
      10.335744,
      10.335744,
      10.335744,
      10.335744,
      10.335744,
      10.335744,
      10.335744,
      10.335744,
      10.335744,
      10.335744,
      10.335744,
      10.869248,
      10.869248,
      10.869248,
      10.869248,
      10.869248,
      10.869248,
      10.869248,
      10.869248,
      10.869248,
      10.869248,
      10.869248,
      10.869248,
      10.869248,
      10.869248,
      10.869248,
      10.869248,
      10.869248,
      10.869248,
      10.869248,
      10.869248,
      10.869248,
      10.869248,
      10.869248,
      10.869248,
      10.869248,
      10.869248,
      10.869248,
      10.869248,
      10.869248,
      10.869248,
      10.869248,
      10.869248,
      10.869248,
      10.869248,
      10.869248,
      10.869248,
      10.869248,
      10.869248,
      10.869248,
      10.869248,
      10.869248,
      10.869248,
      10.869248,
      10.869248,
      10.869248,
      10.869248,
      10.869248,
      10.869248,
      10.869248,
      10.869248,
      10.869248,
      10.869248,
      10.869248,
      11.900416,
      11.900416,
      11.900416,
      11.900416,
      11.900416,
      11.900416,
      11.900416,
      11.900416,
      11.900416,
      11.900416,
      11.900416,
      11.900416,
      11.900416,
      11.900416,
      11.900416,
      11.900416,
      11.900416,
      11.900416,
      11.900416,
      11.900416,
      11.900416,
      11.900416,
      11.900416,
      11.900416,
      11.900416,
      11.900416,
      11.900416,
      11.900416,
      11.900416,
      11.900416,
      11.900416,
      11.900416,
      11.900416,
      11.900416,
      11.900416,
      11.900416,
      11.900416,
      11.900416,
      11.900416,
      11.900416,
      11.900416,
      11.900416,
      11.900416,
      11.900416,
      11.900416,
      11.900416,
      11.900416,
      11.900416,
      11.900416,
      11.900416,
      11.900416,
      11.900416,
      11.900416,
      11.900416,
      11.900416,
      11.900416,
      11.900416,
      11.900416,
      11.900416,
      11.900416,
      11.900416,
      11.900416,
      11.900416,
      11.900416,
      11.900416,
      11.900416,
      11.900416,
      11.900416,
      11.900416,
      11.900416,
      11.900416,
      11.900416,
      11.900416,
      11.900416,
      11.900416,
      11.900416,
      11.900416,
      11.900416,
      11.900416,
      11.900416,
      11.900416,
      11.900416,
      11.900416,
      11.900416,
      11.900416,
      11.900416,
      11.900416,
      11.900416,
      11.900416,
      11.900416,
      11.900416,
      11.900416,
      11.900416,
      11.900416,
      11.900416,
      11.900416,
      11.900416,
      11.900416,
      11.900416,
      11.900416,
      11.900416,
      11.900416,
      11.900416,
      11.900416,
      11.900416,
      11.900416,
      11.900416,
      11.900416,
      11.900416,
      11.900416,
      11.900416,
      11.900416,
      11.900416,
      11.900416,
      11.900416,
      11.900416,
      11.900416,
      11.900416,
      11.900416,
      11.900416,
      11.900416,
      11.900416,
      11.900416,
      11.900416,
      11.900416,
      11.900416,
      11.900416,
      11.900416,
      11.900416,
      11.900416,
      11.900416,
      11.900416,
      11.900416,
      11.900416,
      11.900416,
      11.900416,
      11.900416,
      11.900416,
      11.900416,
      11.900416,
      11.900416,
      11.900416,
      11.900416,
      11.900416,
      11.900416,
      11.900416,
      11.900416,
      11.900416,
      11.900416,
      11.900416,
      11.900416,
      11.900416,
      11.900416,
      11.900416,
      11.900416,
      11.900416,
      11.900416,
      11.900416,
      11.900416,
      11.900416,
      11.900416,
      11.900416,
      11.900416,
      11.900416,
      11.900416,
      11.900416,
      11.900416,
      11.900416,
      11.900416,
      11.900416,
      11.900416,
      11.900416,
      11.900416,
      11.900416,
      11.900416,
      11.900416,
      11.900416,
      11.900416,
      11.900416,
      11.900416,
      11.900416,
      11.900416,
      11.900416,
      11.900416,
      11.900416,
      11.900416,
      11.900416,
      11.900416,
      11.900416,
      11.900416,
      11.900416,
      11.900416,
      11.900416,
      11.900416,
      11.900416,
      11.900416,
      11.900416,
      11.900416,
      11.900416,
      11.900416,
      11.900416,
      11.900416,
      11.900416,
      11.900416,
      11.900416,
      11.900416,
      11.900416,
      11.900416,
      11.900416,
      11.900416,
      11.900416,
      11.900416,
      11.900416,
      11.900416,
      11.900416,
      11.900416,
      11.900416,
      11.900416,
      11.900416,
      11.900416,
      11.900416,
      11.900416,
      11.900416,
      11.900416,
      11.900416,
      11.900416,
      11.900416,
      11.900416,
      11.900416,
      11.900416,
      11.900416,
      11.900416,
      11.900416,
      11.900416,
      11.900416,
      11.900416,
      11.900416,
      11.900416,
      11.900416,
      11.900416,
      11.900416,
      11.900416,
      11.900416,
      11.900416,
      11.900416,
      11.900416,
      11.900416,
      11.900416,
      11.900416,
      11.900416,
      11.900416,
      11.900416,
      11.900416,
      11.900416,
      11.900416,
      11.900416,
      11.900416,
      11.900416,
      11.900416,
      11.900416,
      11.900416,
      11.900416,
      11.900416,
      11.900416,
      11.900416,
      11.900416,
      11.900416,
      11.900416,
      12.131328,
      12.131328,
      12.131328,
      12.131328,
      12.131328,
      12.131328,
      12.131328,
      12.131328,
      12.131328,
      12.131328,
      12.131328,
      12.131328,
      12.131328,
      12.131328,
      12.131328,
      12.131328,
      12.131328,
      12.131328,
      12.131328,
      12.131328,
      12.131328,
      12.131328,
      12.131328,
      12.131328,
      12.131328,
      12.131328,
      12.131328,
      12.131328,
      12.131328,
      12.131328,
      12.131328,
      12.131328,
      12.131328,
      12.131328,
      12.131328,
      12.131328,
      12.131328,
      12.131328,
      12.131328,
      12.131328,
      12.131328,
      12.131328,
      12.131328,
      12.131328
    ]
  },
  "train": {
    "steps": [
      0,
      1,
      2,
      3,
      4,
      5,
      6,
      7,
      8,
      9,
      10,
      11,
      12,
      13,
      14,
      15,
      16,
      17,
      18,
      19,
      20,
      21,
      22,
      23,
      24,
      25,
      26,
      27,
      28,
      29,
      30,
      31,
      32,
      33,
      34,
      35,
      36,
      37,
      38,
      39,
      40,
      41,
      42,
      43,
      44,
      45,
      46,
      47,
      48,
      49,
      50,
      51,
      52,
      53,
      54,
      55,
      56,
      57,
      58,
      59,
      60,
      61,
      62,
      63,
      64,
      65,
      66,
      67,
      68,
      69,
      70,
      71,
      72,
      73,
      74,
      75,
      76,
      77,
      78,
      79,
      80,
      81,
      82,
      83,
      84,
      85,
      86,
      87,
      88,
      89,
      90,
      91,
      92,
      93,
      94,
      95,
      96,
      97,
      98,
      99,
      100,
      101,
      102,
      103,
      104,
      105,
      106,
      107,
      108,
      109,
      110,
      111,
      112,
      113,
      114,
      115,
      116,
      117,
      118,
      119,
      120,
      121,
      122,
      123,
      124,
      125,
      126,
      127,
      128,
      129,
      130,
      131,
      132,
      133,
      134,
      135,
      136,
      137,
      138,
      139,
      140,
      141,
      142,
      143,
      144,
      145,
      146,
      147,
      148,
      149,
      150,
      151,
      152,
      153,
      154,
      155,
      156,
      157,
      158,
      159,
      160,
      161,
      162,
      163,
      164,
      165,
      166,
      167,
      168,
      169,
      170,
      171,
      172,
      173,
      174,
      175,
      176,
      177,
      178,
      179,
      180,
      181,
      182,
      183,
      184,
      185,
      186,
      187,
      188,
      189,
      190,
      191,
      192,
      193,
      194,
      195,
      196,
      197,
      198,
      199,
      200,
      201,
      202,
      203,
      204,
      205,
      206,
      207,
      208,
      209,
      210,
      211,
      212,
      213,
      214,
      215,
      216,
      217,
      218,
      219,
      220,
      221,
      222,
      223,
      224,
      225,
      226,
      227,
      228,
      229,
      230,
      231,
      232,
      233,
      234,
      235,
      236,
      237,
      238,
      239,
      240,
      241,
      242,
      243,
      244,
      245,
      246,
      247,
      248,
      249,
      250,
      251,
      252,
      253,
      254,
      255,
      256,
      257,
      258,
      259,
      260,
      261,
      262,
      263,
      264,
      265,
      266,
      267,
      268,
      269,
      270,
      271,
      272,
      273,
      274,
      275,
      276,
      277,
      278,
      279,
      280,
      281,
      282,
      283,
      284,
      285,
      286,
      287,
      288,
      289,
      290,
      291,
      292,
      293,
      294,
      295,
      296,
      297,
      298,
      299,
      300,
      301,
      302,
      303,
      304,
      305,
      306,
      307,
      308,
      309,
      310,
      311,
      312,
      313,
      314,
      315,
      316,
      317,
      318,
      319,
      320,
      321,
      322,
      323,
      324,
      325,
      326,
      327,
      328,
      329,
      330,
      331,
      332,
      333,
      334,
      335,
      336,
      337,
      338,
      339,
      340,
      341,
      342,
      343,
      344,
      345,
      346,
      347,
      348,
      349,
      350,
      351,
      352,
      353,
      354,
      355,
      356,
      357,
      358,
      359,
      360,
      361,
      362,
      363,
      364,
      365,
      366,
      367,
      368,
      369,
      370,
      371,
      372,
      373,
      374,
      375,
      376,
      377,
      378,
      379,
      380,
      381,
      382,
      383,
      384,
      385,
      386,
      387,
      388,
      389,
      390,
      391,
      392,
      393,
      394,
      395,
      396,
      397,
      398,
      399
    ],
    "timestamps": [
      "2023-03-07T03:15:58.351141",
      "2023-03-07T03:16:07.532812",
      "2023-03-07T03:16:16.758941",
      "2023-03-07T03:16:25.927473",
      "2023-03-07T03:16:35.104005",
      "2023-03-07T03:16:44.239991",
      "2023-03-07T03:16:53.454550",
      "2023-03-07T03:17:02.650965",
      "2023-03-07T03:17:11.844245",
      "2023-03-07T03:17:21.160782",
      "2023-03-07T03:17:30.324226",
      "2023-03-07T03:17:39.496759",
      "2023-03-07T03:17:48.637654",
      "2023-03-07T03:17:57.845033",
      "2023-03-07T03:18:06.965733",
      "2023-03-07T03:18:16.089124",
      "2023-03-07T03:18:25.212652",
      "2023-03-07T03:18:34.371437",
      "2023-03-07T03:18:43.518801",
      "2023-03-07T03:18:52.684658",
      "2023-03-07T03:19:01.862824",
      "2023-03-07T03:19:11.010234",
      "2023-03-07T03:19:20.253296",
      "2023-03-07T03:19:29.449974",
      "2023-03-07T03:19:38.558719",
      "2023-03-07T03:19:47.719781",
      "2023-03-07T03:19:56.839852",
      "2023-03-07T03:20:05.971010",
      "2023-03-07T03:20:15.127553",
      "2023-03-07T03:20:24.373688",
      "2023-03-07T03:20:33.543107",
      "2023-03-07T03:20:42.732859",
      "2023-03-07T03:20:52.065978",
      "2023-03-07T03:21:01.246214",
      "2023-03-07T03:21:10.388556",
      "2023-03-07T03:21:19.537617",
      "2023-03-07T03:21:28.697120",
      "2023-03-07T03:21:37.822535",
      "2023-03-07T03:21:46.989305",
      "2023-03-07T03:21:56.145695",
      "2023-03-07T03:22:05.294635",
      "2023-03-07T03:22:14.480588",
      "2023-03-07T03:22:23.639364",
      "2023-03-07T03:22:32.831098",
      "2023-03-07T03:22:42.001362",
      "2023-03-07T03:22:51.156478",
      "2023-03-07T03:23:00.312638",
      "2023-03-07T03:23:09.436157",
      "2023-03-07T03:23:18.562290",
      "2023-03-07T03:23:27.775442",
      "2023-03-07T03:23:36.949055",
      "2023-03-07T03:23:46.091114",
      "2023-03-07T03:23:55.252348",
      "2023-03-07T03:24:04.396900",
      "2023-03-07T03:24:13.547915",
      "2023-03-07T03:24:22.712416",
      "2023-03-07T03:24:31.936747",
      "2023-03-07T03:24:41.064601",
      "2023-03-07T03:24:50.208137",
      "2023-03-07T03:24:59.353288",
      "2023-03-07T03:25:08.579106",
      "2023-03-07T03:25:17.708101",
      "2023-03-07T03:25:26.870003",
      "2023-03-07T03:25:35.986169",
      "2023-03-07T03:25:45.191029",
      "2023-03-07T03:25:54.411790",
      "2023-03-07T03:26:03.533078",
      "2023-03-07T03:26:12.662822",
      "2023-03-07T03:26:21.775488",
      "2023-03-07T03:26:30.927970",
      "2023-03-07T03:26:40.151873",
      "2023-03-07T03:26:49.277165",
      "2023-03-07T03:26:58.468021",
      "2023-03-07T03:27:07.652823",
      "2023-03-07T03:27:16.867983",
      "2023-03-07T03:27:26.032147",
      "2023-03-07T03:27:35.152390",
      "2023-03-07T03:27:44.311231",
      "2023-03-07T03:27:53.472107",
      "2023-03-07T03:28:02.715520",
      "2023-03-07T03:28:11.900768",
      "2023-03-07T03:28:21.142722",
      "2023-03-07T03:28:30.350344",
      "2023-03-07T03:28:39.493975",
      "2023-03-07T03:28:48.608308",
      "2023-03-07T03:28:57.718964",
      "2023-03-07T03:29:06.942197",
      "2023-03-07T03:29:16.152343",
      "2023-03-07T03:29:25.395093",
      "2023-03-07T03:29:34.623945",
      "2023-03-07T03:29:43.803979",
      "2023-03-07T03:29:52.948826",
      "2023-03-07T03:30:02.190984",
      "2023-03-07T03:30:11.350593",
      "2023-03-07T03:30:20.493543",
      "2023-03-07T03:30:29.627395",
      "2023-03-07T03:30:38.817939",
      "2023-03-07T03:30:47.952109",
      "2023-03-07T03:30:57.079386",
      "2023-03-07T03:31:06.237128",
      "2023-03-07T03:31:15.424334",
      "2023-03-07T03:31:24.562043",
      "2023-03-07T03:31:33.682699",
      "2023-03-07T03:31:42.791634",
      "2023-03-07T03:31:51.927154",
      "2023-03-07T03:32:01.086453",
      "2023-03-07T03:32:10.220316",
      "2023-03-07T03:32:19.360809",
      "2023-03-07T03:32:28.475993",
      "2023-03-07T03:32:37.592072",
      "2023-03-07T03:32:46.743457",
      "2023-03-07T03:32:55.904543",
      "2023-03-07T03:33:05.076062",
      "2023-03-07T03:33:14.190863",
      "2023-03-07T03:33:23.295611",
      "2023-03-07T03:33:32.440709",
      "2023-03-07T03:33:41.597940",
      "2023-03-07T03:33:50.757269",
      "2023-03-07T03:33:59.918779",
      "2023-03-07T03:34:09.034763",
      "2023-03-07T03:34:18.265455",
      "2023-03-07T03:34:27.423664",
      "2023-03-07T03:34:36.642439",
      "2023-03-07T03:34:45.834091",
      "2023-03-07T03:34:54.952960",
      "2023-03-07T03:35:04.076873",
      "2023-03-07T03:35:13.213709",
      "2023-03-07T03:35:22.384336",
      "2023-03-07T03:35:31.540256",
      "2023-03-07T03:35:40.661825",
      "2023-03-07T03:35:49.863395",
      "2023-03-07T03:35:58.979194",
      "2023-03-07T03:36:08.154039",
      "2023-03-07T03:36:17.278794",
      "2023-03-07T03:36:26.408138",
      "2023-03-07T03:36:35.519771",
      "2023-03-07T03:36:44.723777",
      "2023-03-07T03:36:53.934643",
      "2023-03-07T03:37:03.158867",
      "2023-03-07T03:37:12.327251",
      "2023-03-07T03:37:21.463855",
      "2023-03-07T03:37:30.594489",
      "2023-03-07T03:37:39.714567",
      "2023-03-07T03:37:48.857343",
      "2023-03-07T03:37:58.052679",
      "2023-03-07T03:38:07.222259",
      "2023-03-07T03:38:16.402903",
      "2023-03-07T03:38:25.536170",
      "2023-03-07T03:38:34.712389",
      "2023-03-07T03:38:43.886897",
      "2023-03-07T03:38:53.085110",
      "2023-03-07T03:39:02.176074",
      "2023-03-07T03:39:11.414617",
      "2023-03-07T03:39:20.632221",
      "2023-03-07T03:39:29.799604",
      "2023-03-07T03:39:38.917259",
      "2023-03-07T03:39:48.069317",
      "2023-03-07T03:39:57.209418",
      "2023-03-07T03:40:06.336639",
      "2023-03-07T03:40:15.514038",
      "2023-03-07T03:40:24.682506",
      "2023-03-07T03:40:33.811943",
      "2023-03-07T03:40:42.967328",
      "2023-03-07T03:40:52.071066",
      "2023-03-07T03:41:01.226734",
      "2023-03-07T03:41:10.395196",
      "2023-03-07T03:41:19.525197",
      "2023-03-07T03:41:28.699447",
      "2023-03-07T03:41:37.844984",
      "2023-03-07T03:41:46.969962",
      "2023-03-07T03:41:56.135899",
      "2023-03-07T03:42:05.269950",
      "2023-03-07T03:42:14.384592",
      "2023-03-07T03:42:23.519754",
      "2023-03-07T03:42:32.711445",
      "2023-03-07T03:42:41.850548",
      "2023-03-07T03:42:51.043217",
      "2023-03-07T03:43:00.155355",
      "2023-03-07T03:43:09.312601",
      "2023-03-07T03:43:18.450656",
      "2023-03-07T03:43:27.629793",
      "2023-03-07T03:43:36.808071",
      "2023-03-07T03:43:45.931950",
      "2023-03-07T03:43:55.084063",
      "2023-03-07T03:44:04.172669",
      "2023-03-07T03:44:13.446463",
      "2023-03-07T03:44:22.600470",
      "2023-03-07T03:44:31.764130",
      "2023-03-07T03:44:40.894735",
      "2023-03-07T03:44:50.037602",
      "2023-03-07T03:44:59.185851",
      "2023-03-07T03:45:08.394583",
      "2023-03-07T03:45:17.500728",
      "2023-03-07T03:45:26.638282",
      "2023-03-07T03:45:35.755417",
      "2023-03-07T03:45:44.887709",
      "2023-03-07T03:45:54.008846",
      "2023-03-07T03:46:03.293661",
      "2023-03-07T03:46:12.567433",
      "2023-03-07T03:46:21.729137",
      "2023-03-07T03:46:30.968249",
      "2023-03-07T03:46:40.091624",
      "2023-03-07T03:46:49.281680",
      "2023-03-07T03:46:58.547284",
      "2023-03-07T03:47:07.690282",
      "2023-03-07T03:47:16.877010",
      "2023-03-07T03:47:26.010712",
      "2023-03-07T03:47:35.147946",
      "2023-03-07T03:47:44.260473",
      "2023-03-07T03:47:53.428096",
      "2023-03-07T03:48:02.536265",
      "2023-03-07T03:48:11.720641",
      "2023-03-07T03:48:20.831842",
      "2023-03-07T03:48:29.992781",
      "2023-03-07T03:48:39.127805",
      "2023-03-07T03:48:48.275321",
      "2023-03-07T03:48:57.426238",
      "2023-03-07T03:49:06.548134",
      "2023-03-07T03:49:15.651327",
      "2023-03-07T03:49:24.862125",
      "2023-03-07T03:49:34.009838",
      "2023-03-07T03:49:43.165797",
      "2023-03-07T03:49:52.319350",
      "2023-03-07T03:50:01.476817",
      "2023-03-07T03:50:10.616090",
      "2023-03-07T03:50:19.801891",
      "2023-03-07T03:50:28.944966",
      "2023-03-07T03:50:38.124657",
      "2023-03-07T03:50:47.288079",
      "2023-03-07T03:50:56.505786",
      "2023-03-07T03:51:05.702791",
      "2023-03-07T03:51:14.852791",
      "2023-03-07T03:51:24.067074",
      "2023-03-07T03:51:33.248930",
      "2023-03-07T03:51:42.403941",
      "2023-03-07T03:51:51.674093",
      "2023-03-07T03:52:00.846049",
      "2023-03-07T03:52:09.969052",
      "2023-03-07T03:52:19.098786",
      "2023-03-07T03:52:28.224123",
      "2023-03-07T03:52:37.463114",
      "2023-03-07T03:52:46.665028",
      "2023-03-07T03:52:55.752130",
      "2023-03-07T03:53:04.936076",
      "2023-03-07T03:53:14.196198",
      "2023-03-07T03:53:23.443338",
      "2023-03-07T03:53:32.654905",
      "2023-03-07T03:53:41.865124",
      "2023-03-07T03:53:50.986222",
      "2023-03-07T03:54:00.238210",
      "2023-03-07T03:54:09.431996",
      "2023-03-07T03:54:18.556876",
      "2023-03-07T03:54:27.716391",
      "2023-03-07T03:54:36.867539",
      "2023-03-07T03:54:46.032734",
      "2023-03-07T03:54:55.203001",
      "2023-03-07T03:55:04.374884",
      "2023-03-07T03:55:13.503023",
      "2023-03-07T03:55:22.623837",
      "2023-03-07T03:55:31.808961",
      "2023-03-07T03:55:40.939190",
      "2023-03-07T03:55:50.105038",
      "2023-03-07T03:55:59.264563",
      "2023-03-07T03:56:08.438070",
      "2023-03-07T03:56:17.612077",
      "2023-03-07T03:56:26.754422",
      "2023-03-07T03:56:35.911838",
      "2023-03-07T03:56:45.129235",
      "2023-03-07T03:56:54.355476",
      "2023-03-07T03:57:03.468021",
      "2023-03-07T03:57:12.728078",
      "2023-03-07T03:57:21.838159",
      "2023-03-07T03:57:30.972490",
      "2023-03-07T03:57:40.126242",
      "2023-03-07T03:57:49.242173",
      "2023-03-07T03:57:58.406658",
      "2023-03-07T03:58:07.580990",
      "2023-03-07T03:58:16.755397",
      "2023-03-07T03:58:25.960804",
      "2023-03-07T03:58:35.200462",
      "2023-03-07T03:58:44.392299",
      "2023-03-07T03:58:53.604153",
      "2023-03-07T03:59:02.774891",
      "2023-03-07T03:59:12.032042",
      "2023-03-07T03:59:21.157284",
      "2023-03-07T03:59:30.294474",
      "2023-03-07T03:59:39.458382",
      "2023-03-07T03:59:48.602548",
      "2023-03-07T03:59:57.831120",
      "2023-03-07T04:00:07.037217",
      "2023-03-07T04:00:16.195616",
      "2023-03-07T04:00:25.319167",
      "2023-03-07T04:00:34.484398",
      "2023-03-07T04:00:43.624918",
      "2023-03-07T04:00:52.771528",
      "2023-03-07T04:01:01.981070",
      "2023-03-07T04:01:11.147251",
      "2023-03-07T04:01:20.368139",
      "2023-03-07T04:01:29.516950",
      "2023-03-07T04:01:38.703604",
      "2023-03-07T04:01:47.926610",
      "2023-03-07T04:01:57.097828",
      "2023-03-07T04:02:06.352929",
      "2023-03-07T04:02:15.553260",
      "2023-03-07T04:02:24.725638",
      "2023-03-07T04:02:33.873344",
      "2023-03-07T04:02:43.044959",
      "2023-03-07T04:02:52.175269",
      "2023-03-07T04:03:01.305694",
      "2023-03-07T04:03:10.463574",
      "2023-03-07T04:03:19.678580",
      "2023-03-07T04:03:28.800268",
      "2023-03-07T04:03:37.974699",
      "2023-03-07T04:03:47.299975",
      "2023-03-07T04:03:56.457672",
      "2023-03-07T04:04:05.648579",
      "2023-03-07T04:04:14.771135",
      "2023-03-07T04:04:23.956208",
      "2023-03-07T04:04:33.119345",
      "2023-03-07T04:04:42.265105",
      "2023-03-07T04:04:51.459032",
      "2023-03-07T04:05:00.673058",
      "2023-03-07T04:05:09.872435",
      "2023-03-07T04:05:19.083971",
      "2023-03-07T04:05:28.184255",
      "2023-03-07T04:05:37.453117",
      "2023-03-07T04:05:46.649032",
      "2023-03-07T04:05:55.806011",
      "2023-03-07T04:06:04.928139",
      "2023-03-07T04:06:14.236693",
      "2023-03-07T04:06:23.480569",
      "2023-03-07T04:06:32.661770",
      "2023-03-07T04:06:41.848061",
      "2023-03-07T04:06:51.002895",
      "2023-03-07T04:07:00.148162",
      "2023-03-07T04:07:09.400845",
      "2023-03-07T04:07:18.558376",
      "2023-03-07T04:07:27.745805",
      "2023-03-07T04:07:36.888024",
      "2023-03-07T04:07:46.009047",
      "2023-03-07T04:07:55.199804",
      "2023-03-07T04:08:04.355656",
      "2023-03-07T04:08:13.487316",
      "2023-03-07T04:08:22.635608",
      "2023-03-07T04:08:31.776825",
      "2023-03-07T04:08:40.856780",
      "2023-03-07T04:08:49.999228",
      "2023-03-07T04:08:59.177644",
      "2023-03-07T04:09:08.299805",
      "2023-03-07T04:09:17.586556",
      "2023-03-07T04:09:26.758849",
      "2023-03-07T04:09:35.973417",
      "2023-03-07T04:09:45.165674",
      "2023-03-07T04:09:54.443521",
      "2023-03-07T04:10:03.682107",
      "2023-03-07T04:10:12.830075",
      "2023-03-07T04:10:21.979893",
      "2023-03-07T04:10:31.246226",
      "2023-03-07T04:10:40.406781",
      "2023-03-07T04:10:49.629578",
      "2023-03-07T04:10:58.743397",
      "2023-03-07T04:11:07.950666",
      "2023-03-07T04:11:17.093250",
      "2023-03-07T04:11:26.266033",
      "2023-03-07T04:11:35.454671",
      "2023-03-07T04:11:44.611153",
      "2023-03-07T04:11:53.788292",
      "2023-03-07T04:12:02.965474",
      "2023-03-07T04:12:12.094825",
      "2023-03-07T04:12:21.305598",
      "2023-03-07T04:12:30.516619",
      "2023-03-07T04:12:39.761067",
      "2023-03-07T04:12:48.978000",
      "2023-03-07T04:12:58.228824",
      "2023-03-07T04:13:07.338125",
      "2023-03-07T04:13:16.577987",
      "2023-03-07T04:13:25.727183",
      "2023-03-07T04:13:34.833256",
      "2023-03-07T04:13:43.954322",
      "2023-03-07T04:13:53.102303",
      "2023-03-07T04:14:02.259555",
      "2023-03-07T04:14:11.386164",
      "2023-03-07T04:14:20.540817",
      "2023-03-07T04:14:29.691018",
      "2023-03-07T04:14:38.857131",
      "2023-03-07T04:14:48.025803",
      "2023-03-07T04:14:57.254246",
      "2023-03-07T04:15:06.413479",
      "2023-03-07T04:15:15.577267",
      "2023-03-07T04:15:24.791349",
      "2023-03-07T04:15:33.998610",
      "2023-03-07T04:15:43.151399",
      "2023-03-07T04:15:52.316413",
      "2023-03-07T04:16:01.440891",
      "2023-03-07T04:16:10.712371",
      "2023-03-07T04:16:19.833772",
      "2023-03-07T04:16:29.010363",
      "2023-03-07T04:16:38.274435",
      "2023-03-07T04:16:47.487904",
      "2023-03-07T04:16:56.675540"
    ],
    "values": [
      10.133919478109561,
      9.864299425791572,
      9.28073134604949,
      8.884520430813247,
      8.875915624030883,
      8.705433920685119,
      8.646387700450509,
      8.78117644706866,
      8.557398908273234,
      9.0688422902471,
      8.850008027722113,
      9.145252263340879,
      10.263407699381307,
      9.15181979667929,
      8.918674274554995,
      8.771316131987914,
      8.754911469700652,
      8.830499531662472,
      8.732999984960498,
      8.733497466553153,
      8.72542900625878,
      8.995688643373239,
      8.752973662347761,
      8.648229035943409,
      8.637155436856796,
      8.645524985319717,
      8.688073664572514,
      8.672469592581171,
      8.645977120498582,
      8.750105876394137,
      8.566521616980724,
      8.554376248658025,
      8.556054663226844,
      8.621681593080893,
      8.588890172635825,
      8.541886707605647,
      8.53666705934729,
      8.612613069068386,
      8.588173948411429,
      8.492049227195343,
      8.493770145129066,
      8.589076267001426,
      8.43990321854129,
      8.596695192866171,
      8.503496586255634,
      8.584468262040415,
      8.563036623861372,
      8.55455685806704,
      8.518764001985227,
      8.559687853646984,
      8.614430961701643,
      8.490275188747905,
      8.577237595451264,
      8.521498158279243,
      8.587396861378052,
      8.556134338052095,
      8.524228429670222,
      8.557201516830217,
      8.584212620396341,
      8.609487606751502,
      8.76779150073879,
      8.58392256501804,
      8.527730645476897,
      8.571397359964665,
      8.487644332013183,
      8.523348597386768,
      8.514960595379874,
      8.488175582939851,
      8.691096591320095,
      8.530947612965656,
      8.528451572905219,
      8.54353305740516,
      8.625333098889387,
      8.515520574509925,
      8.49921366026392,
      8.500124601559158,
      8.509753866621821,
      8.468258391418104,
      8.54914889020031,
      8.57448163847813,
      8.512496060868731,
      8.53926710042906,
      8.461072684263597,
      8.513062347497861,
      8.54092952318781,
      8.529502414755624,
      8.499297003752464,
      8.581034643442283,
      8.534526321076726,
      8.55990325911578,
      8.512894740092174,
      8.519560596123393,
      8.52899188853446,
      8.524179448553685,
      8.5187012824219,
      8.5210457055956,
      8.465065274895098,
      8.567366164546634,
      8.535728933866558,
      8.563096246217146,
      8.572364480394794,
      8.523473555894629,
      8.498783377821328,
      8.548845899398463,
      8.551863885528496,
      8.54425279975518,
      8.537343945959108,
      8.532134161272431,
      8.513295750889602,
      8.521785494659744,
      8.530935809062832,
      8.553151024685361,
      8.511680197102516,
      8.55741484058323,
      8.495837770056356,
      8.701261127271525,
      8.536304530298327,
      8.471117614439315,
      8.581582080767461,
      8.506745082940396,
      8.583822669322458,
      8.496656850057994,
      8.586485501214904,
      8.54878061396742,
      8.547916920964923,
      8.486632961811692,
      8.462929651714745,
      8.49493849598071,
      8.536305853387933,
      8.501079229685443,
      8.570786441837061,
      8.4805525314751,
      8.565974013185302,
      8.501346453377495,
      8.568811726879291,
      8.479568251877154,
      8.451450788607438,
      8.538364404533574,
      8.544247220306891,
      8.500469677545352,
      8.516167203193822,
      8.460521323484636,
      8.564256684301489,
      8.495263365475774,
      8.531187272732716,
      8.619999156742807,
      8.52728980257495,
      8.590373578411063,
      8.558036117895062,
      8.550227593112364,
      8.529189670202936,
      8.466462158756356,
      8.637597332388985,
      8.571288432880305,
      8.5509397944435,
      8.511825504247755,
      8.487629344872168,
      8.440398004832323,
      8.501185103641317,
      8.564558634202474,
      8.521363826945008,
      8.522951952374047,
      8.437164803258357,
      8.557044011048312,
      8.505773065863046,
      8.4723334682702,
      8.49258473563736,
      8.52692648533266,
      8.599987020716929,
      8.524050513012646,
      8.561407926908624,
      8.568086024013791,
      8.518454545938853,
      8.529117541995012,
      8.550193356901175,
      8.523890244356114,
      8.470350143359498,
      8.581894512283556,
      8.57661110090138,
      8.517431388954629,
      8.499860629962178,
      8.559474529332725,
      8.577500403226626,
      8.53590716090921,
      8.507599837033286,
      8.723090498751239,
      8.539936254658391,
      8.549828344985885,
      8.739369171261574,
      8.45767776849062,
      8.515553491836144,
      8.546700961826431,
      8.551751739841228,
      8.502248123508233,
      8.554144656976918,
      8.545475682092222,
      8.523540258073801,
      8.611089050596314,
      8.579414627732785,
      8.527981639215074,
      8.60232002940144,
      8.525569184195536,
      8.528997034039621,
      8.560448753203959,
      8.470349805072345,
      8.532544741405667,
      8.497695056430036,
      8.540476560881881,
      8.531668842677993,
      8.592001653738373,
      8.493700948229067,
      8.565021656857903,
      8.509808548568245,
      8.53574516432753,
      8.473573214404455,
      8.556394773555299,
      8.556411678604496,
      8.577293857378846,
      8.520253035507737,
      8.585307245809641,
      8.53743838336811,
      8.53057442215578,
      8.539433886329283,
      8.467481199424997,
      8.529241826642831,
      8.564339507450173,
      8.516288056883491,
      8.549862818425336,
      8.562682079651141,
      8.502006962540355,
      8.547081521352865,
      8.543057886891553,
      8.53832693755127,
      8.49466006899496,
      8.474034623607698,
      8.465677335271407,
      8.550410002003225,
      8.499274016163435,
      8.506538364603538,
      8.557739635971243,
      8.534631259204167,
      8.575006194217767,
      8.501781773007707,
      8.529932357485132,
      8.921095424858766,
      8.530471360623682,
      8.580542816647629,
      8.536345697520622,
      8.519575841837069,
      8.520814054351296,
      8.58886357027486,
      8.491837851578701,
      8.545890436011035,
      8.543295241740175,
      8.726415566286565,
      8.473704313165284,
      8.559026006121057,
      8.546247118039695,
      8.508563892008741,
      8.568046857334329,
      8.501969491871233,
      8.546875525544749,
      8.487740278167392,
      8.532606099808623,
      8.537394677446425,
      8.593027511080345,
      8.56024778629439,
      8.5447515650061,
      8.558825584957843,
      8.591528149539533,
      8.549074853591627,
      8.470740355370339,
      8.52835559059932,
      8.561739850720267,
      8.474753322521057,
      8.499140343612737,
      8.5230783215171,
      8.56951962205562,
      8.613963833994868,
      8.567331237416717,
      8.528748468634513,
      8.53847292229458,
      8.528631414162964,
      8.5030677518793,
      8.530295304413697,
      8.518514068695504,
      8.516533810754792,
      8.528063418162866,
      8.538228720706945,
      8.552099113143962,
      8.551504745983317,
      8.499904384202695,
      8.488553732925904,
      8.576023565476351,
      8.49303555399202,
      8.542230522327724,
      8.560276319416635,
      8.479735072641668,
      8.495830557498898,
      8.492883106280448,
      8.578977723158067,
      8.514078317453716,
      8.518307926451493,
      8.540237617790204,
      8.552940612574211,
      8.508866236125344,
      8.534949171420227,
      8.538642993550631,
      8.492317675599608,
      8.474844558420896,
      8.605673091609148,
      8.486734230207338,
      8.530265960167986,
      8.553860653961557,
      8.565560237257028,
      8.53514448697274,
      8.571972315508411,
      8.55827315831951,
      8.481414423096544,
      8.589655928332139,
      8.53125846381537,
      8.550972191259698,
      8.50182837241834,
      8.521811476603425,
      8.524948163787544,
      8.527421958327633,
      8.547527566391128,
      8.52471912685057,
      8.523960320218645,
      8.561422579717437,
      8.543800878819958,
      8.48476864028136,
      8.489947975510912,
      8.495405896758868,
      8.542911284130803,
      8.57766291539021,
      8.508979863568406,
      8.583015586801789,
      8.57480466905992,
      8.501993969507557,
      8.53338428903101,
      8.492455775697804,
      8.518345620540838,
      8.5315691031469,
      8.531347870632754,
      8.555420939862202,
      8.465479737311819,
      8.609123998701316,
      8.52669570216804,
      8.587635066533638,
      8.527825994145093,
      8.515069806201007,
      8.55428132247883,
      8.505232232580765,
      8.481029580906494,
      8.821506952317584,
      13.176731216896576,
      8.581000426228222,
      8.482663974446798,
      8.499545499533488,
      8.475120173260928,
      8.614029644951977,
      8.547454075337264,
      8.57491348420979,
      8.612157184445223,
      8.46692326205619,
      8.59920488892709,
      8.585544301244266,
      8.466012196243742,
      8.546335773294581,
      8.626097206711426,
      8.48414553751332,
      8.571679134589317,
      8.54175923669462,
      8.570823388649945,
      8.505366155837429,
      8.493441185911585,
      8.474726646693627,
      8.49094961335052,
      8.48549968796743,
      8.554147382710307,
      8.50343151348295,
      8.553383779562038,
      8.578942564881494,
      8.578659543542717,
      8.519996942070136,
      8.53290586619797,
      8.544313471410497,
      8.46037621521658,
      8.504869381927046,
      8.544425404787782,
      8.421891842815507,
      8.574103912036216,
      8.501097444815713,
      8.583414281364654,
      8.585032063130974,
      8.565645779157279,
      8.555450705009694,
      8.541218576505303,
      8.525712282474275
    ]
  },
  "val": {
    "steps": [
      0,
      1,
      2,
      3,
      4,
      5,
      6,
      7,
      8,
      9,
      10,
      11,
      12,
      13,
      14,
      15,
      16,
      17,
      18,
      19,
      20,
      21,
      22,
      23,
      24,
      25,
      26,
      27,
      28,
      29,
      30,
      31,
      32,
      33,
      34,
      35,
      36,
      37,
      38,
      39,
      40,
      41,
      42,
      43,
      44,
      45,
      46,
      47,
      48,
      49,
      50,
      51,
      52,
      53,
      54,
      55,
      56,
      57,
      58,
      59,
      60,
      61,
      62,
      63,
      64,
      65,
      66,
      67,
      68,
      69,
      70,
      71,
      72,
      73,
      74,
      75,
      76,
      77,
      78,
      79,
      80,
      81,
      82,
      83,
      84,
      85,
      86,
      87,
      88,
      89,
      90,
      91,
      92,
      93,
      94,
      95,
      96,
      97,
      98,
      99,
      100,
      101,
      102,
      103,
      104,
      105,
      106,
      107,
      108,
      109,
      110,
      111,
      112,
      113,
      114,
      115,
      116,
      117,
      118,
      119,
      120,
      121,
      122,
      123,
      124,
      125,
      126,
      127,
      128,
      129,
      130,
      131,
      132,
      133,
      134,
      135,
      136,
      137,
      138,
      139,
      140,
      141,
      142,
      143,
      144,
      145,
      146,
      147,
      148,
      149,
      150,
      151,
      152,
      153,
      154,
      155,
      156,
      157,
      158,
      159,
      160,
      161,
      162,
      163,
      164,
      165,
      166,
      167,
      168,
      169,
      170,
      171,
      172,
      173,
      174,
      175,
      176,
      177,
      178,
      179,
      180,
      181,
      182,
      183,
      184,
      185,
      186,
      187,
      188,
      189,
      190,
      191,
      192,
      193,
      194,
      195,
      196,
      197,
      198,
      199,
      200,
      201,
      202,
      203,
      204,
      205,
      206,
      207,
      208,
      209,
      210,
      211,
      212,
      213,
      214,
      215,
      216,
      217,
      218,
      219,
      220,
      221,
      222,
      223,
      224,
      225,
      226,
      227,
      228,
      229,
      230,
      231,
      232,
      233,
      234,
      235,
      236,
      237,
      238,
      239,
      240,
      241,
      242,
      243,
      244,
      245,
      246,
      247,
      248,
      249,
      250,
      251,
      252,
      253,
      254,
      255,
      256,
      257,
      258,
      259,
      260,
      261,
      262,
      263,
      264,
      265,
      266,
      267,
      268,
      269,
      270,
      271,
      272,
      273,
      274,
      275,
      276,
      277,
      278,
      279,
      280,
      281,
      282,
      283,
      284,
      285,
      286,
      287,
      288,
      289,
      290,
      291,
      292,
      293,
      294,
      295,
      296,
      297,
      298,
      299,
      300,
      301,
      302,
      303,
      304,
      305,
      306,
      307,
      308,
      309,
      310,
      311,
      312,
      313,
      314,
      315,
      316,
      317,
      318,
      319,
      320,
      321,
      322,
      323,
      324,
      325,
      326,
      327,
      328,
      329,
      330,
      331,
      332,
      333,
      334,
      335,
      336,
      337,
      338,
      339,
      340,
      341,
      342,
      343,
      344,
      345,
      346,
      347,
      348,
      349,
      350,
      351,
      352,
      353,
      354,
      355,
      356,
      357,
      358,
      359,
      360,
      361,
      362,
      363,
      364,
      365,
      366,
      367,
      368,
      369,
      370,
      371,
      372,
      373,
      374,
      375,
      376,
      377,
      378,
      379,
      380,
      381,
      382,
      383,
      384,
      385,
      386,
      387,
      388,
      389,
      390,
      391,
      392,
      393,
      394,
      395,
      396,
      397,
      398,
      399
    ],
    "timestamps": [
      "2023-03-07T03:16:01.166144",
      "2023-03-07T03:16:10.331249",
      "2023-03-07T03:16:19.557919",
      "2023-03-07T03:16:28.731930",
      "2023-03-07T03:16:37.918530",
      "2023-03-07T03:16:47.047307",
      "2023-03-07T03:16:56.277636",
      "2023-03-07T03:17:05.468050",
      "2023-03-07T03:17:14.655722",
      "2023-03-07T03:17:23.969962",
      "2023-03-07T03:17:33.147760",
      "2023-03-07T03:17:42.311579",
      "2023-03-07T03:17:51.445757",
      "2023-03-07T03:18:00.660610",
      "2023-03-07T03:18:09.770909",
      "2023-03-07T03:18:18.894155",
      "2023-03-07T03:18:28.022418",
      "2023-03-07T03:18:37.181933",
      "2023-03-07T03:18:46.321666",
      "2023-03-07T03:18:55.488248",
      "2023-03-07T03:19:04.665694",
      "2023-03-07T03:19:13.830386",
      "2023-03-07T03:19:23.064619",
      "2023-03-07T03:19:32.252198",
      "2023-03-07T03:19:41.364850",
      "2023-03-07T03:19:50.522729",
      "2023-03-07T03:19:59.653929",
      "2023-03-07T03:20:08.781560",
      "2023-03-07T03:20:17.933968",
      "2023-03-07T03:20:27.189226",
      "2023-03-07T03:20:36.358217",
      "2023-03-07T03:20:45.552269",
      "2023-03-07T03:20:54.890861",
      "2023-03-07T03:21:04.056277",
      "2023-03-07T03:21:13.204855",
      "2023-03-07T03:21:22.342756",
      "2023-03-07T03:21:31.507930",
      "2023-03-07T03:21:40.639085",
      "2023-03-07T03:21:49.803121",
      "2023-03-07T03:21:58.961535",
      "2023-03-07T03:22:08.104819",
      "2023-03-07T03:22:17.300940",
      "2023-03-07T03:22:26.459451",
      "2023-03-07T03:22:35.651265",
      "2023-03-07T03:22:44.817068",
      "2023-03-07T03:22:53.965167",
      "2023-03-07T03:23:03.119092",
      "2023-03-07T03:23:12.242563",
      "2023-03-07T03:23:21.384494",
      "2023-03-07T03:23:30.596004",
      "2023-03-07T03:23:39.755467",
      "2023-03-07T03:23:48.902446",
      "2023-03-07T03:23:58.059424",
      "2023-03-07T03:24:07.210828",
      "2023-03-07T03:24:16.360359",
      "2023-03-07T03:24:25.532126",
      "2023-03-07T03:24:34.741766",
      "2023-03-07T03:24:43.880223",
      "2023-03-07T03:24:53.019278",
      "2023-03-07T03:25:02.173498",
      "2023-03-07T03:25:11.395835",
      "2023-03-07T03:25:20.533362",
      "2023-03-07T03:25:29.686140",
      "2023-03-07T03:25:38.796837",
      "2023-03-07T03:25:48.014927",
      "2023-03-07T03:25:57.212622",
      "2023-03-07T03:26:06.333496",
      "2023-03-07T03:26:15.472326",
      "2023-03-07T03:26:24.582441",
      "2023-03-07T03:26:33.733710",
      "2023-03-07T03:26:42.958238",
      "2023-03-07T03:26:52.094084",
      "2023-03-07T03:27:01.273099",
      "2023-03-07T03:27:10.461676",
      "2023-03-07T03:27:19.693456",
      "2023-03-07T03:27:28.835340",
      "2023-03-07T03:27:37.968376",
      "2023-03-07T03:27:47.123045",
      "2023-03-07T03:27:56.292152",
      "2023-03-07T03:28:05.527916",
      "2023-03-07T03:28:14.727430",
      "2023-03-07T03:28:23.955438",
      "2023-03-07T03:28:33.168848",
      "2023-03-07T03:28:42.310020",
      "2023-03-07T03:28:51.406243",
      "2023-03-07T03:29:00.523638",
      "2023-03-07T03:29:09.752496",
      "2023-03-07T03:29:18.965431",
      "2023-03-07T03:29:28.201738",
      "2023-03-07T03:29:37.439789",
      "2023-03-07T03:29:46.606387",
      "2023-03-07T03:29:55.754589",
      "2023-03-07T03:30:05.000762",
      "2023-03-07T03:30:14.146978",
      "2023-03-07T03:30:23.307167",
      "2023-03-07T03:30:32.437070",
      "2023-03-07T03:30:41.626927",
      "2023-03-07T03:30:50.760852",
      "2023-03-07T03:30:59.902047",
      "2023-03-07T03:31:09.057510",
      "2023-03-07T03:31:18.234953",
      "2023-03-07T03:31:27.380284",
      "2023-03-07T03:31:36.494645",
      "2023-03-07T03:31:45.600216",
      "2023-03-07T03:31:54.746934",
      "2023-03-07T03:32:03.889927",
      "2023-03-07T03:32:13.034489",
      "2023-03-07T03:32:22.165632",
      "2023-03-07T03:32:31.288088",
      "2023-03-07T03:32:40.398966",
      "2023-03-07T03:32:49.547909",
      "2023-03-07T03:32:58.714714",
      "2023-03-07T03:33:07.872187",
      "2023-03-07T03:33:16.999881",
      "2023-03-07T03:33:26.099602",
      "2023-03-07T03:33:35.251304",
      "2023-03-07T03:33:44.413128",
      "2023-03-07T03:33:53.560596",
      "2023-03-07T03:34:02.730237",
      "2023-03-07T03:34:11.850396",
      "2023-03-07T03:34:21.077271",
      "2023-03-07T03:34:30.237548",
      "2023-03-07T03:34:39.463094",
      "2023-03-07T03:34:48.633619",
      "2023-03-07T03:34:57.767394",
      "2023-03-07T03:35:06.878150",
      "2023-03-07T03:35:16.011122",
      "2023-03-07T03:35:25.193736",
      "2023-03-07T03:35:34.347551",
      "2023-03-07T03:35:43.474290",
      "2023-03-07T03:35:52.675410",
      "2023-03-07T03:36:01.785186",
      "2023-03-07T03:36:10.959464",
      "2023-03-07T03:36:20.096764",
      "2023-03-07T03:36:29.216273",
      "2023-03-07T03:36:38.330745",
      "2023-03-07T03:36:47.534542",
      "2023-03-07T03:36:56.746172",
      "2023-03-07T03:37:05.976285",
      "2023-03-07T03:37:15.136144",
      "2023-03-07T03:37:24.274260",
      "2023-03-07T03:37:33.399387",
      "2023-03-07T03:37:42.520953",
      "2023-03-07T03:37:51.670507",
      "2023-03-07T03:38:00.861336",
      "2023-03-07T03:38:10.032024",
      "2023-03-07T03:38:19.204485",
      "2023-03-07T03:38:28.342897",
      "2023-03-07T03:38:37.532985",
      "2023-03-07T03:38:46.696765",
      "2023-03-07T03:38:55.894264",
      "2023-03-07T03:39:04.986341",
      "2023-03-07T03:39:14.233222",
      "2023-03-07T03:39:23.436095",
      "2023-03-07T03:39:32.612930",
      "2023-03-07T03:39:41.733671",
      "2023-03-07T03:39:50.886498",
      "2023-03-07T03:40:00.025869",
      "2023-03-07T03:40:09.144086",
      "2023-03-07T03:40:18.334383",
      "2023-03-07T03:40:27.487271",
      "2023-03-07T03:40:36.623468",
      "2023-03-07T03:40:45.780928",
      "2023-03-07T03:40:54.883280",
      "2023-03-07T03:41:04.044109",
      "2023-03-07T03:41:13.217793",
      "2023-03-07T03:41:22.335418",
      "2023-03-07T03:41:31.520242",
      "2023-03-07T03:41:40.667207",
      "2023-03-07T03:41:49.781124",
      "2023-03-07T03:41:58.946188",
      "2023-03-07T03:42:08.092797",
      "2023-03-07T03:42:17.189735",
      "2023-03-07T03:42:26.328360",
      "2023-03-07T03:42:35.521590",
      "2023-03-07T03:42:44.668099",
      "2023-03-07T03:42:53.863038",
      "2023-03-07T03:43:02.963344",
      "2023-03-07T03:43:12.126102",
      "2023-03-07T03:43:21.281740",
      "2023-03-07T03:43:30.453459",
      "2023-03-07T03:43:39.620239",
      "2023-03-07T03:43:48.749075",
      "2023-03-07T03:43:57.896078",
      "2023-03-07T03:44:06.979314",
      "2023-03-07T03:44:16.248753",
      "2023-03-07T03:44:25.411680",
      "2023-03-07T03:44:34.561774",
      "2023-03-07T03:44:43.706233",
      "2023-03-07T03:44:52.857782",
      "2023-03-07T03:45:02.006437",
      "2023-03-07T03:45:11.203714",
      "2023-03-07T03:45:20.303813",
      "2023-03-07T03:45:29.441666",
      "2023-03-07T03:45:38.563494",
      "2023-03-07T03:45:47.696507",
      "2023-03-07T03:45:56.820761",
      "2023-03-07T03:46:06.108922",
      "2023-03-07T03:46:15.393411",
      "2023-03-07T03:46:24.548888",
      "2023-03-07T03:46:33.785234",
      "2023-03-07T03:46:42.897372",
      "2023-03-07T03:46:52.098592",
      "2023-03-07T03:47:01.358106",
      "2023-03-07T03:47:10.511558",
      "2023-03-07T03:47:19.682797",
      "2023-03-07T03:47:28.824255",
      "2023-03-07T03:47:37.955090",
      "2023-03-07T03:47:47.082014",
      "2023-03-07T03:47:56.232206",
      "2023-03-07T03:48:05.348517",
      "2023-03-07T03:48:14.528908",
      "2023-03-07T03:48:23.638885",
      "2023-03-07T03:48:32.815776",
      "2023-03-07T03:48:41.936784",
      "2023-03-07T03:48:51.094384",
      "2023-03-07T03:49:00.248473",
      "2023-03-07T03:49:09.361093",
      "2023-03-07T03:49:18.458159",
      "2023-03-07T03:49:27.682740",
      "2023-03-07T03:49:36.818610",
      "2023-03-07T03:49:45.975772",
      "2023-03-07T03:49:55.130328",
      "2023-03-07T03:50:04.295982",
      "2023-03-07T03:50:13.430645",
      "2023-03-07T03:50:22.623491",
      "2023-03-07T03:50:31.765504",
      "2023-03-07T03:50:40.939904",
      "2023-03-07T03:50:50.104976",
      "2023-03-07T03:50:59.325159",
      "2023-03-07T03:51:08.514819",
      "2023-03-07T03:51:17.670478",
      "2023-03-07T03:51:26.882139",
      "2023-03-07T03:51:36.059492",
      "2023-03-07T03:51:45.214857",
      "2023-03-07T03:51:54.489379",
      "2023-03-07T03:52:03.656824",
      "2023-03-07T03:52:12.769812",
      "2023-03-07T03:52:21.909637",
      "2023-03-07T03:52:31.051776",
      "2023-03-07T03:52:40.290957",
      "2023-03-07T03:52:49.474781",
      "2023-03-07T03:52:58.564444",
      "2023-03-07T03:53:07.746431",
      "2023-03-07T03:53:17.017459",
      "2023-03-07T03:53:26.255338",
      "2023-03-07T03:53:35.476589",
      "2023-03-07T03:53:44.670032",
      "2023-03-07T03:53:53.797751",
      "2023-03-07T03:54:03.043671",
      "2023-03-07T03:54:12.242331",
      "2023-03-07T03:54:21.376992",
      "2023-03-07T03:54:30.534186",
      "2023-03-07T03:54:39.677184",
      "2023-03-07T03:54:48.859583",
      "2023-03-07T03:54:58.031815",
      "2023-03-07T03:55:07.193785",
      "2023-03-07T03:55:16.305096",
      "2023-03-07T03:55:25.435438",
      "2023-03-07T03:55:34.618204",
      "2023-03-07T03:55:43.751074",
      "2023-03-07T03:55:52.934848",
      "2023-03-07T03:56:02.082471",
      "2023-03-07T03:56:11.249589",
      "2023-03-07T03:56:20.432759",
      "2023-03-07T03:56:29.569470",
      "2023-03-07T03:56:38.739777",
      "2023-03-07T03:56:47.947037",
      "2023-03-07T03:56:57.161013",
      "2023-03-07T03:57:06.285600",
      "2023-03-07T03:57:15.527331",
      "2023-03-07T03:57:24.654281",
      "2023-03-07T03:57:33.776484",
      "2023-03-07T03:57:42.936712",
      "2023-03-07T03:57:52.065882",
      "2023-03-07T03:58:01.233740",
      "2023-03-07T03:58:10.399534",
      "2023-03-07T03:58:19.577442",
      "2023-03-07T03:58:28.771564",
      "2023-03-07T03:58:38.014539",
      "2023-03-07T03:58:47.218849",
      "2023-03-07T03:58:56.414059",
      "2023-03-07T03:59:05.593588",
      "2023-03-07T03:59:14.832527",
      "2023-03-07T03:59:23.971835",
      "2023-03-07T03:59:33.107809",
      "2023-03-07T03:59:42.272269",
      "2023-03-07T03:59:51.425619",
      "2023-03-07T04:00:00.650686",
      "2023-03-07T04:00:09.839553",
      "2023-03-07T04:00:19.008986",
      "2023-03-07T04:00:28.127743",
      "2023-03-07T04:00:37.290980",
      "2023-03-07T04:00:46.438122",
      "2023-03-07T04:00:55.584917",
      "2023-03-07T04:01:04.791890",
      "2023-03-07T04:01:13.968505",
      "2023-03-07T04:01:23.194353",
      "2023-03-07T04:01:32.344084",
      "2023-03-07T04:01:41.512760",
      "2023-03-07T04:01:50.753349",
      "2023-03-07T04:01:59.914280",
      "2023-03-07T04:02:09.178623",
      "2023-03-07T04:02:18.357875",
      "2023-03-07T04:02:27.537311",
      "2023-03-07T04:02:36.685340",
      "2023-03-07T04:02:45.842494",
      "2023-03-07T04:02:54.984782",
      "2023-03-07T04:03:04.116573",
      "2023-03-07T04:03:13.269173",
      "2023-03-07T04:03:22.486681",
      "2023-03-07T04:03:31.627624",
      "2023-03-07T04:03:40.798850",
      "2023-03-07T04:03:50.117889",
      "2023-03-07T04:03:59.272200",
      "2023-03-07T04:04:08.465594",
      "2023-03-07T04:04:17.587609",
      "2023-03-07T04:04:26.775266",
      "2023-03-07T04:04:35.932279",
      "2023-03-07T04:04:45.072940",
      "2023-03-07T04:04:54.283386",
      "2023-03-07T04:05:03.484801",
      "2023-03-07T04:05:12.695294",
      "2023-03-07T04:05:21.900726",
      "2023-03-07T04:05:31.035535",
      "2023-03-07T04:05:40.273878",
      "2023-03-07T04:05:49.463883",
      "2023-03-07T04:05:58.613560",
      "2023-03-07T04:06:07.734192",
      "2023-03-07T04:06:17.062475",
      "2023-03-07T04:06:26.297294",
      "2023-03-07T04:06:35.482160",
      "2023-03-07T04:06:44.659119",
      "2023-03-07T04:06:53.839908",
      "2023-03-07T04:07:02.960986",
      "2023-03-07T04:07:12.222967",
      "2023-03-07T04:07:21.378230",
      "2023-03-07T04:07:30.573611",
      "2023-03-07T04:07:39.697865",
      "2023-03-07T04:07:48.835648",
      "2023-03-07T04:07:58.012686",
      "2023-03-07T04:08:07.174952",
      "2023-03-07T04:08:16.296665",
      "2023-03-07T04:08:25.447922",
      "2023-03-07T04:08:34.584575",
      "2023-03-07T04:08:43.664340",
      "2023-03-07T04:08:52.814960",
      "2023-03-07T04:09:01.978068",
      "2023-03-07T04:09:11.127509",
      "2023-03-07T04:09:20.409002",
      "2023-03-07T04:09:29.569714",
      "2023-03-07T04:09:38.780893",
      "2023-03-07T04:09:47.971485",
      "2023-03-07T04:09:57.264560",
      "2023-03-07T04:10:06.519590",
      "2023-03-07T04:10:15.643104",
      "2023-03-07T04:10:24.793198",
      "2023-03-07T04:10:34.062077",
      "2023-03-07T04:10:43.220266",
      "2023-03-07T04:10:52.446809",
      "2023-03-07T04:11:01.569628",
      "2023-03-07T04:11:10.773142",
      "2023-03-07T04:11:19.906849",
      "2023-03-07T04:11:29.088736",
      "2023-03-07T04:11:38.269105",
      "2023-03-07T04:11:47.421923",
      "2023-03-07T04:11:56.603132",
      "2023-03-07T04:12:05.773947",
      "2023-03-07T04:12:14.903808",
      "2023-03-07T04:12:24.111031",
      "2023-03-07T04:12:33.322695",
      "2023-03-07T04:12:42.581601",
      "2023-03-07T04:12:51.805202",
      "2023-03-07T04:13:01.035168",
      "2023-03-07T04:13:10.156721",
      "2023-03-07T04:13:19.392914",
      "2023-03-07T04:13:28.545883",
      "2023-03-07T04:13:37.646854",
      "2023-03-07T04:13:46.768593",
      "2023-03-07T04:13:55.915190",
      "2023-03-07T04:14:05.071658",
      "2023-03-07T04:14:14.199314",
      "2023-03-07T04:14:23.365639",
      "2023-03-07T04:14:32.505043",
      "2023-03-07T04:14:41.690018",
      "2023-03-07T04:14:50.839943",
      "2023-03-07T04:15:00.067006",
      "2023-03-07T04:15:09.230552",
      "2023-03-07T04:15:18.392721",
      "2023-03-07T04:15:27.604101",
      "2023-03-07T04:15:36.807919",
      "2023-03-07T04:15:45.967027",
      "2023-03-07T04:15:55.123710",
      "2023-03-07T04:16:04.252560",
      "2023-03-07T04:16:13.531231",
      "2023-03-07T04:16:22.647758",
      "2023-03-07T04:16:31.825850",
      "2023-03-07T04:16:41.100232",
      "2023-03-07T04:16:50.311711",
      "2023-03-07T04:16:59.664425"
    ],
    "values": [
      9.91632403110378,
      9.667419182935262,
      9.069034089149493,
      8.891952844738102,
      8.922401183375227,
      8.972417017742833,
      8.914364868795312,
      8.821805951403869,
      8.703958833959646,
      8.835227538335815,
      9.42251329610637,
      8.986509513566835,
      9.267901507424677,
      9.045917727710592,
      8.813274095224958,
      8.827464759660657,
      8.711673295879805,
      8.760043205348428,
      8.798931958148632,
      8.741362292293054,
      8.774562212051437,
      8.858405105579582,
      8.775987588621454,
      8.771985450108861,
      8.751356078376734,
      8.738633251937351,
      8.759750802044483,
      8.723645217644423,
      8.75519785238071,
      8.701920525704965,
      8.698231857795392,
      8.633812480352912,
      8.687722130725449,
      8.663643493307417,
      8.668027652438262,
      8.631500969430384,
      8.643539065896377,
      8.643138372311691,
      8.642121025828793,
      8.692028600576332,
      8.619806183560879,
      8.706023006149744,
      8.687744715213668,
      8.622217603465238,
      8.635795089100784,
      8.613625559396517,
      8.66210307715146,
      8.662942448898557,
      8.680183041097076,
      8.648547254679777,
      8.701076905731128,
      8.601397180861696,
      8.610635421110773,
      8.60457246832818,
      8.600922183158703,
      8.708150811888135,
      8.639940019752325,
      8.652778923201316,
      8.638072411160847,
      8.624942702814185,
      8.677076904344203,
      8.647273185673669,
      8.59747550834287,
      8.594177212745407,
      8.678194351182277,
      8.687948612533951,
      8.629983655781178,
      8.680806909481948,
      8.71946125699205,
      8.719284042792355,
      8.655644913835397,
      8.712562990428863,
      8.701456263052869,
      8.565006641616286,
      8.654026039552729,
      8.683858027474788,
      8.708966455332847,
      8.638157187832682,
      8.5750834080981,
      8.66690266620851,
      8.647240082529605,
      8.650343023790446,
      8.595878539188512,
      8.56842347886902,
      8.733604347093289,
      8.714619293751198,
      8.624267986185917,
      8.623016823836531,
      8.688506018003302,
      8.696974469087765,
      8.622362273857478,
      8.677265258286418,
      8.569317189795191,
      8.667329847890427,
      8.614102198680236,
      8.62385434965762,
      8.67434552524174,
      8.638528140410617,
      8.67255139510486,
      8.626153056400295,
      8.587254861573138,
      8.69949712934367,
      8.66295892282746,
      8.648613033745521,
      8.668181319714213,
      8.648641428583977,
      8.59995431689813,
      8.652237240452392,
      8.596009867837152,
      8.623342892334454,
      8.668323847672065,
      8.757336513084592,
      8.620605927635172,
      8.726995685645345,
      8.70953233914753,
      8.568578235136554,
      8.673702508187132,
      8.638558829834182,
      8.62976703927336,
      8.537705988775548,
      8.699622474515948,
      8.633710942094044,
      8.66022453909999,
      8.581365005922626,
      8.698445547883878,
      8.627923458213845,
      8.625434993531696,
      8.675511030691071,
      8.594819623279205,
      8.67085103301309,
      8.688771330160758,
      8.655178661551737,
      8.655172970906829,
      8.78128588428004,
      8.650735893382029,
      8.608671806929358,
      8.625114261490983,
      8.668798021306955,
      8.670379096681474,
      8.692613983820456,
      8.626918951039546,
      8.661419873721423,
      8.711743016339927,
      8.643198514863348,
      8.665278514642733,
      8.62908505899324,
      8.618966420684806,
      8.606163396056397,
      8.70689207228302,
      8.668897832872796,
      8.677603007595065,
      8.640625518278327,
      8.686674054773585,
      8.66974103218892,
      8.653733973027018,
      8.641565033515917,
      8.660599951595357,
      8.636604691049676,
      8.577771521149845,
      8.668604599160123,
      8.64892115334135,
      8.670409557274406,
      8.70879933830845,
      8.639971165460652,
      8.673058569789571,
      8.741545580796215,
      8.640300959558267,
      8.698992738323735,
      8.531631883448942,
      8.699423540413541,
      8.685127331487617,
      8.679607256835808,
      8.654495758668618,
      8.602272429701566,
      8.641378903944995,
      8.648084076577357,
      8.62139118578029,
      8.645400438665476,
      8.642159733915715,
      8.624078504610742,
      8.605670029092959,
      8.667717107250517,
      8.60254509606575,
      8.644532501369353,
      8.698472977916492,
      8.662316655930251,
      8.60396534239158,
      8.628049386292682,
      8.619508137384411,
      8.577334375501609,
      8.65116759238633,
      8.594130482440617,
      8.725978864950193,
      8.573941815839738,
      8.61554214211862,
      8.552412680732989,
      8.601471728849539,
      8.607160427993504,
      8.645000271174418,
      8.643421154172954,
      8.694826608472082,
      8.656418995217376,
      8.658476129584598,
      8.659441010544294,
      8.597662611583669,
      8.61977339778381,
      8.633242290901789,
      8.749733216523138,
      8.615307699335766,
      8.688668230043339,
      8.630964952993596,
      8.606980325102558,
      8.640788329275635,
      8.695505139876069,
      8.661150763073707,
      8.693775045244495,
      8.57698357198937,
      8.640468145583835,
      8.66729263050825,
      8.585260342745654,
      8.594817672160017,
      8.624725308549765,
      8.586846396387084,
      8.649385712778384,
      8.622408536204341,
      8.694412255880799,
      8.66541683495095,
      8.596306025156498,
      8.658417551519754,
      8.640988689002551,
      8.666559181472726,
      8.66153279487652,
      8.692820423107548,
      8.715119778631035,
      8.64020870394688,
      8.663155553475363,
      8.672776818464591,
      8.65146504892343,
      8.633259104866998,
      8.721389557138709,
      8.65215225264209,
      8.627742976488559,
      8.692367444352064,
      8.617545445314063,
      8.635091958194158,
      8.69655766395117,
      8.612710880686256,
      8.67017892132349,
      8.59446480949198,
      8.669198412538117,
      8.632583281488381,
      8.610206453023638,
      8.65254228255254,
      8.685367883370022,
      8.65292579568865,
      8.632731972167727,
      8.633299459748155,
      8.588716526233164,
      8.62216265414265,
      8.56588241594081,
      8.598778741728976,
      8.648537919949208,
      8.688359295514093,
      8.649662819803437,
      8.585307329974063,
      8.700718409025843,
      8.688251810728113,
      8.69468076901048,
      8.641974711411713,
      8.58630138951507,
      8.586411283501407,
      8.6184121006117,
      8.626886922934741,
      8.663681176510948,
      8.6115089753905,
      8.672396296783411,
      8.636434921146328,
      8.666020450225632,
      8.597205728131023,
      8.580626849652594,
      8.650541168517377,
      8.705761105222246,
      8.647041147287418,
      8.652039448957073,
      8.678863536788015,
      8.650827303489935,
      8.678412306129113,
      8.696157491688897,
      8.648136094801938,
      8.689705246919367,
      8.632427918400602,
      8.672609688806512,
      8.62780132087103,
      8.663915369498257,
      8.578563814538562,
      8.58824939544795,
      8.670213392674814,
      8.608650586870164,
      8.782601274014663,
      8.65683579021017,
      8.642263551680463,
      8.713838251981667,
      8.641156346965287,
      8.669838258128504,
      8.681392281497573,
      8.64227013765425,
      8.668068781464003,
      8.66450919040481,
      8.592619470202658,
      8.60838187628953,
      8.653104746234677,
      8.705011785333149,
      8.63912314632569,
      8.70190112975118,
      8.629571582358123,
      8.634864214333966,
      8.635362604379003,
      8.618615570575352,
      8.593982818116007,
      8.679221732545406,
      8.714470734165111,
      8.645563411181012,
      8.612689289251874,
      8.64866933704177,
      8.66705660028577,
      8.628078726002048,
      8.586819258955448,
      8.707542308686598,
      8.615050511112,
      8.599043062130125,
      8.673263962808864,
      8.550383491509562,
      8.66510738629516,
      8.676528456183764,
      8.622493550021662,
      8.693787253185521,
      8.655102464321907,
      8.636663227145522,
      8.672695235434542,
      8.642545221777159,
      8.64877706062369,
      8.580918974051963,
      8.60815355080037,
      8.632032029082616,
      8.55979131362637,
      8.607763530258932,
      8.647793028608893,
      8.64379837877277,
      8.601941869192844,
      8.620758863519104,
      8.724915952229445,
      8.615163367542118,
      8.573366036907176,
      8.646422817122788,
      8.65863107509208,
      8.66501704779466,
      8.631531840702628,
      8.599102425463366,
      8.675059666120804,
      8.642950690147174,
      8.677000073846335,
      8.608371589889735,
      8.646321533113193,
      8.675208732872777,
      8.67210724449091,
      8.64545139188681,
      8.621589558291332,
      8.635013187214156,
      8.56663114244666,
      8.718703164955697,
      8.63876253667115,
      8.65722419064128,
      8.604064153717513,
      8.5895375536149,
      8.602955605271712,
      8.64805547843145,
      8.5957382631636,
      8.636609761261735,
      8.571276370916546,
      8.600685402600066,
      8.615095170473493,
      8.651765272110849,
      8.560605433331098,
      8.62334432327729,
      8.609105558765865,
      8.635759880843409,
      8.65423512945908,
      8.55444041672606,
      8.656946398794823,
      8.663631859549346,
      8.657364638777832,
      8.616657456055778,
      8.657963092763383,
      8.685603097727975,
      8.65691089172542,
      8.658774729263827,
      8.62753576334051,
      8.582676770764095,
      8.604403419095972,
      8.658701117526986
    ]
  }
}