INFO - siren_vae - Running command 'run'
INFO - siren_vae - Started run with ID "4"
[ENCODED STRUCTURE] Updating BN structure to be fully-connected.
[MODEL TYPE] IW-SIReN-VAE (k=8)
  0%|          | 0/300 [00:00<?, ?it/s]Train -ELBO: 51.51473, Val -ELBO: 43.65428:   0%|          | 1/300 [00:21<1:44:51, 21.04s/it]Train -ELBO: 42.66806, Val -ELBO: 41.06069:   1%|          | 2/300 [00:41<1:42:43, 20.68s/it]Train -ELBO: 38.56572, Val -ELBO: 37.76162:   1%|          | 3/300 [01:01<1:41:51, 20.58s/it]Train -ELBO: 37.25757, Val -ELBO: 37.21114:   1%|▏         | 4/300 [01:22<1:41:15, 20.53s/it]Train -ELBO: 36.82752, Val -ELBO: 36.77543:   2%|▏         | 5/300 [01:42<1:40:43, 20.49s/it]Train -ELBO: 36.51969, Val -ELBO: 36.54392:   2%|▏         | 6/300 [02:03<1:40:21, 20.48s/it]Train -ELBO: 36.34703, Val -ELBO: 36.42801:   2%|▏         | 7/300 [02:23<1:40:00, 20.48s/it]Train -ELBO: 36.17968, Val -ELBO: 36.22268:   3%|▎         | 8/300 [02:44<1:39:37, 20.47s/it]Train -ELBO: 35.91859, Val -ELBO: 35.93697:   3%|▎         | 9/300 [03:04<1:39:14, 20.46s/it]Train -ELBO: 35.69391, Val -ELBO: 35.73171:   3%|▎         | 10/300 [03:25<1:38:50, 20.45s/it]Train -ELBO: 35.52214, Val -ELBO: 35.57877:   4%|▎         | 11/300 [03:45<1:38:36, 20.47s/it]Train -ELBO: 35.40475, Val -ELBO: 35.47587:   4%|▍         | 12/300 [04:06<1:38:16, 20.47s/it]Train -ELBO: 35.34557, Val -ELBO: 35.45452:   4%|▍         | 13/300 [04:26<1:37:51, 20.46s/it]Train -ELBO: 35.34215, Val -ELBO: 35.45200:   5%|▍         | 14/300 [04:46<1:37:33, 20.47s/it]Train -ELBO: 35.31441, Val -ELBO: 35.45921:   5%|▌         | 15/300 [05:07<1:37:13, 20.47s/it]Train -ELBO: 35.29867, Val -ELBO: 35.47156:   5%|▌         | 16/300 [05:27<1:36:49, 20.46s/it]Train -ELBO: 35.28527, Val -ELBO: 35.39493:   6%|▌         | 17/300 [05:48<1:36:32, 20.47s/it]Train -ELBO: 35.27164, Val -ELBO: 35.41218:   6%|▌         | 18/300 [06:08<1:36:14, 20.48s/it]Train -ELBO: 35.23730, Val -ELBO: 35.39221:   6%|▋         | 19/300 [06:29<1:35:53, 20.48s/it]Train -ELBO: 35.24118, Val -ELBO: 35.41052:   7%|▋         | 20/300 [06:49<1:35:33, 20.48s/it]Train -ELBO: 35.22342, Val -ELBO: 35.41283:   7%|▋         | 21/300 [07:10<1:35:15, 20.49s/it]Train -ELBO: 35.21400, Val -ELBO: 35.33399:   7%|▋         | 22/300 [07:30<1:34:55, 20.49s/it]Train -ELBO: 35.17099, Val -ELBO: 35.29825:   8%|▊         | 23/300 [07:51<1:34:36, 20.49s/it]Train -ELBO: 35.16931, Val -ELBO: 35.32829:   8%|▊         | 24/300 [08:11<1:34:13, 20.48s/it]Train -ELBO: 35.16336, Val -ELBO: 35.31210:   8%|▊         | 25/300 [08:32<1:33:51, 20.48s/it]Train -ELBO: 35.14347, Val -ELBO: 35.31862:   9%|▊         | 26/300 [08:52<1:33:32, 20.49s/it]Train -ELBO: 35.13617, Val -ELBO: 35.34419:   9%|▉         | 27/300 [09:13<1:33:12, 20.48s/it]Train -ELBO: 35.14855, Val -ELBO: 35.29398:   9%|▉         | 28/300 [09:33<1:32:52, 20.49s/it]Train -ELBO: 35.13868, Val -ELBO: 35.28498:  10%|▉         | 29/300 [09:54<1:32:29, 20.48s/it]Train -ELBO: 35.12605, Val -ELBO: 35.28500:  10%|█         | 30/300 [10:14<1:32:10, 20.48s/it]Train -ELBO: 35.11401, Val -ELBO: 35.30795:  10%|█         | 31/300 [10:35<1:31:52, 20.49s/it]Train -ELBO: 35.11953, Val -ELBO: 35.31375:  11%|█         | 32/300 [10:55<1:31:29, 20.48s/it]Train -ELBO: 35.11610, Val -ELBO: 35.28295:  11%|█         | 33/300 [11:16<1:31:09, 20.49s/it]Train -ELBO: 35.12076, Val -ELBO: 35.29371:  11%|█▏        | 34/300 [11:36<1:30:48, 20.48s/it]Train -ELBO: 35.12455, Val -ELBO: 35.27659:  12%|█▏        | 35/300 [11:57<1:30:28, 20.49s/it]Train -ELBO: 35.11448, Val -ELBO: 35.27899:  12%|█▏        | 36/300 [12:17<1:30:04, 20.47s/it]Train -ELBO: 35.10884, Val -ELBO: 35.26036:  12%|█▏        | 37/300 [12:38<1:29:45, 20.48s/it]Train -ELBO: 35.10932, Val -ELBO: 35.25532:  13%|█▎        | 38/300 [12:58<1:29:25, 20.48s/it]Train -ELBO: 35.10252, Val -ELBO: 35.28016:  13%|█▎        | 39/300 [13:19<1:29:14, 20.52s/it]Train -ELBO: 35.11044, Val -ELBO: 35.29633:  13%|█▎        | 40/300 [13:39<1:28:52, 20.51s/it]Train -ELBO: 35.10117, Val -ELBO: 35.27574:  14%|█▎        | 41/300 [14:00<1:28:35, 20.52s/it]Train -ELBO: 35.10310, Val -ELBO: 35.31736:  14%|█▍        | 42/300 [14:20<1:28:11, 20.51s/it]Train -ELBO: 35.09550, Val -ELBO: 35.29454:  14%|█▍        | 43/300 [14:41<1:27:47, 20.50s/it]Train -ELBO: 35.10145, Val -ELBO: 35.26493:  15%|█▍        | 44/300 [15:01<1:27:27, 20.50s/it]Train -ELBO: 35.08180, Val -ELBO: 35.26792:  15%|█▌        | 45/300 [15:22<1:27:05, 20.49s/it]Train -ELBO: 35.08233, Val -ELBO: 35.29948:  15%|█▌        | 46/300 [15:42<1:26:44, 20.49s/it]Train -ELBO: 35.08527, Val -ELBO: 35.27695:  16%|█▌        | 47/300 [16:02<1:26:18, 20.47s/it]Train -ELBO: 35.08853, Val -ELBO: 35.34297:  16%|█▌        | 48/300 [16:23<1:26:01, 20.48s/it]Train -ELBO: 35.08663, Val -ELBO: 35.26186:  16%|█▋        | 49/300 [16:44<1:25:41, 20.49s/it]Train -ELBO: 35.07591, Val -ELBO: 35.26707:  17%|█▋        | 50/300 [17:04<1:25:24, 20.50s/it]Train -ELBO: 35.07941, Val -ELBO: 35.25804:  17%|█▋        | 51/300 [17:25<1:25:06, 20.51s/it]Train -ELBO: 35.06950, Val -ELBO: 35.25126:  17%|█▋        | 52/300 [17:45<1:24:45, 20.50s/it]Train -ELBO: 35.06835, Val -ELBO: 35.26497:  18%|█▊        | 53/300 [18:06<1:24:24, 20.50s/it]Train -ELBO: 35.06746, Val -ELBO: 35.23979:  18%|█▊        | 54/300 [18:26<1:23:58, 20.48s/it]Train -ELBO: 35.07912, Val -ELBO: 35.27162:  18%|█▊        | 55/300 [18:47<1:23:40, 20.49s/it]Train -ELBO: 35.05973, Val -ELBO: 35.27506:  19%|█▊        | 56/300 [19:07<1:23:19, 20.49s/it]Train -ELBO: 35.06463, Val -ELBO: 35.26638:  19%|█▉        | 57/300 [19:27<1:22:58, 20.49s/it]Train -ELBO: 35.04725, Val -ELBO: 35.24392:  19%|█▉        | 58/300 [19:48<1:22:34, 20.47s/it]Train -ELBO: 35.06812, Val -ELBO: 35.26430:  20%|█▉        | 59/300 [20:08<1:22:15, 20.48s/it]Train -ELBO: 35.05574, Val -ELBO: 35.25592:  20%|██        | 60/300 [20:29<1:21:56, 20.48s/it]Train -ELBO: 35.05014, Val -ELBO: 35.21267:  20%|██        | 61/300 [20:49<1:21:36, 20.49s/it]Train -ELBO: 35.05564, Val -ELBO: 35.26091:  21%|██        | 62/300 [21:10<1:21:17, 20.49s/it]Train -ELBO: 35.04817, Val -ELBO: 35.23713:  21%|██        | 63/300 [21:30<1:20:52, 20.48s/it]Train -ELBO: 35.04758, Val -ELBO: 35.26548:  21%|██▏       | 64/300 [21:51<1:20:33, 20.48s/it]Train -ELBO: 35.05217, Val -ELBO: 35.24539:  22%|██▏       | 65/300 [22:11<1:20:13, 20.48s/it]Train -ELBO: 35.05068, Val -ELBO: 35.23486:  22%|██▏       | 66/300 [22:32<1:19:54, 20.49s/it]Train -ELBO: 35.03997, Val -ELBO: 35.25694:  22%|██▏       | 67/300 [22:52<1:19:31, 20.48s/it]Train -ELBO: 35.04023, Val -ELBO: 35.25502:  23%|██▎       | 68/300 [23:13<1:19:12, 20.48s/it]Train -ELBO: 35.04493, Val -ELBO: 35.26367:  23%|██▎       | 69/300 [23:33<1:18:51, 20.48s/it]Train -ELBO: 35.04545, Val -ELBO: 35.25793:  23%|██▎       | 70/300 [23:54<1:18:31, 20.48s/it]Train -ELBO: 35.04147, Val -ELBO: 35.25336:  24%|██▎       | 71/300 [24:14<1:18:15, 20.50s/it]Train -ELBO: 35.04484, Val -ELBO: 35.23985:  24%|██▍       | 72/300 [24:35<1:17:54, 20.50s/it]Train -ELBO: 35.05235, Val -ELBO: 35.24698:  24%|██▍       | 73/300 [24:55<1:17:34, 20.50s/it]Train -ELBO: 35.04778, Val -ELBO: 35.27702:  25%|██▍       | 74/300 [25:16<1:17:10, 20.49s/it]Train -ELBO: 35.03853, Val -ELBO: 35.23524:  25%|██▌       | 75/300 [25:36<1:16:50, 20.49s/it]Train -ELBO: 35.04190, Val -ELBO: 35.25653:  25%|██▌       | 76/300 [25:57<1:16:31, 20.50s/it]Train -ELBO: 35.03786, Val -ELBO: 35.25031:  26%|██▌       | 77/300 [26:17<1:16:11, 20.50s/it]Train -ELBO: 35.03977, Val -ELBO: 35.23081:  26%|██▌       | 78/300 [26:38<1:15:49, 20.50s/it]Train -ELBO: 35.05231, Val -ELBO: 35.26004:  26%|██▋       | 79/300 [26:58<1:15:24, 20.47s/it]Train -ELBO: 35.03562, Val -ELBO: 35.25322:  27%|██▋       | 80/300 [27:19<1:15:07, 20.49s/it]Train -ELBO: 35.03366, Val -ELBO: 35.23783:  27%|██▋       | 81/300 [27:39<1:14:43, 20.47s/it]Train -ELBO: 35.03488, Val -ELBO: 35.24875:  27%|██▋       | 82/300 [28:00<1:14:26, 20.49s/it]Train -ELBO: 35.02905, Val -ELBO: 35.25887:  28%|██▊       | 83/300 [28:20<1:14:04, 20.48s/it]Train -ELBO: 35.03388, Val -ELBO: 35.24197:  28%|██▊       | 84/300 [28:41<1:13:45, 20.49s/it]Train -ELBO: 35.03167, Val -ELBO: 35.24511:  28%|██▊       | 85/300 [29:01<1:13:21, 20.47s/it]Train -ELBO: 35.02583, Val -ELBO: 35.26930:  29%|██▊       | 86/300 [29:22<1:13:01, 20.47s/it]Train -ELBO: 35.03346, Val -ELBO: 35.22070:  29%|██▉       | 87/300 [29:42<1:12:41, 20.48s/it]Train -ELBO: 35.03678, Val -ELBO: 35.23084:  29%|██▉       | 88/300 [30:02<1:12:21, 20.48s/it]Train -ELBO: 35.03206, Val -ELBO: 35.25653:  30%|██▉       | 89/300 [30:23<1:12:01, 20.48s/it]Train -ELBO: 35.03000, Val -ELBO: 35.24206:  30%|███       | 90/300 [30:43<1:11:39, 20.47s/it]Train -ELBO: 35.02510, Val -ELBO: 35.26918:  30%|███       | 91/300 [31:04<1:11:23, 20.49s/it]Train -ELBO: 35.02976, Val -ELBO: 35.26877:  31%|███       | 92/300 [31:24<1:11:00, 20.48s/it]Train -ELBO: 35.02613, Val -ELBO: 35.24025:  31%|███       | 93/300 [31:45<1:10:39, 20.48s/it]Train -ELBO: 35.02822, Val -ELBO: 35.24553:  31%|███▏      | 94/300 [32:05<1:10:20, 20.49s/it]Train -ELBO: 35.02006, Val -ELBO: 35.25809:  32%|███▏      | 95/300 [32:26<1:10:00, 20.49s/it]Train -ELBO: 35.03074, Val -ELBO: 35.23121:  32%|███▏      | 96/300 [32:46<1:09:40, 20.49s/it]Train -ELBO: 35.01646, Val -ELBO: 35.24886:  32%|███▏      | 97/300 [33:07<1:09:17, 20.48s/it]Train -ELBO: 35.02323, Val -ELBO: 35.24617:  33%|███▎      | 98/300 [33:27<1:08:58, 20.49s/it]Train -ELBO: 35.02605, Val -ELBO: 35.22583:  33%|███▎      | 99/300 [33:48<1:08:37, 20.49s/it]Train -ELBO: 35.01543, Val -ELBO: 35.23981:  33%|███▎      | 100/300 [34:08<1:08:18, 20.49s/it]Train -ELBO: 35.02596, Val -ELBO: 35.23689:  34%|███▎      | 101/300 [34:29<1:07:55, 20.48s/it]Train -ELBO: 35.02037, Val -ELBO: 35.22644:  34%|███▍      | 102/300 [34:49<1:07:35, 20.48s/it]Train -ELBO: 35.01956, Val -ELBO: 35.22999:  34%|███▍      | 103/300 [35:10<1:07:16, 20.49s/it]Train -ELBO: 35.02434, Val -ELBO: 35.26465:  35%|███▍      | 104/300 [35:30<1:06:55, 20.49s/it]Train -ELBO: 35.01762, Val -ELBO: 35.25312:  35%|███▌      | 105/300 [35:51<1:06:35, 20.49s/it]Train -ELBO: 35.01472, Val -ELBO: 35.25247:  35%|███▌      | 106/300 [36:11<1:06:11, 20.47s/it]Train -ELBO: 35.01197, Val -ELBO: 35.25401:  36%|███▌      | 107/300 [36:32<1:05:51, 20.48s/it]Train -ELBO: 35.02082, Val -ELBO: 35.23960:  36%|███▌      | 108/300 [36:52<1:05:28, 20.46s/it]Train -ELBO: 35.01427, Val -ELBO: 35.24672:  36%|███▋      | 109/300 [37:13<1:05:09, 20.47s/it]Train -ELBO: 35.01985, Val -ELBO: 35.22332:  37%|███▋      | 110/300 [37:33<1:04:50, 20.48s/it]Train -ELBO: 35.02134, Val -ELBO: 35.26148:  37%|███▋      | 111/300 [37:54<1:04:34, 20.50s/it]Train -ELBO: 35.02159, Val -ELBO: 35.25246:  37%|███▋      | 112/300 [38:14<1:04:12, 20.49s/it]Train -ELBO: 35.01071, Val -ELBO: 35.25200:  38%|███▊      | 113/300 [38:35<1:03:48, 20.47s/it]Train -ELBO: 35.01010, Val -ELBO: 35.24930:  38%|███▊      | 114/300 [38:55<1:03:28, 20.47s/it]Train -ELBO: 35.01789, Val -ELBO: 35.27777:  38%|███▊      | 115/300 [39:16<1:03:07, 20.47s/it]Train -ELBO: 35.01462, Val -ELBO: 35.23482:  39%|███▊      | 116/300 [39:36<1:02:48, 20.48s/it]Train -ELBO: 35.00851, Val -ELBO: 35.21875:  39%|███▉      | 117/300 [39:56<1:02:25, 20.47s/it]Train -ELBO: 35.00829, Val -ELBO: 35.25495:  39%|███▉      | 118/300 [40:17<1:02:04, 20.47s/it]Train -ELBO: 35.01147, Val -ELBO: 35.24113:  40%|███▉      | 119/300 [40:37<1:01:42, 20.45s/it]Train -ELBO: 35.00771, Val -ELBO: 35.24369:  40%|████      | 120/300 [40:58<1:01:24, 20.47s/it]Train -ELBO: 35.00969, Val -ELBO: 35.23940:  40%|████      | 121/300 [41:18<1:01:05, 20.48s/it]Train -ELBO: 35.00906, Val -ELBO: 35.22232:  41%|████      | 122/300 [41:39<1:00:45, 20.48s/it]Train -ELBO: 35.01067, Val -ELBO: 35.22046:  41%|████      | 123/300 [41:59<1:00:24, 20.48s/it]Train -ELBO: 35.00959, Val -ELBO: 35.23219:  41%|████▏     | 124/300 [42:20<1:00:02, 20.47s/it]Train -ELBO: 35.00717, Val -ELBO: 35.23717:  42%|████▏     | 125/300 [42:40<59:42, 20.47s/it]  Train -ELBO: 35.00445, Val -ELBO: 35.24755:  42%|████▏     | 126/300 [43:01<59:21, 20.47s/it]Train -ELBO: 35.01040, Val -ELBO: 35.24590:  42%|████▏     | 127/300 [43:21<59:00, 20.47s/it]Train -ELBO: 35.00820, Val -ELBO: 35.26208:  43%|████▎     | 128/300 [43:42<58:38, 20.46s/it]Train -ELBO: 35.01171, Val -ELBO: 35.21083:  43%|████▎     | 129/300 [44:02<58:18, 20.46s/it]Train -ELBO: 35.00691, Val -ELBO: 35.25580:  43%|████▎     | 130/300 [44:23<58:00, 20.47s/it]Train -ELBO: 35.00272, Val -ELBO: 35.28679:  44%|████▎     | 131/300 [44:43<57:40, 20.48s/it]Train -ELBO: 35.00806, Val -ELBO: 35.27825:  44%|████▍     | 132/300 [45:03<57:19, 20.47s/it]Train -ELBO: 35.00513, Val -ELBO: 35.25034:  44%|████▍     | 133/300 [45:24<56:59, 20.48s/it]Train -ELBO: 35.00570, Val -ELBO: 35.24458:  45%|████▍     | 134/300 [45:44<56:40, 20.48s/it]Train -ELBO: 35.00032, Val -ELBO: 35.22967:  45%|████▌     | 135/300 [46:05<56:17, 20.47s/it]Train -ELBO: 35.00065, Val -ELBO: 35.25517:  45%|████▌     | 136/300 [46:25<55:56, 20.47s/it]Train -ELBO: 35.00723, Val -ELBO: 35.26319:  46%|████▌     | 137/300 [46:46<55:36, 20.47s/it]Train -ELBO: 35.00693, Val -ELBO: 35.23995:  46%|████▌     | 138/300 [47:06<55:16, 20.47s/it]Train -ELBO: 34.99976, Val -ELBO: 35.24132:  46%|████▋     | 139/300 [47:27<54:54, 20.46s/it]Train -ELBO: 35.00428, Val -ELBO: 35.22169:  47%|████▋     | 140/300 [47:47<54:35, 20.47s/it]Train -ELBO: 34.99709, Val -ELBO: 35.24996:  47%|████▋     | 141/300 [48:08<54:18, 20.50s/it]Train -ELBO: 35.00299, Val -ELBO: 35.21988:  47%|████▋     | 142/300 [48:28<53:56, 20.49s/it]Train -ELBO: 35.00042, Val -ELBO: 35.23746:  48%|████▊     | 143/300 [48:49<53:37, 20.49s/it]Train -ELBO: 34.99296, Val -ELBO: 35.24704:  48%|████▊     | 144/300 [49:09<53:15, 20.48s/it]Train -ELBO: 35.00407, Val -ELBO: 35.24459:  48%|████▊     | 145/300 [49:30<52:55, 20.49s/it]Train -ELBO: 34.99961, Val -ELBO: 35.24549:  49%|████▊     | 146/300 [49:50<52:32, 20.47s/it]Train -ELBO: 34.99004, Val -ELBO: 35.21411:  49%|████▉     | 147/300 [50:11<52:12, 20.47s/it]Train -ELBO: 35.00202, Val -ELBO: 35.23442:  49%|████▉     | 148/300 [50:31<51:52, 20.48s/it]Train -ELBO: 34.99635, Val -ELBO: 35.24388:  50%|████▉     | 149/300 [50:52<51:32, 20.48s/it]Train -ELBO: 34.99128, Val -ELBO: 35.24917:  50%|█████     | 150/300 [51:12<51:10, 20.47s/it]Train -ELBO: 34.99641, Val -ELBO: 35.22659:  50%|█████     | 151/300 [51:33<50:52, 20.49s/it]Train -ELBO: 34.99745, Val -ELBO: 35.25972:  51%|█████     | 152/300 [51:53<50:30, 20.48s/it]Train -ELBO: 35.00085, Val -ELBO: 35.23845:  51%|█████     | 153/300 [52:14<50:09, 20.47s/it]Train -ELBO: 34.99106, Val -ELBO: 35.24655:  51%|█████▏    | 154/300 [52:34<49:48, 20.47s/it]Train -ELBO: 34.99285, Val -ELBO: 35.25853:  52%|█████▏    | 155/300 [52:54<49:29, 20.48s/it]Train -ELBO: 34.99166, Val -ELBO: 35.26565:  52%|█████▏    | 156/300 [53:15<49:10, 20.49s/it]Train -ELBO: 34.99507, Val -ELBO: 35.22995:  52%|█████▏    | 157/300 [53:35<48:48, 20.48s/it]Train -ELBO: 34.99050, Val -ELBO: 35.23232:  53%|█████▎    | 158/300 [53:56<48:28, 20.48s/it]Train -ELBO: 34.99491, Val -ELBO: 35.24421:  53%|█████▎    | 159/300 [54:16<48:08, 20.48s/it]Train -ELBO: 34.99733, Val -ELBO: 35.23514:  53%|█████▎    | 160/300 [54:37<47:48, 20.49s/it]Train -ELBO: 34.98655, Val -ELBO: 35.25449:  54%|█████▎    | 161/300 [54:57<47:31, 20.51s/it]Train -ELBO: 34.99171, Val -ELBO: 35.22189:  54%|█████▍    | 162/300 [55:18<47:07, 20.49s/it]Train -ELBO: 34.98934, Val -ELBO: 35.22984:  54%|█████▍    | 163/300 [55:38<46:46, 20.49s/it]Train -ELBO: 34.99029, Val -ELBO: 35.23530:  55%|█████▍    | 164/300 [55:59<46:23, 20.47s/it]Train -ELBO: 34.98256, Val -ELBO: 35.23206:  55%|█████▌    | 165/300 [56:19<46:03, 20.47s/it]Train -ELBO: 34.98507, Val -ELBO: 35.23435:  55%|█████▌    | 166/300 [56:40<45:43, 20.48s/it]Train -ELBO: 34.99108, Val -ELBO: 35.24784:  56%|█████▌    | 167/300 [57:00<45:26, 20.50s/it]Train -ELBO: 34.98870, Val -ELBO: 35.25170:  56%|█████▌    | 168/300 [57:21<45:04, 20.49s/it]Train -ELBO: 34.99021, Val -ELBO: 35.24995:  56%|█████▋    | 169/300 [57:41<44:41, 20.47s/it]Train -ELBO: 34.98711, Val -ELBO: 35.23871:  57%|█████▋    | 170/300 [58:02<44:22, 20.48s/it]Train -ELBO: 34.98530, Val -ELBO: 35.23631:  57%|█████▋    | 171/300 [58:22<44:03, 20.49s/it]Train -ELBO: 34.98884, Val -ELBO: 35.25948:  57%|█████▋    | 172/300 [58:43<43:43, 20.50s/it]Train -ELBO: 34.99831, Val -ELBO: 35.25207:  58%|█████▊    | 173/300 [59:03<43:21, 20.48s/it]Train -ELBO: 34.98851, Val -ELBO: 35.24062:  58%|█████▊    | 174/300 [59:24<43:19, 20.63s/it]Train -ELBO: 34.97942, Val -ELBO: 35.23725:  58%|█████▊    | 175/300 [59:45<43:05, 20.68s/it]Train -ELBO: 34.98606, Val -ELBO: 35.23836:  59%|█████▊    | 176/300 [1:00:05<42:36, 20.62s/it]Train -ELBO: 34.98895, Val -ELBO: 35.23867:  59%|█████▉    | 177/300 [1:00:26<42:12, 20.59s/it]Train -ELBO: 34.98769, Val -ELBO: 35.23875:  59%|█████▉    | 178/300 [1:00:46<41:48, 20.56s/it]Train -ELBO: 34.98501, Val -ELBO: 35.25055:  60%|█████▉    | 179/300 [1:01:07<41:25, 20.54s/it]Train -ELBO: 34.98405, Val -ELBO: 35.23646:  60%|██████    | 180/300 [1:01:27<41:01, 20.51s/it]Train -ELBO: 34.98654, Val -ELBO: 35.25707:  60%|██████    | 181/300 [1:01:48<40:42, 20.53s/it]Train -ELBO: 34.98426, Val -ELBO: 35.22868:  61%|██████    | 182/300 [1:02:08<40:20, 20.51s/it]Train -ELBO: 34.97937, Val -ELBO: 35.24509:  61%|██████    | 183/300 [1:02:29<39:58, 20.50s/it]Train -ELBO: 34.98404, Val -ELBO: 35.24280:  61%|██████▏   | 184/300 [1:02:49<39:36, 20.49s/it]Train -ELBO: 34.98795, Val -ELBO: 35.22723:  62%|██████▏   | 185/300 [1:03:10<39:15, 20.48s/it]Train -ELBO: 34.97717, Val -ELBO: 35.24610:  62%|██████▏   | 186/300 [1:03:30<38:55, 20.49s/it]Train -ELBO: 34.98404, Val -ELBO: 35.25148:  62%|██████▏   | 187/300 [1:03:51<38:33, 20.48s/it]Train -ELBO: 34.98766, Val -ELBO: 35.25615:  63%|██████▎   | 188/300 [1:04:11<38:13, 20.48s/it]Train -ELBO: 34.98383, Val -ELBO: 35.25313:  63%|██████▎   | 189/300 [1:04:32<37:53, 20.48s/it]Train -ELBO: 34.98647, Val -ELBO: 35.24844:  63%|██████▎   | 190/300 [1:04:52<37:33, 20.48s/it]Train -ELBO: 34.97984, Val -ELBO: 35.24747:  64%|██████▎   | 191/300 [1:05:13<37:13, 20.49s/it]Train -ELBO: 34.97461, Val -ELBO: 35.23919:  64%|██████▍   | 192/300 [1:05:33<36:52, 20.49s/it]Train -ELBO: 34.97860, Val -ELBO: 35.24582:  64%|██████▍   | 193/300 [1:05:54<36:32, 20.49s/it]Train -ELBO: 34.97982, Val -ELBO: 35.26153:  65%|██████▍   | 194/300 [1:06:14<36:11, 20.49s/it]Train -ELBO: 34.97719, Val -ELBO: 35.22296:  65%|██████▌   | 195/300 [1:06:35<35:51, 20.49s/it]Train -ELBO: 34.98137, Val -ELBO: 35.24211:  65%|██████▌   | 196/300 [1:06:55<35:29, 20.48s/it]Train -ELBO: 34.98386, Val -ELBO: 35.24557:  66%|██████▌   | 197/300 [1:07:16<35:09, 20.48s/it]Train -ELBO: 34.97851, Val -ELBO: 35.24907:  66%|██████▌   | 198/300 [1:07:36<34:47, 20.47s/it]Train -ELBO: 34.97661, Val -ELBO: 35.24169:  66%|██████▋   | 199/300 [1:07:57<34:27, 20.47s/it]Train -ELBO: 34.97883, Val -ELBO: 35.25401:  67%|██████▋   | 200/300 [1:08:17<34:08, 20.49s/it]Train -ELBO: 34.97871, Val -ELBO: 35.23707:  67%|██████▋   | 201/300 [1:08:38<33:50, 20.51s/it]Train -ELBO: 34.97641, Val -ELBO: 35.25258:  67%|██████▋   | 202/300 [1:08:58<33:29, 20.51s/it]Train -ELBO: 34.97901, Val -ELBO: 35.23935:  68%|██████▊   | 203/300 [1:09:19<33:07, 20.49s/it]Train -ELBO: 34.97351, Val -ELBO: 35.21874:  68%|██████▊   | 204/300 [1:09:39<32:49, 20.51s/it]Train -ELBO: 34.96945, Val -ELBO: 35.25078:  68%|██████▊   | 205/300 [1:10:00<32:29, 20.52s/it]Train -ELBO: 34.97376, Val -ELBO: 35.24333:  69%|██████▊   | 206/300 [1:10:20<32:08, 20.52s/it]Train -ELBO: 34.98082, Val -ELBO: 35.24128:  69%|██████▉   | 207/300 [1:10:41<31:46, 20.49s/it]Train -ELBO: 34.97153, Val -ELBO: 35.27868:  69%|██████▉   | 208/300 [1:11:01<31:26, 20.50s/it]Train -ELBO: 34.97798, Val -ELBO: 35.23745:  70%|██████▉   | 209/300 [1:11:22<31:04, 20.49s/it]Train -ELBO: 34.97091, Val -ELBO: 35.24858:  70%|███████   | 210/300 [1:11:42<30:43, 20.49s/it]Train -ELBO: 34.96362, Val -ELBO: 35.24706:  70%|███████   | 211/300 [1:12:03<30:24, 20.51s/it]Train -ELBO: 34.97877, Val -ELBO: 35.26279:  71%|███████   | 212/300 [1:12:23<30:04, 20.50s/it]Train -ELBO: 34.97681, Val -ELBO: 35.25493:  71%|███████   | 213/300 [1:12:44<29:43, 20.50s/it]Train -ELBO: 34.98366, Val -ELBO: 35.24673:  71%|███████▏  | 214/300 [1:13:04<29:21, 20.48s/it]Train -ELBO: 34.97308, Val -ELBO: 35.24286:  72%|███████▏  | 215/300 [1:13:25<29:01, 20.48s/it]Train -ELBO: 34.97345, Val -ELBO: 35.26306:  72%|███████▏  | 216/300 [1:13:45<28:40, 20.49s/it]Train -ELBO: 34.96992, Val -ELBO: 35.25928:  72%|███████▏  | 217/300 [1:14:06<28:20, 20.49s/it]Train -ELBO: 34.96878, Val -ELBO: 35.23028:  73%|███████▎  | 218/300 [1:14:26<28:00, 20.49s/it]Train -ELBO: 34.97619, Val -ELBO: 35.24807:  73%|███████▎  | 219/300 [1:14:47<27:38, 20.47s/it]Train -ELBO: 34.97148, Val -ELBO: 35.26203:  73%|███████▎  | 220/300 [1:15:07<27:18, 20.49s/it]Train -ELBO: 34.96808, Val -ELBO: 35.25849:  74%|███████▎  | 221/300 [1:15:28<26:58, 20.48s/it]Train -ELBO: 34.96932, Val -ELBO: 35.24043:  74%|███████▍  | 222/300 [1:15:48<26:38, 20.49s/it]Train -ELBO: 34.96916, Val -ELBO: 35.26076:  74%|███████▍  | 223/300 [1:16:09<26:17, 20.49s/it]Train -ELBO: 34.96851, Val -ELBO: 35.24732:  75%|███████▍  | 224/300 [1:16:29<25:57, 20.50s/it]Train -ELBO: 34.97172, Val -ELBO: 35.25610:  75%|███████▌  | 225/300 [1:16:50<25:36, 20.49s/it]Train -ELBO: 34.95901, Val -ELBO: 35.24294:  75%|███████▌  | 226/300 [1:17:10<25:17, 20.51s/it]Train -ELBO: 34.96550, Val -ELBO: 35.25230:  76%|███████▌  | 227/300 [1:17:31<24:57, 20.51s/it]Train -ELBO: 34.96243, Val -ELBO: 35.23465:  76%|███████▌  | 228/300 [1:17:51<24:36, 20.51s/it]Train -ELBO: 34.96751, Val -ELBO: 35.21986:  76%|███████▋  | 229/300 [1:18:12<24:15, 20.51s/it]Train -ELBO: 34.96695, Val -ELBO: 35.25696:  77%|███████▋  | 230/300 [1:18:32<23:54, 20.50s/it]Train -ELBO: 34.96617, Val -ELBO: 35.25285:  77%|███████▋  | 231/300 [1:18:53<23:35, 20.52s/it]Train -ELBO: 34.96874, Val -ELBO: 35.27118:  77%|███████▋  | 232/300 [1:19:13<23:14, 20.51s/it]Train -ELBO: 34.96737, Val -ELBO: 35.23531:  78%|███████▊  | 233/300 [1:19:34<22:53, 20.50s/it]Train -ELBO: 34.97160, Val -ELBO: 35.25386:  78%|███████▊  | 234/300 [1:19:54<22:33, 20.50s/it]Train -ELBO: 34.96533, Val -ELBO: 35.23389:  78%|███████▊  | 235/300 [1:20:15<22:12, 20.50s/it]Train -ELBO: 34.96070, Val -ELBO: 35.25259:  79%|███████▊  | 236/300 [1:20:35<21:51, 20.50s/it]Train -ELBO: 34.96383, Val -ELBO: 35.24094:  79%|███████▉  | 237/300 [1:20:56<21:30, 20.48s/it]Train -ELBO: 34.96589, Val -ELBO: 35.25245:  79%|███████▉  | 238/300 [1:21:16<21:09, 20.48s/it]Train -ELBO: 34.96342, Val -ELBO: 35.23790:  80%|███████▉  | 239/300 [1:21:37<20:49, 20.49s/it]Train -ELBO: 34.96283, Val -ELBO: 35.26938:  80%|████████  | 240/300 [1:21:57<20:29, 20.49s/it]Train -ELBO: 34.96458, Val -ELBO: 35.24383:  80%|████████  | 241/300 [1:22:18<20:09, 20.49s/it]Train -ELBO: 34.96576, Val -ELBO: 35.24274:  81%|████████  | 242/300 [1:22:38<19:49, 20.50s/it]Train -ELBO: 34.96341, Val -ELBO: 35.27247:  81%|████████  | 243/300 [1:22:59<19:27, 20.49s/it]Train -ELBO: 34.96452, Val -ELBO: 35.25028:  81%|████████▏ | 244/300 [1:23:19<19:07, 20.49s/it]Train -ELBO: 34.96594, Val -ELBO: 35.26975:  82%|████████▏ | 245/300 [1:23:40<18:47, 20.50s/it]Train -ELBO: 34.96552, Val -ELBO: 35.24446:  82%|████████▏ | 246/300 [1:24:00<18:26, 20.49s/it]Epoch   247: reducing learning rate of group 0 to 1.0000e-04.
Train -ELBO: 34.96521, Val -ELBO: 35.25423:  82%|████████▏ | 247/300 [1:24:21<18:06, 20.51s/it]Train -ELBO: 34.90862, Val -ELBO: 35.20887:  83%|████████▎ | 248/300 [1:24:41<17:45, 20.49s/it]Train -ELBO: 34.89255, Val -ELBO: 35.20280:  83%|████████▎ | 249/300 [1:25:01<17:25, 20.49s/it]Train -ELBO: 34.89151, Val -ELBO: 35.20448:  83%|████████▎ | 250/300 [1:25:22<17:04, 20.49s/it]Train -ELBO: 34.89137, Val -ELBO: 35.20166:  84%|████████▎ | 251/300 [1:25:43<16:44, 20.51s/it]Train -ELBO: 34.89077, Val -ELBO: 35.19884:  84%|████████▍ | 252/300 [1:26:03<16:23, 20.50s/it]Train -ELBO: 34.88563, Val -ELBO: 35.19345:  84%|████████▍ | 253/300 [1:26:23<16:03, 20.50s/it]Train -ELBO: 34.88480, Val -ELBO: 35.20354:  85%|████████▍ | 254/300 [1:26:44<15:42, 20.49s/it]Train -ELBO: 34.88598, Val -ELBO: 35.20477:  85%|████████▌ | 255/300 [1:27:04<15:21, 20.48s/it]Train -ELBO: 34.88403, Val -ELBO: 35.19930:  85%|████████▌ | 256/300 [1:27:25<15:01, 20.48s/it]Train -ELBO: 34.88532, Val -ELBO: 35.20144:  86%|████████▌ | 257/300 [1:27:45<14:40, 20.48s/it]Train -ELBO: 34.88864, Val -ELBO: 35.20424:  86%|████████▌ | 258/300 [1:28:06<14:20, 20.49s/it]Train -ELBO: 34.88303, Val -ELBO: 35.19656:  86%|████████▋ | 259/300 [1:28:26<13:59, 20.48s/it]Train -ELBO: 34.88790, Val -ELBO: 35.20067:  87%|████████▋ | 260/300 [1:28:47<13:39, 20.49s/it]Train -ELBO: 34.88454, Val -ELBO: 35.19688:  87%|████████▋ | 261/300 [1:29:07<13:19, 20.51s/it]Train -ELBO: 34.88241, Val -ELBO: 35.20363:  87%|████████▋ | 262/300 [1:29:28<12:59, 20.51s/it]Train -ELBO: 34.88280, Val -ELBO: 35.20304:  88%|████████▊ | 263/300 [1:29:48<12:38, 20.51s/it]Train -ELBO: 34.88276, Val -ELBO: 35.19745:  88%|████████▊ | 264/300 [1:30:09<12:17, 20.50s/it]Train -ELBO: 34.88489, Val -ELBO: 35.20129:  88%|████████▊ | 265/300 [1:30:29<11:57, 20.50s/it]Train -ELBO: 34.88718, Val -ELBO: 35.20032:  89%|████████▊ | 266/300 [1:30:50<11:36, 20.48s/it]Train -ELBO: 34.88650, Val -ELBO: 35.20122:  89%|████████▉ | 267/300 [1:31:10<11:16, 20.49s/it]Train -ELBO: 34.88501, Val -ELBO: 35.20450:  89%|████████▉ | 268/300 [1:31:31<10:55, 20.50s/it]Train -ELBO: 34.88133, Val -ELBO: 35.20055:  90%|████████▉ | 269/300 [1:31:51<10:35, 20.50s/it]Train -ELBO: 34.88378, Val -ELBO: 35.20601:  90%|█████████ | 270/300 [1:32:12<10:14, 20.49s/it]Train -ELBO: 34.88488, Val -ELBO: 35.20462:  90%|█████████ | 271/300 [1:32:32<09:54, 20.51s/it]Train -ELBO: 34.88471, Val -ELBO: 35.20149:  91%|█████████ | 272/300 [1:32:53<09:34, 20.50s/it]Train -ELBO: 34.88171, Val -ELBO: 35.20273:  91%|█████████ | 273/300 [1:33:13<09:13, 20.50s/it]Train -ELBO: 34.88510, Val -ELBO: 35.19830:  91%|█████████▏| 274/300 [1:33:34<08:52, 20.50s/it]Train -ELBO: 34.88546, Val -ELBO: 35.19828:  92%|█████████▏| 275/300 [1:33:54<08:32, 20.49s/it]Train -ELBO: 34.88492, Val -ELBO: 35.20287:  92%|█████████▏| 276/300 [1:34:15<08:11, 20.49s/it]Train -ELBO: 34.88584, Val -ELBO: 35.19815:  92%|█████████▏| 277/300 [1:34:35<07:50, 20.47s/it]Train -ELBO: 34.88286, Val -ELBO: 35.19769:  93%|█████████▎| 278/300 [1:34:56<07:30, 20.48s/it]Train -ELBO: 34.88359, Val -ELBO: 35.20550:  93%|█████████▎| 279/300 [1:35:16<07:10, 20.48s/it]Train -ELBO: 34.87908, Val -ELBO: 35.19871:  93%|█████████▎| 280/300 [1:35:37<06:49, 20.49s/it]Train -ELBO: 34.88087, Val -ELBO: 35.20184:  94%|█████████▎| 281/300 [1:35:57<06:29, 20.51s/it]Train -ELBO: 34.88085, Val -ELBO: 35.20527:  94%|█████████▍| 282/300 [1:36:18<06:08, 20.49s/it]Train -ELBO: 34.88252, Val -ELBO: 35.20285:  94%|█████████▍| 283/300 [1:36:38<05:48, 20.49s/it]Train -ELBO: 34.88249, Val -ELBO: 35.19836:  95%|█████████▍| 284/300 [1:36:59<05:27, 20.50s/it]Train -ELBO: 34.88159, Val -ELBO: 35.20006:  95%|█████████▌| 285/300 [1:37:19<05:07, 20.50s/it]Train -ELBO: 34.88515, Val -ELBO: 35.20267:  95%|█████████▌| 286/300 [1:37:40<04:46, 20.48s/it]Train -ELBO: 34.88253, Val -ELBO: 35.19711:  96%|█████████▌| 287/300 [1:38:00<04:26, 20.49s/it]Train -ELBO: 34.88352, Val -ELBO: 35.20023:  96%|█████████▌| 288/300 [1:38:21<04:05, 20.49s/it]Train -ELBO: 34.88585, Val -ELBO: 35.20200:  96%|█████████▋| 289/300 [1:38:41<03:45, 20.48s/it]Epoch   290: reducing learning rate of group 0 to 1.0000e-05.
Train -ELBO: 34.88161, Val -ELBO: 35.20229:  97%|█████████▋| 290/300 [1:39:02<03:24, 20.50s/it]Train -ELBO: 34.87674, Val -ELBO: 35.20279:  97%|█████████▋| 291/300 [1:39:22<03:04, 20.51s/it]Train -ELBO: 34.87373, Val -ELBO: 35.20372:  97%|█████████▋| 292/300 [1:39:43<02:44, 20.51s/it]Train -ELBO: 34.87178, Val -ELBO: 35.20066:  98%|█████████▊| 293/300 [1:40:03<02:23, 20.49s/it]Train -ELBO: 34.87459, Val -ELBO: 35.19355:  98%|█████████▊| 294/300 [1:40:24<02:02, 20.49s/it]Train -ELBO: 34.87052, Val -ELBO: 35.19761:  98%|█████████▊| 295/300 [1:40:44<01:42, 20.49s/it]Train -ELBO: 34.87264, Val -ELBO: 35.19939:  99%|█████████▊| 296/300 [1:41:05<01:21, 20.49s/it]Train -ELBO: 34.87565, Val -ELBO: 35.20020:  99%|█████████▉| 297/300 [1:41:25<01:01, 20.48s/it]Train -ELBO: 34.87474, Val -ELBO: 35.19541:  99%|█████████▉| 298/300 [1:41:46<00:40, 20.49s/it]Train -ELBO: 34.87614, Val -ELBO: 35.19788: 100%|█████████▉| 299/300 [1:42:06<00:20, 20.49s/it]Train -ELBO: 34.87436, Val -ELBO: 35.20332: 100%|██████████| 300/300 [1:42:27<00:00, 20.48s/it]Train -ELBO: 34.87436, Val -ELBO: 35.20332: 100%|██████████| 300/300 [1:42:27<00:00, 20.49s/it]
INFO - siren_vae - Completed after 1:42:29
