INFO - residual_nf - Running command 'run'
INFO - residual_nf - Started run with ID "4"
[CONFIG] {'bn': 'tree', 'structure': 'faithful', 'coeff': 0.99, 'n_power_iterations': 5, 'num_blocks': 15, 'hidden_dims': [215], 'activation': 'lipmish', 'grad_in_forward': True, 'batch_size': 100, 'num_train_samples': 10000, 'num_val_samples': 5000, 'num_epochs': 300, 'num_train_batches': 100, 'num_val_batches': 50, 'lr': 0.01, 'seed': 3, 'patience': 20, 'double': True, 'run': 1, 'checkpoint_n': 10, 'load_from_checkpoint': False, 'ex_name': 'residual_nf_density_estimation', 'sub_folder': 'faithful_99_lipmish_15_[215]', 'path': './experiment_logs/residual_nf_density_estimation/tree/faithful_99_lipmish_15_[215]', 'bt_config': {'depth': 5, 'seed': 4}}
[DEVICE] cpu
[ENCODED STRUCTURE] Using faithful BN structure.
  0%|          | 0/300 [00:00<?, ?it/s]Train NLL: 9.999, Val NLL: 9.860:   0%|          | 1/300 [00:07<38:03,  7.64s/it]Train NLL: 9.792, Val NLL: 9.620:   1%|          | 2/300 [00:15<38:30,  7.75s/it]Train NLL: 9.312, Val NLL: 9.037:   1%|          | 3/300 [00:23<39:08,  7.91s/it]Train NLL: 8.875, Val NLL: 8.768:   1%|▏         | 4/300 [00:31<39:25,  7.99s/it]Train NLL: 8.786, Val NLL: 8.786:   2%|▏         | 5/300 [00:39<39:36,  8.06s/it]Train NLL: 8.755, Val NLL: 8.765:   2%|▏         | 6/300 [00:48<39:45,  8.11s/it]Train NLL: 8.730, Val NLL: 8.752:   2%|▏         | 7/300 [00:56<39:54,  8.17s/it]Train NLL: 8.712, Val NLL: 8.706:   3%|▎         | 8/300 [01:04<40:03,  8.23s/it]Train NLL: 8.693, Val NLL: 8.775:   3%|▎         | 9/300 [01:13<40:13,  8.29s/it]Train NLL: 8.709, Val NLL: 8.753:   3%|▎         | 10/300 [01:21<40:21,  8.35s/it]Train NLL: 8.689, Val NLL: 8.695:   4%|▎         | 11/300 [01:30<40:21,  8.38s/it]Train NLL: 8.692, Val NLL: 8.721:   4%|▍         | 12/300 [01:38<40:22,  8.41s/it]Train NLL: 8.680, Val NLL: 8.667:   4%|▍         | 13/300 [01:47<40:24,  8.45s/it]Train NLL: 8.675, Val NLL: 8.698:   5%|▍         | 14/300 [01:55<40:24,  8.48s/it]Train NLL: 8.677, Val NLL: 8.663:   5%|▌         | 15/300 [02:04<40:25,  8.51s/it]Train NLL: 8.668, Val NLL: 8.746:   5%|▌         | 16/300 [02:12<40:20,  8.52s/it]Train NLL: 8.670, Val NLL: 8.697:   6%|▌         | 17/300 [02:21<40:13,  8.53s/it]Train NLL: 8.663, Val NLL: 8.719:   6%|▌         | 18/300 [02:29<40:06,  8.53s/it]Train NLL: 8.655, Val NLL: 8.715:   6%|▋         | 19/300 [02:38<40:00,  8.54s/it]Train NLL: 8.664, Val NLL: 8.670:   7%|▋         | 20/300 [02:46<39:50,  8.54s/it]Train NLL: 8.660, Val NLL: 8.671:   7%|▋         | 21/300 [02:55<39:42,  8.54s/it]Train NLL: 8.660, Val NLL: 8.695:   7%|▋         | 22/300 [03:04<39:32,  8.54s/it]Train NLL: 8.653, Val NLL: 8.717:   8%|▊         | 23/300 [03:12<39:21,  8.52s/it]Train NLL: 8.675, Val NLL: 8.695:   8%|▊         | 24/300 [03:21<39:12,  8.53s/it]Train NLL: 8.654, Val NLL: 8.712:   8%|▊         | 25/300 [03:29<39:02,  8.52s/it]Train NLL: 8.656, Val NLL: 8.720:   9%|▊         | 26/300 [03:38<38:53,  8.52s/it]Train NLL: 8.660, Val NLL: 8.709:   9%|▉         | 27/300 [03:46<38:42,  8.51s/it]Train NLL: 8.656, Val NLL: 8.686:   9%|▉         | 28/300 [03:55<38:34,  8.51s/it]Train NLL: 8.653, Val NLL: 8.673:  10%|▉         | 29/300 [04:03<38:28,  8.52s/it]Train NLL: 8.640, Val NLL: 8.682:  10%|█         | 30/300 [04:12<38:23,  8.53s/it]Train NLL: 8.653, Val NLL: 8.664:  10%|█         | 31/300 [04:20<38:13,  8.53s/it]Train NLL: 8.646, Val NLL: 8.746:  11%|█         | 32/300 [04:29<38:06,  8.53s/it]Train NLL: 8.650, Val NLL: 8.695:  11%|█         | 33/300 [04:37<37:56,  8.53s/it]Train NLL: 8.645, Val NLL: 8.671:  11%|█▏        | 34/300 [04:46<37:49,  8.53s/it]Train NLL: 8.653, Val NLL: 8.675:  12%|█▏        | 35/300 [04:54<37:45,  8.55s/it]Train NLL: 8.649, Val NLL: 8.686:  12%|█▏        | 36/300 [05:03<37:42,  8.57s/it]Train NLL: 8.654, Val NLL: 8.699:  12%|█▏        | 37/300 [05:12<37:39,  8.59s/it]Train NLL: 8.631, Val NLL: 8.679:  13%|█▎        | 38/300 [05:20<37:32,  8.60s/it]Train NLL: 8.633, Val NLL: 8.683:  13%|█▎        | 39/300 [05:29<37:27,  8.61s/it]Train NLL: 8.634, Val NLL: 8.682:  13%|█▎        | 40/300 [05:38<37:23,  8.63s/it]Train NLL: 8.645, Val NLL: 8.674:  14%|█▎        | 41/300 [05:46<37:19,  8.65s/it]Train NLL: 8.637, Val NLL: 8.714:  14%|█▍        | 42/300 [05:55<37:11,  8.65s/it]Train NLL: 8.643, Val NLL: 8.696:  14%|█▍        | 43/300 [06:04<37:07,  8.67s/it]Train NLL: 8.636, Val NLL: 8.668:  15%|█▍        | 44/300 [06:12<37:01,  8.68s/it]Train NLL: 8.640, Val NLL: 8.733:  15%|█▌        | 45/300 [06:21<36:57,  8.69s/it]Train NLL: 8.634, Val NLL: 8.647:  15%|█▌        | 46/300 [06:30<36:51,  8.71s/it]Train NLL: 8.629, Val NLL: 8.646:  16%|█▌        | 47/300 [06:39<36:45,  8.72s/it]Train NLL: 8.627, Val NLL: 8.671:  16%|█▌        | 48/300 [06:47<36:40,  8.73s/it]Train NLL: 8.634, Val NLL: 8.684:  16%|█▋        | 49/300 [06:56<36:35,  8.75s/it]Train NLL: 8.633, Val NLL: 8.666:  17%|█▋        | 50/300 [07:05<36:34,  8.78s/it]Train NLL: 8.642, Val NLL: 8.666:  17%|█▋        | 51/300 [07:14<36:25,  8.78s/it]Train NLL: 8.638, Val NLL: 8.664:  17%|█▋        | 52/300 [07:23<36:19,  8.79s/it]Train NLL: 8.624, Val NLL: 8.676:  18%|█▊        | 53/300 [07:31<36:08,  8.78s/it]Train NLL: 8.631, Val NLL: 8.659:  18%|█▊        | 54/300 [07:40<36:00,  8.78s/it]Train NLL: 8.626, Val NLL: 8.704:  18%|█▊        | 55/300 [07:49<35:53,  8.79s/it]Train NLL: 8.628, Val NLL: 8.725:  19%|█▊        | 56/300 [07:58<35:46,  8.80s/it]Train NLL: 8.631, Val NLL: 8.661:  19%|█▉        | 57/300 [08:07<35:41,  8.81s/it]Train NLL: 8.633, Val NLL: 8.685:  19%|█▉        | 58/300 [08:15<35:33,  8.82s/it]Train NLL: 8.625, Val NLL: 8.697:  20%|█▉        | 59/300 [08:24<35:26,  8.82s/it]Train NLL: 8.622, Val NLL: 8.674:  20%|██        | 60/300 [08:33<35:18,  8.83s/it]Train NLL: 8.624, Val NLL: 8.663:  20%|██        | 61/300 [08:42<35:10,  8.83s/it]Train NLL: 8.624, Val NLL: 8.676:  21%|██        | 62/300 [08:51<35:00,  8.83s/it]Train NLL: 8.619, Val NLL: 8.661:  21%|██        | 63/300 [09:00<34:53,  8.83s/it]Train NLL: 8.628, Val NLL: 8.664:  21%|██▏       | 64/300 [09:08<34:51,  8.86s/it]Train NLL: 8.627, Val NLL: 8.677:  22%|██▏       | 65/300 [09:17<34:43,  8.87s/it]Train NLL: 8.627, Val NLL: 8.693:  22%|██▏       | 66/300 [09:26<34:37,  8.88s/it]Train NLL: 8.619, Val NLL: 8.674:  22%|██▏       | 67/300 [09:35<34:28,  8.88s/it]Train NLL: 8.629, Val NLL: 8.679:  23%|██▎       | 68/300 [09:44<34:23,  8.89s/it]Train NLL: 8.635, Val NLL: 8.698:  23%|██▎       | 69/300 [09:53<34:16,  8.90s/it]Train NLL: 8.619, Val NLL: 8.662:  23%|██▎       | 70/300 [10:02<34:10,  8.91s/it]Train NLL: 8.614, Val NLL: 8.693:  24%|██▎       | 71/300 [10:11<34:01,  8.91s/it]Train NLL: 8.622, Val NLL: 8.660:  24%|██▍       | 72/300 [10:20<33:53,  8.92s/it]Train NLL: 8.617, Val NLL: 8.678:  24%|██▍       | 73/300 [10:29<33:43,  8.91s/it]Train NLL: 8.628, Val NLL: 8.695:  25%|██▍       | 74/300 [10:38<33:34,  8.92s/it]Train NLL: 8.623, Val NLL: 8.665:  25%|██▌       | 75/300 [10:46<33:25,  8.91s/it]Train NLL: 8.607, Val NLL: 8.655:  25%|██▌       | 76/300 [10:55<33:17,  8.92s/it]Train NLL: 8.618, Val NLL: 8.707:  26%|██▌       | 77/300 [11:04<33:09,  8.92s/it]Train NLL: 8.624, Val NLL: 8.686:  26%|██▌       | 78/300 [11:13<33:03,  8.93s/it]Train NLL: 8.616, Val NLL: 8.671:  26%|██▋       | 79/300 [11:22<32:57,  8.95s/it]Train NLL: 8.621, Val NLL: 8.682:  27%|██▋       | 80/300 [11:31<32:52,  8.97s/it]Train NLL: 8.621, Val NLL: 8.672:  27%|██▋       | 81/300 [11:40<32:45,  8.97s/it]Train NLL: 8.618, Val NLL: 8.687:  27%|██▋       | 82/300 [11:49<32:38,  8.99s/it]Train NLL: 8.629, Val NLL: 8.681:  28%|██▊       | 83/300 [11:58<32:28,  8.98s/it]Train NLL: 8.627, Val NLL: 8.659:  28%|██▊       | 84/300 [12:07<32:19,  8.98s/it]Train NLL: 8.604, Val NLL: 8.660:  28%|██▊       | 85/300 [12:16<32:10,  8.98s/it]Train NLL: 8.609, Val NLL: 8.664:  29%|██▊       | 86/300 [12:25<32:02,  8.98s/it]Train NLL: 8.624, Val NLL: 8.695:  29%|██▉       | 87/300 [12:34<31:53,  8.98s/it]Train NLL: 8.611, Val NLL: 8.666:  29%|██▉       | 88/300 [12:43<31:42,  8.98s/it]Train NLL: 8.613, Val NLL: 8.664:  30%|██▉       | 89/300 [12:52<31:31,  8.97s/it]Train NLL: 8.605, Val NLL: 8.688:  30%|███       | 90/300 [13:01<31:23,  8.97s/it]Train NLL: 8.615, Val NLL: 8.666:  30%|███       | 91/300 [13:10<31:13,  8.96s/it]Train NLL: 8.603, Val NLL: 8.663:  31%|███       | 92/300 [13:19<31:04,  8.97s/it]Train NLL: 8.609, Val NLL: 8.682:  31%|███       | 93/300 [13:28<30:58,  8.98s/it]Train NLL: 8.618, Val NLL: 8.690:  31%|███▏      | 94/300 [13:37<30:50,  8.99s/it]Train NLL: 8.611, Val NLL: 8.686:  32%|███▏      | 95/300 [13:46<30:43,  8.99s/it]Train NLL: 8.615, Val NLL: 8.691:  32%|███▏      | 96/300 [13:55<30:37,  9.01s/it]Train NLL: 8.618, Val NLL: 8.663:  32%|███▏      | 97/300 [14:04<30:29,  9.01s/it]Train NLL: 8.606, Val NLL: 8.667:  33%|███▎      | 98/300 [14:13<30:20,  9.01s/it]Train NLL: 8.615, Val NLL: 8.674:  33%|███▎      | 99/300 [14:22<30:15,  9.03s/it]Train NLL: 8.614, Val NLL: 8.694:  33%|███▎      | 100/300 [14:31<30:09,  9.05s/it]Train NLL: 8.607, Val NLL: 8.670:  34%|███▎      | 101/300 [14:40<29:59,  9.04s/it]Train NLL: 8.607, Val NLL: 8.674:  34%|███▍      | 102/300 [14:49<29:52,  9.05s/it]Train NLL: 8.611, Val NLL: 8.674:  34%|███▍      | 103/300 [14:58<29:43,  9.05s/it]Train NLL: 8.608, Val NLL: 8.685:  35%|███▍      | 104/300 [15:08<29:35,  9.06s/it]Train NLL: 8.619, Val NLL: 8.664:  35%|███▌      | 105/300 [15:17<29:27,  9.07s/it]Epoch   106: reducing learning rate of group 0 to 1.0000e-03.
Train NLL: 8.613, Val NLL: 8.656:  35%|███▌      | 106/300 [15:26<29:17,  9.06s/it]Train NLL: 8.564, Val NLL: 8.631:  36%|███▌      | 107/300 [15:35<29:08,  9.06s/it]Train NLL: 8.557, Val NLL: 8.634:  36%|███▌      | 108/300 [15:44<28:58,  9.06s/it]Train NLL: 8.557, Val NLL: 8.629:  36%|███▋      | 109/300 [15:53<28:50,  9.06s/it]Train NLL: 8.555, Val NLL: 8.632:  37%|███▋      | 110/300 [16:02<28:42,  9.06s/it]Train NLL: 8.555, Val NLL: 8.629:  37%|███▋      | 111/300 [16:11<28:33,  9.06s/it]Train NLL: 8.555, Val NLL: 8.634:  37%|███▋      | 112/300 [16:20<28:22,  9.06s/it]Train NLL: 8.555, Val NLL: 8.632:  38%|███▊      | 113/300 [16:29<28:13,  9.06s/it]Train NLL: 8.555, Val NLL: 8.633:  38%|███▊      | 114/300 [16:38<28:03,  9.05s/it]Train NLL: 8.556, Val NLL: 8.631:  38%|███▊      | 115/300 [16:47<27:57,  9.07s/it]Train NLL: 8.555, Val NLL: 8.631:  39%|███▊      | 116/300 [16:56<27:50,  9.08s/it]Train NLL: 8.554, Val NLL: 8.631:  39%|███▉      | 117/300 [17:05<27:42,  9.09s/it]Train NLL: 8.554, Val NLL: 8.634:  39%|███▉      | 118/300 [17:14<27:34,  9.09s/it]Train NLL: 8.554, Val NLL: 8.631:  40%|███▉      | 119/300 [17:24<27:26,  9.10s/it]Train NLL: 8.553, Val NLL: 8.630:  40%|████      | 120/300 [17:33<27:16,  9.09s/it]Train NLL: 8.553, Val NLL: 8.634:  40%|████      | 121/300 [17:42<27:06,  9.09s/it]Train NLL: 8.555, Val NLL: 8.636:  41%|████      | 122/300 [17:51<26:57,  9.09s/it]Train NLL: 8.554, Val NLL: 8.628:  41%|████      | 123/300 [18:00<26:50,  9.10s/it]Train NLL: 8.553, Val NLL: 8.633:  41%|████▏     | 124/300 [18:09<26:44,  9.11s/it]Train NLL: 8.555, Val NLL: 8.633:  42%|████▏     | 125/300 [18:18<26:36,  9.12s/it]Train NLL: 8.554, Val NLL: 8.632:  42%|████▏     | 126/300 [18:27<26:25,  9.11s/it]Train NLL: 8.552, Val NLL: 8.634:  42%|████▏     | 127/300 [18:36<26:16,  9.11s/it]Train NLL: 8.553, Val NLL: 8.630:  43%|████▎     | 128/300 [18:46<26:04,  9.10s/it]Train NLL: 8.555, Val NLL: 8.632:  43%|████▎     | 129/300 [18:55<25:55,  9.10s/it]Train NLL: 8.554, Val NLL: 8.632:  43%|████▎     | 130/300 [19:04<25:47,  9.10s/it]Train NLL: 8.551, Val NLL: 8.636:  44%|████▎     | 131/300 [19:13<25:39,  9.11s/it]Train NLL: 8.553, Val NLL: 8.632:  44%|████▍     | 132/300 [19:22<25:31,  9.12s/it]Train NLL: 8.554, Val NLL: 8.630:  44%|████▍     | 133/300 [19:31<25:23,  9.12s/it]Train NLL: 8.554, Val NLL: 8.633:  45%|████▍     | 134/300 [19:40<25:13,  9.12s/it]Train NLL: 8.553, Val NLL: 8.631:  45%|████▌     | 135/300 [19:49<25:04,  9.12s/it]Train NLL: 8.552, Val NLL: 8.634:  45%|████▌     | 136/300 [19:58<24:55,  9.12s/it]Train NLL: 8.553, Val NLL: 8.631:  46%|████▌     | 137/300 [20:08<24:45,  9.12s/it]Train NLL: 8.553, Val NLL: 8.634:  46%|████▌     | 138/300 [20:17<24:35,  9.11s/it]Train NLL: 8.552, Val NLL: 8.633:  46%|████▋     | 139/300 [20:26<24:28,  9.12s/it]Train NLL: 8.554, Val NLL: 8.633:  47%|████▋     | 140/300 [20:35<24:20,  9.13s/it]Train NLL: 8.553, Val NLL: 8.633:  47%|████▋     | 141/300 [20:44<24:12,  9.14s/it]Train NLL: 8.553, Val NLL: 8.633:  47%|████▋     | 142/300 [20:53<24:04,  9.14s/it]Train NLL: 8.552, Val NLL: 8.633:  48%|████▊     | 143/300 [21:02<23:55,  9.14s/it]Train NLL: 8.552, Val NLL: 8.635:  48%|████▊     | 144/300 [21:12<23:45,  9.14s/it]Train NLL: 8.551, Val NLL: 8.633:  48%|████▊     | 145/300 [21:21<23:37,  9.15s/it]Train NLL: 8.551, Val NLL: 8.633:  49%|████▊     | 146/300 [21:30<23:26,  9.13s/it]Train NLL: 8.552, Val NLL: 8.634:  49%|████▉     | 147/300 [21:39<23:17,  9.13s/it]Train NLL: 8.552, Val NLL: 8.633:  49%|████▉     | 148/300 [21:48<23:06,  9.12s/it]Train NLL: 8.551, Val NLL: 8.632:  50%|████▉     | 149/300 [21:57<22:56,  9.12s/it]Train NLL: 8.552, Val NLL: 8.631:  50%|█████     | 150/300 [22:06<22:49,  9.13s/it]Train NLL: 8.551, Val NLL: 8.635:  50%|█████     | 151/300 [22:16<22:42,  9.15s/it]Epoch   152: reducing learning rate of group 0 to 1.0000e-04.
Train NLL: 8.552, Val NLL: 8.634:  51%|█████     | 152/300 [22:25<22:35,  9.16s/it]Train NLL: 8.545, Val NLL: 8.630:  51%|█████     | 153/300 [22:34<22:26,  9.16s/it]Train NLL: 8.544, Val NLL: 8.630:  51%|█████▏    | 154/300 [22:43<22:17,  9.16s/it]Train NLL: 8.544, Val NLL: 8.630:  52%|█████▏    | 155/300 [22:52<22:07,  9.15s/it]Train NLL: 8.544, Val NLL: 8.630:  52%|█████▏    | 156/300 [23:01<21:58,  9.16s/it]Train NLL: 8.544, Val NLL: 8.630:  52%|█████▏    | 157/300 [23:11<21:50,  9.17s/it]Train NLL: 8.544, Val NLL: 8.630:  53%|█████▎    | 158/300 [23:20<21:43,  9.18s/it]Train NLL: 8.544, Val NLL: 8.630:  53%|█████▎    | 159/300 [23:29<21:34,  9.18s/it]Train NLL: 8.544, Val NLL: 8.630:  53%|█████▎    | 160/300 [23:38<21:26,  9.19s/it]Train NLL: 8.544, Val NLL: 8.630:  54%|█████▎    | 161/300 [23:47<21:15,  9.18s/it]Train NLL: 8.544, Val NLL: 8.630:  54%|█████▍    | 162/300 [23:56<21:05,  9.17s/it]Train NLL: 8.544, Val NLL: 8.630:  54%|█████▍    | 163/300 [24:06<20:55,  9.16s/it]Train NLL: 8.544, Val NLL: 8.631:  55%|█████▍    | 164/300 [24:15<20:46,  9.17s/it]Train NLL: 8.544, Val NLL: 8.630:  55%|█████▌    | 165/300 [24:24<20:37,  9.17s/it]Train NLL: 8.543, Val NLL: 8.630:  55%|█████▌    | 166/300 [24:33<20:28,  9.17s/it]Train NLL: 8.544, Val NLL: 8.630:  56%|█████▌    | 167/300 [24:42<20:19,  9.17s/it]Train NLL: 8.543, Val NLL: 8.630:  56%|█████▌    | 168/300 [24:51<20:11,  9.18s/it]Train NLL: 8.543, Val NLL: 8.630:  56%|█████▋    | 169/300 [25:01<20:03,  9.19s/it]Train NLL: 8.544, Val NLL: 8.630:  57%|█████▋    | 170/300 [25:10<19:54,  9.19s/it]Train NLL: 8.543, Val NLL: 8.630:  57%|█████▋    | 171/300 [25:19<19:44,  9.18s/it]Train NLL: 8.544, Val NLL: 8.630:  57%|█████▋    | 172/300 [25:28<19:34,  9.17s/it]Train NLL: 8.543, Val NLL: 8.630:  58%|█████▊    | 173/300 [25:37<19:24,  9.17s/it]Train NLL: 8.543, Val NLL: 8.630:  58%|█████▊    | 174/300 [25:47<19:15,  9.17s/it]Epoch   175: reducing learning rate of group 0 to 1.0000e-05.
Train NLL: 8.543, Val NLL: 8.630:  58%|█████▊    | 175/300 [25:56<19:06,  9.17s/it]Train NLL: 8.543, Val NLL: 8.630:  59%|█████▊    | 176/300 [26:05<18:59,  9.19s/it]Train NLL: 8.543, Val NLL: 8.630:  59%|█████▉    | 177/300 [26:14<18:50,  9.19s/it]Train NLL: 8.543, Val NLL: 8.630:  59%|█████▉    | 178/300 [26:23<18:41,  9.19s/it]Train NLL: 8.543, Val NLL: 8.630:  60%|█████▉    | 179/300 [26:32<18:32,  9.19s/it]Train NLL: 8.543, Val NLL: 8.630:  60%|██████    | 180/300 [26:42<18:24,  9.20s/it]Train NLL: 8.543, Val NLL: 8.630:  60%|██████    | 181/300 [26:51<18:14,  9.20s/it]Train NLL: 8.543, Val NLL: 8.630:  61%|██████    | 182/300 [27:00<18:04,  9.19s/it]Train NLL: 8.542, Val NLL: 8.630:  61%|██████    | 183/300 [27:09<17:57,  9.21s/it]Train NLL: 8.542, Val NLL: 8.630:  61%|██████▏   | 184/300 [27:19<17:48,  9.21s/it]Train NLL: 8.542, Val NLL: 8.630:  62%|██████▏   | 185/300 [27:28<17:37,  9.20s/it]Train NLL: 8.542, Val NLL: 8.630:  62%|██████▏   | 186/300 [27:37<17:27,  9.19s/it]Train NLL: 8.542, Val NLL: 8.630:  62%|██████▏   | 187/300 [27:46<17:17,  9.18s/it]Train NLL: 8.542, Val NLL: 8.630:  63%|██████▎   | 188/300 [27:55<17:10,  9.20s/it]Train NLL: 8.542, Val NLL: 8.630:  63%|██████▎   | 189/300 [28:04<17:00,  9.19s/it]Train NLL: 8.542, Val NLL: 8.630:  63%|██████▎   | 190/300 [28:14<16:51,  9.20s/it]Train NLL: 8.542, Val NLL: 8.630:  64%|██████▎   | 191/300 [28:23<16:42,  9.19s/it]Train NLL: 8.542, Val NLL: 8.630:  64%|██████▍   | 192/300 [28:32<16:32,  9.19s/it]Train NLL: 8.542, Val NLL: 8.630:  64%|██████▍   | 193/300 [28:41<16:23,  9.20s/it]Train NLL: 8.542, Val NLL: 8.630:  65%|██████▍   | 194/300 [28:50<16:14,  9.20s/it]Train NLL: 8.542, Val NLL: 8.630:  65%|██████▌   | 195/300 [29:00<16:06,  9.21s/it]Train NLL: 8.542, Val NLL: 8.630:  65%|██████▌   | 196/300 [29:09<15:58,  9.21s/it]Epoch   197: reducing learning rate of group 0 to 1.0000e-06.
Train NLL: 8.542, Val NLL: 8.630:  66%|██████▌   | 197/300 [29:18<15:47,  9.20s/it]Train NLL: 8.542, Val NLL: 8.630:  66%|██████▌   | 198/300 [29:27<15:38,  9.20s/it]Train NLL: 8.542, Val NLL: 8.630:  66%|██████▋   | 199/300 [29:36<15:29,  9.20s/it]Train NLL: 8.542, Val NLL: 8.630:  67%|██████▋   | 200/300 [29:46<15:21,  9.21s/it]Train NLL: 8.542, Val NLL: 8.630:  67%|██████▋   | 201/300 [29:55<15:12,  9.22s/it]Train NLL: 8.542, Val NLL: 8.630:  67%|██████▋   | 202/300 [30:04<15:05,  9.24s/it]Train NLL: 8.542, Val NLL: 8.630:  68%|██████▊   | 203/300 [30:13<14:56,  9.24s/it]Train NLL: 8.542, Val NLL: 8.630:  68%|██████▊   | 204/300 [30:23<14:45,  9.23s/it]Train NLL: 8.542, Val NLL: 8.630:  68%|██████▊   | 205/300 [30:32<14:36,  9.23s/it]Train NLL: 8.542, Val NLL: 8.630:  69%|██████▊   | 206/300 [30:41<14:26,  9.22s/it]Train NLL: 8.542, Val NLL: 8.630:  69%|██████▉   | 207/300 [30:50<14:17,  9.22s/it]Train NLL: 8.542, Val NLL: 8.630:  69%|██████▉   | 208/300 [31:00<14:08,  9.22s/it]Train NLL: 8.542, Val NLL: 8.630:  70%|██████▉   | 209/300 [31:09<14:00,  9.24s/it]Train NLL: 8.542, Val NLL: 8.630:  70%|███████   | 210/300 [31:18<13:51,  9.23s/it]Train NLL: 8.542, Val NLL: 8.630:  70%|███████   | 211/300 [31:27<13:41,  9.23s/it]Train NLL: 8.542, Val NLL: 8.630:  71%|███████   | 212/300 [31:37<13:32,  9.23s/it]Train NLL: 8.542, Val NLL: 8.630:  71%|███████   | 213/300 [31:46<13:23,  9.23s/it]Train NLL: 8.542, Val NLL: 8.630:  71%|███████▏  | 214/300 [31:55<13:13,  9.23s/it]Train NLL: 8.542, Val NLL: 8.630:  72%|███████▏  | 215/300 [32:04<13:03,  9.22s/it]Train NLL: 8.542, Val NLL: 8.630:  72%|███████▏  | 216/300 [32:13<12:54,  9.22s/it]Train NLL: 8.542, Val NLL: 8.630:  72%|███████▏  | 217/300 [32:23<12:44,  9.22s/it]Train NLL: 8.542, Val NLL: 8.630:  73%|███████▎  | 218/300 [32:32<12:35,  9.22s/it]Train NLL: 8.542, Val NLL: 8.630:  73%|███████▎  | 219/300 [32:41<12:26,  9.22s/it]Train NLL: 8.542, Val NLL: 8.630:  73%|███████▎  | 220/300 [32:50<12:18,  9.23s/it]Train NLL: 8.542, Val NLL: 8.630:  74%|███████▎  | 221/300 [33:00<12:09,  9.23s/it]Train NLL: 8.542, Val NLL: 8.630:  74%|███████▍  | 222/300 [33:09<12:00,  9.24s/it]Train NLL: 8.542, Val NLL: 8.630:  74%|███████▍  | 223/300 [33:18<11:50,  9.23s/it]Train NLL: 8.542, Val NLL: 8.630:  75%|███████▍  | 224/300 [33:27<11:41,  9.23s/it]Train NLL: 8.542, Val NLL: 8.630:  75%|███████▌  | 225/300 [33:36<11:31,  9.23s/it]Train NLL: 8.542, Val NLL: 8.630:  75%|███████▌  | 226/300 [33:46<11:23,  9.23s/it]Train NLL: 8.542, Val NLL: 8.630:  76%|███████▌  | 227/300 [33:55<11:14,  9.24s/it]Train NLL: 8.542, Val NLL: 8.630:  76%|███████▌  | 228/300 [34:04<11:05,  9.24s/it]Train NLL: 8.542, Val NLL: 8.630:  76%|███████▋  | 229/300 [34:13<10:55,  9.23s/it]Train NLL: 8.542, Val NLL: 8.630:  77%|███████▋  | 230/300 [34:23<10:46,  9.23s/it]Train NLL: 8.542, Val NLL: 8.630:  77%|███████▋  | 231/300 [34:32<10:36,  9.23s/it]Train NLL: 8.542, Val NLL: 8.630:  77%|███████▋  | 232/300 [34:41<10:27,  9.22s/it]Train NLL: 8.542, Val NLL: 8.630:  78%|███████▊  | 233/300 [34:50<10:17,  9.22s/it]Train NLL: 8.542, Val NLL: 8.630:  78%|███████▊  | 234/300 [35:00<10:08,  9.22s/it]Train NLL: 8.542, Val NLL: 8.630:  78%|███████▊  | 235/300 [35:09<09:59,  9.23s/it]Train NLL: 8.542, Val NLL: 8.630:  79%|███████▊  | 236/300 [35:18<09:49,  9.22s/it]Train NLL: 8.542, Val NLL: 8.630:  79%|███████▉  | 237/300 [35:27<09:40,  9.22s/it]Train NLL: 8.542, Val NLL: 8.630:  79%|███████▉  | 238/300 [35:36<09:32,  9.23s/it]Train NLL: 8.542, Val NLL: 8.630:  80%|███████▉  | 239/300 [35:46<09:22,  9.23s/it]Train NLL: 8.542, Val NLL: 8.630:  80%|████████  | 240/300 [35:55<09:13,  9.23s/it]Train NLL: 8.542, Val NLL: 8.630:  80%|████████  | 241/300 [36:04<09:05,  9.24s/it]Train NLL: 8.542, Val NLL: 8.630:  81%|████████  | 242/300 [36:13<08:55,  9.23s/it]Train NLL: 8.542, Val NLL: 8.630:  81%|████████  | 243/300 [36:23<08:46,  9.23s/it]Train NLL: 8.542, Val NLL: 8.630:  81%|████████▏ | 244/300 [36:32<08:36,  9.23s/it]Train NLL: 8.542, Val NLL: 8.630:  82%|████████▏ | 245/300 [36:41<08:27,  9.23s/it]Train NLL: 8.542, Val NLL: 8.630:  82%|████████▏ | 246/300 [36:50<08:19,  9.24s/it]Train NLL: 8.542, Val NLL: 8.630:  82%|████████▏ | 247/300 [37:00<08:09,  9.23s/it]Train NLL: 8.542, Val NLL: 8.630:  83%|████████▎ | 248/300 [37:09<08:00,  9.24s/it]Train NLL: 8.542, Val NLL: 8.630:  83%|████████▎ | 249/300 [37:18<07:50,  9.23s/it]Train NLL: 8.542, Val NLL: 8.630:  83%|████████▎ | 250/300 [37:27<07:41,  9.22s/it]Train NLL: 8.542, Val NLL: 8.630:  84%|████████▎ | 251/300 [37:36<07:31,  9.22s/it]Train NLL: 8.542, Val NLL: 8.630:  84%|████████▍ | 252/300 [37:46<07:23,  9.23s/it]Train NLL: 8.542, Val NLL: 8.630:  84%|████████▍ | 253/300 [37:55<07:14,  9.24s/it]Train NLL: 8.542, Val NLL: 8.630:  85%|████████▍ | 254/300 [38:04<07:05,  9.26s/it]Train NLL: 8.542, Val NLL: 8.630:  85%|████████▌ | 255/300 [38:13<06:56,  9.26s/it]Train NLL: 8.542, Val NLL: 8.630:  85%|████████▌ | 256/300 [38:23<06:47,  9.26s/it]Train NLL: 8.542, Val NLL: 8.630:  86%|████████▌ | 257/300 [38:32<06:37,  9.25s/it]Train NLL: 8.542, Val NLL: 8.630:  86%|████████▌ | 258/300 [38:41<06:28,  9.25s/it]Train NLL: 8.542, Val NLL: 8.630:  86%|████████▋ | 259/300 [38:50<06:19,  9.25s/it]Train NLL: 8.542, Val NLL: 8.630:  87%|████████▋ | 260/300 [39:00<06:10,  9.25s/it]Train NLL: 8.542, Val NLL: 8.630:  87%|████████▋ | 261/300 [39:09<06:01,  9.27s/it]Train NLL: 8.542, Val NLL: 8.630:  87%|████████▋ | 262/300 [39:18<05:51,  9.26s/it]Train NLL: 8.542, Val NLL: 8.630:  88%|████████▊ | 263/300 [39:28<05:42,  9.26s/it]Train NLL: 8.542, Val NLL: 8.630:  88%|████████▊ | 264/300 [39:37<05:33,  9.25s/it]Train NLL: 8.542, Val NLL: 8.630:  88%|████████▊ | 265/300 [39:46<05:23,  9.25s/it]Train NLL: 8.542, Val NLL: 8.630:  89%|████████▊ | 266/300 [39:55<05:14,  9.25s/it]Train NLL: 8.542, Val NLL: 8.630:  89%|████████▉ | 267/300 [40:05<05:05,  9.26s/it]Train NLL: 8.542, Val NLL: 8.630:  89%|████████▉ | 268/300 [40:14<04:56,  9.26s/it]Train NLL: 8.542, Val NLL: 8.630:  90%|████████▉ | 269/300 [40:23<04:46,  9.25s/it]Train NLL: 8.542, Val NLL: 8.630:  90%|█████████ | 270/300 [40:32<04:37,  9.27s/it]Train NLL: 8.542, Val NLL: 8.630:  90%|█████████ | 271/300 [40:42<04:28,  9.26s/it]Train NLL: 8.542, Val NLL: 8.630:  91%|█████████ | 272/300 [40:51<04:19,  9.25s/it]Train NLL: 8.542, Val NLL: 8.630:  91%|█████████ | 273/300 [41:00<04:09,  9.24s/it]Train NLL: 8.542, Val NLL: 8.630:  91%|█████████▏| 274/300 [41:09<04:00,  9.25s/it]Train NLL: 8.542, Val NLL: 8.630:  92%|█████████▏| 275/300 [41:19<03:51,  9.25s/it]Train NLL: 8.542, Val NLL: 8.630:  92%|█████████▏| 276/300 [41:28<03:41,  9.24s/it]Train NLL: 8.542, Val NLL: 8.630:  92%|█████████▏| 277/300 [41:37<03:32,  9.24s/it]Train NLL: 8.542, Val NLL: 8.630:  93%|█████████▎| 278/300 [41:46<03:23,  9.25s/it]Train NLL: 8.542, Val NLL: 8.630:  93%|█████████▎| 279/300 [41:56<03:14,  9.24s/it]Train NLL: 8.542, Val NLL: 8.630:  93%|█████████▎| 280/300 [42:05<03:05,  9.26s/it]Train NLL: 8.542, Val NLL: 8.630:  94%|█████████▎| 281/300 [42:14<02:55,  9.25s/it]Train NLL: 8.542, Val NLL: 8.630:  94%|█████████▍| 282/300 [42:23<02:46,  9.25s/it]Train NLL: 8.542, Val NLL: 8.630:  94%|█████████▍| 283/300 [42:33<02:37,  9.26s/it]Train NLL: 8.542, Val NLL: 8.630:  95%|█████████▍| 284/300 [42:42<02:28,  9.27s/it]Train NLL: 8.542, Val NLL: 8.630:  95%|█████████▌| 285/300 [42:51<02:18,  9.27s/it]Train NLL: 8.542, Val NLL: 8.630:  95%|█████████▌| 286/300 [43:00<02:09,  9.26s/it]Train NLL: 8.542, Val NLL: 8.630:  96%|█████████▌| 287/300 [43:10<02:00,  9.26s/it]Train NLL: 8.542, Val NLL: 8.630:  96%|█████████▌| 288/300 [43:19<01:51,  9.25s/it]Train NLL: 8.542, Val NLL: 8.630:  96%|█████████▋| 289/300 [43:28<01:41,  9.25s/it]Train NLL: 8.542, Val NLL: 8.630:  97%|█████████▋| 290/300 [43:37<01:32,  9.24s/it]Train NLL: 8.542, Val NLL: 8.630:  97%|█████████▋| 291/300 [43:47<01:23,  9.24s/it]Train NLL: 8.542, Val NLL: 8.630:  97%|█████████▋| 292/300 [43:56<01:14,  9.25s/it]Train NLL: 8.542, Val NLL: 8.630:  98%|█████████▊| 293/300 [44:05<01:04,  9.26s/it]Train NLL: 8.542, Val NLL: 8.630:  98%|█████████▊| 294/300 [44:14<00:55,  9.25s/it]Train NLL: 8.542, Val NLL: 8.630:  98%|█████████▊| 295/300 [44:24<00:46,  9.25s/it]Train NLL: 8.542, Val NLL: 8.630:  99%|█████████▊| 296/300 [44:33<00:37,  9.26s/it]Train NLL: 8.542, Val NLL: 8.630:  99%|█████████▉| 297/300 [44:42<00:27,  9.26s/it]Train NLL: 8.542, Val NLL: 8.630:  99%|█████████▉| 298/300 [44:51<00:18,  9.27s/it]Train NLL: 8.542, Val NLL: 8.630: 100%|█████████▉| 299/300 [45:01<00:09,  9.27s/it]Train NLL: 8.542, Val NLL: 8.630: 100%|██████████| 300/300 [45:10<00:00,  9.28s/it]Train NLL: 8.542, Val NLL: 8.630: 100%|██████████| 300/300 [45:10<00:00,  9.04s/it]
INFO - residual_nf - Completed after 0:45:13
