{
  "memory.usage": {
    "steps": [
      0,
      1,
      2,
      3,
      4,
      5,
      6,
      7,
      8,
      9,
      10,
      11,
      12,
      13,
      14,
      15,
      16,
      17,
      18,
      19,
      20,
      21,
      22,
      23,
      24,
      25,
      26,
      27,
      28,
      29,
      30,
      31,
      32,
      33,
      34,
      35,
      36,
      37,
      38,
      39,
      40,
      41,
      42,
      43,
      44,
      45,
      46,
      47,
      48,
      49,
      50,
      51,
      52,
      53,
      54,
      55,
      56,
      57,
      58,
      59,
      60,
      61,
      62,
      63,
      64,
      65,
      66,
      67,
      68,
      69,
      70,
      71,
      72,
      73,
      74,
      75,
      76,
      77,
      78,
      79,
      80,
      81,
      82,
      83,
      84,
      85,
      86,
      87,
      88,
      89,
      90,
      91,
      92,
      93,
      94,
      95,
      96,
      97,
      98,
      99,
      100,
      101,
      102,
      103,
      104,
      105,
      106,
      107,
      108,
      109,
      110,
      111,
      112,
      113,
      114,
      115,
      116,
      117,
      118,
      119,
      120,
      121,
      122,
      123,
      124,
      125,
      126,
      127,
      128,
      129,
      130,
      131,
      132,
      133,
      134,
      135,
      136,
      137,
      138,
      139,
      140,
      141,
      142,
      143,
      144,
      145,
      146,
      147,
      148,
      149,
      150,
      151,
      152,
      153,
      154,
      155,
      156,
      157,
      158,
      159,
      160,
      161,
      162,
      163,
      164,
      165,
      166,
      167,
      168,
      169,
      170,
      171,
      172,
      173,
      174,
      175,
      176,
      177,
      178,
      179,
      180,
      181,
      182,
      183,
      184,
      185,
      186,
      187,
      188,
      189,
      190,
      191,
      192,
      193,
      194,
      195,
      196,
      197,
      198,
      199,
      200,
      201,
      202,
      203,
      204,
      205,
      206,
      207,
      208,
      209,
      210,
      211,
      212,
      213,
      214,
      215,
      216,
      217,
      218,
      219,
      220,
      221,
      222,
      223,
      224,
      225,
      226,
      227,
      228,
      229,
      230,
      231,
      232,
      233,
      234,
      235,
      236,
      237,
      238,
      239,
      240,
      241,
      242,
      243,
      244,
      245,
      246,
      247,
      248,
      249,
      250,
      251,
      252,
      253,
      254,
      255,
      256,
      257,
      258,
      259,
      260,
      261,
      262,
      263,
      264,
      265,
      266,
      267,
      268,
      269,
      270,
      271,
      272,
      273,
      274,
      275,
      276,
      277,
      278,
      279,
      280,
      281,
      282,
      283,
      284,
      285,
      286,
      287,
      288,
      289,
      290,
      291,
      292,
      293,
      294,
      295,
      296,
      297,
      298,
      299,
      300,
      301,
      302,
      303,
      304,
      305,
      306,
      307,
      308,
      309,
      310,
      311,
      312,
      313,
      314,
      315,
      316,
      317,
      318,
      319,
      320,
      321,
      322,
      323,
      324,
      325,
      326,
      327,
      328,
      329,
      330,
      331,
      332,
      333,
      334,
      335,
      336,
      337,
      338,
      339,
      340,
      341,
      342,
      343,
      344,
      345,
      346,
      347,
      348,
      349,
      350,
      351,
      352,
      353,
      354,
      355,
      356,
      357,
      358,
      359,
      360,
      361,
      362,
      363,
      364,
      365,
      366,
      367,
      368,
      369,
      370,
      371,
      372,
      373,
      374,
      375,
      376,
      377,
      378,
      379,
      380,
      381,
      382,
      383,
      384,
      385,
      386,
      387,
      388,
      389,
      390,
      391,
      392,
      393,
      394,
      395,
      396,
      397,
      398,
      399
    ],
    "timestamps": [
      "2022-06-07T11:14:34.690310",
      "2022-06-07T11:14:35.254052",
      "2022-06-07T11:14:35.855213",
      "2022-06-07T11:14:36.441009",
      "2022-06-07T11:14:37.038057",
      "2022-06-07T11:14:37.629109",
      "2022-06-07T11:14:38.212943",
      "2022-06-07T11:14:38.816925",
      "2022-06-07T11:14:39.425222",
      "2022-06-07T11:14:40.005755",
      "2022-06-07T11:14:40.589182",
      "2022-06-07T11:14:41.171359",
      "2022-06-07T11:14:41.738528",
      "2022-06-07T11:14:42.304928",
      "2022-06-07T11:14:42.897041",
      "2022-06-07T11:14:43.478999",
      "2022-06-07T11:14:44.071183",
      "2022-06-07T11:14:44.667076",
      "2022-06-07T11:14:45.279031",
      "2022-06-07T11:14:45.832688",
      "2022-06-07T11:14:46.396379",
      "2022-06-07T11:14:46.935423",
      "2022-06-07T11:14:47.484721",
      "2022-06-07T11:14:48.038631",
      "2022-06-07T11:14:48.592039",
      "2022-06-07T11:14:49.123652",
      "2022-06-07T11:14:49.656047",
      "2022-06-07T11:14:50.196612",
      "2022-06-07T11:14:50.758297",
      "2022-06-07T11:14:51.291072",
      "2022-06-07T11:14:51.826222",
      "2022-06-07T11:14:52.356580",
      "2022-06-07T11:14:52.890905",
      "2022-06-07T11:14:53.422739",
      "2022-06-07T11:14:53.957788",
      "2022-06-07T11:14:54.487371",
      "2022-06-07T11:14:55.036767",
      "2022-06-07T11:14:55.576621",
      "2022-06-07T11:14:56.116992",
      "2022-06-07T11:14:56.654270",
      "2022-06-07T11:14:57.197654",
      "2022-06-07T11:14:57.730234",
      "2022-06-07T11:14:58.265821",
      "2022-06-07T11:14:58.798522",
      "2022-06-07T11:14:59.336883",
      "2022-06-07T11:14:59.913270",
      "2022-06-07T11:15:00.504341",
      "2022-06-07T11:15:01.121836",
      "2022-06-07T11:15:01.728991",
      "2022-06-07T11:15:02.295367",
      "2022-06-07T11:15:02.829620",
      "2022-06-07T11:15:03.375239",
      "2022-06-07T11:15:03.954579",
      "2022-06-07T11:15:04.559830",
      "2022-06-07T11:15:05.163479",
      "2022-06-07T11:15:05.756881",
      "2022-06-07T11:15:06.314423",
      "2022-06-07T11:15:06.879635",
      "2022-06-07T11:15:07.453688",
      "2022-06-07T11:15:07.996963",
      "2022-06-07T11:15:08.546441",
      "2022-06-07T11:15:09.119023",
      "2022-06-07T11:15:09.666976",
      "2022-06-07T11:15:10.233792",
      "2022-06-07T11:15:10.800084",
      "2022-06-07T11:15:11.346648",
      "2022-06-07T11:15:11.888285",
      "2022-06-07T11:15:12.427962",
      "2022-06-07T11:15:13.009594",
      "2022-06-07T11:15:13.610426",
      "2022-06-07T11:15:14.187951",
      "2022-06-07T11:15:14.784095",
      "2022-06-07T11:15:15.355354",
      "2022-06-07T11:15:15.931029",
      "2022-06-07T11:15:16.541636",
      "2022-06-07T11:15:17.128399",
      "2022-06-07T11:15:17.732500",
      "2022-06-07T11:15:18.336570",
      "2022-06-07T11:15:18.914724",
      "2022-06-07T11:15:19.467788",
      "2022-06-07T11:15:20.047923",
      "2022-06-07T11:15:20.663267",
      "2022-06-07T11:15:21.207045",
      "2022-06-07T11:15:21.739048",
      "2022-06-07T11:15:22.282908",
      "2022-06-07T11:15:22.814889",
      "2022-06-07T11:15:23.355468",
      "2022-06-07T11:15:23.886710",
      "2022-06-07T11:15:24.428538",
      "2022-06-07T11:15:24.983280",
      "2022-06-07T11:15:25.601866",
      "2022-06-07T11:15:26.208740",
      "2022-06-07T11:15:26.794375",
      "2022-06-07T11:15:27.326947",
      "2022-06-07T11:15:27.895431",
      "2022-06-07T11:15:28.437443",
      "2022-06-07T11:15:28.984117",
      "2022-06-07T11:15:29.514547",
      "2022-06-07T11:15:30.085526",
      "2022-06-07T11:15:30.632897",
      "2022-06-07T11:15:31.182291",
      "2022-06-07T11:15:31.713065",
      "2022-06-07T11:15:32.243206",
      "2022-06-07T11:15:32.797083",
      "2022-06-07T11:15:33.336456",
      "2022-06-07T11:15:33.919695",
      "2022-06-07T11:15:34.542872",
      "2022-06-07T11:15:35.090610",
      "2022-06-07T11:15:35.690434",
      "2022-06-07T11:15:36.278734",
      "2022-06-07T11:15:36.844239",
      "2022-06-07T11:15:37.409409",
      "2022-06-07T11:15:38.006703",
      "2022-06-07T11:15:38.593251",
      "2022-06-07T11:15:39.187203",
      "2022-06-07T11:15:39.783533",
      "2022-06-07T11:15:40.392549",
      "2022-06-07T11:15:40.939932",
      "2022-06-07T11:15:41.496455",
      "2022-06-07T11:15:42.044320",
      "2022-06-07T11:15:42.581213",
      "2022-06-07T11:15:43.193404",
      "2022-06-07T11:15:43.792178",
      "2022-06-07T11:15:44.381616",
      "2022-06-07T11:15:44.984566",
      "2022-06-07T11:15:45.589385",
      "2022-06-07T11:15:46.184780",
      "2022-06-07T11:15:46.751599",
      "2022-06-07T11:15:47.308264",
      "2022-06-07T11:15:47.856424",
      "2022-06-07T11:15:48.430876",
      "2022-06-07T11:15:49.022821",
      "2022-06-07T11:15:49.612492",
      "2022-06-07T11:15:50.216908",
      "2022-06-07T11:15:50.842268",
      "2022-06-07T11:15:51.445708",
      "2022-06-07T11:15:52.007824",
      "2022-06-07T11:15:52.557048",
      "2022-06-07T11:15:53.108053",
      "2022-06-07T11:15:53.654443",
      "2022-06-07T11:15:54.211358",
      "2022-06-07T11:15:54.751467",
      "2022-06-07T11:15:55.338185",
      "2022-06-07T11:15:55.931536",
      "2022-06-07T11:15:56.543667",
      "2022-06-07T11:15:57.153860",
      "2022-06-07T11:15:57.734930",
      "2022-06-07T11:15:58.279912",
      "2022-06-07T11:15:58.853127",
      "2022-06-07T11:15:59.461490",
      "2022-06-07T11:16:00.052895",
      "2022-06-07T11:16:00.659227",
      "2022-06-07T11:16:01.239997",
      "2022-06-07T11:16:01.807565",
      "2022-06-07T11:16:02.387824",
      "2022-06-07T11:16:02.929501",
      "2022-06-07T11:16:03.477743",
      "2022-06-07T11:16:04.028220",
      "2022-06-07T11:16:04.615151",
      "2022-06-07T11:16:05.245718",
      "2022-06-07T11:16:05.852954",
      "2022-06-07T11:16:06.420865",
      "2022-06-07T11:16:07.044356",
      "2022-06-07T11:16:07.625219",
      "2022-06-07T11:16:08.214870",
      "2022-06-07T11:16:08.798293",
      "2022-06-07T11:16:09.400144",
      "2022-06-07T11:16:09.971393",
      "2022-06-07T11:16:10.617457",
      "2022-06-07T11:16:11.194918",
      "2022-06-07T11:16:11.777917",
      "2022-06-07T11:16:12.318126",
      "2022-06-07T11:16:12.871722",
      "2022-06-07T11:16:13.409876",
      "2022-06-07T11:16:14.005207",
      "2022-06-07T11:16:14.613150",
      "2022-06-07T11:16:15.203714",
      "2022-06-07T11:16:15.837263",
      "2022-06-07T11:16:16.434276",
      "2022-06-07T11:16:17.027184",
      "2022-06-07T11:16:17.595600",
      "2022-06-07T11:16:18.215732",
      "2022-06-07T11:16:18.813189",
      "2022-06-07T11:16:19.412253",
      "2022-06-07T11:16:19.997598",
      "2022-06-07T11:16:20.577215",
      "2022-06-07T11:16:21.119838",
      "2022-06-07T11:16:21.672617",
      "2022-06-07T11:16:22.229126",
      "2022-06-07T11:16:22.773152",
      "2022-06-07T11:16:23.381579",
      "2022-06-07T11:16:23.933008",
      "2022-06-07T11:16:24.497444",
      "2022-06-07T11:16:25.044563",
      "2022-06-07T11:16:25.645239",
      "2022-06-07T11:16:26.194156",
      "2022-06-07T11:16:26.791719",
      "2022-06-07T11:16:27.350161",
      "2022-06-07T11:16:27.903280",
      "2022-06-07T11:16:28.523951",
      "2022-06-07T11:16:29.076191",
      "2022-06-07T11:16:29.631148",
      "2022-06-07T11:16:30.184444",
      "2022-06-07T11:16:30.800763",
      "2022-06-07T11:16:31.370672",
      "2022-06-07T11:16:31.955120",
      "2022-06-07T11:16:32.506573",
      "2022-06-07T11:16:33.058177",
      "2022-06-07T11:16:33.611104",
      "2022-06-07T11:16:34.153995",
      "2022-06-07T11:16:34.702212",
      "2022-06-07T11:16:35.242142",
      "2022-06-07T11:16:35.776566",
      "2022-06-07T11:16:36.315672",
      "2022-06-07T11:16:36.862818",
      "2022-06-07T11:16:37.484679",
      "2022-06-07T11:16:38.116388",
      "2022-06-07T11:16:38.692266",
      "2022-06-07T11:16:39.300213",
      "2022-06-07T11:16:39.898875",
      "2022-06-07T11:16:40.469433",
      "2022-06-07T11:16:41.046376",
      "2022-06-07T11:16:41.593976",
      "2022-06-07T11:16:42.153527",
      "2022-06-07T11:16:42.706103",
      "2022-06-07T11:16:43.282095",
      "2022-06-07T11:16:43.822154",
      "2022-06-07T11:16:44.367054",
      "2022-06-07T11:16:44.898699",
      "2022-06-07T11:16:45.425333",
      "2022-06-07T11:16:45.955494",
      "2022-06-07T11:16:46.482015",
      "2022-06-07T11:16:47.013861",
      "2022-06-07T11:16:47.567555",
      "2022-06-07T11:16:48.109338",
      "2022-06-07T11:16:48.658840",
      "2022-06-07T11:16:49.192182",
      "2022-06-07T11:16:49.747973",
      "2022-06-07T11:16:50.319936",
      "2022-06-07T11:16:50.886614",
      "2022-06-07T11:16:51.416489",
      "2022-06-07T11:16:51.942760",
      "2022-06-07T11:16:52.485029",
      "2022-06-07T11:16:53.036604",
      "2022-06-07T11:16:53.604404",
      "2022-06-07T11:16:54.154393",
      "2022-06-07T11:16:54.695128",
      "2022-06-07T11:16:55.220560",
      "2022-06-07T11:16:55.757944",
      "2022-06-07T11:16:56.302412",
      "2022-06-07T11:16:56.842804",
      "2022-06-07T11:16:57.378011",
      "2022-06-07T11:16:57.934081",
      "2022-06-07T11:16:58.480896",
      "2022-06-07T11:16:59.091538",
      "2022-06-07T11:16:59.690000",
      "2022-06-07T11:17:00.300965",
      "2022-06-07T11:17:00.948173",
      "2022-06-07T11:17:01.540584",
      "2022-06-07T11:17:02.125139",
      "2022-06-07T11:17:02.724623",
      "2022-06-07T11:17:03.356073",
      "2022-06-07T11:17:03.972437",
      "2022-06-07T11:17:04.571697",
      "2022-06-07T11:17:05.168302",
      "2022-06-07T11:17:05.724468",
      "2022-06-07T11:17:06.266720",
      "2022-06-07T11:17:06.797538",
      "2022-06-07T11:17:07.333852",
      "2022-06-07T11:17:07.863311",
      "2022-06-07T11:17:08.400041",
      "2022-06-07T11:17:08.938137",
      "2022-06-07T11:17:09.486327",
      "2022-06-07T11:17:10.021915",
      "2022-06-07T11:17:10.609531",
      "2022-06-07T11:17:11.177472",
      "2022-06-07T11:17:11.738867",
      "2022-06-07T11:17:12.373955",
      "2022-06-07T11:17:12.918352",
      "2022-06-07T11:17:13.464948",
      "2022-06-07T11:17:14.023265",
      "2022-06-07T11:17:14.558098",
      "2022-06-07T11:17:15.112022",
      "2022-06-07T11:17:15.660975",
      "2022-06-07T11:17:16.224707",
      "2022-06-07T11:17:16.756640",
      "2022-06-07T11:17:17.288984",
      "2022-06-07T11:17:17.817962",
      "2022-06-07T11:17:18.353588",
      "2022-06-07T11:17:18.909537",
      "2022-06-07T11:17:19.530726",
      "2022-06-07T11:17:20.155232",
      "2022-06-07T11:17:20.774941",
      "2022-06-07T11:17:21.352992",
      "2022-06-07T11:17:21.969725",
      "2022-06-07T11:17:22.607710",
      "2022-06-07T11:17:23.204459",
      "2022-06-07T11:17:23.772844",
      "2022-06-07T11:17:24.320732",
      "2022-06-07T11:17:24.870247",
      "2022-06-07T11:17:25.415782",
      "2022-06-07T11:17:25.954600",
      "2022-06-07T11:17:26.495985",
      "2022-06-07T11:17:27.064123",
      "2022-06-07T11:17:27.642040",
      "2022-06-07T11:17:28.186846",
      "2022-06-07T11:17:28.744499",
      "2022-06-07T11:17:29.311950",
      "2022-06-07T11:17:29.876929",
      "2022-06-07T11:17:30.427167",
      "2022-06-07T11:17:30.990271",
      "2022-06-07T11:17:31.527454",
      "2022-06-07T11:17:32.145825",
      "2022-06-07T11:17:32.734267",
      "2022-06-07T11:17:33.351146",
      "2022-06-07T11:17:33.987487",
      "2022-06-07T11:17:34.599813",
      "2022-06-07T11:17:35.177718",
      "2022-06-07T11:17:35.731059",
      "2022-06-07T11:17:36.287186",
      "2022-06-07T11:17:36.821568",
      "2022-06-07T11:17:37.367790",
      "2022-06-07T11:17:37.905752",
      "2022-06-07T11:17:38.453540",
      "2022-06-07T11:17:39.029704",
      "2022-06-07T11:17:39.610296",
      "2022-06-07T11:17:40.195329",
      "2022-06-07T11:17:40.757948",
      "2022-06-07T11:17:41.342177",
      "2022-06-07T11:17:41.909561",
      "2022-06-07T11:17:42.499601",
      "2022-06-07T11:17:43.041605",
      "2022-06-07T11:17:43.632165",
      "2022-06-07T11:17:44.188272",
      "2022-06-07T11:17:44.723980",
      "2022-06-07T11:17:45.283687",
      "2022-06-07T11:17:45.889303",
      "2022-06-07T11:17:46.457858",
      "2022-06-07T11:17:47.052434",
      "2022-06-07T11:17:47.656850",
      "2022-06-07T11:17:48.246156",
      "2022-06-07T11:17:48.844173",
      "2022-06-07T11:17:49.412234",
      "2022-06-07T11:17:49.978661",
      "2022-06-07T11:17:50.552938",
      "2022-06-07T11:17:51.104453",
      "2022-06-07T11:17:51.667368",
      "2022-06-07T11:17:52.202232",
      "2022-06-07T11:17:52.736490",
      "2022-06-07T11:17:53.275449",
      "2022-06-07T11:17:53.818155",
      "2022-06-07T11:17:54.347741",
      "2022-06-07T11:17:54.905056",
      "2022-06-07T11:17:55.444384",
      "2022-06-07T11:17:56.004663",
      "2022-06-07T11:17:56.564672",
      "2022-06-07T11:17:57.113402",
      "2022-06-07T11:17:57.655196",
      "2022-06-07T11:17:58.195522",
      "2022-06-07T11:17:58.725932",
      "2022-06-07T11:17:59.293461",
      "2022-06-07T11:17:59.885438",
      "2022-06-07T11:18:00.474360",
      "2022-06-07T11:18:01.023202",
      "2022-06-07T11:18:01.565310",
      "2022-06-07T11:18:02.101522",
      "2022-06-07T11:18:02.656570",
      "2022-06-07T11:18:03.212171",
      "2022-06-07T11:18:03.762396",
      "2022-06-07T11:18:04.328352",
      "2022-06-07T11:18:04.910360",
      "2022-06-07T11:18:05.569240",
      "2022-06-07T11:18:06.154563",
      "2022-06-07T11:18:06.728587",
      "2022-06-07T11:18:07.361954",
      "2022-06-07T11:18:07.968197",
      "2022-06-07T11:18:08.516710",
      "2022-06-07T11:18:09.086048",
      "2022-06-07T11:18:09.629639",
      "2022-06-07T11:18:10.219925",
      "2022-06-07T11:18:10.798840",
      "2022-06-07T11:18:11.335429",
      "2022-06-07T11:18:11.888839",
      "2022-06-07T11:18:12.489928",
      "2022-06-07T11:18:13.067007",
      "2022-06-07T11:18:13.628667",
      "2022-06-07T11:18:14.228158",
      "2022-06-07T11:18:14.847520",
      "2022-06-07T11:18:15.434509",
      "2022-06-07T11:18:16.008594",
      "2022-06-07T11:18:16.575629",
      "2022-06-07T11:18:17.150348",
      "2022-06-07T11:18:17.698014",
      "2022-06-07T11:18:18.238846",
      "2022-06-07T11:18:18.842513",
      "2022-06-07T11:18:19.393319",
      "2022-06-07T11:18:19.956911",
      "2022-06-07T11:18:20.531038",
      "2022-06-07T11:18:21.117542",
      "2022-06-07T11:18:21.654042"
    ],
    "values": [
      5.455872,
      5.455872,
      5.455872,
      5.455872,
      5.455872,
      5.455872,
      5.455872,
      5.455872,
      5.455872,
      5.455872,
      5.455872,
      5.455872,
      5.455872,
      5.455872,
      5.455872,
      5.455872,
      5.455872,
      5.455872,
      5.455872,
      5.455872,
      5.455872,
      5.455872,
      5.455872,
      5.455872,
      5.455872,
      5.455872,
      5.455872,
      5.455872,
      5.455872,
      5.455872,
      5.455872,
      5.455872,
      5.455872,
      5.455872,
      5.455872,
      5.455872,
      5.455872,
      5.455872,
      5.455872,
      5.455872,
      5.455872,
      5.455872,
      5.455872,
      5.455872,
      5.455872,
      5.455872,
      5.455872,
      5.455872,
      5.455872,
      5.455872,
      5.455872,
      5.455872,
      5.455872,
      5.455872,
      5.455872,
      5.455872,
      5.455872,
      5.455872,
      5.455872,
      5.455872,
      5.455872,
      5.455872,
      5.455872,
      5.455872,
      5.455872,
      5.455872,
      5.455872,
      5.455872,
      5.455872,
      5.455872,
      5.455872,
      5.455872,
      5.455872,
      5.455872,
      5.455872,
      5.455872,
      5.455872,
      5.455872,
      5.455872,
      5.455872,
      5.455872,
      5.455872,
      5.455872,
      5.455872,
      5.455872,
      5.455872,
      5.455872,
      5.455872,
      5.455872,
      5.455872,
      5.455872,
      5.455872,
      5.455872,
      5.455872,
      5.455872,
      5.455872,
      5.455872,
      5.455872,
      5.455872,
      5.455872,
      5.455872,
      5.455872,
      5.455872,
      5.455872,
      5.455872,
      5.455872,
      5.455872,
      5.455872,
      5.455872,
      5.455872,
      5.455872,
      5.455872,
      5.455872,
      5.455872,
      5.455872,
      5.455872,
      5.455872,
      5.455872,
      5.455872,
      5.455872,
      5.455872,
      5.455872,
      5.455872,
      5.455872,
      5.455872,
      5.455872,
      5.455872,
      5.455872,
      5.455872,
      5.455872,
      5.455872,
      5.455872,
      5.455872,
      5.455872,
      5.455872,
      5.455872,
      5.455872,
      5.455872,
      5.455872,
      5.455872,
      5.455872,
      5.455872,
      5.455872,
      5.455872,
      5.455872,
      5.455872,
      5.455872,
      5.455872,
      5.455872,
      5.455872,
      5.455872,
      5.455872,
      5.455872,
      5.455872,
      5.455872,
      5.455872,
      5.455872,
      5.455872,
      5.455872,
      5.455872,
      5.455872,
      5.455872,
      5.455872,
      5.455872,
      5.455872,
      5.455872,
      5.455872,
      5.455872,
      5.455872,
      5.455872,
      5.455872,
      5.455872,
      5.455872,
      5.455872,
      5.455872,
      5.455872,
      5.455872,
      5.455872,
      5.455872,
      5.455872,
      5.455872,
      5.455872,
      5.455872,
      5.455872,
      5.455872,
      5.455872,
      5.455872,
      5.455872,
      5.455872,
      5.455872,
      5.455872,
      5.455872,
      5.455872,
      5.455872,
      5.455872,
      5.455872,
      5.455872,
      5.455872,
      5.455872,
      5.455872,
      5.455872,
      5.455872,
      5.455872,
      5.455872,
      5.455872,
      5.455872,
      5.455872,
      5.455872,
      5.455872,
      5.455872,
      5.455872,
      5.455872,
      5.455872,
      5.455872,
      5.455872,
      5.455872,
      5.455872,
      5.455872,
      5.455872,
      5.455872,
      5.455872,
      5.455872,
      5.455872,
      5.455872,
      5.455872,
      5.455872,
      5.455872,
      5.455872,
      5.455872,
      5.455872,
      5.455872,
      5.455872,
      5.455872,
      5.455872,
      5.455872,
      5.455872,
      5.455872,
      5.455872,
      5.455872,
      5.455872,
      5.455872,
      5.455872,
      5.455872,
      5.455872,
      5.455872,
      5.455872,
      5.455872,
      5.455872,
      5.455872,
      5.455872,
      5.455872,
      5.455872,
      5.455872,
      5.455872,
      5.455872,
      5.455872,
      5.455872,
      5.455872,
      5.455872,
      5.455872,
      5.455872,
      5.455872,
      5.455872,
      5.455872,
      5.455872,
      5.455872,
      5.455872,
      5.455872,
      5.455872,
      5.455872,
      5.455872,
      5.455872,
      5.455872,
      5.455872,
      5.455872,
      5.455872,
      5.455872,
      5.455872,
      5.455872,
      5.455872,
      5.455872,
      5.455872,
      5.455872,
      5.455872,
      5.455872,
      5.455872,
      5.455872,
      5.455872,
      5.455872,
      5.455872,
      5.455872,
      5.455872,
      5.455872,
      5.455872,
      5.455872,
      5.455872,
      5.455872,
      5.455872,
      5.455872,
      5.455872,
      5.455872,
      5.455872,
      5.455872,
      5.455872,
      5.455872,
      5.455872,
      5.455872,
      5.455872,
      5.455872,
      5.455872,
      5.455872,
      5.455872,
      5.455872,
      5.455872,
      5.455872,
      5.455872,
      5.455872,
      5.455872,
      5.455872,
      5.455872,
      5.455872,
      5.455872,
      5.455872,
      5.455872,
      5.455872,
      5.455872,
      5.455872,
      5.455872,
      5.455872,
      5.455872,
      5.455872,
      5.455872,
      5.455872,
      5.455872,
      5.455872,
      5.455872,
      5.455872,
      5.455872,
      5.455872,
      5.455872,
      5.455872,
      5.455872,
      5.455872,
      5.455872,
      5.455872,
      5.455872,
      5.455872,
      5.455872,
      5.455872,
      5.455872,
      5.455872,
      5.455872,
      5.455872,
      5.455872,
      5.455872,
      5.455872,
      5.455872,
      5.455872,
      5.455872,
      5.455872,
      5.455872,
      5.455872,
      5.455872,
      5.455872,
      5.455872,
      5.455872,
      5.455872,
      5.455872,
      5.455872,
      5.455872,
      5.455872,
      5.455872,
      5.455872,
      5.455872,
      5.455872,
      5.455872,
      5.455872,
      5.455872,
      5.455872,
      5.455872,
      5.455872,
      5.455872,
      5.455872,
      5.455872,
      5.455872,
      5.455872,
      5.455872,
      5.455872,
      5.455872,
      5.455872,
      5.455872,
      5.455872,
      5.455872,
      5.455872,
      5.455872,
      5.455872,
      5.455872,
      5.455872,
      5.455872,
      5.455872
    ]
  },
  "test": {
    "steps": [
      0
    ],
    "timestamps": [
      "2022-06-07T11:18:21.799272"
    ],
    "values": [
      9.64422351540146
    ]
  },
  "train": {
    "steps": [
      0,
      1,
      2,
      3,
      4,
      5,
      6,
      7,
      8,
      9,
      10,
      11,
      12,
      13,
      14,
      15,
      16,
      17,
      18,
      19,
      20,
      21,
      22,
      23,
      24,
      25,
      26,
      27,
      28,
      29,
      30,
      31,
      32,
      33,
      34,
      35,
      36,
      37,
      38,
      39,
      40,
      41,
      42,
      43,
      44,
      45,
      46,
      47,
      48,
      49,
      50,
      51,
      52,
      53,
      54,
      55,
      56,
      57,
      58,
      59,
      60,
      61,
      62,
      63,
      64,
      65,
      66,
      67,
      68,
      69,
      70,
      71,
      72,
      73,
      74,
      75,
      76,
      77,
      78,
      79,
      80,
      81,
      82,
      83,
      84,
      85,
      86,
      87,
      88,
      89,
      90,
      91,
      92,
      93,
      94,
      95,
      96,
      97,
      98,
      99,
      100,
      101,
      102,
      103,
      104,
      105,
      106,
      107,
      108,
      109,
      110,
      111,
      112,
      113,
      114,
      115,
      116,
      117,
      118,
      119,
      120,
      121,
      122,
      123,
      124,
      125,
      126,
      127,
      128,
      129,
      130,
      131,
      132,
      133,
      134,
      135,
      136,
      137,
      138,
      139,
      140,
      141,
      142,
      143,
      144,
      145,
      146,
      147,
      148,
      149,
      150,
      151,
      152,
      153,
      154,
      155,
      156,
      157,
      158,
      159,
      160,
      161,
      162,
      163,
      164,
      165,
      166,
      167,
      168,
      169,
      170,
      171,
      172,
      173,
      174,
      175,
      176,
      177,
      178,
      179,
      180,
      181,
      182,
      183,
      184,
      185,
      186,
      187,
      188,
      189,
      190,
      191,
      192,
      193,
      194,
      195,
      196,
      197,
      198,
      199,
      200,
      201,
      202,
      203,
      204,
      205,
      206,
      207,
      208,
      209,
      210,
      211,
      212,
      213,
      214,
      215,
      216,
      217,
      218,
      219,
      220,
      221,
      222,
      223,
      224,
      225,
      226,
      227,
      228,
      229,
      230,
      231,
      232,
      233,
      234,
      235,
      236,
      237,
      238,
      239,
      240,
      241,
      242,
      243,
      244,
      245,
      246,
      247,
      248,
      249,
      250,
      251,
      252,
      253,
      254,
      255,
      256,
      257,
      258,
      259,
      260,
      261,
      262,
      263,
      264,
      265,
      266,
      267,
      268,
      269,
      270,
      271,
      272,
      273,
      274,
      275,
      276,
      277,
      278,
      279,
      280,
      281,
      282,
      283,
      284,
      285,
      286,
      287,
      288,
      289,
      290,
      291,
      292,
      293,
      294,
      295,
      296,
      297,
      298,
      299,
      300,
      301,
      302,
      303,
      304,
      305,
      306,
      307,
      308,
      309,
      310,
      311,
      312,
      313,
      314,
      315,
      316,
      317,
      318,
      319,
      320,
      321,
      322,
      323,
      324,
      325,
      326,
      327,
      328,
      329,
      330,
      331,
      332,
      333,
      334,
      335,
      336,
      337,
      338,
      339,
      340,
      341,
      342,
      343,
      344,
      345,
      346,
      347,
      348,
      349,
      350,
      351,
      352,
      353,
      354,
      355,
      356,
      357,
      358,
      359,
      360,
      361,
      362,
      363,
      364,
      365,
      366,
      367,
      368,
      369,
      370,
      371,
      372,
      373,
      374,
      375,
      376,
      377,
      378,
      379,
      380,
      381,
      382,
      383,
      384,
      385,
      386,
      387,
      388,
      389,
      390,
      391,
      392,
      393,
      394,
      395,
      396,
      397,
      398,
      399
    ],
    "timestamps": [
      "2022-06-07T11:14:34.690171",
      "2022-06-07T11:14:35.253937",
      "2022-06-07T11:14:35.855092",
      "2022-06-07T11:14:36.440863",
      "2022-06-07T11:14:37.037944",
      "2022-06-07T11:14:37.628988",
      "2022-06-07T11:14:38.212790",
      "2022-06-07T11:14:38.816779",
      "2022-06-07T11:14:39.425112",
      "2022-06-07T11:14:40.005621",
      "2022-06-07T11:14:40.589072",
      "2022-06-07T11:14:41.171248",
      "2022-06-07T11:14:41.738419",
      "2022-06-07T11:14:42.304783",
      "2022-06-07T11:14:42.896925",
      "2022-06-07T11:14:43.478877",
      "2022-06-07T11:14:44.071069",
      "2022-06-07T11:14:44.666912",
      "2022-06-07T11:14:45.278918",
      "2022-06-07T11:14:45.832535",
      "2022-06-07T11:14:46.396258",
      "2022-06-07T11:14:46.935311",
      "2022-06-07T11:14:47.484590",
      "2022-06-07T11:14:48.038513",
      "2022-06-07T11:14:48.591928",
      "2022-06-07T11:14:49.123542",
      "2022-06-07T11:14:49.655937",
      "2022-06-07T11:14:50.196498",
      "2022-06-07T11:14:50.758184",
      "2022-06-07T11:14:51.290958",
      "2022-06-07T11:14:51.826111",
      "2022-06-07T11:14:52.356470",
      "2022-06-07T11:14:52.890792",
      "2022-06-07T11:14:53.422628",
      "2022-06-07T11:14:53.957676",
      "2022-06-07T11:14:54.487261",
      "2022-06-07T11:14:55.036645",
      "2022-06-07T11:14:55.576511",
      "2022-06-07T11:14:56.116881",
      "2022-06-07T11:14:56.654160",
      "2022-06-07T11:14:57.197542",
      "2022-06-07T11:14:57.730123",
      "2022-06-07T11:14:58.265710",
      "2022-06-07T11:14:58.798412",
      "2022-06-07T11:14:59.336742",
      "2022-06-07T11:14:59.913106",
      "2022-06-07T11:15:00.504198",
      "2022-06-07T11:15:01.121710",
      "2022-06-07T11:15:01.728870",
      "2022-06-07T11:15:02.295251",
      "2022-06-07T11:15:02.829508",
      "2022-06-07T11:15:03.375087",
      "2022-06-07T11:15:03.954456",
      "2022-06-07T11:15:04.559713",
      "2022-06-07T11:15:05.163360",
      "2022-06-07T11:15:05.756761",
      "2022-06-07T11:15:06.314306",
      "2022-06-07T11:15:06.879524",
      "2022-06-07T11:15:07.453570",
      "2022-06-07T11:15:07.996850",
      "2022-06-07T11:15:08.546329",
      "2022-06-07T11:15:09.118900",
      "2022-06-07T11:15:09.666862",
      "2022-06-07T11:15:10.233674",
      "2022-06-07T11:15:10.799969",
      "2022-06-07T11:15:11.346534",
      "2022-06-07T11:15:11.888147",
      "2022-06-07T11:15:12.427848",
      "2022-06-07T11:15:13.009442",
      "2022-06-07T11:15:13.610301",
      "2022-06-07T11:15:14.187813",
      "2022-06-07T11:15:14.783972",
      "2022-06-07T11:15:15.355240",
      "2022-06-07T11:15:15.930854",
      "2022-06-07T11:15:16.541497",
      "2022-06-07T11:15:17.128241",
      "2022-06-07T11:15:17.732373",
      "2022-06-07T11:15:18.336457",
      "2022-06-07T11:15:18.914608",
      "2022-06-07T11:15:19.467676",
      "2022-06-07T11:15:20.047779",
      "2022-06-07T11:15:20.663156",
      "2022-06-07T11:15:21.206924",
      "2022-06-07T11:15:21.738931",
      "2022-06-07T11:15:22.282793",
      "2022-06-07T11:15:22.814774",
      "2022-06-07T11:15:23.355350",
      "2022-06-07T11:15:23.886596",
      "2022-06-07T11:15:24.428398",
      "2022-06-07T11:15:24.983166",
      "2022-06-07T11:15:25.601752",
      "2022-06-07T11:15:26.208620",
      "2022-06-07T11:15:26.794264",
      "2022-06-07T11:15:27.326818",
      "2022-06-07T11:15:27.895317",
      "2022-06-07T11:15:28.437325",
      "2022-06-07T11:15:28.984008",
      "2022-06-07T11:15:29.514436",
      "2022-06-07T11:15:30.085366",
      "2022-06-07T11:15:30.632783",
      "2022-06-07T11:15:31.182177",
      "2022-06-07T11:15:31.712951",
      "2022-06-07T11:15:32.243094",
      "2022-06-07T11:15:32.796947",
      "2022-06-07T11:15:33.336342",
      "2022-06-07T11:15:33.919534",
      "2022-06-07T11:15:34.542743",
      "2022-06-07T11:15:35.090484",
      "2022-06-07T11:15:35.690295",
      "2022-06-07T11:15:36.278619",
      "2022-06-07T11:15:36.844123",
      "2022-06-07T11:15:37.409290",
      "2022-06-07T11:15:38.006528",
      "2022-06-07T11:15:38.593131",
      "2022-06-07T11:15:39.187086",
      "2022-06-07T11:15:39.783415",
      "2022-06-07T11:15:40.392405",
      "2022-06-07T11:15:40.939815",
      "2022-06-07T11:15:41.496344",
      "2022-06-07T11:15:42.044195",
      "2022-06-07T11:15:42.581097",
      "2022-06-07T11:15:43.193269",
      "2022-06-07T11:15:43.792052",
      "2022-06-07T11:15:44.381497",
      "2022-06-07T11:15:44.984414",
      "2022-06-07T11:15:45.589260",
      "2022-06-07T11:15:46.184662",
      "2022-06-07T11:15:46.751486",
      "2022-06-07T11:15:47.308151",
      "2022-06-07T11:15:47.856313",
      "2022-06-07T11:15:48.430743",
      "2022-06-07T11:15:49.022688",
      "2022-06-07T11:15:49.612377",
      "2022-06-07T11:15:50.216782",
      "2022-06-07T11:15:50.842142",
      "2022-06-07T11:15:51.445592",
      "2022-06-07T11:15:52.007705",
      "2022-06-07T11:15:52.556898",
      "2022-06-07T11:15:53.107926",
      "2022-06-07T11:15:53.654323",
      "2022-06-07T11:15:54.211247",
      "2022-06-07T11:15:54.751350",
      "2022-06-07T11:15:55.338068",
      "2022-06-07T11:15:55.931401",
      "2022-06-07T11:15:56.543552",
      "2022-06-07T11:15:57.153748",
      "2022-06-07T11:15:57.734817",
      "2022-06-07T11:15:58.279798",
      "2022-06-07T11:15:58.852978",
      "2022-06-07T11:15:59.461370",
      "2022-06-07T11:16:00.052754",
      "2022-06-07T11:16:00.659087",
      "2022-06-07T11:16:01.239861",
      "2022-06-07T11:16:01.807437",
      "2022-06-07T11:16:02.387705",
      "2022-06-07T11:16:02.929390",
      "2022-06-07T11:16:03.477624",
      "2022-06-07T11:16:04.028106",
      "2022-06-07T11:16:04.615019",
      "2022-06-07T11:16:05.245579",
      "2022-06-07T11:16:05.852838",
      "2022-06-07T11:16:06.420752",
      "2022-06-07T11:16:07.044223",
      "2022-06-07T11:16:07.625093",
      "2022-06-07T11:16:08.214751",
      "2022-06-07T11:16:08.798175",
      "2022-06-07T11:16:09.399992",
      "2022-06-07T11:16:09.971272",
      "2022-06-07T11:16:10.617334",
      "2022-06-07T11:16:11.194800",
      "2022-06-07T11:16:11.777796",
      "2022-06-07T11:16:12.318011",
      "2022-06-07T11:16:12.871606",
      "2022-06-07T11:16:13.409764",
      "2022-06-07T11:16:14.005077",
      "2022-06-07T11:16:14.613017",
      "2022-06-07T11:16:15.203581",
      "2022-06-07T11:16:15.837120",
      "2022-06-07T11:16:16.434132",
      "2022-06-07T11:16:17.027049",
      "2022-06-07T11:16:17.595455",
      "2022-06-07T11:16:18.215607",
      "2022-06-07T11:16:18.813070",
      "2022-06-07T11:16:19.412127",
      "2022-06-07T11:16:19.997483",
      "2022-06-07T11:16:20.577099",
      "2022-06-07T11:16:21.119704",
      "2022-06-07T11:16:21.672499",
      "2022-06-07T11:16:22.229008",
      "2022-06-07T11:16:22.773008",
      "2022-06-07T11:16:23.381454",
      "2022-06-07T11:16:23.932889",
      "2022-06-07T11:16:24.497327",
      "2022-06-07T11:16:25.044449",
      "2022-06-07T11:16:25.645126",
      "2022-06-07T11:16:26.194039",
      "2022-06-07T11:16:26.791602",
      "2022-06-07T11:16:27.350042",
      "2022-06-07T11:16:27.903168",
      "2022-06-07T11:16:28.523839",
      "2022-06-07T11:16:29.076075",
      "2022-06-07T11:16:29.631026",
      "2022-06-07T11:16:30.184312",
      "2022-06-07T11:16:30.800646",
      "2022-06-07T11:16:31.370555",
      "2022-06-07T11:16:31.954969",
      "2022-06-07T11:16:32.506458",
      "2022-06-07T11:16:33.058057",
      "2022-06-07T11:16:33.610988",
      "2022-06-07T11:16:34.153877",
      "2022-06-07T11:16:34.702096",
      "2022-06-07T11:16:35.242028",
      "2022-06-07T11:16:35.776451",
      "2022-06-07T11:16:36.315556",
      "2022-06-07T11:16:36.862679",
      "2022-06-07T11:16:37.484548",
      "2022-06-07T11:16:38.116250",
      "2022-06-07T11:16:38.692150",
      "2022-06-07T11:16:39.300098",
      "2022-06-07T11:16:39.898737",
      "2022-06-07T11:16:40.469262",
      "2022-06-07T11:16:41.046263",
      "2022-06-07T11:16:41.593863",
      "2022-06-07T11:16:42.153416",
      "2022-06-07T11:16:42.705989",
      "2022-06-07T11:16:43.281939",
      "2022-06-07T11:16:43.822039",
      "2022-06-07T11:16:44.366938",
      "2022-06-07T11:16:44.898586",
      "2022-06-07T11:16:45.425228",
      "2022-06-07T11:16:45.955381",
      "2022-06-07T11:16:46.481915",
      "2022-06-07T11:16:47.013745",
      "2022-06-07T11:16:47.567440",
      "2022-06-07T11:16:48.109223",
      "2022-06-07T11:16:48.658729",
      "2022-06-07T11:16:49.192075",
      "2022-06-07T11:16:49.747859",
      "2022-06-07T11:16:50.319819",
      "2022-06-07T11:16:50.886503",
      "2022-06-07T11:16:51.416377",
      "2022-06-07T11:16:51.942657",
      "2022-06-07T11:16:52.484918",
      "2022-06-07T11:16:53.036466",
      "2022-06-07T11:16:53.604283",
      "2022-06-07T11:16:54.154280",
      "2022-06-07T11:16:54.695015",
      "2022-06-07T11:16:55.220454",
      "2022-06-07T11:16:55.757814",
      "2022-06-07T11:16:56.302293",
      "2022-06-07T11:16:56.842682",
      "2022-06-07T11:16:57.377894",
      "2022-06-07T11:16:57.933952",
      "2022-06-07T11:16:58.480780",
      "2022-06-07T11:16:59.091418",
      "2022-06-07T11:16:59.689884",
      "2022-06-07T11:17:00.300826",
      "2022-06-07T11:17:00.948051",
      "2022-06-07T11:17:01.540469",
      "2022-06-07T11:17:02.125022",
      "2022-06-07T11:17:02.724502",
      "2022-06-07T11:17:03.355936",
      "2022-06-07T11:17:03.972296",
      "2022-06-07T11:17:04.571562",
      "2022-06-07T11:17:05.168189",
      "2022-06-07T11:17:05.724339",
      "2022-06-07T11:17:06.266603",
      "2022-06-07T11:17:06.797394",
      "2022-06-07T11:17:07.333739",
      "2022-06-07T11:17:07.863198",
      "2022-06-07T11:17:08.399927",
      "2022-06-07T11:17:08.938020",
      "2022-06-07T11:17:09.486211",
      "2022-06-07T11:17:10.021788",
      "2022-06-07T11:17:10.609391",
      "2022-06-07T11:17:11.177321",
      "2022-06-07T11:17:11.738746",
      "2022-06-07T11:17:12.373773",
      "2022-06-07T11:17:12.918235",
      "2022-06-07T11:17:13.464829",
      "2022-06-07T11:17:14.023136",
      "2022-06-07T11:17:14.557984",
      "2022-06-07T11:17:15.111904",
      "2022-06-07T11:17:15.660861",
      "2022-06-07T11:17:16.224589",
      "2022-06-07T11:17:16.756525",
      "2022-06-07T11:17:17.288872",
      "2022-06-07T11:17:17.817842",
      "2022-06-07T11:17:18.353474",
      "2022-06-07T11:17:18.909423",
      "2022-06-07T11:17:19.530592",
      "2022-06-07T11:17:20.155067",
      "2022-06-07T11:17:20.774806",
      "2022-06-07T11:17:21.352879",
      "2022-06-07T11:17:21.969462",
      "2022-06-07T11:17:22.607562",
      "2022-06-07T11:17:23.204335",
      "2022-06-07T11:17:23.772728",
      "2022-06-07T11:17:24.320609",
      "2022-06-07T11:17:24.870129",
      "2022-06-07T11:17:25.415665",
      "2022-06-07T11:17:25.954485",
      "2022-06-07T11:17:26.495869",
      "2022-06-07T11:17:27.063986",
      "2022-06-07T11:17:27.641921",
      "2022-06-07T11:17:28.186713",
      "2022-06-07T11:17:28.744377",
      "2022-06-07T11:17:29.311799",
      "2022-06-07T11:17:29.876812",
      "2022-06-07T11:17:30.427049",
      "2022-06-07T11:17:30.990142",
      "2022-06-07T11:17:31.527334",
      "2022-06-07T11:17:32.145711",
      "2022-06-07T11:17:32.734137",
      "2022-06-07T11:17:33.351013",
      "2022-06-07T11:17:33.987362",
      "2022-06-07T11:17:34.599693",
      "2022-06-07T11:17:35.177606",
      "2022-06-07T11:17:35.730928",
      "2022-06-07T11:17:36.287072",
      "2022-06-07T11:17:36.821451",
      "2022-06-07T11:17:37.367676",
      "2022-06-07T11:17:37.905635",
      "2022-06-07T11:17:38.453367",
      "2022-06-07T11:17:39.029572",
      "2022-06-07T11:17:39.610178",
      "2022-06-07T11:17:40.195136",
      "2022-06-07T11:17:40.757823",
      "2022-06-07T11:17:41.342037",
      "2022-06-07T11:17:41.909443",
      "2022-06-07T11:17:42.499475",
      "2022-06-07T11:17:43.041483",
      "2022-06-07T11:17:43.632043",
      "2022-06-07T11:17:44.188159",
      "2022-06-07T11:17:44.723866",
      "2022-06-07T11:17:45.283571",
      "2022-06-07T11:17:45.889185",
      "2022-06-07T11:17:46.457702",
      "2022-06-07T11:17:47.052230",
      "2022-06-07T11:17:47.656723",
      "2022-06-07T11:17:48.246027",
      "2022-06-07T11:17:48.844056",
      "2022-06-07T11:17:49.412117",
      "2022-06-07T11:17:49.978546",
      "2022-06-07T11:17:50.552819",
      "2022-06-07T11:17:51.104329",
      "2022-06-07T11:17:51.667252",
      "2022-06-07T11:17:52.202116",
      "2022-06-07T11:17:52.736375",
      "2022-06-07T11:17:53.275333",
      "2022-06-07T11:17:53.818033",
      "2022-06-07T11:17:54.347624",
      "2022-06-07T11:17:54.904938",
      "2022-06-07T11:17:55.444269",
      "2022-06-07T11:17:56.004545",
      "2022-06-07T11:17:56.564556",
      "2022-06-07T11:17:57.113278",
      "2022-06-07T11:17:57.655082",
      "2022-06-07T11:17:58.195410",
      "2022-06-07T11:17:58.725818",
      "2022-06-07T11:17:59.293337",
      "2022-06-07T11:17:59.885175",
      "2022-06-07T11:18:00.474202",
      "2022-06-07T11:18:01.023090",
      "2022-06-07T11:18:01.565195",
      "2022-06-07T11:18:02.101411",
      "2022-06-07T11:18:02.656456",
      "2022-06-07T11:18:03.212052",
      "2022-06-07T11:18:03.762277",
      "2022-06-07T11:18:04.328227",
      "2022-06-07T11:18:04.910242",
      "2022-06-07T11:18:05.569122",
      "2022-06-07T11:18:06.154444",
      "2022-06-07T11:18:06.728453",
      "2022-06-07T11:18:07.361815",
      "2022-06-07T11:18:07.968077",
      "2022-06-07T11:18:08.516591",
      "2022-06-07T11:18:09.085918",
      "2022-06-07T11:18:09.629506",
      "2022-06-07T11:18:10.219796",
      "2022-06-07T11:18:10.798723",
      "2022-06-07T11:18:11.335316",
      "2022-06-07T11:18:11.888702",
      "2022-06-07T11:18:12.489810",
      "2022-06-07T11:18:13.066889",
      "2022-06-07T11:18:13.628508",
      "2022-06-07T11:18:14.228045",
      "2022-06-07T11:18:14.847405",
      "2022-06-07T11:18:15.434385",
      "2022-06-07T11:18:16.008469",
      "2022-06-07T11:18:16.575516",
      "2022-06-07T11:18:17.150231",
      "2022-06-07T11:18:17.697898",
      "2022-06-07T11:18:18.238729",
      "2022-06-07T11:18:18.842391",
      "2022-06-07T11:18:19.393200",
      "2022-06-07T11:18:19.956759",
      "2022-06-07T11:18:20.530904",
      "2022-06-07T11:18:21.117416",
      "2022-06-07T11:18:21.653928"
    ],
    "values": [
      10.16207856215018,
      9.864446142454764,
      9.80679640039564,
      9.755324052402466,
      9.734442303036177,
      9.722043722478201,
      9.714431575058798,
      9.707156254982378,
      9.703077947286635,
      9.696995902927858,
      9.690371547495348,
      9.695313845999129,
      9.689305102639374,
      9.693302975135369,
      9.68978214951865,
      9.68922462105537,
      9.68994660808954,
      9.687650224786886,
      9.68527440532584,
      9.683171856530754,
      9.679929004169495,
      9.680598407059634,
      9.686982501111286,
      9.681441122019601,
      9.678891715484017,
      9.683154585013863,
      9.681799591353052,
      9.67755865946247,
      9.683957464295062,
      9.676769805040898,
      9.68014587953837,
      9.681729868945775,
      9.677958336699831,
      9.676764653406698,
      9.677575218655452,
      9.675316760630935,
      9.674653115370592,
      9.676543322809012,
      9.677679436812726,
      9.679165286806517,
      9.676852313777218,
      9.673826782601646,
      9.678785234295225,
      9.677269892218163,
      9.675976610219385,
      9.680292836745435,
      9.674166753908558,
      9.671670930701277,
      9.677608678587209,
      9.67226938445043,
      9.675500680798422,
      9.673641090911334,
      9.670260162901073,
      9.675407170565721,
      9.672252639314353,
      9.673163254790744,
      9.675685970877495,
      9.667520253655518,
      9.677210434127625,
      9.667583889583767,
      9.67107907507405,
      9.671322396339798,
      9.669194522909173,
      9.67522210261258,
      9.672550102948582,
      9.665787672929355,
      9.676116704769585,
      9.672227429280724,
      9.668057910680243,
      9.670059674454066,
      9.67087535376279,
      9.664527649388749,
      9.66993729161029,
      9.673407022226208,
      9.668094577886619,
      9.670505582954382,
      9.67235475957162,
      9.666256902419876,
      9.667842956455738,
      9.668744369914842,
      9.667573123198652,
      9.668320718126708,
      9.670716115267384,
      9.666910379521289,
      9.670767190488863,
      9.664846262382305,
      9.671296166310794,
      9.666821824559431,
      9.667153755886426,
      9.66836907681009,
      9.668825796902718,
      9.668716463702319,
      9.661819994894357,
      9.667953874863594,
      9.668577099414348,
      9.668850619180365,
      9.666910589780995,
      9.662954813546019,
      9.667062617965536,
      9.67227289422939,
      9.66329827133976,
      9.66533844376157,
      9.666703242874798,
      9.667038577924938,
      9.663612681347155,
      9.66849083343281,
      9.660404419346118,
      9.666602526333033,
      9.663844432744016,
      9.670512893845032,
      9.66518475952169,
      9.666221960530097,
      9.665970094055108,
      9.662790132545124,
      9.666770769486863,
      9.669254936857671,
      9.661132815277554,
      9.662202770883361,
      9.660256329168718,
      9.667647506903881,
      9.662677736089845,
      9.665214029115237,
      9.664243097926542,
      9.661314131827556,
      9.666748130896993,
      9.6627760904647,
      9.658043000102621,
      9.661668705845987,
      9.665111684441014,
      9.661533499840166,
      9.666322934063707,
      9.663603600849035,
      9.661964496089718,
      9.666509504971811,
      9.667525113312314,
      9.660063350755907,
      9.664323662694674,
      9.660489117965247,
      9.659583056576816,
      9.663378905489134,
      9.666442233919842,
      9.66108521252669,
      9.661932345163887,
      9.665377005995865,
      9.665251918668604,
      9.663620529988913,
      9.66387433040332,
      9.661128874503012,
      9.669077582330035,
      9.64977238353244,
      9.646321430908477,
      9.643975111021053,
      9.641511858744055,
      9.640673531375144,
      9.639325417224505,
      9.64052583078179,
      9.638719049865898,
      9.639671855380188,
      9.640180487686909,
      9.638442984251142,
      9.639230852653647,
      9.639277512189617,
      9.640595877273618,
      9.639640745554892,
      9.639919367573746,
      9.639627779150432,
      9.639772429374439,
      9.639622525597622,
      9.640901827215293,
      9.639022691489595,
      9.639913727459374,
      9.640192631878527,
      9.639904931694517,
      9.639719938458708,
      9.637311965801114,
      9.640661675572575,
      9.639996267597388,
      9.639485078562407,
      9.640191985084833,
      9.639165307308106,
      9.638680961907543,
      9.640951407203255,
      9.638992606593003,
      9.640789422290686,
      9.640151266408473,
      9.639563197393233,
      9.640556329359528,
      9.638855531231057,
      9.640218373184059,
      9.638863217487234,
      9.640992265554289,
      9.638605301401707,
      9.639263194302183,
      9.639300353764853,
      9.640767607209462,
      9.63997090516374,
      9.64045584085612,
      9.638039872277364,
      9.637074249817685,
      9.637766380867596,
      9.636388008361408,
      9.635436192783947,
      9.63625359460438,
      9.636040456733559,
      9.636420349833106,
      9.636078892260462,
      9.635811015916824,
      9.63562406130573,
      9.636121530465761,
      9.636786703481267,
      9.635904539421782,
      9.6362685194066,
      9.635872915220869,
      9.635846659694275,
      9.635237226812306,
      9.636940603274098,
      9.635909521515757,
      9.635934657562244,
      9.635757187072885,
      9.636008130887966,
      9.636332202399112,
      9.635910104292472,
      9.6357538185661,
      9.636445260878277,
      9.637227998389454,
      9.636728182434416,
      9.636322323673944,
      9.636071133430157,
      9.63600825207234,
      9.635972964967296,
      9.635886529158997,
      9.635781968481336,
      9.635771909083303,
      9.63574066987602,
      9.635639752968347,
      9.635704438847448,
      9.635690628786207,
      9.635721456988808,
      9.635753943864382,
      9.635657582761564,
      9.63544981390542,
      9.63550437303463,
      9.635824470153871,
      9.63595728578829,
      9.635857612086102,
      9.635849662810134,
      9.635827203957609,
      9.635835187983927,
      9.635926878103206,
      9.636063457256773,
      9.63611753959771,
      9.636101451471157,
      9.636065028690673,
      9.636025385537604,
      9.635987122085071,
      9.635951334509206,
      9.63591831289522,
      9.635888127307009,
      9.635861963394792,
      9.635840110740148,
      9.635822741169557,
      9.635810307615147,
      9.63580248823913,
      9.63579853339135,
      9.635797208971212,
      9.635797050616024,
      9.63579587247043,
      9.635790415652965,
      9.63577966248796,
      9.635764062211907,
      9.635743765593046,
      9.635720651161,
      9.635694704559745,
      9.63566664248004,
      9.635637133951981,
      9.635607440139873,
      9.635579767849139,
      9.635561087173906,
      9.635570575480918,
      9.635642902442346,
      9.635758257915247,
      9.635827876095407,
      9.635840405947462,
      9.635831920279944,
      9.635816544542813,
      9.635799652753873,
      9.635782438465483,
      9.635765560421493,
      9.635748454650523,
      9.63573164352097,
      9.635715548134291,
      9.63569946498141,
      9.635684148259061,
      9.635670399840679,
      9.635659055337133,
      9.635653005425105,
      9.635655007727173,
      9.635671895350521,
      9.635698293313991,
      9.635719777928704,
      9.635722698268179,
      9.635704873516133,
      9.635676111038409,
      9.63564511654171,
      9.635617172416563,
      9.635596903654358,
      9.635588506846155,
      9.635592173004731,
      9.635601729318562,
      9.635609862376064,
      9.635611835668131,
      9.635606556771602,
      9.635595456223479,
      9.635579282103167,
      9.6355608613779,
      9.635546176287143,
      9.635546693679098,
      9.635588742416942,
      9.63566894896351,
      9.635736443649208,
      9.635761549771749,
      9.63576269741571,
      9.635755604210786,
      9.635748050233602,
      9.635743482962654,
      9.635742249410663,
      9.635742989186385,
      9.635741836224675,
      9.63573491171597,
      9.635721428844302,
      9.63570339596927,
      9.635684597226248,
      9.635668294318226,
      9.635655338539388,
      9.635646026254925,
      9.635637397214504,
      9.63563004328951,
      9.635624125051146,
      9.635619345954888,
      9.635615560747588,
      9.635617640170139,
      9.635642253331,
      9.635711479638353,
      9.635805424435727,
      9.63585600539308,
      9.635857575634539,
      9.635838731856419,
      9.635814235492353,
      9.635789878778157,
      9.63576708728789,
      9.635746146421656,
      9.635727522833815,
      9.635711229191113,
      9.635696779288326,
      9.635683426719906,
      9.635671438972743,
      9.635661176081737,
      9.635652504666414,
      9.635646739235419,
      9.635644671281504,
      9.635647534495398,
      9.635656176041037,
      9.635667822251893,
      9.63567944626652,
      9.635686415193282,
      9.63568881034913,
      9.635685366485633,
      9.635675770194949,
      9.63565876894722,
      9.635634934655398,
      9.635605185099017,
      9.635571802914363,
      9.63553934777396,
      9.635511003329704,
      9.635493591152954,
      9.635490081664235,
      9.635495747076115,
      9.635496621416667,
      9.635491613191002,
      9.635504466042008,
      9.635580551452234,
      9.635697778140607,
      9.635759527514118,
      9.63576704483015,
      9.635758118076486,
      9.635749616631701,
      9.635748279105663,
      9.635754638062616,
      9.635764580481478,
      9.635774196721435,
      9.635780524695102,
      9.63578210736221,
      9.635778943873818,
      9.635771131588546,
      9.635760201120005,
      9.63574735792057,
      9.635734087959495,
      9.635721537869447,
      9.635711237547078,
      9.635703924681238
    ]
  },
  "val": {
    "steps": [
      0,
      1,
      2,
      3,
      4,
      5,
      6,
      7,
      8,
      9,
      10,
      11,
      12,
      13,
      14,
      15,
      16,
      17,
      18,
      19,
      20,
      21,
      22,
      23,
      24,
      25,
      26,
      27,
      28,
      29,
      30,
      31,
      32,
      33,
      34,
      35,
      36,
      37,
      38,
      39,
      40,
      41,
      42,
      43,
      44,
      45,
      46,
      47,
      48,
      49,
      50,
      51,
      52,
      53,
      54,
      55,
      56,
      57,
      58,
      59,
      60,
      61,
      62,
      63,
      64,
      65,
      66,
      67,
      68,
      69,
      70,
      71,
      72,
      73,
      74,
      75,
      76,
      77,
      78,
      79,
      80,
      81,
      82,
      83,
      84,
      85,
      86,
      87,
      88,
      89,
      90,
      91,
      92,
      93,
      94,
      95,
      96,
      97,
      98,
      99,
      100,
      101,
      102,
      103,
      104,
      105,
      106,
      107,
      108,
      109,
      110,
      111,
      112,
      113,
      114,
      115,
      116,
      117,
      118,
      119,
      120,
      121,
      122,
      123,
      124,
      125,
      126,
      127,
      128,
      129,
      130,
      131,
      132,
      133,
      134,
      135,
      136,
      137,
      138,
      139,
      140,
      141,
      142,
      143,
      144,
      145,
      146,
      147,
      148,
      149,
      150,
      151,
      152,
      153,
      154,
      155,
      156,
      157,
      158,
      159,
      160,
      161,
      162,
      163,
      164,
      165,
      166,
      167,
      168,
      169,
      170,
      171,
      172,
      173,
      174,
      175,
      176,
      177,
      178,
      179,
      180,
      181,
      182,
      183,
      184,
      185,
      186,
      187,
      188,
      189,
      190,
      191,
      192,
      193,
      194,
      195,
      196,
      197,
      198,
      199,
      200,
      201,
      202,
      203,
      204,
      205,
      206,
      207,
      208,
      209,
      210,
      211,
      212,
      213,
      214,
      215,
      216,
      217,
      218,
      219,
      220,
      221,
      222,
      223,
      224,
      225,
      226,
      227,
      228,
      229,
      230,
      231,
      232,
      233,
      234,
      235,
      236,
      237,
      238,
      239,
      240,
      241,
      242,
      243,
      244,
      245,
      246,
      247,
      248,
      249,
      250,
      251,
      252,
      253,
      254,
      255,
      256,
      257,
      258,
      259,
      260,
      261,
      262,
      263,
      264,
      265,
      266,
      267,
      268,
      269,
      270,
      271,
      272,
      273,
      274,
      275,
      276,
      277,
      278,
      279,
      280,
      281,
      282,
      283,
      284,
      285,
      286,
      287,
      288,
      289,
      290,
      291,
      292,
      293,
      294,
      295,
      296,
      297,
      298,
      299,
      300,
      301,
      302,
      303,
      304,
      305,
      306,
      307,
      308,
      309,
      310,
      311,
      312,
      313,
      314,
      315,
      316,
      317,
      318,
      319,
      320,
      321,
      322,
      323,
      324,
      325,
      326,
      327,
      328,
      329,
      330,
      331,
      332,
      333,
      334,
      335,
      336,
      337,
      338,
      339,
      340,
      341,
      342,
      343,
      344,
      345,
      346,
      347,
      348,
      349,
      350,
      351,
      352,
      353,
      354,
      355,
      356,
      357,
      358,
      359,
      360,
      361,
      362,
      363,
      364,
      365,
      366,
      367,
      368,
      369,
      370,
      371,
      372,
      373,
      374,
      375,
      376,
      377,
      378,
      379,
      380,
      381,
      382,
      383,
      384,
      385,
      386,
      387,
      388,
      389,
      390,
      391,
      392,
      393,
      394,
      395,
      396,
      397,
      398,
      399
    ],
    "timestamps": [
      "2022-06-07T11:14:34.758826",
      "2022-06-07T11:14:35.322475",
      "2022-06-07T11:14:35.930146",
      "2022-06-07T11:14:36.517186",
      "2022-06-07T11:14:37.107284",
      "2022-06-07T11:14:37.696764",
      "2022-06-07T11:14:38.288396",
      "2022-06-07T11:14:38.888520",
      "2022-06-07T11:14:39.494412",
      "2022-06-07T11:14:40.084655",
      "2022-06-07T11:14:40.661161",
      "2022-06-07T11:14:41.241937",
      "2022-06-07T11:14:41.806870",
      "2022-06-07T11:14:42.380710",
      "2022-06-07T11:14:42.964509",
      "2022-06-07T11:14:43.550070",
      "2022-06-07T11:14:44.144888",
      "2022-06-07T11:14:44.745899",
      "2022-06-07T11:14:45.346613",
      "2022-06-07T11:14:45.901330",
      "2022-06-07T11:14:46.464004",
      "2022-06-07T11:14:47.002456",
      "2022-06-07T11:14:47.558625",
      "2022-06-07T11:14:48.105880",
      "2022-06-07T11:14:48.659079",
      "2022-06-07T11:14:49.190651",
      "2022-06-07T11:14:49.724593",
      "2022-06-07T11:14:50.263961",
      "2022-06-07T11:14:50.825969",
      "2022-06-07T11:14:51.358661",
      "2022-06-07T11:14:51.893268",
      "2022-06-07T11:14:52.423688",
      "2022-06-07T11:14:52.957949",
      "2022-06-07T11:14:53.489923",
      "2022-06-07T11:14:54.026256",
      "2022-06-07T11:14:54.556497",
      "2022-06-07T11:14:55.105261",
      "2022-06-07T11:14:55.643671",
      "2022-06-07T11:14:56.184321",
      "2022-06-07T11:14:56.721336",
      "2022-06-07T11:14:57.264773",
      "2022-06-07T11:14:57.798122",
      "2022-06-07T11:14:58.333102",
      "2022-06-07T11:14:58.865655",
      "2022-06-07T11:14:59.409168",
      "2022-06-07T11:14:59.984564",
      "2022-06-07T11:15:00.576172",
      "2022-06-07T11:15:01.194734",
      "2022-06-07T11:15:01.802441",
      "2022-06-07T11:15:02.362548",
      "2022-06-07T11:15:02.896423",
      "2022-06-07T11:15:03.444628",
      "2022-06-07T11:15:04.023024",
      "2022-06-07T11:15:04.645881",
      "2022-06-07T11:15:05.233595",
      "2022-06-07T11:15:05.829221",
      "2022-06-07T11:15:06.381880",
      "2022-06-07T11:15:06.946679",
      "2022-06-07T11:15:07.522794",
      "2022-06-07T11:15:08.064074",
      "2022-06-07T11:15:08.619490",
      "2022-06-07T11:15:09.190127",
      "2022-06-07T11:15:09.734773",
      "2022-06-07T11:15:10.304722",
      "2022-06-07T11:15:10.871728",
      "2022-06-07T11:15:11.413996",
      "2022-06-07T11:15:11.959857",
      "2022-06-07T11:15:12.494683",
      "2022-06-07T11:15:13.089076",
      "2022-06-07T11:15:13.683139",
      "2022-06-07T11:15:14.260698",
      "2022-06-07T11:15:14.857136",
      "2022-06-07T11:15:15.425476",
      "2022-06-07T11:15:16.003138",
      "2022-06-07T11:15:16.622414",
      "2022-06-07T11:15:17.202802",
      "2022-06-07T11:15:17.808903",
      "2022-06-07T11:15:18.412432",
      "2022-06-07T11:15:18.986807",
      "2022-06-07T11:15:19.534826",
      "2022-06-07T11:15:20.129193",
      "2022-06-07T11:15:20.731222",
      "2022-06-07T11:15:21.274324",
      "2022-06-07T11:15:21.811276",
      "2022-06-07T11:15:22.349939",
      "2022-06-07T11:15:22.881904",
      "2022-06-07T11:15:23.425118",
      "2022-06-07T11:15:23.955464",
      "2022-06-07T11:15:24.500586",
      "2022-06-07T11:15:25.051432",
      "2022-06-07T11:15:25.678336",
      "2022-06-07T11:15:26.284276",
      "2022-06-07T11:15:26.861594",
      "2022-06-07T11:15:27.394389",
      "2022-06-07T11:15:27.962266",
      "2022-06-07T11:15:28.504412",
      "2022-06-07T11:15:29.052516",
      "2022-06-07T11:15:29.581600",
      "2022-06-07T11:15:30.153777",
      "2022-06-07T11:15:30.700845",
      "2022-06-07T11:15:31.249474",
      "2022-06-07T11:15:31.780188",
      "2022-06-07T11:15:32.310294",
      "2022-06-07T11:15:32.867832",
      "2022-06-07T11:15:33.403603",
      "2022-06-07T11:15:33.997627",
      "2022-06-07T11:15:34.617571",
      "2022-06-07T11:15:35.167086",
      "2022-06-07T11:15:35.766974",
      "2022-06-07T11:15:36.352348",
      "2022-06-07T11:15:36.916417",
      "2022-06-07T11:15:37.476429",
      "2022-06-07T11:15:38.084909",
      "2022-06-07T11:15:38.662209",
      "2022-06-07T11:15:39.261990",
      "2022-06-07T11:15:39.858483",
      "2022-06-07T11:15:40.462001",
      "2022-06-07T11:15:41.007511",
      "2022-06-07T11:15:41.567892",
      "2022-06-07T11:15:42.112515",
      "2022-06-07T11:15:42.648364",
      "2022-06-07T11:15:43.267434",
      "2022-06-07T11:15:43.866448",
      "2022-06-07T11:15:44.452484",
      "2022-06-07T11:15:45.064759",
      "2022-06-07T11:15:45.659637",
      "2022-06-07T11:15:46.256714",
      "2022-06-07T11:15:46.818681",
      "2022-06-07T11:15:47.380605",
      "2022-06-07T11:15:47.925682",
      "2022-06-07T11:15:48.505297",
      "2022-06-07T11:15:49.093046",
      "2022-06-07T11:15:49.681835",
      "2022-06-07T11:15:50.287671",
      "2022-06-07T11:15:50.915111",
      "2022-06-07T11:15:51.513632",
      "2022-06-07T11:15:52.075236",
      "2022-06-07T11:15:52.625011",
      "2022-06-07T11:15:53.175442",
      "2022-06-07T11:15:53.723087",
      "2022-06-07T11:15:54.278387",
      "2022-06-07T11:15:54.821039",
      "2022-06-07T11:15:55.407605",
      "2022-06-07T11:15:56.002627",
      "2022-06-07T11:15:56.618346",
      "2022-06-07T11:15:57.226483",
      "2022-06-07T11:15:57.802467",
      "2022-06-07T11:15:58.349340",
      "2022-06-07T11:15:58.930215",
      "2022-06-07T11:15:59.531026",
      "2022-06-07T11:16:00.132237",
      "2022-06-07T11:16:00.733934",
      "2022-06-07T11:16:01.313513",
      "2022-06-07T11:16:01.880443",
      "2022-06-07T11:16:02.457078",
      "2022-06-07T11:16:02.996773",
      "2022-06-07T11:16:03.545535",
      "2022-06-07T11:16:04.105998",
      "2022-06-07T11:16:04.689246",
      "2022-06-07T11:16:05.314413",
      "2022-06-07T11:16:05.921575",
      "2022-06-07T11:16:06.492405",
      "2022-06-07T11:16:07.116300",
      "2022-06-07T11:16:07.697217",
      "2022-06-07T11:16:08.287993",
      "2022-06-07T11:16:08.870924",
      "2022-06-07T11:16:09.472241",
      "2022-06-07T11:16:10.045549",
      "2022-06-07T11:16:10.692674",
      "2022-06-07T11:16:11.263018",
      "2022-06-07T11:16:11.846014",
      "2022-06-07T11:16:12.385254",
      "2022-06-07T11:16:12.938990",
      "2022-06-07T11:16:13.477101",
      "2022-06-07T11:16:14.079442",
      "2022-06-07T11:16:14.689596",
      "2022-06-07T11:16:15.274881",
      "2022-06-07T11:16:15.913307",
      "2022-06-07T11:16:16.508411",
      "2022-06-07T11:16:17.099195",
      "2022-06-07T11:16:17.671433",
      "2022-06-07T11:16:18.286359",
      "2022-06-07T11:16:18.884390",
      "2022-06-07T11:16:19.483681",
      "2022-06-07T11:16:20.069352",
      "2022-06-07T11:16:20.648729",
      "2022-06-07T11:16:21.188144",
      "2022-06-07T11:16:21.739904",
      "2022-06-07T11:16:22.298009",
      "2022-06-07T11:16:22.853025",
      "2022-06-07T11:16:23.455207",
      "2022-06-07T11:16:24.000310",
      "2022-06-07T11:16:24.565848",
      "2022-06-07T11:16:25.113043",
      "2022-06-07T11:16:25.712242",
      "2022-06-07T11:16:26.267759",
      "2022-06-07T11:16:26.865316",
      "2022-06-07T11:16:27.418892",
      "2022-06-07T11:16:27.974430",
      "2022-06-07T11:16:28.591122",
      "2022-06-07T11:16:29.145587",
      "2022-06-07T11:16:29.700185",
      "2022-06-07T11:16:30.267760",
      "2022-06-07T11:16:30.871006",
      "2022-06-07T11:16:31.438325",
      "2022-06-07T11:16:32.022779",
      "2022-06-07T11:16:32.588464",
      "2022-06-07T11:16:33.131912",
      "2022-06-07T11:16:33.678045",
      "2022-06-07T11:16:34.221389",
      "2022-06-07T11:16:34.769548",
      "2022-06-07T11:16:35.309122",
      "2022-06-07T11:16:35.843793",
      "2022-06-07T11:16:36.384820",
      "2022-06-07T11:16:36.930016",
      "2022-06-07T11:16:37.562309",
      "2022-06-07T11:16:38.189772",
      "2022-06-07T11:16:38.760373",
      "2022-06-07T11:16:39.375407",
      "2022-06-07T11:16:39.966916",
      "2022-06-07T11:16:40.538219",
      "2022-06-07T11:16:41.113553",
      "2022-06-07T11:16:41.660889",
      "2022-06-07T11:16:42.220717",
      "2022-06-07T11:16:42.772912",
      "2022-06-07T11:16:43.354598",
      "2022-06-07T11:16:43.889073",
      "2022-06-07T11:16:44.434086",
      "2022-06-07T11:16:44.965673",
      "2022-06-07T11:16:45.492301",
      "2022-06-07T11:16:46.022624",
      "2022-06-07T11:16:46.548921",
      "2022-06-07T11:16:47.080856",
      "2022-06-07T11:16:47.634793",
      "2022-06-07T11:16:48.176333",
      "2022-06-07T11:16:48.725780",
      "2022-06-07T11:16:49.259183",
      "2022-06-07T11:16:49.814892",
      "2022-06-07T11:16:50.389090",
      "2022-06-07T11:16:50.953642",
      "2022-06-07T11:16:51.483549",
      "2022-06-07T11:16:52.009904",
      "2022-06-07T11:16:52.556677",
      "2022-06-07T11:16:53.115038",
      "2022-06-07T11:16:53.671507",
      "2022-06-07T11:16:54.221445",
      "2022-06-07T11:16:54.762029",
      "2022-06-07T11:16:55.287681",
      "2022-06-07T11:16:55.826975",
      "2022-06-07T11:16:56.370083",
      "2022-06-07T11:16:56.910210",
      "2022-06-07T11:16:57.445067",
      "2022-06-07T11:16:58.001908",
      "2022-06-07T11:16:58.547697",
      "2022-06-07T11:16:59.165629",
      "2022-06-07T11:16:59.761099",
      "2022-06-07T11:17:00.381082",
      "2022-06-07T11:17:01.025694",
      "2022-06-07T11:17:01.611091",
      "2022-06-07T11:17:02.201376",
      "2022-06-07T11:17:02.795348",
      "2022-06-07T11:17:03.432052",
      "2022-06-07T11:17:04.047896",
      "2022-06-07T11:17:04.646753",
      "2022-06-07T11:17:05.235378",
      "2022-06-07T11:17:05.794006",
      "2022-06-07T11:17:06.333910",
      "2022-06-07T11:17:06.864848",
      "2022-06-07T11:17:07.402522",
      "2022-06-07T11:17:07.932482",
      "2022-06-07T11:17:08.467383",
      "2022-06-07T11:17:09.009568",
      "2022-06-07T11:17:09.554093",
      "2022-06-07T11:17:10.092401",
      "2022-06-07T11:17:10.685684",
      "2022-06-07T11:17:11.244656",
      "2022-06-07T11:17:11.812342",
      "2022-06-07T11:17:12.444900",
      "2022-06-07T11:17:12.986385",
      "2022-06-07T11:17:13.532866",
      "2022-06-07T11:17:14.095403",
      "2022-06-07T11:17:14.625036",
      "2022-06-07T11:17:15.179407",
      "2022-06-07T11:17:15.734693",
      "2022-06-07T11:17:16.292332",
      "2022-06-07T11:17:16.823467",
      "2022-06-07T11:17:17.355661",
      "2022-06-07T11:17:17.885129",
      "2022-06-07T11:17:18.421941",
      "2022-06-07T11:17:18.983872",
      "2022-06-07T11:17:19.604417",
      "2022-06-07T11:17:20.234713",
      "2022-06-07T11:17:20.846107",
      "2022-06-07T11:17:21.424896",
      "2022-06-07T11:17:22.079740",
      "2022-06-07T11:17:22.679938",
      "2022-06-07T11:17:23.272719",
      "2022-06-07T11:17:23.842730",
      "2022-06-07T11:17:24.388138",
      "2022-06-07T11:17:24.939763",
      "2022-06-07T11:17:25.485469",
      "2022-06-07T11:17:26.021812",
      "2022-06-07T11:17:26.569690",
      "2022-06-07T11:17:27.136498",
      "2022-06-07T11:17:27.709249",
      "2022-06-07T11:17:28.255829",
      "2022-06-07T11:17:28.815018",
      "2022-06-07T11:17:29.381765",
      "2022-06-07T11:17:29.945065",
      "2022-06-07T11:17:30.500465",
      "2022-06-07T11:17:31.059687",
      "2022-06-07T11:17:31.598917",
      "2022-06-07T11:17:32.215883",
      "2022-06-07T11:17:32.804064",
      "2022-06-07T11:17:33.423123",
      "2022-06-07T11:17:34.062855",
      "2022-06-07T11:17:34.672445",
      "2022-06-07T11:17:35.244696",
      "2022-06-07T11:17:35.798196",
      "2022-06-07T11:17:36.354583",
      "2022-06-07T11:17:36.888621",
      "2022-06-07T11:17:37.436227",
      "2022-06-07T11:17:37.973071",
      "2022-06-07T11:17:38.529178",
      "2022-06-07T11:17:39.097430",
      "2022-06-07T11:17:39.682452",
      "2022-06-07T11:17:40.267988",
      "2022-06-07T11:17:40.834966",
      "2022-06-07T11:17:41.410960",
      "2022-06-07T11:17:41.991899",
      "2022-06-07T11:17:42.569572",
      "2022-06-07T11:17:43.113303",
      "2022-06-07T11:17:43.703169",
      "2022-06-07T11:17:44.255290",
      "2022-06-07T11:17:44.791168",
      "2022-06-07T11:17:45.355783",
      "2022-06-07T11:17:45.957475",
      "2022-06-07T11:17:46.533396",
      "2022-06-07T11:17:47.124986",
      "2022-06-07T11:17:47.739005",
      "2022-06-07T11:17:48.320057",
      "2022-06-07T11:17:48.918228",
      "2022-06-07T11:17:49.479954",
      "2022-06-07T11:17:50.048554",
      "2022-06-07T11:17:50.620132",
      "2022-06-07T11:17:51.177769",
      "2022-06-07T11:17:51.734598",
      "2022-06-07T11:17:52.269395",
      "2022-06-07T11:17:52.803609",
      "2022-06-07T11:17:53.343194",
      "2022-06-07T11:17:53.885120",
      "2022-06-07T11:17:54.416816",
      "2022-06-07T11:17:54.973179",
      "2022-06-07T11:17:55.512990",
      "2022-06-07T11:17:56.073823",
      "2022-06-07T11:17:56.632374",
      "2022-06-07T11:17:57.180651",
      "2022-06-07T11:17:57.722728",
      "2022-06-07T11:17:58.262345",
      "2022-06-07T11:17:58.793092",
      "2022-06-07T11:17:59.363457",
      "2022-06-07T11:17:59.959410",
      "2022-06-07T11:18:00.547401",
      "2022-06-07T11:18:01.090431",
      "2022-06-07T11:18:01.632517",
      "2022-06-07T11:18:02.170514",
      "2022-06-07T11:18:02.724688",
      "2022-06-07T11:18:03.284521",
      "2022-06-07T11:18:03.829810",
      "2022-06-07T11:18:04.402844",
      "2022-06-07T11:18:04.998655",
      "2022-06-07T11:18:05.641513",
      "2022-06-07T11:18:06.223095",
      "2022-06-07T11:18:06.802162",
      "2022-06-07T11:18:07.448987",
      "2022-06-07T11:18:08.036716",
      "2022-06-07T11:18:08.585516",
      "2022-06-07T11:18:09.154132",
      "2022-06-07T11:18:09.704919",
      "2022-06-07T11:18:10.299194",
      "2022-06-07T11:18:10.865832",
      "2022-06-07T11:18:11.402690",
      "2022-06-07T11:18:11.959895",
      "2022-06-07T11:18:12.560435",
      "2022-06-07T11:18:13.136452",
      "2022-06-07T11:18:13.699154",
      "2022-06-07T11:18:14.303801",
      "2022-06-07T11:18:14.918070",
      "2022-06-07T11:18:15.509139",
      "2022-06-07T11:18:16.078064",
      "2022-06-07T11:18:16.643328",
      "2022-06-07T11:18:17.217358",
      "2022-06-07T11:18:17.766671",
      "2022-06-07T11:18:18.306853",
      "2022-06-07T11:18:18.910730",
      "2022-06-07T11:18:19.460735",
      "2022-06-07T11:18:20.026072",
      "2022-06-07T11:18:20.598534",
      "2022-06-07T11:18:21.188555",
      "2022-06-07T11:18:21.722806"
    ],
    "values": [
      9.895630712444158,
      9.899965930720194,
      9.800169440850395,
      9.766390738615986,
      9.762226291818317,
      9.690963796920794,
      9.735808815424615,
      9.743098504070886,
      9.695979432648805,
      9.696131409061275,
      9.736412498992832,
      9.713542214229841,
      9.687127020975636,
      9.712877786362311,
      9.707158838046057,
      9.650693852242547,
      9.719777015374767,
      9.6927888235908,
      9.699372422231644,
      9.697519108776861,
      9.704827565395867,
      9.6816181945469,
      9.707201883898813,
      9.646679441292402,
      9.675329325512159,
      9.690371852388774,
      9.656477836395077,
      9.696546456361547,
      9.68356552337192,
      9.681409757730066,
      9.70634929310011,
      9.701661921706098,
      9.701698150538853,
      9.6909973042859,
      9.70757782295597,
      9.69902420523431,
      9.687429810586673,
      9.716786243488727,
      9.651310102472394,
      9.722910969408769,
      9.699909474036637,
      9.695582036396218,
      9.69963333729034,
      9.6753157355422,
      9.704502895477027,
      9.67528608369813,
      9.67898720045316,
      9.686414750473523,
      9.678149921290126,
      9.686774896878894,
      9.687504454866021,
      9.661135153028287,
      9.678265768877868,
      9.70605347438689,
      9.674732975794612,
      9.671201535602593,
      9.709708244420188,
      9.732136710592817,
      9.69184045904638,
      9.691797033353163,
      9.674471972422651,
      9.661970085064905,
      9.672629518328556,
      9.692592949872896,
      9.676587736248887,
      9.6871284586839,
      9.69375141444536,
      9.682599631618654,
      9.658885158840441,
      9.654207271332156,
      9.670068318240878,
      9.65137529743616,
      9.688917964584455,
      9.672570032779783,
      9.699488859411137,
      9.684869342754018,
      9.674288260366689,
      9.70016478471808,
      9.69545449846128,
      9.671552783647689,
      9.703638403119676,
      9.701090718008018,
      9.683558151903714,
      9.69261516370689,
      9.693947031075709,
      9.6688849302381,
      9.685994302600824,
      9.692084271106838,
      9.635629032980036,
      9.662948290013471,
      9.690172086607063,
      9.666940630006895,
      9.683875659846988,
      9.65297635488863,
      9.665235321902975,
      9.674587372512429,
      9.680418857348453,
      9.654803359162878,
      9.689872473770881,
      9.670990746267428,
      9.701105272402009,
      9.678229752575218,
      9.671828092432651,
      9.670766807011674,
      9.68279572422919,
      9.673790365926854,
      9.68373142281509,
      9.662090597465092,
      9.658945927844881,
      9.695547045970335,
      9.700762706544475,
      9.679071419120472,
      9.679559166401523,
      9.663717747534083,
      9.702813205071292,
      9.66839037171056,
      9.685462425381825,
      9.677973116326829,
      9.675356595143732,
      9.665318955734204,
      9.668162786008766,
      9.694929944993872,
      9.67290868561967,
      9.662704362717003,
      9.658851201302998,
      9.664592872326548,
      9.67555643388743,
      9.65950712205405,
      9.687761452588635,
      9.686140227354262,
      9.654326268991676,
      9.685802213820585,
      9.693724403357622,
      9.701834960249007,
      9.691363162140911,
      9.704413710744477,
      9.655851714276794,
      9.673259534854276,
      9.675713141882092,
      9.68985633358512,
      9.67585683358886,
      9.671487512526118,
      9.68933882427011,
      9.66681043745688,
      9.679550452363877,
      9.658470843154985,
      9.691425620807156,
      9.701637745681744,
      9.66169246905124,
      9.661393820318354,
      9.654314797494312,
      9.65729485130845,
      9.653932395474506,
      9.655868460772064,
      9.651900196323407,
      9.649931421007691,
      9.655280274972313,
      9.654725824674308,
      9.656014093392606,
      9.651031716720103,
      9.65407722104369,
      9.654331443989335,
      9.65273717656496,
      9.659057834064289,
      9.64920752018928,
      9.657344851188755,
      9.652887415002764,
      9.657975263118635,
      9.650498059533527,
      9.658766306192208,
      9.651678374895313,
      9.661043770204534,
      9.651798366237653,
      9.654416972300636,
      9.65505191010073,
      9.647663349235637,
      9.652864597887799,
      9.65242518565591,
      9.655076371076866,
      9.651058629866366,
      9.65556800790801,
      9.649703012769784,
      9.659226897601657,
      9.656687393018276,
      9.65450438840678,
      9.649411251800428,
      9.651683296418074,
      9.652346966411834,
      9.651439962742852,
      9.656516154312436,
      9.652590927679432,
      9.658126382637933,
      9.65268775359379,
      9.649776540775976,
      9.648897562274504,
      9.651363220556242,
      9.653934317520736,
      9.649116857508472,
      9.651871139497393,
      9.650443926621609,
      9.649300571152327,
      9.650177456192568,
      9.648364777004248,
      9.650393630184318,
      9.649882463515665,
      9.648653094536979,
      9.649018214984737,
      9.64965117852932,
      9.650248464078363,
      9.64992174430067,
      9.650282981578163,
      9.649209725439908,
      9.648735219363179,
      9.649833574168992,
      9.649622261081294,
      9.649813193653644,
      9.649635603099886,
      9.649993304233766,
      9.650068112093203,
      9.649048568625473,
      9.649139377574542,
      9.650471511935557,
      9.648734346600746,
      9.650927430947752,
      9.650466380728702,
      9.6500319256996,
      9.649693753127861,
      9.649556047953036,
      9.64954843953076,
      9.649493854518107,
      9.649394472711474,
      9.649335892690427,
      9.64936439949135,
      9.649249424897357,
      9.649225978043374,
      9.64927133008182,
      9.64925031056622,
      9.649313535150917,
      9.649297150641381,
      9.649118394865456,
      9.648966754163446,
      9.649235900403745,
      9.649530916886324,
      9.649444271853564,
      9.64946091508466,
      9.649439879924078,
      9.649425874618656,
      9.649468253311861,
      9.649604706190699,
      9.649713191064887,
      9.649720630720134,
      9.649690598409267,
      9.649650305219545,
      9.64961201974997,
      9.649574788784301,
      9.649541039292238,
      9.64950974978553,
      9.64948077460063,
      9.649457308798315,
      9.649436336594638,
      9.649422319784588,
      9.64941179538786,
      9.649405951945942,
      9.649404248589343,
      9.649404908563804,
      9.649404764220169,
      9.64940305014182,
      9.64939568038347,
      9.649383990149556,
      9.649365988900511,
      9.649344509126673,
      9.649320978494426,
      9.649295075034651,
      9.649265351336382,
      9.64923537350072,
      9.64920496327419,
      9.64917916315409,
      9.649168051230202,
      9.649201157649403,
      9.649305005167925,
      9.6494044899072,
      9.649439032554794,
      9.649437343504905,
      9.649424084722693,
      9.64940833979779,
      9.649390982471049,
      9.649374182725332,
      9.649358756621396,
      9.64934183935167,
      9.64932592847753,
      9.64930940611682,
      9.649295692153538,
      9.649281863709579,
      9.64926898088784,
      9.649260394833247,
      9.649258087933383,
      9.649266805683434,
      9.649288881347523,
      9.649316596583725,
      9.649330276405927,
      9.649322127759,
      9.649297319150481,
      9.649268124222685,
      9.649237365546941,
      9.649213798986183,
      9.649198673536937,
      9.649196348728436,
      9.649204076417494,
      9.649214297797691,
      9.649220623362163,
      9.649219246907903,
      9.649211310076051,
      9.649197488932783,
      9.649182353576679,
      9.649165689531314,
      9.649155257897021,
      9.649174856606072,
      9.649241953108005,
      9.649325231400583,
      9.64937155259306,
      9.649380829794518,
      9.64937701167274,
      9.649369756793863,
      9.649363092743533,
      9.649360531440388,
      9.649361547781684,
      9.64936085640769,
      9.649357084550601,
      9.649346201030877,
      9.649329620706297,
      9.649310148529482,
      9.649291726148538,
      9.649276494813684,
      9.649265433386166,
      9.649256866443707,
      9.649248542263125,
      9.649241459148264,
      9.6492365614238,
      9.64923069842248,
      9.649228281500184,
      9.649237380349025,
      9.649280400044713,
      9.649370768301416,
      9.649447424627299,
      9.649468395349507,
      9.649453976763123,
      9.649430649062118,
      9.649405506619653,
      9.649380351536777,
      9.649357659792132,
      9.64933822298393,
      9.649320561025883,
      9.649304695598634,
      9.649289642226334,
      9.649278739683567,
      9.649267092551394,
      9.649258889711406,
      9.649250813893252,
      9.649247017938476,
      9.649247903311117,
      9.649254516853105,
      9.649266155403946,
      9.649278736160959,
      9.649288062993438,
      9.649293116271052,
      9.649293377812059,
      9.649287186860782,
      9.649273780718493,
      9.649256098174561,
      9.649230237663806,
      9.649200507289747,
      9.649167979260563,
      9.64913845098585,
      9.649115967417766,
      9.649106773585574,
      9.649111011521425,
      9.649116909126738,
      9.649114061924967,
      9.649111115472776,
      9.649148022095428,
      9.649258976414284,
      9.64935762965148,
      9.649383697540712,
      9.649377719365866,
      9.649366857406184,
      9.649360750419739,
      9.649362487539927,
      9.649370997451502,
      9.649380938512213,
      9.649389074021784,
      9.649393657104481,
      9.64939254191052,
      9.64938828536723,
      9.649378286641843,
      9.649366621788532,
      9.649354630577594,
      9.649341334005456,
      9.649330238276171,
      9.649320771365094,
      9.649315049608647
    ]
  }
}