INFO - siren_vae - Running command 'run'
INFO - siren_vae - Started run with ID "3"
[ENCODED STRUCTURE] Updating BN structure to be fully-connected.
  0%|          | 0/400 [00:00<?, ?it/s]Train -ELBO: 18.844, Val -ELBO: 19.308:   0%|          | 1/400 [00:01<07:52,  1.18s/it]Train -ELBO: 17.765, Val -ELBO: 18.111:   1%|          | 3/400 [00:02<05:54,  1.12it/s]Train -ELBO: 17.141, Val -ELBO: 17.348:   1%|▏         | 5/400 [00:04<05:37,  1.17it/s]Train -ELBO: 16.311, Val -ELBO: 16.850:   2%|▏         | 7/400 [00:05<05:26,  1.20it/s]Train -ELBO: 15.960, Val -ELBO: 16.637:   2%|▏         | 9/400 [00:07<05:30,  1.18it/s]Train -ELBO: 15.660, Val -ELBO: 16.528:   3%|▎         | 11/400 [00:09<05:23,  1.20it/s]Train -ELBO: 15.055, Val -ELBO: 16.410:   3%|▎         | 13/400 [00:10<05:19,  1.21it/s]Train -ELBO: 14.826, Val -ELBO: 16.345:   4%|▍         | 15/400 [00:12<05:14,  1.22it/s]Train -ELBO: 14.638, Val -ELBO: 16.243:   4%|▍         | 17/400 [00:14<05:11,  1.23it/s]Train -ELBO: 14.908, Val -ELBO: 16.162:   5%|▍         | 19/400 [00:15<05:07,  1.24it/s]Train -ELBO: 14.747, Val -ELBO: 16.144:   5%|▌         | 21/400 [00:17<05:05,  1.24it/s]Train -ELBO: 14.885, Val -ELBO: 16.083:   6%|▌         | 23/400 [00:18<05:04,  1.24it/s]Train -ELBO: 14.507, Val -ELBO: 15.956:   6%|▋         | 25/400 [00:20<05:04,  1.23it/s]Train -ELBO: 14.658, Val -ELBO: 15.900:   7%|▋         | 27/400 [00:22<05:02,  1.23it/s]Train -ELBO: 14.083, Val -ELBO: 15.824:   7%|▋         | 29/400 [00:23<05:00,  1.23it/s]Train -ELBO: 14.329, Val -ELBO: 15.772:   8%|▊         | 31/400 [00:25<04:59,  1.23it/s]Train -ELBO: 14.132, Val -ELBO: 15.676:   8%|▊         | 33/400 [00:27<04:59,  1.23it/s]Train -ELBO: 13.936, Val -ELBO: 15.681:   9%|▉         | 35/400 [00:28<04:58,  1.22it/s]Train -ELBO: 14.079, Val -ELBO: 15.655:   9%|▉         | 37/400 [00:30<04:59,  1.21it/s]Train -ELBO: 14.268, Val -ELBO: 15.574:  10%|▉         | 39/400 [00:32<04:56,  1.22it/s]Train -ELBO: 14.417, Val -ELBO: 15.525:  10%|█         | 41/400 [00:33<04:53,  1.22it/s]Train -ELBO: 14.036, Val -ELBO: 15.485:  11%|█         | 43/400 [00:35<04:49,  1.23it/s]Train -ELBO: 13.425, Val -ELBO: 15.449:  11%|█▏        | 45/400 [00:36<04:47,  1.24it/s]Train -ELBO: 13.698, Val -ELBO: 15.401:  12%|█▏        | 47/400 [00:38<04:49,  1.22it/s]Train -ELBO: 13.799, Val -ELBO: 15.443:  12%|█▏        | 49/400 [00:40<04:47,  1.22it/s]Train -ELBO: 13.466, Val -ELBO: 15.329:  13%|█▎        | 51/400 [00:41<04:43,  1.23it/s]Train -ELBO: 13.397, Val -ELBO: 15.254:  13%|█▎        | 53/400 [00:43<04:40,  1.24it/s]Train -ELBO: 13.465, Val -ELBO: 15.223:  14%|█▍        | 55/400 [00:45<04:37,  1.24it/s]Train -ELBO: 13.133, Val -ELBO: 15.126:  14%|█▍        | 57/400 [00:46<04:35,  1.25it/s]Train -ELBO: 13.167, Val -ELBO: 15.146:  15%|█▍        | 59/400 [00:48<04:33,  1.25it/s]Train -ELBO: 13.640, Val -ELBO: 15.080:  15%|█▌        | 61/400 [00:49<04:34,  1.23it/s]Train -ELBO: 12.917, Val -ELBO: 15.167:  16%|█▌        | 63/400 [00:51<04:31,  1.24it/s]Train -ELBO: 13.416, Val -ELBO: 15.155:  16%|█▋        | 65/400 [00:53<04:28,  1.25it/s]Train -ELBO: 13.541, Val -ELBO: 15.046:  17%|█▋        | 67/400 [00:54<04:25,  1.25it/s]Train -ELBO: 13.069, Val -ELBO: 14.911:  17%|█▋        | 69/400 [00:56<04:22,  1.26it/s]Train -ELBO: 13.047, Val -ELBO: 14.802:  18%|█▊        | 71/400 [00:57<04:20,  1.26it/s]Train -ELBO: 13.888, Val -ELBO: 14.844:  18%|█▊        | 73/400 [00:59<04:19,  1.26it/s]Train -ELBO: 13.219, Val -ELBO: 15.033:  19%|█▉        | 75/400 [01:00<04:17,  1.26it/s]Train -ELBO: 13.441, Val -ELBO: 15.084:  19%|█▉        | 77/400 [01:02<04:15,  1.26it/s]Train -ELBO: 13.208, Val -ELBO: 15.161:  20%|█▉        | 79/400 [01:04<04:14,  1.26it/s]Train -ELBO: 13.387, Val -ELBO: 15.004:  20%|██        | 81/400 [01:05<04:12,  1.26it/s]Train -ELBO: 12.734, Val -ELBO: 14.827:  21%|██        | 83/400 [01:07<04:13,  1.25it/s]Train -ELBO: 13.738, Val -ELBO: 14.700:  21%|██▏       | 85/400 [01:08<04:10,  1.26it/s]Train -ELBO: 12.924, Val -ELBO: 14.639:  22%|██▏       | 87/400 [01:10<04:08,  1.26it/s]Train -ELBO: 12.485, Val -ELBO: 14.592:  22%|██▏       | 89/400 [01:12<04:06,  1.26it/s]Train -ELBO: 12.728, Val -ELBO: 14.536:  23%|██▎       | 91/400 [01:13<04:05,  1.26it/s]Train -ELBO: 12.793, Val -ELBO: 14.498:  23%|██▎       | 93/400 [01:15<04:13,  1.21it/s]Train -ELBO: 12.172, Val -ELBO: 14.439:  24%|██▍       | 95/400 [01:17<04:13,  1.20it/s]Train -ELBO: 12.553, Val -ELBO: 14.467:  24%|██▍       | 97/400 [01:18<04:16,  1.18it/s]Train -ELBO: 12.281, Val -ELBO: 14.317:  25%|██▍       | 99/400 [01:20<04:11,  1.20it/s]Train -ELBO: 12.306, Val -ELBO: 14.343:  25%|██▌       | 101/400 [01:22<04:11,  1.19it/s]Train -ELBO: 12.155, Val -ELBO: 14.218:  26%|██▌       | 103/400 [01:24<04:14,  1.17it/s]Train -ELBO: 12.206, Val -ELBO: 14.176:  26%|██▋       | 105/400 [01:25<04:14,  1.16it/s]Train -ELBO: 12.382, Val -ELBO: 14.127:  27%|██▋       | 107/400 [01:27<04:12,  1.16it/s]Train -ELBO: 12.488, Val -ELBO: 14.174:  27%|██▋       | 109/400 [01:29<04:19,  1.12it/s]Train -ELBO: 12.023, Val -ELBO: 14.221:  28%|██▊       | 111/400 [01:31<04:15,  1.13it/s]Train -ELBO: 12.210, Val -ELBO: 14.265:  28%|██▊       | 113/400 [01:32<04:07,  1.16it/s]Train -ELBO: 12.258, Val -ELBO: 14.255:  29%|██▉       | 115/400 [01:34<04:01,  1.18it/s]Train -ELBO: 11.670, Val -ELBO: 14.063:  29%|██▉       | 117/400 [01:36<03:57,  1.19it/s]Train -ELBO: 11.999, Val -ELBO: 14.112:  30%|██▉       | 119/400 [01:37<03:54,  1.20it/s]Train -ELBO: 11.770, Val -ELBO: 14.000:  30%|███       | 121/400 [01:39<03:50,  1.21it/s]Train -ELBO: 11.879, Val -ELBO: 13.941:  31%|███       | 123/400 [01:40<03:46,  1.22it/s]Train -ELBO: 11.967, Val -ELBO: 13.882:  31%|███▏      | 125/400 [01:42<03:43,  1.23it/s]Train -ELBO: 11.747, Val -ELBO: 13.830:  32%|███▏      | 127/400 [01:44<03:40,  1.24it/s]Train -ELBO: 11.851, Val -ELBO: 13.820:  32%|███▏      | 129/400 [01:45<03:38,  1.24it/s]Train -ELBO: 11.278, Val -ELBO: 13.655:  33%|███▎      | 131/400 [01:47<03:36,  1.24it/s]Train -ELBO: 11.398, Val -ELBO: 13.793:  33%|███▎      | 133/400 [01:48<03:35,  1.24it/s]Train -ELBO: 11.074, Val -ELBO: 13.781:  34%|███▍      | 135/400 [01:50<03:37,  1.22it/s]Train -ELBO: 12.321, Val -ELBO: 13.659:  34%|███▍      | 137/400 [01:52<03:38,  1.20it/s]Train -ELBO: 11.410, Val -ELBO: 13.544:  35%|███▍      | 139/400 [01:54<03:40,  1.18it/s]Train -ELBO: 11.480, Val -ELBO: 13.544:  35%|███▌      | 141/400 [01:55<03:43,  1.16it/s]Train -ELBO: 11.946, Val -ELBO: 13.647:  36%|███▌      | 143/400 [01:57<03:38,  1.18it/s]Train -ELBO: 11.745, Val -ELBO: 13.595:  36%|███▋      | 145/400 [01:59<03:32,  1.20it/s]Train -ELBO: 11.981, Val -ELBO: 13.502:  37%|███▋      | 147/400 [02:00<03:27,  1.22it/s]Train -ELBO: 11.027, Val -ELBO: 13.357:  37%|███▋      | 149/400 [02:02<03:24,  1.23it/s]Train -ELBO: 11.607, Val -ELBO: 13.408:  38%|███▊      | 151/400 [02:03<03:21,  1.24it/s]Train -ELBO: 11.253, Val -ELBO: 13.443:  38%|███▊      | 153/400 [02:05<03:19,  1.24it/s]Train -ELBO: 10.924, Val -ELBO: 13.412:  39%|███▉      | 155/400 [02:07<03:17,  1.24it/s]Train -ELBO: 10.828, Val -ELBO: 13.411:  39%|███▉      | 157/400 [02:08<03:14,  1.25it/s]Train -ELBO: 10.899, Val -ELBO: 13.446:  40%|███▉      | 159/400 [02:10<03:12,  1.25it/s]Train -ELBO: 11.138, Val -ELBO: 13.400:  40%|████      | 161/400 [02:11<03:11,  1.25it/s]Train -ELBO: 11.168, Val -ELBO: 13.476:  41%|████      | 163/400 [02:13<03:08,  1.25it/s]Train -ELBO: 10.849, Val -ELBO: 13.455:  41%|████▏     | 165/400 [02:15<03:07,  1.26it/s]Train -ELBO: 11.117, Val -ELBO: 13.338:  42%|████▏     | 167/400 [02:16<03:05,  1.26it/s]Train -ELBO: 10.722, Val -ELBO: 13.453:  42%|████▏     | 169/400 [02:18<03:03,  1.26it/s]Train -ELBO: 10.287, Val -ELBO: 13.410:  43%|████▎     | 171/400 [02:19<03:01,  1.26it/s]Train -ELBO: 10.975, Val -ELBO: 13.455:  43%|████▎     | 173/400 [02:21<02:59,  1.27it/s]Train -ELBO: 10.983, Val -ELBO: 13.567:  44%|████▍     | 175/400 [02:23<02:59,  1.25it/s]Train -ELBO: 10.937, Val -ELBO: 13.319:  44%|████▍     | 177/400 [02:24<02:59,  1.24it/s]Train -ELBO: 10.880, Val -ELBO: 13.276:  45%|████▍     | 179/400 [02:26<03:00,  1.23it/s]Train -ELBO: 10.527, Val -ELBO: 13.324:  45%|████▌     | 181/400 [02:28<03:01,  1.20it/s]Train -ELBO: 10.877, Val -ELBO: 13.198:  46%|████▌     | 183/400 [02:29<02:58,  1.22it/s]Train -ELBO: 10.846, Val -ELBO: 13.224:  46%|████▋     | 185/400 [02:31<02:54,  1.23it/s]Epoch   187: reducing learning rate of group 0 to 1.0000e-04.
Train -ELBO: 10.537, Val -ELBO: 13.346:  47%|████▋     | 187/400 [02:32<02:55,  1.22it/s]Train -ELBO: 10.835, Val -ELBO: 13.310:  47%|████▋     | 189/400 [02:34<02:53,  1.22it/s]Train -ELBO: 10.809, Val -ELBO: 13.256:  48%|████▊     | 191/400 [02:36<02:50,  1.23it/s]Train -ELBO: 10.741, Val -ELBO: 13.302:  48%|████▊     | 193/400 [02:37<02:48,  1.23it/s]Train -ELBO: 10.597, Val -ELBO: 13.278:  49%|████▉     | 195/400 [02:39<02:45,  1.24it/s]Train -ELBO: 10.667, Val -ELBO: 13.250:  49%|████▉     | 197/400 [02:41<02:44,  1.23it/s]Train -ELBO: 10.146, Val -ELBO: 13.228:  50%|████▉     | 199/400 [02:42<02:41,  1.24it/s]Train -ELBO: 10.618, Val -ELBO: 13.293:  50%|█████     | 201/400 [02:44<02:39,  1.25it/s]Train -ELBO: 10.322, Val -ELBO: 13.202:  51%|█████     | 203/400 [02:45<02:36,  1.26it/s]Train -ELBO: 10.619, Val -ELBO: 13.218:  51%|█████▏    | 205/400 [02:47<02:34,  1.26it/s]Train -ELBO: 10.320, Val -ELBO: 13.173:  52%|█████▏    | 207/400 [02:48<02:33,  1.26it/s]Train -ELBO: 10.597, Val -ELBO: 13.190:  52%|█████▏    | 209/400 [02:50<02:31,  1.26it/s]Train -ELBO: 10.486, Val -ELBO: 13.224:  53%|█████▎    | 211/400 [02:52<02:29,  1.26it/s]Train -ELBO: 10.367, Val -ELBO: 13.211:  53%|█████▎    | 213/400 [02:53<02:28,  1.26it/s]Epoch   215: reducing learning rate of group 0 to 1.0000e-05.
Train -ELBO: 10.543, Val -ELBO: 13.177:  54%|█████▍    | 215/400 [02:55<02:26,  1.26it/s]Train -ELBO: 10.380, Val -ELBO: 13.253:  54%|█████▍    | 217/400 [02:56<02:25,  1.26it/s]Train -ELBO: 10.526, Val -ELBO: 13.178:  55%|█████▍    | 219/400 [02:58<02:23,  1.26it/s]Train -ELBO: 10.682, Val -ELBO: 13.177:  55%|█████▌    | 221/400 [03:00<02:22,  1.26it/s]Train -ELBO: 10.406, Val -ELBO: 13.162:  56%|█████▌    | 223/400 [03:01<02:21,  1.25it/s]Train -ELBO: 10.497, Val -ELBO: 13.200:  56%|█████▋    | 225/400 [03:03<02:21,  1.24it/s]Train -ELBO: 10.465, Val -ELBO: 13.225:  57%|█████▋    | 227/400 [03:05<02:22,  1.22it/s]Train -ELBO: 10.305, Val -ELBO: 13.217:  57%|█████▋    | 229/400 [03:06<02:19,  1.22it/s]Epoch   231: reducing learning rate of group 0 to 1.0000e-06.
Train -ELBO: 10.224, Val -ELBO: 13.176:  58%|█████▊    | 231/400 [03:08<02:16,  1.24it/s]Train -ELBO: 10.522, Val -ELBO: 13.132:  58%|█████▊    | 233/400 [03:09<02:14,  1.24it/s]Train -ELBO: 10.151, Val -ELBO: 13.184:  59%|█████▉    | 235/400 [03:11<02:12,  1.25it/s]Train -ELBO: 10.373, Val -ELBO: 13.187:  59%|█████▉    | 237/400 [03:12<02:09,  1.25it/s]Train -ELBO: 10.279, Val -ELBO: 13.255:  60%|█████▉    | 239/400 [03:14<02:07,  1.26it/s]Train -ELBO: 10.618, Val -ELBO: 13.189:  60%|██████    | 241/400 [03:16<02:06,  1.26it/s]Train -ELBO: 10.547, Val -ELBO: 13.201:  61%|██████    | 243/400 [03:17<02:04,  1.26it/s]Train -ELBO: 10.441, Val -ELBO: 13.130:  61%|██████▏   | 245/400 [03:19<02:02,  1.26it/s]Train -ELBO: 10.908, Val -ELBO: 13.152:  62%|██████▏   | 247/400 [03:20<02:01,  1.26it/s]Train -ELBO: 10.221, Val -ELBO: 13.168:  62%|██████▏   | 249/400 [03:22<01:59,  1.27it/s]Train -ELBO: 10.735, Val -ELBO: 13.235:  63%|██████▎   | 251/400 [03:24<01:57,  1.26it/s]Train -ELBO: 10.365, Val -ELBO: 13.181:  63%|██████▎   | 253/400 [03:25<01:57,  1.25it/s]Train -ELBO: 10.271, Val -ELBO: 13.183:  64%|██████▍   | 255/400 [03:27<01:56,  1.24it/s]Train -ELBO: 10.290, Val -ELBO: 13.166:  64%|██████▍   | 257/400 [03:28<01:54,  1.25it/s]Train -ELBO: 10.419, Val -ELBO: 13.160:  65%|██████▍   | 259/400 [03:30<01:52,  1.25it/s]Train -ELBO: 10.690, Val -ELBO: 13.175:  65%|██████▌   | 261/400 [03:32<01:51,  1.25it/s]Train -ELBO: 10.351, Val -ELBO: 13.219:  66%|██████▌   | 263/400 [03:33<01:49,  1.25it/s]Train -ELBO: 10.349, Val -ELBO: 13.237:  66%|██████▋   | 265/400 [03:35<01:49,  1.23it/s]Train -ELBO: 10.720, Val -ELBO: 13.166:  67%|██████▋   | 267/400 [03:37<01:50,  1.20it/s]Train -ELBO: 10.583, Val -ELBO: 13.146:  67%|██████▋   | 269/400 [03:38<01:47,  1.22it/s]Train -ELBO: 10.383, Val -ELBO: 13.157:  68%|██████▊   | 271/400 [03:40<01:45,  1.23it/s]Train -ELBO: 10.397, Val -ELBO: 13.178:  68%|██████▊   | 273/400 [03:42<01:46,  1.19it/s]Train -ELBO: 10.512, Val -ELBO: 13.206:  69%|██████▉   | 275/400 [03:43<01:46,  1.17it/s]Train -ELBO: 10.541, Val -ELBO: 13.147:  69%|██████▉   | 277/400 [03:45<01:42,  1.20it/s]Train -ELBO: 10.526, Val -ELBO: 13.224:  70%|██████▉   | 279/400 [03:47<01:39,  1.22it/s]Train -ELBO: 10.572, Val -ELBO: 13.192:  70%|███████   | 281/400 [03:48<01:37,  1.22it/s]Train -ELBO: 10.349, Val -ELBO: 13.143:  71%|███████   | 283/400 [03:50<01:36,  1.22it/s]Train -ELBO: 10.627, Val -ELBO: 13.203:  71%|███████▏  | 285/400 [03:51<01:33,  1.23it/s]Train -ELBO: 10.635, Val -ELBO: 13.185:  72%|███████▏  | 287/400 [03:53<01:33,  1.21it/s]Train -ELBO: 10.363, Val -ELBO: 13.176:  72%|███████▏  | 289/400 [03:55<01:32,  1.20it/s]Train -ELBO: 10.340, Val -ELBO: 13.163:  73%|███████▎  | 291/400 [03:56<01:29,  1.21it/s]Train -ELBO: 10.334, Val -ELBO: 13.171:  73%|███████▎  | 293/400 [03:58<01:28,  1.22it/s]Train -ELBO: 10.553, Val -ELBO: 13.194:  74%|███████▍  | 295/400 [04:00<01:25,  1.22it/s]Train -ELBO: 10.651, Val -ELBO: 13.159:  74%|███████▍  | 297/400 [04:01<01:24,  1.22it/s]Train -ELBO: 10.414, Val -ELBO: 13.192:  75%|███████▍  | 299/400 [04:03<01:23,  1.20it/s]Train -ELBO: 10.714, Val -ELBO: 13.297:  75%|███████▌  | 301/400 [04:05<01:23,  1.18it/s]Train -ELBO: 11.433, Val -ELBO: 13.134:  76%|███████▌  | 303/400 [04:07<01:23,  1.16it/s]Train -ELBO: 10.851, Val -ELBO: 13.120:  76%|███████▋  | 305/400 [04:08<01:23,  1.14it/s]Train -ELBO: 10.726, Val -ELBO: 13.176:  77%|███████▋  | 307/400 [04:10<01:19,  1.16it/s]Train -ELBO: 10.721, Val -ELBO: 13.215:  77%|███████▋  | 309/400 [04:12<01:16,  1.19it/s]Train -ELBO: 10.669, Val -ELBO: 13.197:  78%|███████▊  | 311/400 [04:13<01:15,  1.18it/s]Train -ELBO: 10.460, Val -ELBO: 13.216:  78%|███████▊  | 313/400 [04:15<01:12,  1.20it/s]Train -ELBO: 10.370, Val -ELBO: 13.255:  79%|███████▉  | 315/400 [04:17<01:09,  1.22it/s]Train -ELBO: 10.291, Val -ELBO: 13.090:  79%|███████▉  | 317/400 [04:18<01:07,  1.23it/s]Train -ELBO: 10.281, Val -ELBO: 13.218:  80%|███████▉  | 319/400 [04:20<01:05,  1.23it/s]Train -ELBO: 10.751, Val -ELBO: 13.118:  80%|████████  | 321/400 [04:21<01:03,  1.24it/s]Train -ELBO: 10.241, Val -ELBO: 13.240:  81%|████████  | 323/400 [04:23<01:01,  1.25it/s]Train -ELBO: 10.587, Val -ELBO: 13.171:  81%|████████▏ | 325/400 [04:25<01:00,  1.25it/s]Train -ELBO: 10.378, Val -ELBO: 13.197:  82%|████████▏ | 327/400 [04:26<00:58,  1.25it/s]Train -ELBO: 10.604, Val -ELBO: 13.165:  82%|████████▏ | 329/400 [04:28<00:56,  1.26it/s]Train -ELBO: 10.158, Val -ELBO: 13.113:  83%|████████▎ | 331/400 [04:29<00:56,  1.23it/s]Train -ELBO: 10.511, Val -ELBO: 13.174:  83%|████████▎ | 333/400 [04:31<00:55,  1.21it/s]Train -ELBO: 11.115, Val -ELBO: 13.173:  84%|████████▍ | 335/400 [04:33<00:53,  1.22it/s]Train -ELBO: 10.535, Val -ELBO: 13.176:  84%|████████▍ | 337/400 [04:34<00:51,  1.23it/s]Train -ELBO: 10.574, Val -ELBO: 13.183:  85%|████████▍ | 339/400 [04:36<00:49,  1.24it/s]Train -ELBO: 10.523, Val -ELBO: 13.160:  85%|████████▌ | 341/400 [04:38<00:47,  1.25it/s]Train -ELBO: 10.645, Val -ELBO: 13.175:  86%|████████▌ | 343/400 [04:39<00:45,  1.25it/s]Train -ELBO: 10.482, Val -ELBO: 13.175:  86%|████████▋ | 345/400 [04:41<00:43,  1.25it/s]Train -ELBO: 10.194, Val -ELBO: 13.223:  87%|████████▋ | 347/400 [04:42<00:42,  1.25it/s]Train -ELBO: 10.805, Val -ELBO: 13.185:  87%|████████▋ | 349/400 [04:44<00:40,  1.25it/s]Train -ELBO: 10.454, Val -ELBO: 13.200:  88%|████████▊ | 351/400 [04:45<00:39,  1.25it/s]Train -ELBO: 10.534, Val -ELBO: 13.130:  88%|████████▊ | 353/400 [04:47<00:37,  1.26it/s]Train -ELBO: 10.336, Val -ELBO: 13.236:  89%|████████▉ | 355/400 [04:49<00:35,  1.26it/s]Train -ELBO: 10.504, Val -ELBO: 13.182:  89%|████████▉ | 357/400 [04:50<00:34,  1.25it/s]Train -ELBO: 10.400, Val -ELBO: 13.130:  90%|████████▉ | 359/400 [04:52<00:32,  1.25it/s]Train -ELBO: 10.563, Val -ELBO: 13.211:  90%|█████████ | 361/400 [04:53<00:31,  1.26it/s]Train -ELBO: 10.540, Val -ELBO: 13.181:  91%|█████████ | 363/400 [04:55<00:29,  1.26it/s]Train -ELBO: 10.448, Val -ELBO: 13.148:  91%|█████████▏| 365/400 [04:57<00:27,  1.25it/s]Train -ELBO: 10.795, Val -ELBO: 13.206:  92%|█████████▏| 367/400 [04:58<00:26,  1.25it/s]Train -ELBO: 10.166, Val -ELBO: 13.200:  92%|█████████▏| 369/400 [05:00<00:24,  1.26it/s]Train -ELBO: 10.550, Val -ELBO: 13.183:  93%|█████████▎| 371/400 [05:01<00:23,  1.26it/s]Train -ELBO: 10.201, Val -ELBO: 13.152:  93%|█████████▎| 373/400 [05:03<00:21,  1.26it/s]Train -ELBO: 10.655, Val -ELBO: 13.154:  94%|█████████▍| 375/400 [05:05<00:20,  1.24it/s]Train -ELBO: 10.167, Val -ELBO: 13.147:  94%|█████████▍| 377/400 [05:06<00:18,  1.24it/s]Train -ELBO: 10.333, Val -ELBO: 13.170:  95%|█████████▍| 379/400 [05:08<00:16,  1.24it/s]Train -ELBO: 10.394, Val -ELBO: 13.168:  95%|█████████▌| 381/400 [05:09<00:15,  1.25it/s]Train -ELBO: 10.281, Val -ELBO: 13.182:  96%|█████████▌| 383/400 [05:11<00:13,  1.25it/s]Train -ELBO: 10.146, Val -ELBO: 13.177:  96%|█████████▋| 385/400 [05:13<00:12,  1.22it/s]Train -ELBO: 10.942, Val -ELBO: 13.219:  97%|█████████▋| 387/400 [05:15<00:10,  1.19it/s]Train -ELBO: 10.367, Val -ELBO: 13.141:  97%|█████████▋| 389/400 [05:16<00:09,  1.16it/s]Train -ELBO: 10.446, Val -ELBO: 13.193:  98%|█████████▊| 391/400 [05:18<00:07,  1.14it/s]Train -ELBO: 10.232, Val -ELBO: 13.121:  98%|█████████▊| 393/400 [05:20<00:06,  1.13it/s]Train -ELBO: 10.370, Val -ELBO: 13.173:  99%|█████████▉| 395/400 [05:22<00:04,  1.15it/s]Train -ELBO: 10.662, Val -ELBO: 13.214:  99%|█████████▉| 397/400 [05:23<00:02,  1.17it/s]Train -ELBO: 10.278, Val -ELBO: 13.159: 100%|█████████▉| 399/400 [05:25<00:00,  1.18it/s]Train -ELBO: 10.418, Val -ELBO: 13.130: 100%|██████████| 400/400 [05:26<00:00,  1.23it/s]
