{
  "batch_size": 100,
  "device": "cpu",
  "flow_connectivity": "faithful",
  "gmodel_name": "simple_arith_circuit",
  "integration_times": [
    0.0,
    1.0
  ],
  "loss_choice": "sym",
  "lr": 0.01,
  "repeat_samples": 1,
  "seed": 186,
  "to_augment": [
    0,
    1,
    2,
    3,
    4,
    5,
    0,
    1,
    2,
    3,
    4,
    5,
    0,
    1,
    2,
    3,
    4,
    5,
    0,
    1,
    2,
    3,
    4,
    5,
    0,
    1,
    2,
    3,
    4,
    5
  ],
  "train_steps": 500,
  "weight_decay": 1e-05
}