{
  "train": {
    "steps": [
      0,
      1,
      2,
      3,
      4,
      5,
      6,
      7,
      8,
      9,
      10,
      11,
      12,
      13,
      14,
      15,
      16,
      17,
      18,
      19,
      20,
      21,
      22,
      23,
      24,
      25,
      26,
      27,
      28,
      29,
      30,
      31,
      32,
      33,
      34,
      35,
      36,
      37,
      38,
      39,
      40,
      41,
      42,
      43,
      44,
      45,
      46,
      47,
      48,
      49,
      50,
      51,
      52,
      53,
      54,
      55,
      56,
      57,
      58,
      59,
      60,
      61,
      62,
      63,
      64,
      65,
      66,
      67,
      68,
      69,
      70,
      71,
      72,
      73,
      74,
      75,
      76,
      77,
      78,
      79,
      80,
      81,
      82,
      83,
      84,
      85,
      86,
      87,
      88,
      89,
      90,
      91,
      92,
      93,
      94,
      95,
      96,
      97,
      98,
      99,
      100,
      101,
      102,
      103,
      104,
      105,
      106,
      107,
      108,
      109,
      110,
      111,
      112,
      113,
      114,
      115,
      116,
      117,
      118,
      119,
      120,
      121,
      122,
      123,
      124,
      125,
      126,
      127,
      128,
      129,
      130,
      131,
      132,
      133,
      134,
      135,
      136,
      137,
      138,
      139,
      140,
      141,
      142,
      143,
      144,
      145,
      146,
      147,
      148,
      149,
      150,
      151,
      152,
      153,
      154,
      155,
      156,
      157,
      158,
      159,
      160,
      161,
      162,
      163,
      164,
      165,
      166,
      167,
      168,
      169,
      170,
      171,
      172,
      173,
      174,
      175,
      176,
      177,
      178,
      179,
      180,
      181,
      182,
      183,
      184,
      185,
      186,
      187,
      188,
      189,
      190,
      191,
      192,
      193,
      194,
      195,
      196,
      197,
      198,
      199,
      200,
      201,
      202,
      203,
      204,
      205,
      206,
      207,
      208,
      209,
      210,
      211,
      212,
      213,
      214,
      215,
      216,
      217,
      218,
      219,
      220,
      221,
      222,
      223,
      224,
      225,
      226,
      227,
      228,
      229,
      230,
      231,
      232,
      233,
      234,
      235,
      236,
      237,
      238,
      239,
      240,
      241,
      242,
      243,
      244,
      245,
      246,
      247,
      248,
      249,
      250,
      251,
      252,
      253,
      254,
      255,
      256,
      257,
      258,
      259,
      260,
      261,
      262,
      263,
      264,
      265,
      266,
      267,
      268,
      269,
      270,
      271,
      272,
      273,
      274,
      275,
      276,
      277,
      278,
      279,
      280,
      281,
      282,
      283,
      284,
      285,
      286,
      287,
      288,
      289,
      290,
      291,
      292,
      293,
      294,
      295,
      296,
      297,
      298,
      299,
      300,
      301,
      302,
      303,
      304,
      305,
      306,
      307,
      308,
      309,
      310,
      311,
      312,
      313,
      314,
      315,
      316,
      317,
      318,
      319,
      320,
      321,
      322,
      323,
      324,
      325,
      326,
      327,
      328,
      329,
      330,
      331,
      332,
      333,
      334,
      335,
      336,
      337,
      338,
      339,
      340,
      341,
      342,
      343,
      344,
      345,
      346,
      347,
      348,
      349,
      350,
      351,
      352,
      353,
      354,
      355,
      356,
      357,
      358,
      359,
      360,
      361,
      362,
      363,
      364,
      365,
      366,
      367,
      368,
      369,
      370,
      371,
      372,
      373,
      374,
      375,
      376,
      377,
      378,
      379,
      380,
      381,
      382,
      383,
      384,
      385,
      386,
      387,
      388,
      389,
      390,
      391,
      392,
      393,
      394,
      395,
      396,
      397,
      398,
      399
    ],
    "timestamps": [
      "2023-03-13T16:46:28.563535",
      "2023-03-13T16:46:28.848521",
      "2023-03-13T16:46:29.114584",
      "2023-03-13T16:46:29.379829",
      "2023-03-13T16:46:29.628797",
      "2023-03-13T16:46:29.860155",
      "2023-03-13T16:46:30.091881",
      "2023-03-13T16:46:30.322252",
      "2023-03-13T16:46:30.569820",
      "2023-03-13T16:46:30.842809",
      "2023-03-13T16:46:31.124141",
      "2023-03-13T16:46:31.382485",
      "2023-03-13T16:46:31.618680",
      "2023-03-13T16:46:31.848468",
      "2023-03-13T16:46:32.082331",
      "2023-03-13T16:46:32.312214",
      "2023-03-13T16:46:32.573899",
      "2023-03-13T16:46:32.831773",
      "2023-03-13T16:46:33.070507",
      "2023-03-13T16:46:33.300815",
      "2023-03-13T16:46:33.538024",
      "2023-03-13T16:46:33.784953",
      "2023-03-13T16:46:34.018633",
      "2023-03-13T16:46:34.248164",
      "2023-03-13T16:46:34.526517",
      "2023-03-13T16:46:34.756923",
      "2023-03-13T16:46:35.002751",
      "2023-03-13T16:46:35.252201",
      "2023-03-13T16:46:35.499278",
      "2023-03-13T16:46:35.743218",
      "2023-03-13T16:46:35.998636",
      "2023-03-13T16:46:36.230707",
      "2023-03-13T16:46:36.496391",
      "2023-03-13T16:46:36.734453",
      "2023-03-13T16:46:36.976355",
      "2023-03-13T16:46:37.205908",
      "2023-03-13T16:46:37.436506",
      "2023-03-13T16:46:37.672069",
      "2023-03-13T16:46:37.908917",
      "2023-03-13T16:46:38.166691",
      "2023-03-13T16:46:38.411804",
      "2023-03-13T16:46:38.651137",
      "2023-03-13T16:46:38.887389",
      "2023-03-13T16:46:39.130531",
      "2023-03-13T16:46:39.362935",
      "2023-03-13T16:46:39.595854",
      "2023-03-13T16:46:39.826581",
      "2023-03-13T16:46:40.070832",
      "2023-03-13T16:46:40.311481",
      "2023-03-13T16:46:40.574042",
      "2023-03-13T16:46:40.812614",
      "2023-03-13T16:46:41.042899",
      "2023-03-13T16:46:41.282318",
      "2023-03-13T16:46:41.514309",
      "2023-03-13T16:46:41.755636",
      "2023-03-13T16:46:41.995784",
      "2023-03-13T16:46:42.261679",
      "2023-03-13T16:46:42.523568",
      "2023-03-13T16:46:42.753762",
      "2023-03-13T16:46:43.016138",
      "2023-03-13T16:46:43.280408",
      "2023-03-13T16:46:43.528635",
      "2023-03-13T16:46:43.781978",
      "2023-03-13T16:46:44.018315",
      "2023-03-13T16:46:44.250533",
      "2023-03-13T16:46:44.483136",
      "2023-03-13T16:46:44.713596",
      "2023-03-13T16:46:44.953472",
      "2023-03-13T16:46:45.184369",
      "2023-03-13T16:46:45.425266",
      "2023-03-13T16:46:45.669994",
      "2023-03-13T16:46:45.908323",
      "2023-03-13T16:46:46.152294",
      "2023-03-13T16:46:46.402116",
      "2023-03-13T16:46:46.645479",
      "2023-03-13T16:46:46.891112",
      "2023-03-13T16:46:47.127009",
      "2023-03-13T16:46:47.384793",
      "2023-03-13T16:46:47.645653",
      "2023-03-13T16:46:47.911151",
      "2023-03-13T16:46:48.182218",
      "2023-03-13T16:46:48.427998",
      "2023-03-13T16:46:48.669070",
      "2023-03-13T16:46:48.912300",
      "2023-03-13T16:46:49.162037",
      "2023-03-13T16:46:49.410709",
      "2023-03-13T16:46:49.644483",
      "2023-03-13T16:46:49.881172",
      "2023-03-13T16:46:50.110723",
      "2023-03-13T16:46:50.341223",
      "2023-03-13T16:46:50.579289",
      "2023-03-13T16:46:50.808888",
      "2023-03-13T16:46:51.046827",
      "2023-03-13T16:46:51.277687",
      "2023-03-13T16:46:51.509895",
      "2023-03-13T16:46:51.739592",
      "2023-03-13T16:46:51.971756",
      "2023-03-13T16:46:52.216614",
      "2023-03-13T16:46:52.468961",
      "2023-03-13T16:46:52.713102",
      "2023-03-13T16:46:52.964703",
      "2023-03-13T16:46:53.204076",
      "2023-03-13T16:46:53.455628",
      "2023-03-13T16:46:53.685954",
      "2023-03-13T16:46:53.917245",
      "2023-03-13T16:46:54.153918",
      "2023-03-13T16:46:54.404789",
      "2023-03-13T16:46:54.666512",
      "2023-03-13T16:46:54.899410",
      "2023-03-13T16:46:55.131049",
      "2023-03-13T16:46:55.367595",
      "2023-03-13T16:46:55.599027",
      "2023-03-13T16:46:55.833847",
      "2023-03-13T16:46:56.064766",
      "2023-03-13T16:46:56.296556",
      "2023-03-13T16:46:56.534158",
      "2023-03-13T16:46:56.778312",
      "2023-03-13T16:46:57.016150",
      "2023-03-13T16:46:57.266181",
      "2023-03-13T16:46:57.499404",
      "2023-03-13T16:46:57.742363",
      "2023-03-13T16:46:57.982243",
      "2023-03-13T16:46:58.220610",
      "2023-03-13T16:46:58.464574",
      "2023-03-13T16:46:58.706940",
      "2023-03-13T16:46:58.942700",
      "2023-03-13T16:46:59.173467",
      "2023-03-13T16:46:59.417646",
      "2023-03-13T16:46:59.651483",
      "2023-03-13T16:46:59.884102",
      "2023-03-13T16:47:00.135244",
      "2023-03-13T16:47:00.378190",
      "2023-03-13T16:47:00.615852",
      "2023-03-13T16:47:00.861292",
      "2023-03-13T16:47:01.103965",
      "2023-03-13T16:47:01.358794",
      "2023-03-13T16:47:01.594727",
      "2023-03-13T16:47:01.863171",
      "2023-03-13T16:47:02.104402",
      "2023-03-13T16:47:02.342937",
      "2023-03-13T16:47:02.580427",
      "2023-03-13T16:47:02.817438",
      "2023-03-13T16:47:03.064335",
      "2023-03-13T16:47:03.296127",
      "2023-03-13T16:47:03.535427",
      "2023-03-13T16:47:03.782304",
      "2023-03-13T16:47:04.031961",
      "2023-03-13T16:47:04.285926",
      "2023-03-13T16:47:04.528227",
      "2023-03-13T16:47:04.767522",
      "2023-03-13T16:47:05.021057",
      "2023-03-13T16:47:05.259078",
      "2023-03-13T16:47:05.512769",
      "2023-03-13T16:47:05.755657",
      "2023-03-13T16:47:05.998204",
      "2023-03-13T16:47:06.248356",
      "2023-03-13T16:47:06.487181",
      "2023-03-13T16:47:06.737173",
      "2023-03-13T16:47:06.979198",
      "2023-03-13T16:47:07.223167",
      "2023-03-13T16:47:07.462446",
      "2023-03-13T16:47:07.700468",
      "2023-03-13T16:47:07.946873",
      "2023-03-13T16:47:08.191045",
      "2023-03-13T16:47:08.434845",
      "2023-03-13T16:47:08.692059",
      "2023-03-13T16:47:08.928493",
      "2023-03-13T16:47:09.166132",
      "2023-03-13T16:47:09.396866",
      "2023-03-13T16:47:09.635305",
      "2023-03-13T16:47:09.889248",
      "2023-03-13T16:47:10.130466",
      "2023-03-13T16:47:10.390707",
      "2023-03-13T16:47:10.629147",
      "2023-03-13T16:47:10.882303",
      "2023-03-13T16:47:11.116678",
      "2023-03-13T16:47:11.351978",
      "2023-03-13T16:47:11.587869",
      "2023-03-13T16:47:11.821410",
      "2023-03-13T16:47:12.070254",
      "2023-03-13T16:47:12.314953",
      "2023-03-13T16:47:12.566451",
      "2023-03-13T16:47:12.843054",
      "2023-03-13T16:47:13.076441",
      "2023-03-13T16:47:13.308081",
      "2023-03-13T16:47:13.538755",
      "2023-03-13T16:47:13.783520",
      "2023-03-13T16:47:14.021717",
      "2023-03-13T16:47:14.255270",
      "2023-03-13T16:47:14.486868",
      "2023-03-13T16:47:14.734519",
      "2023-03-13T16:47:14.992936",
      "2023-03-13T16:47:15.233172",
      "2023-03-13T16:47:15.469811",
      "2023-03-13T16:47:15.710220",
      "2023-03-13T16:47:15.965238",
      "2023-03-13T16:47:16.223741",
      "2023-03-13T16:47:16.498007",
      "2023-03-13T16:47:16.753469",
      "2023-03-13T16:47:16.983853",
      "2023-03-13T16:47:17.255155",
      "2023-03-13T16:47:17.484859",
      "2023-03-13T16:47:17.719936",
      "2023-03-13T16:47:17.949203",
      "2023-03-13T16:47:18.203754",
      "2023-03-13T16:47:18.473848",
      "2023-03-13T16:47:18.717321",
      "2023-03-13T16:47:18.958550",
      "2023-03-13T16:47:19.193084",
      "2023-03-13T16:47:19.429807",
      "2023-03-13T16:47:19.715437",
      "2023-03-13T16:47:19.977190",
      "2023-03-13T16:47:20.229177",
      "2023-03-13T16:47:20.465576",
      "2023-03-13T16:47:20.712867",
      "2023-03-13T16:47:20.950175",
      "2023-03-13T16:47:21.207062",
      "2023-03-13T16:47:21.473627",
      "2023-03-13T16:47:21.734136",
      "2023-03-13T16:47:21.970499",
      "2023-03-13T16:47:22.228510",
      "2023-03-13T16:47:22.531801",
      "2023-03-13T16:47:22.792559",
      "2023-03-13T16:47:23.053754",
      "2023-03-13T16:47:23.288272",
      "2023-03-13T16:47:23.548703",
      "2023-03-13T16:47:23.793334",
      "2023-03-13T16:47:24.035394",
      "2023-03-13T16:47:24.270761",
      "2023-03-13T16:47:24.505215",
      "2023-03-13T16:47:24.746319",
      "2023-03-13T16:47:24.985989",
      "2023-03-13T16:47:25.220857",
      "2023-03-13T16:47:25.456336",
      "2023-03-13T16:47:25.698630",
      "2023-03-13T16:47:25.934379",
      "2023-03-13T16:47:26.198240",
      "2023-03-13T16:47:26.438648",
      "2023-03-13T16:47:26.720133",
      "2023-03-13T16:47:26.957354",
      "2023-03-13T16:47:27.215596",
      "2023-03-13T16:47:27.462039",
      "2023-03-13T16:47:27.698554",
      "2023-03-13T16:47:27.931464",
      "2023-03-13T16:47:28.164401",
      "2023-03-13T16:47:28.406383",
      "2023-03-13T16:47:28.647754",
      "2023-03-13T16:47:28.890768",
      "2023-03-13T16:47:29.128849",
      "2023-03-13T16:47:29.363793",
      "2023-03-13T16:47:29.612094",
      "2023-03-13T16:47:29.870135",
      "2023-03-13T16:47:30.109478",
      "2023-03-13T16:47:30.347215",
      "2023-03-13T16:47:30.580511",
      "2023-03-13T16:47:30.815195",
      "2023-03-13T16:47:31.075637",
      "2023-03-13T16:47:31.313220",
      "2023-03-13T16:47:31.545202",
      "2023-03-13T16:47:31.776712",
      "2023-03-13T16:47:32.037871",
      "2023-03-13T16:47:32.280178",
      "2023-03-13T16:47:32.510166",
      "2023-03-13T16:47:32.744590",
      "2023-03-13T16:47:32.973984",
      "2023-03-13T16:47:33.207783",
      "2023-03-13T16:47:33.444358",
      "2023-03-13T16:47:33.678531",
      "2023-03-13T16:47:33.910213",
      "2023-03-13T16:47:34.143558",
      "2023-03-13T16:47:34.384543",
      "2023-03-13T16:47:34.623061",
      "2023-03-13T16:47:34.853070",
      "2023-03-13T16:47:35.086607",
      "2023-03-13T16:47:35.320162",
      "2023-03-13T16:47:35.553659",
      "2023-03-13T16:47:35.808911",
      "2023-03-13T16:47:36.043966",
      "2023-03-13T16:47:36.278841",
      "2023-03-13T16:47:36.512643",
      "2023-03-13T16:47:36.754139",
      "2023-03-13T16:47:37.012022",
      "2023-03-13T16:47:37.250377",
      "2023-03-13T16:47:37.483471",
      "2023-03-13T16:47:37.715983",
      "2023-03-13T16:47:37.959307",
      "2023-03-13T16:47:38.199823",
      "2023-03-13T16:47:38.429158",
      "2023-03-13T16:47:38.665551",
      "2023-03-13T16:47:38.913882",
      "2023-03-13T16:47:39.166424",
      "2023-03-13T16:47:39.406178",
      "2023-03-13T16:47:39.639830",
      "2023-03-13T16:47:39.871882",
      "2023-03-13T16:47:40.121619",
      "2023-03-13T16:47:40.406750",
      "2023-03-13T16:47:40.645136",
      "2023-03-13T16:47:40.885486",
      "2023-03-13T16:47:41.115745",
      "2023-03-13T16:47:41.369527",
      "2023-03-13T16:47:41.626222",
      "2023-03-13T16:47:41.882722",
      "2023-03-13T16:47:42.176392",
      "2023-03-13T16:47:42.444614",
      "2023-03-13T16:47:42.694064",
      "2023-03-13T16:47:42.949174",
      "2023-03-13T16:47:43.191395",
      "2023-03-13T16:47:43.426527",
      "2023-03-13T16:47:43.656464",
      "2023-03-13T16:47:43.888901",
      "2023-03-13T16:47:44.127342",
      "2023-03-13T16:47:44.381767",
      "2023-03-13T16:47:44.615795",
      "2023-03-13T16:47:44.847822",
      "2023-03-13T16:47:45.082437",
      "2023-03-13T16:47:45.328870",
      "2023-03-13T16:47:45.567451",
      "2023-03-13T16:47:45.801490",
      "2023-03-13T16:47:46.044546",
      "2023-03-13T16:47:46.276299",
      "2023-03-13T16:47:46.522719",
      "2023-03-13T16:47:46.758288",
      "2023-03-13T16:47:46.994415",
      "2023-03-13T16:47:47.264156",
      "2023-03-13T16:47:47.494421",
      "2023-03-13T16:47:47.739209",
      "2023-03-13T16:47:47.974673",
      "2023-03-13T16:47:48.209040",
      "2023-03-13T16:47:48.463701",
      "2023-03-13T16:47:48.710915",
      "2023-03-13T16:47:48.959181",
      "2023-03-13T16:47:49.198036",
      "2023-03-13T16:47:49.443424",
      "2023-03-13T16:47:49.681803",
      "2023-03-13T16:47:49.920873",
      "2023-03-13T16:47:50.151850",
      "2023-03-13T16:47:50.395731",
      "2023-03-13T16:47:50.658388",
      "2023-03-13T16:47:50.900469",
      "2023-03-13T16:47:51.148615",
      "2023-03-13T16:47:51.392495",
      "2023-03-13T16:47:51.637017",
      "2023-03-13T16:47:51.870577",
      "2023-03-13T16:47:52.118866",
      "2023-03-13T16:47:52.355949",
      "2023-03-13T16:47:52.600705",
      "2023-03-13T16:47:52.839497",
      "2023-03-13T16:47:53.081720",
      "2023-03-13T16:47:53.333163",
      "2023-03-13T16:47:53.568608",
      "2023-03-13T16:47:53.810317",
      "2023-03-13T16:47:54.050603",
      "2023-03-13T16:47:54.286862",
      "2023-03-13T16:47:54.521729",
      "2023-03-13T16:47:54.758579",
      "2023-03-13T16:47:54.994406",
      "2023-03-13T16:47:55.231090",
      "2023-03-13T16:47:55.463157",
      "2023-03-13T16:47:55.692211",
      "2023-03-13T16:47:55.924492",
      "2023-03-13T16:47:56.160076",
      "2023-03-13T16:47:56.401756",
      "2023-03-13T16:47:56.644097",
      "2023-03-13T16:47:56.878575",
      "2023-03-13T16:47:57.113345",
      "2023-03-13T16:47:57.343996",
      "2023-03-13T16:47:57.580492",
      "2023-03-13T16:47:57.809815",
      "2023-03-13T16:47:58.041493",
      "2023-03-13T16:47:58.270804",
      "2023-03-13T16:47:58.508665",
      "2023-03-13T16:47:58.753675",
      "2023-03-13T16:47:58.985404",
      "2023-03-13T16:47:59.215322",
      "2023-03-13T16:47:59.453882",
      "2023-03-13T16:47:59.685808",
      "2023-03-13T16:47:59.924095",
      "2023-03-13T16:48:00.157921",
      "2023-03-13T16:48:00.389530",
      "2023-03-13T16:48:00.618963",
      "2023-03-13T16:48:00.855241",
      "2023-03-13T16:48:01.092887",
      "2023-03-13T16:48:01.322293",
      "2023-03-13T16:48:01.558657",
      "2023-03-13T16:48:01.790140",
      "2023-03-13T16:48:02.033045",
      "2023-03-13T16:48:02.271304",
      "2023-03-13T16:48:02.502734",
      "2023-03-13T16:48:02.732068",
      "2023-03-13T16:48:02.963380",
      "2023-03-13T16:48:03.198705",
      "2023-03-13T16:48:03.434458",
      "2023-03-13T16:48:03.663741",
      "2023-03-13T16:48:03.894747",
      "2023-03-13T16:48:04.124207",
      "2023-03-13T16:48:04.355174",
      "2023-03-13T16:48:04.590567",
      "2023-03-13T16:48:04.820014",
      "2023-03-13T16:48:05.051260",
      "2023-03-13T16:48:05.281122"
    ],
    "values": [
      9.852847131469597,
      8.764321908306808,
      8.126253490570942,
      8.04557716351088,
      7.913632566592082,
      7.850044008014017,
      7.800773377923244,
      7.730371540700699,
      7.888756627699881,
      7.765123988552683,
      7.81792315913565,
      7.768781148260507,
      7.714749078280112,
      7.716097829231963,
      7.698501190847113,
      7.690473212393989,
      7.712778673577388,
      7.65577366591327,
      7.62352834603575,
      7.649306543062717,
      7.679459977526369,
      7.616914825681748,
      7.589935153711363,
      7.585540784689151,
      7.612036130045448,
      7.5917135021339295,
      7.57481015646101,
      7.586615445039117,
      7.6113660704045305,
      7.575549740143524,
      7.6101197190187335,
      7.520593950066595,
      7.598263070494674,
      7.6049770440964295,
      7.55053765718011,
      7.581605480390616,
      7.588557469881927,
      7.5751961520761,
      7.555150604080168,
      7.576438991384879,
      7.511730065271445,
      7.545591929335406,
      7.5943765609953235,
      7.534476354860618,
      7.5132115864067135,
      7.58442803783358,
      7.522677124889275,
      7.537099612263246,
      7.489530569440329,
      7.503886179574434,
      7.5395305745200805,
      7.507209660008579,
      7.530591345029363,
      7.539928931429161,
      7.487736423606355,
      7.513459877810051,
      7.499459955800594,
      7.495624148914532,
      7.550387001267663,
      7.492663566529517,
      7.4718033927599095,
      7.483835097070781,
      7.510467226856764,
      7.5318923225046515,
      7.536231973174603,
      7.468344937546279,
      7.513353796296687,
      7.4608081519874245,
      7.522043009677043,
      7.485936088040712,
      7.544691179158159,
      7.475569154892777,
      7.453003055507047,
      7.469285271538841,
      7.472952566159863,
      7.484909959239904,
      7.493178417994382,
      7.436295129644466,
      7.473650962888205,
      7.491304264730171,
      7.529230251922842,
      7.483703066666024,
      7.515785285702054,
      7.428489682270164,
      7.436988140025067,
      7.426259741451918,
      7.4677775441821534,
      7.453249371665952,
      7.489001384211281,
      7.447643453526121,
      7.430920579443288,
      7.438634933388779,
      7.464621406581142,
      7.508434179608608,
      7.487595856677705,
      7.487548007658847,
      7.495475280713149,
      7.469261683849791,
      7.474458697612372,
      7.46249480904509,
      7.434565518322434,
      7.411068236126141,
      7.417421919711091,
      7.458176539761522,
      7.437555957136434,
      7.493339510175206,
      7.472616948486842,
      7.459265854612023,
      7.446044300798991,
      7.458786199141253,
      7.456892678686316,
      7.492243588352302,
      7.476431943212829,
      7.459766908486915,
      7.461343736372994,
      7.440665998953193,
      7.458656410412021,
      7.4171893365009485,
      7.460244511880603,
      7.418187046198258,
      7.39673588861442,
      7.42830995280913,
      7.414247563747992,
      7.471142176213467,
      7.501501077125475,
      7.420458344902402,
      7.397356820783223,
      7.410541317089934,
      7.405596178748124,
      7.436799122450992,
      7.471724803443396,
      7.398725082282463,
      7.405247318502417,
      7.433022944139235,
      7.433989619507235,
      7.4552398641448905,
      7.4505572891843554,
      7.42430253592085,
      7.41252019246471,
      7.44610463838561,
      7.43602570197284,
      7.466755163098985,
      7.30772237861769,
      7.246460803328122,
      7.223852648699854,
      7.229876401937441,
      7.204726718133512,
      7.210601650688496,
      7.208028886477223,
      7.184764961786454,
      7.2032204113873615,
      7.2000630596684605,
      7.18574933120473,
      7.189907884199772,
      7.197646938393253,
      7.197202514809357,
      7.183727427637675,
      7.18355037386179,
      7.189121184188626,
      7.189898590291196,
      7.191712465830996,
      7.191617990695809,
      7.187830733972691,
      7.1703144237725525,
      7.19153739927698,
      7.174959794499728,
      7.167740064245289,
      7.201651035242476,
      7.188205589674356,
      7.173134998690808,
      7.16290654227721,
      7.1837197698032735,
      7.18817320443673,
      7.164598557263858,
      7.16570706200214,
      7.18011129356385,
      7.174136675293349,
      7.176577797326426,
      7.166630683536707,
      7.1789514248732145,
      7.177008153342543,
      7.177544294171163,
      7.188259968031728,
      7.168811492821426,
      7.163579417768494,
      7.162351574300504,
      7.17268140579219,
      7.16891276916971,
      7.178477905587369,
      7.164215237418401,
      7.173563530634807,
      7.190822613853804,
      7.136562926299945,
      7.136002420193426,
      7.131966464757115,
      7.150240720860545,
      7.133411613024487,
      7.143293025211999,
      7.131435811128196,
      7.142723657561535,
      7.134622233159166,
      7.130388077972216,
      7.134597282616907,
      7.1415993211210305,
      7.133751713310507,
      7.127803212838775,
      7.143797947074096,
      7.1392327120633565,
      7.140440435975182,
      7.140740304482317,
      7.122348653158762,
      7.141467893768701,
      7.1337473398936835,
      7.125040037465851,
      7.122013843131127,
      7.119361345221391,
      7.130859943586701,
      7.125338428958047,
      7.104740588042754,
      7.126207237647002,
      7.117878875103344,
      7.141005097368856,
      7.134082938459659,
      7.139674673578161,
      7.1288661575023635,
      7.132628154929525,
      7.1298735210995945,
      7.144649796114661,
      7.141853733417072,
      7.129271425106749,
      7.120182361322632,
      7.111857019691169,
      7.136915318458736,
      7.1259034737621905,
      7.14352482144149,
      7.120746309440219,
      7.131277576169471,
      7.125935557054871,
      7.130299713005431,
      7.118306116472612,
      7.117910157793652,
      7.124155452950625,
      7.12754854181748,
      7.122834859670897,
      7.115293456740737,
      7.130913226581418,
      7.127345622013323,
      7.121883322740183,
      7.135960689427039,
      7.125109636386736,
      7.116276911526866,
      7.123416610029023,
      7.140628184097514,
      7.144947541432066,
      7.119169578198315,
      7.135887600783144,
      7.122272265515177,
      7.129880814354382,
      7.130660004282996,
      7.124808995224136,
      7.12613643331119,
      7.117664888231346,
      7.115102765729527,
      7.119892372071516,
      7.126028906542695,
      7.113372888376153,
      7.121112388201141,
      7.132500904920944,
      7.125435006024124,
      7.120607475100781,
      7.116329856994921,
      7.119739463524627,
      7.1280606067766,
      7.119248719490509,
      7.139356049378837,
      7.123527855860518,
      7.113886891663003,
      7.125114801877402,
      7.134996858640532,
      7.133191377084164,
      7.130164588771355,
      7.1136057180790315,
      7.118524699442109,
      7.115088072077624,
      7.1222942607992055,
      7.134167111859189,
      7.126588272924755,
      7.141419332498531,
      7.124672165865566,
      7.131552772249518,
      7.133033766342568,
      7.1297103247261955,
      7.135022191371275,
      7.1285622222810785,
      7.138984504755328,
      7.127465058873045,
      7.1252821323485,
      7.116341819941638,
      7.122779190333503,
      7.117378406712322,
      7.126629112693453,
      7.142787687750607,
      7.130734615344781,
      7.1279487007818485,
      7.1445382718733494,
      7.114489985472976,
      7.124134832835432,
      7.115239246250771,
      7.124585939774102,
      7.126392483829297,
      7.1329067510081146,
      7.126368044136005,
      7.121618932503293,
      7.131969095052436,
      7.128764024069405,
      7.124670166099182,
      7.112060518441322,
      7.133436690262263,
      7.116075242859073,
      7.139911175778506,
      7.13503552155026,
      7.1265232865851775,
      7.132004677074676,
      7.124080614838782,
      7.125743919335259,
      7.119458796387368,
      7.109123034668373,
      7.138731800146291,
      7.106436414315287,
      7.125245561912635,
      7.1189333233047005,
      7.121877742969266,
      7.139198677273155,
      7.115032054341309,
      7.132515712110328,
      7.1379025094936965,
      7.11606990384966,
      7.1335730054708195,
      7.105063516998406,
      7.11481150686746,
      7.1255934946095865,
      7.115794230319921,
      7.122366389233443,
      7.130644124853975,
      7.142062186319396,
      7.1151758830464775,
      7.128218632800781,
      7.1328213801614595,
      7.131750998533171,
      7.12264116820406,
      7.1452177795645,
      7.1363791469590705,
      7.102777812471082,
      7.132710547709147,
      7.118672701198409,
      7.121910298248332,
      7.111159252137691,
      7.124346359536476,
      7.118347826170099,
      7.127730603508612,
      7.120414511271937,
      7.124992372620437,
      7.122990918556916,
      7.13379072904848,
      7.113634146458715,
      7.138349074071802,
      7.124446924162807,
      7.110025799052657,
      7.138193695808694,
      7.113097566928421,
      7.138332355356591,
      7.125082423493855,
      7.112582794845584,
      7.129898288712137,
      7.1167531593721165,
      7.135895669290191,
      7.127066280325063,
      7.132238495597498,
      7.145259170883423,
      7.131207734223783,
      7.121905021438705,
      7.133422447854798,
      7.132375664346735,
      7.1287741771367,
      7.142654221622263,
      7.119956228424202,
      7.13731512758376,
      7.130269026757621,
      7.117635085593527,
      7.129225633489755,
      7.128072214033485,
      7.132087474332041,
      7.138222310368104,
      7.1225626166060305,
      7.115813186282772,
      7.11589310068169,
      7.1262549513043325,
      7.128961616672892,
      7.117237711557424,
      7.121771540924753
    ]
  },
  "val": {
    "steps": [
      0,
      1,
      2,
      3,
      4,
      5,
      6,
      7,
      8,
      9,
      10,
      11,
      12,
      13,
      14,
      15,
      16,
      17,
      18,
      19,
      20,
      21,
      22,
      23,
      24,
      25,
      26,
      27,
      28,
      29,
      30,
      31,
      32,
      33,
      34,
      35,
      36,
      37,
      38,
      39,
      40,
      41,
      42,
      43,
      44,
      45,
      46,
      47,
      48,
      49,
      50,
      51,
      52,
      53,
      54,
      55,
      56,
      57,
      58,
      59,
      60,
      61,
      62,
      63,
      64,
      65,
      66,
      67,
      68,
      69,
      70,
      71,
      72,
      73,
      74,
      75,
      76,
      77,
      78,
      79,
      80,
      81,
      82,
      83,
      84,
      85,
      86,
      87,
      88,
      89,
      90,
      91,
      92,
      93,
      94,
      95,
      96,
      97,
      98,
      99,
      100,
      101,
      102,
      103,
      104,
      105,
      106,
      107,
      108,
      109,
      110,
      111,
      112,
      113,
      114,
      115,
      116,
      117,
      118,
      119,
      120,
      121,
      122,
      123,
      124,
      125,
      126,
      127,
      128,
      129,
      130,
      131,
      132,
      133,
      134,
      135,
      136,
      137,
      138,
      139,
      140,
      141,
      142,
      143,
      144,
      145,
      146,
      147,
      148,
      149,
      150,
      151,
      152,
      153,
      154,
      155,
      156,
      157,
      158,
      159,
      160,
      161,
      162,
      163,
      164,
      165,
      166,
      167,
      168,
      169,
      170,
      171,
      172,
      173,
      174,
      175,
      176,
      177,
      178,
      179,
      180,
      181,
      182,
      183,
      184,
      185,
      186,
      187,
      188,
      189,
      190,
      191,
      192,
      193,
      194,
      195,
      196,
      197,
      198,
      199,
      200,
      201,
      202,
      203,
      204,
      205,
      206,
      207,
      208,
      209,
      210,
      211,
      212,
      213,
      214,
      215,
      216,
      217,
      218,
      219,
      220,
      221,
      222,
      223,
      224,
      225,
      226,
      227,
      228,
      229,
      230,
      231,
      232,
      233,
      234,
      235,
      236,
      237,
      238,
      239,
      240,
      241,
      242,
      243,
      244,
      245,
      246,
      247,
      248,
      249,
      250,
      251,
      252,
      253,
      254,
      255,
      256,
      257,
      258,
      259,
      260,
      261,
      262,
      263,
      264,
      265,
      266,
      267,
      268,
      269,
      270,
      271,
      272,
      273,
      274,
      275,
      276,
      277,
      278,
      279,
      280,
      281,
      282,
      283,
      284,
      285,
      286,
      287,
      288,
      289,
      290,
      291,
      292,
      293,
      294,
      295,
      296,
      297,
      298,
      299,
      300,
      301,
      302,
      303,
      304,
      305,
      306,
      307,
      308,
      309,
      310,
      311,
      312,
      313,
      314,
      315,
      316,
      317,
      318,
      319,
      320,
      321,
      322,
      323,
      324,
      325,
      326,
      327,
      328,
      329,
      330,
      331,
      332,
      333,
      334,
      335,
      336,
      337,
      338,
      339,
      340,
      341,
      342,
      343,
      344,
      345,
      346,
      347,
      348,
      349,
      350,
      351,
      352,
      353,
      354,
      355,
      356,
      357,
      358,
      359,
      360,
      361,
      362,
      363,
      364,
      365,
      366,
      367,
      368,
      369,
      370,
      371,
      372,
      373,
      374,
      375,
      376,
      377,
      378,
      379,
      380,
      381,
      382,
      383,
      384,
      385,
      386,
      387,
      388,
      389,
      390,
      391,
      392,
      393,
      394,
      395,
      396,
      397,
      398,
      399
    ],
    "timestamps": [
      "2023-03-13T16:46:28.584437",
      "2023-03-13T16:46:28.868701",
      "2023-03-13T16:46:29.135630",
      "2023-03-13T16:46:29.400420",
      "2023-03-13T16:46:29.646736",
      "2023-03-13T16:46:29.877874",
      "2023-03-13T16:46:30.109579",
      "2023-03-13T16:46:30.340067",
      "2023-03-13T16:46:30.590579",
      "2023-03-13T16:46:30.862411",
      "2023-03-13T16:46:31.145497",
      "2023-03-13T16:46:31.400227",
      "2023-03-13T16:46:31.636427",
      "2023-03-13T16:46:31.866190",
      "2023-03-13T16:46:32.100081",
      "2023-03-13T16:46:32.329934",
      "2023-03-13T16:46:32.591588",
      "2023-03-13T16:46:32.853423",
      "2023-03-13T16:46:33.088228",
      "2023-03-13T16:46:33.318543",
      "2023-03-13T16:46:33.557221",
      "2023-03-13T16:46:33.802649",
      "2023-03-13T16:46:34.036313",
      "2023-03-13T16:46:34.265842",
      "2023-03-13T16:46:34.545054",
      "2023-03-13T16:46:34.774553",
      "2023-03-13T16:46:35.024571",
      "2023-03-13T16:46:35.270089",
      "2023-03-13T16:46:35.523368",
      "2023-03-13T16:46:35.761153",
      "2023-03-13T16:46:36.016419",
      "2023-03-13T16:46:36.248395",
      "2023-03-13T16:46:36.516014",
      "2023-03-13T16:46:36.752390",
      "2023-03-13T16:46:36.994019",
      "2023-03-13T16:46:37.223626",
      "2023-03-13T16:46:37.454587",
      "2023-03-13T16:46:37.689742",
      "2023-03-13T16:46:37.929823",
      "2023-03-13T16:46:38.185256",
      "2023-03-13T16:46:38.430308",
      "2023-03-13T16:46:38.668830",
      "2023-03-13T16:46:38.905794",
      "2023-03-13T16:46:39.148226",
      "2023-03-13T16:46:39.380677",
      "2023-03-13T16:46:39.613792",
      "2023-03-13T16:46:39.844274",
      "2023-03-13T16:46:40.088700",
      "2023-03-13T16:46:40.332527",
      "2023-03-13T16:46:40.592876",
      "2023-03-13T16:46:40.830298",
      "2023-03-13T16:46:41.060588",
      "2023-03-13T16:46:41.300108",
      "2023-03-13T16:46:41.532062",
      "2023-03-13T16:46:41.774271",
      "2023-03-13T16:46:42.013591",
      "2023-03-13T16:46:42.282361",
      "2023-03-13T16:46:42.541267",
      "2023-03-13T16:46:42.771525",
      "2023-03-13T16:46:43.037158",
      "2023-03-13T16:46:43.300643",
      "2023-03-13T16:46:43.546338",
      "2023-03-13T16:46:43.800498",
      "2023-03-13T16:46:44.036066",
      "2023-03-13T16:46:44.268425",
      "2023-03-13T16:46:44.500702",
      "2023-03-13T16:46:44.731326",
      "2023-03-13T16:46:44.971253",
      "2023-03-13T16:46:45.202235",
      "2023-03-13T16:46:45.443391",
      "2023-03-13T16:46:45.690412",
      "2023-03-13T16:46:45.926325",
      "2023-03-13T16:46:46.171157",
      "2023-03-13T16:46:46.419901",
      "2023-03-13T16:46:46.663455",
      "2023-03-13T16:46:46.909150",
      "2023-03-13T16:46:47.145245",
      "2023-03-13T16:46:47.405360",
      "2023-03-13T16:46:47.673408",
      "2023-03-13T16:46:47.930636",
      "2023-03-13T16:46:48.202233",
      "2023-03-13T16:46:48.445701",
      "2023-03-13T16:46:48.686986",
      "2023-03-13T16:46:48.930036",
      "2023-03-13T16:46:49.180896",
      "2023-03-13T16:46:49.428443",
      "2023-03-13T16:46:49.662947",
      "2023-03-13T16:46:49.898883",
      "2023-03-13T16:46:50.128418",
      "2023-03-13T16:46:50.360914",
      "2023-03-13T16:46:50.597035",
      "2023-03-13T16:46:50.826556",
      "2023-03-13T16:46:51.064537",
      "2023-03-13T16:46:51.295377",
      "2023-03-13T16:46:51.527618",
      "2023-03-13T16:46:51.757391",
      "2023-03-13T16:46:51.989488",
      "2023-03-13T16:46:52.234686",
      "2023-03-13T16:46:52.486649",
      "2023-03-13T16:46:52.731061",
      "2023-03-13T16:46:52.982507",
      "2023-03-13T16:46:53.222833",
      "2023-03-13T16:46:53.473442",
      "2023-03-13T16:46:53.703633",
      "2023-03-13T16:46:53.934941",
      "2023-03-13T16:46:54.172081",
      "2023-03-13T16:46:54.423491",
      "2023-03-13T16:46:54.684366",
      "2023-03-13T16:46:54.917130",
      "2023-03-13T16:46:55.148852",
      "2023-03-13T16:46:55.385333",
      "2023-03-13T16:46:55.617428",
      "2023-03-13T16:46:55.851585",
      "2023-03-13T16:46:56.082479",
      "2023-03-13T16:46:56.314314",
      "2023-03-13T16:46:56.551904",
      "2023-03-13T16:46:56.796314",
      "2023-03-13T16:46:57.033893",
      "2023-03-13T16:46:57.283925",
      "2023-03-13T16:46:57.517195",
      "2023-03-13T16:46:57.760110",
      "2023-03-13T16:46:58.000179",
      "2023-03-13T16:46:58.240355",
      "2023-03-13T16:46:58.484739",
      "2023-03-13T16:46:58.725368",
      "2023-03-13T16:46:58.960443",
      "2023-03-13T16:46:59.192558",
      "2023-03-13T16:46:59.435447",
      "2023-03-13T16:46:59.669177",
      "2023-03-13T16:46:59.901839",
      "2023-03-13T16:47:00.153001",
      "2023-03-13T16:47:00.395924",
      "2023-03-13T16:47:00.633609",
      "2023-03-13T16:47:00.880285",
      "2023-03-13T16:47:01.121990",
      "2023-03-13T16:47:01.376918",
      "2023-03-13T16:47:01.612512",
      "2023-03-13T16:47:01.882443",
      "2023-03-13T16:47:02.122270",
      "2023-03-13T16:47:02.360918",
      "2023-03-13T16:47:02.598414",
      "2023-03-13T16:47:02.835457",
      "2023-03-13T16:47:03.082337",
      "2023-03-13T16:47:03.313813",
      "2023-03-13T16:47:03.555853",
      "2023-03-13T16:47:03.800113",
      "2023-03-13T16:47:04.051000",
      "2023-03-13T16:47:04.303617",
      "2023-03-13T16:47:04.546988",
      "2023-03-13T16:47:04.787690",
      "2023-03-13T16:47:05.039368",
      "2023-03-13T16:47:05.276879",
      "2023-03-13T16:47:05.530676",
      "2023-03-13T16:47:05.774871",
      "2023-03-13T16:47:06.015855",
      "2023-03-13T16:47:06.266135",
      "2023-03-13T16:47:06.510042",
      "2023-03-13T16:47:06.754888",
      "2023-03-13T16:47:06.997040",
      "2023-03-13T16:47:07.241643",
      "2023-03-13T16:47:07.480144",
      "2023-03-13T16:47:07.719801",
      "2023-03-13T16:47:07.970095",
      "2023-03-13T16:47:08.211366",
      "2023-03-13T16:47:08.452554",
      "2023-03-13T16:47:08.712663",
      "2023-03-13T16:47:08.946208",
      "2023-03-13T16:47:09.183910",
      "2023-03-13T16:47:09.414597",
      "2023-03-13T16:47:09.653319",
      "2023-03-13T16:47:09.907886",
      "2023-03-13T16:47:10.148179",
      "2023-03-13T16:47:10.411017",
      "2023-03-13T16:47:10.646869",
      "2023-03-13T16:47:10.900198",
      "2023-03-13T16:47:11.134363",
      "2023-03-13T16:47:11.369729",
      "2023-03-13T16:47:11.605608",
      "2023-03-13T16:47:11.839157",
      "2023-03-13T16:47:12.088073",
      "2023-03-13T16:47:12.333914",
      "2023-03-13T16:47:12.585055",
      "2023-03-13T16:47:12.860820",
      "2023-03-13T16:47:13.094156",
      "2023-03-13T16:47:13.325780",
      "2023-03-13T16:47:13.556544",
      "2023-03-13T16:47:13.801396",
      "2023-03-13T16:47:14.039462",
      "2023-03-13T16:47:14.273264",
      "2023-03-13T16:47:14.504572",
      "2023-03-13T16:47:14.755543",
      "2023-03-13T16:47:15.010675",
      "2023-03-13T16:47:15.250841",
      "2023-03-13T16:47:15.487666",
      "2023-03-13T16:47:15.728103",
      "2023-03-13T16:47:15.983170",
      "2023-03-13T16:47:16.243050",
      "2023-03-13T16:47:16.520653",
      "2023-03-13T16:47:16.771191",
      "2023-03-13T16:47:17.001638",
      "2023-03-13T16:47:17.272865",
      "2023-03-13T16:47:17.502529",
      "2023-03-13T16:47:17.737614",
      "2023-03-13T16:47:17.966856",
      "2023-03-13T16:47:18.224414",
      "2023-03-13T16:47:18.491555",
      "2023-03-13T16:47:18.738323",
      "2023-03-13T16:47:18.977251",
      "2023-03-13T16:47:19.211061",
      "2023-03-13T16:47:19.448905",
      "2023-03-13T16:47:19.733598",
      "2023-03-13T16:47:19.994868",
      "2023-03-13T16:47:20.249127",
      "2023-03-13T16:47:20.483526",
      "2023-03-13T16:47:20.730654",
      "2023-03-13T16:47:20.971225",
      "2023-03-13T16:47:21.227003",
      "2023-03-13T16:47:21.495528",
      "2023-03-13T16:47:21.754120",
      "2023-03-13T16:47:21.988208",
      "2023-03-13T16:47:22.256710",
      "2023-03-13T16:47:22.552407",
      "2023-03-13T16:47:22.812758",
      "2023-03-13T16:47:23.073533",
      "2023-03-13T16:47:23.305985",
      "2023-03-13T16:47:23.567886",
      "2023-03-13T16:47:23.811113",
      "2023-03-13T16:47:24.053349",
      "2023-03-13T16:47:24.288659",
      "2023-03-13T16:47:24.524221",
      "2023-03-13T16:47:24.764945",
      "2023-03-13T16:47:25.005039",
      "2023-03-13T16:47:25.238723",
      "2023-03-13T16:47:25.474003",
      "2023-03-13T16:47:25.716479",
      "2023-03-13T16:47:25.952748",
      "2023-03-13T16:47:26.219231",
      "2023-03-13T16:47:26.456766",
      "2023-03-13T16:47:26.739358",
      "2023-03-13T16:47:26.975739",
      "2023-03-13T16:47:27.233391",
      "2023-03-13T16:47:27.479823",
      "2023-03-13T16:47:27.716613",
      "2023-03-13T16:47:27.949220",
      "2023-03-13T16:47:28.182339",
      "2023-03-13T16:47:28.424096",
      "2023-03-13T16:47:28.667697",
      "2023-03-13T16:47:28.909718",
      "2023-03-13T16:47:29.147884",
      "2023-03-13T16:47:29.381794",
      "2023-03-13T16:47:29.631321",
      "2023-03-13T16:47:29.887921",
      "2023-03-13T16:47:30.129032",
      "2023-03-13T16:47:30.365016",
      "2023-03-13T16:47:30.599062",
      "2023-03-13T16:47:30.833278",
      "2023-03-13T16:47:31.096878",
      "2023-03-13T16:47:31.331265",
      "2023-03-13T16:47:31.562948",
      "2023-03-13T16:47:31.795046",
      "2023-03-13T16:47:32.055771",
      "2023-03-13T16:47:32.298027",
      "2023-03-13T16:47:32.527806",
      "2023-03-13T16:47:32.762262",
      "2023-03-13T16:47:32.991636",
      "2023-03-13T16:47:33.225502",
      "2023-03-13T16:47:33.462298",
      "2023-03-13T16:47:33.696254",
      "2023-03-13T16:47:33.927985",
      "2023-03-13T16:47:34.161664",
      "2023-03-13T16:47:34.402333",
      "2023-03-13T16:47:34.640857",
      "2023-03-13T16:47:34.871095",
      "2023-03-13T16:47:35.105792",
      "2023-03-13T16:47:35.338072",
      "2023-03-13T16:47:35.572800",
      "2023-03-13T16:47:35.827141",
      "2023-03-13T16:47:36.061658",
      "2023-03-13T16:47:36.296541",
      "2023-03-13T16:47:36.530378",
      "2023-03-13T16:47:36.772126",
      "2023-03-13T16:47:37.029732",
      "2023-03-13T16:47:37.268139",
      "2023-03-13T16:47:37.501288",
      "2023-03-13T16:47:37.733796",
      "2023-03-13T16:47:37.979509",
      "2023-03-13T16:47:38.217540",
      "2023-03-13T16:47:38.446876",
      "2023-03-13T16:47:38.684873",
      "2023-03-13T16:47:38.931579",
      "2023-03-13T16:47:39.186024",
      "2023-03-13T16:47:39.424112",
      "2023-03-13T16:47:39.657609",
      "2023-03-13T16:47:39.889600",
      "2023-03-13T16:47:40.142465",
      "2023-03-13T16:47:40.426617",
      "2023-03-13T16:47:40.662946",
      "2023-03-13T16:47:40.903294",
      "2023-03-13T16:47:41.133461",
      "2023-03-13T16:47:41.389041",
      "2023-03-13T16:47:41.646538",
      "2023-03-13T16:47:41.904541",
      "2023-03-13T16:47:42.199474",
      "2023-03-13T16:47:42.463946",
      "2023-03-13T16:47:42.713902",
      "2023-03-13T16:47:42.966981",
      "2023-03-13T16:47:43.209112",
      "2023-03-13T16:47:43.444309",
      "2023-03-13T16:47:43.674136",
      "2023-03-13T16:47:43.906839",
      "2023-03-13T16:47:44.145079",
      "2023-03-13T16:47:44.400465",
      "2023-03-13T16:47:44.633701",
      "2023-03-13T16:47:44.865585",
      "2023-03-13T16:47:45.101923",
      "2023-03-13T16:47:45.346766",
      "2023-03-13T16:47:45.585269",
      "2023-03-13T16:47:45.819304",
      "2023-03-13T16:47:46.062516",
      "2023-03-13T16:47:46.294125",
      "2023-03-13T16:47:46.540519",
      "2023-03-13T16:47:46.776069",
      "2023-03-13T16:47:47.012107",
      "2023-03-13T16:47:47.282012",
      "2023-03-13T16:47:47.512060",
      "2023-03-13T16:47:47.756975",
      "2023-03-13T16:47:47.992566",
      "2023-03-13T16:47:48.227201",
      "2023-03-13T16:47:48.485564",
      "2023-03-13T16:47:48.728727",
      "2023-03-13T16:47:48.977154",
      "2023-03-13T16:47:49.216103",
      "2023-03-13T16:47:49.462167",
      "2023-03-13T16:47:49.699733",
      "2023-03-13T16:47:49.938646",
      "2023-03-13T16:47:50.169578",
      "2023-03-13T16:47:50.413454",
      "2023-03-13T16:47:50.676227",
      "2023-03-13T16:47:50.923123",
      "2023-03-13T16:47:51.166781",
      "2023-03-13T16:47:51.410820",
      "2023-03-13T16:47:51.654680",
      "2023-03-13T16:47:51.889911",
      "2023-03-13T16:47:52.136917",
      "2023-03-13T16:47:52.377448",
      "2023-03-13T16:47:52.618449",
      "2023-03-13T16:47:52.857709",
      "2023-03-13T16:47:53.101604",
      "2023-03-13T16:47:53.353117",
      "2023-03-13T16:47:53.586740",
      "2023-03-13T16:47:53.828084",
      "2023-03-13T16:47:54.068428",
      "2023-03-13T16:47:54.304616",
      "2023-03-13T16:47:54.539448",
      "2023-03-13T16:47:54.776335",
      "2023-03-13T16:47:55.012074",
      "2023-03-13T16:47:55.249075",
      "2023-03-13T16:47:55.480814",
      "2023-03-13T16:47:55.709880",
      "2023-03-13T16:47:55.942263",
      "2023-03-13T16:47:56.177653",
      "2023-03-13T16:47:56.419687",
      "2023-03-13T16:47:56.662025",
      "2023-03-13T16:47:56.896250",
      "2023-03-13T16:47:57.130934",
      "2023-03-13T16:47:57.362647",
      "2023-03-13T16:47:57.598166",
      "2023-03-13T16:47:57.827618",
      "2023-03-13T16:47:58.059245",
      "2023-03-13T16:47:58.288460",
      "2023-03-13T16:47:58.526458",
      "2023-03-13T16:47:58.771385",
      "2023-03-13T16:47:59.003171",
      "2023-03-13T16:47:59.233024",
      "2023-03-13T16:47:59.471781",
      "2023-03-13T16:47:59.703530",
      "2023-03-13T16:47:59.942190",
      "2023-03-13T16:48:00.175682",
      "2023-03-13T16:48:00.407354",
      "2023-03-13T16:48:00.636616",
      "2023-03-13T16:48:00.873242",
      "2023-03-13T16:48:01.110575",
      "2023-03-13T16:48:01.340658",
      "2023-03-13T16:48:01.576398",
      "2023-03-13T16:48:01.808003",
      "2023-03-13T16:48:02.052948",
      "2023-03-13T16:48:02.289013",
      "2023-03-13T16:48:02.520461",
      "2023-03-13T16:48:02.749766",
      "2023-03-13T16:48:02.981132",
      "2023-03-13T16:48:03.216379",
      "2023-03-13T16:48:03.452181",
      "2023-03-13T16:48:03.681372",
      "2023-03-13T16:48:03.912490",
      "2023-03-13T16:48:04.141954",
      "2023-03-13T16:48:04.373108",
      "2023-03-13T16:48:04.608274",
      "2023-03-13T16:48:04.838088",
      "2023-03-13T16:48:05.069014",
      "2023-03-13T16:48:05.298806"
    ],
    "values": [
      9.23809634850621,
      8.230473283259737,
      8.055510919960298,
      7.963081888447988,
      8.026844466194285,
      7.795510058727163,
      7.817023955500818,
      7.800762485418836,
      7.749406389105441,
      7.812669865858832,
      7.904226581607648,
      7.784664074076422,
      7.7050597486314505,
      7.830988980641635,
      7.821786791996078,
      7.675704078265335,
      7.793623294282464,
      7.701558875919846,
      7.710286200900832,
      7.681842838588875,
      7.771026137895211,
      7.684345288045821,
      7.70513342303259,
      7.644421087552229,
      7.726222132848264,
      7.626113783802235,
      7.621468743369933,
      7.615742167211623,
      7.615429577365501,
      7.710980156414967,
      7.623866228140909,
      7.562738250276903,
      7.621835675944816,
      7.681173255223728,
      7.633910459869467,
      7.691414384094197,
      7.804864355622809,
      7.718267175230126,
      7.834257311244327,
      7.622484021295333,
      7.616240810467692,
      7.634094563764757,
      7.689191343735184,
      7.579330972090846,
      7.617159127799175,
      7.681336615910473,
      7.596423957974288,
      7.6490051683880775,
      7.565812411366679,
      7.60211973464132,
      7.578582664642757,
      7.633399764841516,
      7.68971458200618,
      7.610094552618214,
      7.600512714652822,
      7.523832748744693,
      7.52240887663113,
      7.623890230751823,
      7.697362278796035,
      7.599918954878426,
      7.540314965687716,
      7.574982458172629,
      7.59132813967108,
      7.679747786591243,
      7.602201690628165,
      7.685348557047268,
      7.616203054397602,
      7.6100598675537015,
      7.616379173680821,
      7.626102861660068,
      7.591340294730098,
      7.629441630087553,
      7.621942869592348,
      7.640153852632286,
      7.545202382471061,
      7.6536858557581215,
      7.58841462450895,
      7.5367304727619455,
      7.620521179244138,
      7.616413076761932,
      7.619296293711477,
      7.598985674158628,
      7.648863496917381,
      7.471124535399712,
      7.573833041852808,
      7.512012970896632,
      7.587310871909989,
      7.536336209841982,
      7.559963148941366,
      7.540060660948424,
      7.52481502452513,
      7.5871941743268625,
      7.4955249357331954,
      7.578545314683552,
      7.619166596928901,
      7.574950918958097,
      7.524784175988904,
      7.568342258376073,
      7.50671012597487,
      7.522842294728255,
      7.550195744825349,
      7.514754692825742,
      7.660010370172647,
      7.654844777287094,
      7.594247605200769,
      7.531864768685864,
      7.520803304247167,
      7.5370121668024215,
      7.5047616717608765,
      7.5305318425570675,
      7.5864028178889,
      7.653988697412961,
      7.467418472326301,
      7.526759892938143,
      7.533394731978666,
      7.5303235195632565,
      7.532388880052184,
      7.512393943257632,
      7.525273848942666,
      7.539954947558519,
      7.533616598560023,
      7.553320914374543,
      7.658399488663536,
      7.622164738308561,
      7.586671339667532,
      7.469154962934651,
      7.553537130001065,
      7.499252769992026,
      7.49581636338141,
      7.530498158996816,
      7.489332967118097,
      7.460900460282912,
      7.56840616745602,
      7.533975944438131,
      7.580400450650347,
      7.569492825196266,
      7.584804655746803,
      7.478549344451291,
      7.536717248675094,
      7.547353968053523,
      7.627119013263824,
      7.540736116682102,
      7.3847429020292505,
      7.363684445210123,
      7.364766752738501,
      7.351191668777996,
      7.352636968692272,
      7.3238798585966105,
      7.348652205577491,
      7.347914499730815,
      7.330424337678478,
      7.35127396103492,
      7.329421166255891,
      7.362018996133171,
      7.3119404891006825,
      7.326222175846756,
      7.346200827010857,
      7.294257760084463,
      7.348554093145614,
      7.293082775336818,
      7.306034706761546,
      7.3353482801453085,
      7.317246214931087,
      7.323811673352307,
      7.331067220378285,
      7.316952265042566,
      7.308822649990626,
      7.344444267417272,
      7.3405305398032015,
      7.311729381474512,
      7.318745747250827,
      7.30097652785426,
      7.306151386091138,
      7.31840253669246,
      7.311781262761402,
      7.288677437454085,
      7.307716428711861,
      7.304715537245343,
      7.319223127582937,
      7.304724476182576,
      7.3058621189033115,
      7.3480841047581436,
      7.3117912126031595,
      7.303629605802922,
      7.307665572555644,
      7.3171145073082595,
      7.294992246318266,
      7.331070479223165,
      7.320363781263661,
      7.322155210494334,
      7.354732601337616,
      7.320656607029422,
      7.3041442620730095,
      7.303007848179384,
      7.2488771054290355,
      7.272261141508158,
      7.287793981965412,
      7.273179104096032,
      7.285405009660124,
      7.277988434031326,
      7.303514808385382,
      7.3114767797577525,
      7.30228979317653,
      7.300180363628907,
      7.2619808786671545,
      7.287731248222937,
      7.2774438595243875,
      7.252602754159374,
      7.296840762367509,
      7.286504604980687,
      7.286591735940537,
      7.261996157488265,
      7.28283053037909,
      7.308664267852618,
      7.316485424718981,
      7.33017303793427,
      7.278373881774444,
      7.28481810613656,
      7.309259728817986,
      7.3014071249626324,
      7.32063869980327,
      7.2565900605854665,
      7.312967879590582,
      7.29726587882695,
      7.270922004043707,
      7.293839236004748,
      7.297877734130685,
      7.278251085751519,
      7.269358851451403,
      7.299661786750829,
      7.2864021184194865,
      7.277418662578713,
      7.257335622917156,
      7.289931531043202,
      7.290576307661501,
      7.271572453952565,
      7.2708362265598465,
      7.322665690039017,
      7.306292434678622,
      7.3072006458921335,
      7.279155225417954,
      7.289162119771855,
      7.2653515606730625,
      7.300910115782379,
      7.285313033902058,
      7.265979965861739,
      7.320468687581548,
      7.282015600618112,
      7.250395099427557,
      7.260260395326155,
      7.2875740408883205,
      7.292265122159867,
      7.283291199857686,
      7.333530956312707,
      7.254999525708738,
      7.278194002762467,
      7.3005823715537135,
      7.302078688030557,
      7.269673725116125,
      7.275196712842695,
      7.279406139782624,
      7.2867314036693385,
      7.280752900787031,
      7.277307976514732,
      7.317093701920564,
      7.2854713071908135,
      7.2430185304892944,
      7.281529263871323,
      7.294001551360194,
      7.302201195565559,
      7.289245699210848,
      7.320324784709466,
      7.302970592167176,
      7.281545002680789,
      7.2991525915547495,
      7.277598215974305,
      7.299028892828315,
      7.284283444092665,
      7.27873068824683,
      7.275010409721584,
      7.27451786187669,
      7.264993182007286,
      7.306558685084677,
      7.289771501479843,
      7.2695233747616275,
      7.2891377115849965,
      7.243574038637895,
      7.266139546664277,
      7.250770732737332,
      7.275864333725837,
      7.294327934748695,
      7.311444840300801,
      7.279841242751772,
      7.275665194257456,
      7.26236944539059,
      7.295609802056409,
      7.291208355530823,
      7.262176105388255,
      7.261000908484687,
      7.268318877336694,
      7.256992486020439,
      7.2795176653042715,
      7.3004140904813015,
      7.268880421277508,
      7.279833593306483,
      7.281119178961928,
      7.302944728274395,
      7.298879055680136,
      7.240904325782822,
      7.283238141226496,
      7.274674387846841,
      7.272868429699493,
      7.288819819112925,
      7.312843177901795,
      7.278262654061796,
      7.28788117542061,
      7.273708393244983,
      7.328337773287904,
      7.268803113098717,
      7.299401773332567,
      7.288840000502205,
      7.285067517909921,
      7.272589379526844,
      7.279544147074576,
      7.276982798912696,
      7.268717393496685,
      7.323134754012628,
      7.312204222569588,
      7.280165224022312,
      7.300035550535094,
      7.306664929261491,
      7.271788669169586,
      7.257917257948586,
      7.276932612645679,
      7.258797046128239,
      7.290390501688587,
      7.262712601282968,
      7.253985237473152,
      7.270353092637707,
      7.250223582890615,
      7.2994385694597295,
      7.304365132866681,
      7.282415595719355,
      7.292100027390002,
      7.268357123346833,
      7.282165171583148,
      7.261946354728357,
      7.290878208078948,
      7.283105592687694,
      7.291799173766599,
      7.2778114033416985,
      7.2502409174416895,
      7.254131845659755,
      7.264321651826171,
      7.275065364335686,
      7.257293868182748,
      7.2661954254772665,
      7.257347045067853,
      7.276423237372967,
      7.2986653741611445,
      7.318169142543196,
      7.282028261857692,
      7.282738156572418,
      7.30191634497047,
      7.256426110909439,
      7.290066151315547,
      7.272025042290927,
      7.278447177378373,
      7.289180620151678,
      7.269143924480995,
      7.2797852786862,
      7.302019182861876,
      7.307405722509756,
      7.2642692423199495,
      7.323094813735087,
      7.279621000829501,
      7.300616041396784,
      7.292151563755651,
      7.292242051968765,
      7.267490748363916,
      7.289182568505716,
      7.306866390392164,
      7.301940900564247,
      7.289398613680608,
      7.275851203162626,
      7.284037310223878,
      7.284105556818552,
      7.293572442268787,
      7.277111051900595,
      7.271312069229883,
      7.2978697706945805,
      7.260322982774488,
      7.306041326438613,
      7.279429547780294,
      7.271637833919198,
      7.285787990629059,
      7.320847913962174,
      7.267562071180445,
      7.280083791691341,
      7.2503311055795505
    ]
  }
}