{
  "artifacts": [],
  "command": "run",
  "experiment": {
    "base_dir": "/home/jmouton/Documents/MSc/Code/mouton-msc-code/inference",
    "dependencies": [
      "matplotlib==3.4.3",
      "numpy==1.21.2",
      "sacred==0.8.2",
      "torch==1.9.1",
      "tqdm==4.62.3"
    ],
    "mainfile": "ex_residual_nf_density_estimation.py",
    "name": "residual_nf",
    "repositories": [
      {
        "commit": "e3a328c9349bccd5f071f5ecf2333839cf48f7f3",
        "dirty": true,
        "url": "git@git.cs.sun.ac.za:21054479/mouton-msc-code.git"
      },
      {
        "commit": "e3a328c9349bccd5f071f5ecf2333839cf48f7f3",
        "dirty": true,
        "url": "git@git.cs.sun.ac.za:21054479/mouton-msc-code.git"
      },
      {
        "commit": "e3a328c9349bccd5f071f5ecf2333839cf48f7f3",
        "dirty": true,
        "url": "git@git.cs.sun.ac.za:21054479/mouton-msc-code.git"
      },
      {
        "commit": "e3a328c9349bccd5f071f5ecf2333839cf48f7f3",
        "dirty": true,
        "url": "git@git.cs.sun.ac.za:21054479/mouton-msc-code.git"
      },
      {
        "commit": "e3a328c9349bccd5f071f5ecf2333839cf48f7f3",
        "dirty": true,
        "url": "git@git.cs.sun.ac.za:21054479/mouton-msc-code.git"
      },
      {
        "commit": "e3a328c9349bccd5f071f5ecf2333839cf48f7f3",
        "dirty": true,
        "url": "git@git.cs.sun.ac.za:21054479/mouton-msc-code.git"
      },
      {
        "commit": "e3a328c9349bccd5f071f5ecf2333839cf48f7f3",
        "dirty": true,
        "url": "git@git.cs.sun.ac.za:21054479/mouton-msc-code.git"
      },
      {
        "commit": "e3a328c9349bccd5f071f5ecf2333839cf48f7f3",
        "dirty": true,
        "url": "git@git.cs.sun.ac.za:21054479/mouton-msc-code.git"
      },
      {
        "commit": "e3a328c9349bccd5f071f5ecf2333839cf48f7f3",
        "dirty": true,
        "url": "git@git.cs.sun.ac.za:21054479/mouton-msc-code.git"
      },
      {
        "commit": "e3a328c9349bccd5f071f5ecf2333839cf48f7f3",
        "dirty": true,
        "url": "git@git.cs.sun.ac.za:21054479/mouton-msc-code.git"
      },
      {
        "commit": "e3a328c9349bccd5f071f5ecf2333839cf48f7f3",
        "dirty": true,
        "url": "git@git.cs.sun.ac.za:21054479/mouton-msc-code.git"
      },
      {
        "commit": "e3a328c9349bccd5f071f5ecf2333839cf48f7f3",
        "dirty": true,
        "url": "git@git.cs.sun.ac.za:21054479/mouton-msc-code.git"
      },
      {
        "commit": "e3a328c9349bccd5f071f5ecf2333839cf48f7f3",
        "dirty": true,
        "url": "git@git.cs.sun.ac.za:21054479/mouton-msc-code.git"
      },
      {
        "commit": "e3a328c9349bccd5f071f5ecf2333839cf48f7f3",
        "dirty": true,
        "url": "git@git.cs.sun.ac.za:21054479/mouton-msc-code.git"
      }
    ],
    "sources": [
      [
        "data/load_data.py",
        "_sources/load_data_83aab7b4052b3e833ec4b25efa77d129.py"
      ],
      [
        "ex_binary_tree_config.py",
        "_sources/ex_binary_tree_config_b4386c3b0c34f87160094fb07984be6e.py"
      ],
      [
        "ex_residual_nf_density_estimation.py",
        "_sources/ex_residual_nf_density_estimation_f7b3893131623821caf72a43cb5a62a7.py"
      ],
      [
        "ex_utils.py",
        "_sources/ex_utils_2fc5cf83b18569f779105bc0ffdbfb70.py"
      ],
      [
        "graph/belief_network/__init__.py",
        "_sources/__init___e935099707bbf443481b198adca52d5e.py"
      ],
      [
        "graph/belief_network/arithmetic_circuit.py",
        "_sources/arithmetic_circuit_8ecef4877468c42fd8b75577f9a938d9.py"
      ],
      [
        "graph/belief_network/arithmetic_circuit2.py",
        "_sources/arithmetic_circuit2_4b084afdfc41a65ff9b3aa6c031c2826.py"
      ],
      [
        "graph/belief_network/fc.py",
        "_sources/fc_54cee4520012502805eef09b30a1ac19.py"
      ],
      [
        "graph/belief_network/gaussian_binary_tree.py",
        "_sources/gaussian_binary_tree_f8190669535d64dce0245dc12bf45b24.py"
      ],
      [
        "graph/belief_network/protein.py",
        "_sources/protein_09498642f2f51ae93acaf143a3f7b79e.py"
      ],
      [
        "graph/belief_network/random.py",
        "_sources/random_6bd77f60aa268f541cc12349b8f7c3ec.py"
      ],
      [
        "graph/belief_network/tree.py",
        "_sources/tree_720876055cb36a629c38c87a8d38db5d.py"
      ],
      [
        "modules/__init__.py",
        "_sources/__init___eac46f424a64c54c5d2650eae0c452ec.py"
      ],
      [
        "modules/factory.py",
        "_sources/factory_2dbdd63e49f2c45aef1714dfa347734c.py"
      ]
    ]
  },
  "heartbeat": "2022-06-07T09:58:10.203608",
  "host": {
    "ENV": {},
    "cpu": "11th Gen Intel(R) Core(TM) i9-11900 @ 2.50GHz",
    "gpus": {
      "driver_version": "470.63.01",
      "gpus": [
        {
          "model": "NVIDIA GeForce RTX 3070",
          "persistence_mode": false,
          "total_memory": 7973
        }
      ]
    },
    "hostname": "clg-518788",
    "os": [
      "Linux",
      "Linux-5.11.0-37-generic-x86_64-with-glibc2.10"
    ],
    "python_version": "3.8.12"
  },
  "meta": {
    "command": "run",
    "options": {
      "--beat-interval": null,
      "--capture": null,
      "--comment": null,
      "--debug": false,
      "--enforce_clean": false,
      "--file_storage": null,
      "--force": false,
      "--help": false,
      "--loglevel": null,
      "--mongo_db": null,
      "--name": null,
      "--pdb": false,
      "--print-config": false,
      "--priority": null,
      "--queue": false,
      "--s3": null,
      "--sql": null,
      "--tiny_db": null,
      "--unobserved": false,
      "COMMAND": null,
      "UPDATE": [
        "bn=tree",
        "num_epochs=400",
        "activation=lipmish",
        "hidden_dims=[100]",
        "num_blocks=4",
        "seed=0",
        "grad_in_forward=False"
      ],
      "help": false,
      "with": true
    }
  },
  "resources": [],
  "result": null,
  "start_time": "2022-06-07T09:44:44.153209",
  "status": "COMPLETED",
  "stop_time": "2022-06-07T09:58:10.201923"
}