{
  "memory.usage": {
    "steps": [
      0,
      1,
      2,
      3,
      4,
      5,
      6,
      7,
      8,
      9,
      10,
      11,
      12,
      13,
      14,
      15,
      16,
      17,
      18,
      19,
      20,
      21,
      22,
      23,
      24,
      25,
      26,
      27,
      28,
      29,
      30,
      31,
      32,
      33,
      34,
      35,
      36,
      37,
      38,
      39,
      40
    ],
    "timestamps": [
      "2022-09-28T20:32:26.472186",
      "2022-09-28T20:32:33.862032",
      "2022-09-28T20:32:41.985319",
      "2022-09-28T20:32:50.172896",
      "2022-09-28T20:32:58.324945",
      "2022-09-28T20:33:06.500975",
      "2022-09-28T20:33:14.647906",
      "2022-09-28T20:33:22.779780",
      "2022-09-28T20:33:30.916463",
      "2022-09-28T20:33:39.062543",
      "2022-09-28T20:33:47.171387",
      "2022-09-28T20:33:55.335382",
      "2022-09-28T20:34:03.465645",
      "2022-09-28T20:34:11.584615",
      "2022-09-28T20:34:19.741680",
      "2022-09-28T20:34:27.922902",
      "2022-09-28T20:34:36.066644",
      "2022-09-28T20:34:44.182945",
      "2022-09-28T20:34:52.310243",
      "2022-09-28T20:35:00.457832",
      "2022-09-28T20:35:08.612734",
      "2022-09-28T20:35:16.914031",
      "2022-09-28T20:35:25.066537",
      "2022-09-28T20:35:33.216210",
      "2022-09-28T20:35:41.345504",
      "2022-09-28T20:35:49.507545",
      "2022-09-28T20:35:57.708283",
      "2022-09-28T20:36:05.915478",
      "2022-09-28T20:36:14.043711",
      "2022-09-28T20:36:22.168257",
      "2022-09-28T20:36:30.298696",
      "2022-09-28T20:36:38.458581",
      "2022-09-28T20:36:46.607696",
      "2022-09-28T20:36:54.754238",
      "2022-09-28T20:37:02.890079",
      "2022-09-28T20:37:11.038911",
      "2022-09-28T20:37:19.200691",
      "2022-09-28T20:37:27.345244",
      "2022-09-28T20:37:35.488419",
      "2022-09-28T20:37:43.598789",
      "2022-09-28T20:37:51.707654"
    ],
    "values": [
      6.399488,
      6.8736,
      6.8736,
      6.8736,
      6.8736,
      6.8736,
      6.8736,
      6.8736,
      6.8736,
      6.8736,
      6.8736,
      6.8736,
      6.8736,
      6.8736,
      6.8736,
      6.8736,
      6.8736,
      6.8736,
      6.8736,
      6.8736,
      6.8736,
      6.8736,
      6.8736,
      6.8736,
      6.8736,
      6.8736,
      6.8736,
      6.8736,
      6.8736,
      6.8736,
      6.8736,
      6.8736,
      6.8736,
      6.8736,
      6.8736,
      6.8736,
      6.8736,
      6.8736,
      6.8736,
      6.8736,
      6.8736
    ]
  },
  "train": {
    "steps": [
      0,
      1,
      2,
      3,
      4,
      5,
      6,
      7,
      8,
      9,
      10,
      11,
      12,
      13,
      14,
      15,
      16,
      17,
      18,
      19,
      20,
      21,
      22,
      23,
      24,
      25,
      26,
      27,
      28,
      29,
      30,
      31,
      32,
      33,
      34,
      35,
      36,
      37,
      38,
      39,
      40,
      41,
      42,
      43,
      44,
      45,
      46,
      47,
      48,
      49,
      50,
      51,
      52,
      53,
      54,
      55,
      56,
      57,
      58,
      59,
      60,
      61,
      62,
      63,
      64,
      65,
      66,
      67,
      68,
      69,
      70,
      71,
      72,
      73,
      74,
      75,
      76,
      77,
      78,
      79,
      80,
      81,
      82,
      83,
      84,
      85,
      86,
      87,
      88,
      89,
      90,
      91,
      92,
      93,
      94,
      95,
      96,
      97,
      98,
      99,
      100,
      101,
      102,
      103,
      104,
      105,
      106,
      107,
      108,
      109,
      110,
      111,
      112,
      113,
      114,
      115,
      116,
      117,
      118,
      119,
      120,
      121,
      122,
      123,
      124,
      125,
      126,
      127,
      128,
      129,
      130,
      131,
      132,
      133,
      134,
      135,
      136,
      137,
      138,
      139,
      140,
      141,
      142,
      143,
      144,
      145,
      146,
      147,
      148,
      149,
      150,
      151,
      152,
      153,
      154,
      155,
      156,
      157,
      158,
      159,
      160,
      161,
      162,
      163,
      164,
      165,
      166,
      167,
      168,
      169,
      170,
      171,
      172,
      173,
      174,
      175,
      176,
      177,
      178,
      179,
      180,
      181,
      182,
      183,
      184,
      185,
      186,
      187,
      188,
      189,
      190,
      191,
      192,
      193,
      194,
      195,
      196,
      197,
      198,
      199,
      200,
      201,
      202,
      203,
      204,
      205,
      206,
      207,
      208,
      209,
      210,
      211,
      212,
      213,
      214,
      215,
      216,
      217,
      218,
      219,
      220,
      221,
      222,
      223,
      224,
      225,
      226,
      227,
      228,
      229,
      230,
      231,
      232,
      233,
      234,
      235,
      236,
      237,
      238,
      239,
      240,
      241,
      242,
      243,
      244,
      245,
      246,
      247,
      248,
      249,
      250,
      251,
      252,
      253,
      254,
      255,
      256,
      257,
      258,
      259,
      260,
      261,
      262,
      263,
      264,
      265,
      266,
      267,
      268,
      269,
      270,
      271,
      272,
      273,
      274,
      275,
      276,
      277,
      278,
      279,
      280,
      281,
      282,
      283,
      284,
      285,
      286,
      287,
      288,
      289,
      290,
      291,
      292,
      293,
      294,
      295,
      296,
      297,
      298,
      299,
      300,
      301,
      302,
      303,
      304,
      305,
      306,
      307,
      308,
      309,
      310,
      311,
      312,
      313,
      314,
      315,
      316,
      317,
      318,
      319,
      320,
      321,
      322,
      323,
      324,
      325,
      326,
      327,
      328,
      329,
      330,
      331,
      332,
      333,
      334,
      335,
      336,
      337,
      338,
      339,
      340,
      341,
      342,
      343,
      344,
      345,
      346,
      347,
      348,
      349,
      350,
      351,
      352,
      353,
      354,
      355,
      356,
      357,
      358,
      359,
      360,
      361,
      362,
      363,
      364,
      365,
      366,
      367,
      368,
      369,
      370,
      371,
      372,
      373,
      374,
      375,
      376,
      377,
      378,
      379,
      380,
      381,
      382,
      383,
      384,
      385,
      386,
      387,
      388,
      389,
      390,
      391,
      392,
      393,
      394,
      395,
      396,
      397,
      398,
      399
    ],
    "timestamps": [
      "2022-09-28T20:32:26.472018",
      "2022-09-28T20:32:27.367560",
      "2022-09-28T20:32:28.221944",
      "2022-09-28T20:32:29.029141",
      "2022-09-28T20:32:29.833025",
      "2022-09-28T20:32:30.640682",
      "2022-09-28T20:32:31.443441",
      "2022-09-28T20:32:32.250378",
      "2022-09-28T20:32:33.056617",
      "2022-09-28T20:32:33.861914",
      "2022-09-28T20:32:34.684557",
      "2022-09-28T20:32:35.495811",
      "2022-09-28T20:32:36.320146",
      "2022-09-28T20:32:37.134958",
      "2022-09-28T20:32:37.941320",
      "2022-09-28T20:32:38.751612",
      "2022-09-28T20:32:39.558788",
      "2022-09-28T20:32:40.368173",
      "2022-09-28T20:32:41.174703",
      "2022-09-28T20:32:41.985191",
      "2022-09-28T20:32:42.864728",
      "2022-09-28T20:32:43.676885",
      "2022-09-28T20:32:44.496935",
      "2022-09-28T20:32:45.307278",
      "2022-09-28T20:32:46.116125",
      "2022-09-28T20:32:46.924561",
      "2022-09-28T20:32:47.732028",
      "2022-09-28T20:32:48.541409",
      "2022-09-28T20:32:49.360036",
      "2022-09-28T20:32:50.172687",
      "2022-09-28T20:32:51.000988",
      "2022-09-28T20:32:51.817533",
      "2022-09-28T20:32:52.635432",
      "2022-09-28T20:32:53.447085",
      "2022-09-28T20:32:54.262440",
      "2022-09-28T20:32:55.084705",
      "2022-09-28T20:32:55.893198",
      "2022-09-28T20:32:56.702834",
      "2022-09-28T20:32:57.512715",
      "2022-09-28T20:32:58.324813",
      "2022-09-28T20:32:59.152474",
      "2022-09-28T20:32:59.977403",
      "2022-09-28T20:33:00.787021",
      "2022-09-28T20:33:01.598343",
      "2022-09-28T20:33:02.407551",
      "2022-09-28T20:33:03.218204",
      "2022-09-28T20:33:04.031483",
      "2022-09-28T20:33:04.856984",
      "2022-09-28T20:33:05.691930",
      "2022-09-28T20:33:06.500838",
      "2022-09-28T20:33:07.336230",
      "2022-09-28T20:33:08.148659",
      "2022-09-28T20:33:08.955861",
      "2022-09-28T20:33:09.773343",
      "2022-09-28T20:33:10.588266",
      "2022-09-28T20:33:11.401484",
      "2022-09-28T20:33:12.211332",
      "2022-09-28T20:33:13.022996",
      "2022-09-28T20:33:13.831204",
      "2022-09-28T20:33:14.647778",
      "2022-09-28T20:33:15.470108",
      "2022-09-28T20:33:16.285141",
      "2022-09-28T20:33:17.112031",
      "2022-09-28T20:33:17.923151",
      "2022-09-28T20:33:18.734346",
      "2022-09-28T20:33:19.544295",
      "2022-09-28T20:33:20.351698",
      "2022-09-28T20:33:21.162745",
      "2022-09-28T20:33:21.969536",
      "2022-09-28T20:33:22.779653",
      "2022-09-28T20:33:23.605803",
      "2022-09-28T20:33:24.414253",
      "2022-09-28T20:33:25.222765",
      "2022-09-28T20:33:26.047386",
      "2022-09-28T20:33:26.855795",
      "2022-09-28T20:33:27.684969",
      "2022-09-28T20:33:28.493601",
      "2022-09-28T20:33:29.301234",
      "2022-09-28T20:33:30.109610",
      "2022-09-28T20:33:30.916334",
      "2022-09-28T20:33:31.739847",
      "2022-09-28T20:33:32.551732",
      "2022-09-28T20:33:33.372214",
      "2022-09-28T20:33:34.185725",
      "2022-09-28T20:33:34.997563",
      "2022-09-28T20:33:35.807830",
      "2022-09-28T20:33:36.614742",
      "2022-09-28T20:33:37.421849",
      "2022-09-28T20:33:38.250371",
      "2022-09-28T20:33:39.062420",
      "2022-09-28T20:33:39.883398",
      "2022-09-28T20:33:40.693180",
      "2022-09-28T20:33:41.500823",
      "2022-09-28T20:33:42.309986",
      "2022-09-28T20:33:43.123174",
      "2022-09-28T20:33:43.938665",
      "2022-09-28T20:33:44.750283",
      "2022-09-28T20:33:45.556553",
      "2022-09-28T20:33:46.363013",
      "2022-09-28T20:33:47.171167",
      "2022-09-28T20:33:47.992718",
      "2022-09-28T20:33:48.825137",
      "2022-09-28T20:33:49.637874",
      "2022-09-28T20:33:50.449025",
      "2022-09-28T20:33:51.258393",
      "2022-09-28T20:33:52.072033",
      "2022-09-28T20:33:52.880853",
      "2022-09-28T20:33:53.707101",
      "2022-09-28T20:33:54.522237",
      "2022-09-28T20:33:55.335253",
      "2022-09-28T20:33:56.158960",
      "2022-09-28T20:33:56.969661",
      "2022-09-28T20:33:57.780023",
      "2022-09-28T20:33:58.600364",
      "2022-09-28T20:33:59.413139",
      "2022-09-28T20:34:00.222760",
      "2022-09-28T20:34:01.035595",
      "2022-09-28T20:34:01.842413",
      "2022-09-28T20:34:02.654536",
      "2022-09-28T20:34:03.465435",
      "2022-09-28T20:34:04.289398",
      "2022-09-28T20:34:05.101943",
      "2022-09-28T20:34:05.918879",
      "2022-09-28T20:34:06.733290",
      "2022-09-28T20:34:07.542258",
      "2022-09-28T20:34:08.350270",
      "2022-09-28T20:34:09.158002",
      "2022-09-28T20:34:09.964607",
      "2022-09-28T20:34:10.774119",
      "2022-09-28T20:34:11.584487",
      "2022-09-28T20:34:12.406494",
      "2022-09-28T20:34:13.223227",
      "2022-09-28T20:34:14.054174",
      "2022-09-28T20:34:14.866385",
      "2022-09-28T20:34:15.675683",
      "2022-09-28T20:34:16.488084",
      "2022-09-28T20:34:17.297183",
      "2022-09-28T20:34:18.107707",
      "2022-09-28T20:34:18.928450",
      "2022-09-28T20:34:19.741459",
      "2022-09-28T20:34:20.567722",
      "2022-09-28T20:34:21.390838",
      "2022-09-28T20:34:22.216820",
      "2022-09-28T20:34:23.040293",
      "2022-09-28T20:34:23.858510",
      "2022-09-28T20:34:24.680801",
      "2022-09-28T20:34:25.490265",
      "2022-09-28T20:34:26.301260",
      "2022-09-28T20:34:27.111145",
      "2022-09-28T20:34:27.922771",
      "2022-09-28T20:34:28.745613",
      "2022-09-28T20:34:29.570737",
      "2022-09-28T20:34:30.385434",
      "2022-09-28T20:34:31.203582",
      "2022-09-28T20:34:32.009908",
      "2022-09-28T20:34:32.818936",
      "2022-09-28T20:34:33.626566",
      "2022-09-28T20:34:34.448751",
      "2022-09-28T20:34:35.259049",
      "2022-09-28T20:34:36.066434",
      "2022-09-28T20:34:36.888122",
      "2022-09-28T20:34:37.697259",
      "2022-09-28T20:34:38.505931",
      "2022-09-28T20:34:39.324001",
      "2022-09-28T20:34:40.137886",
      "2022-09-28T20:34:40.945672",
      "2022-09-28T20:34:41.753904",
      "2022-09-28T20:34:42.563855",
      "2022-09-28T20:34:43.372202",
      "2022-09-28T20:34:44.182817",
      "2022-09-28T20:34:45.006677",
      "2022-09-28T20:34:45.814885",
      "2022-09-28T20:34:46.635681",
      "2022-09-28T20:34:47.447291",
      "2022-09-28T20:34:48.254481",
      "2022-09-28T20:34:49.063074",
      "2022-09-28T20:34:49.869159",
      "2022-09-28T20:34:50.678616",
      "2022-09-28T20:34:51.493372",
      "2022-09-28T20:34:52.310112",
      "2022-09-28T20:34:53.133780",
      "2022-09-28T20:34:53.942504",
      "2022-09-28T20:34:54.764433",
      "2022-09-28T20:34:55.577437",
      "2022-09-28T20:34:56.382261",
      "2022-09-28T20:34:57.193081",
      "2022-09-28T20:34:57.997614",
      "2022-09-28T20:34:58.807131",
      "2022-09-28T20:34:59.623743",
      "2022-09-28T20:35:00.457692",
      "2022-09-28T20:35:01.299017",
      "2022-09-28T20:35:02.110405",
      "2022-09-28T20:35:02.927521",
      "2022-09-28T20:35:03.739374",
      "2022-09-28T20:35:04.559728",
      "2022-09-28T20:35:05.373069",
      "2022-09-28T20:35:06.180941",
      "2022-09-28T20:35:06.991774",
      "2022-09-28T20:35:07.800424",
      "2022-09-28T20:35:08.612515",
      "2022-09-28T20:35:09.445655",
      "2022-09-28T20:35:10.272200",
      "2022-09-28T20:35:11.082051",
      "2022-09-28T20:35:11.916263",
      "2022-09-28T20:35:12.809439",
      "2022-09-28T20:35:13.648315",
      "2022-09-28T20:35:14.457135",
      "2022-09-28T20:35:15.289453",
      "2022-09-28T20:35:16.102309",
      "2022-09-28T20:35:16.913906",
      "2022-09-28T20:35:17.740935",
      "2022-09-28T20:35:18.556309",
      "2022-09-28T20:35:19.365696",
      "2022-09-28T20:35:20.193168",
      "2022-09-28T20:35:21.007940",
      "2022-09-28T20:35:21.818275",
      "2022-09-28T20:35:22.628975",
      "2022-09-28T20:35:23.440453",
      "2022-09-28T20:35:24.251591",
      "2022-09-28T20:35:25.066408",
      "2022-09-28T20:35:25.898812",
      "2022-09-28T20:35:26.718064",
      "2022-09-28T20:35:27.528234",
      "2022-09-28T20:35:28.341263",
      "2022-09-28T20:35:29.150726",
      "2022-09-28T20:35:29.958081",
      "2022-09-28T20:35:30.772493",
      "2022-09-28T20:35:31.594403",
      "2022-09-28T20:35:32.405771",
      "2022-09-28T20:35:33.216085",
      "2022-09-28T20:35:34.041277",
      "2022-09-28T20:35:34.854879",
      "2022-09-28T20:35:35.664884",
      "2022-09-28T20:35:36.488133",
      "2022-09-28T20:35:37.299705",
      "2022-09-28T20:35:38.110528",
      "2022-09-28T20:35:38.917566",
      "2022-09-28T20:35:39.728177",
      "2022-09-28T20:35:40.539033",
      "2022-09-28T20:35:41.345290",
      "2022-09-28T20:35:42.175347",
      "2022-09-28T20:35:42.987545",
      "2022-09-28T20:35:43.809110",
      "2022-09-28T20:35:44.625603",
      "2022-09-28T20:35:45.433126",
      "2022-09-28T20:35:46.243046",
      "2022-09-28T20:35:47.054802",
      "2022-09-28T20:35:47.867483",
      "2022-09-28T20:35:48.691449",
      "2022-09-28T20:35:49.507413",
      "2022-09-28T20:35:50.330034",
      "2022-09-28T20:35:51.142350",
      "2022-09-28T20:35:51.996033",
      "2022-09-28T20:35:52.808068",
      "2022-09-28T20:35:53.648797",
      "2022-09-28T20:35:54.464032",
      "2022-09-28T20:35:55.275947",
      "2022-09-28T20:35:56.087979",
      "2022-09-28T20:35:56.894838",
      "2022-09-28T20:35:57.708157",
      "2022-09-28T20:35:58.529729",
      "2022-09-28T20:35:59.356341",
      "2022-09-28T20:36:00.164024",
      "2022-09-28T20:36:00.972136",
      "2022-09-28T20:36:01.801985",
      "2022-09-28T20:36:02.648343",
      "2022-09-28T20:36:03.456427",
      "2022-09-28T20:36:04.290775",
      "2022-09-28T20:36:05.106996",
      "2022-09-28T20:36:05.915238",
      "2022-09-28T20:36:06.739846",
      "2022-09-28T20:36:07.552042",
      "2022-09-28T20:36:08.359873",
      "2022-09-28T20:36:09.181549",
      "2022-09-28T20:36:09.993579",
      "2022-09-28T20:36:10.807920",
      "2022-09-28T20:36:11.615202",
      "2022-09-28T20:36:12.425434",
      "2022-09-28T20:36:13.233771",
      "2022-09-28T20:36:14.043579",
      "2022-09-28T20:36:14.868793",
      "2022-09-28T20:36:15.679391",
      "2022-09-28T20:36:16.500599",
      "2022-09-28T20:36:17.311483",
      "2022-09-28T20:36:18.124634",
      "2022-09-28T20:36:18.931567",
      "2022-09-28T20:36:19.740433",
      "2022-09-28T20:36:20.548492",
      "2022-09-28T20:36:21.356388",
      "2022-09-28T20:36:22.168051",
      "2022-09-28T20:36:22.987637",
      "2022-09-28T20:36:23.798838",
      "2022-09-28T20:36:24.623959",
      "2022-09-28T20:36:25.432117",
      "2022-09-28T20:36:26.238388",
      "2022-09-28T20:36:27.049242",
      "2022-09-28T20:36:27.855813",
      "2022-09-28T20:36:28.667696",
      "2022-09-28T20:36:29.487215",
      "2022-09-28T20:36:30.298569",
      "2022-09-28T20:36:31.120169",
      "2022-09-28T20:36:31.927904",
      "2022-09-28T20:36:32.768170",
      "2022-09-28T20:36:33.579168",
      "2022-09-28T20:36:34.397288",
      "2022-09-28T20:36:35.222797",
      "2022-09-28T20:36:36.029297",
      "2022-09-28T20:36:36.836476",
      "2022-09-28T20:36:37.646834",
      "2022-09-28T20:36:38.458375",
      "2022-09-28T20:36:39.281835",
      "2022-09-28T20:36:40.108679",
      "2022-09-28T20:36:40.916421",
      "2022-09-28T20:36:41.729293",
      "2022-09-28T20:36:42.538156",
      "2022-09-28T20:36:43.352018",
      "2022-09-28T20:36:44.160875",
      "2022-09-28T20:36:44.985098",
      "2022-09-28T20:36:45.794889",
      "2022-09-28T20:36:46.607571",
      "2022-09-28T20:36:47.433107",
      "2022-09-28T20:36:48.247877",
      "2022-09-28T20:36:49.057331",
      "2022-09-28T20:36:49.877301",
      "2022-09-28T20:36:50.694454",
      "2022-09-28T20:36:51.506133",
      "2022-09-28T20:36:52.313411",
      "2022-09-28T20:36:53.127885",
      "2022-09-28T20:36:53.936070",
      "2022-09-28T20:36:54.754114",
      "2022-09-28T20:36:55.575974",
      "2022-09-28T20:36:56.385796",
      "2022-09-28T20:36:57.209424",
      "2022-09-28T20:36:58.023584",
      "2022-09-28T20:36:58.832110",
      "2022-09-28T20:36:59.643295",
      "2022-09-28T20:37:00.451794",
      "2022-09-28T20:37:01.263999",
      "2022-09-28T20:37:02.076027",
      "2022-09-28T20:37:02.889847",
      "2022-09-28T20:37:03.714272",
      "2022-09-28T20:37:04.525696",
      "2022-09-28T20:37:05.337631",
      "2022-09-28T20:37:06.166250",
      "2022-09-28T20:37:06.978338",
      "2022-09-28T20:37:07.794086",
      "2022-09-28T20:37:08.605788",
      "2022-09-28T20:37:09.415254",
      "2022-09-28T20:37:10.225547",
      "2022-09-28T20:37:11.038780",
      "2022-09-28T20:37:11.862569",
      "2022-09-28T20:37:12.677765",
      "2022-09-28T20:37:13.503667",
      "2022-09-28T20:37:14.317601",
      "2022-09-28T20:37:15.130334",
      "2022-09-28T20:37:15.941653",
      "2022-09-28T20:37:16.751207",
      "2022-09-28T20:37:17.562638",
      "2022-09-28T20:37:18.385629",
      "2022-09-28T20:37:19.200564",
      "2022-09-28T20:37:20.026955",
      "2022-09-28T20:37:20.837560",
      "2022-09-28T20:37:21.648476",
      "2022-09-28T20:37:22.460752",
      "2022-09-28T20:37:23.282205",
      "2022-09-28T20:37:24.104644",
      "2022-09-28T20:37:24.916228",
      "2022-09-28T20:37:25.728722",
      "2022-09-28T20:37:26.537795",
      "2022-09-28T20:37:27.345021",
      "2022-09-28T20:37:28.181807",
      "2022-09-28T20:37:29.006773",
      "2022-09-28T20:37:29.814066",
      "2022-09-28T20:37:30.623340",
      "2022-09-28T20:37:31.428054",
      "2022-09-28T20:37:32.238877",
      "2022-09-28T20:37:33.046897",
      "2022-09-28T20:37:33.867202",
      "2022-09-28T20:37:34.681475",
      "2022-09-28T20:37:35.488287",
      "2022-09-28T20:37:36.311719",
      "2022-09-28T20:37:37.122364",
      "2022-09-28T20:37:37.927917",
      "2022-09-28T20:37:38.744438",
      "2022-09-28T20:37:39.560362",
      "2022-09-28T20:37:40.367935",
      "2022-09-28T20:37:41.175369",
      "2022-09-28T20:37:41.981454",
      "2022-09-28T20:37:42.791295",
      "2022-09-28T20:37:43.598576",
      "2022-09-28T20:37:44.420581",
      "2022-09-28T20:37:45.232975",
      "2022-09-28T20:37:46.053432",
      "2022-09-28T20:37:46.861549",
      "2022-09-28T20:37:47.670632",
      "2022-09-28T20:37:48.479172",
      "2022-09-28T20:37:49.284877",
      "2022-09-28T20:37:50.094508",
      "2022-09-28T20:37:50.897468",
      "2022-09-28T20:37:51.707525"
    ],
    "values": [
      18.098163310982507,
      17.633072054781913,
      17.33090308446395,
      17.21081592044572,
      16.73230889466713,
      16.752040743096853,
      16.60601270108196,
      16.285485736068882,
      16.025251708918063,
      15.757640043763057,
      15.894374495654256,
      15.889322527824755,
      15.434889720765879,
      15.571922288388292,
      15.272219527639905,
      15.170576015800286,
      15.380697929521407,
      15.209456787290582,
      14.914693199126004,
      14.930536600735126,
      15.050024916469543,
      14.873564164035054,
      14.96882799422455,
      14.98612698225299,
      14.909407939370798,
      14.626395652800158,
      14.551560186445911,
      14.647873897485619,
      14.593552777935283,
      14.263547268180044,
      14.212503172155088,
      14.302436060582291,
      14.709980873198832,
      14.420995525178487,
      14.048798378468547,
      14.341508542539007,
      14.147040449695183,
      14.424413043940383,
      13.816228466336826,
      14.12640458837452,
      14.09560594949296,
      13.829507693248274,
      13.711651635472856,
      13.92925757639529,
      13.46927129536939,
      13.32363048862821,
      13.552480575783243,
      13.754326954259115,
      13.662921858771321,
      13.806928694431486,
      13.501015075844807,
      13.422248740723369,
      13.798364869092245,
      13.312058940732092,
      13.16041182570759,
      13.257674950785582,
      12.945556860827113,
      13.33878011608379,
      13.085999474435559,
      13.124190132732704,
      13.290395821100619,
      13.18472710099508,
      12.678781579276361,
      12.947142083910073,
      13.048072717619325,
      13.14534122887375,
      12.75690808074157,
      12.808383163762825,
      12.487003071735543,
      12.332596941997286,
      12.380014973757568,
      12.273916868316391,
      12.782376137397453,
      12.549770126085543,
      12.134951465195412,
      12.075830177227013,
      11.993059415042696,
      12.238721158314089,
      12.099568177548136,
      12.007638325314009,
      12.322987177233031,
      12.362538779982545,
      11.54024764561242,
      11.919290406548017,
      11.409270465681102,
      11.579821718120554,
      11.729645456210955,
      11.463254354408676,
      11.802607618633797,
      11.75851570090145,
      11.400829244622603,
      11.158452423463912,
      11.409606637186778,
      11.286430597809806,
      11.297740605974333,
      11.139306686109796,
      11.023136226340522,
      11.391741027617243,
      11.379719227721024,
      11.314701741512756,
      11.315673659150665,
      11.209919521981169,
      11.377048683627757,
      11.133805119548086,
      10.912461209151093,
      10.87478947853877,
      11.277746283953178,
      11.132105199547205,
      10.755818529697327,
      10.94685677848727,
      11.102211529999115,
      11.191551060240531,
      10.863579454748438,
      11.084673321273115,
      11.295099072772356,
      10.870572381124282,
      10.744611801562531,
      11.964765615391432,
      11.439086987325576,
      10.549723061166846,
      11.04263356284845,
      11.18734795782537,
      11.11226548278093,
      10.87098821969184,
      10.947342852728942,
      10.839623991376364,
      11.166764704436053,
      10.98675808039757,
      10.647332838423429,
      11.239728586698607,
      10.73682428138009,
      10.993881305329506,
      11.094099943867556,
      10.81845346496811,
      10.692247387398387,
      10.662636148738333,
      10.61207437469733,
      10.588141175481411,
      11.095189588362002,
      10.486456058088372,
      10.468111720074429,
      10.536040840318305,
      10.785092871459437,
      10.496057039246018,
      10.85747491039073,
      10.633382282861438,
      10.657798555664439,
      10.536305746506438,
      10.786132244194727,
      10.581247811549778,
      11.11230806194555,
      10.742488664177138,
      10.559334805727584,
      10.506396976221247,
      10.538178980577504,
      10.44333347000733,
      10.432685608609521,
      10.664345736284595,
      10.854659363093912,
      10.711019380202252,
      10.722870669376427,
      10.624882530278057,
      10.478802958235647,
      10.598896233549622,
      10.457634755154183,
      10.615850109581316,
      10.383967211048688,
      10.691809449144852,
      10.454817755139585,
      10.504450999688647,
      10.756783001137459,
      10.640644923367429,
      10.436291329249336,
      10.510339345978577,
      10.56957681842221,
      10.64809268207235,
      10.59736973756611,
      10.39140211799402,
      10.593443320469403,
      10.496976203557828,
      10.601625148330792,
      10.385744906437852,
      10.388484348536364,
      10.54884236650759,
      10.469390774786469,
      10.677152454771601,
      10.60469408465218,
      10.545176605754484,
      10.539991955295491,
      10.606932299918219,
      10.61343404438551,
      10.422624751416368,
      10.663625243284772,
      10.859586192415522,
      10.582453650478719,
      10.416959392974437,
      10.195668091507905,
      10.511749326414469,
      10.499428772201535,
      10.404762212436644,
      10.672326164862598,
      10.573434542538394,
      10.495374088098698,
      10.491442020728417,
      10.185090271152408,
      10.417036829386987,
      10.323272392629063,
      10.624633863565554,
      10.385712978181637,
      10.611012642043576,
      10.750091563307699,
      10.440879416425329,
      10.553380149742848,
      10.502531036253709,
      10.635092848724486,
      10.334325191395695,
      10.559423241565653,
      10.427789631736697,
      10.229257328727183,
      10.401119605452084,
      10.446324256911424,
      10.658552139776893,
      10.637639441139083,
      10.563172127274148,
      10.648927639153944,
      10.60444571866459,
      10.333360230768168,
      10.888710463061242,
      10.511748774837766,
      10.692443821559321,
      10.413583586443432,
      10.484613396577629,
      10.500674378671961,
      10.329956352066056,
      10.450556633635653,
      10.507700735505747,
      10.683760628084967,
      10.544875005813287,
      10.590982037279021,
      10.593580165893608,
      10.633064365073494,
      10.229612839293992,
      10.393207723599634,
      10.53977065757192,
      10.56522900024469,
      10.83021874099903,
      10.625095132101178,
      10.661234252622487,
      10.625861875006642,
      10.49324198401513,
      10.53750273509452,
      10.562264864296203,
      10.735496643217202,
      10.423956026130089,
      10.515208508979489,
      10.53457855554492,
      10.656180147423507,
      10.378620705792354,
      10.612763399366846,
      10.382877424233337,
      10.666809184065036,
      10.632155228557512,
      10.46168695181021,
      10.69407763149102,
      10.427655187974509,
      10.626621689567699,
      10.5013184465348,
      10.55663099410785,
      10.594854185940214,
      10.461268661007354,
      10.478414713955143,
      10.610627555236483,
      10.640033259048389,
      10.5090167468911,
      10.507520834950341,
      10.559329452795922,
      10.657307851129003,
      10.429227881126895,
      10.557415847976271,
      10.515235532098988,
      10.670140867028934,
      10.513131112752971,
      10.54424916070662,
      10.840064399690325,
      10.491997649529631,
      10.52389596187268,
      10.425572114797252,
      10.540089399020378,
      10.612726489925574,
      10.652360374827772,
      10.588518025181743,
      10.405573382532044,
      10.46225607737756,
      10.39377795331476,
      10.629086929107636,
      10.468727763834204,
      10.746883405983484,
      10.423321714562189,
      10.660548803266513,
      10.371953326651617,
      10.412770726973056,
      10.548691337760397,
      10.414102299927183,
      10.752070813887736,
      10.548424621040889,
      10.952229256848614,
      10.386862246081584,
      10.127646625845292,
      10.825449109631629,
      10.624084847964841,
      10.50742099920738,
      10.46886149813886,
      10.456172018813819,
      10.494437769666042,
      10.495996195052877,
      10.648581298720467,
      10.736003467601988,
      10.414966254808627,
      10.49815839418124,
      10.575680249575845,
      10.502368700477204,
      10.404403103554959,
      10.77036388505005,
      10.407911197698628,
      10.51219303417854,
      10.721309683773006,
      10.544637163466021,
      10.598401551141327,
      10.640611004367,
      10.300676245849838,
      10.34073302960133,
      10.618267079777903,
      10.920895452203062,
      10.70873366840173,
      10.576370859038953,
      10.480563133398897,
      10.594728851427941,
      10.648366368061113,
      10.577525378536764,
      10.533486476610893,
      10.38643305307417,
      10.354052403618077,
      10.619343142908136,
      10.427506340150254,
      10.838868647117952,
      10.517312214269765,
      10.431672590070836,
      10.763279139374,
      10.3793988347235,
      10.536053358455183,
      10.4579455444643,
      10.404079111973013,
      10.654974019297017,
      10.50545198674608,
      10.561411333677007,
      10.42201154742188,
      10.552083110458883,
      10.426367202607631,
      10.530422175635172,
      10.683205379655819,
      10.560506763319243,
      10.286690506239927,
      10.475073386796343,
      10.391479016322675,
      10.426251901136913,
      10.50067359700396,
      10.550834669610651,
      10.660055160964657,
      10.387224731138367,
      10.626019078362337,
      10.724507960886857,
      10.618544213798065,
      10.70401523867638,
      10.560002858489524,
      10.501070596863393,
      10.648331234321617,
      10.601474750780891,
      10.605466935591233,
      10.503316287425568,
      10.68061051432127,
      10.48677102504723,
      10.406246124358608,
      10.40556372008996,
      10.213167837752508,
      10.879725468498444,
      10.491882655992068,
      10.505607046738934,
      10.489149767785246,
      10.848865568061493,
      10.256599136533847,
      10.446375908388454,
      10.611366829323087,
      10.427842791653559,
      10.42330176570971,
      10.41536509807337,
      10.452698444696834,
      10.446394336959955,
      10.912405561332472,
      10.32172653430813,
      10.461095426207859
    ]
  },
  "val": {
    "steps": [
      0,
      1,
      2,
      3,
      4,
      5,
      6,
      7,
      8,
      9,
      10,
      11,
      12,
      13,
      14,
      15,
      16,
      17,
      18,
      19,
      20,
      21,
      22,
      23,
      24,
      25,
      26,
      27,
      28,
      29,
      30,
      31,
      32,
      33,
      34,
      35,
      36,
      37,
      38,
      39,
      40,
      41,
      42,
      43,
      44,
      45,
      46,
      47,
      48,
      49,
      50,
      51,
      52,
      53,
      54,
      55,
      56,
      57,
      58,
      59,
      60,
      61,
      62,
      63,
      64,
      65,
      66,
      67,
      68,
      69,
      70,
      71,
      72,
      73,
      74,
      75,
      76,
      77,
      78,
      79,
      80,
      81,
      82,
      83,
      84,
      85,
      86,
      87,
      88,
      89,
      90,
      91,
      92,
      93,
      94,
      95,
      96,
      97,
      98,
      99,
      100,
      101,
      102,
      103,
      104,
      105,
      106,
      107,
      108,
      109,
      110,
      111,
      112,
      113,
      114,
      115,
      116,
      117,
      118,
      119,
      120,
      121,
      122,
      123,
      124,
      125,
      126,
      127,
      128,
      129,
      130,
      131,
      132,
      133,
      134,
      135,
      136,
      137,
      138,
      139,
      140,
      141,
      142,
      143,
      144,
      145,
      146,
      147,
      148,
      149,
      150,
      151,
      152,
      153,
      154,
      155,
      156,
      157,
      158,
      159,
      160,
      161,
      162,
      163,
      164,
      165,
      166,
      167,
      168,
      169,
      170,
      171,
      172,
      173,
      174,
      175,
      176,
      177,
      178,
      179,
      180,
      181,
      182,
      183,
      184,
      185,
      186,
      187,
      188,
      189,
      190,
      191,
      192,
      193,
      194,
      195,
      196,
      197,
      198,
      199,
      200,
      201,
      202,
      203,
      204,
      205,
      206,
      207,
      208,
      209,
      210,
      211,
      212,
      213,
      214,
      215,
      216,
      217,
      218,
      219,
      220,
      221,
      222,
      223,
      224,
      225,
      226,
      227,
      228,
      229,
      230,
      231,
      232,
      233,
      234,
      235,
      236,
      237,
      238,
      239,
      240,
      241,
      242,
      243,
      244,
      245,
      246,
      247,
      248,
      249,
      250,
      251,
      252,
      253,
      254,
      255,
      256,
      257,
      258,
      259,
      260,
      261,
      262,
      263,
      264,
      265,
      266,
      267,
      268,
      269,
      270,
      271,
      272,
      273,
      274,
      275,
      276,
      277,
      278,
      279,
      280,
      281,
      282,
      283,
      284,
      285,
      286,
      287,
      288,
      289,
      290,
      291,
      292,
      293,
      294,
      295,
      296,
      297,
      298,
      299,
      300,
      301,
      302,
      303,
      304,
      305,
      306,
      307,
      308,
      309,
      310,
      311,
      312,
      313,
      314,
      315,
      316,
      317,
      318,
      319,
      320,
      321,
      322,
      323,
      324,
      325,
      326,
      327,
      328,
      329,
      330,
      331,
      332,
      333,
      334,
      335,
      336,
      337,
      338,
      339,
      340,
      341,
      342,
      343,
      344,
      345,
      346,
      347,
      348,
      349,
      350,
      351,
      352,
      353,
      354,
      355,
      356,
      357,
      358,
      359,
      360,
      361,
      362,
      363,
      364,
      365,
      366,
      367,
      368,
      369,
      370,
      371,
      372,
      373,
      374,
      375,
      376,
      377,
      378,
      379,
      380,
      381,
      382,
      383,
      384,
      385,
      386,
      387,
      388,
      389,
      390,
      391,
      392,
      393,
      394,
      395,
      396,
      397,
      398,
      399
    ],
    "timestamps": [
      "2022-09-28T20:32:27.332900",
      "2022-09-28T20:32:28.191522",
      "2022-09-28T20:32:28.994279",
      "2022-09-28T20:32:29.802549",
      "2022-09-28T20:32:30.607055",
      "2022-09-28T20:32:31.412811",
      "2022-09-28T20:32:32.217468",
      "2022-09-28T20:32:33.026068",
      "2022-09-28T20:32:33.828421",
      "2022-09-28T20:32:34.637401",
      "2022-09-28T20:32:35.460624",
      "2022-09-28T20:32:36.288560",
      "2022-09-28T20:32:37.100255",
      "2022-09-28T20:32:37.910914",
      "2022-09-28T20:32:38.718782",
      "2022-09-28T20:32:39.528236",
      "2022-09-28T20:32:40.335035",
      "2022-09-28T20:32:41.144025",
      "2022-09-28T20:32:41.951692",
      "2022-09-28T20:32:42.764889",
      "2022-09-28T20:32:43.643210",
      "2022-09-28T20:32:44.464548",
      "2022-09-28T20:32:45.273929",
      "2022-09-28T20:32:46.085731",
      "2022-09-28T20:32:46.891416",
      "2022-09-28T20:32:47.701630",
      "2022-09-28T20:32:48.506811",
      "2022-09-28T20:32:49.328066",
      "2022-09-28T20:32:50.139118",
      "2022-09-28T20:32:50.951390",
      "2022-09-28T20:32:51.783467",
      "2022-09-28T20:32:52.601704",
      "2022-09-28T20:32:53.412524",
      "2022-09-28T20:32:54.229950",
      "2022-09-28T20:32:55.051277",
      "2022-09-28T20:32:55.862547",
      "2022-09-28T20:32:56.669490",
      "2022-09-28T20:32:57.480703",
      "2022-09-28T20:32:58.290718",
      "2022-09-28T20:32:59.104400",
      "2022-09-28T20:32:59.943283",
      "2022-09-28T20:33:00.756556",
      "2022-09-28T20:33:01.564458",
      "2022-09-28T20:33:02.377025",
      "2022-09-28T20:33:03.185164",
      "2022-09-28T20:33:04.000171",
      "2022-09-28T20:33:04.823007",
      "2022-09-28T20:33:05.661261",
      "2022-09-28T20:33:06.468319",
      "2022-09-28T20:33:07.287927",
      "2022-09-28T20:33:08.115093",
      "2022-09-28T20:33:08.925411",
      "2022-09-28T20:33:09.739383",
      "2022-09-28T20:33:10.557600",
      "2022-09-28T20:33:11.366939",
      "2022-09-28T20:33:12.180983",
      "2022-09-28T20:33:12.987897",
      "2022-09-28T20:33:13.800609",
      "2022-09-28T20:33:14.613677",
      "2022-09-28T20:33:15.422135",
      "2022-09-28T20:33:16.250740",
      "2022-09-28T20:33:17.079689",
      "2022-09-28T20:33:17.889589",
      "2022-09-28T20:33:18.703749",
      "2022-09-28T20:33:19.511078",
      "2022-09-28T20:33:20.321203",
      "2022-09-28T20:33:21.129082",
      "2022-09-28T20:33:21.938893",
      "2022-09-28T20:33:22.745068",
      "2022-09-28T20:33:23.559610",
      "2022-09-28T20:33:24.380934",
      "2022-09-28T20:33:25.191941",
      "2022-09-28T20:33:26.013461",
      "2022-09-28T20:33:26.825301",
      "2022-09-28T20:33:27.652008",
      "2022-09-28T20:33:28.462134",
      "2022-09-28T20:33:29.267090",
      "2022-09-28T20:33:30.078965",
      "2022-09-28T20:33:30.882883",
      "2022-09-28T20:33:31.693416",
      "2022-09-28T20:33:32.517211",
      "2022-09-28T20:33:33.340370",
      "2022-09-28T20:33:34.150845",
      "2022-09-28T20:33:34.966110",
      "2022-09-28T20:33:35.774267",
      "2022-09-28T20:33:36.584263",
      "2022-09-28T20:33:37.389418",
      "2022-09-28T20:33:38.216585",
      "2022-09-28T20:33:39.028839",
      "2022-09-28T20:33:39.837380",
      "2022-09-28T20:33:40.659291",
      "2022-09-28T20:33:41.469147",
      "2022-09-28T20:33:42.276857",
      "2022-09-28T20:33:43.091703",
      "2022-09-28T20:33:43.905831",
      "2022-09-28T20:33:44.719845",
      "2022-09-28T20:33:45.523457",
      "2022-09-28T20:33:46.332496",
      "2022-09-28T20:33:47.138240",
      "2022-09-28T20:33:47.945795",
      "2022-09-28T20:33:48.790928",
      "2022-09-28T20:33:49.607248",
      "2022-09-28T20:33:50.415213",
      "2022-09-28T20:33:51.227666",
      "2022-09-28T20:33:52.036248",
      "2022-09-28T20:33:52.850337",
      "2022-09-28T20:33:53.673772",
      "2022-09-28T20:33:54.487294",
      "2022-09-28T20:33:55.300663",
      "2022-09-28T20:33:56.112824",
      "2022-09-28T20:33:56.935059",
      "2022-09-28T20:33:57.749627",
      "2022-09-28T20:33:58.565969",
      "2022-09-28T20:33:59.382530",
      "2022-09-28T20:34:00.190093",
      "2022-09-28T20:34:01.004908",
      "2022-09-28T20:34:01.808859",
      "2022-09-28T20:34:02.624107",
      "2022-09-28T20:34:03.431875",
      "2022-09-28T20:34:04.243328",
      "2022-09-28T20:34:05.067858",
      "2022-09-28T20:34:05.887927",
      "2022-09-28T20:34:06.699171",
      "2022-09-28T20:34:07.511614",
      "2022-09-28T20:34:08.316125",
      "2022-09-28T20:34:09.127448",
      "2022-09-28T20:34:09.930876",
      "2022-09-28T20:34:10.743664",
      "2022-09-28T20:34:11.550341",
      "2022-09-28T20:34:12.360328",
      "2022-09-28T20:34:13.183445",
      "2022-09-28T20:34:14.022166",
      "2022-09-28T20:34:14.832238",
      "2022-09-28T20:34:15.644150",
      "2022-09-28T20:34:16.455159",
      "2022-09-28T20:34:17.266694",
      "2022-09-28T20:34:18.074685",
      "2022-09-28T20:34:18.897514",
      "2022-09-28T20:34:19.708068",
      "2022-09-28T20:34:20.521196",
      "2022-09-28T20:34:21.345487",
      "2022-09-28T20:34:22.185656",
      "2022-09-28T20:34:23.007152",
      "2022-09-28T20:34:23.827688",
      "2022-09-28T20:34:24.646808",
      "2022-09-28T20:34:25.458103",
      "2022-09-28T20:34:26.266306",
      "2022-09-28T20:34:27.080289",
      "2022-09-28T20:34:27.889275",
      "2022-09-28T20:34:28.699530",
      "2022-09-28T20:34:29.536203",
      "2022-09-28T20:34:30.346484",
      "2022-09-28T20:34:31.169111",
      "2022-09-28T20:34:31.977790",
      "2022-09-28T20:34:32.784834",
      "2022-09-28T20:34:33.596001",
      "2022-09-28T20:34:34.414954",
      "2022-09-28T20:34:35.228459",
      "2022-09-28T20:34:36.032134",
      "2022-09-28T20:34:36.841981",
      "2022-09-28T20:34:37.663978",
      "2022-09-28T20:34:38.473912",
      "2022-09-28T20:34:39.288163",
      "2022-09-28T20:34:40.107472",
      "2022-09-28T20:34:40.912896",
      "2022-09-28T20:34:41.723426",
      "2022-09-28T20:34:42.531014",
      "2022-09-28T20:34:43.341670",
      "2022-09-28T20:34:44.149078",
      "2022-09-28T20:34:44.959365",
      "2022-09-28T20:34:45.781468",
      "2022-09-28T20:34:46.605021",
      "2022-09-28T20:34:47.413463",
      "2022-09-28T20:34:48.223908",
      "2022-09-28T20:34:49.029887",
      "2022-09-28T20:34:49.838607",
      "2022-09-28T20:34:50.644869",
      "2022-09-28T20:34:51.454734",
      "2022-09-28T20:34:52.276753",
      "2022-09-28T20:34:53.087600",
      "2022-09-28T20:34:53.909216",
      "2022-09-28T20:34:54.733924",
      "2022-09-28T20:34:55.544040",
      "2022-09-28T20:34:56.351779",
      "2022-09-28T20:34:57.160047",
      "2022-09-28T20:34:57.966405",
      "2022-09-28T20:34:58.772772",
      "2022-09-28T20:34:59.591517",
      "2022-09-28T20:35:00.425661",
      "2022-09-28T20:35:01.253015",
      "2022-09-28T20:35:02.077260",
      "2022-09-28T20:35:02.896978",
      "2022-09-28T20:35:03.704513",
      "2022-09-28T20:35:04.522987",
      "2022-09-28T20:35:05.340391",
      "2022-09-28T20:35:06.150560",
      "2022-09-28T20:35:06.955872",
      "2022-09-28T20:35:07.769894",
      "2022-09-28T20:35:08.579106",
      "2022-09-28T20:35:09.399119",
      "2022-09-28T20:35:10.238978",
      "2022-09-28T20:35:11.051592",
      "2022-09-28T20:35:11.881754",
      "2022-09-28T20:35:12.778869",
      "2022-09-28T20:35:13.614107",
      "2022-09-28T20:35:14.426663",
      "2022-09-28T20:35:15.253196",
      "2022-09-28T20:35:16.071335",
      "2022-09-28T20:35:16.879584",
      "2022-09-28T20:35:17.694590",
      "2022-09-28T20:35:18.523014",
      "2022-09-28T20:35:19.335087",
      "2022-09-28T20:35:20.159803",
      "2022-09-28T20:35:20.975991",
      "2022-09-28T20:35:21.783450",
      "2022-09-28T20:35:22.598382",
      "2022-09-28T20:35:23.405883",
      "2022-09-28T20:35:24.220852",
      "2022-09-28T20:35:25.032667",
      "2022-09-28T20:35:25.851273",
      "2022-09-28T20:35:26.683508",
      "2022-09-28T20:35:27.496368",
      "2022-09-28T20:35:28.306429",
      "2022-09-28T20:35:29.120177",
      "2022-09-28T20:35:29.925159",
      "2022-09-28T20:35:30.741091",
      "2022-09-28T20:35:31.561084",
      "2022-09-28T20:35:32.374830",
      "2022-09-28T20:35:33.182267",
      "2022-09-28T20:35:33.994085",
      "2022-09-28T20:35:34.819753",
      "2022-09-28T20:35:35.634481",
      "2022-09-28T20:35:36.452431",
      "2022-09-28T20:35:37.269184",
      "2022-09-28T20:35:38.077451",
      "2022-09-28T20:35:38.886793",
      "2022-09-28T20:35:39.695082",
      "2022-09-28T20:35:40.508121",
      "2022-09-28T20:35:41.313903",
      "2022-09-28T20:35:42.129109",
      "2022-09-28T20:35:42.952186",
      "2022-09-28T20:35:43.778061",
      "2022-09-28T20:35:44.592453",
      "2022-09-28T20:35:45.402514",
      "2022-09-28T20:35:46.210184",
      "2022-09-28T20:35:47.023929",
      "2022-09-28T20:35:47.833012",
      "2022-09-28T20:35:48.660334",
      "2022-09-28T20:35:49.471320",
      "2022-09-28T20:35:50.283549",
      "2022-09-28T20:35:51.109378",
      "2022-09-28T20:35:51.964583",
      "2022-09-28T20:35:52.774246",
      "2022-09-28T20:35:53.618217",
      "2022-09-28T20:35:54.430263",
      "2022-09-28T20:35:55.245345",
      "2022-09-28T20:35:56.053878",
      "2022-09-28T20:35:56.864231",
      "2022-09-28T20:35:57.673693",
      "2022-09-28T20:35:58.481640",
      "2022-09-28T20:35:59.322333",
      "2022-09-28T20:36:00.133545",
      "2022-09-28T20:36:00.938330",
      "2022-09-28T20:36:01.765272",
      "2022-09-28T20:36:02.615201",
      "2022-09-28T20:36:03.425882",
      "2022-09-28T20:36:04.254845",
      "2022-09-28T20:36:05.076392",
      "2022-09-28T20:36:05.882372",
      "2022-09-28T20:36:06.693414",
      "2022-09-28T20:36:07.518329",
      "2022-09-28T20:36:08.328910",
      "2022-09-28T20:36:09.147677",
      "2022-09-28T20:36:09.962467",
      "2022-09-28T20:36:10.773713",
      "2022-09-28T20:36:11.584416",
      "2022-09-28T20:36:12.391452",
      "2022-09-28T20:36:13.202946",
      "2022-09-28T20:36:14.010517",
      "2022-09-28T20:36:14.822655",
      "2022-09-28T20:36:15.645554",
      "2022-09-28T20:36:16.468623",
      "2022-09-28T20:36:17.279707",
      "2022-09-28T20:36:18.094162",
      "2022-09-28T20:36:18.897788",
      "2022-09-28T20:36:19.710025",
      "2022-09-28T20:36:20.516670",
      "2022-09-28T20:36:21.325982",
      "2022-09-28T20:36:22.134188",
      "2022-09-28T20:36:22.941289",
      "2022-09-28T20:36:23.764678",
      "2022-09-28T20:36:24.592180",
      "2022-09-28T20:36:25.399416",
      "2022-09-28T20:36:26.207876",
      "2022-09-28T20:36:27.015385",
      "2022-09-28T20:36:27.825362",
      "2022-09-28T20:36:28.633766",
      "2022-09-28T20:36:29.455918",
      "2022-09-28T20:36:30.264759",
      "2022-09-28T20:36:31.073945",
      "2022-09-28T20:36:31.894672",
      "2022-09-28T20:36:32.710826",
      "2022-09-28T20:36:33.545994",
      "2022-09-28T20:36:34.362927",
      "2022-09-28T20:36:35.187904",
      "2022-09-28T20:36:35.997206",
      "2022-09-28T20:36:36.802218",
      "2022-09-28T20:36:37.616184",
      "2022-09-28T20:36:38.424139",
      "2022-09-28T20:36:39.235660",
      "2022-09-28T20:36:40.075629",
      "2022-09-28T20:36:40.885929",
      "2022-09-28T20:36:41.696115",
      "2022-09-28T20:36:42.507383",
      "2022-09-28T20:36:43.313406",
      "2022-09-28T20:36:44.130333",
      "2022-09-28T20:36:44.950652",
      "2022-09-28T20:36:45.764416",
      "2022-09-28T20:36:46.573035",
      "2022-09-28T20:36:47.386968",
      "2022-09-28T20:36:48.213315",
      "2022-09-28T20:36:49.026799",
      "2022-09-28T20:36:49.841968",
      "2022-09-28T20:36:50.663784",
      "2022-09-28T20:36:51.470375",
      "2022-09-28T20:36:52.282932",
      "2022-09-28T20:36:53.092846",
      "2022-09-28T20:36:53.905483",
      "2022-09-28T20:36:54.719241",
      "2022-09-28T20:36:55.529863",
      "2022-09-28T20:36:56.351394",
      "2022-09-28T20:36:57.178573",
      "2022-09-28T20:36:57.989308",
      "2022-09-28T20:36:58.801589",
      "2022-09-28T20:36:59.609987",
      "2022-09-28T20:37:00.421194",
      "2022-09-28T20:37:01.230401",
      "2022-09-28T20:37:02.044666",
      "2022-09-28T20:37:02.855446",
      "2022-09-28T20:37:03.668214",
      "2022-09-28T20:37:04.491248",
      "2022-09-28T20:37:05.307040",
      "2022-09-28T20:37:06.132272",
      "2022-09-28T20:37:06.947882",
      "2022-09-28T20:37:07.759291",
      "2022-09-28T20:37:08.575010",
      "2022-09-28T20:37:09.380828",
      "2022-09-28T20:37:10.194926",
      "2022-09-28T20:37:11.003277",
      "2022-09-28T20:37:11.815993",
      "2022-09-28T20:37:12.642851",
      "2022-09-28T20:37:13.471265",
      "2022-09-28T20:37:14.284198",
      "2022-09-28T20:37:15.099825",
      "2022-09-28T20:37:15.906523",
      "2022-09-28T20:37:16.720689",
      "2022-09-28T20:37:17.529181",
      "2022-09-28T20:37:18.354819",
      "2022-09-28T20:37:19.166646",
      "2022-09-28T20:37:19.978014",
      "2022-09-28T20:37:20.802409",
      "2022-09-28T20:37:21.618102",
      "2022-09-28T20:37:22.425622",
      "2022-09-28T20:37:23.248670",
      "2022-09-28T20:37:24.070184",
      "2022-09-28T20:37:24.885710",
      "2022-09-28T20:37:25.695347",
      "2022-09-28T20:37:26.506834",
      "2022-09-28T20:37:27.311324",
      "2022-09-28T20:37:28.135246",
      "2022-09-28T20:37:28.972175",
      "2022-09-28T20:37:29.783371",
      "2022-09-28T20:37:30.589935",
      "2022-09-28T20:37:31.397612",
      "2022-09-28T20:37:32.204612",
      "2022-09-28T20:37:33.016096",
      "2022-09-28T20:37:33.834007",
      "2022-09-28T20:37:34.650881",
      "2022-09-28T20:37:35.453983",
      "2022-09-28T20:37:36.265558",
      "2022-09-28T20:37:37.087869",
      "2022-09-28T20:37:37.897598",
      "2022-09-28T20:37:38.711564",
      "2022-09-28T20:37:39.529736",
      "2022-09-28T20:37:40.334858",
      "2022-09-28T20:37:41.144989",
      "2022-09-28T20:37:41.947956",
      "2022-09-28T20:37:42.760897",
      "2022-09-28T20:37:43.565293",
      "2022-09-28T20:37:44.374337",
      "2022-09-28T20:37:45.199282",
      "2022-09-28T20:37:46.022947",
      "2022-09-28T20:37:46.828643",
      "2022-09-28T20:37:47.640004",
      "2022-09-28T20:37:48.444333",
      "2022-09-28T20:37:49.254264",
      "2022-09-28T20:37:50.059464",
      "2022-09-28T20:37:50.866616",
      "2022-09-28T20:37:51.673333",
      "2022-09-28T20:37:52.484249"
    ],
    "values": [
      18.003215858068593,
      18.06756407124585,
      17.841423339366667,
      17.38617732926494,
      17.229215429917577,
      17.013169255205188,
      16.803113570032398,
      16.564343753831732,
      16.396545493417328,
      16.306667403200617,
      16.242312137056626,
      16.154323801263857,
      16.07659406683603,
      15.975598695728664,
      15.89823870047756,
      15.851105931449242,
      15.765644677163753,
      15.657185116333917,
      15.56261768079312,
      15.532107542569811,
      15.589145922142288,
      15.60116586360564,
      15.572388613791388,
      15.541226715892343,
      15.47049526353351,
      15.408080572257395,
      15.35555703445884,
      15.363445975409748,
      15.28696676082033,
      15.265543681676071,
      15.198975851388292,
      15.132524580820911,
      15.084196725929509,
      15.080199706114543,
      15.059956779780725,
      14.998073634619644,
      14.998642294358858,
      15.00916985997712,
      14.939292399755615,
      14.904060896060743,
      14.807734312421823,
      14.705939585893022,
      14.785504010317647,
      14.783878891576215,
      14.65775360677738,
      14.698475582937135,
      14.745631849527822,
      14.779181127241664,
      14.773591525733387,
      14.553535124715506,
      14.444720102613683,
      14.424577817982884,
      14.286812137356932,
      14.322315277910915,
      14.455900355747142,
      14.513139192127271,
      14.513118991809256,
      14.47877988692383,
      14.530797527604971,
      14.630608990369094,
      14.47774287410088,
      14.211151344823925,
      14.196329674692475,
      14.136177119301092,
      14.059185403862466,
      13.970566721736237,
      13.83446401655399,
      13.830634409327795,
      13.79870699846549,
      13.665635440677663,
      13.675832992645535,
      13.591175055830128,
      13.512545948074626,
      13.542517733374448,
      13.510442162154376,
      13.457221982382725,
      13.471194384612847,
      13.38606667101228,
      13.218206813811314,
      13.180021927421151,
      13.229006388646107,
      13.137163316673195,
      13.060971143880009,
      13.03186609899964,
      13.021614396585571,
      12.999549098164485,
      13.023222045374393,
      13.045269718090365,
      12.978843118279853,
      13.005226820989213,
      13.02330127162482,
      13.009559120890636,
      13.020557684961462,
      13.074847747376248,
      13.135955267829265,
      13.125186698435078,
      13.245267337207116,
      13.143660043679889,
      12.969795574358294,
      12.77114765765009,
      12.737714147890848,
      12.814872933298973,
      12.78486486998075,
      12.627409036901991,
      12.560655874566413,
      12.697966279401728,
      12.803358615169264,
      12.78738858146998,
      12.754810847495573,
      12.777200222220275,
      12.736963136340451,
      12.688930407475247,
      12.726374968139737,
      12.900616254566202,
      12.838959455073988,
      12.656140988162583,
      12.571501816770171,
      12.771626794521346,
      12.845234997727964,
      12.927517009240848,
      12.909741410422985,
      12.770896609231889,
      12.628146448188806,
      12.608962449710134,
      12.620511774326753,
      12.5397164667607,
      12.456864676500745,
      12.435272184891552,
      12.505153950364841,
      12.577112846898931,
      12.570559252721607,
      12.51833940400297,
      12.518705990532606,
      12.470282158154635,
      12.449132470254819,
      12.441484821592994,
      12.411737636919755,
      12.422151101728538,
      12.458657177167154,
      12.407297562083173,
      12.358355574151666,
      12.398154670634776,
      12.387516438242205,
      12.381295414263676,
      12.409470882054098,
      12.32877853770272,
      12.319594786662687,
      12.309737485362472,
      12.331615373197591,
      12.32087676648489,
      12.359509472571089,
      12.313164240803198,
      12.279087876767816,
      12.287863615065682,
      12.281922496187208,
      12.287992324875942,
      12.276313245641484,
      12.29543498759463,
      12.31304773516999,
      12.279892449919844,
      12.277002014007794,
      12.277599711627374,
      12.280322408235714,
      12.271981964804858,
      12.280751821378738,
      12.27206327043035,
      12.277704267817144,
      12.287675809368302,
      12.274995898127745,
      12.275798728672918,
      12.295095920074047,
      12.292547597406092,
      12.31858432782117,
      12.261030699934668,
      12.267464209554483,
      12.28567944158577,
      12.253865124038994,
      12.254894932934565,
      12.27283055454776,
      12.251035292760367,
      12.273655993769907,
      12.314225516580596,
      12.28052935762295,
      12.254082430852401,
      12.249541780484371,
      12.277962154466827,
      12.29349270168155,
      12.2628758145439,
      12.294378025986717,
      12.264693413610667,
      12.273649044559866,
      12.258866124106914,
      12.260219010522343,
      12.259425643954081,
      12.291422232028356,
      12.274084359696344,
      12.255613405573868,
      12.271876849243222,
      12.252907590537264,
      12.29869867094329,
      12.294086596247116,
      12.30104480306215,
      12.262452806161695,
      12.26703887607353,
      12.277782280928047,
      12.261446986680948,
      12.271166952362194,
      12.262695744081343,
      12.261998668151147,
      12.278347512247933,
      12.251058858645623,
      12.271976128543692,
      12.285599373467942,
      12.270792900745619,
      12.294805446607736,
      12.272038623139506,
      12.275299048841564,
      12.258490318070894,
      12.301556110474987,
      12.270468924442499,
      12.270089137987165,
      12.250580829379919,
      12.270820569860486,
      12.273752225108241,
      12.302946244164769,
      12.253708486652794,
      12.293183126665824,
      12.262614933572326,
      12.277045798644046,
      12.266190485552608,
      12.28192037315239,
      12.274921612429676,
      12.257024185918933,
      12.307716519370576,
      12.254239045589324,
      12.24904531626913,
      12.271458490161278,
      12.302422253064574,
      12.258518810130873,
      12.277746800595589,
      12.246833413111403,
      12.249142514363154,
      12.2651218578039,
      12.253038911070611,
      12.284019846504567,
      12.24755394945917,
      12.283384510770768,
      12.259472156257445,
      12.2626223643079,
      12.272165000954907,
      12.26738279764523,
      12.257844523953445,
      12.283860068685355,
      12.273151397032013,
      12.278680147245732,
      12.280356497769933,
      12.26173350347487,
      12.273499666331237,
      12.267409413093228,
      12.273515951395892,
      12.265014460913058,
      12.265465953221394,
      12.239976592658993,
      12.303907228036913,
      12.291461958571412,
      12.328015503335067,
      12.245712334136156,
      12.262289516367362,
      12.289575777874065,
      12.26482839328181,
      12.272611889913914,
      12.264174705680432,
      12.288956830181096,
      12.270360927628206,
      12.284075379494176,
      12.26752019751058,
      12.268118050278142,
      12.26392644974323,
      12.290923467494297,
      12.261843973267771,
      12.277835512640674,
      12.254520233642229,
      12.25935135172738,
      12.273753198347872,
      12.251831705986937,
      12.286583177487241,
      12.253336133683044,
      12.291487583596213,
      12.260688361011999,
      12.272569763389484,
      12.287023710586793,
      12.252129050465829,
      12.287114753153217,
      12.28240670385066,
      12.231353572408175,
      12.301905044437028,
      12.273128624405524,
      12.254278761119435,
      12.251617361185822,
      12.27294280177354,
      12.27056385316987,
      12.270397890287507,
      12.272963773464797,
      12.275115470661117,
      12.278867060119026,
      12.2643228103698,
      12.268262195112051,
      12.24015080943629,
      12.23160271137608,
      12.282118115212088,
      12.278997266127117,
      12.279319487220173,
      12.24346962780521,
      12.257528659120418,
      12.249338777794888,
      12.257142900404329,
      12.25686533463267,
      12.287703113829268,
      12.25460959798394,
      12.283729846077904,
      12.25319647112961,
      12.275141859124439,
      12.251413944973072,
      12.292716333339333,
      12.260955568122352,
      12.244981396395874,
      12.300819789291975,
      12.266931355629326,
      12.27102550129286,
      12.262389501409544,
      12.290247705301786,
      12.272149909458763,
      12.287492539150094,
      12.250167029697076,
      12.260884215096237,
      12.248506167447927,
      12.287515864912361,
      12.272901264291539,
      12.255440374034857,
      12.254516590284723,
      12.270244012774565,
      12.229827372110291,
      12.270850818344684,
      12.244528018693828,
      12.224335777310799,
      12.269231489930483,
      12.2792293614297,
      12.247327754283384,
      12.265065093642642,
      12.296418260692136,
      12.26943221584391,
      12.265326751815417,
      12.285400610454694,
      12.249351317446568,
      12.267304036544058,
      12.25607242067126,
      12.275337739372802,
      12.24080837601202,
      12.303407120928227,
      12.24770608470148,
      12.301532125526082,
      12.23476231517571,
      12.285211464714127,
      12.251335334554286,
      12.26995834111965,
      12.251448643370672,
      12.301283432551557,
      12.258653964375824,
      12.291997389370037,
      12.281431648466352,
      12.292219351424537,
      12.276490801921438,
      12.282983819088704,
      12.257820949266437,
      12.277828334159842,
      12.291846027290669,
      12.282512019893405,
      12.2667000260829,
      12.294922135762613,
      12.26469098500303,
      12.28322153196645,
      12.265463242489588,
      12.278740322285717,
      12.262975781406588,
      12.272869463433906,
      12.281846055504039,
      12.282104499648062,
      12.292636642936984,
      12.283000522817431,
      12.282000372944994,
      12.249738324089712,
      12.276113226897976,
      12.268043723065967,
      12.265091218877297,
      12.260763788696407,
      12.290090788281313,
      12.25470343705402,
      12.275001399968062,
      12.237216985510424,
      12.27684035442516
    ]
  }
}