INFO - siren_vae - Running command 'run'
INFO - siren_vae - Started run with ID "2"
[ENCODED STRUCTURE] Using faithful BN structure.
  0%|          | 0/600 [00:00<?, ?it/s]Train -ELBO: 1516.25199, Val -ELBO: 1445.03057:   0%|          | 1/600 [00:01<10:53,  1.09s/it]Train -ELBO: 1297.39685, Val -ELBO: 1198.85629:   0%|          | 3/600 [00:02<07:25,  1.34it/s]Train -ELBO: 976.18054, Val -ELBO: 864.92142:   1%|          | 5/600 [00:03<06:44,  1.47it/s]  Train -ELBO: 656.06826, Val -ELBO: 569.42150:   1%|          | 7/600 [00:04<06:28,  1.53it/s]Train -ELBO: 430.43999, Val -ELBO: 384.83001:   2%|▏         | 9/600 [00:06<06:18,  1.56it/s]Train -ELBO: 309.92302, Val -ELBO: 284.73117:   2%|▏         | 11/600 [00:07<06:21,  1.55it/s]Train -ELBO: 247.24096, Val -ELBO: 238.12292:   2%|▏         | 13/600 [00:08<06:17,  1.56it/s]Train -ELBO: 226.47000, Val -ELBO: 222.75998:   2%|▎         | 15/600 [00:09<06:11,  1.57it/s]Train -ELBO: 217.59793, Val -ELBO: 216.14077:   3%|▎         | 17/600 [00:11<06:07,  1.59it/s]Train -ELBO: 212.74640, Val -ELBO: 210.92611:   3%|▎         | 19/600 [00:12<06:04,  1.59it/s]Train -ELBO: 207.14141, Val -ELBO: 205.68120:   4%|▎         | 21/600 [00:13<06:07,  1.57it/s]Train -ELBO: 202.59432, Val -ELBO: 201.33719:   4%|▍         | 23/600 [00:14<06:03,  1.59it/s]Train -ELBO: 199.54782, Val -ELBO: 197.70856:   4%|▍         | 25/600 [00:16<06:00,  1.59it/s]Train -ELBO: 195.81691, Val -ELBO: 194.65819:   4%|▍         | 27/600 [00:17<05:58,  1.60it/s]Train -ELBO: 192.82336, Val -ELBO: 191.64867:   5%|▍         | 29/600 [00:18<05:55,  1.60it/s]Train -ELBO: 189.02282, Val -ELBO: 187.86589:   5%|▌         | 31/600 [00:19<05:58,  1.59it/s]Train -ELBO: 185.56590, Val -ELBO: 183.86557:   6%|▌         | 33/600 [00:21<05:55,  1.60it/s]Train -ELBO: 181.62565, Val -ELBO: 180.07419:   6%|▌         | 35/600 [00:22<05:52,  1.60it/s]Train -ELBO: 177.31056, Val -ELBO: 175.63911:   6%|▌         | 37/600 [00:23<05:50,  1.61it/s]Train -ELBO: 173.13585, Val -ELBO: 171.64291:   6%|▋         | 39/600 [00:24<05:48,  1.61it/s]Train -ELBO: 169.93884, Val -ELBO: 168.25945:   7%|▋         | 41/600 [00:26<05:50,  1.60it/s]Train -ELBO: 165.05263, Val -ELBO: 164.04126:   7%|▋         | 43/600 [00:27<05:50,  1.59it/s]Train -ELBO: 161.31046, Val -ELBO: 158.92819:   8%|▊         | 45/600 [00:28<05:47,  1.60it/s]Train -ELBO: 156.77486, Val -ELBO: 155.16127:   8%|▊         | 47/600 [00:29<05:45,  1.60it/s]Train -ELBO: 152.32091, Val -ELBO: 150.71770:   8%|▊         | 49/600 [00:31<05:43,  1.61it/s]Train -ELBO: 147.69479, Val -ELBO: 145.79751:   8%|▊         | 51/600 [00:32<05:45,  1.59it/s]Train -ELBO: 144.21531, Val -ELBO: 141.83772:   9%|▉         | 53/600 [00:33<05:42,  1.60it/s]Train -ELBO: 140.30370, Val -ELBO: 137.54302:   9%|▉         | 55/600 [00:34<05:40,  1.60it/s]Train -ELBO: 136.05126, Val -ELBO: 134.19933:  10%|▉         | 57/600 [00:36<05:38,  1.61it/s]Train -ELBO: 132.45055, Val -ELBO: 130.27697:  10%|▉         | 59/600 [00:37<05:35,  1.61it/s]Train -ELBO: 128.15679, Val -ELBO: 126.14948:  10%|█         | 61/600 [00:38<05:36,  1.60it/s]Train -ELBO: 124.38117, Val -ELBO: 122.78895:  10%|█         | 63/600 [00:39<05:36,  1.60it/s]Train -ELBO: 121.61366, Val -ELBO: 119.93021:  11%|█         | 65/600 [00:41<05:33,  1.60it/s]Train -ELBO: 118.18562, Val -ELBO: 116.09625:  11%|█         | 67/600 [00:42<05:31,  1.61it/s]Train -ELBO: 113.84142, Val -ELBO: 111.87852:  12%|█▏        | 69/600 [00:43<05:30,  1.61it/s]Train -ELBO: 110.56061, Val -ELBO: 108.96181:  12%|█▏        | 71/600 [00:44<05:30,  1.60it/s]Train -ELBO: 107.12491, Val -ELBO: 105.35625:  12%|█▏        | 73/600 [00:46<05:30,  1.60it/s]Train -ELBO: 103.04285, Val -ELBO: 101.61471:  12%|█▎        | 75/600 [00:47<05:27,  1.60it/s]Train -ELBO: 99.64208, Val -ELBO: 98.91248:  13%|█▎        | 77/600 [00:48<05:25,  1.61it/s]  Train -ELBO: 96.96841, Val -ELBO: 96.03308:  13%|█▎        | 79/600 [00:49<05:23,  1.61it/s]Train -ELBO: 94.05652, Val -ELBO: 93.11701:  14%|█▎        | 81/600 [00:51<05:26,  1.59it/s]Train -ELBO: 92.33539, Val -ELBO: 90.21890:  14%|█▍        | 83/600 [00:52<05:23,  1.60it/s]Train -ELBO: 90.32312, Val -ELBO: 87.96607:  14%|█▍        | 85/600 [00:53<05:21,  1.60it/s]Train -ELBO: 87.43559, Val -ELBO: 85.65004:  14%|█▍        | 87/600 [00:54<05:19,  1.61it/s]Train -ELBO: 84.16940, Val -ELBO: 83.34167:  15%|█▍        | 89/600 [00:56<05:17,  1.61it/s]Train -ELBO: 82.51020, Val -ELBO: 81.63014:  15%|█▌        | 91/600 [00:57<05:18,  1.60it/s]Train -ELBO: 80.41422, Val -ELBO: 78.72432:  16%|█▌        | 93/600 [00:58<05:17,  1.59it/s]Train -ELBO: 77.80535, Val -ELBO: 76.56213:  16%|█▌        | 95/600 [00:59<05:15,  1.60it/s]Train -ELBO: 75.81382, Val -ELBO: 74.97072:  16%|█▌        | 97/600 [01:01<05:13,  1.61it/s]Train -ELBO: 74.31807, Val -ELBO: 72.94099:  16%|█▋        | 99/600 [01:02<05:11,  1.61it/s]Train -ELBO: 73.98289, Val -ELBO: 72.97106:  17%|█▋        | 101/600 [01:03<05:14,  1.59it/s]Train -ELBO: 72.14199, Val -ELBO: 70.36556:  17%|█▋        | 103/600 [01:04<05:11,  1.59it/s]Train -ELBO: 72.65957, Val -ELBO: 71.77948:  18%|█▊        | 105/600 [01:06<05:09,  1.60it/s]Train -ELBO: 71.16004, Val -ELBO: 68.76536:  18%|█▊        | 107/600 [01:07<05:07,  1.60it/s]Train -ELBO: 69.83334, Val -ELBO: 67.95387:  18%|█▊        | 109/600 [01:08<05:05,  1.61it/s]Train -ELBO: 67.65773, Val -ELBO: 65.93741:  18%|█▊        | 111/600 [01:09<05:07,  1.59it/s]Train -ELBO: 65.95984, Val -ELBO: 65.04678:  19%|█▉        | 113/600 [01:11<05:05,  1.60it/s]Train -ELBO: 64.36923, Val -ELBO: 63.60383:  19%|█▉        | 115/600 [01:12<05:02,  1.60it/s]Train -ELBO: 63.50781, Val -ELBO: 62.91540:  20%|█▉        | 117/600 [01:13<05:00,  1.61it/s]Train -ELBO: 62.81219, Val -ELBO: 62.19831:  20%|█▉        | 119/600 [01:14<04:58,  1.61it/s]Train -ELBO: 62.08523, Val -ELBO: 61.34750:  20%|██        | 121/600 [01:16<04:59,  1.60it/s]Train -ELBO: 61.81114, Val -ELBO: 60.80929:  20%|██        | 123/600 [01:17<04:58,  1.60it/s]Train -ELBO: 60.56444, Val -ELBO: 60.08861:  21%|██        | 125/600 [01:18<04:56,  1.60it/s]Train -ELBO: 59.48653, Val -ELBO: 58.87072:  21%|██        | 127/600 [01:19<04:54,  1.61it/s]Train -ELBO: 58.07428, Val -ELBO: 58.12894:  22%|██▏       | 129/600 [01:21<04:52,  1.61it/s]Train -ELBO: 57.42506, Val -ELBO: 56.80936:  22%|██▏       | 131/600 [01:22<04:55,  1.59it/s]Train -ELBO: 57.20162, Val -ELBO: 56.40790:  22%|██▏       | 133/600 [01:23<04:52,  1.59it/s]Train -ELBO: 57.97483, Val -ELBO: 57.61997:  22%|██▎       | 135/600 [01:24<04:50,  1.60it/s]Train -ELBO: 56.79295, Val -ELBO: 55.61731:  23%|██▎       | 137/600 [01:26<04:48,  1.61it/s]Train -ELBO: 56.20322, Val -ELBO: 55.67918:  23%|██▎       | 139/600 [01:27<04:46,  1.61it/s]Train -ELBO: 55.65710, Val -ELBO: 55.36966:  24%|██▎       | 141/600 [01:28<04:47,  1.60it/s]Train -ELBO: 56.55813, Val -ELBO: 55.68557:  24%|██▍       | 143/600 [01:29<04:46,  1.60it/s]Train -ELBO: 54.94186, Val -ELBO: 54.29401:  24%|██▍       | 145/600 [01:31<04:44,  1.60it/s]Train -ELBO: 54.88132, Val -ELBO: 54.30104:  24%|██▍       | 147/600 [01:32<04:42,  1.60it/s]Train -ELBO: 55.03205, Val -ELBO: 55.25143:  25%|██▍       | 149/600 [01:33<04:40,  1.61it/s]Train -ELBO: 54.55966, Val -ELBO: 53.28935:  25%|██▌       | 151/600 [01:34<04:40,  1.60it/s]Train -ELBO: 52.87838, Val -ELBO: 52.70975:  26%|██▌       | 153/600 [01:36<04:40,  1.60it/s]Train -ELBO: 53.32200, Val -ELBO: 52.74890:  26%|██▌       | 155/600 [01:37<04:38,  1.60it/s]Train -ELBO: 53.34324, Val -ELBO: 52.17799:  26%|██▌       | 157/600 [01:38<04:36,  1.60it/s]Train -ELBO: 53.00379, Val -ELBO: 52.45603:  26%|██▋       | 159/600 [01:39<04:34,  1.61it/s]Train -ELBO: 52.77507, Val -ELBO: 52.44027:  27%|██▋       | 161/600 [01:41<04:35,  1.59it/s]Train -ELBO: 53.55134, Val -ELBO: 52.01901:  27%|██▋       | 163/600 [01:42<04:34,  1.59it/s]Train -ELBO: 51.79337, Val -ELBO: 52.14251:  28%|██▊       | 165/600 [01:43<04:31,  1.60it/s]Train -ELBO: 51.63253, Val -ELBO: 51.00048:  28%|██▊       | 167/600 [01:44<04:29,  1.61it/s]Train -ELBO: 51.14139, Val -ELBO: 50.80132:  28%|██▊       | 169/600 [01:46<04:27,  1.61it/s]Train -ELBO: 51.33002, Val -ELBO: 50.67066:  28%|██▊       | 171/600 [01:47<04:27,  1.60it/s]Train -ELBO: 51.73454, Val -ELBO: 51.30570:  29%|██▉       | 173/600 [01:48<04:27,  1.60it/s]Train -ELBO: 50.99678, Val -ELBO: 50.90488:  29%|██▉       | 175/600 [01:49<04:25,  1.60it/s]Train -ELBO: 50.99893, Val -ELBO: 50.64644:  30%|██▉       | 177/600 [01:51<04:23,  1.61it/s]Train -ELBO: 51.02238, Val -ELBO: 50.54561:  30%|██▉       | 179/600 [01:52<04:21,  1.61it/s]Train -ELBO: 50.06965, Val -ELBO: 50.04168:  30%|███       | 181/600 [01:53<04:23,  1.59it/s]Train -ELBO: 49.57380, Val -ELBO: 49.52901:  30%|███       | 183/600 [01:54<04:20,  1.60it/s]Train -ELBO: 50.21564, Val -ELBO: 50.33690:  31%|███       | 185/600 [01:56<04:18,  1.60it/s]Train -ELBO: 50.35956, Val -ELBO: 49.44920:  31%|███       | 187/600 [01:57<04:16,  1.61it/s]Train -ELBO: 50.93110, Val -ELBO: 50.10058:  32%|███▏      | 189/600 [01:58<04:15,  1.61it/s]Train -ELBO: 50.51688, Val -ELBO: 50.09238:  32%|███▏      | 191/600 [01:59<04:17,  1.59it/s]Train -ELBO: 50.68464, Val -ELBO: 50.03049:  32%|███▏      | 193/600 [02:01<04:15,  1.59it/s]Train -ELBO: 51.12911, Val -ELBO: 51.41134:  32%|███▎      | 195/600 [02:02<04:13,  1.60it/s]Train -ELBO: 50.13061, Val -ELBO: 49.03217:  33%|███▎      | 197/600 [02:03<04:11,  1.60it/s]Train -ELBO: 48.99971, Val -ELBO: 49.27003:  33%|███▎      | 199/600 [02:04<04:09,  1.61it/s]Train -ELBO: 50.02620, Val -ELBO: 49.23988:  34%|███▎      | 201/600 [02:06<04:09,  1.60it/s]Train -ELBO: 48.96947, Val -ELBO: 48.70176:  34%|███▍      | 203/600 [02:07<04:08,  1.60it/s]Train -ELBO: 48.88970, Val -ELBO: 48.64225:  34%|███▍      | 205/600 [02:08<04:06,  1.60it/s]Train -ELBO: 49.29352, Val -ELBO: 48.97364:  34%|███▍      | 207/600 [02:09<04:04,  1.61it/s]Train -ELBO: 48.51537, Val -ELBO: 48.25450:  35%|███▍      | 209/600 [02:11<04:03,  1.61it/s]Train -ELBO: 49.03739, Val -ELBO: 48.43334:  35%|███▌      | 211/600 [02:12<04:04,  1.59it/s]Train -ELBO: 48.65347, Val -ELBO: 48.44772:  36%|███▌      | 213/600 [02:13<04:02,  1.60it/s]Train -ELBO: 48.23082, Val -ELBO: 48.18237:  36%|███▌      | 215/600 [02:14<04:00,  1.60it/s]Train -ELBO: 48.40090, Val -ELBO: 48.24554:  36%|███▌      | 217/600 [02:16<03:58,  1.61it/s]Train -ELBO: 48.75796, Val -ELBO: 47.63696:  36%|███▋      | 219/600 [02:17<03:56,  1.61it/s]Train -ELBO: 47.69869, Val -ELBO: 47.53335:  37%|███▋      | 221/600 [02:18<03:56,  1.60it/s]Train -ELBO: 47.95115, Val -ELBO: 47.75024:  37%|███▋      | 223/600 [02:19<03:56,  1.59it/s]Train -ELBO: 47.68500, Val -ELBO: 47.86781:  38%|███▊      | 225/600 [02:21<03:54,  1.60it/s]Train -ELBO: 47.73197, Val -ELBO: 47.71034:  38%|███▊      | 227/600 [02:22<03:52,  1.61it/s]Train -ELBO: 47.96907, Val -ELBO: 47.52013:  38%|███▊      | 229/600 [02:23<03:50,  1.61it/s]Train -ELBO: 47.53398, Val -ELBO: 47.58975:  38%|███▊      | 231/600 [02:24<03:50,  1.60it/s]Train -ELBO: 48.19265, Val -ELBO: 47.50328:  39%|███▉      | 233/600 [02:26<03:49,  1.60it/s]Train -ELBO: 48.00018, Val -ELBO: 47.31116:  39%|███▉      | 235/600 [02:27<03:47,  1.60it/s]Train -ELBO: 46.99409, Val -ELBO: 46.57392:  40%|███▉      | 237/600 [02:28<03:46,  1.60it/s]Train -ELBO: 46.90252, Val -ELBO: 47.05897:  40%|███▉      | 239/600 [02:29<03:44,  1.61it/s]Train -ELBO: 47.61286, Val -ELBO: 47.01293:  40%|████      | 241/600 [02:31<03:45,  1.59it/s]Train -ELBO: 48.19088, Val -ELBO: 47.19132:  40%|████      | 243/600 [02:32<03:43,  1.60it/s]Train -ELBO: 47.74349, Val -ELBO: 47.40633:  41%|████      | 245/600 [02:33<03:41,  1.60it/s]Train -ELBO: 47.00213, Val -ELBO: 46.20879:  41%|████      | 247/600 [02:34<03:39,  1.61it/s]Train -ELBO: 46.48112, Val -ELBO: 46.50141:  42%|████▏     | 249/600 [02:36<03:38,  1.61it/s]Train -ELBO: 46.92226, Val -ELBO: 46.36445:  42%|████▏     | 251/600 [02:37<03:38,  1.60it/s]Train -ELBO: 46.09887, Val -ELBO: 45.91915:  42%|████▏     | 253/600 [02:38<03:37,  1.59it/s]Train -ELBO: 46.56103, Val -ELBO: 46.39072:  42%|████▎     | 255/600 [02:39<03:35,  1.60it/s]Train -ELBO: 47.38822, Val -ELBO: 46.71092:  43%|████▎     | 257/600 [02:41<03:33,  1.60it/s]Train -ELBO: 46.80274, Val -ELBO: 46.19996:  43%|████▎     | 259/600 [02:42<03:32,  1.61it/s]Train -ELBO: 46.54197, Val -ELBO: 45.98439:  44%|████▎     | 261/600 [02:43<03:33,  1.59it/s]Train -ELBO: 46.44660, Val -ELBO: 46.09879:  44%|████▍     | 263/600 [02:44<03:31,  1.60it/s]Train -ELBO: 46.07185, Val -ELBO: 45.84664:  44%|████▍     | 265/600 [02:46<03:29,  1.60it/s]Train -ELBO: 46.37973, Val -ELBO: 45.88693:  44%|████▍     | 267/600 [02:47<03:27,  1.60it/s]Train -ELBO: 47.32496, Val -ELBO: 46.11478:  45%|████▍     | 269/600 [02:48<03:26,  1.61it/s]Train -ELBO: 46.36663, Val -ELBO: 46.89972:  45%|████▌     | 271/600 [02:49<03:26,  1.59it/s]Train -ELBO: 45.72760, Val -ELBO: 45.69299:  46%|████▌     | 273/600 [02:51<03:24,  1.60it/s]Train -ELBO: 45.94240, Val -ELBO: 45.56617:  46%|████▌     | 275/600 [02:52<03:22,  1.60it/s]Train -ELBO: 46.47816, Val -ELBO: 46.24556:  46%|████▌     | 277/600 [02:53<03:21,  1.61it/s]Train -ELBO: 46.17721, Val -ELBO: 45.59008:  46%|████▋     | 279/600 [02:54<03:19,  1.61it/s]Train -ELBO: 46.24355, Val -ELBO: 45.89329:  47%|████▋     | 281/600 [02:56<03:19,  1.60it/s]Train -ELBO: 45.02940, Val -ELBO: 45.48043:  47%|████▋     | 283/600 [02:57<03:18,  1.59it/s]Train -ELBO: 45.66732, Val -ELBO: 44.78605:  48%|████▊     | 285/600 [02:58<03:17,  1.60it/s]Train -ELBO: 45.29683, Val -ELBO: 45.31087:  48%|████▊     | 287/600 [02:59<03:15,  1.60it/s]Train -ELBO: 45.49518, Val -ELBO: 45.20794:  48%|████▊     | 289/600 [03:01<03:13,  1.61it/s]Train -ELBO: 45.54692, Val -ELBO: 45.47549:  48%|████▊     | 291/600 [03:02<03:14,  1.59it/s]Train -ELBO: 45.58422, Val -ELBO: 45.47513:  49%|████▉     | 293/600 [03:03<03:12,  1.60it/s]Train -ELBO: 45.37745, Val -ELBO: 45.03982:  49%|████▉     | 295/600 [03:04<03:10,  1.60it/s]Train -ELBO: 45.10507, Val -ELBO: 45.22084:  50%|████▉     | 297/600 [03:06<03:08,  1.61it/s]Train -ELBO: 45.46424, Val -ELBO: 44.83886:  50%|████▉     | 299/600 [03:07<03:07,  1.61it/s]Train -ELBO: 45.74538, Val -ELBO: 45.55234:  50%|█████     | 301/600 [03:08<03:06,  1.60it/s]Train -ELBO: 45.46258, Val -ELBO: 45.04688:  50%|█████     | 303/600 [03:09<03:05,  1.60it/s]Train -ELBO: 44.66239, Val -ELBO: 44.89435:  51%|█████     | 305/600 [03:11<03:04,  1.60it/s]Train -ELBO: 45.68855, Val -ELBO: 45.77199:  51%|█████     | 307/600 [03:12<03:02,  1.61it/s]Train -ELBO: 46.22189, Val -ELBO: 46.09903:  52%|█████▏    | 309/600 [03:13<03:00,  1.61it/s]Train -ELBO: 45.74520, Val -ELBO: 45.43325:  52%|█████▏    | 311/600 [03:14<03:00,  1.60it/s]Train -ELBO: 45.56962, Val -ELBO: 46.27193:  52%|█████▏    | 313/600 [03:16<03:00,  1.59it/s]Train -ELBO: 45.38155, Val -ELBO: 44.74343:  52%|█████▎    | 315/600 [03:17<02:58,  1.60it/s]Train -ELBO: 45.31759, Val -ELBO: 44.61674:  53%|█████▎    | 317/600 [03:18<02:56,  1.60it/s]Train -ELBO: 45.00964, Val -ELBO: 44.43239:  53%|█████▎    | 319/600 [03:19<02:54,  1.61it/s]Train -ELBO: 44.73861, Val -ELBO: 44.56119:  54%|█████▎    | 321/600 [03:21<02:55,  1.59it/s]Train -ELBO: 44.83445, Val -ELBO: 44.54358:  54%|█████▍    | 323/600 [03:22<02:53,  1.60it/s]Train -ELBO: 44.03849, Val -ELBO: 43.88282:  54%|█████▍    | 325/600 [03:23<02:51,  1.60it/s]Train -ELBO: 44.26337, Val -ELBO: 44.21490:  55%|█████▍    | 327/600 [03:24<02:49,  1.61it/s]Train -ELBO: 44.27623, Val -ELBO: 44.64812:  55%|█████▍    | 329/600 [03:26<02:48,  1.61it/s]Train -ELBO: 44.24122, Val -ELBO: 44.03531:  55%|█████▌    | 331/600 [03:27<02:48,  1.60it/s]Train -ELBO: 44.84987, Val -ELBO: 44.17951:  56%|█████▌    | 333/600 [03:28<02:47,  1.59it/s]Train -ELBO: 44.14168, Val -ELBO: 43.93253:  56%|█████▌    | 335/600 [03:29<02:45,  1.60it/s]Train -ELBO: 44.57986, Val -ELBO: 44.48851:  56%|█████▌    | 337/600 [03:31<02:44,  1.60it/s]Train -ELBO: 44.43355, Val -ELBO: 44.15386:  56%|█████▋    | 339/600 [03:32<02:42,  1.61it/s]Train -ELBO: 44.44705, Val -ELBO: 44.01451:  57%|█████▋    | 341/600 [03:33<02:43,  1.59it/s]Train -ELBO: 45.46339, Val -ELBO: 44.39169:  57%|█████▋    | 343/600 [03:34<02:41,  1.60it/s]Train -ELBO: 45.17839, Val -ELBO: 44.95592:  57%|█████▊    | 345/600 [03:36<02:39,  1.60it/s]Epoch   346: reducing learning rate of group 0 to 1.0000e-03.
Train -ELBO: 44.03822, Val -ELBO: 44.14378:  58%|█████▊    | 347/600 [03:37<02:37,  1.60it/s]Train -ELBO: 42.98870, Val -ELBO: 43.05792:  58%|█████▊    | 349/600 [03:38<02:36,  1.61it/s]Train -ELBO: 43.46868, Val -ELBO: 43.22071:  58%|█████▊    | 351/600 [03:39<02:35,  1.60it/s]Train -ELBO: 42.81926, Val -ELBO: 43.16303:  59%|█████▉    | 353/600 [03:41<02:35,  1.59it/s]Train -ELBO: 43.18316, Val -ELBO: 43.17105:  59%|█████▉    | 355/600 [03:42<02:33,  1.60it/s]Train -ELBO: 42.89347, Val -ELBO: 43.13790:  60%|█████▉    | 357/600 [03:43<02:31,  1.60it/s]Train -ELBO: 42.93576, Val -ELBO: 42.89743:  60%|█████▉    | 359/600 [03:44<02:29,  1.61it/s]Train -ELBO: 42.89839, Val -ELBO: 42.95199:  60%|██████    | 361/600 [03:46<02:29,  1.60it/s]Train -ELBO: 42.86876, Val -ELBO: 42.92928:  60%|██████    | 363/600 [03:47<02:28,  1.60it/s]Train -ELBO: 42.89407, Val -ELBO: 42.93156:  61%|██████    | 365/600 [03:48<02:26,  1.60it/s]Train -ELBO: 42.61644, Val -ELBO: 42.92058:  61%|██████    | 367/600 [03:49<02:25,  1.61it/s]Train -ELBO: 42.90578, Val -ELBO: 42.85898:  62%|██████▏   | 369/600 [03:51<02:23,  1.61it/s]Train -ELBO: 42.63617, Val -ELBO: 42.80097:  62%|██████▏   | 371/600 [03:52<02:23,  1.59it/s]Train -ELBO: 42.67092, Val -ELBO: 42.83819:  62%|██████▏   | 373/600 [03:53<02:22,  1.60it/s]Train -ELBO: 42.50746, Val -ELBO: 42.71913:  62%|██████▎   | 375/600 [03:54<02:20,  1.60it/s]Train -ELBO: 42.50073, Val -ELBO: 42.71854:  63%|██████▎   | 377/600 [03:56<02:18,  1.61it/s]Train -ELBO: 42.70872, Val -ELBO: 42.67734:  63%|██████▎   | 379/600 [03:57<02:17,  1.61it/s]Train -ELBO: 42.46018, Val -ELBO: 42.76365:  64%|██████▎   | 381/600 [03:58<02:16,  1.60it/s]Train -ELBO: 42.49641, Val -ELBO: 42.75350:  64%|██████▍   | 383/600 [03:59<02:15,  1.60it/s]Train -ELBO: 42.53547, Val -ELBO: 42.69577:  64%|██████▍   | 385/600 [04:01<02:14,  1.60it/s]Train -ELBO: 42.43320, Val -ELBO: 42.70119:  64%|██████▍   | 387/600 [04:02<02:12,  1.61it/s]Train -ELBO: 42.46778, Val -ELBO: 42.69453:  65%|██████▍   | 389/600 [04:03<02:11,  1.61it/s]Train -ELBO: 42.46825, Val -ELBO: 42.69136:  65%|██████▌   | 391/600 [04:04<02:10,  1.60it/s]Train -ELBO: 42.56751, Val -ELBO: 42.65177:  66%|██████▌   | 393/600 [04:06<02:09,  1.60it/s]Train -ELBO: 42.39704, Val -ELBO: 42.61345:  66%|██████▌   | 395/600 [04:07<02:07,  1.60it/s]Train -ELBO: 42.57089, Val -ELBO: 42.62151:  66%|██████▌   | 397/600 [04:08<02:06,  1.61it/s]Train -ELBO: 42.44884, Val -ELBO: 42.57460:  66%|██████▋   | 399/600 [04:09<02:04,  1.61it/s]Train -ELBO: 42.48735, Val -ELBO: 42.63253:  67%|██████▋   | 401/600 [04:11<02:05,  1.59it/s]Train -ELBO: 42.64484, Val -ELBO: 42.70630:  67%|██████▋   | 403/600 [04:12<02:03,  1.60it/s]Train -ELBO: 42.30645, Val -ELBO: 42.70776:  68%|██████▊   | 405/600 [04:13<02:01,  1.60it/s]Train -ELBO: 42.51111, Val -ELBO: 42.68789:  68%|██████▊   | 407/600 [04:14<02:00,  1.61it/s]Train -ELBO: 42.49795, Val -ELBO: 42.65165:  68%|██████▊   | 409/600 [04:15<01:58,  1.61it/s]Train -ELBO: 42.60684, Val -ELBO: 42.61817:  68%|██████▊   | 411/600 [04:17<01:58,  1.60it/s]Train -ELBO: 42.50156, Val -ELBO: 42.70554:  69%|██████▉   | 413/600 [04:18<01:57,  1.59it/s]Train -ELBO: 42.36267, Val -ELBO: 42.56752:  69%|██████▉   | 415/600 [04:19<01:55,  1.60it/s]Train -ELBO: 42.46114, Val -ELBO: 42.59485:  70%|██████▉   | 417/600 [04:20<01:54,  1.60it/s]Train -ELBO: 42.53677, Val -ELBO: 42.65340:  70%|██████▉   | 419/600 [04:22<01:52,  1.61it/s]Train -ELBO: 42.58510, Val -ELBO: 42.64294:  70%|███████   | 421/600 [04:23<01:52,  1.59it/s]Train -ELBO: 42.47326, Val -ELBO: 42.61166:  70%|███████   | 423/600 [04:24<01:50,  1.60it/s]Train -ELBO: 42.27536, Val -ELBO: 42.65631:  71%|███████   | 425/600 [04:25<01:49,  1.60it/s]Train -ELBO: 42.56138, Val -ELBO: 42.55571:  71%|███████   | 427/600 [04:27<01:47,  1.61it/s]Train -ELBO: 42.57068, Val -ELBO: 42.63587:  72%|███████▏  | 429/600 [04:28<01:46,  1.61it/s]Train -ELBO: 42.32406, Val -ELBO: 42.68015:  72%|███████▏  | 431/600 [04:29<01:45,  1.60it/s]Train -ELBO: 42.43419, Val -ELBO: 42.59735:  72%|███████▏  | 433/600 [04:30<01:44,  1.60it/s]Train -ELBO: 42.39159, Val -ELBO: 42.52744:  72%|███████▎  | 435/600 [04:32<01:43,  1.60it/s]Train -ELBO: 42.44290, Val -ELBO: 42.52860:  73%|███████▎  | 437/600 [04:33<01:41,  1.61it/s]Train -ELBO: 42.33649, Val -ELBO: 42.56623:  73%|███████▎  | 439/600 [04:34<01:40,  1.61it/s]Train -ELBO: 42.45305, Val -ELBO: 42.48924:  74%|███████▎  | 441/600 [04:35<01:39,  1.60it/s]Train -ELBO: 42.47505, Val -ELBO: 42.52065:  74%|███████▍  | 443/600 [04:37<01:38,  1.60it/s]Train -ELBO: 42.49299, Val -ELBO: 42.60870:  74%|███████▍  | 445/600 [04:38<01:36,  1.60it/s]Train -ELBO: 42.33687, Val -ELBO: 42.52232:  74%|███████▍  | 447/600 [04:39<01:35,  1.61it/s]Train -ELBO: 42.16216, Val -ELBO: 42.45576:  75%|███████▍  | 449/600 [04:40<01:33,  1.61it/s]Train -ELBO: 42.31332, Val -ELBO: 42.58392:  75%|███████▌  | 451/600 [04:42<01:33,  1.59it/s]Train -ELBO: 42.52444, Val -ELBO: 42.56666:  76%|███████▌  | 453/600 [04:43<01:32,  1.60it/s]Train -ELBO: 42.21822, Val -ELBO: 42.64312:  76%|███████▌  | 455/600 [04:44<01:30,  1.60it/s]Train -ELBO: 42.46894, Val -ELBO: 42.56086:  76%|███████▌  | 457/600 [04:45<01:29,  1.61it/s]Train -ELBO: 42.31079, Val -ELBO: 42.47438:  76%|███████▋  | 459/600 [04:47<01:27,  1.61it/s]Train -ELBO: 42.22712, Val -ELBO: 42.53913:  77%|███████▋  | 461/600 [04:48<01:26,  1.60it/s]Train -ELBO: 42.53554, Val -ELBO: 42.53038:  77%|███████▋  | 463/600 [04:49<01:26,  1.58it/s]Train -ELBO: 42.33199, Val -ELBO: 42.50139:  78%|███████▊  | 465/600 [04:50<01:24,  1.59it/s]Train -ELBO: 42.31292, Val -ELBO: 42.48904:  78%|███████▊  | 467/600 [04:52<01:23,  1.60it/s]Train -ELBO: 42.35845, Val -ELBO: 42.48598:  78%|███████▊  | 469/600 [04:53<01:21,  1.60it/s]Epoch   470: reducing learning rate of group 0 to 1.0000e-04.
Train -ELBO: 42.34837, Val -ELBO: 42.54240:  78%|███████▊  | 471/600 [04:54<01:21,  1.59it/s]Train -ELBO: 42.32734, Val -ELBO: 42.49730:  79%|███████▉  | 473/600 [04:56<01:20,  1.59it/s]Train -ELBO: 42.22625, Val -ELBO: 42.48486:  79%|███████▉  | 475/600 [04:57<01:18,  1.60it/s]Train -ELBO: 42.34077, Val -ELBO: 42.41530:  80%|███████▉  | 477/600 [04:58<01:16,  1.60it/s]Train -ELBO: 42.23273, Val -ELBO: 42.38534:  80%|███████▉  | 479/600 [04:59<01:15,  1.60it/s]Train -ELBO: 42.31384, Val -ELBO: 42.41619:  80%|████████  | 481/600 [05:01<01:14,  1.59it/s]Train -ELBO: 42.23428, Val -ELBO: 42.41001:  80%|████████  | 483/600 [05:02<01:13,  1.60it/s]Train -ELBO: 42.09694, Val -ELBO: 42.40997:  81%|████████  | 485/600 [05:03<01:11,  1.60it/s]Train -ELBO: 42.26878, Val -ELBO: 42.44613:  81%|████████  | 487/600 [05:04<01:10,  1.61it/s]Train -ELBO: 42.14661, Val -ELBO: 42.37419:  82%|████████▏ | 489/600 [05:05<01:09,  1.61it/s]Train -ELBO: 42.26333, Val -ELBO: 42.35578:  82%|████████▏ | 491/600 [05:07<01:08,  1.60it/s]Train -ELBO: 42.16599, Val -ELBO: 42.39651:  82%|████████▏ | 493/600 [05:08<01:07,  1.59it/s]Train -ELBO: 41.99028, Val -ELBO: 42.38503:  82%|████████▎ | 495/600 [05:09<01:05,  1.60it/s]Train -ELBO: 42.18451, Val -ELBO: 42.43086:  83%|████████▎ | 497/600 [05:10<01:04,  1.61it/s]Train -ELBO: 42.06662, Val -ELBO: 42.45598:  83%|████████▎ | 499/600 [05:12<01:02,  1.61it/s]Train -ELBO: 42.23336, Val -ELBO: 42.38328:  84%|████████▎ | 501/600 [05:13<01:02,  1.59it/s]Train -ELBO: 42.21243, Val -ELBO: 42.39113:  84%|████████▍ | 503/600 [05:14<01:00,  1.60it/s]Train -ELBO: 42.08821, Val -ELBO: 42.38405:  84%|████████▍ | 505/600 [05:15<00:59,  1.60it/s]Train -ELBO: 42.22612, Val -ELBO: 42.38959:  84%|████████▍ | 507/600 [05:17<00:57,  1.61it/s]Train -ELBO: 42.08340, Val -ELBO: 42.37299:  85%|████████▍ | 509/600 [05:18<00:56,  1.61it/s]Train -ELBO: 42.28929, Val -ELBO: 42.41170:  85%|████████▌ | 511/600 [05:19<00:55,  1.60it/s]Train -ELBO: 42.05853, Val -ELBO: 42.41829:  86%|████████▌ | 513/600 [05:20<00:54,  1.60it/s]Train -ELBO: 42.05601, Val -ELBO: 42.42395:  86%|████████▌ | 515/600 [05:22<00:53,  1.60it/s]Train -ELBO: 42.24877, Val -ELBO: 42.34370:  86%|████████▌ | 517/600 [05:23<00:51,  1.61it/s]Train -ELBO: 42.14898, Val -ELBO: 42.33138:  86%|████████▋ | 519/600 [05:24<00:50,  1.61it/s]Train -ELBO: 42.10295, Val -ELBO: 42.38609:  87%|████████▋ | 521/600 [05:25<00:49,  1.60it/s]Train -ELBO: 42.39965, Val -ELBO: 42.32798:  87%|████████▋ | 523/600 [05:27<00:48,  1.59it/s]Train -ELBO: 42.14895, Val -ELBO: 42.37692:  88%|████████▊ | 525/600 [05:28<00:46,  1.60it/s]Train -ELBO: 42.14159, Val -ELBO: 42.40080:  88%|████████▊ | 527/600 [05:29<00:45,  1.60it/s]Train -ELBO: 41.96141, Val -ELBO: 42.33632:  88%|████████▊ | 529/600 [05:30<00:44,  1.61it/s]Train -ELBO: 42.11786, Val -ELBO: 42.30188:  88%|████████▊ | 531/600 [05:32<00:43,  1.59it/s]Train -ELBO: 42.17477, Val -ELBO: 42.32274:  89%|████████▉ | 533/600 [05:33<00:41,  1.60it/s]Train -ELBO: 42.22710, Val -ELBO: 42.36200:  89%|████████▉ | 535/600 [05:34<00:40,  1.60it/s]Train -ELBO: 42.14796, Val -ELBO: 42.34096:  90%|████████▉ | 537/600 [05:35<00:39,  1.61it/s]Train -ELBO: 42.19113, Val -ELBO: 42.38542:  90%|████████▉ | 539/600 [05:37<00:37,  1.61it/s]Train -ELBO: 41.97558, Val -ELBO: 42.38740:  90%|█████████ | 541/600 [05:38<00:36,  1.60it/s]Train -ELBO: 42.12520, Val -ELBO: 42.39460:  90%|█████████ | 543/600 [05:39<00:35,  1.59it/s]Train -ELBO: 42.13363, Val -ELBO: 42.35641:  91%|█████████ | 545/600 [05:40<00:34,  1.60it/s]Epoch   547: reducing learning rate of group 0 to 1.0000e-05.
Train -ELBO: 42.23422, Val -ELBO: 42.33828:  91%|█████████ | 547/600 [05:42<00:33,  1.60it/s]Train -ELBO: 42.05806, Val -ELBO: 42.31838:  92%|█████████▏| 549/600 [05:43<00:31,  1.61it/s]Train -ELBO: 42.09987, Val -ELBO: 42.33926:  92%|█████████▏| 551/600 [05:44<00:30,  1.60it/s]Train -ELBO: 42.12616, Val -ELBO: 42.36775:  92%|█████████▏| 553/600 [05:45<00:29,  1.60it/s]Train -ELBO: 42.18816, Val -ELBO: 42.37975:  92%|█████████▎| 555/600 [05:47<00:28,  1.60it/s]Train -ELBO: 42.01587, Val -ELBO: 42.39549:  93%|█████████▎| 557/600 [05:48<00:26,  1.60it/s]Train -ELBO: 42.08677, Val -ELBO: 42.38767:  93%|█████████▎| 559/600 [05:49<00:25,  1.61it/s]Train -ELBO: 41.98767, Val -ELBO: 42.36274:  94%|█████████▎| 561/600 [05:50<00:24,  1.59it/s]Train -ELBO: 42.16443, Val -ELBO: 42.36576:  94%|█████████▍| 563/600 [05:52<00:23,  1.60it/s]Train -ELBO: 42.17445, Val -ELBO: 42.39511:  94%|█████████▍| 565/600 [05:53<00:21,  1.60it/s]Train -ELBO: 41.96683, Val -ELBO: 42.39776:  94%|█████████▍| 567/600 [05:54<00:20,  1.61it/s]Epoch   568: reducing learning rate of group 0 to 1.0000e-06.
Train -ELBO: 42.24234, Val -ELBO: 42.39026:  95%|█████████▍| 569/600 [05:55<00:19,  1.60it/s]Train -ELBO: 42.27228, Val -ELBO: 42.40699:  95%|█████████▌| 571/600 [05:57<00:18,  1.60it/s]Train -ELBO: 42.13239, Val -ELBO: 42.38064:  96%|█████████▌| 573/600 [05:58<00:16,  1.59it/s]Train -ELBO: 42.26687, Val -ELBO: 42.38173:  96%|█████████▌| 575/600 [05:59<00:15,  1.60it/s]Train -ELBO: 42.13444, Val -ELBO: 42.39714:  96%|█████████▌| 577/600 [06:00<00:14,  1.60it/s]Train -ELBO: 42.45861, Val -ELBO: 42.36456:  96%|█████████▋| 579/600 [06:02<00:13,  1.61it/s]Train -ELBO: 42.22254, Val -ELBO: 42.37820:  97%|█████████▋| 581/600 [06:03<00:11,  1.59it/s]Train -ELBO: 42.11088, Val -ELBO: 42.34396:  97%|█████████▋| 583/600 [06:04<00:10,  1.60it/s]Train -ELBO: 42.03360, Val -ELBO: 42.37421:  98%|█████████▊| 585/600 [06:05<00:09,  1.60it/s]Train -ELBO: 42.10933, Val -ELBO: 42.36390:  98%|█████████▊| 587/600 [06:07<00:08,  1.61it/s]Train -ELBO: 42.16595, Val -ELBO: 42.37105:  98%|█████████▊| 589/600 [06:08<00:06,  1.61it/s]Train -ELBO: 42.30131, Val -ELBO: 42.35875:  98%|█████████▊| 591/600 [06:09<00:05,  1.60it/s]Train -ELBO: 42.19726, Val -ELBO: 42.36495:  99%|█████████▉| 593/600 [06:10<00:04,  1.60it/s]Train -ELBO: 42.29082, Val -ELBO: 42.36262:  99%|█████████▉| 595/600 [06:12<00:03,  1.60it/s]Train -ELBO: 42.33017, Val -ELBO: 42.40052: 100%|█████████▉| 597/600 [06:13<00:01,  1.61it/s]Train -ELBO: 42.15919, Val -ELBO: 42.33482: 100%|█████████▉| 599/600 [06:14<00:00,  1.61it/s]Train -ELBO: 42.24499, Val -ELBO: 42.37628: 100%|██████████| 600/600 [06:15<00:00,  1.60it/s]
INFO - siren_vae - Completed after 0:06:17
