{
  "test": {
    "steps": [
      0
    ],
    "timestamps": [
      "2022-08-08T18:00:14.228218"
    ],
    "values": [
      11.581601371956483
    ]
  },
  "train": {
    "steps": [
      0,
      1,
      2,
      3,
      4,
      5,
      6,
      7,
      8,
      9,
      10,
      11,
      12,
      13,
      14,
      15,
      16,
      17,
      18,
      19,
      20,
      21,
      22,
      23,
      24,
      25,
      26,
      27,
      28,
      29,
      30,
      31,
      32,
      33,
      34,
      35,
      36,
      37,
      38,
      39,
      40,
      41,
      42,
      43,
      44,
      45,
      46,
      47,
      48,
      49,
      50,
      51,
      52,
      53,
      54,
      55,
      56,
      57,
      58,
      59,
      60,
      61,
      62,
      63,
      64,
      65,
      66,
      67,
      68,
      69,
      70,
      71,
      72,
      73,
      74,
      75,
      76,
      77,
      78,
      79,
      80,
      81,
      82,
      83,
      84,
      85,
      86,
      87,
      88,
      89,
      90,
      91,
      92,
      93,
      94,
      95,
      96,
      97,
      98,
      99,
      100,
      101,
      102,
      103,
      104,
      105,
      106,
      107,
      108,
      109,
      110,
      111,
      112,
      113,
      114,
      115,
      116,
      117,
      118,
      119,
      120,
      121,
      122,
      123,
      124,
      125,
      126,
      127,
      128,
      129,
      130,
      131,
      132,
      133,
      134,
      135,
      136,
      137,
      138,
      139,
      140,
      141,
      142,
      143,
      144,
      145,
      146,
      147,
      148,
      149,
      150,
      151,
      152,
      153,
      154,
      155,
      156,
      157,
      158,
      159,
      160,
      161,
      162,
      163,
      164,
      165,
      166,
      167,
      168,
      169,
      170,
      171,
      172,
      173,
      174,
      175,
      176,
      177,
      178,
      179,
      180,
      181,
      182,
      183,
      184,
      185,
      186,
      187,
      188,
      189,
      190,
      191,
      192,
      193,
      194,
      195,
      196,
      197,
      198,
      199,
      200,
      201,
      202,
      203,
      204,
      205,
      206,
      207,
      208,
      209,
      210,
      211,
      212,
      213,
      214,
      215,
      216,
      217,
      218,
      219,
      220,
      221,
      222,
      223,
      224,
      225,
      226,
      227,
      228,
      229,
      230,
      231,
      232,
      233,
      234,
      235,
      236,
      237,
      238,
      239,
      240,
      241,
      242,
      243,
      244,
      245,
      246,
      247,
      248,
      249,
      250,
      251,
      252,
      253,
      254,
      255,
      256,
      257,
      258,
      259,
      260,
      261,
      262,
      263,
      264,
      265,
      266,
      267,
      268,
      269,
      270,
      271,
      272,
      273,
      274,
      275,
      276,
      277,
      278,
      279,
      280,
      281,
      282,
      283,
      284,
      285,
      286,
      287,
      288,
      289,
      290,
      291,
      292,
      293,
      294,
      295,
      296,
      297,
      298,
      299
    ],
    "timestamps": [
      "2022-08-08T17:56:42.470275",
      "2022-08-08T17:56:43.141641",
      "2022-08-08T17:56:43.920539",
      "2022-08-08T17:56:44.757236",
      "2022-08-08T17:56:45.370695",
      "2022-08-08T17:56:45.975126",
      "2022-08-08T17:56:46.585712",
      "2022-08-08T17:56:47.205139",
      "2022-08-08T17:56:47.877097",
      "2022-08-08T17:56:48.545582",
      "2022-08-08T17:56:49.236741",
      "2022-08-08T17:56:49.947650",
      "2022-08-08T17:56:50.673545",
      "2022-08-08T17:56:51.398130",
      "2022-08-08T17:56:52.156994",
      "2022-08-08T17:56:52.825947",
      "2022-08-08T17:56:53.495925",
      "2022-08-08T17:56:54.163538",
      "2022-08-08T17:56:54.843221",
      "2022-08-08T17:56:55.567564",
      "2022-08-08T17:56:56.291257",
      "2022-08-08T17:56:57.035515",
      "2022-08-08T17:56:57.721909",
      "2022-08-08T17:56:58.382509",
      "2022-08-08T17:56:59.044359",
      "2022-08-08T17:56:59.709608",
      "2022-08-08T17:57:00.424422",
      "2022-08-08T17:57:01.140635",
      "2022-08-08T17:57:01.882014",
      "2022-08-08T17:57:02.573661",
      "2022-08-08T17:57:03.250231",
      "2022-08-08T17:57:03.915401",
      "2022-08-08T17:57:04.586186",
      "2022-08-08T17:57:05.248648",
      "2022-08-08T17:57:05.993513",
      "2022-08-08T17:57:06.710975",
      "2022-08-08T17:57:07.449080",
      "2022-08-08T17:57:08.138145",
      "2022-08-08T17:57:08.802985",
      "2022-08-08T17:57:09.473571",
      "2022-08-08T17:57:10.140263",
      "2022-08-08T17:57:10.830352",
      "2022-08-08T17:57:11.599628",
      "2022-08-08T17:57:12.330891",
      "2022-08-08T17:57:13.016073",
      "2022-08-08T17:57:13.673748",
      "2022-08-08T17:57:14.338160",
      "2022-08-08T17:57:14.998152",
      "2022-08-08T17:57:15.662718",
      "2022-08-08T17:57:16.373179",
      "2022-08-08T17:57:17.089518",
      "2022-08-08T17:57:17.801303",
      "2022-08-08T17:57:18.551265",
      "2022-08-08T17:57:19.216479",
      "2022-08-08T17:57:19.879801",
      "2022-08-08T17:57:20.528783",
      "2022-08-08T17:57:21.191299",
      "2022-08-08T17:57:21.949701",
      "2022-08-08T17:57:22.874986",
      "2022-08-08T17:57:23.605052",
      "2022-08-08T17:57:24.287873",
      "2022-08-08T17:57:24.935849",
      "2022-08-08T17:57:25.590617",
      "2022-08-08T17:57:26.244549",
      "2022-08-08T17:57:26.944203",
      "2022-08-08T17:57:27.659030",
      "2022-08-08T17:57:28.391989",
      "2022-08-08T17:57:29.107638",
      "2022-08-08T17:57:29.780856",
      "2022-08-08T17:57:30.445149",
      "2022-08-08T17:57:31.116235",
      "2022-08-08T17:57:31.878052",
      "2022-08-08T17:57:32.796497",
      "2022-08-08T17:57:33.678744",
      "2022-08-08T17:57:34.354466",
      "2022-08-08T17:57:35.023756",
      "2022-08-08T17:57:35.693009",
      "2022-08-08T17:57:36.364006",
      "2022-08-08T17:57:37.057610",
      "2022-08-08T17:57:37.813514",
      "2022-08-08T17:57:38.544195",
      "2022-08-08T17:57:39.297987",
      "2022-08-08T17:57:39.969727",
      "2022-08-08T17:57:40.641188",
      "2022-08-08T17:57:41.312085",
      "2022-08-08T17:57:41.986199",
      "2022-08-08T17:57:42.699706",
      "2022-08-08T17:57:43.415187",
      "2022-08-08T17:57:44.180151",
      "2022-08-08T17:57:44.866897",
      "2022-08-08T17:57:45.550864",
      "2022-08-08T17:57:46.219721",
      "2022-08-08T17:57:46.891285",
      "2022-08-08T17:57:47.650287",
      "2022-08-08T17:57:48.701897",
      "2022-08-08T17:57:49.581224",
      "2022-08-08T17:57:50.264781",
      "2022-08-08T17:57:50.924697",
      "2022-08-08T17:57:51.583817",
      "2022-08-08T17:57:52.245853",
      "2022-08-08T17:57:52.914737",
      "2022-08-08T17:57:53.622533",
      "2022-08-08T17:57:54.346944",
      "2022-08-08T17:57:55.056061",
      "2022-08-08T17:57:55.812424",
      "2022-08-08T17:57:56.472266",
      "2022-08-08T17:57:57.133011",
      "2022-08-08T17:57:57.792898",
      "2022-08-08T17:57:58.485205",
      "2022-08-08T17:57:59.143598",
      "2022-08-08T17:57:59.815483",
      "2022-08-08T17:58:00.598966",
      "2022-08-08T17:58:01.316489",
      "2022-08-08T17:58:02.030621",
      "2022-08-08T17:58:02.770798",
      "2022-08-08T17:58:03.436554",
      "2022-08-08T17:58:04.114261",
      "2022-08-08T17:58:04.780157",
      "2022-08-08T17:58:05.446318",
      "2022-08-08T17:58:06.171840",
      "2022-08-08T17:58:06.894619",
      "2022-08-08T17:58:07.638520",
      "2022-08-08T17:58:08.316393",
      "2022-08-08T17:58:08.976225",
      "2022-08-08T17:58:09.649340",
      "2022-08-08T17:58:10.310104",
      "2022-08-08T17:58:11.066591",
      "2022-08-08T17:58:12.135674",
      "2022-08-08T17:58:13.194362",
      "2022-08-08T17:58:13.910388",
      "2022-08-08T17:58:14.586175",
      "2022-08-08T17:58:15.251213",
      "2022-08-08T17:58:15.917197",
      "2022-08-08T17:58:16.623756",
      "2022-08-08T17:58:17.327695",
      "2022-08-08T17:58:18.041073",
      "2022-08-08T17:58:18.711860",
      "2022-08-08T17:58:19.387530",
      "2022-08-08T17:58:20.052657",
      "2022-08-08T17:58:20.709694",
      "2022-08-08T17:58:21.379419",
      "2022-08-08T17:58:22.074256",
      "2022-08-08T17:58:22.795139",
      "2022-08-08T17:58:23.506232",
      "2022-08-08T17:58:24.261335",
      "2022-08-08T17:58:25.063524",
      "2022-08-08T17:58:25.726044",
      "2022-08-08T17:58:26.384555",
      "2022-08-08T17:58:27.052375",
      "2022-08-08T17:58:27.710330",
      "2022-08-08T17:58:28.375941",
      "2022-08-08T17:58:29.084756",
      "2022-08-08T17:58:29.806876",
      "2022-08-08T17:58:30.518068",
      "2022-08-08T17:58:31.268340",
      "2022-08-08T17:58:31.952604",
      "2022-08-08T17:58:32.633258",
      "2022-08-08T17:58:33.292202",
      "2022-08-08T17:58:33.954821",
      "2022-08-08T17:58:34.678254",
      "2022-08-08T17:58:35.403283",
      "2022-08-08T17:58:36.134923",
      "2022-08-08T17:58:36.797887",
      "2022-08-08T17:58:37.463276",
      "2022-08-08T17:58:38.130335",
      "2022-08-08T17:58:38.794301",
      "2022-08-08T17:58:39.479244",
      "2022-08-08T17:58:40.194835",
      "2022-08-08T17:58:40.907458",
      "2022-08-08T17:58:41.669058",
      "2022-08-08T17:58:42.348105",
      "2022-08-08T17:58:43.005061",
      "2022-08-08T17:58:43.656355",
      "2022-08-08T17:58:44.310352",
      "2022-08-08T17:58:45.159663",
      "2022-08-08T17:58:46.137315",
      "2022-08-08T17:58:46.931959",
      "2022-08-08T17:58:47.603338",
      "2022-08-08T17:58:48.263147",
      "2022-08-08T17:58:48.922677",
      "2022-08-08T17:58:49.591183",
      "2022-08-08T17:58:50.341250",
      "2022-08-08T17:58:51.386727",
      "2022-08-08T17:58:52.292162",
      "2022-08-08T17:58:52.956366",
      "2022-08-08T17:58:53.614122",
      "2022-08-08T17:58:54.300307",
      "2022-08-08T17:58:54.961956",
      "2022-08-08T17:58:55.683517",
      "2022-08-08T17:58:56.444218",
      "2022-08-08T17:58:57.158660",
      "2022-08-08T17:58:57.890857",
      "2022-08-08T17:58:58.549464",
      "2022-08-08T17:58:59.208423",
      "2022-08-08T17:58:59.865040",
      "2022-08-08T17:59:00.516165",
      "2022-08-08T17:59:01.281408",
      "2022-08-08T17:59:02.024310",
      "2022-08-08T17:59:02.741654",
      "2022-08-08T17:59:03.399037",
      "2022-08-08T17:59:04.064467",
      "2022-08-08T17:59:04.729192",
      "2022-08-08T17:59:05.395695",
      "2022-08-08T17:59:06.084089",
      "2022-08-08T17:59:06.797446",
      "2022-08-08T17:59:07.503627",
      "2022-08-08T17:59:08.253241",
      "2022-08-08T17:59:08.913662",
      "2022-08-08T17:59:09.575194",
      "2022-08-08T17:59:10.232908",
      "2022-08-08T17:59:10.899400",
      "2022-08-08T17:59:11.585912",
      "2022-08-08T17:59:12.317624",
      "2022-08-08T17:59:13.150179",
      "2022-08-08T17:59:13.822542",
      "2022-08-08T17:59:14.491989",
      "2022-08-08T17:59:15.158467",
      "2022-08-08T17:59:15.826271",
      "2022-08-08T17:59:16.494718",
      "2022-08-08T17:59:17.225013",
      "2022-08-08T17:59:17.946426",
      "2022-08-08T17:59:18.712168",
      "2022-08-08T17:59:19.400003",
      "2022-08-08T17:59:20.063550",
      "2022-08-08T17:59:20.738797",
      "2022-08-08T17:59:21.405472",
      "2022-08-08T17:59:22.137868",
      "2022-08-08T17:59:22.853912",
      "2022-08-08T17:59:23.563944",
      "2022-08-08T17:59:24.316040",
      "2022-08-08T17:59:24.988447",
      "2022-08-08T17:59:25.656821",
      "2022-08-08T17:59:26.325748",
      "2022-08-08T17:59:26.987476",
      "2022-08-08T17:59:27.713608",
      "2022-08-08T17:59:28.439725",
      "2022-08-08T17:59:29.208429",
      "2022-08-08T17:59:29.886416",
      "2022-08-08T17:59:30.554863",
      "2022-08-08T17:59:31.222885",
      "2022-08-08T17:59:31.898657",
      "2022-08-08T17:59:32.565683",
      "2022-08-08T17:59:33.273428",
      "2022-08-08T17:59:33.990678",
      "2022-08-08T17:59:34.713421",
      "2022-08-08T17:59:35.465653",
      "2022-08-08T17:59:36.135897",
      "2022-08-08T17:59:36.808485",
      "2022-08-08T17:59:37.482349",
      "2022-08-08T17:59:38.151712",
      "2022-08-08T17:59:38.813715",
      "2022-08-08T17:59:39.557713",
      "2022-08-08T17:59:40.535942",
      "2022-08-08T17:59:41.303836",
      "2022-08-08T17:59:41.977758",
      "2022-08-08T17:59:42.637373",
      "2022-08-08T17:59:43.348197",
      "2022-08-08T17:59:44.008736",
      "2022-08-08T17:59:44.738337",
      "2022-08-08T17:59:45.444680",
      "2022-08-08T17:59:46.197023",
      "2022-08-08T17:59:46.966108",
      "2022-08-08T17:59:47.633843",
      "2022-08-08T17:59:48.289721",
      "2022-08-08T17:59:48.947607",
      "2022-08-08T17:59:49.607412",
      "2022-08-08T17:59:50.538555",
      "2022-08-08T17:59:51.570785",
      "2022-08-08T17:59:52.331621",
      "2022-08-08T17:59:52.997812",
      "2022-08-08T17:59:53.664847",
      "2022-08-08T17:59:54.335285",
      "2022-08-08T17:59:55.116252",
      "2022-08-08T17:59:55.822337",
      "2022-08-08T17:59:56.529023",
      "2022-08-08T17:59:57.227605",
      "2022-08-08T17:59:57.887171",
      "2022-08-08T17:59:58.662168",
      "2022-08-08T17:59:59.406436",
      "2022-08-08T18:00:00.058524",
      "2022-08-08T18:00:00.722952",
      "2022-08-08T18:00:01.466621",
      "2022-08-08T18:00:02.261506",
      "2022-08-08T18:00:02.962227",
      "2022-08-08T18:00:03.701679",
      "2022-08-08T18:00:04.364729",
      "2022-08-08T18:00:05.023149",
      "2022-08-08T18:00:05.708992",
      "2022-08-08T18:00:06.435605",
      "2022-08-08T18:00:07.145796",
      "2022-08-08T18:00:07.862514",
      "2022-08-08T18:00:08.603153",
      "2022-08-08T18:00:09.274629",
      "2022-08-08T18:00:09.931398",
      "2022-08-08T18:00:10.596412",
      "2022-08-08T18:00:11.250395",
      "2022-08-08T18:00:11.942568",
      "2022-08-08T18:00:12.651582",
      "2022-08-08T18:00:13.359644",
      "2022-08-08T18:00:14.103956"
    ],
    "values": [
      12.610063186808084,
      12.050398198968827,
      11.754756885617505,
      11.602445158759272,
      11.455954014958893,
      11.37189701113736,
      11.376738474596959,
      11.327890850379964,
      11.316011365072486,
      11.279987984119863,
      11.26946331386259,
      11.266850163376807,
      11.244734304903318,
      11.257919755913624,
      11.244747709294865,
      11.238820366647216,
      11.228243933065169,
      11.233063168497884,
      11.219435534735403,
      11.239542737855508,
      11.222818231567672,
      11.21272534097115,
      11.221897886794727,
      11.211332989458619,
      11.210156128370851,
      11.213924136129874,
      11.197802589513856,
      11.186427894879175,
      11.192224484392684,
      11.205968039815208,
      11.195952278578453,
      11.184567534711901,
      11.18952328604414,
      11.193845850942175,
      11.186954960421776,
      11.186522136597407,
      11.180298279666383,
      11.170934951549807,
      11.181556122514687,
      11.18041169811031,
      11.187995258657422,
      11.167872398089731,
      11.16977796126156,
      11.181948287419166,
      11.168740782550994,
      11.174582760402446,
      11.186636833054553,
      11.17466091778256,
      11.17020412312172,
      11.179519404939004,
      11.176287034863648,
      11.178132343141975,
      11.1671478981197,
      11.174302190479006,
      11.161918882694755,
      11.188932188170156,
      11.179211427060439,
      11.168558591673765,
      11.158422293983165,
      11.162180063221529,
      11.17158135512759,
      11.164766198836446,
      11.163067591897413,
      11.165137470090889,
      11.16385178371027,
      11.160292993837345,
      11.163288370171578,
      11.156714082907397,
      11.146921132278909,
      11.15829321659656,
      11.155415389322805,
      11.156795666133942,
      11.156437369226225,
      11.153024890226847,
      11.154001356188225,
      11.148356878684979,
      11.160010559506675,
      11.16413534661574,
      11.159944083990256,
      11.143589490667203,
      11.15160651793807,
      11.165193950825586,
      11.144953008726839,
      11.144260214437859,
      11.15898105781091,
      11.15426128726134,
      11.168939509960433,
      11.144741306254625,
      11.162021104058086,
      11.144067800730651,
      11.14822978310169,
      11.146994667114145,
      11.148571097255704,
      11.162669467675348,
      11.145759362830699,
      11.1373842607759,
      11.146565514467172,
      11.160449141739067,
      11.148224321893615,
      11.140785508388971,
      11.14829351750189,
      11.136159009517142,
      11.138914404619351,
      11.155519014396962,
      11.137549046490538,
      11.142438131740684,
      11.134587097466316,
      11.14318435001647,
      11.15384494979753,
      11.141110136270784,
      11.138014301256272,
      11.144842630988347,
      11.14807004490784,
      11.151321737597733,
      11.141283063669697,
      11.131683087732176,
      11.147454889343122,
      11.150613248605605,
      11.137532510321236,
      11.144561006158655,
      11.132080590759612,
      11.148622393859709,
      11.136366712855118,
      11.13302105161241,
      11.138588222471824,
      11.128894382085782,
      11.150637459704365,
      11.143829777084688,
      11.145064626768761,
      11.12832724516195,
      11.126708350436463,
      11.133550525959908,
      11.134614242100513,
      11.126294841295637,
      11.132666153470723,
      11.129398626944539,
      11.128705341365006,
      11.133281544685026,
      11.133704641945362,
      11.135952089423524,
      11.14137196968135,
      11.13614101046111,
      11.142310889787222,
      11.140545097137355,
      11.13570006268391,
      11.120687461642886,
      11.126595924071703,
      11.136619454641885,
      11.133340144784608,
      11.127074947300557,
      11.128659138996097,
      11.126065581260761,
      11.132375091997924,
      11.14906627416356,
      11.13361973320832,
      11.130104690683025,
      11.133968887339911,
      11.134583238282035,
      11.134055461669277,
      11.126576869075704,
      11.127953276171075,
      11.129125029578715,
      11.131823003606577,
      11.137951756461648,
      11.129736333335515,
      11.127223156687249,
      11.131361815758583,
      11.100217649216475,
      11.08609347672965,
      11.083330056640719,
      11.082101988925428,
      11.081289764149155,
      11.080449984502602,
      11.082072467105716,
      11.079322630070026,
      11.080815776076733,
      11.080260004601483,
      11.080778610911969,
      11.080858681548333,
      11.08035660973138,
      11.08017112756405,
      11.080185363154946,
      11.079043689446571,
      11.080753621959825,
      11.080374087633786,
      11.081583156940495,
      11.080504736811319,
      11.079940213031767,
      11.080540769860393,
      11.080462812590856,
      11.082069461232555,
      11.08062001986478,
      11.080003510388476,
      11.079271400353498,
      11.082269727254927,
      11.07956649259965,
      11.076030113303707,
      11.075536028993577,
      11.075230007388466,
      11.074744959312813,
      11.074379242957898,
      11.07431749998668,
      11.074359081854817,
      11.074136477387917,
      11.074176849021688,
      11.074035274860373,
      11.073948617897559,
      11.073953928916684,
      11.073800060353667,
      11.073840790730321,
      11.074038384403341,
      11.073936842907099,
      11.073690194814786,
      11.073633457678786,
      11.073741613901841,
      11.073665585474302,
      11.073564369790105,
      11.073540691118724,
      11.073629903486069,
      11.074170120031626,
      11.073775251120873,
      11.073991916735203,
      11.07370557503009,
      11.073876400575706,
      11.073498148649913,
      11.073542078995292,
      11.07368229405149,
      11.073775489937113,
      11.073547528483319,
      11.073837813145344,
      11.073489228848004,
      11.073470433809153,
      11.073661390241206,
      11.073706294131764,
      11.073681835107037,
      11.07302527549996,
      11.073100547588822,
      11.073104680339913,
      11.073065355391165,
      11.073045659403503,
      11.073009405713389,
      11.07295774850442,
      11.072934042159732,
      11.072938828244496,
      11.07302501859697,
      11.07298933122535,
      11.072996906482794,
      11.072997442564919,
      11.07295400802262,
      11.072950442904812,
      11.072955038682037,
      11.072939223612112,
      11.072920061852942,
      11.072923155388837,
      11.072925506286543,
      11.072903311937614,
      11.072833538212098,
      11.072835995908177,
      11.072835123945236,
      11.072838109300902,
      11.072840834746314,
      11.072843414195711,
      11.072848061358734,
      11.072851231752312,
      11.072856760869424,
      11.072858590046419,
      11.072863005785079,
      11.072865899114746,
      11.072867554264842,
      11.072869647622294,
      11.072868932412316,
      11.072869776531743,
      11.072868474734834,
      11.072866012202432,
      11.072865041485093,
      11.072862593728466,
      11.072859024454019,
      11.072856155548415,
      11.07285114841865,
      11.072852327609892,
      11.072846747547239,
      11.072841619442356,
      11.072839727496401,
      11.07283787119207,
      11.072835028025445,
      11.072830847608692,
      11.072827833408217,
      11.072825047027495,
      11.072825547014823,
      11.07282658342864,
      11.072821760942736,
      11.07281856114092,
      11.07281627030306,
      11.072813616301842,
      11.072812620602827,
      11.072810316087189,
      11.072811305073223,
      11.07280681140992,
      11.072805166099302,
      11.072803548690182
    ]
  },
  "val": {
    "steps": [
      0,
      1,
      2,
      3,
      4,
      5,
      6,
      7,
      8,
      9,
      10,
      11,
      12,
      13,
      14,
      15,
      16,
      17,
      18,
      19,
      20,
      21,
      22,
      23,
      24,
      25,
      26,
      27,
      28,
      29,
      30,
      31,
      32,
      33,
      34,
      35,
      36,
      37,
      38,
      39,
      40,
      41,
      42,
      43,
      44,
      45,
      46,
      47,
      48,
      49,
      50,
      51,
      52,
      53,
      54,
      55,
      56,
      57,
      58,
      59,
      60,
      61,
      62,
      63,
      64,
      65,
      66,
      67,
      68,
      69,
      70,
      71,
      72,
      73,
      74,
      75,
      76,
      77,
      78,
      79,
      80,
      81,
      82,
      83,
      84,
      85,
      86,
      87,
      88,
      89,
      90,
      91,
      92,
      93,
      94,
      95,
      96,
      97,
      98,
      99,
      100,
      101,
      102,
      103,
      104,
      105,
      106,
      107,
      108,
      109,
      110,
      111,
      112,
      113,
      114,
      115,
      116,
      117,
      118,
      119,
      120,
      121,
      122,
      123,
      124,
      125,
      126,
      127,
      128,
      129,
      130,
      131,
      132,
      133,
      134,
      135,
      136,
      137,
      138,
      139,
      140,
      141,
      142,
      143,
      144,
      145,
      146,
      147,
      148,
      149,
      150,
      151,
      152,
      153,
      154,
      155,
      156,
      157,
      158,
      159,
      160,
      161,
      162,
      163,
      164,
      165,
      166,
      167,
      168,
      169,
      170,
      171,
      172,
      173,
      174,
      175,
      176,
      177,
      178,
      179,
      180,
      181,
      182,
      183,
      184,
      185,
      186,
      187,
      188,
      189,
      190,
      191,
      192,
      193,
      194,
      195,
      196,
      197,
      198,
      199,
      200,
      201,
      202,
      203,
      204,
      205,
      206,
      207,
      208,
      209,
      210,
      211,
      212,
      213,
      214,
      215,
      216,
      217,
      218,
      219,
      220,
      221,
      222,
      223,
      224,
      225,
      226,
      227,
      228,
      229,
      230,
      231,
      232,
      233,
      234,
      235,
      236,
      237,
      238,
      239,
      240,
      241,
      242,
      243,
      244,
      245,
      246,
      247,
      248,
      249,
      250,
      251,
      252,
      253,
      254,
      255,
      256,
      257,
      258,
      259,
      260,
      261,
      262,
      263,
      264,
      265,
      266,
      267,
      268,
      269,
      270,
      271,
      272,
      273,
      274,
      275,
      276,
      277,
      278,
      279,
      280,
      281,
      282,
      283,
      284,
      285,
      286,
      287,
      288,
      289,
      290,
      291,
      292,
      293,
      294,
      295,
      296,
      297,
      298,
      299
    ],
    "timestamps": [
      "2022-08-08T17:56:42.500717",
      "2022-08-08T17:56:43.191690",
      "2022-08-08T17:56:43.961128",
      "2022-08-08T17:56:44.789330",
      "2022-08-08T17:56:45.400406",
      "2022-08-08T17:56:46.004937",
      "2022-08-08T17:56:46.615365",
      "2022-08-08T17:56:47.238167",
      "2022-08-08T17:56:47.909268",
      "2022-08-08T17:56:48.578489",
      "2022-08-08T17:56:49.269925",
      "2022-08-08T17:56:49.982685",
      "2022-08-08T17:56:50.709058",
      "2022-08-08T17:56:51.433934",
      "2022-08-08T17:56:52.190037",
      "2022-08-08T17:56:52.858953",
      "2022-08-08T17:56:53.528834",
      "2022-08-08T17:56:54.197509",
      "2022-08-08T17:56:54.875873",
      "2022-08-08T17:56:55.602195",
      "2022-08-08T17:56:56.326500",
      "2022-08-08T17:56:57.070255",
      "2022-08-08T17:56:57.754442",
      "2022-08-08T17:56:58.414585",
      "2022-08-08T17:56:59.077092",
      "2022-08-08T17:56:59.742099",
      "2022-08-08T17:57:00.458339",
      "2022-08-08T17:57:01.174726",
      "2022-08-08T17:57:01.918114",
      "2022-08-08T17:57:02.606541",
      "2022-08-08T17:57:03.283125",
      "2022-08-08T17:57:03.947887",
      "2022-08-08T17:57:04.618866",
      "2022-08-08T17:57:05.281598",
      "2022-08-08T17:57:06.028922",
      "2022-08-08T17:57:06.745622",
      "2022-08-08T17:57:07.497810",
      "2022-08-08T17:57:08.170448",
      "2022-08-08T17:57:08.835670",
      "2022-08-08T17:57:09.506206",
      "2022-08-08T17:57:10.172458",
      "2022-08-08T17:57:10.872371",
      "2022-08-08T17:57:11.634327",
      "2022-08-08T17:57:12.369364",
      "2022-08-08T17:57:13.048628",
      "2022-08-08T17:57:13.706299",
      "2022-08-08T17:57:14.370471",
      "2022-08-08T17:57:15.031096",
      "2022-08-08T17:57:15.695668",
      "2022-08-08T17:57:16.408023",
      "2022-08-08T17:57:17.124306",
      "2022-08-08T17:57:17.836217",
      "2022-08-08T17:57:18.584001",
      "2022-08-08T17:57:19.249484",
      "2022-08-08T17:57:19.912023",
      "2022-08-08T17:57:20.561027",
      "2022-08-08T17:57:21.233033",
      "2022-08-08T17:57:21.996101",
      "2022-08-08T17:57:22.926894",
      "2022-08-08T17:57:23.637511",
      "2022-08-08T17:57:24.319344",
      "2022-08-08T17:57:24.967528",
      "2022-08-08T17:57:25.622505",
      "2022-08-08T17:57:26.276430",
      "2022-08-08T17:57:26.979816",
      "2022-08-08T17:57:27.693808",
      "2022-08-08T17:57:28.443217",
      "2022-08-08T17:57:29.140430",
      "2022-08-08T17:57:29.813570",
      "2022-08-08T17:57:30.477463",
      "2022-08-08T17:57:31.148792",
      "2022-08-08T17:57:31.923497",
      "2022-08-08T17:57:32.843956",
      "2022-08-08T17:57:33.711248",
      "2022-08-08T17:57:34.387466",
      "2022-08-08T17:57:35.056550",
      "2022-08-08T17:57:35.726226",
      "2022-08-08T17:57:36.396713",
      "2022-08-08T17:57:37.092648",
      "2022-08-08T17:57:37.848355",
      "2022-08-08T17:57:38.579036",
      "2022-08-08T17:57:39.331082",
      "2022-08-08T17:57:40.002268",
      "2022-08-08T17:57:40.674019",
      "2022-08-08T17:57:41.345062",
      "2022-08-08T17:57:42.018132",
      "2022-08-08T17:57:42.734641",
      "2022-08-08T17:57:43.450056",
      "2022-08-08T17:57:44.216638",
      "2022-08-08T17:57:44.899964",
      "2022-08-08T17:57:45.583517",
      "2022-08-08T17:57:46.252326",
      "2022-08-08T17:57:46.925216",
      "2022-08-08T17:57:47.706862",
      "2022-08-08T17:57:48.756225",
      "2022-08-08T17:57:49.615936",
      "2022-08-08T17:57:50.297362",
      "2022-08-08T17:57:50.957126",
      "2022-08-08T17:57:51.616746",
      "2022-08-08T17:57:52.277900",
      "2022-08-08T17:57:52.947333",
      "2022-08-08T17:57:53.658242",
      "2022-08-08T17:57:54.381388",
      "2022-08-08T17:57:55.090716",
      "2022-08-08T17:57:55.845155",
      "2022-08-08T17:57:56.504231",
      "2022-08-08T17:57:57.165356",
      "2022-08-08T17:57:57.826212",
      "2022-08-08T17:57:58.517229",
      "2022-08-08T17:57:59.177706",
      "2022-08-08T17:57:59.859351",
      "2022-08-08T17:58:00.633174",
      "2022-08-08T17:58:01.351279",
      "2022-08-08T17:58:02.065312",
      "2022-08-08T17:58:02.803099",
      "2022-08-08T17:58:03.469223",
      "2022-08-08T17:58:04.146996",
      "2022-08-08T17:58:04.812896",
      "2022-08-08T17:58:05.480674",
      "2022-08-08T17:58:06.206935",
      "2022-08-08T17:58:06.929469",
      "2022-08-08T17:58:07.672291",
      "2022-08-08T17:58:08.348657",
      "2022-08-08T17:58:09.008867",
      "2022-08-08T17:58:09.682036",
      "2022-08-08T17:58:10.342382",
      "2022-08-08T17:58:11.122444",
      "2022-08-08T17:58:12.190034",
      "2022-08-08T17:58:13.248338",
      "2022-08-08T17:58:13.942980",
      "2022-08-08T17:58:14.618488",
      "2022-08-08T17:58:15.283625",
      "2022-08-08T17:58:15.949651",
      "2022-08-08T17:58:16.657735",
      "2022-08-08T17:58:17.361674",
      "2022-08-08T17:58:18.074295",
      "2022-08-08T17:58:18.744168",
      "2022-08-08T17:58:19.419786",
      "2022-08-08T17:58:20.085375",
      "2022-08-08T17:58:20.742019",
      "2022-08-08T17:58:21.411789",
      "2022-08-08T17:58:22.108200",
      "2022-08-08T17:58:22.830165",
      "2022-08-08T17:58:23.541016",
      "2022-08-08T17:58:24.293598",
      "2022-08-08T17:58:25.095623",
      "2022-08-08T17:58:25.758163",
      "2022-08-08T17:58:26.417201",
      "2022-08-08T17:58:27.084763",
      "2022-08-08T17:58:27.742857",
      "2022-08-08T17:58:28.408264",
      "2022-08-08T17:58:29.118767",
      "2022-08-08T17:58:29.841657",
      "2022-08-08T17:58:30.552800",
      "2022-08-08T17:58:31.301149",
      "2022-08-08T17:58:31.985309",
      "2022-08-08T17:58:32.665335",
      "2022-08-08T17:58:33.325042",
      "2022-08-08T17:58:33.987177",
      "2022-08-08T17:58:34.712815",
      "2022-08-08T17:58:35.437437",
      "2022-08-08T17:58:36.168080",
      "2022-08-08T17:58:36.830409",
      "2022-08-08T17:58:37.495947",
      "2022-08-08T17:58:38.162958",
      "2022-08-08T17:58:38.826700",
      "2022-08-08T17:58:39.513084",
      "2022-08-08T17:58:40.229787",
      "2022-08-08T17:58:40.941923",
      "2022-08-08T17:58:41.701849",
      "2022-08-08T17:58:42.381156",
      "2022-08-08T17:58:43.037604",
      "2022-08-08T17:58:43.687932",
      "2022-08-08T17:58:44.342467",
      "2022-08-08T17:58:45.214900",
      "2022-08-08T17:58:46.172497",
      "2022-08-08T17:58:46.975716",
      "2022-08-08T17:58:47.635360",
      "2022-08-08T17:58:48.295548",
      "2022-08-08T17:58:48.954997",
      "2022-08-08T17:58:49.623958",
      "2022-08-08T17:58:50.396783",
      "2022-08-08T17:58:51.431556",
      "2022-08-08T17:58:52.326276",
      "2022-08-08T17:58:52.989188",
      "2022-08-08T17:58:53.646117",
      "2022-08-08T17:58:54.332900",
      "2022-08-08T17:58:54.994166",
      "2022-08-08T17:58:55.717721",
      "2022-08-08T17:58:56.478453",
      "2022-08-08T17:58:57.193507",
      "2022-08-08T17:58:57.923010",
      "2022-08-08T17:58:58.582089",
      "2022-08-08T17:58:59.240778",
      "2022-08-08T17:58:59.897823",
      "2022-08-08T17:59:00.557507",
      "2022-08-08T17:59:01.326219",
      "2022-08-08T17:59:02.059960",
      "2022-08-08T17:59:02.773860",
      "2022-08-08T17:59:03.431874",
      "2022-08-08T17:59:04.097189",
      "2022-08-08T17:59:04.761658",
      "2022-08-08T17:59:05.427970",
      "2022-08-08T17:59:06.119676",
      "2022-08-08T17:59:06.831867",
      "2022-08-08T17:59:07.538280",
      "2022-08-08T17:59:08.286665",
      "2022-08-08T17:59:08.946277",
      "2022-08-08T17:59:09.606865",
      "2022-08-08T17:59:10.265161",
      "2022-08-08T17:59:10.931938",
      "2022-08-08T17:59:11.619877",
      "2022-08-08T17:59:12.351685",
      "2022-08-08T17:59:13.183440",
      "2022-08-08T17:59:13.855581",
      "2022-08-08T17:59:14.524469",
      "2022-08-08T17:59:15.191672",
      "2022-08-08T17:59:15.858938",
      "2022-08-08T17:59:16.527786",
      "2022-08-08T17:59:17.259929",
      "2022-08-08T17:59:17.981342",
      "2022-08-08T17:59:18.746601",
      "2022-08-08T17:59:19.432499",
      "2022-08-08T17:59:20.096541",
      "2022-08-08T17:59:20.771894",
      "2022-08-08T17:59:21.438186",
      "2022-08-08T17:59:22.172850",
      "2022-08-08T17:59:22.888781",
      "2022-08-08T17:59:23.598536",
      "2022-08-08T17:59:24.348603",
      "2022-08-08T17:59:25.021178",
      "2022-08-08T17:59:25.689527",
      "2022-08-08T17:59:26.358702",
      "2022-08-08T17:59:27.028582",
      "2022-08-08T17:59:27.748410",
      "2022-08-08T17:59:28.474417",
      "2022-08-08T17:59:29.243306",
      "2022-08-08T17:59:29.920197",
      "2022-08-08T17:59:30.587892",
      "2022-08-08T17:59:31.255769",
      "2022-08-08T17:59:31.931341",
      "2022-08-08T17:59:32.598472",
      "2022-08-08T17:59:33.308982",
      "2022-08-08T17:59:34.025126",
      "2022-08-08T17:59:34.748600",
      "2022-08-08T17:59:35.498914",
      "2022-08-08T17:59:36.168933",
      "2022-08-08T17:59:36.841307",
      "2022-08-08T17:59:37.515116",
      "2022-08-08T17:59:38.183993",
      "2022-08-08T17:59:38.845545",
      "2022-08-08T17:59:39.614183",
      "2022-08-08T17:59:40.570329",
      "2022-08-08T17:59:41.338258",
      "2022-08-08T17:59:42.009865",
      "2022-08-08T17:59:42.670133",
      "2022-08-08T17:59:43.379643",
      "2022-08-08T17:59:44.052588",
      "2022-08-08T17:59:44.771967",
      "2022-08-08T17:59:45.478903",
      "2022-08-08T17:59:46.242044",
      "2022-08-08T17:59:46.998326",
      "2022-08-08T17:59:47.665886",
      "2022-08-08T17:59:48.321955",
      "2022-08-08T17:59:48.980273",
      "2022-08-08T17:59:49.640093",
      "2022-08-08T17:59:50.593068",
      "2022-08-08T17:59:51.603771",
      "2022-08-08T17:59:52.365144",
      "2022-08-08T17:59:53.030471",
      "2022-08-08T17:59:53.697320",
      "2022-08-08T17:59:54.367988",
      "2022-08-08T17:59:55.150049",
      "2022-08-08T17:59:55.856290",
      "2022-08-08T17:59:56.563378",
      "2022-08-08T17:59:57.260366",
      "2022-08-08T17:59:57.919540",
      "2022-08-08T17:59:58.705559",
      "2022-08-08T17:59:59.438098",
      "2022-08-08T18:00:00.090548",
      "2022-08-08T18:00:00.755121",
      "2022-08-08T18:00:01.511753",
      "2022-08-08T18:00:02.295934",
      "2022-08-08T18:00:02.996520",
      "2022-08-08T18:00:03.733745",
      "2022-08-08T18:00:04.396889",
      "2022-08-08T18:00:05.055301",
      "2022-08-08T18:00:05.741059",
      "2022-08-08T18:00:06.471044",
      "2022-08-08T18:00:07.179937",
      "2022-08-08T18:00:07.897836",
      "2022-08-08T18:00:08.637619",
      "2022-08-08T18:00:09.306844",
      "2022-08-08T18:00:09.963794",
      "2022-08-08T18:00:10.628746",
      "2022-08-08T18:00:11.282560",
      "2022-08-08T18:00:11.977259",
      "2022-08-08T18:00:12.686114",
      "2022-08-08T18:00:13.394086",
      "2022-08-08T18:00:14.137020"
    ],
    "values": [
      12.011007511275439,
      11.655761233042346,
      11.489097649521302,
      11.310430027214315,
      11.26321955002592,
      11.147850401021419,
      11.146477991497523,
      11.170602452263122,
      11.105787495192963,
      11.116015697651541,
      11.165508533138526,
      11.092275901583317,
      11.105468986526546,
      11.117964669047794,
      11.06526503707553,
      11.114945285176416,
      11.0594830359959,
      11.09066867317353,
      11.079267878629903,
      11.088302904877962,
      11.091759343759355,
      11.089714899394814,
      11.091925009419127,
      11.06865049250143,
      11.074706761474802,
      11.046668445887914,
      11.049288722955529,
      11.055217588353454,
      11.0240804186036,
      11.064707952035489,
      11.034589593594344,
      11.030778701161168,
      11.041366947309358,
      11.054848356913359,
      11.040199478270278,
      11.049553496994886,
      11.0411293957624,
      11.052231462542213,
      11.083603445668622,
      11.08615279292657,
      11.045155258149517,
      11.02828651216334,
      11.037920341972164,
      11.060639095769314,
      11.041987002711162,
      11.07550388795979,
      11.02980180880103,
      11.059220411038744,
      11.045627969451115,
      11.054344625780164,
      11.038698919050736,
      11.063098596364052,
      11.010737343914817,
      11.034915111881801,
      11.052492509577243,
      11.092683630338525,
      11.131228570976976,
      11.043251260861442,
      11.048354014525936,
      11.082041674101527,
      11.043689816537954,
      11.018055735816624,
      11.076050551002997,
      11.031436234685085,
      11.03095579537404,
      11.051180602202805,
      11.013651029287406,
      11.027196101123796,
      11.014917384303423,
      11.033847544196401,
      11.057287810071948,
      11.021045042650423,
      11.014640872664355,
      11.031706278950892,
      11.012283689393731,
      11.045405783462481,
      11.03285598689725,
      11.02424058170109,
      11.020219798120332,
      11.02262361880031,
      11.010868343812119,
      11.043268311211886,
      11.012657741483336,
      11.029106191066573,
      11.003272217301017,
      11.016218746957309,
      11.019811790905422,
      11.06359633388185,
      11.012637162261356,
      11.0578089184967,
      11.05706028553614,
      11.036275268830599,
      11.042119840296333,
      11.007955287676486,
      11.040842124748934,
      11.029438925500475,
      11.010945271099718,
      11.016112462192337,
      11.013471127072108,
      11.01096468718423,
      11.016192239598544,
      11.024911337520802,
      11.042686103339559,
      11.022061984429332,
      11.026499272992606,
      11.05489701304096,
      11.009681634647176,
      11.02763358902273,
      11.008829579473977,
      11.026091695046322,
      11.02177334855691,
      11.062839650485692,
      11.009569313623008,
      11.041333056339923,
      11.022259373875265,
      11.010923899137737,
      11.009472783694362,
      11.03393373270481,
      11.044091055170503,
      11.03639858846231,
      11.050998277980309,
      10.991289621265967,
      11.002636017180034,
      11.023551145789973,
      11.023422927510245,
      11.02860862060112,
      11.033663311189045,
      10.996098561622157,
      11.01003105491021,
      11.009557519252926,
      11.00302178692951,
      11.026167615052568,
      11.02523230292677,
      11.012010299260044,
      11.011616565074707,
      11.02620007143382,
      11.00685059869253,
      11.031113843080979,
      11.004217479366456,
      11.050296152556317,
      11.002939056918766,
      10.997737759545192,
      11.01706135372024,
      11.000808064884717,
      10.986885398053458,
      10.996711827370452,
      11.02169966638267,
      11.008446740482151,
      11.000805128695122,
      11.006007808690153,
      11.00724360296525,
      11.00730816336589,
      11.047540374600617,
      11.02386379464599,
      11.0029123642153,
      11.004750012038349,
      10.99512283494065,
      11.033052219326118,
      11.023784381960507,
      11.019295609930733,
      11.017184102232028,
      11.017464225999754,
      11.017160624738818,
      11.01025488321856,
      11.01955151473808,
      11.022258510716778,
      11.006902854443393,
      10.975340308091,
      10.969351778405098,
      10.96930939469961,
      10.97150964656914,
      10.971562623122935,
      10.973347105872678,
      10.97501396257483,
      10.972227216517501,
      10.9732391471131,
      10.97342754994485,
      10.973808116359558,
      10.973542425731136,
      10.974447850419097,
      10.974950050034145,
      10.973027674386932,
      10.973257740814244,
      10.9715470335294,
      10.972748451799415,
      10.971382398215596,
      10.973199985003633,
      10.973031034252948,
      10.972285479327933,
      10.975813343310046,
      10.973326996102672,
      10.973883073861213,
      10.97300559045359,
      10.967658095303992,
      10.973354904968446,
      10.974502110483034,
      10.97252018457578,
      10.972720142673698,
      10.97126841204086,
      10.970954445620906,
      10.971197525974306,
      10.971865527535382,
      10.971364005186922,
      10.971444881537128,
      10.971400196639387,
      10.971063135980682,
      10.970926588296814,
      10.97086802101602,
      10.970863809779953,
      10.97109226429165,
      10.970533046719147,
      10.970234018665396,
      10.970894496557058,
      10.971316435282274,
      10.970945440253587,
      10.970322679992254,
      10.970545457656252,
      10.97138790647865,
      10.970896741173002,
      10.970467918473195,
      10.970999774525795,
      10.971455293998904,
      10.970746503899417,
      10.970735337196196,
      10.970617543441387,
      10.97032007600382,
      10.970783298497562,
      10.970458972514832,
      10.97055788099286,
      10.970856393429804,
      10.970406180142783,
      10.970758949290914,
      10.970462693508292,
      10.970474450844332,
      10.97085091187812,
      10.97117538942336,
      10.97115709215628,
      10.97106736084283,
      10.970940635464395,
      10.970870325720742,
      10.970793116462449,
      10.970650722656622,
      10.970702452405476,
      10.970801646358492,
      10.971061705793076,
      10.971014935454296,
      10.970920512464907,
      10.970891852760696,
      10.970840371160511,
      10.970747306682776,
      10.970744399977086,
      10.97069383788686,
      10.970677756432044,
      10.970621081682053,
      10.970617909489643,
      10.97055599752006,
      10.970567843362385,
      10.970561481350238,
      10.970566912116327,
      10.970568947267406,
      10.970572901820077,
      10.97058670219888,
      10.970597826122642,
      10.970611530661419,
      10.970628585346624,
      10.970640458637664,
      10.970655496630137,
      10.970660178966076,
      10.970656523105403,
      10.970663320209692,
      10.97066673375823,
      10.970660441693267,
      10.97066170218394,
      10.970654179913629,
      10.970651686376064,
      10.970644624534819,
      10.970641336821775,
      10.970632997234606,
      10.970621535412262,
      10.970628274738328,
      10.970617459798387,
      10.970614006356156,
      10.97060817694917,
      10.9706026771926,
      10.970605911611989,
      10.970601617334541,
      10.970593113285393,
      10.970600421904699,
      10.970599838480089,
      10.970606874462712,
      10.970601140971956,
      10.970601303938349,
      10.970598354855436,
      10.970600561271848,
      10.970602926558362,
      10.970602340272603,
      10.970600114639613,
      10.970595595192334,
      10.970601421875642,
      10.970592746791699
    ]
  }
}