INFO - siren_vae - Running command 'run'
INFO - siren_vae - Started run with ID "6"
[ENCODED STRUCTURE] Using faithful BN structure.
[WARM-UP] Applied to ['z0', 'z1', 'z2', 'z3', 'z4', 'z5', 'z6', 'z7', 'z8', 'z9', 'z10', 'z11', 'z12', 'z13', 'z14', 'z15', 'z16', 'z17', 'z18', 'z19', 'z20', 'z21', 'z22', 'z23', 'z24', 'z25', 'z26', 'z27', 'z28', 'z29', 'z30', 'z31', 'z32', 'z33', 'z34', 'z35', 'z36', 'z37', 'z38', 'z39']
[LOADING FROM CHECKPOINT] Start epoch: 600
  0%|          | 0/200 [00:00<?, ?it/s]Train -ELBO: 37.74009, Val -ELBO: 37.80202:   0%|          | 1/200 [00:06<20:26,  6.17s/it]Train -ELBO: 37.73082, Val -ELBO: 37.78396:   1%|          | 2/200 [00:11<19:33,  5.93s/it]Train -ELBO: 37.72975, Val -ELBO: 37.77754:   2%|▏         | 3/200 [00:17<19:11,  5.85s/it]Train -ELBO: 37.72646, Val -ELBO: 37.78551:   2%|▏         | 4/200 [00:23<19:00,  5.82s/it]Train -ELBO: 37.72943, Val -ELBO: 37.80823:   2%|▎         | 5/200 [00:29<18:49,  5.79s/it]Train -ELBO: 37.73221, Val -ELBO: 37.77795:   3%|▎         | 6/200 [00:34<18:41,  5.78s/it]Train -ELBO: 37.73131, Val -ELBO: 37.77999:   4%|▎         | 7/200 [00:40<18:34,  5.78s/it]Train -ELBO: 37.72902, Val -ELBO: 37.80567:   4%|▍         | 8/200 [00:46<18:28,  5.77s/it]Train -ELBO: 37.73537, Val -ELBO: 37.78045:   4%|▍         | 9/200 [00:52<18:21,  5.77s/it]Train -ELBO: 37.73404, Val -ELBO: 37.77931:   5%|▌         | 10/200 [00:58<18:18,  5.78s/it]Train -ELBO: 37.73906, Val -ELBO: 37.77281:   6%|▌         | 11/200 [01:03<18:11,  5.77s/it]Train -ELBO: 37.73921, Val -ELBO: 37.77875:   6%|▌         | 12/200 [01:09<18:03,  5.76s/it]Train -ELBO: 37.72578, Val -ELBO: 37.81114:   6%|▋         | 13/200 [01:15<17:56,  5.75s/it]Train -ELBO: 37.73599, Val -ELBO: 37.77877:   7%|▋         | 14/200 [01:21<17:51,  5.76s/it]Train -ELBO: 37.72953, Val -ELBO: 37.77194:   8%|▊         | 15/200 [01:26<17:44,  5.75s/it]Train -ELBO: 37.73759, Val -ELBO: 37.80969:   8%|▊         | 16/200 [01:32<17:38,  5.75s/it]Train -ELBO: 37.72931, Val -ELBO: 37.79617:   8%|▊         | 17/200 [01:38<17:31,  5.75s/it]Epoch   518: reducing learning rate of group 0 to 1.0000e-05.
Train -ELBO: 37.73261, Val -ELBO: 37.77016:   9%|▉         | 18/200 [01:44<17:26,  5.75s/it]Train -ELBO: 37.68911, Val -ELBO: 37.74497:  10%|▉         | 19/200 [01:49<17:20,  5.75s/it]Train -ELBO: 37.67496, Val -ELBO: 37.73971:  10%|█         | 20/200 [01:55<17:15,  5.75s/it]Train -ELBO: 37.67094, Val -ELBO: 37.73867:  10%|█         | 21/200 [02:01<17:10,  5.76s/it]Train -ELBO: 37.67077, Val -ELBO: 37.73263:  11%|█         | 22/200 [02:07<17:04,  5.76s/it]Train -ELBO: 37.67195, Val -ELBO: 37.73664:  12%|█▏        | 23/200 [02:12<16:59,  5.76s/it]Train -ELBO: 37.68076, Val -ELBO: 37.73468:  12%|█▏        | 24/200 [02:18<16:52,  5.75s/it]Train -ELBO: 37.67264, Val -ELBO: 37.74376:  12%|█▎        | 25/200 [02:24<16:47,  5.76s/it]Train -ELBO: 37.68103, Val -ELBO: 37.73978:  13%|█▎        | 26/200 [02:30<16:41,  5.76s/it]Train -ELBO: 37.67458, Val -ELBO: 37.73583:  14%|█▎        | 27/200 [02:35<16:35,  5.75s/it]Train -ELBO: 37.66818, Val -ELBO: 37.73382:  14%|█▍        | 28/200 [02:41<16:30,  5.76s/it]Train -ELBO: 37.66691, Val -ELBO: 37.73478:  14%|█▍        | 29/200 [02:47<16:24,  5.76s/it]Train -ELBO: 37.67245, Val -ELBO: 37.73130:  15%|█▌        | 30/200 [02:53<16:20,  5.77s/it]Train -ELBO: 37.67335, Val -ELBO: 37.73516:  16%|█▌        | 31/200 [02:58<16:15,  5.77s/it]Train -ELBO: 37.68476, Val -ELBO: 37.73548:  16%|█▌        | 32/200 [03:04<16:08,  5.77s/it]Train -ELBO: 37.67160, Val -ELBO: 37.73191:  16%|█▋        | 33/200 [03:10<16:03,  5.77s/it]Train -ELBO: 37.67179, Val -ELBO: 37.73093:  17%|█▋        | 34/200 [03:16<15:55,  5.76s/it]Train -ELBO: 37.67551, Val -ELBO: 37.74468:  18%|█▊        | 35/200 [03:21<15:51,  5.77s/it]Train -ELBO: 37.67134, Val -ELBO: 37.73618:  18%|█▊        | 36/200 [03:27<15:44,  5.76s/it]Train -ELBO: 37.67128, Val -ELBO: 37.74077:  18%|█▊        | 37/200 [03:33<15:38,  5.76s/it]Train -ELBO: 37.67566, Val -ELBO: 37.74263:  19%|█▉        | 38/200 [03:39<15:31,  5.75s/it]Train -ELBO: 37.67096, Val -ELBO: 37.74080:  20%|█▉        | 39/200 [03:44<15:25,  5.75s/it]Train -ELBO: 37.66837, Val -ELBO: 37.74276:  20%|██        | 40/200 [03:50<15:21,  5.76s/it]Train -ELBO: 37.67333, Val -ELBO: 37.74124:  20%|██        | 41/200 [03:56<15:16,  5.76s/it]Train -ELBO: 37.66687, Val -ELBO: 37.74034:  21%|██        | 42/200 [04:02<15:10,  5.76s/it]Train -ELBO: 37.66821, Val -ELBO: 37.73675:  22%|██▏       | 43/200 [04:08<15:03,  5.76s/it]Train -ELBO: 37.67364, Val -ELBO: 37.73309:  22%|██▏       | 44/200 [04:13<14:59,  5.76s/it]Train -ELBO: 37.66839, Val -ELBO: 37.74321:  22%|██▎       | 45/200 [04:19<14:52,  5.76s/it]Train -ELBO: 37.66594, Val -ELBO: 37.73340:  23%|██▎       | 46/200 [04:25<14:46,  5.75s/it]Train -ELBO: 37.67409, Val -ELBO: 37.72713:  24%|██▎       | 47/200 [04:31<14:40,  5.75s/it]Train -ELBO: 37.67498, Val -ELBO: 37.73335:  24%|██▍       | 48/200 [04:36<14:33,  5.75s/it]Train -ELBO: 37.66766, Val -ELBO: 37.73868:  24%|██▍       | 49/200 [04:42<14:28,  5.75s/it]Epoch   550: reducing learning rate of group 0 to 1.0000e-06.
Train -ELBO: 37.67036, Val -ELBO: 37.73636:  25%|██▌       | 50/200 [04:48<14:23,  5.76s/it]Train -ELBO: 37.66573, Val -ELBO: 37.73429:  26%|██▌       | 51/200 [04:54<14:18,  5.76s/it]Train -ELBO: 37.65806, Val -ELBO: 37.72181:  26%|██▌       | 52/200 [04:59<14:11,  5.76s/it]Train -ELBO: 37.66338, Val -ELBO: 37.74068:  26%|██▋       | 53/200 [05:05<14:05,  5.75s/it]Train -ELBO: 37.66529, Val -ELBO: 37.73399:  27%|██▋       | 54/200 [05:11<13:59,  5.75s/it]Train -ELBO: 37.66159, Val -ELBO: 37.72676:  28%|██▊       | 55/200 [05:17<13:53,  5.75s/it]Train -ELBO: 37.66693, Val -ELBO: 37.73150:  28%|██▊       | 56/200 [05:22<13:48,  5.75s/it]Train -ELBO: 37.66744, Val -ELBO: 37.73152:  28%|██▊       | 57/200 [05:28<13:42,  5.75s/it]Train -ELBO: 37.66254, Val -ELBO: 37.73312:  29%|██▉       | 58/200 [05:34<13:37,  5.76s/it]Train -ELBO: 37.66759, Val -ELBO: 37.72630:  30%|██▉       | 59/200 [05:40<13:31,  5.76s/it]Train -ELBO: 37.67023, Val -ELBO: 37.73117:  30%|███       | 60/200 [05:45<13:26,  5.76s/it]Train -ELBO: 37.66302, Val -ELBO: 37.72400:  30%|███       | 61/200 [05:51<13:20,  5.76s/it]Train -ELBO: 37.66671, Val -ELBO: 37.73786:  31%|███       | 62/200 [05:57<13:14,  5.76s/it]Train -ELBO: 37.66835, Val -ELBO: 37.73251:  32%|███▏      | 63/200 [06:03<13:09,  5.76s/it]Train -ELBO: 37.66877, Val -ELBO: 37.72171:  32%|███▏      | 64/200 [06:08<13:02,  5.76s/it]Train -ELBO: 37.66287, Val -ELBO: 37.73537:  32%|███▎      | 65/200 [06:14<12:57,  5.76s/it]Train -ELBO: 37.66431, Val -ELBO: 37.74015:  33%|███▎      | 66/200 [06:20<12:51,  5.76s/it]Train -ELBO: 37.66402, Val -ELBO: 37.73275:  34%|███▎      | 67/200 [06:26<12:44,  5.75s/it]Train -ELBO: 37.66250, Val -ELBO: 37.72745:  34%|███▍      | 68/200 [06:31<12:39,  5.75s/it]Train -ELBO: 37.66133, Val -ELBO: 37.73789:  34%|███▍      | 69/200 [06:37<12:32,  5.75s/it]Train -ELBO: 37.66058, Val -ELBO: 37.73518:  35%|███▌      | 70/200 [06:43<12:29,  5.77s/it]Train -ELBO: 37.66717, Val -ELBO: 37.72711:  36%|███▌      | 71/200 [06:49<12:24,  5.77s/it]Train -ELBO: 37.66290, Val -ELBO: 37.72948:  36%|███▌      | 72/200 [06:54<12:18,  5.77s/it]Train -ELBO: 37.65997, Val -ELBO: 37.72854:  36%|███▋      | 73/200 [07:00<12:12,  5.76s/it]Train -ELBO: 37.66299, Val -ELBO: 37.72983:  37%|███▋      | 74/200 [07:06<12:05,  5.76s/it]Train -ELBO: 37.66113, Val -ELBO: 37.72520:  38%|███▊      | 75/200 [07:12<12:00,  5.76s/it]Train -ELBO: 37.65874, Val -ELBO: 37.72302:  38%|███▊      | 76/200 [07:17<11:53,  5.76s/it]Train -ELBO: 37.66543, Val -ELBO: 37.73252:  38%|███▊      | 77/200 [07:23<11:48,  5.76s/it]Train -ELBO: 37.65963, Val -ELBO: 37.73439:  39%|███▉      | 78/200 [07:29<11:41,  5.75s/it]Train -ELBO: 37.66265, Val -ELBO: 37.73098:  40%|███▉      | 79/200 [07:35<11:35,  5.75s/it]Train -ELBO: 37.66261, Val -ELBO: 37.72610:  40%|████      | 80/200 [07:41<11:32,  5.77s/it]Train -ELBO: 37.66904, Val -ELBO: 37.73250:  40%|████      | 81/200 [07:46<11:26,  5.77s/it]Train -ELBO: 37.66905, Val -ELBO: 37.73311:  41%|████      | 82/200 [07:52<11:20,  5.77s/it]Train -ELBO: 37.66047, Val -ELBO: 37.73418:  42%|████▏     | 83/200 [07:58<11:14,  5.76s/it]Train -ELBO: 37.66604, Val -ELBO: 37.73583:  42%|████▏     | 84/200 [08:04<11:08,  5.77s/it]Train -ELBO: 37.66593, Val -ELBO: 37.73452:  42%|████▎     | 85/200 [08:09<11:03,  5.77s/it]Train -ELBO: 37.66759, Val -ELBO: 37.73005:  43%|████▎     | 86/200 [08:15<10:56,  5.76s/it]Train -ELBO: 37.66056, Val -ELBO: 37.73357:  44%|████▎     | 87/200 [08:21<10:50,  5.76s/it]Train -ELBO: 37.66818, Val -ELBO: 37.73438:  44%|████▍     | 88/200 [08:27<10:44,  5.75s/it]Train -ELBO: 37.66470, Val -ELBO: 37.72233:  44%|████▍     | 89/200 [08:32<10:39,  5.76s/it]Train -ELBO: 37.66155, Val -ELBO: 37.73395:  45%|████▌     | 90/200 [08:38<10:33,  5.76s/it]Train -ELBO: 37.66134, Val -ELBO: 37.73159:  46%|████▌     | 91/200 [08:44<10:28,  5.76s/it]Train -ELBO: 37.66724, Val -ELBO: 37.73842:  46%|████▌     | 92/200 [08:50<10:21,  5.76s/it]Train -ELBO: 37.66287, Val -ELBO: 37.72763:  46%|████▋     | 93/200 [08:55<10:15,  5.75s/it]Train -ELBO: 37.66533, Val -ELBO: 37.72254:  47%|████▋     | 94/200 [09:01<10:10,  5.76s/it]Train -ELBO: 37.66574, Val -ELBO: 37.72594:  48%|████▊     | 95/200 [09:07<10:04,  5.75s/it]Train -ELBO: 37.66710, Val -ELBO: 37.73041:  48%|████▊     | 96/200 [09:13<09:58,  5.76s/it]Train -ELBO: 37.66844, Val -ELBO: 37.73435:  48%|████▊     | 97/200 [09:18<09:52,  5.75s/it]Train -ELBO: 37.66186, Val -ELBO: 37.72574:  49%|████▉     | 98/200 [09:24<09:46,  5.75s/it]Train -ELBO: 37.66271, Val -ELBO: 37.73153:  50%|████▉     | 99/200 [09:30<09:41,  5.76s/it]Train -ELBO: 37.66991, Val -ELBO: 37.73460:  50%|█████     | 100/200 [09:36<09:35,  5.76s/it]Train -ELBO: 37.66503, Val -ELBO: 37.73890:  50%|█████     | 101/200 [09:42<09:30,  5.76s/it]Train -ELBO: 37.66652, Val -ELBO: 37.73502:  51%|█████     | 102/200 [09:47<09:24,  5.76s/it]Train -ELBO: 37.65812, Val -ELBO: 37.72937:  52%|█████▏    | 103/200 [09:53<09:19,  5.76s/it]Train -ELBO: 37.66294, Val -ELBO: 37.72782:  52%|█████▏    | 104/200 [09:59<09:12,  5.76s/it]Train -ELBO: 37.66325, Val -ELBO: 37.73831:  52%|█████▎    | 105/200 [10:05<09:06,  5.76s/it]Train -ELBO: 37.66861, Val -ELBO: 37.72444:  53%|█████▎    | 106/200 [10:10<09:01,  5.76s/it]Train -ELBO: 37.66395, Val -ELBO: 37.73063:  54%|█████▎    | 107/200 [10:16<08:55,  5.75s/it]Train -ELBO: 37.66297, Val -ELBO: 37.73787:  54%|█████▍    | 108/200 [10:22<08:49,  5.76s/it]Train -ELBO: 37.66356, Val -ELBO: 37.73625:  55%|█████▍    | 109/200 [10:28<08:43,  5.75s/it]Train -ELBO: 37.65682, Val -ELBO: 37.72709:  55%|█████▌    | 110/200 [10:33<08:39,  5.77s/it]Train -ELBO: 37.66468, Val -ELBO: 37.74218:  56%|█████▌    | 111/200 [10:39<08:33,  5.77s/it]Train -ELBO: 37.66214, Val -ELBO: 37.72808:  56%|█████▌    | 112/200 [10:45<08:27,  5.76s/it]Train -ELBO: 37.66493, Val -ELBO: 37.73855:  56%|█████▋    | 113/200 [10:51<08:21,  5.76s/it]Train -ELBO: 37.66855, Val -ELBO: 37.73613:  57%|█████▋    | 114/200 [10:56<08:14,  5.75s/it]Train -ELBO: 37.66335, Val -ELBO: 37.72341:  57%|█████▊    | 115/200 [11:02<08:09,  5.76s/it]Train -ELBO: 37.66559, Val -ELBO: 37.73683:  58%|█████▊    | 116/200 [11:08<08:03,  5.75s/it]Train -ELBO: 37.66472, Val -ELBO: 37.72536:  58%|█████▊    | 117/200 [11:14<07:57,  5.76s/it]Train -ELBO: 37.66381, Val -ELBO: 37.73212:  59%|█████▉    | 118/200 [11:19<07:52,  5.76s/it]Train -ELBO: 37.66308, Val -ELBO: 37.72656:  60%|█████▉    | 119/200 [11:25<07:46,  5.75s/it]Train -ELBO: 37.66239, Val -ELBO: 37.72816:  60%|██████    | 120/200 [11:31<07:41,  5.77s/it]Train -ELBO: 37.66249, Val -ELBO: 37.72712:  60%|██████    | 121/200 [11:37<07:35,  5.76s/it]Train -ELBO: 37.66265, Val -ELBO: 37.72142:  61%|██████    | 122/200 [11:42<07:29,  5.76s/it]Train -ELBO: 37.66550, Val -ELBO: 37.73081:  62%|██████▏   | 123/200 [11:48<07:23,  5.76s/it]Train -ELBO: 37.65960, Val -ELBO: 37.73212:  62%|██████▏   | 124/200 [11:54<07:17,  5.76s/it]Train -ELBO: 37.66013, Val -ELBO: 37.73411:  62%|██████▎   | 125/200 [12:00<07:12,  5.76s/it]Train -ELBO: 37.65953, Val -ELBO: 37.73161:  63%|██████▎   | 126/200 [12:05<07:05,  5.75s/it]Train -ELBO: 37.66497, Val -ELBO: 37.72933:  64%|██████▎   | 127/200 [12:11<07:00,  5.76s/it]Train -ELBO: 37.66476, Val -ELBO: 37.72889:  64%|██████▍   | 128/200 [12:17<06:53,  5.75s/it]Train -ELBO: 37.66796, Val -ELBO: 37.72765:  64%|██████▍   | 129/200 [12:23<06:48,  5.75s/it]Train -ELBO: 37.66952, Val -ELBO: 37.72854:  65%|██████▌   | 130/200 [12:28<06:42,  5.76s/it]Train -ELBO: 37.66995, Val -ELBO: 37.72123:  66%|██████▌   | 131/200 [12:34<06:37,  5.76s/it]Train -ELBO: 37.66181, Val -ELBO: 37.73257:  66%|██████▌   | 132/200 [12:40<06:31,  5.76s/it]Train -ELBO: 37.65934, Val -ELBO: 37.72923:  66%|██████▋   | 133/200 [12:46<06:25,  5.75s/it]Train -ELBO: 37.66327, Val -ELBO: 37.73278:  67%|██████▋   | 134/200 [12:52<06:20,  5.76s/it]Train -ELBO: 37.65999, Val -ELBO: 37.72037:  68%|██████▊   | 135/200 [12:57<06:13,  5.75s/it]Train -ELBO: 37.65918, Val -ELBO: 37.73063:  68%|██████▊   | 136/200 [13:03<06:08,  5.76s/it]Train -ELBO: 37.65427, Val -ELBO: 37.72929:  68%|██████▊   | 137/200 [13:09<06:02,  5.75s/it]Train -ELBO: 37.66403, Val -ELBO: 37.72429:  69%|██████▉   | 138/200 [13:15<05:56,  5.75s/it]Train -ELBO: 37.66593, Val -ELBO: 37.72603:  70%|██████▉   | 139/200 [13:20<05:51,  5.75s/it]Train -ELBO: 37.66263, Val -ELBO: 37.72424:  70%|███████   | 140/200 [13:26<05:45,  5.76s/it]Train -ELBO: 37.66187, Val -ELBO: 37.72868:  70%|███████   | 141/200 [13:32<05:40,  5.76s/it]Train -ELBO: 37.65807, Val -ELBO: 37.72221:  71%|███████   | 142/200 [13:38<05:34,  5.76s/it]Train -ELBO: 37.66495, Val -ELBO: 37.72676:  72%|███████▏  | 143/200 [13:43<05:28,  5.76s/it]Train -ELBO: 37.66388, Val -ELBO: 37.72933:  72%|███████▏  | 144/200 [13:49<05:22,  5.75s/it]Train -ELBO: 37.66762, Val -ELBO: 37.73917:  72%|███████▎  | 145/200 [13:55<05:16,  5.75s/it]Train -ELBO: 37.65770, Val -ELBO: 37.72743:  73%|███████▎  | 146/200 [14:01<05:10,  5.75s/it]Train -ELBO: 37.66357, Val -ELBO: 37.72617:  74%|███████▎  | 147/200 [14:06<05:04,  5.75s/it]Train -ELBO: 37.66160, Val -ELBO: 37.73002:  74%|███████▍  | 148/200 [14:12<05:00,  5.77s/it]Train -ELBO: 37.66266, Val -ELBO: 37.73397:  74%|███████▍  | 149/200 [14:18<04:53,  5.76s/it]Train -ELBO: 37.65977, Val -ELBO: 37.73785:  75%|███████▌  | 150/200 [14:24<04:48,  5.77s/it]Train -ELBO: 37.66393, Val -ELBO: 37.72714:  76%|███████▌  | 151/200 [14:29<04:42,  5.77s/it]Train -ELBO: 37.66240, Val -ELBO: 37.72939:  76%|███████▌  | 152/200 [14:35<04:36,  5.77s/it]Train -ELBO: 37.66381, Val -ELBO: 37.73452:  76%|███████▋  | 153/200 [14:41<04:30,  5.77s/it]Train -ELBO: 37.65766, Val -ELBO: 37.72743:  77%|███████▋  | 154/200 [14:47<04:24,  5.76s/it]Train -ELBO: 37.66495, Val -ELBO: 37.73540:  78%|███████▊  | 155/200 [14:52<04:19,  5.76s/it]Train -ELBO: 37.66064, Val -ELBO: 37.73194:  78%|███████▊  | 156/200 [14:58<04:13,  5.75s/it]Train -ELBO: 37.66182, Val -ELBO: 37.73045:  78%|███████▊  | 157/200 [15:04<04:07,  5.76s/it]Train -ELBO: 37.66458, Val -ELBO: 37.73790:  79%|███████▉  | 158/200 [15:10<04:01,  5.76s/it]Train -ELBO: 37.66004, Val -ELBO: 37.73287:  80%|███████▉  | 159/200 [15:15<03:55,  5.75s/it]Train -ELBO: 37.66611, Val -ELBO: 37.72448:  80%|████████  | 160/200 [15:21<03:50,  5.76s/it]Train -ELBO: 37.66448, Val -ELBO: 37.71799:  80%|████████  | 161/200 [15:27<03:44,  5.76s/it]Train -ELBO: 37.66376, Val -ELBO: 37.73933:  81%|████████  | 162/200 [15:33<03:38,  5.76s/it]Train -ELBO: 37.66730, Val -ELBO: 37.72744:  82%|████████▏ | 163/200 [15:39<03:32,  5.75s/it]Train -ELBO: 37.66933, Val -ELBO: 37.72584:  82%|████████▏ | 164/200 [15:44<03:27,  5.76s/it]Train -ELBO: 37.66266, Val -ELBO: 37.72817:  82%|████████▎ | 165/200 [15:50<03:21,  5.75s/it]Train -ELBO: 37.66515, Val -ELBO: 37.72812:  83%|████████▎ | 166/200 [15:56<03:15,  5.75s/it]Train -ELBO: 37.66502, Val -ELBO: 37.73229:  84%|████████▎ | 167/200 [16:02<03:09,  5.75s/it]Train -ELBO: 37.66598, Val -ELBO: 37.72834:  84%|████████▍ | 168/200 [16:07<03:03,  5.74s/it]Train -ELBO: 37.65809, Val -ELBO: 37.72333:  84%|████████▍ | 169/200 [16:13<02:58,  5.75s/it]Train -ELBO: 37.66307, Val -ELBO: 37.73244:  85%|████████▌ | 170/200 [16:19<02:52,  5.76s/it]Train -ELBO: 37.66205, Val -ELBO: 37.73236:  86%|████████▌ | 171/200 [16:25<02:47,  5.76s/it]Train -ELBO: 37.66301, Val -ELBO: 37.72942:  86%|████████▌ | 172/200 [16:30<02:41,  5.76s/it]Train -ELBO: 37.65612, Val -ELBO: 37.73052:  86%|████████▋ | 173/200 [16:36<02:35,  5.75s/it]Train -ELBO: 37.65840, Val -ELBO: 37.72765:  87%|████████▋ | 174/200 [16:42<02:29,  5.76s/it]Train -ELBO: 37.66581, Val -ELBO: 37.73057:  88%|████████▊ | 175/200 [16:48<02:23,  5.75s/it]Train -ELBO: 37.66539, Val -ELBO: 37.72635:  88%|████████▊ | 176/200 [16:53<02:18,  5.75s/it]Train -ELBO: 37.66232, Val -ELBO: 37.71972:  88%|████████▊ | 177/200 [16:59<02:12,  5.75s/it]Train -ELBO: 37.66361, Val -ELBO: 37.72329:  89%|████████▉ | 178/200 [17:05<02:06,  5.75s/it]Train -ELBO: 37.67011, Val -ELBO: 37.73190:  90%|████████▉ | 179/200 [17:11<02:00,  5.75s/it]Train -ELBO: 37.65942, Val -ELBO: 37.72748:  90%|█████████ | 180/200 [17:16<01:55,  5.76s/it]Train -ELBO: 37.65482, Val -ELBO: 37.72382:  90%|█████████ | 181/200 [17:22<01:49,  5.76s/it]Train -ELBO: 37.66246, Val -ELBO: 37.72475:  91%|█████████ | 182/200 [17:28<01:43,  5.76s/it]Train -ELBO: 37.66001, Val -ELBO: 37.72531:  92%|█████████▏| 183/200 [17:34<01:37,  5.76s/it]Train -ELBO: 37.66532, Val -ELBO: 37.72918:  92%|█████████▏| 184/200 [17:39<01:32,  5.75s/it]Train -ELBO: 37.65470, Val -ELBO: 37.74384:  92%|█████████▎| 185/200 [17:45<01:26,  5.75s/it]Train -ELBO: 37.66477, Val -ELBO: 37.73219:  93%|█████████▎| 186/200 [17:51<01:20,  5.76s/it]Train -ELBO: 37.66101, Val -ELBO: 37.72318:  94%|█████████▎| 187/200 [17:57<01:14,  5.75s/it]Train -ELBO: 37.65922, Val -ELBO: 37.72699:  94%|█████████▍| 188/200 [18:02<01:09,  5.75s/it]Train -ELBO: 37.65764, Val -ELBO: 37.72981:  94%|█████████▍| 189/200 [18:08<01:03,  5.75s/it]Train -ELBO: 37.65931, Val -ELBO: 37.72949:  95%|█████████▌| 190/200 [18:14<00:57,  5.76s/it]Train -ELBO: 37.66320, Val -ELBO: 37.73051:  96%|█████████▌| 191/200 [18:20<00:51,  5.76s/it]Train -ELBO: 37.65845, Val -ELBO: 37.72799:  96%|█████████▌| 192/200 [18:25<00:46,  5.76s/it]Train -ELBO: 37.66091, Val -ELBO: 37.73044:  96%|█████████▋| 193/200 [18:31<00:40,  5.76s/it]Train -ELBO: 37.65889, Val -ELBO: 37.73559:  97%|█████████▋| 194/200 [18:37<00:34,  5.75s/it]Train -ELBO: 37.66323, Val -ELBO: 37.73065:  98%|█████████▊| 195/200 [18:43<00:28,  5.76s/it]Train -ELBO: 37.66068, Val -ELBO: 37.73246:  98%|█████████▊| 196/200 [18:48<00:23,  5.75s/it]Train -ELBO: 37.65611, Val -ELBO: 37.73323:  98%|█████████▊| 197/200 [18:54<00:17,  5.76s/it]Train -ELBO: 37.66197, Val -ELBO: 37.73050:  99%|█████████▉| 198/200 [19:00<00:11,  5.76s/it]Train -ELBO: 37.66110, Val -ELBO: 37.72557: 100%|█████████▉| 199/200 [19:06<00:05,  5.75s/it]Train -ELBO: 37.66544, Val -ELBO: 37.72744: 100%|██████████| 200/200 [19:11<00:00,  5.76s/it]Train -ELBO: 37.66544, Val -ELBO: 37.72744: 100%|██████████| 200/200 [19:11<00:00,  5.76s/it]
