{
  "test": {
    "steps": [
      0
    ],
    "timestamps": [
      "2022-08-16T12:07:32.571708"
    ],
    "values": [
      1.0937919186853762
    ]
  },
  "train": {
    "steps": [
      0,
      1,
      2,
      3,
      4,
      5,
      6,
      7,
      8,
      9,
      10,
      11,
      12,
      13,
      14,
      15,
      16,
      17,
      18,
      19,
      20,
      21,
      22,
      23,
      24,
      25,
      26,
      27,
      28,
      29,
      30,
      31,
      32,
      33,
      34,
      35,
      36,
      37,
      38,
      39,
      40,
      41,
      42,
      43,
      44,
      45,
      46,
      47,
      48,
      49,
      50,
      51,
      52,
      53,
      54,
      55,
      56,
      57,
      58,
      59,
      60,
      61,
      62,
      63,
      64,
      65,
      66,
      67,
      68,
      69,
      70,
      71,
      72,
      73,
      74,
      75,
      76,
      77,
      78,
      79,
      80,
      81,
      82,
      83,
      84,
      85,
      86,
      87,
      88,
      89,
      90,
      91,
      92,
      93,
      94,
      95,
      96,
      97,
      98,
      99,
      100,
      101,
      102,
      103,
      104,
      105,
      106,
      107,
      108,
      109,
      110,
      111,
      112,
      113,
      114,
      115,
      116,
      117,
      118,
      119,
      120,
      121,
      122,
      123,
      124,
      125,
      126,
      127,
      128,
      129,
      130,
      131,
      132,
      133,
      134,
      135,
      136,
      137,
      138,
      139,
      140,
      141,
      142,
      143,
      144,
      145,
      146,
      147,
      148,
      149,
      150,
      151,
      152,
      153,
      154,
      155,
      156,
      157,
      158,
      159,
      160,
      161,
      162,
      163,
      164,
      165,
      166,
      167,
      168,
      169,
      170,
      171,
      172,
      173,
      174,
      175,
      176,
      177,
      178,
      179,
      180,
      181,
      182,
      183,
      184,
      185,
      186,
      187,
      188,
      189,
      190,
      191,
      192,
      193,
      194,
      195,
      196,
      197,
      198,
      199,
      200,
      201,
      202,
      203,
      204,
      205,
      206,
      207,
      208,
      209,
      210,
      211,
      212,
      213,
      214,
      215,
      216,
      217,
      218,
      219,
      220,
      221,
      222,
      223,
      224,
      225,
      226,
      227,
      228,
      229,
      230,
      231,
      232,
      233,
      234,
      235,
      236,
      237,
      238,
      239,
      240,
      241,
      242,
      243,
      244,
      245,
      246,
      247,
      248,
      249,
      250,
      251,
      252,
      253,
      254,
      255,
      256,
      257,
      258,
      259,
      260,
      261,
      262,
      263,
      264,
      265,
      266,
      267,
      268,
      269,
      270,
      271,
      272,
      273,
      274,
      275,
      276,
      277,
      278,
      279,
      280,
      281,
      282,
      283,
      284,
      285,
      286,
      287,
      288,
      289,
      290,
      291,
      292,
      293,
      294,
      295,
      296,
      297,
      298,
      299
    ],
    "timestamps": [
      "2022-08-16T11:19:26.972764",
      "2022-08-16T11:19:36.948934",
      "2022-08-16T11:19:46.903852",
      "2022-08-16T11:19:56.923819",
      "2022-08-16T11:20:07.753053",
      "2022-08-16T11:20:18.848660",
      "2022-08-16T11:20:29.578957",
      "2022-08-16T11:20:41.033297",
      "2022-08-16T11:20:52.536651",
      "2022-08-16T11:21:02.361526",
      "2022-08-16T11:21:12.673795",
      "2022-08-16T11:21:23.010090",
      "2022-08-16T11:21:33.673501",
      "2022-08-16T11:21:43.974215",
      "2022-08-16T11:21:52.920077",
      "2022-08-16T11:22:02.786083",
      "2022-08-16T11:22:14.921548",
      "2022-08-16T11:22:26.759918",
      "2022-08-16T11:22:37.689696",
      "2022-08-16T11:22:48.301690",
      "2022-08-16T11:22:58.151778",
      "2022-08-16T11:23:08.489278",
      "2022-08-16T11:23:19.153111",
      "2022-08-16T11:23:29.791023",
      "2022-08-16T11:23:39.850314",
      "2022-08-16T11:23:50.358612",
      "2022-08-16T11:24:00.483769",
      "2022-08-16T11:24:10.471955",
      "2022-08-16T11:24:20.816166",
      "2022-08-16T11:24:31.399763",
      "2022-08-16T11:24:41.444099",
      "2022-08-16T11:24:50.636093",
      "2022-08-16T11:24:59.924049",
      "2022-08-16T11:25:10.528459",
      "2022-08-16T11:25:20.088411",
      "2022-08-16T11:25:30.187941",
      "2022-08-16T11:25:39.776161",
      "2022-08-16T11:25:49.392207",
      "2022-08-16T11:26:00.370039",
      "2022-08-16T11:26:10.273238",
      "2022-08-16T11:26:19.475794",
      "2022-08-16T11:26:30.424059",
      "2022-08-16T11:26:40.838900",
      "2022-08-16T11:26:50.784503",
      "2022-08-16T11:27:00.654166",
      "2022-08-16T11:27:11.462866",
      "2022-08-16T11:27:22.704338",
      "2022-08-16T11:27:31.923839",
      "2022-08-16T11:27:41.876451",
      "2022-08-16T11:27:52.575619",
      "2022-08-16T11:28:02.039726",
      "2022-08-16T11:28:12.015620",
      "2022-08-16T11:28:21.352984",
      "2022-08-16T11:28:31.677233",
      "2022-08-16T11:28:41.725403",
      "2022-08-16T11:28:51.910511",
      "2022-08-16T11:29:02.592676",
      "2022-08-16T11:29:13.137751",
      "2022-08-16T11:29:23.617858",
      "2022-08-16T11:29:33.416249",
      "2022-08-16T11:29:43.374674",
      "2022-08-16T11:29:53.821453",
      "2022-08-16T11:30:04.119892",
      "2022-08-16T11:30:14.450814",
      "2022-08-16T11:30:24.650014",
      "2022-08-16T11:30:35.044227",
      "2022-08-16T11:30:45.371405",
      "2022-08-16T11:30:55.389928",
      "2022-08-16T11:31:05.557271",
      "2022-08-16T11:31:15.804010",
      "2022-08-16T11:31:26.416233",
      "2022-08-16T11:31:36.941322",
      "2022-08-16T11:31:47.631443",
      "2022-08-16T11:31:58.019112",
      "2022-08-16T11:32:08.056389",
      "2022-08-16T11:32:17.606198",
      "2022-08-16T11:32:27.922661",
      "2022-08-16T11:32:37.608143",
      "2022-08-16T11:32:47.257636",
      "2022-08-16T11:32:56.422998",
      "2022-08-16T11:33:05.788174",
      "2022-08-16T11:33:15.742903",
      "2022-08-16T11:33:26.680644",
      "2022-08-16T11:33:36.963646",
      "2022-08-16T11:33:47.454404",
      "2022-08-16T11:33:57.074668",
      "2022-08-16T11:34:07.742816",
      "2022-08-16T11:34:18.160154",
      "2022-08-16T11:34:28.553268",
      "2022-08-16T11:34:38.952028",
      "2022-08-16T11:34:48.660952",
      "2022-08-16T11:34:57.735653",
      "2022-08-16T11:35:07.514425",
      "2022-08-16T11:35:17.371357",
      "2022-08-16T11:35:27.718625",
      "2022-08-16T11:35:37.118255",
      "2022-08-16T11:35:47.096012",
      "2022-08-16T11:35:56.650248",
      "2022-08-16T11:36:06.570425",
      "2022-08-16T11:36:16.780203",
      "2022-08-16T11:36:26.109405",
      "2022-08-16T11:36:35.867244",
      "2022-08-16T11:36:46.286152",
      "2022-08-16T11:36:56.552933",
      "2022-08-16T11:37:06.730337",
      "2022-08-16T11:37:17.763779",
      "2022-08-16T11:37:28.052520",
      "2022-08-16T11:37:37.842154",
      "2022-08-16T11:37:48.131027",
      "2022-08-16T11:37:57.654677",
      "2022-08-16T11:38:08.188862",
      "2022-08-16T11:38:18.263428",
      "2022-08-16T11:38:28.951251",
      "2022-08-16T11:38:38.940653",
      "2022-08-16T11:38:48.999271",
      "2022-08-16T11:38:58.930023",
      "2022-08-16T11:39:08.841648",
      "2022-08-16T11:39:19.250572",
      "2022-08-16T11:39:28.687265",
      "2022-08-16T11:39:38.098008",
      "2022-08-16T11:39:47.632270",
      "2022-08-16T11:39:56.811452",
      "2022-08-16T11:40:06.063432",
      "2022-08-16T11:40:15.802152",
      "2022-08-16T11:40:25.739905",
      "2022-08-16T11:40:35.846851",
      "2022-08-16T11:40:46.291527",
      "2022-08-16T11:40:57.058159",
      "2022-08-16T11:41:10.365591",
      "2022-08-16T11:41:20.492217",
      "2022-08-16T11:41:30.277044",
      "2022-08-16T11:41:39.698967",
      "2022-08-16T11:41:49.718019",
      "2022-08-16T11:41:59.842170",
      "2022-08-16T11:42:09.451939",
      "2022-08-16T11:42:19.271029",
      "2022-08-16T11:42:29.102670",
      "2022-08-16T11:42:38.730838",
      "2022-08-16T11:42:49.222031",
      "2022-08-16T11:42:58.852596",
      "2022-08-16T11:43:08.902574",
      "2022-08-16T11:43:18.425539",
      "2022-08-16T11:43:28.765395",
      "2022-08-16T11:43:39.385179",
      "2022-08-16T11:43:49.314488",
      "2022-08-16T11:43:59.258955",
      "2022-08-16T11:44:09.792381",
      "2022-08-16T11:44:20.109044",
      "2022-08-16T11:44:30.261906",
      "2022-08-16T11:44:40.314927",
      "2022-08-16T11:44:51.004380",
      "2022-08-16T11:45:00.706122",
      "2022-08-16T11:45:10.704940",
      "2022-08-16T11:45:20.776366",
      "2022-08-16T11:45:30.823817",
      "2022-08-16T11:45:40.153565",
      "2022-08-16T11:45:50.499096",
      "2022-08-16T11:46:00.287204",
      "2022-08-16T11:46:10.815577",
      "2022-08-16T11:46:20.460447",
      "2022-08-16T11:46:30.163327",
      "2022-08-16T11:46:40.780574",
      "2022-08-16T11:46:51.359182",
      "2022-08-16T11:47:00.420816",
      "2022-08-16T11:47:10.058366",
      "2022-08-16T11:47:19.575691",
      "2022-08-16T11:47:29.005646",
      "2022-08-16T11:47:39.099755",
      "2022-08-16T11:47:48.609453",
      "2022-08-16T11:47:58.665991",
      "2022-08-16T11:48:09.432632",
      "2022-08-16T11:48:20.014414",
      "2022-08-16T11:48:30.974795",
      "2022-08-16T11:48:41.360868",
      "2022-08-16T11:48:50.465902",
      "2022-08-16T11:49:00.742863",
      "2022-08-16T11:49:10.051310",
      "2022-08-16T11:49:18.605967",
      "2022-08-16T11:49:26.990618",
      "2022-08-16T11:49:35.574099",
      "2022-08-16T11:49:44.895256",
      "2022-08-16T11:49:54.227377",
      "2022-08-16T11:50:03.550439",
      "2022-08-16T11:50:12.325176",
      "2022-08-16T11:50:21.730103",
      "2022-08-16T11:50:31.880239",
      "2022-08-16T11:50:40.975361",
      "2022-08-16T11:50:50.360289",
      "2022-08-16T11:50:58.858480",
      "2022-08-16T11:51:07.472100",
      "2022-08-16T11:51:16.281297",
      "2022-08-16T11:51:24.858328",
      "2022-08-16T11:51:34.036352",
      "2022-08-16T11:51:42.881021",
      "2022-08-16T11:51:51.999456",
      "2022-08-16T11:52:00.678131",
      "2022-08-16T11:52:10.301796",
      "2022-08-16T11:52:19.547214",
      "2022-08-16T11:52:28.682859",
      "2022-08-16T11:52:37.327245",
      "2022-08-16T11:52:46.224530",
      "2022-08-16T11:52:55.630297",
      "2022-08-16T11:53:05.254203",
      "2022-08-16T11:53:14.652794",
      "2022-08-16T11:53:23.645339",
      "2022-08-16T11:53:32.732130",
      "2022-08-16T11:53:42.221259",
      "2022-08-16T11:53:51.392674",
      "2022-08-16T11:54:00.617114",
      "2022-08-16T11:54:09.853775",
      "2022-08-16T11:54:18.389119",
      "2022-08-16T11:54:26.624819",
      "2022-08-16T11:54:35.284990",
      "2022-08-16T11:54:43.806168",
      "2022-08-16T11:54:52.375875",
      "2022-08-16T11:55:01.113486",
      "2022-08-16T11:55:09.985735",
      "2022-08-16T11:55:18.461403",
      "2022-08-16T11:55:26.961452",
      "2022-08-16T11:55:36.014157",
      "2022-08-16T11:55:44.699824",
      "2022-08-16T11:55:53.188276",
      "2022-08-16T11:56:01.739393",
      "2022-08-16T11:56:10.297378",
      "2022-08-16T11:56:18.798729",
      "2022-08-16T11:56:27.221560",
      "2022-08-16T11:56:36.816997",
      "2022-08-16T11:56:45.831872",
      "2022-08-16T11:56:55.410692",
      "2022-08-16T11:57:04.217056",
      "2022-08-16T11:57:13.082383",
      "2022-08-16T11:57:21.754375",
      "2022-08-16T11:57:30.179732",
      "2022-08-16T11:57:39.339797",
      "2022-08-16T11:57:48.292482",
      "2022-08-16T11:57:57.251025",
      "2022-08-16T11:58:06.432757",
      "2022-08-16T11:58:15.444907",
      "2022-08-16T11:58:24.208266",
      "2022-08-16T11:58:33.221249",
      "2022-08-16T11:58:41.641265",
      "2022-08-16T11:58:50.150220",
      "2022-08-16T11:58:59.440075",
      "2022-08-16T11:59:07.924356",
      "2022-08-16T11:59:16.947974",
      "2022-08-16T11:59:25.845146",
      "2022-08-16T11:59:34.935199",
      "2022-08-16T11:59:43.972201",
      "2022-08-16T11:59:52.907862",
      "2022-08-16T12:00:01.713181",
      "2022-08-16T12:00:10.933712",
      "2022-08-16T12:00:20.544358",
      "2022-08-16T12:00:30.468125",
      "2022-08-16T12:00:38.966461",
      "2022-08-16T12:00:47.724222",
      "2022-08-16T12:00:56.746193",
      "2022-08-16T12:01:05.471157",
      "2022-08-16T12:01:14.492614",
      "2022-08-16T12:01:24.117591",
      "2022-08-16T12:01:33.157756",
      "2022-08-16T12:01:42.068629",
      "2022-08-16T12:01:50.843180",
      "2022-08-16T12:01:59.326051",
      "2022-08-16T12:02:07.993547",
      "2022-08-16T12:02:16.658834",
      "2022-08-16T12:02:25.763405",
      "2022-08-16T12:02:36.714335",
      "2022-08-16T12:02:45.310313",
      "2022-08-16T12:02:55.143587",
      "2022-08-16T12:03:03.947235",
      "2022-08-16T12:03:12.803882",
      "2022-08-16T12:03:21.739803",
      "2022-08-16T12:03:30.476952",
      "2022-08-16T12:03:39.278252",
      "2022-08-16T12:03:47.430756",
      "2022-08-16T12:03:56.646110",
      "2022-08-16T12:04:06.462325",
      "2022-08-16T12:04:15.330042",
      "2022-08-16T12:04:23.865633",
      "2022-08-16T12:04:32.624406",
      "2022-08-16T12:04:42.198308",
      "2022-08-16T12:04:51.322011",
      "2022-08-16T12:04:59.948431",
      "2022-08-16T12:05:08.847157",
      "2022-08-16T12:05:17.701250",
      "2022-08-16T12:05:27.882752",
      "2022-08-16T12:05:36.473611",
      "2022-08-16T12:05:44.802003",
      "2022-08-16T12:05:54.391937",
      "2022-08-16T12:06:02.867475",
      "2022-08-16T12:06:12.254447",
      "2022-08-16T12:06:20.598855",
      "2022-08-16T12:06:28.876569",
      "2022-08-16T12:06:37.772615",
      "2022-08-16T12:06:46.348101",
      "2022-08-16T12:06:54.755884",
      "2022-08-16T12:07:03.176399",
      "2022-08-16T12:07:12.599280",
      "2022-08-16T12:07:22.040686",
      "2022-08-16T12:07:30.660678"
    ],
    "values": [
      14.377358617941518,
      6.472117955131211,
      4.1314802313189425,
      3.563505525485829,
      3.0959212929414224,
      2.95130847043883,
      2.619535010034817,
      2.577831857608969,
      2.485027909032063,
      2.5221768303141214,
      2.2588720946963106,
      2.275232214783999,
      2.1503204630520445,
      2.0118978056139154,
      2.00995806058863,
      2.399964463971945,
      2.10878593311752,
      2.2953262012303295,
      1.9972543371896114,
      1.8865338493132129,
      1.987279943886937,
      2.018160466681373,
      1.9199818483137263,
      1.966965693181373,
      1.8983126192869242,
      1.91398351221879,
      1.8085399885430673,
      1.8595771118736564,
      1.8059792746123882,
      1.8592799156164346,
      1.8622665611270162,
      1.8721801979866661,
      1.7147266954096896,
      1.9473146039762668,
      1.692265666420598,
      1.6642262553148652,
      1.845096008441132,
      1.7919083610443929,
      1.70779528987458,
      1.7666331834123576,
      1.841012960516281,
      1.6875467068229957,
      1.8265932767719377,
      1.7749863737268552,
      1.6669275049382042,
      1.7081376410973714,
      1.6714039688448687,
      1.708618652892006,
      1.7013076102428868,
      1.6871992368284785,
      1.7375194139736092,
      1.6800690524261324,
      1.709604480855551,
      1.7061316158970732,
      1.6791562949754195,
      1.7202069453449043,
      1.6542033387660209,
      1.6247208230756336,
      1.6468499317472103,
      1.6505324848316678,
      1.6682806937483408,
      1.7593539991350646,
      1.60938133339733,
      1.765084669062071,
      1.6451019436314556,
      1.69755722836305,
      1.641733589782304,
      1.6471206606806297,
      1.6409952596154673,
      1.6609651257307456,
      1.6311760107764024,
      1.6432906914711887,
      1.63546024503986,
      1.6044269468962087,
      1.68056795363096,
      1.572410295933064,
      1.6606922780760798,
      1.596570627506742,
      1.6241688853341605,
      1.6055416717071522,
      1.581475785990456,
      1.5810184105644132,
      1.6220459061522008,
      1.5669137109344304,
      1.5292556540873041,
      1.6201210675069497,
      1.6042759873701238,
      1.6341265583290205,
      1.5840007351506251,
      1.6219317940511695,
      1.5503345533748796,
      1.5810608597552092,
      1.609478616923621,
      1.5973164775237891,
      1.6170319267749114,
      1.5930606155699576,
      1.6150785318536092,
      1.5519986420849523,
      1.5513590422772825,
      1.4937621533822216,
      1.5548636843208783,
      1.6686782399559197,
      1.5819923911553846,
      1.535457855316603,
      1.602970629279101,
      1.6537368706782396,
      1.5535074873455057,
      1.5651036518320924,
      1.5604621326241217,
      1.567594033595169,
      1.4693242643967261,
      1.5384953404618886,
      1.6311154393624465,
      1.4950576727461629,
      1.4826181694926959,
      1.5980170230981128,
      1.5849192297329964,
      1.447665849855383,
      1.5001577103797643,
      1.6143979891722984,
      1.5952473421716034,
      1.5827738095449095,
      1.6081222851620403,
      1.4676619216803743,
      1.486707012977007,
      1.5133411250671276,
      1.735329532140098,
      1.5049904811408965,
      1.5437796301175921,
      1.5717063935628284,
      1.5344026025629733,
      1.4705910910875792,
      1.5172039155533699,
      1.4626065478715324,
      1.5270096965451723,
      1.4332742009298665,
      1.5251014891987598,
      1.5001452421515507,
      1.5064123677172807,
      1.4585896306909185,
      1.4071911842704012,
      1.47185072529654,
      1.5755102314449383,
      1.5139079414110228,
      1.546506057978384,
      1.4590469817771519,
      1.534879145022248,
      1.4387745420634506,
      1.4909041790825273,
      1.4832715797955947,
      1.4737681087161303,
      1.5206348557677973,
      1.638267703828738,
      1.5278346271954968,
      1.5069399304308155,
      1.4166121421405213,
      1.3938656048414029,
      1.6038516377390426,
      1.4619098787957054,
      1.4915518660815934,
      1.5011131578566557,
      1.4562512459917096,
      1.4385778400105076,
      1.5744309334448883,
      1.4767156712118865,
      1.4932592575372845,
      1.4814301870850612,
      1.4439538717667415,
      1.5038437916745258,
      1.4828359867063443,
      1.4137451507784542,
      1.4115982405094665,
      1.4942069116708014,
      1.4443861827377669,
      1.4639900184140628,
      1.5727667647157917,
      1.5007239860350368,
      1.3884846216408437,
      1.546907434553541,
      1.4331271194337258,
      1.4834720315114527,
      1.4265359486269653,
      1.485931167085216,
      1.4620892365937466,
      1.4698127988607845,
      1.5600939523074229,
      1.5146549769566733,
      1.4039032827083302,
      1.566105995454806,
      1.4498449852530002,
      1.4694158888540272,
      1.428646768467609,
      1.5007134687301633,
      1.4522212295467718,
      1.482366278381772,
      1.455205872086769,
      1.4987680073222214,
      1.5165944312743653,
      1.4001459055475565,
      1.1638218499467023,
      1.154825687708133,
      1.14448108161534,
      1.138201620300554,
      1.1382317676360763,
      1.1471821300376783,
      1.1436051871080948,
      1.139184326350066,
      1.1397997662688544,
      1.1498962109976882,
      1.157008906430001,
      1.1355624215261373,
      1.1447047267664907,
      1.1444065545301128,
      1.1620837482489335,
      1.1427844851713027,
      1.1484170525593265,
      1.1430579578935338,
      1.150748741183534,
      1.146989423260393,
      1.14804300040661,
      1.1363985410011705,
      1.1413607046028036,
      1.1449137526507065,
      1.1362452597729236,
      1.1350930323617978,
      1.1437203135637746,
      1.1634353281102696,
      1.1335070934818194,
      1.150025710572683,
      1.1432952492140278,
      1.1343055892856753,
      1.1523669747577012,
      1.1513855276482716,
      1.1381688977433921,
      1.1401162008299663,
      1.157704284669223,
      1.1414289380694171,
      1.143580780194303,
      1.1370470636858165,
      1.1428919149271226,
      1.1434615893258822,
      1.140063713206618,
      1.1559107983616934,
      1.1478748432604753,
      1.1394779336683434,
      1.1305243941900645,
      1.1263683679566188,
      1.143760285251582,
      1.149656985661268,
      1.1450043603898186,
      1.1384627250035357,
      1.1388157086519408,
      1.1440130818875731,
      1.1391476411178292,
      1.1300212854620029,
      1.1483581854386842,
      1.1282355347774662,
      1.1359577513029357,
      1.1325650104745384,
      1.154940539802475,
      1.1535206898240853,
      1.1553340552299327,
      1.1277434219235771,
      1.143025799501316,
      1.1374717843831923,
      1.153179167604209,
      1.1501629774531696,
      1.1422958691510983,
      1.0955914568580407,
      1.090329901830725,
      1.0897907596739271,
      1.0906100200482758,
      1.090314790041719,
      1.090547277516123,
      1.0915155768578544,
      1.092909455666463,
      1.091732500951887,
      1.091078008237795,
      1.0897398727878478,
      1.0900717288013668,
      1.0902198318266445,
      1.0917073997051046,
      1.091446454791778,
      1.0906616693189704,
      1.0897840163959251,
      1.0908252591712257,
      1.0914160115184466,
      1.0922971470767109,
      1.092610039199169,
      1.0901174809385898,
      1.0897848610538208,
      1.0895204312932782,
      1.090628464235701,
      1.0909933461281844,
      1.0886777734150388,
      1.0911059715352918,
      1.0905899635738399,
      1.0910457975372632,
      1.091092785103969,
      1.0916453272358928
    ]
  },
  "val": {
    "steps": [
      0,
      1,
      2,
      3,
      4,
      5,
      6,
      7,
      8,
      9,
      10,
      11,
      12,
      13,
      14,
      15,
      16,
      17,
      18,
      19,
      20,
      21,
      22,
      23,
      24,
      25,
      26,
      27,
      28,
      29,
      30,
      31,
      32,
      33,
      34,
      35,
      36,
      37,
      38,
      39,
      40,
      41,
      42,
      43,
      44,
      45,
      46,
      47,
      48,
      49,
      50,
      51,
      52,
      53,
      54,
      55,
      56,
      57,
      58,
      59,
      60,
      61,
      62,
      63,
      64,
      65,
      66,
      67,
      68,
      69,
      70,
      71,
      72,
      73,
      74,
      75,
      76,
      77,
      78,
      79,
      80,
      81,
      82,
      83,
      84,
      85,
      86,
      87,
      88,
      89,
      90,
      91,
      92,
      93,
      94,
      95,
      96,
      97,
      98,
      99,
      100,
      101,
      102,
      103,
      104,
      105,
      106,
      107,
      108,
      109,
      110,
      111,
      112,
      113,
      114,
      115,
      116,
      117,
      118,
      119,
      120,
      121,
      122,
      123,
      124,
      125,
      126,
      127,
      128,
      129,
      130,
      131,
      132,
      133,
      134,
      135,
      136,
      137,
      138,
      139,
      140,
      141,
      142,
      143,
      144,
      145,
      146,
      147,
      148,
      149,
      150,
      151,
      152,
      153,
      154,
      155,
      156,
      157,
      158,
      159,
      160,
      161,
      162,
      163,
      164,
      165,
      166,
      167,
      168,
      169,
      170,
      171,
      172,
      173,
      174,
      175,
      176,
      177,
      178,
      179,
      180,
      181,
      182,
      183,
      184,
      185,
      186,
      187,
      188,
      189,
      190,
      191,
      192,
      193,
      194,
      195,
      196,
      197,
      198,
      199,
      200,
      201,
      202,
      203,
      204,
      205,
      206,
      207,
      208,
      209,
      210,
      211,
      212,
      213,
      214,
      215,
      216,
      217,
      218,
      219,
      220,
      221,
      222,
      223,
      224,
      225,
      226,
      227,
      228,
      229,
      230,
      231,
      232,
      233,
      234,
      235,
      236,
      237,
      238,
      239,
      240,
      241,
      242,
      243,
      244,
      245,
      246,
      247,
      248,
      249,
      250,
      251,
      252,
      253,
      254,
      255,
      256,
      257,
      258,
      259,
      260,
      261,
      262,
      263,
      264,
      265,
      266,
      267,
      268,
      269,
      270,
      271,
      272,
      273,
      274,
      275,
      276,
      277,
      278,
      279,
      280,
      281,
      282,
      283,
      284,
      285,
      286,
      287,
      288,
      289,
      290,
      291,
      292,
      293,
      294,
      295,
      296,
      297,
      298,
      299
    ],
    "timestamps": [
      "2022-08-16T11:19:27.987256",
      "2022-08-16T11:19:38.128728",
      "2022-08-16T11:19:47.909148",
      "2022-08-16T11:19:58.129751",
      "2022-08-16T11:20:09.147390",
      "2022-08-16T11:20:19.984102",
      "2022-08-16T11:20:30.980092",
      "2022-08-16T11:20:42.309610",
      "2022-08-16T11:20:53.651071",
      "2022-08-16T11:21:03.364128",
      "2022-08-16T11:21:13.935947",
      "2022-08-16T11:21:24.233373",
      "2022-08-16T11:21:34.848836",
      "2022-08-16T11:21:44.964416",
      "2022-08-16T11:21:53.951181",
      "2022-08-16T11:22:04.208692",
      "2022-08-16T11:22:16.441991",
      "2022-08-16T11:22:27.979705",
      "2022-08-16T11:22:38.966705",
      "2022-08-16T11:22:49.541197",
      "2022-08-16T11:22:59.350929",
      "2022-08-16T11:23:09.688398",
      "2022-08-16T11:23:20.455827",
      "2022-08-16T11:23:30.893303",
      "2022-08-16T11:23:40.934400",
      "2022-08-16T11:23:51.576045",
      "2022-08-16T11:24:01.668093",
      "2022-08-16T11:24:11.525784",
      "2022-08-16T11:24:21.911372",
      "2022-08-16T11:24:32.598428",
      "2022-08-16T11:24:42.441151",
      "2022-08-16T11:24:51.713547",
      "2022-08-16T11:25:01.068222",
      "2022-08-16T11:25:11.891800",
      "2022-08-16T11:25:21.180126",
      "2022-08-16T11:25:31.175422",
      "2022-08-16T11:25:40.904908",
      "2022-08-16T11:25:50.536164",
      "2022-08-16T11:26:01.422316",
      "2022-08-16T11:26:11.383472",
      "2022-08-16T11:26:20.875766",
      "2022-08-16T11:26:31.728830",
      "2022-08-16T11:26:41.902024",
      "2022-08-16T11:26:51.861207",
      "2022-08-16T11:27:01.895513",
      "2022-08-16T11:27:12.833608",
      "2022-08-16T11:27:23.856215",
      "2022-08-16T11:27:32.950198",
      "2022-08-16T11:27:42.855474",
      "2022-08-16T11:27:53.606112",
      "2022-08-16T11:28:03.278605",
      "2022-08-16T11:28:12.992998",
      "2022-08-16T11:28:22.631194",
      "2022-08-16T11:28:32.753322",
      "2022-08-16T11:28:42.876349",
      "2022-08-16T11:28:52.891359",
      "2022-08-16T11:29:03.953016",
      "2022-08-16T11:29:14.135054",
      "2022-08-16T11:29:24.609174",
      "2022-08-16T11:29:34.414839",
      "2022-08-16T11:29:44.479775",
      "2022-08-16T11:29:55.010699",
      "2022-08-16T11:30:05.301794",
      "2022-08-16T11:30:15.678311",
      "2022-08-16T11:30:25.819655",
      "2022-08-16T11:30:36.163278",
      "2022-08-16T11:30:46.582863",
      "2022-08-16T11:30:56.701014",
      "2022-08-16T11:31:06.866516",
      "2022-08-16T11:31:16.846057",
      "2022-08-16T11:31:27.742746",
      "2022-08-16T11:31:37.978687",
      "2022-08-16T11:31:49.044312",
      "2022-08-16T11:31:59.506039",
      "2022-08-16T11:32:09.224574",
      "2022-08-16T11:32:18.816386",
      "2022-08-16T11:32:29.046545",
      "2022-08-16T11:32:38.576970",
      "2022-08-16T11:32:48.259094",
      "2022-08-16T11:32:57.502117",
      "2022-08-16T11:33:07.011570",
      "2022-08-16T11:33:17.099386",
      "2022-08-16T11:33:27.899725",
      "2022-08-16T11:33:38.284054",
      "2022-08-16T11:33:48.509607",
      "2022-08-16T11:33:58.072705",
      "2022-08-16T11:34:08.842613",
      "2022-08-16T11:34:19.302360",
      "2022-08-16T11:34:29.748857",
      "2022-08-16T11:34:40.101028",
      "2022-08-16T11:34:49.656280",
      "2022-08-16T11:34:58.799878",
      "2022-08-16T11:35:08.885671",
      "2022-08-16T11:35:18.526202",
      "2022-08-16T11:35:28.703453",
      "2022-08-16T11:35:38.241496",
      "2022-08-16T11:35:48.082472",
      "2022-08-16T11:35:57.850140",
      "2022-08-16T11:36:07.621958",
      "2022-08-16T11:36:17.822637",
      "2022-08-16T11:36:27.174027",
      "2022-08-16T11:36:37.149523",
      "2022-08-16T11:36:47.449223",
      "2022-08-16T11:36:57.952566",
      "2022-08-16T11:37:08.031852",
      "2022-08-16T11:37:19.032699",
      "2022-08-16T11:37:29.031586",
      "2022-08-16T11:37:38.872501",
      "2022-08-16T11:37:49.318311",
      "2022-08-16T11:37:59.105195",
      "2022-08-16T11:38:09.336784",
      "2022-08-16T11:38:19.604238",
      "2022-08-16T11:38:30.159450",
      "2022-08-16T11:38:40.148097",
      "2022-08-16T11:38:50.227107",
      "2022-08-16T11:39:00.049513",
      "2022-08-16T11:39:10.164874",
      "2022-08-16T11:39:20.414063",
      "2022-08-16T11:39:29.731292",
      "2022-08-16T11:39:39.243737",
      "2022-08-16T11:39:48.691026",
      "2022-08-16T11:39:57.830887",
      "2022-08-16T11:40:07.075560",
      "2022-08-16T11:40:16.876205",
      "2022-08-16T11:40:27.155004",
      "2022-08-16T11:40:37.059490",
      "2022-08-16T11:40:47.335501",
      "2022-08-16T11:40:58.481882",
      "2022-08-16T11:41:11.615120",
      "2022-08-16T11:41:21.496829",
      "2022-08-16T11:41:31.443453",
      "2022-08-16T11:41:40.777385",
      "2022-08-16T11:41:50.810982",
      "2022-08-16T11:42:01.006744",
      "2022-08-16T11:42:10.729760",
      "2022-08-16T11:42:20.456440",
      "2022-08-16T11:42:30.088075",
      "2022-08-16T11:42:39.752950",
      "2022-08-16T11:42:50.216348",
      "2022-08-16T11:42:59.912669",
      "2022-08-16T11:43:10.205180",
      "2022-08-16T11:43:19.482728",
      "2022-08-16T11:43:30.028641",
      "2022-08-16T11:43:40.633378",
      "2022-08-16T11:43:50.452825",
      "2022-08-16T11:44:00.435829",
      "2022-08-16T11:44:10.985141",
      "2022-08-16T11:44:21.331594",
      "2022-08-16T11:44:31.419538",
      "2022-08-16T11:44:41.376892",
      "2022-08-16T11:44:52.241234",
      "2022-08-16T11:45:01.908187",
      "2022-08-16T11:45:11.885143",
      "2022-08-16T11:45:22.095500",
      "2022-08-16T11:45:31.921717",
      "2022-08-16T11:45:41.373547",
      "2022-08-16T11:45:51.798504",
      "2022-08-16T11:46:01.277278",
      "2022-08-16T11:46:11.817200",
      "2022-08-16T11:46:21.442106",
      "2022-08-16T11:46:31.335799",
      "2022-08-16T11:46:42.023947",
      "2022-08-16T11:46:52.353244",
      "2022-08-16T11:47:01.534935",
      "2022-08-16T11:47:11.221991",
      "2022-08-16T11:47:20.841910",
      "2022-08-16T11:47:30.255681",
      "2022-08-16T11:47:40.282977",
      "2022-08-16T11:47:49.734889",
      "2022-08-16T11:47:59.859259",
      "2022-08-16T11:48:10.666113",
      "2022-08-16T11:48:21.434387",
      "2022-08-16T11:48:31.953568",
      "2022-08-16T11:48:42.428399",
      "2022-08-16T11:48:52.041215",
      "2022-08-16T11:49:02.128531",
      "2022-08-16T11:49:10.988808",
      "2022-08-16T11:49:19.552414",
      "2022-08-16T11:49:27.989086",
      "2022-08-16T11:49:36.528845",
      "2022-08-16T11:49:46.188214",
      "2022-08-16T11:49:55.230007",
      "2022-08-16T11:50:04.521459",
      "2022-08-16T11:50:13.263399",
      "2022-08-16T11:50:22.710171",
      "2022-08-16T11:50:33.129139",
      "2022-08-16T11:50:41.940015",
      "2022-08-16T11:50:51.325067",
      "2022-08-16T11:50:59.947390",
      "2022-08-16T11:51:08.414380",
      "2022-08-16T11:51:17.240509",
      "2022-08-16T11:51:26.021436",
      "2022-08-16T11:51:35.049345",
      "2022-08-16T11:51:43.837581",
      "2022-08-16T11:51:53.052865",
      "2022-08-16T11:52:01.781716",
      "2022-08-16T11:52:11.295322",
      "2022-08-16T11:52:20.736055",
      "2022-08-16T11:52:29.698860",
      "2022-08-16T11:52:38.274210",
      "2022-08-16T11:52:47.158833",
      "2022-08-16T11:52:56.727539",
      "2022-08-16T11:53:06.281723",
      "2022-08-16T11:53:15.623052",
      "2022-08-16T11:53:24.697418",
      "2022-08-16T11:53:33.702127",
      "2022-08-16T11:53:43.313209",
      "2022-08-16T11:53:52.716201",
      "2022-08-16T11:54:02.143879",
      "2022-08-16T11:54:10.849579",
      "2022-08-16T11:54:19.325845",
      "2022-08-16T11:54:27.636241",
      "2022-08-16T11:54:36.217198",
      "2022-08-16T11:54:44.820236",
      "2022-08-16T11:54:53.393275",
      "2022-08-16T11:55:02.075763",
      "2022-08-16T11:55:11.048538",
      "2022-08-16T11:55:19.440164",
      "2022-08-16T11:55:28.122026",
      "2022-08-16T11:55:36.972594",
      "2022-08-16T11:55:45.662854",
      "2022-08-16T11:55:54.183092",
      "2022-08-16T11:56:02.672302",
      "2022-08-16T11:56:11.277893",
      "2022-08-16T11:56:19.802531",
      "2022-08-16T11:56:28.255988",
      "2022-08-16T11:56:38.023371",
      "2022-08-16T11:56:46.911365",
      "2022-08-16T11:56:56.353654",
      "2022-08-16T11:57:05.353561",
      "2022-08-16T11:57:14.006891",
      "2022-08-16T11:57:22.679260",
      "2022-08-16T11:57:31.353094",
      "2022-08-16T11:57:40.270289",
      "2022-08-16T11:57:49.528460",
      "2022-08-16T11:57:58.185205",
      "2022-08-16T11:58:07.366667",
      "2022-08-16T11:58:16.513736",
      "2022-08-16T11:58:25.213632",
      "2022-08-16T11:58:34.257817",
      "2022-08-16T11:58:42.596169",
      "2022-08-16T11:58:51.080298",
      "2022-08-16T11:59:00.488709",
      "2022-08-16T11:59:08.884664",
      "2022-08-16T11:59:18.061386",
      "2022-08-16T11:59:26.868598",
      "2022-08-16T11:59:35.943224",
      "2022-08-16T11:59:44.892965",
      "2022-08-16T11:59:54.186089",
      "2022-08-16T12:00:02.962406",
      "2022-08-16T12:00:11.859244",
      "2022-08-16T12:00:21.535819",
      "2022-08-16T12:00:31.395486",
      "2022-08-16T12:00:40.233170",
      "2022-08-16T12:00:48.682287",
      "2022-08-16T12:00:57.889883",
      "2022-08-16T12:01:06.741609",
      "2022-08-16T12:01:15.500618",
      "2022-08-16T12:01:25.455209",
      "2022-08-16T12:01:34.206570",
      "2022-08-16T12:01:43.163355",
      "2022-08-16T12:01:51.765207",
      "2022-08-16T12:02:00.393619",
      "2022-08-16T12:02:08.928730",
      "2022-08-16T12:02:17.764287",
      "2022-08-16T12:02:26.813073",
      "2022-08-16T12:02:37.718658",
      "2022-08-16T12:02:46.484551",
      "2022-08-16T12:02:56.176359",
      "2022-08-16T12:03:04.893657",
      "2022-08-16T12:03:13.863357",
      "2022-08-16T12:03:22.726766",
      "2022-08-16T12:03:31.409085",
      "2022-08-16T12:03:40.304120",
      "2022-08-16T12:03:48.547755",
      "2022-08-16T12:03:57.961386",
      "2022-08-16T12:04:07.433711",
      "2022-08-16T12:04:16.332361",
      "2022-08-16T12:04:24.846596",
      "2022-08-16T12:04:33.555023",
      "2022-08-16T12:04:43.404274",
      "2022-08-16T12:04:52.247916",
      "2022-08-16T12:05:00.992914",
      "2022-08-16T12:05:09.869857",
      "2022-08-16T12:05:18.823904",
      "2022-08-16T12:05:28.893282",
      "2022-08-16T12:05:37.456159",
      "2022-08-16T12:05:45.734438",
      "2022-08-16T12:05:55.324042",
      "2022-08-16T12:06:03.807571",
      "2022-08-16T12:06:13.193172",
      "2022-08-16T12:06:21.535193",
      "2022-08-16T12:06:30.018266",
      "2022-08-16T12:06:38.824755",
      "2022-08-16T12:06:47.399597",
      "2022-08-16T12:06:55.685050",
      "2022-08-16T12:07:04.106449",
      "2022-08-16T12:07:13.666953",
      "2022-08-16T12:07:22.963967",
      "2022-08-16T12:07:31.585389"
    ],
    "values": [
      7.721175359630878,
      4.428830800758006,
      3.6797334806008406,
      2.7418724025645065,
      2.6637956932425118,
      2.9826557444042647,
      2.344300428194887,
      2.2364367831428162,
      2.5705978882687934,
      2.1278298802251614,
      1.9126632195279694,
      2.0517704803348353,
      2.5856147721243032,
      1.6830057406857284,
      1.8571707777063124,
      1.7848261139423967,
      1.9867971687729105,
      1.6905261768176618,
      1.7166633436183292,
      1.68770767343766,
      2.0398754169627913,
      2.016177779469228,
      2.0879027332460987,
      1.6699319376083925,
      2.0152237277057505,
      1.6616964574378343,
      1.6909054338922598,
      1.773628007569294,
      1.5985758310062552,
      2.087537421948432,
      1.6952382623894096,
      1.6294366468327584,
      1.8365886538556166,
      1.6330081704410915,
      1.5267307754085895,
      1.616932899075014,
      2.150487210059657,
      1.598014855477989,
      1.616234160661666,
      1.7480214564378225,
      1.6085400108004706,
      1.4666588131358702,
      1.6467497125192745,
      1.625088457918292,
      1.56815496191023,
      1.6166430222523425,
      1.5123268016368139,
      1.6129384010838552,
      1.5319124041239567,
      1.62791026660112,
      1.588546414606171,
      1.651350479272736,
      1.503149316692218,
      1.5014692316837113,
      1.4345715327490698,
      1.4558245732695694,
      1.507913370773887,
      1.5168856460570626,
      1.4868986220441558,
      1.6620778496443538,
      1.6028356681391498,
      1.518469850648816,
      1.401028155480891,
      1.74649661766067,
      1.6133005822133928,
      1.5511793629019823,
      1.4713125698775438,
      1.8748903709502136,
      1.354139978070505,
      1.4464688872404259,
      1.762776509876535,
      1.4550640487937292,
      1.6397629769593391,
      1.4827046500500678,
      1.4535691842668665,
      1.536901646896244,
      1.9257469819896302,
      1.5329475386650528,
      1.4534503440341602,
      1.4490734752072245,
      1.442904196587814,
      1.5993707975127935,
      1.6124434238441583,
      1.4171984647490217,
      1.7288964994272893,
      1.5798964220560072,
      1.474796465115427,
      1.5996304376683574,
      1.464333351313035,
      1.3527240905254783,
      1.4064174736613961,
      1.581729527276182,
      1.5520755368599086,
      1.4708444933015559,
      1.7335478582476107,
      1.6074408689846038,
      1.5635130247114057,
      1.5200510472763624,
      1.7241101053616184,
      1.3813420365825173,
      1.6911914838805095,
      1.3977962432476017,
      1.8763630232031363,
      1.5381866878673132,
      1.6170921490992336,
      1.7045533575994938,
      1.3953954997536286,
      1.3583251797964775,
      1.3884890833951677,
      1.3649264204553637,
      1.4114102015386556,
      1.514530793746355,
      1.378905327500194,
      1.6699465429243354,
      1.3870297869752068,
      1.482691981453313,
      1.4940453472235027,
      1.4288289078232617,
      1.500729063942932,
      1.7018880614402554,
      1.7179543455814557,
      1.664670708581398,
      1.4335579232242497,
      1.4094992757108395,
      1.3652599401060805,
      1.4364695839927295,
      1.505917691911971,
      1.456355349688181,
      1.3274088450437451,
      1.3847593837607715,
      1.331673278576402,
      1.3449516618834545,
      1.3936235501369574,
      1.4293745461798388,
      1.4505858775134328,
      1.43787622008856,
      1.5677588339939457,
      1.499970067090398,
      1.3953113672669668,
      1.3740155600614576,
      1.428415953921503,
      1.3934308234731165,
      1.4964448318811685,
      1.4599305694375917,
      1.680544686225998,
      1.3479896524335016,
      1.453686612101247,
      1.4359216604221252,
      1.5760188788366651,
      1.3960822802904076,
      1.4493988609813626,
      1.3848337879330415,
      1.3793127423837266,
      1.6023387265501148,
      1.4933553402378452,
      1.44552715007761,
      1.4623012618728015,
      1.6623002627239862,
      1.450879717001125,
      1.5147242047644318,
      1.5086881764985793,
      1.3188827877831306,
      1.354629007151105,
      1.6445879130616214,
      1.3928824841703595,
      1.4494832459638705,
      1.4755526849434046,
      1.5916185426918619,
      1.3216585811496548,
      1.4236934224894822,
      1.4330755484444895,
      1.3835383175364557,
      1.4274195838050494,
      1.4716401366243546,
      1.7245466041214579,
      1.4605181816357287,
      1.4636985026858997,
      1.4259817153860714,
      1.4697490769873596,
      1.3730195553558848,
      1.491181868893684,
      1.400208021434112,
      1.6094088196838734,
      1.485937460327163,
      1.292735241261514,
      1.3856855454905095,
      1.724565706197074,
      1.6204818437188475,
      1.4294874338017092,
      1.4322160347069794,
      1.3924726028599794,
      1.3624284282787762,
      1.3684318399443796,
      1.3067624201744978,
      1.3370166350584498,
      1.3183017528186354,
      1.5916963515356128,
      1.5870769883685218,
      1.2905087806371582,
      1.2133499679556252,
      1.2321385706077583,
      1.225255992699135,
      1.212766147156873,
      1.1904881754112566,
      1.193465444637894,
      1.217830740973315,
      1.1928049156307226,
      1.1965427462736131,
      1.188232707107005,
      1.183157109544827,
      1.2070747581137458,
      1.1972022352956155,
      1.197124736030864,
      1.185741627656915,
      1.2119786420631664,
      1.240592304928852,
      1.220954140625898,
      1.224526118300553,
      1.208947155384505,
      1.1955494995844465,
      1.1947470049988502,
      1.2049170248660364,
      1.2726699751856272,
      1.2093879542458987,
      1.1957244618090852,
      1.2012148257525093,
      1.1914112497254388,
      1.1781093638070603,
      1.2063618965720224,
      1.1908982417111997,
      1.193381013891754,
      1.2091368770352764,
      1.2135091567594245,
      1.2065763422209281,
      1.210125955802858,
      1.2388160118153677,
      1.2084261578810465,
      1.211265326714166,
      1.1845746605065832,
      1.295412885018273,
      1.205361873254499,
      1.3442788760489386,
      1.2277880616073427,
      1.2014702547814482,
      1.2036911719182342,
      1.2019122821879555,
      1.2168187761200107,
      1.2063923839391355,
      1.2158649799794161,
      1.1921703458452915,
      1.1891350556805724,
      1.213069653999385,
      1.179683890704657,
      1.2172905782631442,
      1.2414691750734648,
      1.1961382430374423,
      1.2130177633406836,
      1.185642406195674,
      1.2071802491199741,
      1.1929151043596524,
      1.2906341525411582,
      1.1759319888114141,
      1.181178158261006,
      1.2082891738998307,
      1.1944683271618106,
      1.193486798134359,
      1.2835052938015454,
      1.197183319932176,
      1.165962282363132,
      1.1650679853020762,
      1.170376436528267,
      1.1661949856901423,
      1.1656901272874132,
      1.1646916074757712,
      1.1671635476519613,
      1.1661615339470517,
      1.165761259977276,
      1.1663884199950185,
      1.1707829671072056,
      1.1686539243301395,
      1.1663297777279917,
      1.1689566771549627,
      1.1669587316279566,
      1.1643337386118402,
      1.1643852613174301,
      1.1698725373376773,
      1.1715129629540333,
      1.1779160167120153,
      1.1776576205751474,
      1.1667107473631655,
      1.1648516790745638,
      1.171943269023588,
      1.1698665251082954,
      1.1687340486679756,
      1.1640765115221454,
      1.163692942874328,
      1.1652574581198345,
      1.1655008710544785,
      1.1636087711228544,
      1.1638225139704992
    ]
  }
}