INFO - siren_vae - Running command 'run'
INFO - siren_vae - Started run with ID "5"
[ENCODED STRUCTURE] Using faithful BN structure.
[MODEL TYPE] IW-SIReN-VAE with DReG (k=8)
[LOADING FROM CHECKPOINT] Start epoch: 200
  0%|          | 0/200 [00:00<?, ?it/s]Train -ELBO: 37.98264, Val -ELBO: 37.86752:   0%|          | 1/200 [01:53<6:15:38, 113.26s/it]Train -ELBO: 37.99572, Val -ELBO: 37.87952:   1%|          | 2/200 [03:48<6:18:31, 114.70s/it]Train -ELBO: 37.97943, Val -ELBO: 37.88285:   2%|▏         | 3/200 [05:42<6:14:36, 114.09s/it]Train -ELBO: 37.99196, Val -ELBO: 37.88897:   2%|▏         | 4/200 [07:36<6:12:30, 114.04s/it]Train -ELBO: 37.98895, Val -ELBO: 37.84922:   2%|▎         | 5/200 [09:32<6:13:31, 114.93s/it]Train -ELBO: 38.00213, Val -ELBO: 37.81050:   3%|▎         | 6/200 [11:21<6:04:20, 112.69s/it]Train -ELBO: 37.97810, Val -ELBO: 37.80989:   4%|▎         | 7/200 [13:09<5:57:44, 111.21s/it]Train -ELBO: 43.44721, Val -ELBO: 38.86281:   4%|▍         | 8/200 [15:05<6:01:04, 112.84s/it]Train -ELBO: 38.46483, Val -ELBO: 38.09737:   4%|▍         | 9/200 [17:08<6:09:08, 115.96s/it]Train -ELBO: 38.13884, Val -ELBO: 37.99362:   5%|▌         | 10/200 [19:12<6:14:55, 118.40s/it]Train -ELBO: 38.04991, Val -ELBO: 37.91818:   6%|▌         | 11/200 [21:08<6:10:46, 117.71s/it]Train -ELBO: 38.00710, Val -ELBO: 37.88887:   6%|▌         | 12/200 [22:53<5:57:08, 113.98s/it]Train -ELBO: 37.98938, Val -ELBO: 37.83106:   6%|▋         | 13/200 [24:39<5:47:03, 111.36s/it]Train -ELBO: 37.98184, Val -ELBO: 37.85629:   7%|▋         | 14/200 [26:28<5:43:29, 110.80s/it]Train -ELBO: 37.97206, Val -ELBO: 37.90469:   8%|▊         | 15/200 [28:16<5:39:08, 109.99s/it]Train -ELBO: 37.95725, Val -ELBO: 37.80037:   8%|▊         | 16/200 [30:01<5:32:47, 108.52s/it]Train -ELBO: 37.98168, Val -ELBO: 37.84044:   8%|▊         | 17/200 [31:49<5:29:50, 108.14s/it]Train -ELBO: 37.96064, Val -ELBO: 37.79844:   9%|▉         | 18/200 [33:38<5:29:06, 108.50s/it]Train -ELBO: 37.96406, Val -ELBO: 37.94840:  10%|▉         | 19/200 [35:30<5:30:21, 109.51s/it]Train -ELBO: 37.96048, Val -ELBO: 37.80067:  10%|█         | 20/200 [37:15<5:24:57, 108.32s/it]Train -ELBO: 37.95122, Val -ELBO: 37.85986:  10%|█         | 21/200 [39:03<5:22:08, 107.98s/it]Train -ELBO: 37.96725, Val -ELBO: 37.85782:  11%|█         | 22/200 [40:49<5:19:07, 107.57s/it]Train -ELBO: 37.95884, Val -ELBO: 37.81346:  12%|█▏        | 23/200 [42:37<5:17:47, 107.73s/it]Train -ELBO: 37.94399, Val -ELBO: 37.77509:  12%|█▏        | 24/200 [44:26<5:16:59, 108.07s/it]Train -ELBO: 37.95068, Val -ELBO: 37.79686:  12%|█▎        | 25/200 [46:14<5:15:17, 108.10s/it]Train -ELBO: 37.94513, Val -ELBO: 37.80989:  13%|█▎        | 26/200 [48:02<5:13:01, 107.94s/it]Train -ELBO: 37.94793, Val -ELBO: 37.83383:  14%|█▎        | 27/200 [49:49<5:10:39, 107.74s/it]Train -ELBO: 37.96995, Val -ELBO: 37.78514:  14%|█▍        | 28/200 [51:37<5:08:42, 107.69s/it]Train -ELBO: 37.95093, Val -ELBO: 37.81242:  14%|█▍        | 29/200 [53:23<5:05:14, 107.10s/it]Train -ELBO: 37.94531, Val -ELBO: 37.82296:  15%|█▌        | 30/200 [55:11<5:04:10, 107.36s/it]Train -ELBO: 37.95697, Val -ELBO: 37.81854:  16%|█▌        | 31/200 [57:02<5:06:03, 108.66s/it]Train -ELBO: 37.95358, Val -ELBO: 37.85763:  16%|█▌        | 32/200 [59:06<5:16:53, 113.18s/it]Train -ELBO: 37.94616, Val -ELBO: 37.80305:  16%|█▋        | 33/200 [1:01:12<5:26:04, 117.15s/it]Train -ELBO: 37.94387, Val -ELBO: 37.76477:  17%|█▋        | 34/200 [1:03:19<5:31:59, 119.99s/it]Train -ELBO: 37.93508, Val -ELBO: 37.82423:  18%|█▊        | 35/200 [1:05:17<5:28:42, 119.53s/it]Train -ELBO: 37.94834, Val -ELBO: 37.84693:  18%|█▊        | 36/200 [1:07:06<5:18:01, 116.35s/it]Train -ELBO: 37.95270, Val -ELBO: 37.84106:  18%|█▊        | 37/200 [1:08:55<5:09:24, 113.89s/it]Train -ELBO: 37.94509, Val -ELBO: 37.79229:  19%|█▉        | 38/200 [1:10:45<5:04:27, 112.76s/it]Train -ELBO: 37.94768, Val -ELBO: 37.86795:  20%|█▉        | 39/200 [1:12:34<4:59:34, 111.64s/it]Train -ELBO: 37.96162, Val -ELBO: 37.87834:  20%|██        | 40/200 [1:14:23<4:56:15, 111.10s/it]Train -ELBO: 37.94178, Val -ELBO: 37.89794:  20%|██        | 41/200 [1:16:12<4:52:20, 110.32s/it]Train -ELBO: 37.94279, Val -ELBO: 37.83412:  21%|██        | 42/200 [1:18:00<4:48:35, 109.59s/it]Train -ELBO: 37.94930, Val -ELBO: 37.82611:  22%|██▏       | 43/200 [1:19:48<4:45:20, 109.05s/it]Train -ELBO: 37.95671, Val -ELBO: 37.80692:  22%|██▏       | 44/200 [1:21:35<4:42:13, 108.55s/it]Train -ELBO: 37.95523, Val -ELBO: 37.89643:  22%|██▎       | 45/200 [1:23:25<4:41:47, 109.08s/it]Train -ELBO: 37.91908, Val -ELBO: 37.83001:  23%|██▎       | 46/200 [1:25:15<4:40:15, 109.19s/it]Train -ELBO: 37.95206, Val -ELBO: 37.80431:  24%|██▎       | 47/200 [1:27:03<4:37:56, 109.00s/it]Train -ELBO: 37.92718, Val -ELBO: 37.80777:  24%|██▍       | 48/200 [1:28:51<4:34:48, 108.48s/it]Train -ELBO: 37.94265, Val -ELBO: 37.78699:  24%|██▍       | 49/200 [1:30:38<4:31:57, 108.06s/it]Train -ELBO: 37.94869, Val -ELBO: 37.83037:  25%|██▌       | 50/200 [1:32:27<4:31:10, 108.47s/it]Train -ELBO: 37.93763, Val -ELBO: 37.96553:  26%|██▌       | 51/200 [1:34:16<4:29:47, 108.64s/it]Train -ELBO: 37.96210, Val -ELBO: 37.76720:  26%|██▌       | 52/200 [1:36:06<4:28:56, 109.03s/it]Train -ELBO: 37.92042, Val -ELBO: 37.82860:  26%|██▋       | 53/200 [1:37:58<4:28:51, 109.74s/it]Train -ELBO: 37.93318, Val -ELBO: 37.83081:  27%|██▋       | 54/200 [1:39:47<4:26:58, 109.72s/it]Train -ELBO: 37.92551, Val -ELBO: 37.84353:  28%|██▊       | 55/200 [1:41:35<4:23:59, 109.24s/it]Train -ELBO: 37.94930, Val -ELBO: 37.80759:  28%|██▊       | 56/200 [1:43:26<4:23:06, 109.63s/it]Train -ELBO: 37.94994, Val -ELBO: 37.83404:  28%|██▊       | 57/200 [1:45:17<4:22:24, 110.10s/it]Train -ELBO: 37.95760, Val -ELBO: 37.86574:  29%|██▉       | 58/200 [1:47:06<4:20:05, 109.90s/it]Train -ELBO: 37.95050, Val -ELBO: 37.79735:  30%|██▉       | 59/200 [1:48:55<4:17:14, 109.46s/it]Train -ELBO: 37.94709, Val -ELBO: 37.83699:  30%|███       | 60/200 [1:50:43<4:14:25, 109.04s/it]Train -ELBO: 37.90890, Val -ELBO: 37.77955:  30%|███       | 61/200 [1:52:32<4:12:42, 109.08s/it]Train -ELBO: 37.93291, Val -ELBO: 37.85316:  31%|███       | 62/200 [1:54:19<4:09:09, 108.33s/it]Train -ELBO: 37.93097, Val -ELBO: 37.78748:  32%|███▏      | 63/200 [1:56:07<4:07:01, 108.19s/it]Train -ELBO: 37.92919, Val -ELBO: 37.78513:  32%|███▏      | 64/200 [1:57:57<4:06:47, 108.88s/it]Train -ELBO: 37.91599, Val -ELBO: 37.78637:  32%|███▎      | 65/200 [1:59:50<4:07:28, 109.99s/it]Train -ELBO: 37.91915, Val -ELBO: 37.70715:  33%|███▎      | 66/200 [2:01:45<4:08:55, 111.46s/it]Train -ELBO: 37.89887, Val -ELBO: 37.83250:  34%|███▎      | 67/200 [2:03:40<4:09:31, 112.57s/it]Train -ELBO: 37.92179, Val -ELBO: 37.72857:  34%|███▍      | 68/200 [2:05:36<4:10:15, 113.76s/it]Train -ELBO: 37.92439, Val -ELBO: 37.89736:  34%|███▍      | 69/200 [2:07:34<4:10:43, 114.83s/it]Train -ELBO: 37.94403, Val -ELBO: 37.77065:  35%|███▌      | 70/200 [2:09:30<4:10:04, 115.42s/it]Train -ELBO: 37.93007, Val -ELBO: 37.78950:  36%|███▌      | 71/200 [2:11:29<4:10:14, 116.39s/it]Train -ELBO: 37.90683, Val -ELBO: 37.77726:  36%|███▌      | 72/200 [2:13:29<4:10:25, 117.39s/it]Train -ELBO: 37.91784, Val -ELBO: 37.83008:  36%|███▋      | 73/200 [2:15:29<4:10:14, 118.23s/it]Train -ELBO: 43.28018, Val -ELBO: 40.33307:  37%|███▋      | 74/200 [2:17:28<4:09:00, 118.57s/it]Train -ELBO: 38.73296, Val -ELBO: 38.12694:  38%|███▊      | 75/200 [2:19:27<4:07:06, 118.61s/it]Train -ELBO: 38.12056, Val -ELBO: 37.88123:  38%|███▊      | 76/200 [2:21:19<4:01:16, 116.75s/it]Train -ELBO: 37.98962, Val -ELBO: 37.81427:  38%|███▊      | 77/200 [2:23:08<3:54:29, 114.39s/it]Train -ELBO: 37.95049, Val -ELBO: 37.80424:  39%|███▉      | 78/200 [2:24:57<3:49:04, 112.66s/it]Train -ELBO: 37.93385, Val -ELBO: 37.84766:  40%|███▉      | 79/200 [2:26:43<3:43:14, 110.70s/it]Train -ELBO: 37.91490, Val -ELBO: 37.78309:  40%|████      | 80/200 [2:28:30<3:39:21, 109.68s/it]Train -ELBO: 37.91718, Val -ELBO: 37.80999:  40%|████      | 81/200 [2:30:22<3:38:39, 110.25s/it]Train -ELBO: 37.91363, Val -ELBO: 37.77831:  41%|████      | 82/200 [2:32:13<3:37:01, 110.35s/it]Train -ELBO: 37.91436, Val -ELBO: 37.75319:  42%|████▏     | 83/200 [2:34:01<3:34:10, 109.83s/it]Train -ELBO: 37.89810, Val -ELBO: 37.72767:  42%|████▏     | 84/200 [2:35:48<3:30:53, 109.08s/it]Train -ELBO: 37.89394, Val -ELBO: 37.77829:  42%|████▎     | 85/200 [2:37:34<3:26:49, 107.91s/it]Train -ELBO: 37.89464, Val -ELBO: 37.77225:  43%|████▎     | 86/200 [2:39:19<3:23:30, 107.11s/it]Train -ELBO: 37.92713, Val -ELBO: 37.80469:  44%|████▎     | 87/200 [2:41:04<3:20:40, 106.55s/it]Train -ELBO: 37.90098, Val -ELBO: 37.79843:  44%|████▍     | 88/200 [2:42:49<3:18:11, 106.17s/it]Train -ELBO: 37.88647, Val -ELBO: 37.76196:  44%|████▍     | 89/200 [2:44:35<3:16:21, 106.14s/it]Train -ELBO: 37.89343, Val -ELBO: 37.77772:  45%|████▌     | 90/200 [2:46:22<3:14:46, 106.24s/it]Train -ELBO: 37.90713, Val -ELBO: 37.87029:  46%|████▌     | 91/200 [2:48:07<3:12:20, 105.88s/it]Train -ELBO: 37.90717, Val -ELBO: 37.76105:  46%|████▌     | 92/200 [2:49:52<3:10:21, 105.76s/it]Train -ELBO: 37.90961, Val -ELBO: 37.80360:  46%|████▋     | 93/200 [2:51:38<3:08:27, 105.68s/it]Train -ELBO: 37.88891, Val -ELBO: 37.71066:  47%|████▋     | 94/200 [2:53:23<3:06:28, 105.55s/it]Train -ELBO: 37.90380, Val -ELBO: 37.78922:  48%|████▊     | 95/200 [2:55:08<3:04:29, 105.42s/it]Train -ELBO: 37.90415, Val -ELBO: 37.88427:  48%|████▊     | 96/200 [2:56:53<3:02:34, 105.33s/it]Train -ELBO: 37.93283, Val -ELBO: 37.79931:  48%|████▊     | 97/200 [2:58:39<3:00:41, 105.26s/it]Train -ELBO: 37.91625, Val -ELBO: 37.75658:  49%|████▉     | 98/200 [3:00:24<2:58:53, 105.23s/it]Train -ELBO: 37.91522, Val -ELBO: 37.76694:  50%|████▉     | 99/200 [3:02:09<2:57:03, 105.18s/it]Train -ELBO: 37.90619, Val -ELBO: 37.82030:  50%|█████     | 100/200 [3:03:54<2:55:25, 105.25s/it]Train -ELBO: 37.89689, Val -ELBO: 37.83946:  50%|█████     | 101/200 [3:05:39<2:53:37, 105.23s/it]Train -ELBO: 37.90964, Val -ELBO: 37.75221:  51%|█████     | 102/200 [3:07:24<2:51:49, 105.20s/it]Train -ELBO: 37.89861, Val -ELBO: 37.83088:  52%|█████▏    | 103/200 [3:09:10<2:50:25, 105.42s/it]Train -ELBO: 37.90275, Val -ELBO: 37.76823:  52%|█████▏    | 104/200 [3:10:57<2:49:15, 105.79s/it]Train -ELBO: 37.89396, Val -ELBO: 37.79608:  52%|█████▎    | 105/200 [3:12:44<2:47:54, 106.05s/it]Train -ELBO: 37.88770, Val -ELBO: 37.73714:  53%|█████▎    | 106/200 [3:14:30<2:46:23, 106.21s/it]Train -ELBO: 37.89648, Val -ELBO: 37.74939:  54%|█████▎    | 107/200 [3:16:17<2:44:47, 106.32s/it]Train -ELBO: 37.89473, Val -ELBO: 37.81346:  54%|█████▍    | 108/200 [3:18:03<2:43:08, 106.39s/it]Train -ELBO: 37.89528, Val -ELBO: 37.77447:  55%|█████▍    | 109/200 [3:19:50<2:41:25, 106.43s/it]Epoch   310: reducing learning rate of group 0 to 1.0000e-04.
Train -ELBO: 37.90355, Val -ELBO: 37.73356:  55%|█████▌    | 110/200 [3:21:37<2:39:44, 106.50s/it]Train -ELBO: 37.73427, Val -ELBO: 37.60270:  56%|█████▌    | 111/200 [3:23:23<2:37:58, 106.50s/it]Train -ELBO: 37.70999, Val -ELBO: 37.59921:  56%|█████▌    | 112/200 [3:25:10<2:36:13, 106.52s/it]Train -ELBO: 37.71780, Val -ELBO: 37.59942:  56%|█████▋    | 113/200 [3:26:56<2:34:30, 106.56s/it]Train -ELBO: 37.71174, Val -ELBO: 37.59913:  57%|█████▋    | 114/200 [3:28:43<2:32:44, 106.57s/it]Train -ELBO: 37.71071, Val -ELBO: 37.60215:  57%|█████▊    | 115/200 [3:30:30<2:31:02, 106.61s/it]Train -ELBO: 37.70789, Val -ELBO: 37.59752:  58%|█████▊    | 116/200 [3:32:16<2:29:16, 106.62s/it]Train -ELBO: 37.71051, Val -ELBO: 37.59852:  58%|█████▊    | 117/200 [3:34:03<2:27:28, 106.61s/it]Train -ELBO: 37.70905, Val -ELBO: 37.60122:  59%|█████▉    | 118/200 [3:35:49<2:25:42, 106.61s/it]Train -ELBO: 37.71552, Val -ELBO: 37.60552:  60%|█████▉    | 119/200 [3:37:36<2:23:55, 106.62s/it]Train -ELBO: 37.71425, Val -ELBO: 37.60063:  60%|██████    | 120/200 [3:39:23<2:22:09, 106.62s/it]Train -ELBO: 37.71422, Val -ELBO: 37.60531:  60%|██████    | 121/200 [3:41:09<2:20:21, 106.60s/it]Train -ELBO: 37.71506, Val -ELBO: 37.60007:  61%|██████    | 122/200 [3:42:56<2:18:36, 106.63s/it]Train -ELBO: 37.71089, Val -ELBO: 37.61130:  62%|██████▏   | 123/200 [3:44:43<2:16:48, 106.60s/it]Train -ELBO: 37.71213, Val -ELBO: 37.60836:  62%|██████▏   | 124/200 [3:46:30<2:15:18, 106.83s/it]Train -ELBO: 37.70998, Val -ELBO: 37.60418:  62%|██████▎   | 125/200 [3:48:21<2:15:18, 108.24s/it]Train -ELBO: 37.71568, Val -ELBO: 37.59461:  63%|██████▎   | 126/200 [3:50:14<2:15:14, 109.65s/it]Train -ELBO: 37.71054, Val -ELBO: 37.60064:  64%|██████▎   | 127/200 [3:52:07<2:14:20, 110.41s/it]Train -ELBO: 37.71601, Val -ELBO: 37.59614:  64%|██████▍   | 128/200 [3:53:59<2:13:06, 110.93s/it]Train -ELBO: 37.71438, Val -ELBO: 37.59903:  64%|██████▍   | 129/200 [3:55:51<2:11:52, 111.44s/it]Train -ELBO: 37.71167, Val -ELBO: 37.60460:  65%|██████▌   | 130/200 [3:57:44<2:10:17, 111.68s/it]Train -ELBO: 37.71416, Val -ELBO: 37.60151:  66%|██████▌   | 131/200 [3:59:36<2:08:38, 111.86s/it]Train -ELBO: 37.71590, Val -ELBO: 37.61804:  66%|██████▌   | 132/200 [4:01:29<2:07:08, 112.18s/it]Epoch   333: reducing learning rate of group 0 to 1.0000e-05.
Train -ELBO: 37.71194, Val -ELBO: 37.59565:  66%|██████▋   | 133/200 [4:03:20<2:05:01, 111.96s/it]Train -ELBO: 37.69491, Val -ELBO: 37.58787:  67%|██████▋   | 134/200 [4:05:09<2:02:01, 110.93s/it]Train -ELBO: 37.68632, Val -ELBO: 37.58491:  68%|██████▊   | 135/200 [4:06:54<1:58:25, 109.32s/it]Train -ELBO: 37.68773, Val -ELBO: 37.58154:  68%|██████▊   | 136/200 [4:08:40<1:55:19, 108.11s/it]Train -ELBO: 37.68811, Val -ELBO: 37.58587:  68%|██████▊   | 137/200 [4:10:25<1:52:35, 107.23s/it]Train -ELBO: 37.69086, Val -ELBO: 37.57964:  69%|██████▉   | 138/200 [4:12:10<1:50:09, 106.60s/it]Train -ELBO: 37.68869, Val -ELBO: 37.58784:  70%|██████▉   | 139/200 [4:13:58<1:48:47, 107.00s/it]Train -ELBO: 37.68890, Val -ELBO: 37.58316:  70%|███████   | 140/200 [4:15:45<1:47:00, 107.00s/it]Train -ELBO: 37.68495, Val -ELBO: 37.58487:  70%|███████   | 141/200 [4:17:32<1:45:16, 107.05s/it]Train -ELBO: 37.68511, Val -ELBO: 37.58628:  71%|███████   | 142/200 [4:19:23<1:44:32, 108.15s/it]Train -ELBO: 37.68786, Val -ELBO: 37.58613:  72%|███████▏  | 143/200 [4:21:12<1:43:08, 108.57s/it]Train -ELBO: 37.68674, Val -ELBO: 37.58391:  72%|███████▏  | 144/200 [4:23:04<1:42:05, 109.38s/it]Train -ELBO: 37.69001, Val -ELBO: 37.58167:  72%|███████▎  | 145/200 [4:24:56<1:41:07, 110.32s/it]Train -ELBO: 37.68768, Val -ELBO: 37.58054:  73%|███████▎  | 146/200 [4:26:46<1:39:09, 110.17s/it]Train -ELBO: 37.68626, Val -ELBO: 37.58190:  74%|███████▎  | 147/200 [4:28:38<1:37:56, 110.88s/it]Train -ELBO: 37.68541, Val -ELBO: 37.58906:  74%|███████▍  | 148/200 [4:30:31<1:36:35, 111.45s/it]Train -ELBO: 37.68850, Val -ELBO: 37.58445:  74%|███████▍  | 149/200 [4:32:25<1:35:27, 112.29s/it]Train -ELBO: 37.68912, Val -ELBO: 37.58504:  75%|███████▌  | 150/200 [4:34:18<1:33:42, 112.45s/it]Train -ELBO: 37.68975, Val -ELBO: 37.58056:  76%|███████▌  | 151/200 [4:36:08<1:31:08, 111.60s/it]Train -ELBO: 37.68974, Val -ELBO: 37.58417:  76%|███████▌  | 152/200 [4:37:54<1:28:02, 110.06s/it]Train -ELBO: 37.68614, Val -ELBO: 37.58038:  76%|███████▋  | 153/200 [4:39:41<1:25:22, 108.98s/it]Train -ELBO: 37.69003, Val -ELBO: 37.58090:  77%|███████▋  | 154/200 [4:41:27<1:23:00, 108.27s/it]Train -ELBO: 37.68726, Val -ELBO: 37.58608:  78%|███████▊  | 155/200 [4:43:14<1:20:49, 107.76s/it]Epoch   356: reducing learning rate of group 0 to 1.0000e-06.
Train -ELBO: 37.69024, Val -ELBO: 37.58215:  78%|███████▊  | 156/200 [4:45:01<1:18:45, 107.40s/it]Train -ELBO: 37.68331, Val -ELBO: 37.58335:  78%|███████▊  | 157/200 [4:46:47<1:16:47, 107.14s/it]Train -ELBO: 37.68430, Val -ELBO: 37.58227:  79%|███████▉  | 158/200 [4:48:34<1:14:50, 106.92s/it]Train -ELBO: 37.69011, Val -ELBO: 37.58025:  80%|███████▉  | 159/200 [4:50:20<1:12:56, 106.75s/it]Train -ELBO: 37.68374, Val -ELBO: 37.57982:  80%|████████  | 160/200 [4:52:06<1:11:06, 106.66s/it]