{
  "activation": "tanh",
  "batch_size": 100,
  "bn": "arithmetic-circuit",
  "bt_config": {
    "depth": 5,
    "seed": 4
  },
  "checkpoint_n": 10,
  "coeff": 0.99,
  "double": true,
  "ex_name": "residual_nf_density_estimation",
  "grad_in_forward": true,
  "hidden_dims": [
    100
  ],
  "load_from_checkpoint": false,
  "lr": 0.01,
  "n_power_iterations": 5,
  "num_blocks": 28,
  "num_epochs": 400,
  "num_train_batches": 100,
  "num_train_samples": 10000,
  "num_val_batches": 50,
  "num_val_samples": 5000,
  "path": "./experiment_logs/residual_nf_density_estimation/arithmetic-circuit/faithful_99_tanh_28_[100]",
  "patience": 20,
  "run": 1,
  "seed": 0,
  "structure": "faithful",
  "sub_folder": "faithful_99_tanh_28_[100]"
}