INFO - siren_vae - Running command 'run'
INFO - siren_vae - Started run with ID "1"
[ENCODED STRUCTURE] Using faithful BN structure.
  0%|          | 0/500 [00:00<?, ?it/s]Train -ELBO: 655.08347, Val -ELBO: 220.03675:   0%|          | 1/500 [00:02<22:09,  2.66s/it]Train -ELBO: 203.40950, Val -ELBO: 190.56645:   0%|          | 2/500 [00:04<18:43,  2.26s/it]Train -ELBO: 177.85559, Val -ELBO: 163.69894:   1%|          | 3/500 [00:06<17:05,  2.06s/it]Train -ELBO: 148.64557, Val -ELBO: 131.45624:   1%|          | 4/500 [00:08<16:16,  1.97s/it]Train -ELBO: 115.19307, Val -ELBO: 99.61330:   1%|          | 5/500 [00:10<15:49,  1.92s/it] Train -ELBO: 89.56428, Val -ELBO: 79.65541:   1%|          | 6/500 [00:11<15:33,  1.89s/it] Train -ELBO: 74.13085, Val -ELBO: 67.92060:   1%|▏         | 7/500 [00:13<15:26,  1.88s/it]Train -ELBO: 63.10848, Val -ELBO: 58.87295:   2%|▏         | 8/500 [00:15<15:46,  1.92s/it]Train -ELBO: 56.35940, Val -ELBO: 54.21152:   2%|▏         | 9/500 [00:17<15:51,  1.94s/it]Train -ELBO: 53.22050, Val -ELBO: 51.86310:   2%|▏         | 10/500 [00:19<15:47,  1.93s/it]Train -ELBO: 52.41890, Val -ELBO: 51.11948:   2%|▏         | 11/500 [00:21<15:29,  1.90s/it]Train -ELBO: 50.40089, Val -ELBO: 48.76764:   2%|▏         | 12/500 [00:23<15:43,  1.93s/it]Train -ELBO: 49.52313, Val -ELBO: 48.12526:   3%|▎         | 13/500 [00:25<15:56,  1.96s/it]Train -ELBO: 48.26809, Val -ELBO: 47.60883:   3%|▎         | 14/500 [00:27<15:57,  1.97s/it]Train -ELBO: 47.32099, Val -ELBO: 46.73433:   3%|▎         | 15/500 [00:29<16:04,  1.99s/it]Train -ELBO: 46.77934, Val -ELBO: 46.46780:   3%|▎         | 16/500 [00:31<15:50,  1.96s/it]Train -ELBO: 45.66040, Val -ELBO: 45.49306:   3%|▎         | 17/500 [00:33<15:52,  1.97s/it]Train -ELBO: 45.56207, Val -ELBO: 44.65069:   4%|▎         | 18/500 [00:35<15:54,  1.98s/it]Train -ELBO: 45.41769, Val -ELBO: 45.08106:   4%|▍         | 19/500 [00:37<15:46,  1.97s/it]Train -ELBO: 44.85746, Val -ELBO: 44.77867:   4%|▍         | 20/500 [00:39<15:46,  1.97s/it]Train -ELBO: 44.59893, Val -ELBO: 45.07468:   4%|▍         | 21/500 [00:41<15:45,  1.97s/it]Train -ELBO: 44.38419, Val -ELBO: 43.89948:   4%|▍         | 22/500 [00:43<16:17,  2.05s/it]Train -ELBO: 43.92192, Val -ELBO: 43.86703:   5%|▍         | 23/500 [00:48<23:43,  2.98s/it]Train -ELBO: 43.81191, Val -ELBO: 43.86874:   5%|▍         | 24/500 [00:54<29:37,  3.73s/it]Train -ELBO: 43.54591, Val -ELBO: 43.11428:   5%|▌         | 25/500 [00:59<32:07,  4.06s/it]Train -ELBO: 43.22302, Val -ELBO: 42.97577:   5%|▌         | 26/500 [01:01<27:00,  3.42s/it]Train -ELBO: 43.37599, Val -ELBO: 43.28933:   5%|▌         | 27/500 [01:02<23:10,  2.94s/it]Train -ELBO: 43.42735, Val -ELBO: 43.09618:   6%|▌         | 28/500 [01:04<20:29,  2.60s/it]Train -ELBO: 42.70450, Val -ELBO: 43.28303:   6%|▌         | 29/500 [01:06<18:36,  2.37s/it]Train -ELBO: 42.65025, Val -ELBO: 41.97738:   6%|▌         | 30/500 [01:08<17:22,  2.22s/it]Train -ELBO: 42.52758, Val -ELBO: 43.04405:   6%|▌         | 31/500 [01:10<16:47,  2.15s/it]Train -ELBO: 42.64738, Val -ELBO: 42.56091:   6%|▋         | 32/500 [01:12<16:26,  2.11s/it]Train -ELBO: 42.47992, Val -ELBO: 42.16244:   7%|▋         | 33/500 [01:14<16:01,  2.06s/it]Train -ELBO: 42.10091, Val -ELBO: 41.99962:   7%|▋         | 34/500 [01:16<15:26,  1.99s/it]Train -ELBO: 42.23028, Val -ELBO: 41.98237:   7%|▋         | 35/500 [01:17<15:01,  1.94s/it]Train -ELBO: 42.69601, Val -ELBO: 42.62137:   7%|▋         | 36/500 [01:19<14:43,  1.90s/it]Train -ELBO: 42.12364, Val -ELBO: 42.73415:   7%|▋         | 37/500 [01:21<14:30,  1.88s/it]Train -ELBO: 42.10205, Val -ELBO: 42.38696:   8%|▊         | 38/500 [01:23<14:20,  1.86s/it]Train -ELBO: 42.00526, Val -ELBO: 42.36872:   8%|▊         | 39/500 [01:25<14:12,  1.85s/it]Train -ELBO: 41.90179, Val -ELBO: 41.45788:   8%|▊         | 40/500 [01:27<14:10,  1.85s/it]Train -ELBO: 41.78989, Val -ELBO: 41.75688:   8%|▊         | 41/500 [01:28<14:05,  1.84s/it]Train -ELBO: 41.74459, Val -ELBO: 42.25041:   8%|▊         | 42/500 [01:30<14:01,  1.84s/it]Train -ELBO: 41.59998, Val -ELBO: 41.40530:   9%|▊         | 43/500 [01:32<14:14,  1.87s/it]Train -ELBO: 41.62125, Val -ELBO: 41.29015:   9%|▉         | 44/500 [01:34<14:22,  1.89s/it]Train -ELBO: 41.52848, Val -ELBO: 41.62719:   9%|▉         | 45/500 [01:36<14:11,  1.87s/it]Train -ELBO: 41.65459, Val -ELBO: 41.66274:   9%|▉         | 46/500 [01:38<14:02,  1.86s/it]Train -ELBO: 41.62675, Val -ELBO: 41.54325:   9%|▉         | 47/500 [01:40<13:56,  1.85s/it]Train -ELBO: 41.31378, Val -ELBO: 41.05630:  10%|▉         | 48/500 [01:41<13:50,  1.84s/it]Train -ELBO: 41.53220, Val -ELBO: 41.25887:  10%|▉         | 49/500 [01:43<13:46,  1.83s/it]Train -ELBO: 41.31369, Val -ELBO: 41.63108:  10%|█         | 50/500 [01:45<13:46,  1.84s/it]Train -ELBO: 41.61365, Val -ELBO: 41.31576:  10%|█         | 51/500 [01:47<13:42,  1.83s/it]Train -ELBO: 41.37448, Val -ELBO: 41.53795:  10%|█         | 52/500 [01:49<13:39,  1.83s/it]Train -ELBO: 41.67386, Val -ELBO: 41.10092:  11%|█         | 53/500 [01:51<13:36,  1.83s/it]Train -ELBO: 41.04393, Val -ELBO: 41.00824:  11%|█         | 54/500 [01:52<13:33,  1.82s/it]Train -ELBO: 40.97662, Val -ELBO: 40.96939:  11%|█         | 55/500 [01:54<13:31,  1.82s/it]Train -ELBO: 40.99763, Val -ELBO: 40.97311:  11%|█         | 56/500 [01:56<13:28,  1.82s/it]Train -ELBO: 41.23496, Val -ELBO: 41.56350:  11%|█▏        | 57/500 [01:58<13:26,  1.82s/it]Train -ELBO: 40.98512, Val -ELBO: 40.74878:  12%|█▏        | 58/500 [02:00<13:24,  1.82s/it]Train -ELBO: 40.90101, Val -ELBO: 41.31424:  12%|█▏        | 59/500 [02:01<13:22,  1.82s/it]Train -ELBO: 40.88159, Val -ELBO: 40.99478:  12%|█▏        | 60/500 [02:03<13:24,  1.83s/it]Train -ELBO: 40.94038, Val -ELBO: 40.99249:  12%|█▏        | 61/500 [02:05<13:22,  1.83s/it]Train -ELBO: 41.39818, Val -ELBO: 41.78004:  12%|█▏        | 62/500 [02:07<13:19,  1.82s/it]Train -ELBO: 41.10959, Val -ELBO: 41.10255:  13%|█▎        | 63/500 [02:09<13:16,  1.82s/it]Train -ELBO: 41.18683, Val -ELBO: 41.03916:  13%|█▎        | 64/500 [02:11<13:14,  1.82s/it]Train -ELBO: 40.85526, Val -ELBO: 40.48160:  13%|█▎        | 65/500 [02:12<13:12,  1.82s/it]Train -ELBO: 41.14400, Val -ELBO: 40.98244:  13%|█▎        | 66/500 [02:14<13:10,  1.82s/it]Train -ELBO: 40.99989, Val -ELBO: 40.86128:  13%|█▎        | 67/500 [02:16<13:08,  1.82s/it]Train -ELBO: 40.39575, Val -ELBO: 40.50804:  14%|█▎        | 68/500 [02:18<13:06,  1.82s/it]Train -ELBO: 40.79556, Val -ELBO: 40.97065:  14%|█▍        | 69/500 [02:20<13:05,  1.82s/it]Train -ELBO: 40.81746, Val -ELBO: 41.31413:  14%|█▍        | 70/500 [02:22<13:06,  1.83s/it]Train -ELBO: 41.00224, Val -ELBO: 41.82317:  14%|█▍        | 71/500 [02:23<13:03,  1.83s/it]Train -ELBO: 40.75487, Val -ELBO: 40.49758:  14%|█▍        | 72/500 [02:25<13:01,  1.83s/it]Train -ELBO: 40.63375, Val -ELBO: 40.72885:  15%|█▍        | 73/500 [02:27<12:58,  1.82s/it]Train -ELBO: 40.98633, Val -ELBO: 40.77975:  15%|█▍        | 74/500 [02:29<12:56,  1.82s/it]Train -ELBO: 40.55348, Val -ELBO: 40.56887:  15%|█▌        | 75/500 [02:31<12:54,  1.82s/it]Train -ELBO: 40.47474, Val -ELBO: 40.44794:  15%|█▌        | 76/500 [02:32<12:52,  1.82s/it]Train -ELBO: 40.80926, Val -ELBO: 41.06850:  15%|█▌        | 77/500 [02:34<12:50,  1.82s/it]Train -ELBO: 40.60313, Val -ELBO: 40.40114:  16%|█▌        | 78/500 [02:36<12:49,  1.82s/it]Train -ELBO: 40.71838, Val -ELBO: 40.41317:  16%|█▌        | 79/500 [02:38<12:46,  1.82s/it]Train -ELBO: 40.43180, Val -ELBO: 40.57960:  16%|█▌        | 80/500 [02:40<12:48,  1.83s/it]Train -ELBO: 40.58126, Val -ELBO: 40.46381:  16%|█▌        | 81/500 [02:42<12:45,  1.83s/it]Train -ELBO: 40.40046, Val -ELBO: 40.73028:  16%|█▋        | 82/500 [02:43<12:42,  1.82s/it]Train -ELBO: 40.90214, Val -ELBO: 40.97974:  17%|█▋        | 83/500 [02:45<12:40,  1.82s/it]Train -ELBO: 40.72058, Val -ELBO: 40.90200:  17%|█▋        | 84/500 [02:47<12:38,  1.82s/it]Train -ELBO: 40.60485, Val -ELBO: 40.40074:  17%|█▋        | 85/500 [02:49<12:36,  1.82s/it]Train -ELBO: 40.38721, Val -ELBO: 40.73287:  17%|█▋        | 86/500 [02:51<12:34,  1.82s/it]Train -ELBO: 40.61963, Val -ELBO: 40.64625:  17%|█▋        | 87/500 [02:53<12:32,  1.82s/it]Train -ELBO: 40.34829, Val -ELBO: 40.44973:  18%|█▊        | 88/500 [02:54<12:30,  1.82s/it]Train -ELBO: 40.42763, Val -ELBO: 40.21851:  18%|█▊        | 89/500 [02:56<12:28,  1.82s/it]Train -ELBO: 40.44042, Val -ELBO: 40.29490:  18%|█▊        | 90/500 [02:58<12:29,  1.83s/it]Train -ELBO: 40.44127, Val -ELBO: 40.33211:  18%|█▊        | 91/500 [03:00<12:27,  1.83s/it]Train -ELBO: 40.35165, Val -ELBO: 40.41108:  18%|█▊        | 92/500 [03:02<12:24,  1.83s/it]Train -ELBO: 40.41652, Val -ELBO: 40.59404:  19%|█▊        | 93/500 [03:03<12:22,  1.82s/it]Train -ELBO: 40.40154, Val -ELBO: 40.26912:  19%|█▉        | 94/500 [03:05<12:20,  1.82s/it]Train -ELBO: 40.30517, Val -ELBO: 40.18173:  19%|█▉        | 95/500 [03:07<12:18,  1.82s/it]Train -ELBO: 40.34675, Val -ELBO: 40.61654:  19%|█▉        | 96/500 [03:09<12:15,  1.82s/it]Train -ELBO: 40.33372, Val -ELBO: 40.56141:  19%|█▉        | 97/500 [03:11<12:13,  1.82s/it]Train -ELBO: 40.37974, Val -ELBO: 40.67892:  20%|█▉        | 98/500 [03:13<12:11,  1.82s/it]Train -ELBO: 40.31104, Val -ELBO: 40.28812:  20%|█▉        | 99/500 [03:14<12:10,  1.82s/it]Train -ELBO: 40.45593, Val -ELBO: 40.56196:  20%|██        | 100/500 [03:16<12:11,  1.83s/it]Train -ELBO: 40.54602, Val -ELBO: 40.28857:  20%|██        | 101/500 [03:18<12:09,  1.83s/it]Train -ELBO: 40.36283, Val -ELBO: 40.13616:  20%|██        | 102/500 [03:20<12:06,  1.83s/it]Train -ELBO: 40.45620, Val -ELBO: 40.23508:  21%|██        | 103/500 [03:22<12:04,  1.82s/it]Train -ELBO: 40.14117, Val -ELBO: 40.35002:  21%|██        | 104/500 [03:24<12:01,  1.82s/it]Train -ELBO: 40.04581, Val -ELBO: 40.35748:  21%|██        | 105/500 [03:25<11:59,  1.82s/it]Train -ELBO: 40.12667, Val -ELBO: 40.27634:  21%|██        | 106/500 [03:27<11:57,  1.82s/it]Train -ELBO: 40.19791, Val -ELBO: 40.27792:  21%|██▏       | 107/500 [03:29<11:55,  1.82s/it]Train -ELBO: 40.00293, Val -ELBO: 40.12687:  22%|██▏       | 108/500 [03:31<11:53,  1.82s/it]Train -ELBO: 39.94566, Val -ELBO: 40.04454:  22%|██▏       | 109/500 [03:33<11:52,  1.82s/it]Train -ELBO: 40.01701, Val -ELBO: 40.11041:  22%|██▏       | 110/500 [03:34<11:55,  1.84s/it]Train -ELBO: 40.04729, Val -ELBO: 39.94736:  22%|██▏       | 111/500 [03:36<11:53,  1.83s/it]Train -ELBO: 39.95330, Val -ELBO: 40.74098:  22%|██▏       | 112/500 [03:38<11:50,  1.83s/it]Train -ELBO: 40.05009, Val -ELBO: 39.91139:  23%|██▎       | 113/500 [03:40<11:47,  1.83s/it]Train -ELBO: 39.72474, Val -ELBO: 39.85330:  23%|██▎       | 114/500 [03:42<11:44,  1.83s/it]Train -ELBO: 39.68221, Val -ELBO: 39.90046:  23%|██▎       | 115/500 [03:44<11:42,  1.82s/it]Train -ELBO: 39.73606, Val -ELBO: 39.78489:  23%|██▎       | 116/500 [03:45<11:39,  1.82s/it]Train -ELBO: 39.64893, Val -ELBO: 40.14676:  23%|██▎       | 117/500 [03:47<11:37,  1.82s/it]Train -ELBO: 39.57770, Val -ELBO: 40.02356:  24%|██▎       | 118/500 [03:49<11:36,  1.82s/it]Train -ELBO: 39.70267, Val -ELBO: 39.30342:  24%|██▍       | 119/500 [03:51<11:33,  1.82s/it]Train -ELBO: 39.42475, Val -ELBO: 39.58435:  24%|██▍       | 120/500 [03:53<11:34,  1.83s/it]Train -ELBO: 39.36061, Val -ELBO: 39.60784:  24%|██▍       | 121/500 [03:55<11:32,  1.83s/it]Train -ELBO: 39.32180, Val -ELBO: 39.28612:  24%|██▍       | 122/500 [03:56<11:29,  1.82s/it]Train -ELBO: 39.25696, Val -ELBO: 39.66330:  25%|██▍       | 123/500 [03:58<11:27,  1.82s/it]Train -ELBO: 39.47296, Val -ELBO: 39.30935:  25%|██▍       | 124/500 [04:00<11:24,  1.82s/it]Train -ELBO: 39.23005, Val -ELBO: 39.55944:  25%|██▌       | 125/500 [04:02<11:22,  1.82s/it]Train -ELBO: 39.67379, Val -ELBO: 39.74998:  25%|██▌       | 126/500 [04:04<11:20,  1.82s/it]Train -ELBO: 39.29458, Val -ELBO: 39.19213:  25%|██▌       | 127/500 [04:05<11:18,  1.82s/it]Train -ELBO: 39.00816, Val -ELBO: 38.95733:  26%|██▌       | 128/500 [04:07<11:16,  1.82s/it]Train -ELBO: 39.14832, Val -ELBO: 39.47669:  26%|██▌       | 129/500 [04:09<11:16,  1.82s/it]Train -ELBO: 39.07020, Val -ELBO: 39.11789:  26%|██▌       | 130/500 [04:11<11:16,  1.83s/it]Train -ELBO: 39.00690, Val -ELBO: 39.21640:  26%|██▌       | 131/500 [04:13<11:14,  1.83s/it]Train -ELBO: 39.07510, Val -ELBO: 39.34452:  26%|██▋       | 132/500 [04:15<11:11,  1.83s/it]Train -ELBO: 39.05724, Val -ELBO: 39.29659:  27%|██▋       | 133/500 [04:16<11:09,  1.82s/it]Train -ELBO: 39.16894, Val -ELBO: 39.34850:  27%|██▋       | 134/500 [04:18<11:07,  1.82s/it]Train -ELBO: 39.22900, Val -ELBO: 39.40429:  27%|██▋       | 135/500 [04:20<11:05,  1.82s/it]Train -ELBO: 39.00927, Val -ELBO: 39.38500:  27%|██▋       | 136/500 [04:22<11:03,  1.82s/it]Train -ELBO: 38.94117, Val -ELBO: 39.24512:  27%|██▋       | 137/500 [04:24<11:01,  1.82s/it]Train -ELBO: 39.09547, Val -ELBO: 39.29540:  28%|██▊       | 138/500 [04:26<10:59,  1.82s/it]Train -ELBO: 39.33788, Val -ELBO: 39.60892:  28%|██▊       | 139/500 [04:27<10:57,  1.82s/it]Train -ELBO: 39.10190, Val -ELBO: 39.08489:  28%|██▊       | 140/500 [04:29<10:58,  1.83s/it]Train -ELBO: 38.96714, Val -ELBO: 39.09490:  28%|██▊       | 141/500 [04:31<10:56,  1.83s/it]Train -ELBO: 39.02275, Val -ELBO: 39.08544:  28%|██▊       | 142/500 [04:33<10:53,  1.83s/it]Train -ELBO: 39.03614, Val -ELBO: 39.41940:  29%|██▊       | 143/500 [04:35<10:51,  1.83s/it]Train -ELBO: 39.28000, Val -ELBO: 39.38802:  29%|██▉       | 144/500 [04:36<10:49,  1.82s/it]Train -ELBO: 39.27715, Val -ELBO: 39.56107:  29%|██▉       | 145/500 [04:38<10:47,  1.82s/it]Train -ELBO: 38.99894, Val -ELBO: 39.18174:  29%|██▉       | 146/500 [04:40<10:45,  1.82s/it]Train -ELBO: 39.05716, Val -ELBO: 39.51879:  29%|██▉       | 147/500 [04:42<10:43,  1.82s/it]Train -ELBO: 39.01696, Val -ELBO: 39.11083:  30%|██▉       | 148/500 [04:44<10:41,  1.82s/it]Train -ELBO: 39.12973, Val -ELBO: 39.33960:  30%|██▉       | 149/500 [04:46<10:39,  1.82s/it]Train -ELBO: 38.88523, Val -ELBO: 39.03695:  30%|███       | 150/500 [04:47<10:40,  1.83s/it]Train -ELBO: 38.91006, Val -ELBO: 39.12996:  30%|███       | 151/500 [04:49<10:37,  1.83s/it]Train -ELBO: 39.01177, Val -ELBO: 39.03993:  30%|███       | 152/500 [04:51<10:35,  1.82s/it]Train -ELBO: 38.89195, Val -ELBO: 39.05732:  31%|███       | 153/500 [04:53<10:32,  1.82s/it]Train -ELBO: 39.01431, Val -ELBO: 39.53980:  31%|███       | 154/500 [04:55<10:30,  1.82s/it]Train -ELBO: 39.10183, Val -ELBO: 39.14309:  31%|███       | 155/500 [04:57<10:28,  1.82s/it]Train -ELBO: 38.85025, Val -ELBO: 39.33213:  31%|███       | 156/500 [04:58<10:26,  1.82s/it]Train -ELBO: 39.01583, Val -ELBO: 39.37818:  31%|███▏      | 157/500 [05:00<10:24,  1.82s/it]Train -ELBO: 39.11233, Val -ELBO: 39.06809:  32%|███▏      | 158/500 [05:02<10:22,  1.82s/it]Train -ELBO: 39.07342, Val -ELBO: 39.32381:  32%|███▏      | 159/500 [05:04<10:20,  1.82s/it]Train -ELBO: 38.88774, Val -ELBO: 39.00268:  32%|███▏      | 160/500 [05:06<10:21,  1.83s/it]Train -ELBO: 39.08287, Val -ELBO: 39.14672:  32%|███▏      | 161/500 [05:07<10:19,  1.83s/it]Train -ELBO: 38.77814, Val -ELBO: 38.86057:  32%|███▏      | 162/500 [05:09<10:16,  1.82s/it]Train -ELBO: 38.93463, Val -ELBO: 39.25481:  33%|███▎      | 163/500 [05:11<10:14,  1.82s/it]Train -ELBO: 38.83728, Val -ELBO: 39.11551:  33%|███▎      | 164/500 [05:13<10:12,  1.82s/it]Train -ELBO: 38.83276, Val -ELBO: 39.26139:  33%|███▎      | 165/500 [05:15<10:10,  1.82s/it]Train -ELBO: 38.95114, Val -ELBO: 38.97246:  33%|███▎      | 166/500 [05:17<10:08,  1.82s/it]Train -ELBO: 38.82019, Val -ELBO: 38.88072:  33%|███▎      | 167/500 [05:18<10:06,  1.82s/it]Train -ELBO: 38.82650, Val -ELBO: 38.85641:  34%|███▎      | 168/500 [05:20<10:04,  1.82s/it]Train -ELBO: 38.95965, Val -ELBO: 39.32483:  34%|███▍      | 169/500 [05:22<10:02,  1.82s/it]Train -ELBO: 39.15702, Val -ELBO: 39.26328:  34%|███▍      | 170/500 [05:24<10:03,  1.83s/it]Train -ELBO: 39.28163, Val -ELBO: 39.31441:  34%|███▍      | 171/500 [05:26<10:00,  1.83s/it]Train -ELBO: 38.98929, Val -ELBO: 39.14370:  34%|███▍      | 172/500 [05:28<09:58,  1.82s/it]Train -ELBO: 38.91923, Val -ELBO: 39.32254:  35%|███▍      | 173/500 [05:29<09:56,  1.82s/it]Train -ELBO: 38.76463, Val -ELBO: 39.04652:  35%|███▍      | 174/500 [05:31<09:54,  1.82s/it]Train -ELBO: 39.06508, Val -ELBO: 39.24743:  35%|███▌      | 175/500 [05:33<09:52,  1.82s/it]Train -ELBO: 38.95421, Val -ELBO: 39.11595:  35%|███▌      | 176/500 [05:35<09:50,  1.82s/it]Train -ELBO: 38.90018, Val -ELBO: 39.44229:  35%|███▌      | 177/500 [05:37<09:48,  1.82s/it]Train -ELBO: 38.89946, Val -ELBO: 39.41241:  36%|███▌      | 178/500 [05:38<09:46,  1.82s/it]Train -ELBO: 38.96055, Val -ELBO: 38.99000:  36%|███▌      | 179/500 [05:40<09:44,  1.82s/it]Train -ELBO: 38.76367, Val -ELBO: 38.92686:  36%|███▌      | 180/500 [05:42<09:45,  1.83s/it]Train -ELBO: 38.80355, Val -ELBO: 39.11835:  36%|███▌      | 181/500 [05:44<09:42,  1.83s/it]Train -ELBO: 38.95806, Val -ELBO: 39.60085:  36%|███▋      | 182/500 [05:46<09:39,  1.82s/it]Train -ELBO: 39.00651, Val -ELBO: 38.91029:  37%|███▋      | 183/500 [05:48<09:37,  1.82s/it]Train -ELBO: 38.99102, Val -ELBO: 39.17446:  37%|███▋      | 184/500 [05:49<09:35,  1.82s/it]Train -ELBO: 38.84622, Val -ELBO: 39.36650:  37%|███▋      | 185/500 [05:51<09:33,  1.82s/it]Train -ELBO: 38.82796, Val -ELBO: 39.17184:  37%|███▋      | 186/500 [05:53<09:31,  1.82s/it]Train -ELBO: 38.94597, Val -ELBO: 38.90137:  37%|███▋      | 187/500 [05:55<09:29,  1.82s/it]Train -ELBO: 38.85040, Val -ELBO: 39.21008:  38%|███▊      | 188/500 [05:57<09:27,  1.82s/it]Train -ELBO: 38.79654, Val -ELBO: 38.77066:  38%|███▊      | 189/500 [05:59<09:26,  1.82s/it]Train -ELBO: 38.87722, Val -ELBO: 38.92730:  38%|███▊      | 190/500 [06:00<09:26,  1.83s/it]Train -ELBO: 38.82285, Val -ELBO: 39.00913:  38%|███▊      | 191/500 [06:02<09:23,  1.82s/it]Train -ELBO: 38.77669, Val -ELBO: 38.96529:  38%|███▊      | 192/500 [06:04<09:21,  1.82s/it]Train -ELBO: 38.79146, Val -ELBO: 39.01954:  39%|███▊      | 193/500 [06:06<09:19,  1.82s/it]Train -ELBO: 38.76986, Val -ELBO: 39.09276:  39%|███▉      | 194/500 [06:08<09:17,  1.82s/it]Train -ELBO: 38.73065, Val -ELBO: 38.91449:  39%|███▉      | 195/500 [06:09<09:15,  1.82s/it]Train -ELBO: 38.66466, Val -ELBO: 39.15909:  39%|███▉      | 196/500 [06:11<09:13,  1.82s/it]Train -ELBO: 38.84741, Val -ELBO: 39.26777:  39%|███▉      | 197/500 [06:13<09:11,  1.82s/it]Train -ELBO: 38.74881, Val -ELBO: 38.95161:  40%|███▉      | 198/500 [06:15<09:09,  1.82s/it]Train -ELBO: 38.70247, Val -ELBO: 39.05746:  40%|███▉      | 199/500 [06:17<09:07,  1.82s/it]Train -ELBO: 38.74707, Val -ELBO: 39.08940:  40%|████      | 200/500 [06:19<09:08,  1.83s/it]Train -ELBO: 38.86145, Val -ELBO: 39.29747:  40%|████      | 201/500 [06:20<09:05,  1.82s/it]Train -ELBO: 38.87675, Val -ELBO: 38.96618:  40%|████      | 202/500 [06:22<09:03,  1.82s/it]Train -ELBO: 38.82193, Val -ELBO: 39.01211:  41%|████      | 203/500 [06:24<09:01,  1.82s/it]Train -ELBO: 38.73070, Val -ELBO: 38.88639:  41%|████      | 204/500 [06:26<08:58,  1.82s/it]Train -ELBO: 38.75997, Val -ELBO: 38.96222:  41%|████      | 205/500 [06:28<08:56,  1.82s/it]Train -ELBO: 38.75616, Val -ELBO: 38.74341:  41%|████      | 206/500 [06:29<08:55,  1.82s/it]Train -ELBO: 38.75373, Val -ELBO: 38.79415:  41%|████▏     | 207/500 [06:31<08:53,  1.82s/it]Train -ELBO: 38.64027, Val -ELBO: 38.85125:  42%|████▏     | 208/500 [06:33<08:51,  1.82s/it]Train -ELBO: 38.74207, Val -ELBO: 38.92743:  42%|████▏     | 209/500 [06:35<08:51,  1.83s/it]Train -ELBO: 38.63277, Val -ELBO: 38.94830:  42%|████▏     | 210/500 [06:37<08:51,  1.83s/it]Train -ELBO: 38.72253, Val -ELBO: 38.80146:  42%|████▏     | 211/500 [06:39<08:48,  1.83s/it]Train -ELBO: 38.67095, Val -ELBO: 38.91030:  42%|████▏     | 212/500 [06:40<08:46,  1.83s/it]Train -ELBO: 38.69208, Val -ELBO: 38.86779:  43%|████▎     | 213/500 [06:42<08:43,  1.82s/it]Train -ELBO: 38.67281, Val -ELBO: 38.97724:  43%|████▎     | 214/500 [06:44<08:41,  1.82s/it]Train -ELBO: 38.69561, Val -ELBO: 38.91946:  43%|████▎     | 215/500 [06:46<08:39,  1.82s/it]Train -ELBO: 38.64761, Val -ELBO: 38.75813:  43%|████▎     | 216/500 [06:48<08:37,  1.82s/it]Train -ELBO: 38.63032, Val -ELBO: 38.72558:  43%|████▎     | 217/500 [06:50<08:35,  1.82s/it]Train -ELBO: 38.68350, Val -ELBO: 39.15587:  44%|████▎     | 218/500 [06:51<08:33,  1.82s/it]Train -ELBO: 38.76517, Val -ELBO: 39.20877:  44%|████▍     | 219/500 [06:53<08:31,  1.82s/it]Train -ELBO: 38.73373, Val -ELBO: 38.94975:  44%|████▍     | 220/500 [06:55<08:31,  1.83s/it]Train -ELBO: 38.58495, Val -ELBO: 38.75772:  44%|████▍     | 221/500 [06:57<08:29,  1.83s/it]Train -ELBO: 38.62430, Val -ELBO: 39.07139:  44%|████▍     | 222/500 [06:59<08:27,  1.83s/it]Train -ELBO: 38.71603, Val -ELBO: 38.70656:  45%|████▍     | 223/500 [07:01<08:25,  1.82s/it]Train -ELBO: 38.65009, Val -ELBO: 38.89509:  45%|████▍     | 224/500 [07:02<08:22,  1.82s/it]Train -ELBO: 38.70455, Val -ELBO: 38.77609:  45%|████▌     | 225/500 [07:04<08:20,  1.82s/it]Train -ELBO: 38.62671, Val -ELBO: 38.99292:  45%|████▌     | 226/500 [07:06<08:18,  1.82s/it]Train -ELBO: 38.59109, Val -ELBO: 38.86926:  45%|████▌     | 227/500 [07:08<08:17,  1.82s/it]Train -ELBO: 38.70102, Val -ELBO: 38.82196:  46%|████▌     | 228/500 [07:10<08:15,  1.82s/it]Train -ELBO: 38.67443, Val -ELBO: 38.84731:  46%|████▌     | 229/500 [07:11<08:13,  1.82s/it]Train -ELBO: 38.56549, Val -ELBO: 38.69258:  46%|████▌     | 230/500 [07:13<08:13,  1.83s/it]Train -ELBO: 38.48880, Val -ELBO: 39.10136:  46%|████▌     | 231/500 [07:15<08:11,  1.83s/it]Train -ELBO: 38.63626, Val -ELBO: 38.84393:  46%|████▋     | 232/500 [07:17<08:08,  1.82s/it]Train -ELBO: 38.65650, Val -ELBO: 38.79811:  47%|████▋     | 233/500 [07:19<08:06,  1.82s/it]Train -ELBO: 38.74647, Val -ELBO: 39.02530:  47%|████▋     | 234/500 [07:21<08:04,  1.82s/it]Train -ELBO: 38.64970, Val -ELBO: 38.95435:  47%|████▋     | 235/500 [07:22<08:02,  1.82s/it]Train -ELBO: 38.74139, Val -ELBO: 38.87565:  47%|████▋     | 236/500 [07:24<08:00,  1.82s/it]Train -ELBO: 38.61405, Val -ELBO: 38.85271:  47%|████▋     | 237/500 [07:26<07:58,  1.82s/it]Train -ELBO: 38.60127, Val -ELBO: 38.91491:  48%|████▊     | 238/500 [07:28<07:57,  1.82s/it]Train -ELBO: 38.58997, Val -ELBO: 38.72837:  48%|████▊     | 239/500 [07:30<07:55,  1.82s/it]Train -ELBO: 38.48940, Val -ELBO: 39.01616:  48%|████▊     | 240/500 [07:32<07:55,  1.83s/it]Train -ELBO: 38.50426, Val -ELBO: 38.92313:  48%|████▊     | 241/500 [07:33<07:53,  1.83s/it]Train -ELBO: 38.77044, Val -ELBO: 39.00750:  48%|████▊     | 242/500 [07:35<07:51,  1.83s/it]Train -ELBO: 38.66565, Val -ELBO: 38.83177:  49%|████▊     | 243/500 [07:37<07:48,  1.82s/it]Train -ELBO: 38.59231, Val -ELBO: 38.80243:  49%|████▉     | 244/500 [07:39<07:46,  1.82s/it]Train -ELBO: 38.54292, Val -ELBO: 38.83252:  49%|████▉     | 245/500 [07:41<07:44,  1.82s/it]Train -ELBO: 38.69694, Val -ELBO: 38.77568:  49%|████▉     | 246/500 [07:42<07:42,  1.82s/it]Train -ELBO: 38.68270, Val -ELBO: 39.09616:  49%|████▉     | 247/500 [07:44<07:40,  1.82s/it]Train -ELBO: 38.53132, Val -ELBO: 38.90737:  50%|████▉     | 248/500 [07:46<07:38,  1.82s/it]Train -ELBO: 38.50344, Val -ELBO: 38.86673:  50%|████▉     | 249/500 [07:48<07:36,  1.82s/it]Train -ELBO: 38.60750, Val -ELBO: 38.87186:  50%|█████     | 250/500 [07:50<07:37,  1.83s/it]Train -ELBO: 38.69678, Val -ELBO: 38.93898:  50%|█████     | 251/500 [07:52<07:34,  1.83s/it]Epoch   252: reducing learning rate of group 0 to 1.0000e-03.
Train -ELBO: 38.55158, Val -ELBO: 38.82998:  50%|█████     | 252/500 [07:53<07:32,  1.82s/it]Train -ELBO: 37.98112, Val -ELBO: 38.08495:  51%|█████     | 253/500 [07:55<07:30,  1.83s/it]Train -ELBO: 37.76373, Val -ELBO: 38.09447:  51%|█████     | 254/500 [07:57<07:28,  1.82s/it]Train -ELBO: 37.73497, Val -ELBO: 38.11337:  51%|█████     | 255/500 [07:59<07:26,  1.82s/it]Train -ELBO: 37.73366, Val -ELBO: 38.06613:  51%|█████     | 256/500 [08:01<07:24,  1.82s/it]Train -ELBO: 37.73266, Val -ELBO: 38.09503:  51%|█████▏    | 257/500 [08:02<07:22,  1.82s/it]Train -ELBO: 37.73497, Val -ELBO: 38.10237:  52%|█████▏    | 258/500 [08:04<07:20,  1.82s/it]Train -ELBO: 37.72569, Val -ELBO: 38.06942:  52%|█████▏    | 259/500 [08:06<07:18,  1.82s/it]Train -ELBO: 37.71804, Val -ELBO: 38.04865:  52%|█████▏    | 260/500 [08:08<07:18,  1.83s/it]Train -ELBO: 37.72562, Val -ELBO: 38.09959:  52%|█████▏    | 261/500 [08:10<07:16,  1.83s/it]Train -ELBO: 37.73560, Val -ELBO: 38.05065:  52%|█████▏    | 262/500 [08:12<07:14,  1.82s/it]Train -ELBO: 37.70710, Val -ELBO: 38.08316:  53%|█████▎    | 263/500 [08:13<07:11,  1.82s/it]Train -ELBO: 37.72605, Val -ELBO: 38.09143:  53%|█████▎    | 264/500 [08:15<07:09,  1.82s/it]Train -ELBO: 37.73974, Val -ELBO: 38.07239:  53%|█████▎    | 265/500 [08:17<07:07,  1.82s/it]Train -ELBO: 37.70876, Val -ELBO: 38.07968:  53%|█████▎    | 266/500 [08:19<07:06,  1.82s/it]Train -ELBO: 37.71119, Val -ELBO: 38.05834:  53%|█████▎    | 267/500 [08:21<07:04,  1.82s/it]Train -ELBO: 37.70984, Val -ELBO: 38.08982:  54%|█████▎    | 268/500 [08:23<07:02,  1.82s/it]Train -ELBO: 37.73005, Val -ELBO: 38.05733:  54%|█████▍    | 269/500 [08:24<07:00,  1.82s/it]Train -ELBO: 37.73926, Val -ELBO: 38.08751:  54%|█████▍    | 270/500 [08:26<07:00,  1.83s/it]Train -ELBO: 37.72797, Val -ELBO: 38.08137:  54%|█████▍    | 271/500 [08:28<06:58,  1.83s/it]Train -ELBO: 37.74236, Val -ELBO: 38.08468:  54%|█████▍    | 272/500 [08:30<06:56,  1.83s/it]Train -ELBO: 37.74084, Val -ELBO: 38.10636:  55%|█████▍    | 273/500 [08:32<06:54,  1.82s/it]Train -ELBO: 37.73466, Val -ELBO: 38.10093:  55%|█████▍    | 274/500 [08:34<06:53,  1.83s/it]Train -ELBO: 37.72815, Val -ELBO: 38.05547:  55%|█████▌    | 275/500 [08:35<06:51,  1.83s/it]Train -ELBO: 37.70877, Val -ELBO: 38.09647:  55%|█████▌    | 276/500 [08:37<06:49,  1.83s/it]Train -ELBO: 37.71323, Val -ELBO: 38.09605:  55%|█████▌    | 277/500 [08:39<06:46,  1.82s/it]Train -ELBO: 37.70681, Val -ELBO: 38.02555:  56%|█████▌    | 278/500 [08:41<06:44,  1.82s/it]Train -ELBO: 37.70862, Val -ELBO: 38.05876:  56%|█████▌    | 279/500 [08:43<06:42,  1.82s/it]Train -ELBO: 37.72325, Val -ELBO: 38.06224:  56%|█████▌    | 280/500 [08:44<06:42,  1.83s/it]Train -ELBO: 37.71925, Val -ELBO: 38.05649:  56%|█████▌    | 281/500 [08:46<06:40,  1.83s/it]Train -ELBO: 37.74130, Val -ELBO: 38.07477:  56%|█████▋    | 282/500 [08:48<06:38,  1.83s/it]Train -ELBO: 37.73601, Val -ELBO: 38.09098:  57%|█████▋    | 283/500 [08:50<06:36,  1.83s/it]Epoch   284: reducing learning rate of group 0 to 1.0000e-04.
Train -ELBO: 37.71596, Val -ELBO: 38.07619:  57%|█████▋    | 284/500 [08:52<06:34,  1.83s/it]Train -ELBO: 37.66038, Val -ELBO: 38.01036:  57%|█████▋    | 285/500 [08:54<06:33,  1.83s/it]Train -ELBO: 37.62202, Val -ELBO: 37.99505:  57%|█████▋    | 286/500 [08:55<06:30,  1.83s/it]Train -ELBO: 37.62410, Val -ELBO: 38.00908:  57%|█████▋    | 287/500 [08:57<06:28,  1.82s/it]Train -ELBO: 37.62001, Val -ELBO: 37.99165:  58%|█████▊    | 288/500 [08:59<06:26,  1.82s/it]Train -ELBO: 37.62631, Val -ELBO: 37.99439:  58%|█████▊    | 289/500 [09:01<06:24,  1.82s/it]Train -ELBO: 37.61080, Val -ELBO: 38.00892:  58%|█████▊    | 290/500 [09:03<06:24,  1.83s/it]Train -ELBO: 37.62177, Val -ELBO: 38.01331:  58%|█████▊    | 291/500 [09:05<06:21,  1.83s/it]Train -ELBO: 37.61220, Val -ELBO: 37.99529:  58%|█████▊    | 292/500 [09:06<06:19,  1.82s/it]Train -ELBO: 37.62882, Val -ELBO: 37.99371:  59%|█████▊    | 293/500 [09:08<06:17,  1.82s/it]Train -ELBO: 37.61367, Val -ELBO: 37.98212:  59%|█████▉    | 294/500 [09:10<06:15,  1.82s/it]Train -ELBO: 37.60977, Val -ELBO: 38.00421:  59%|█████▉    | 295/500 [09:12<06:13,  1.82s/it]Train -ELBO: 37.62250, Val -ELBO: 37.97738:  59%|█████▉    | 296/500 [09:14<06:11,  1.82s/it]Train -ELBO: 37.61931, Val -ELBO: 37.99523:  59%|█████▉    | 297/500 [09:15<06:09,  1.82s/it]Train -ELBO: 37.61134, Val -ELBO: 37.99456:  60%|█████▉    | 298/500 [09:17<06:07,  1.82s/it]Train -ELBO: 37.62719, Val -ELBO: 38.00901:  60%|█████▉    | 299/500 [09:19<06:05,  1.82s/it]Train -ELBO: 37.62882, Val -ELBO: 37.97594:  60%|██████    | 300/500 [09:21<06:05,  1.83s/it]Train -ELBO: 37.61731, Val -ELBO: 37.98944:  60%|██████    | 301/500 [09:23<06:03,  1.82s/it]Train -ELBO: 37.62462, Val -ELBO: 38.00007:  60%|██████    | 302/500 [09:25<06:00,  1.82s/it]Train -ELBO: 37.62870, Val -ELBO: 37.99557:  61%|██████    | 303/500 [09:26<05:58,  1.82s/it]Train -ELBO: 37.62513, Val -ELBO: 38.00946:  61%|██████    | 304/500 [09:28<05:56,  1.82s/it]Train -ELBO: 37.62248, Val -ELBO: 37.98067:  61%|██████    | 305/500 [09:30<05:55,  1.82s/it]Train -ELBO: 37.61327, Val -ELBO: 37.99767:  61%|██████    | 306/500 [09:32<05:53,  1.82s/it]Train -ELBO: 37.61477, Val -ELBO: 37.99119:  61%|██████▏   | 307/500 [09:34<05:51,  1.82s/it]Train -ELBO: 37.61638, Val -ELBO: 37.99850:  62%|██████▏   | 308/500 [09:36<05:49,  1.82s/it]Train -ELBO: 37.61726, Val -ELBO: 37.98503:  62%|██████▏   | 309/500 [09:37<05:47,  1.82s/it]Train -ELBO: 37.62183, Val -ELBO: 37.99658:  62%|██████▏   | 310/500 [09:39<05:47,  1.83s/it]Epoch   311: reducing learning rate of group 0 to 1.0000e-05.
Train -ELBO: 37.61967, Val -ELBO: 37.98195:  62%|██████▏   | 311/500 [09:41<05:45,  1.83s/it]Train -ELBO: 37.60632, Val -ELBO: 37.99713:  62%|██████▏   | 312/500 [09:43<05:42,  1.82s/it]Train -ELBO: 37.60401, Val -ELBO: 38.00408:  63%|██████▎   | 313/500 [09:45<05:40,  1.82s/it]Train -ELBO: 37.60373, Val -ELBO: 37.97062:  63%|██████▎   | 314/500 [09:46<05:38,  1.82s/it]Train -ELBO: 37.61332, Val -ELBO: 38.00475:  63%|██████▎   | 315/500 [09:48<05:36,  1.82s/it]Train -ELBO: 37.60598, Val -ELBO: 37.98637:  63%|██████▎   | 316/500 [09:50<05:35,  1.82s/it]Train -ELBO: 37.60084, Val -ELBO: 37.99407:  63%|██████▎   | 317/500 [09:52<05:33,  1.82s/it]Train -ELBO: 37.60528, Val -ELBO: 38.00290:  64%|██████▎   | 318/500 [09:54<05:31,  1.82s/it]Train -ELBO: 37.60832, Val -ELBO: 37.98420:  64%|██████▍   | 319/500 [09:56<05:29,  1.82s/it]Train -ELBO: 37.61046, Val -ELBO: 37.98716:  64%|██████▍   | 320/500 [09:57<05:28,  1.83s/it]Train -ELBO: 37.61160, Val -ELBO: 37.99987:  64%|██████▍   | 321/500 [09:59<05:26,  1.83s/it]Train -ELBO: 37.60690, Val -ELBO: 37.97634:  64%|██████▍   | 322/500 [10:01<05:24,  1.82s/it]Train -ELBO: 37.60355, Val -ELBO: 37.98505:  65%|██████▍   | 323/500 [10:03<05:22,  1.82s/it]Train -ELBO: 37.60297, Val -ELBO: 37.97912:  65%|██████▍   | 324/500 [10:05<05:20,  1.82s/it]Train -ELBO: 37.60379, Val -ELBO: 37.98901:  65%|██████▌   | 325/500 [10:06<05:18,  1.82s/it]Train -ELBO: 37.60621, Val -ELBO: 37.98129:  65%|██████▌   | 326/500 [10:08<05:16,  1.82s/it]Train -ELBO: 37.60496, Val -ELBO: 37.99160:  65%|██████▌   | 327/500 [10:10<05:15,  1.82s/it]Train -ELBO: 37.59879, Val -ELBO: 37.98761:  66%|██████▌   | 328/500 [10:12<05:13,  1.82s/it]Train -ELBO: 37.60874, Val -ELBO: 37.98286:  66%|██████▌   | 329/500 [10:14<05:11,  1.82s/it]Train -ELBO: 37.59428, Val -ELBO: 37.98908:  66%|██████▌   | 330/500 [10:16<05:10,  1.83s/it]Train -ELBO: 37.60510, Val -ELBO: 37.99456:  66%|██████▌   | 331/500 [10:17<05:08,  1.83s/it]Train -ELBO: 37.61052, Val -ELBO: 37.98262:  66%|██████▋   | 332/500 [10:19<05:06,  1.82s/it]Train -ELBO: 37.61637, Val -ELBO: 37.98428:  67%|██████▋   | 333/500 [10:21<05:04,  1.82s/it]Train -ELBO: 37.60520, Val -ELBO: 37.98835:  67%|██████▋   | 334/500 [10:23<05:02,  1.82s/it]Train -ELBO: 37.61055, Val -ELBO: 37.98534:  67%|██████▋   | 335/500 [10:25<05:00,  1.82s/it]Train -ELBO: 37.60540, Val -ELBO: 37.98307:  67%|██████▋   | 336/500 [10:27<04:58,  1.82s/it]Train -ELBO: 37.60898, Val -ELBO: 37.97826:  67%|██████▋   | 337/500 [10:28<04:56,  1.82s/it]Train -ELBO: 37.60697, Val -ELBO: 37.98724:  68%|██████▊   | 338/500 [10:30<04:55,  1.82s/it]Train -ELBO: 37.60071, Val -ELBO: 37.97909:  68%|██████▊   | 339/500 [10:32<04:53,  1.82s/it]Train -ELBO: 37.60098, Val -ELBO: 37.98361:  68%|██████▊   | 340/500 [10:34<04:52,  1.83s/it]Train -ELBO: 37.60532, Val -ELBO: 37.98117:  68%|██████▊   | 341/500 [10:36<04:50,  1.83s/it]Train -ELBO: 37.61184, Val -ELBO: 37.99072:  68%|██████▊   | 342/500 [10:38<04:48,  1.82s/it]Train -ELBO: 37.61187, Val -ELBO: 37.98554:  69%|██████▊   | 343/500 [10:39<04:46,  1.82s/it]Train -ELBO: 37.60238, Val -ELBO: 37.98761:  69%|██████▉   | 344/500 [10:41<04:44,  1.82s/it]Train -ELBO: 37.59764, Val -ELBO: 37.98478:  69%|██████▉   | 345/500 [10:43<04:42,  1.82s/it]Train -ELBO: 37.61218, Val -ELBO: 37.97727:  69%|██████▉   | 346/500 [10:45<04:40,  1.82s/it]Train -ELBO: 37.60732, Val -ELBO: 37.98289:  69%|██████▉   | 347/500 [10:47<04:38,  1.82s/it]Train -ELBO: 37.59880, Val -ELBO: 37.99738:  70%|██████▉   | 348/500 [10:48<04:36,  1.82s/it]Train -ELBO: 37.60155, Val -ELBO: 37.98828:  70%|██████▉   | 349/500 [10:50<04:34,  1.82s/it]Train -ELBO: 37.59891, Val -ELBO: 37.99495:  70%|███████   | 350/500 [10:52<04:34,  1.83s/it]Epoch   351: reducing learning rate of group 0 to 1.0000e-06.
Train -ELBO: 37.60795, Val -ELBO: 38.00945:  70%|███████   | 351/500 [10:54<04:32,  1.83s/it]Train -ELBO: 37.60651, Val -ELBO: 37.98108:  70%|███████   | 352/500 [10:56<04:30,  1.83s/it]Train -ELBO: 37.59822, Val -ELBO: 37.98223:  71%|███████   | 353/500 [10:58<04:28,  1.82s/it]Train -ELBO: 37.60623, Val -ELBO: 37.98182:  71%|███████   | 354/500 [10:59<04:26,  1.83s/it]Train -ELBO: 37.60284, Val -ELBO: 37.97722:  71%|███████   | 355/500 [11:01<04:24,  1.82s/it]Train -ELBO: 37.60728, Val -ELBO: 37.98535:  71%|███████   | 356/500 [11:03<04:22,  1.82s/it]Train -ELBO: 37.60354, Val -ELBO: 37.97693:  71%|███████▏  | 357/500 [11:05<04:20,  1.82s/it]Train -ELBO: 37.60906, Val -ELBO: 37.98010:  72%|███████▏  | 358/500 [11:07<04:18,  1.82s/it]Train -ELBO: 37.59937, Val -ELBO: 37.97665:  72%|███████▏  | 359/500 [11:08<04:16,  1.82s/it]Train -ELBO: 37.60599, Val -ELBO: 37.98392:  72%|███████▏  | 360/500 [11:10<04:16,  1.83s/it]Train -ELBO: 37.60801, Val -ELBO: 37.98717:  72%|███████▏  | 361/500 [11:12<04:14,  1.83s/it]Train -ELBO: 37.59346, Val -ELBO: 37.97892:  72%|███████▏  | 362/500 [11:14<04:11,  1.83s/it]Train -ELBO: 37.60925, Val -ELBO: 37.99677:  73%|███████▎  | 363/500 [11:16<04:09,  1.82s/it]Train -ELBO: 37.59379, Val -ELBO: 37.97577:  73%|███████▎  | 364/500 [11:18<04:08,  1.82s/it]Train -ELBO: 37.60652, Val -ELBO: 37.98071:  73%|███████▎  | 365/500 [11:19<04:06,  1.82s/it]Train -ELBO: 37.60257, Val -ELBO: 37.98152:  73%|███████▎  | 366/500 [11:21<04:04,  1.83s/it]Train -ELBO: 37.60280, Val -ELBO: 37.98093:  73%|███████▎  | 367/500 [11:23<04:02,  1.83s/it]Train -ELBO: 37.60728, Val -ELBO: 37.99549:  74%|███████▎  | 368/500 [11:25<04:01,  1.83s/it]Train -ELBO: 37.60229, Val -ELBO: 38.00254:  74%|███████▍  | 369/500 [11:27<03:59,  1.83s/it]Train -ELBO: 37.60029, Val -ELBO: 38.00435:  74%|███████▍  | 370/500 [11:29<03:58,  1.84s/it]Train -ELBO: 37.60857, Val -ELBO: 37.99852:  74%|███████▍  | 371/500 [11:30<03:56,  1.83s/it]Train -ELBO: 37.60092, Val -ELBO: 38.01430:  74%|███████▍  | 372/500 [11:32<03:54,  1.83s/it]Train -ELBO: 37.60020, Val -ELBO: 37.98240:  75%|███████▍  | 373/500 [11:34<03:52,  1.83s/it]Train -ELBO: 37.60697, Val -ELBO: 37.99791:  75%|███████▍  | 374/500 [11:36<03:50,  1.83s/it]Train -ELBO: 37.61954, Val -ELBO: 37.98532:  75%|███████▌  | 375/500 [11:38<03:48,  1.83s/it]Train -ELBO: 37.61005, Val -ELBO: 37.98247:  75%|███████▌  | 376/500 [11:40<03:46,  1.83s/it]Train -ELBO: 37.59768, Val -ELBO: 37.98415:  75%|███████▌  | 377/500 [11:41<03:44,  1.83s/it]Train -ELBO: 37.60275, Val -ELBO: 37.99709:  76%|███████▌  | 378/500 [11:43<03:42,  1.82s/it]Train -ELBO: 37.59892, Val -ELBO: 37.97958:  76%|███████▌  | 379/500 [11:45<03:40,  1.82s/it]Train -ELBO: 37.60961, Val -ELBO: 37.97367:  76%|███████▌  | 380/500 [11:47<03:40,  1.83s/it]Train -ELBO: 37.60340, Val -ELBO: 37.98876:  76%|███████▌  | 381/500 [11:49<03:38,  1.83s/it]Train -ELBO: 37.59812, Val -ELBO: 37.98878:  76%|███████▋  | 382/500 [11:51<03:36,  1.83s/it]Train -ELBO: 37.61078, Val -ELBO: 37.98449:  77%|███████▋  | 383/500 [11:52<03:33,  1.83s/it]Train -ELBO: 37.61167, Val -ELBO: 37.99440:  77%|███████▋  | 384/500 [11:54<03:32,  1.83s/it]Train -ELBO: 37.59652, Val -ELBO: 37.98288:  77%|███████▋  | 385/500 [11:56<03:30,  1.83s/it]Train -ELBO: 37.58797, Val -ELBO: 37.99039:  77%|███████▋  | 386/500 [11:58<03:28,  1.83s/it]Train -ELBO: 37.60694, Val -ELBO: 37.97976:  77%|███████▋  | 387/500 [12:00<03:26,  1.83s/it]Train -ELBO: 37.60394, Val -ELBO: 37.96992:  78%|███████▊  | 388/500 [12:01<03:24,  1.83s/it]Train -ELBO: 37.60562, Val -ELBO: 37.99814:  78%|███████▊  | 389/500 [12:03<03:22,  1.82s/it]Train -ELBO: 37.60004, Val -ELBO: 37.99532:  78%|███████▊  | 390/500 [12:05<03:21,  1.83s/it]Train -ELBO: 37.60603, Val -ELBO: 37.98135:  78%|███████▊  | 391/500 [12:07<03:19,  1.83s/it]Train -ELBO: 37.59831, Val -ELBO: 37.98237:  78%|███████▊  | 392/500 [12:09<03:17,  1.83s/it]Train -ELBO: 37.61031, Val -ELBO: 38.00485:  79%|███████▊  | 393/500 [12:11<03:15,  1.83s/it]Train -ELBO: 37.60193, Val -ELBO: 37.97992:  79%|███████▉  | 394/500 [12:12<03:13,  1.83s/it]Train -ELBO: 37.60318, Val -ELBO: 37.98199:  79%|███████▉  | 395/500 [12:14<03:11,  1.83s/it]Train -ELBO: 37.59780, Val -ELBO: 37.97909:  79%|███████▉  | 396/500 [12:16<03:09,  1.83s/it]Train -ELBO: 37.60546, Val -ELBO: 37.98860:  79%|███████▉  | 397/500 [12:18<03:08,  1.83s/it]Train -ELBO: 37.60339, Val -ELBO: 37.98865:  80%|███████▉  | 398/500 [12:20<03:06,  1.83s/it]Train -ELBO: 37.60753, Val -ELBO: 37.97934:  80%|███████▉  | 399/500 [12:22<03:04,  1.82s/it]Train -ELBO: 37.59984, Val -ELBO: 37.99590:  80%|████████  | 400/500 [12:23<03:03,  1.83s/it]Train -ELBO: 37.61107, Val -ELBO: 37.97589:  80%|████████  | 401/500 [12:25<03:01,  1.83s/it]Train -ELBO: 37.60595, Val -ELBO: 37.99970:  80%|████████  | 402/500 [12:27<02:59,  1.83s/it]Train -ELBO: 37.59762, Val -ELBO: 37.98725:  81%|████████  | 403/500 [12:29<02:57,  1.83s/it]Train -ELBO: 37.60483, Val -ELBO: 37.98643:  81%|████████  | 404/500 [12:31<02:55,  1.83s/it]Train -ELBO: 37.60595, Val -ELBO: 37.99300:  81%|████████  | 405/500 [12:33<02:53,  1.83s/it]Train -ELBO: 37.60834, Val -ELBO: 37.98499:  81%|████████  | 406/500 [12:34<02:51,  1.83s/it]Train -ELBO: 37.61149, Val -ELBO: 37.98933:  81%|████████▏ | 407/500 [12:36<02:49,  1.83s/it]Train -ELBO: 37.61263, Val -ELBO: 37.98093:  82%|████████▏ | 408/500 [12:38<02:48,  1.83s/it]Train -ELBO: 37.60931, Val -ELBO: 37.99288:  82%|████████▏ | 409/500 [12:40<02:46,  1.83s/it]Train -ELBO: 37.60300, Val -ELBO: 37.99047:  82%|████████▏ | 410/500 [12:42<02:45,  1.83s/it]Train -ELBO: 37.60932, Val -ELBO: 37.98524:  82%|████████▏ | 411/500 [12:44<02:42,  1.83s/it]Train -ELBO: 37.60135, Val -ELBO: 37.98817:  82%|████████▏ | 412/500 [12:45<02:40,  1.83s/it]Train -ELBO: 37.60445, Val -ELBO: 37.98770:  83%|████████▎ | 413/500 [12:47<02:39,  1.83s/it]Train -ELBO: 37.60242, Val -ELBO: 37.99675:  83%|████████▎ | 414/500 [12:49<02:37,  1.83s/it]Train -ELBO: 37.60031, Val -ELBO: 37.98094:  83%|████████▎ | 415/500 [12:51<02:35,  1.83s/it]Train -ELBO: 37.59951, Val -ELBO: 37.98941:  83%|████████▎ | 416/500 [12:53<02:33,  1.82s/it]Train -ELBO: 37.60401, Val -ELBO: 37.99470:  83%|████████▎ | 417/500 [12:54<02:31,  1.82s/it]Train -ELBO: 37.59499, Val -ELBO: 37.98752:  84%|████████▎ | 418/500 [12:56<02:29,  1.82s/it]Train -ELBO: 37.60901, Val -ELBO: 37.98741:  84%|████████▍ | 419/500 [12:58<02:28,  1.83s/it]Train -ELBO: 37.60435, Val -ELBO: 37.96614:  84%|████████▍ | 420/500 [13:00<02:26,  1.84s/it]Train -ELBO: 37.60385, Val -ELBO: 37.98286:  84%|████████▍ | 421/500 [13:02<02:24,  1.83s/it]Train -ELBO: 37.60371, Val -ELBO: 37.98894:  84%|████████▍ | 422/500 [13:04<02:22,  1.83s/it]Train -ELBO: 37.60630, Val -ELBO: 37.97557:  85%|████████▍ | 423/500 [13:05<02:20,  1.83s/it]Train -ELBO: 37.59701, Val -ELBO: 37.98409:  85%|████████▍ | 424/500 [13:07<02:18,  1.83s/it]Train -ELBO: 37.59701, Val -ELBO: 37.97033:  85%|████████▌ | 425/500 [13:09<02:16,  1.83s/it]Train -ELBO: 37.60701, Val -ELBO: 37.97903:  85%|████████▌ | 426/500 [13:11<02:15,  1.83s/it]Train -ELBO: 37.60450, Val -ELBO: 37.99111:  85%|████████▌ | 427/500 [13:13<02:13,  1.82s/it]Train -ELBO: 37.61057, Val -ELBO: 37.99096:  86%|████████▌ | 428/500 [13:15<02:11,  1.82s/it]Train -ELBO: 37.58981, Val -ELBO: 37.98782:  86%|████████▌ | 429/500 [13:16<02:09,  1.82s/it]Train -ELBO: 37.59188, Val -ELBO: 37.99699:  86%|████████▌ | 430/500 [13:18<02:08,  1.83s/it]Train -ELBO: 37.60439, Val -ELBO: 37.98422:  86%|████████▌ | 431/500 [13:20<02:06,  1.83s/it]Train -ELBO: 37.59588, Val -ELBO: 37.97801:  86%|████████▋ | 432/500 [13:22<02:04,  1.83s/it]Train -ELBO: 37.60725, Val -ELBO: 37.99781:  87%|████████▋ | 433/500 [13:24<02:02,  1.83s/it]Train -ELBO: 37.60500, Val -ELBO: 37.97181:  87%|████████▋ | 434/500 [13:26<02:00,  1.83s/it]Train -ELBO: 37.60857, Val -ELBO: 37.99009:  87%|████████▋ | 435/500 [13:27<01:58,  1.82s/it]Train -ELBO: 37.59565, Val -ELBO: 37.97814:  87%|████████▋ | 436/500 [13:29<01:56,  1.83s/it]Train -ELBO: 37.60406, Val -ELBO: 37.98242:  87%|████████▋ | 437/500 [13:31<01:55,  1.83s/it]Train -ELBO: 37.60827, Val -ELBO: 38.00333:  88%|████████▊ | 438/500 [13:33<01:53,  1.83s/it]Train -ELBO: 37.60228, Val -ELBO: 37.98844:  88%|████████▊ | 439/500 [13:35<01:51,  1.83s/it]Train -ELBO: 37.60696, Val -ELBO: 37.98676:  88%|████████▊ | 440/500 [13:37<01:50,  1.84s/it]Train -ELBO: 37.61172, Val -ELBO: 37.98617:  88%|████████▊ | 441/500 [13:38<01:48,  1.83s/it]Train -ELBO: 37.60301, Val -ELBO: 37.99643:  88%|████████▊ | 442/500 [13:40<01:46,  1.83s/it]Train -ELBO: 37.60156, Val -ELBO: 37.98888:  89%|████████▊ | 443/500 [13:42<01:44,  1.83s/it]Train -ELBO: 37.60815, Val -ELBO: 37.99117:  89%|████████▉ | 444/500 [13:44<01:42,  1.83s/it]Train -ELBO: 37.61390, Val -ELBO: 37.97774:  89%|████████▉ | 445/500 [13:46<01:40,  1.83s/it]Train -ELBO: 37.60317, Val -ELBO: 37.98469:  89%|████████▉ | 446/500 [13:48<01:38,  1.83s/it]Train -ELBO: 37.59807, Val -ELBO: 37.99204:  89%|████████▉ | 447/500 [13:49<01:36,  1.83s/it]Train -ELBO: 37.60447, Val -ELBO: 37.97836:  90%|████████▉ | 448/500 [13:51<01:34,  1.83s/it]Train -ELBO: 37.59990, Val -ELBO: 37.99110:  90%|████████▉ | 449/500 [13:53<01:33,  1.82s/it]Train -ELBO: 37.60457, Val -ELBO: 37.99234:  90%|█████████ | 450/500 [13:55<01:31,  1.83s/it]Train -ELBO: 37.61998, Val -ELBO: 37.98788:  90%|█████████ | 451/500 [13:57<01:29,  1.83s/it]Train -ELBO: 37.61249, Val -ELBO: 37.97949:  90%|█████████ | 452/500 [13:58<01:27,  1.83s/it]Train -ELBO: 37.62399, Val -ELBO: 37.99853:  91%|█████████ | 453/500 [14:00<01:25,  1.83s/it]Train -ELBO: 37.60110, Val -ELBO: 37.99184:  91%|█████████ | 454/500 [14:02<01:23,  1.82s/it]Train -ELBO: 37.60687, Val -ELBO: 37.99445:  91%|█████████ | 455/500 [14:04<01:22,  1.82s/it]Train -ELBO: 37.60467, Val -ELBO: 37.97831:  91%|█████████ | 456/500 [14:06<01:20,  1.82s/it]Train -ELBO: 37.60002, Val -ELBO: 37.97990:  91%|█████████▏| 457/500 [14:08<01:18,  1.82s/it]Train -ELBO: 37.60689, Val -ELBO: 37.99769:  92%|█████████▏| 458/500 [14:09<01:16,  1.83s/it]Train -ELBO: 37.60849, Val -ELBO: 37.96520:  92%|█████████▏| 459/500 [14:11<01:14,  1.82s/it]Train -ELBO: 37.61312, Val -ELBO: 37.99767:  92%|█████████▏| 460/500 [14:13<01:13,  1.83s/it]Train -ELBO: 37.60409, Val -ELBO: 37.97110:  92%|█████████▏| 461/500 [14:15<01:11,  1.83s/it]Train -ELBO: 37.59772, Val -ELBO: 38.00038:  92%|█████████▏| 462/500 [14:17<01:09,  1.83s/it]Train -ELBO: 37.61058, Val -ELBO: 37.98556:  93%|█████████▎| 463/500 [14:19<01:07,  1.83s/it]Train -ELBO: 37.60638, Val -ELBO: 37.99291:  93%|█████████▎| 464/500 [14:20<01:05,  1.83s/it]Train -ELBO: 37.60649, Val -ELBO: 37.99190:  93%|█████████▎| 465/500 [14:22<01:03,  1.82s/it]Train -ELBO: 37.60803, Val -ELBO: 37.98224:  93%|█████████▎| 466/500 [14:24<01:02,  1.82s/it]Train -ELBO: 37.60074, Val -ELBO: 37.99478:  93%|█████████▎| 467/500 [14:26<01:00,  1.82s/it]Train -ELBO: 37.60900, Val -ELBO: 37.97837:  94%|█████████▎| 468/500 [14:28<00:58,  1.82s/it]Train -ELBO: 37.61008, Val -ELBO: 37.98492:  94%|█████████▍| 469/500 [14:30<00:56,  1.82s/it]Train -ELBO: 37.59711, Val -ELBO: 37.98359:  94%|█████████▍| 470/500 [14:31<00:54,  1.83s/it]Train -ELBO: 37.60717, Val -ELBO: 37.98168:  94%|█████████▍| 471/500 [14:33<00:53,  1.83s/it]Train -ELBO: 37.59551, Val -ELBO: 37.98599:  94%|█████████▍| 472/500 [14:35<00:51,  1.83s/it]Train -ELBO: 37.60303, Val -ELBO: 37.98540:  95%|█████████▍| 473/500 [14:37<00:49,  1.83s/it]Train -ELBO: 37.60904, Val -ELBO: 37.99861:  95%|█████████▍| 474/500 [14:39<00:47,  1.83s/it]Train -ELBO: 37.60442, Val -ELBO: 37.98255:  95%|█████████▌| 475/500 [14:40<00:45,  1.83s/it]Train -ELBO: 37.60899, Val -ELBO: 37.98914:  95%|█████████▌| 476/500 [14:42<00:43,  1.82s/it]Train -ELBO: 37.60902, Val -ELBO: 37.97336:  95%|█████████▌| 477/500 [14:44<00:41,  1.82s/it]Train -ELBO: 37.60618, Val -ELBO: 37.97060:  96%|█████████▌| 478/500 [14:46<00:40,  1.82s/it]Train -ELBO: 37.60233, Val -ELBO: 37.96998:  96%|█████████▌| 479/500 [14:48<00:38,  1.82s/it]Train -ELBO: 37.60827, Val -ELBO: 37.98250:  96%|█████████▌| 480/500 [14:50<00:36,  1.83s/it]Train -ELBO: 37.60655, Val -ELBO: 37.99331:  96%|█████████▌| 481/500 [14:51<00:34,  1.83s/it]Train -ELBO: 37.61154, Val -ELBO: 37.99212:  96%|█████████▋| 482/500 [14:53<00:32,  1.83s/it]Train -ELBO: 37.60239, Val -ELBO: 37.98574:  97%|█████████▋| 483/500 [14:55<00:31,  1.83s/it]Train -ELBO: 37.59393, Val -ELBO: 37.98607:  97%|█████████▋| 484/500 [14:57<00:29,  1.83s/it]Train -ELBO: 37.59482, Val -ELBO: 37.99057:  97%|█████████▋| 485/500 [14:59<00:27,  1.83s/it]Train -ELBO: 37.60861, Val -ELBO: 37.98151:  97%|█████████▋| 486/500 [15:01<00:25,  1.83s/it]Train -ELBO: 37.59695, Val -ELBO: 37.97393:  97%|█████████▋| 487/500 [15:02<00:23,  1.82s/it]Train -ELBO: 37.59637, Val -ELBO: 37.98241:  98%|█████████▊| 488/500 [15:04<00:21,  1.82s/it]Train -ELBO: 37.60309, Val -ELBO: 37.98272:  98%|█████████▊| 489/500 [15:06<00:20,  1.82s/it]Train -ELBO: 37.60799, Val -ELBO: 37.97944:  98%|█████████▊| 490/500 [15:08<00:18,  1.83s/it]Train -ELBO: 37.59230, Val -ELBO: 37.98378:  98%|█████████▊| 491/500 [15:10<00:16,  1.83s/it]Train -ELBO: 37.60610, Val -ELBO: 38.00019:  98%|█████████▊| 492/500 [15:12<00:14,  1.83s/it]Train -ELBO: 37.59854, Val -ELBO: 37.99388:  99%|█████████▊| 493/500 [15:13<00:12,  1.83s/it]Train -ELBO: 37.60136, Val -ELBO: 37.99108:  99%|█████████▉| 494/500 [15:15<00:10,  1.83s/it]Train -ELBO: 37.61314, Val -ELBO: 37.98044:  99%|█████████▉| 495/500 [15:17<00:09,  1.82s/it]Train -ELBO: 37.60279, Val -ELBO: 37.97769:  99%|█████████▉| 496/500 [15:19<00:07,  1.82s/it]Train -ELBO: 37.60182, Val -ELBO: 37.98441:  99%|█████████▉| 497/500 [15:21<00:05,  1.82s/it]Train -ELBO: 37.60314, Val -ELBO: 37.98005: 100%|█████████▉| 498/500 [15:22<00:03,  1.82s/it]Train -ELBO: 37.60903, Val -ELBO: 37.97823: 100%|█████████▉| 499/500 [15:24<00:01,  1.82s/it]Train -ELBO: 37.60838, Val -ELBO: 37.98811: 100%|██████████| 500/500 [15:26<00:00,  1.83s/it]Train -ELBO: 37.60838, Val -ELBO: 37.98811: 100%|██████████| 500/500 [15:26<00:00,  1.85s/it]
INFO - siren_vae - Completed after 0:15:29
