INFO - residual_nf - Running command 'run'
INFO - residual_nf - Started run with ID "1"
[CONFIG] {'bn': 'ecoli70-alt', 'structure': 'faithful', 'coeff': 0.99, 'n_power_iterations': 5, 'num_blocks': 9, 'hidden_dims': [100], 'activation': 'lipmish', 'grad_in_forward': True, 'batch_size': 100, 'num_train_samples': 10000, 'num_val_samples': 5000, 'num_epochs': 200, 'num_train_batches': 100, 'num_val_batches': 50, 'lr': 0.01, 'seed': 0, 'patience': 20, 'double': True, 'run': 1, 'checkpoint_n': 10, 'load_from_checkpoint': False, 'ex_name': 'residual_nf', 'sub_folder': 'faithful_99_lipmish_9_[100]', 'path': './experiment_logs/residual_nf/ecoli70-alt/faithful_99_lipmish_9_[100]', 'bt_config': {'depth': 5, 'seed': 4}}
[DEVICE] cpu
[ENCODED STRUCTURE] Using faithful BN structure.
  0%|          | 0/200 [00:00<?, ?it/s]Train: 56.303, Val: 35.765:   0%|          | 1/200 [00:04<14:23,  4.34s/it]Train: 35.653, Val: 35.683:   1%|          | 2/200 [00:08<14:04,  4.26s/it]Train: 35.527, Val: 35.460:   2%|▏         | 3/200 [00:13<14:27,  4.40s/it]Train: 35.463, Val: 35.423:   2%|▏         | 4/200 [00:17<14:31,  4.45s/it]Train: 35.453, Val: 35.399:   2%|▎         | 5/200 [00:22<14:31,  4.47s/it]Train: 35.411, Val: 35.399:   3%|▎         | 6/200 [00:26<14:30,  4.48s/it]Train: 35.364, Val: 35.497:   4%|▎         | 7/200 [00:31<14:25,  4.48s/it]Train: 35.421, Val: 35.295:   4%|▍         | 8/200 [00:35<14:16,  4.46s/it]Train: 35.349, Val: 35.387:   4%|▍         | 9/200 [00:39<14:10,  4.45s/it]Train: 35.349, Val: 35.314:   5%|▌         | 10/200 [00:44<14:06,  4.46s/it]Train: 35.330, Val: 35.310:   6%|▌         | 11/200 [00:48<14:00,  4.45s/it]Train: 35.353, Val: 35.488:   6%|▌         | 12/200 [00:53<13:59,  4.46s/it]Train: 35.324, Val: 35.295:   6%|▋         | 13/200 [00:57<13:53,  4.46s/it]Train: 35.299, Val: 35.303:   7%|▋         | 14/200 [01:02<13:49,  4.46s/it]Train: 35.305, Val: 35.309:   8%|▊         | 15/200 [01:06<13:45,  4.46s/it]Train: 35.340, Val: 35.285:   8%|▊         | 16/200 [01:11<13:40,  4.46s/it]Train: 35.297, Val: 35.385:   8%|▊         | 17/200 [01:15<13:36,  4.46s/it]Train: 35.278, Val: 35.247:   9%|▉         | 18/200 [01:20<13:33,  4.47s/it]Train: 35.285, Val: 35.178:  10%|▉         | 19/200 [01:24<13:28,  4.47s/it]Train: 35.236, Val: 35.270:  10%|█         | 20/200 [01:29<13:24,  4.47s/it]Train: 35.318, Val: 35.309:  10%|█         | 21/200 [01:33<13:17,  4.46s/it]Train: 35.270, Val: 35.269:  11%|█         | 22/200 [01:37<13:11,  4.45s/it]Train: 35.312, Val: 35.229:  12%|█▏        | 23/200 [01:42<13:05,  4.44s/it]Train: 35.298, Val: 35.195:  12%|█▏        | 24/200 [01:46<12:59,  4.43s/it]Train: 35.312, Val: 35.207:  12%|█▎        | 25/200 [01:51<12:53,  4.42s/it]Train: 35.276, Val: 35.205:  13%|█▎        | 26/200 [01:55<12:48,  4.41s/it]Train: 35.290, Val: 35.316:  14%|█▎        | 27/200 [01:59<12:43,  4.41s/it]Train: 35.285, Val: 35.303:  14%|█▍        | 28/200 [02:04<12:40,  4.42s/it]Train: 35.295, Val: 35.288:  14%|█▍        | 29/200 [02:08<12:36,  4.42s/it]Train: 35.289, Val: 35.251:  15%|█▌        | 30/200 [02:13<12:32,  4.43s/it]Train: 35.269, Val: 35.239:  16%|█▌        | 31/200 [02:17<12:28,  4.43s/it]Train: 35.232, Val: 35.222:  16%|█▌        | 32/200 [02:22<12:24,  4.43s/it]Train: 35.254, Val: 35.208:  16%|█▋        | 33/200 [02:26<12:20,  4.43s/it]Train: 35.259, Val: 35.210:  17%|█▋        | 34/200 [02:31<12:16,  4.44s/it]Train: 35.267, Val: 35.203:  18%|█▊        | 35/200 [02:35<12:12,  4.44s/it]Train: 35.226, Val: 35.266:  18%|█▊        | 36/200 [02:39<12:08,  4.44s/it]Train: 35.264, Val: 35.198:  18%|█▊        | 37/200 [02:44<12:03,  4.44s/it]Train: 35.241, Val: 35.231:  19%|█▉        | 38/200 [02:48<11:58,  4.44s/it]Train: 35.227, Val: 35.264:  20%|█▉        | 39/200 [02:53<11:54,  4.44s/it]Train: 35.247, Val: 35.181:  20%|██        | 40/200 [02:57<11:53,  4.46s/it]Train: 35.226, Val: 35.225:  20%|██        | 41/200 [03:02<11:46,  4.45s/it]Train: 35.226, Val: 35.267:  21%|██        | 42/200 [03:06<11:44,  4.46s/it]Train: 35.245, Val: 35.272:  22%|██▏       | 43/200 [03:11<11:38,  4.45s/it]Train: 35.232, Val: 35.280:  22%|██▏       | 44/200 [03:15<11:32,  4.44s/it]Train: 35.253, Val: 35.239:  22%|██▎       | 45/200 [03:19<11:29,  4.45s/it]Train: 35.244, Val: 35.202:  23%|██▎       | 46/200 [03:24<11:24,  4.45s/it]Train: 35.253, Val: 35.261:  24%|██▎       | 47/200 [03:28<11:20,  4.45s/it]Train: 35.260, Val: 35.172:  24%|██▍       | 48/200 [03:33<11:15,  4.44s/it]Train: 35.232, Val: 35.166:  24%|██▍       | 49/200 [03:37<11:11,  4.45s/it]Train: 35.228, Val: 35.181:  25%|██▌       | 50/200 [03:42<11:07,  4.45s/it]Train: 35.253, Val: 35.273:  26%|██▌       | 51/200 [03:46<11:01,  4.44s/it]Train: 35.284, Val: 35.243:  26%|██▌       | 52/200 [03:51<10:56,  4.44s/it]Train: 35.233, Val: 35.296:  26%|██▋       | 53/200 [03:55<10:52,  4.44s/it]Train: 35.263, Val: 35.212:  27%|██▋       | 54/200 [03:59<10:46,  4.43s/it]Train: 35.212, Val: 35.225:  28%|██▊       | 55/200 [04:04<10:46,  4.46s/it]Train: 35.243, Val: 35.153:  28%|██▊       | 56/200 [04:08<10:44,  4.48s/it]Train: 35.228, Val: 35.237:  28%|██▊       | 57/200 [04:13<10:38,  4.46s/it]Train: 35.217, Val: 35.242:  29%|██▉       | 58/200 [04:17<10:31,  4.45s/it]Train: 35.213, Val: 35.235:  30%|██▉       | 59/200 [04:22<10:29,  4.46s/it]Train: 35.232, Val: 35.230:  30%|███       | 60/200 [04:26<10:25,  4.47s/it]Train: 35.226, Val: 35.226:  30%|███       | 61/200 [04:31<10:18,  4.45s/it]Train: 35.212, Val: 35.221:  31%|███       | 62/200 [04:35<10:13,  4.45s/it]Train: 35.193, Val: 35.159:  32%|███▏      | 63/200 [04:40<10:08,  4.44s/it]Train: 35.222, Val: 35.165:  32%|███▏      | 64/200 [04:44<10:04,  4.44s/it]Train: 35.246, Val: 35.206:  32%|███▎      | 65/200 [04:48<09:59,  4.44s/it]Train: 35.223, Val: 35.219:  33%|███▎      | 66/200 [04:53<09:55,  4.45s/it]Train: 35.223, Val: 35.181:  34%|███▎      | 67/200 [04:57<09:51,  4.45s/it]Train: 35.210, Val: 35.128:  34%|███▍      | 68/200 [05:02<09:47,  4.45s/it]Train: 35.192, Val: 35.151:  34%|███▍      | 69/200 [05:06<09:42,  4.45s/it]Train: 35.224, Val: 35.169:  35%|███▌      | 70/200 [05:11<09:38,  4.45s/it]Train: 35.205, Val: 35.180:  36%|███▌      | 71/200 [05:15<09:33,  4.45s/it]Train: 35.212, Val: 35.237:  36%|███▌      | 72/200 [05:20<09:29,  4.45s/it]Train: 35.228, Val: 35.173:  36%|███▋      | 73/200 [05:24<09:24,  4.45s/it]Train: 35.213, Val: 35.168:  37%|███▋      | 74/200 [05:28<09:20,  4.45s/it]Train: 35.222, Val: 35.201:  38%|███▊      | 75/200 [05:33<09:15,  4.45s/it]Train: 35.204, Val: 35.194:  38%|███▊      | 76/200 [05:37<09:11,  4.44s/it]Train: 35.210, Val: 35.148:  38%|███▊      | 77/200 [05:42<09:06,  4.45s/it]Train: 35.209, Val: 35.159:  39%|███▉      | 78/200 [05:46<09:02,  4.45s/it]Train: 35.195, Val: 35.209:  40%|███▉      | 79/200 [05:51<08:58,  4.45s/it]Train: 35.198, Val: 35.183:  40%|████      | 80/200 [05:55<08:54,  4.46s/it]Train: 35.198, Val: 35.152:  40%|████      | 81/200 [06:00<08:50,  4.46s/it]Train: 35.193, Val: 35.119:  41%|████      | 82/200 [06:04<08:45,  4.46s/it]Train: 35.208, Val: 35.151:  42%|████▏     | 83/200 [06:09<08:41,  4.46s/it]Epoch    84: reducing learning rate of group 0 to 1.0000e-03.
Train: 35.190, Val: 35.161:  42%|████▏     | 84/200 [06:13<08:37,  4.46s/it]Train: 35.064, Val: 35.045:  42%|████▎     | 85/200 [06:18<08:33,  4.47s/it]Train: 35.047, Val: 35.021:  43%|████▎     | 86/200 [06:22<08:28,  4.46s/it]Train: 35.041, Val: 35.030:  44%|████▎     | 87/200 [06:26<08:24,  4.46s/it]Train: 35.038, Val: 35.018:  44%|████▍     | 88/200 [06:31<08:19,  4.46s/it]Train: 35.043, Val: 35.032:  44%|████▍     | 89/200 [06:35<08:15,  4.46s/it]Train: 35.037, Val: 35.027:  45%|████▌     | 90/200 [06:40<08:10,  4.46s/it]Train: 35.040, Val: 35.029:  46%|████▌     | 91/200 [06:44<08:06,  4.46s/it]Train: 35.040, Val: 35.020:  46%|████▌     | 92/200 [06:49<08:01,  4.46s/it]Train: 35.044, Val: 35.032:  46%|████▋     | 93/200 [06:53<07:57,  4.46s/it]Train: 35.043, Val: 35.028:  47%|████▋     | 94/200 [06:58<07:52,  4.46s/it]Train: 35.041, Val: 35.028:  48%|████▊     | 95/200 [07:02<07:48,  4.46s/it]Train: 35.038, Val: 35.031:  48%|████▊     | 96/200 [07:07<07:43,  4.46s/it]Train: 35.040, Val: 35.027:  48%|████▊     | 97/200 [07:11<07:39,  4.46s/it]Train: 35.039, Val: 35.027:  49%|████▉     | 98/200 [07:15<07:34,  4.46s/it]Train: 35.042, Val: 35.027:  50%|████▉     | 99/200 [07:20<07:30,  4.46s/it]Train: 35.039, Val: 35.041:  50%|█████     | 100/200 [07:24<07:26,  4.46s/it]Train: 35.044, Val: 35.032:  50%|█████     | 101/200 [07:29<07:22,  4.47s/it]Train: 35.039, Val: 35.039:  51%|█████     | 102/200 [07:33<07:17,  4.46s/it]Train: 35.044, Val: 35.029:  52%|█████▏    | 103/200 [07:38<07:12,  4.46s/it]Train: 35.043, Val: 35.032:  52%|█████▏    | 104/200 [07:42<07:07,  4.46s/it]Train: 35.042, Val: 35.024:  52%|█████▎    | 105/200 [07:47<07:03,  4.45s/it]Train: 35.041, Val: 35.024:  53%|█████▎    | 106/200 [07:51<06:58,  4.45s/it]Train: 35.041, Val: 35.028:  54%|█████▎    | 107/200 [07:56<06:53,  4.45s/it]Train: 35.043, Val: 35.022:  54%|█████▍    | 108/200 [08:00<06:49,  4.45s/it]Train: 35.045, Val: 35.026:  55%|█████▍    | 109/200 [08:04<06:44,  4.45s/it]Train: 35.038, Val: 35.018:  55%|█████▌    | 110/200 [08:09<06:40,  4.45s/it]Epoch   111: reducing learning rate of group 0 to 1.0000e-04.
Train: 35.039, Val: 35.035:  56%|█████▌    | 111/200 [08:13<06:35,  4.45s/it]Train: 35.029, Val: 35.012:  56%|█████▌    | 112/200 [08:18<06:31,  4.45s/it]Train: 35.024, Val: 35.018:  56%|█████▋    | 113/200 [08:22<06:26,  4.45s/it]Train: 35.023, Val: 35.010:  57%|█████▋    | 114/200 [08:27<06:22,  4.44s/it]Train: 35.023, Val: 35.012:  57%|█████▊    | 115/200 [08:31<06:16,  4.43s/it]Train: 35.023, Val: 35.011:  58%|█████▊    | 116/200 [08:36<06:12,  4.43s/it]Train: 35.021, Val: 35.012:  58%|█████▊    | 117/200 [08:40<06:07,  4.43s/it]Train: 35.023, Val: 35.011:  59%|█████▉    | 118/200 [08:44<06:03,  4.44s/it]Train: 35.021, Val: 35.008:  60%|█████▉    | 119/200 [08:49<05:59,  4.44s/it]Train: 35.022, Val: 35.010:  60%|██████    | 120/200 [08:53<05:55,  4.45s/it]Train: 35.022, Val: 35.015:  60%|██████    | 121/200 [08:58<05:51,  4.45s/it]Train: 35.020, Val: 35.011:  61%|██████    | 122/200 [09:02<05:46,  4.44s/it]Train: 35.022, Val: 35.008:  62%|██████▏   | 123/200 [09:07<05:42,  4.45s/it]Train: 35.021, Val: 35.008:  62%|██████▏   | 124/200 [09:11<05:38,  4.45s/it]Train: 35.021, Val: 35.009:  62%|██████▎   | 125/200 [09:16<05:33,  4.45s/it]Train: 35.023, Val: 35.009:  63%|██████▎   | 126/200 [09:20<05:29,  4.45s/it]Train: 35.020, Val: 35.010:  64%|██████▎   | 127/200 [09:24<05:25,  4.45s/it]Train: 35.021, Val: 35.006:  64%|██████▍   | 128/200 [09:29<05:20,  4.45s/it]Train: 35.021, Val: 35.008:  64%|██████▍   | 129/200 [09:33<05:15,  4.45s/it]Train: 35.020, Val: 35.010:  65%|██████▌   | 130/200 [09:38<05:11,  4.46s/it]Train: 35.021, Val: 35.011:  66%|██████▌   | 131/200 [09:42<05:07,  4.45s/it]Train: 35.021, Val: 35.011:  66%|██████▌   | 132/200 [09:47<05:02,  4.45s/it]Train: 35.022, Val: 35.007:  66%|██████▋   | 133/200 [09:51<04:58,  4.45s/it]Train: 35.022, Val: 35.011:  67%|██████▋   | 134/200 [09:56<04:53,  4.45s/it]Train: 35.022, Val: 35.010:  68%|██████▊   | 135/200 [10:00<04:48,  4.44s/it]Train: 35.021, Val: 35.011:  68%|██████▊   | 136/200 [10:05<04:44,  4.45s/it]Train: 35.021, Val: 35.009:  68%|██████▊   | 137/200 [10:09<04:39,  4.44s/it]Train: 35.021, Val: 35.008:  69%|██████▉   | 138/200 [10:13<04:35,  4.44s/it]Train: 35.020, Val: 35.010:  70%|██████▉   | 139/200 [10:18<04:30,  4.44s/it]Train: 35.021, Val: 35.010:  70%|███████   | 140/200 [10:22<04:26,  4.45s/it]Train: 35.022, Val: 35.009:  70%|███████   | 141/200 [10:27<04:22,  4.45s/it]Train: 35.021, Val: 35.008:  71%|███████   | 142/200 [10:31<04:18,  4.45s/it]Train: 35.022, Val: 35.008:  72%|███████▏  | 143/200 [10:36<04:13,  4.45s/it]Train: 35.021, Val: 35.008:  72%|███████▏  | 144/200 [10:40<04:09,  4.45s/it]Train: 35.020, Val: 35.007:  72%|███████▎  | 145/200 [10:45<04:04,  4.45s/it]Train: 35.021, Val: 35.011:  73%|███████▎  | 146/200 [10:49<04:00,  4.45s/it]Train: 35.022, Val: 35.009:  74%|███████▎  | 147/200 [10:53<03:55,  4.44s/it]Epoch   148: reducing learning rate of group 0 to 1.0000e-05.
Train: 35.022, Val: 35.007:  74%|███████▍  | 148/200 [10:58<03:51,  4.44s/it]Train: 35.020, Val: 35.009:  74%|███████▍  | 149/200 [11:02<03:47,  4.46s/it]Train: 35.019, Val: 35.007:  75%|███████▌  | 150/200 [11:07<03:42,  4.46s/it]Train: 35.019, Val: 35.007:  76%|███████▌  | 151/200 [11:11<03:38,  4.46s/it]Train: 35.020, Val: 35.008:  76%|███████▌  | 152/200 [11:16<03:34,  4.46s/it]Train: 35.020, Val: 35.008:  76%|███████▋  | 153/200 [11:20<03:29,  4.46s/it]Train: 35.020, Val: 35.007:  77%|███████▋  | 154/200 [11:25<03:25,  4.46s/it]Train: 35.019, Val: 35.008:  78%|███████▊  | 155/200 [11:29<03:20,  4.46s/it]Train: 35.019, Val: 35.007:  78%|███████▊  | 156/200 [11:34<03:16,  4.46s/it]Train: 35.019, Val: 35.006:  78%|███████▊  | 157/200 [11:38<03:11,  4.46s/it]Train: 35.019, Val: 35.007:  79%|███████▉  | 158/200 [11:42<03:07,  4.46s/it]Train: 35.020, Val: 35.006:  80%|███████▉  | 159/200 [11:47<03:02,  4.45s/it]Train: 35.019, Val: 35.006:  80%|████████  | 160/200 [11:51<02:58,  4.46s/it]Train: 35.019, Val: 35.007:  80%|████████  | 161/200 [11:56<02:53,  4.46s/it]Train: 35.019, Val: 35.008:  81%|████████  | 162/200 [12:00<02:49,  4.47s/it]Train: 35.019, Val: 35.006:  82%|████████▏ | 163/200 [12:05<02:45,  4.47s/it]Train: 35.019, Val: 35.009:  82%|████████▏ | 164/200 [12:09<02:40,  4.47s/it]Train: 35.019, Val: 35.009:  82%|████████▎ | 165/200 [12:14<02:36,  4.47s/it]Train: 35.019, Val: 35.006:  83%|████████▎ | 166/200 [12:18<02:31,  4.46s/it]Train: 35.018, Val: 35.008:  84%|████████▎ | 167/200 [12:23<02:27,  4.46s/it]Train: 35.018, Val: 35.006:  84%|████████▍ | 168/200 [12:27<02:22,  4.46s/it]Epoch   169: reducing learning rate of group 0 to 1.0000e-06.
Train: 35.020, Val: 35.007:  84%|████████▍ | 169/200 [12:32<02:18,  4.46s/it]Train: 35.019, Val: 35.008:  85%|████████▌ | 170/200 [12:36<02:14,  4.47s/it]Train: 35.019, Val: 35.008:  86%|████████▌ | 171/200 [12:41<02:09,  4.47s/it]Train: 35.019, Val: 35.007:  86%|████████▌ | 172/200 [12:45<02:05,  4.47s/it]Train: 35.019, Val: 35.006:  86%|████████▋ | 173/200 [12:49<02:00,  4.47s/it]Train: 35.019, Val: 35.007:  87%|████████▋ | 174/200 [12:54<01:56,  4.47s/it]Train: 35.019, Val: 35.007:  88%|████████▊ | 175/200 [12:58<01:51,  4.47s/it]Train: 35.019, Val: 35.007:  88%|████████▊ | 176/200 [13:03<01:47,  4.47s/it]Train: 35.018, Val: 35.008:  88%|████████▊ | 177/200 [13:07<01:42,  4.47s/it]Train: 35.020, Val: 35.008:  89%|████████▉ | 178/200 [13:12<01:38,  4.47s/it]Train: 35.019, Val: 35.005:  90%|████████▉ | 179/200 [13:16<01:33,  4.47s/it]Train: 35.019, Val: 35.005:  90%|█████████ | 180/200 [13:21<01:29,  4.48s/it]Train: 35.019, Val: 35.007:  90%|█████████ | 181/200 [13:25<01:24,  4.47s/it]Train: 35.019, Val: 35.006:  91%|█████████ | 182/200 [13:30<01:20,  4.47s/it]Train: 35.019, Val: 35.008:  92%|█████████▏| 183/200 [13:34<01:15,  4.47s/it]Train: 35.019, Val: 35.007:  92%|█████████▏| 184/200 [13:39<01:11,  4.46s/it]Train: 35.020, Val: 35.007:  92%|█████████▎| 185/200 [13:43<01:06,  4.47s/it]Train: 35.018, Val: 35.008:  93%|█████████▎| 186/200 [13:48<01:02,  4.46s/it]Train: 35.019, Val: 35.007:  94%|█████████▎| 187/200 [13:52<00:57,  4.46s/it]Train: 35.020, Val: 35.007:  94%|█████████▍| 188/200 [13:56<00:53,  4.46s/it]Train: 35.019, Val: 35.007:  94%|█████████▍| 189/200 [14:01<00:49,  4.46s/it]Train: 35.019, Val: 35.007:  95%|█████████▌| 190/200 [14:05<00:44,  4.47s/it]Train: 35.019, Val: 35.009:  96%|█████████▌| 191/200 [14:10<00:40,  4.46s/it]Train: 35.020, Val: 35.006:  96%|█████████▌| 192/200 [14:14<00:35,  4.46s/it]Train: 35.019, Val: 35.008:  96%|█████████▋| 193/200 [14:19<00:31,  4.46s/it]Train: 35.019, Val: 35.007:  97%|█████████▋| 194/200 [14:23<00:26,  4.46s/it]Train: 35.018, Val: 35.007:  98%|█████████▊| 195/200 [14:28<00:22,  4.46s/it]Train: 35.019, Val: 35.008:  98%|█████████▊| 196/200 [14:32<00:17,  4.46s/it]Train: 35.018, Val: 35.008:  98%|█████████▊| 197/200 [14:37<00:13,  4.46s/it]Train: 35.018, Val: 35.007:  99%|█████████▉| 198/200 [14:41<00:08,  4.46s/it]Train: 35.019, Val: 35.008: 100%|█████████▉| 199/200 [14:46<00:04,  4.46s/it]Train: 35.019, Val: 35.005: 100%|██████████| 200/200 [14:50<00:00,  4.46s/it]Train: 35.019, Val: 35.005: 100%|██████████| 200/200 [14:50<00:00,  4.45s/it]
INFO - residual_nf - Completed after 0:14:51
