INFO - residual_nf - Running command 'run'
INFO - residual_nf - Started run with ID "3"
[CONFIG] {'bn': 'tree', 'structure': 'faithful', 'coeff': 0.99, 'n_power_iterations': 5, 'num_blocks': 11, 'hidden_dims': [100], 'activation': 'lipmish', 'grad_in_forward': True, 'batch_size': 100, 'num_train_samples': 10000, 'num_val_samples': 5000, 'num_epochs': 250, 'num_train_batches': 100, 'num_val_batches': 50, 'lr': 0.01, 'seed': 2, 'patience': 20, 'run': 1, 'ex_name': 'residual_nf_density_estimation', 'sub_folder': 'faithful_99_lipmish_11_[100]', 'path': './experiment_logs/residual_nf_density_estimation/tree/faithful_99_lipmish_11_[100]', 'bt_config': {'depth': 5, 'seed': 4}}
[ENCODED STRUCTURE] Using faithful BN structure.
  0%|          | 0/250 [00:00<?, ?it/s]Train NLL: 9.890, Val NLL: 9.743:   0%|          | 1/250 [00:05<22:51,  5.51s/it]Train NLL: 9.374, Val NLL: 9.097:   1%|          | 2/250 [00:10<20:54,  5.06s/it]Train NLL: 8.891, Val NLL: 8.808:   1%|          | 3/250 [00:14<19:49,  4.81s/it]Train NLL: 8.760, Val NLL: 8.778:   2%|▏         | 4/250 [00:19<20:01,  4.88s/it]Train NLL: 8.739, Val NLL: 8.744:   2%|▏         | 5/250 [00:24<19:33,  4.79s/it]Train NLL: 8.728, Val NLL: 8.777:   2%|▏         | 6/250 [00:28<19:11,  4.72s/it]Train NLL: 8.699, Val NLL: 8.729:   3%|▎         | 7/250 [00:33<18:55,  4.67s/it]Train NLL: 8.698, Val NLL: 8.705:   3%|▎         | 8/250 [00:38<18:46,  4.66s/it]Train NLL: 8.703, Val NLL: 8.732:   4%|▎         | 9/250 [00:42<18:46,  4.67s/it]Train NLL: 8.681, Val NLL: 8.712:   4%|▍         | 10/250 [00:47<18:38,  4.66s/it]Train NLL: 8.671, Val NLL: 8.695:   4%|▍         | 11/250 [00:52<18:31,  4.65s/it]Train NLL: 8.669, Val NLL: 8.668:   5%|▍         | 12/250 [00:56<18:27,  4.65s/it]Train NLL: 8.676, Val NLL: 8.700:   5%|▌         | 13/250 [01:01<18:17,  4.63s/it]Train NLL: 8.661, Val NLL: 8.691:   6%|▌         | 14/250 [01:05<18:10,  4.62s/it]Train NLL: 8.663, Val NLL: 8.707:   6%|▌         | 15/250 [01:10<18:10,  4.64s/it]Train NLL: 8.660, Val NLL: 8.666:   6%|▋         | 16/250 [01:15<18:02,  4.63s/it]Train NLL: 8.654, Val NLL: 8.721:   7%|▋         | 17/250 [01:19<17:58,  4.63s/it]Train NLL: 8.653, Val NLL: 8.699:   7%|▋         | 18/250 [01:24<17:48,  4.60s/it]Train NLL: 8.651, Val NLL: 8.662:   8%|▊         | 19/250 [01:29<17:51,  4.64s/it]Train NLL: 8.657, Val NLL: 8.663:   8%|▊         | 20/250 [01:33<17:59,  4.69s/it]Train NLL: 8.649, Val NLL: 8.663:   8%|▊         | 21/250 [01:38<18:06,  4.74s/it]Train NLL: 8.641, Val NLL: 8.651:   9%|▉         | 22/250 [01:43<18:07,  4.77s/it]Train NLL: 8.647, Val NLL: 8.704:   9%|▉         | 23/250 [01:48<17:56,  4.74s/it]Train NLL: 8.648, Val NLL: 8.657:  10%|▉         | 24/250 [01:53<17:50,  4.74s/it]Train NLL: 8.651, Val NLL: 8.733:  10%|█         | 25/250 [01:57<17:41,  4.72s/it]Train NLL: 8.641, Val NLL: 8.688:  10%|█         | 26/250 [02:02<17:33,  4.70s/it]Train NLL: 8.639, Val NLL: 8.661:  11%|█         | 27/250 [02:06<17:18,  4.66s/it]Train NLL: 8.648, Val NLL: 8.661:  11%|█         | 28/250 [02:11<17:13,  4.65s/it]Train NLL: 8.642, Val NLL: 8.690:  12%|█▏        | 29/250 [02:16<17:02,  4.63s/it]Train NLL: 8.647, Val NLL: 8.668:  12%|█▏        | 30/250 [02:20<16:57,  4.62s/it]Train NLL: 8.638, Val NLL: 8.674:  12%|█▏        | 31/250 [02:25<16:52,  4.62s/it]Train NLL: 8.645, Val NLL: 8.683:  13%|█▎        | 32/250 [02:30<16:46,  4.62s/it]Train NLL: 8.638, Val NLL: 8.688:  13%|█▎        | 33/250 [02:34<16:36,  4.59s/it]Train NLL: 8.637, Val NLL: 8.658:  14%|█▎        | 34/250 [02:39<16:25,  4.56s/it]Train NLL: 8.635, Val NLL: 8.667:  14%|█▍        | 35/250 [02:43<16:19,  4.55s/it]Train NLL: 8.635, Val NLL: 8.685:  14%|█▍        | 36/250 [02:48<16:18,  4.57s/it]Train NLL: 8.639, Val NLL: 8.648:  15%|█▍        | 37/250 [02:52<16:18,  4.59s/it]Train NLL: 8.639, Val NLL: 8.677:  15%|█▌        | 38/250 [02:57<16:14,  4.60s/it]Train NLL: 8.641, Val NLL: 8.670:  16%|█▌        | 39/250 [03:02<16:11,  4.61s/it]Train NLL: 8.636, Val NLL: 8.661:  16%|█▌        | 40/250 [03:06<16:05,  4.60s/it]Train NLL: 8.639, Val NLL: 8.682:  16%|█▋        | 41/250 [03:11<15:58,  4.59s/it]Train NLL: 8.635, Val NLL: 8.656:  17%|█▋        | 42/250 [03:15<15:57,  4.60s/it]Train NLL: 8.629, Val NLL: 8.687:  17%|█▋        | 43/250 [03:20<15:56,  4.62s/it]Train NLL: 8.634, Val NLL: 8.676:  18%|█▊        | 44/250 [03:25<15:49,  4.61s/it]Train NLL: 8.628, Val NLL: 8.638:  18%|█▊        | 45/250 [03:30<16:45,  4.91s/it]Train NLL: 8.630, Val NLL: 8.670:  18%|█▊        | 46/250 [03:37<18:40,  5.49s/it]Train NLL: 8.632, Val NLL: 8.669:  19%|█▉        | 47/250 [03:44<19:57,  5.90s/it]Train NLL: 8.631, Val NLL: 8.681:  19%|█▉        | 48/250 [03:51<20:53,  6.21s/it]Train NLL: 8.638, Val NLL: 8.648:  20%|█▉        | 49/250 [03:58<21:25,  6.40s/it]Train NLL: 8.633, Val NLL: 8.688:  20%|██        | 50/250 [04:03<20:17,  6.09s/it]Train NLL: 8.623, Val NLL: 8.662:  20%|██        | 51/250 [04:07<18:32,  5.59s/it]Train NLL: 8.626, Val NLL: 8.667:  21%|██        | 52/250 [04:12<17:18,  5.25s/it]Train NLL: 8.630, Val NLL: 8.682:  21%|██        | 53/250 [04:16<16:28,  5.02s/it]Train NLL: 8.635, Val NLL: 8.646:  22%|██▏       | 54/250 [04:21<16:03,  4.91s/it]Train NLL: 8.624, Val NLL: 8.654:  22%|██▏       | 55/250 [04:26<15:40,  4.82s/it]Train NLL: 8.628, Val NLL: 8.682:  22%|██▏       | 56/250 [04:30<15:24,  4.77s/it]Train NLL: 8.630, Val NLL: 8.666:  23%|██▎       | 57/250 [04:35<15:03,  4.68s/it]Train NLL: 8.625, Val NLL: 8.676:  23%|██▎       | 58/250 [04:39<14:50,  4.64s/it]Train NLL: 8.626, Val NLL: 8.677:  24%|██▎       | 59/250 [04:44<14:49,  4.66s/it]Train NLL: 8.629, Val NLL: 8.664:  24%|██▍       | 60/250 [04:49<14:40,  4.63s/it]Train NLL: 8.637, Val NLL: 8.670:  24%|██▍       | 61/250 [04:53<14:35,  4.63s/it]Train NLL: 8.625, Val NLL: 8.673:  25%|██▍       | 62/250 [04:58<14:26,  4.61s/it]Train NLL: 8.622, Val NLL: 8.649:  25%|██▌       | 63/250 [05:02<14:21,  4.60s/it]Train NLL: 8.621, Val NLL: 8.683:  26%|██▌       | 64/250 [05:07<14:17,  4.61s/it]Train NLL: 8.626, Val NLL: 8.692:  26%|██▌       | 65/250 [05:13<15:03,  4.88s/it]Train NLL: 8.634, Val NLL: 8.712:  26%|██▋       | 66/250 [05:18<15:36,  5.09s/it]Train NLL: 8.620, Val NLL: 8.683:  27%|██▋       | 67/250 [05:24<15:52,  5.20s/it]Train NLL: 8.620, Val NLL: 8.658:  27%|██▋       | 68/250 [05:29<16:02,  5.29s/it]Train NLL: 8.621, Val NLL: 8.640:  28%|██▊       | 69/250 [05:35<16:14,  5.39s/it]Train NLL: 8.627, Val NLL: 8.659:  28%|██▊       | 70/250 [05:40<16:11,  5.40s/it]Train NLL: 8.616, Val NLL: 8.659:  28%|██▊       | 71/250 [05:45<15:16,  5.12s/it]Train NLL: 8.627, Val NLL: 8.695:  29%|██▉       | 72/250 [05:49<14:41,  4.95s/it]Train NLL: 8.630, Val NLL: 8.648:  29%|██▉       | 73/250 [05:54<14:44,  5.00s/it]Train NLL: 8.620, Val NLL: 8.659:  30%|██▉       | 74/250 [06:00<15:05,  5.14s/it]Train NLL: 8.616, Val NLL: 8.653:  30%|███       | 75/250 [06:05<15:19,  5.25s/it]Train NLL: 8.612, Val NLL: 8.652:  30%|███       | 76/250 [06:11<15:29,  5.34s/it]Train NLL: 8.621, Val NLL: 8.646:  31%|███       | 77/250 [06:16<15:34,  5.40s/it]Train NLL: 8.616, Val NLL: 8.647:  31%|███       | 78/250 [06:22<15:25,  5.38s/it]Train NLL: 8.624, Val NLL: 8.652:  32%|███▏      | 79/250 [06:26<14:33,  5.11s/it]Train NLL: 8.616, Val NLL: 8.667:  32%|███▏      | 80/250 [06:31<14:04,  4.97s/it]Train NLL: 8.624, Val NLL: 8.664:  32%|███▏      | 81/250 [06:35<13:36,  4.83s/it]Train NLL: 8.616, Val NLL: 8.666:  33%|███▎      | 82/250 [06:40<13:50,  4.94s/it]Train NLL: 8.627, Val NLL: 8.647:  33%|███▎      | 83/250 [06:46<14:18,  5.14s/it]Train NLL: 8.619, Val NLL: 8.649:  34%|███▎      | 84/250 [06:52<14:35,  5.27s/it]Train NLL: 8.615, Val NLL: 8.671:  34%|███▍      | 85/250 [06:57<14:44,  5.36s/it]Train NLL: 8.629, Val NLL: 8.667:  34%|███▍      | 86/250 [07:03<14:48,  5.42s/it]Train NLL: 8.627, Val NLL: 8.638:  35%|███▍      | 87/250 [07:07<13:58,  5.14s/it]Train NLL: 8.620, Val NLL: 8.672:  35%|███▌      | 88/250 [07:12<13:19,  4.94s/it]Train NLL: 8.625, Val NLL: 8.685:  36%|███▌      | 89/250 [07:16<12:53,  4.80s/it]Train NLL: 8.623, Val NLL: 8.645:  36%|███▌      | 90/250 [07:21<12:38,  4.74s/it]Train NLL: 8.624, Val NLL: 8.659:  36%|███▋      | 91/250 [07:25<12:24,  4.68s/it]Train NLL: 8.615, Val NLL: 8.671:  37%|███▋      | 92/250 [07:30<12:13,  4.64s/it]Train NLL: 8.620, Val NLL: 8.674:  37%|███▋      | 93/250 [07:34<12:05,  4.62s/it]Train NLL: 8.618, Val NLL: 8.664:  38%|███▊      | 94/250 [07:39<11:57,  4.60s/it]Train NLL: 8.607, Val NLL: 8.648:  38%|███▊      | 95/250 [07:44<11:48,  4.57s/it]Train NLL: 8.615, Val NLL: 8.647:  38%|███▊      | 96/250 [07:48<11:40,  4.55s/it]Train NLL: 8.613, Val NLL: 8.687:  39%|███▉      | 97/250 [07:53<11:32,  4.53s/it]Train NLL: 8.610, Val NLL: 8.643:  39%|███▉      | 98/250 [07:57<11:27,  4.52s/it]Train NLL: 8.620, Val NLL: 8.678:  40%|███▉      | 99/250 [08:02<11:22,  4.52s/it]Train NLL: 8.616, Val NLL: 8.650:  40%|████      | 100/250 [08:06<11:20,  4.54s/it]Train NLL: 8.613, Val NLL: 8.646:  40%|████      | 101/250 [08:11<11:18,  4.55s/it]Train NLL: 8.616, Val NLL: 8.670:  41%|████      | 102/250 [08:16<11:24,  4.63s/it]Train NLL: 8.615, Val NLL: 8.655:  41%|████      | 103/250 [08:20<11:13,  4.58s/it]Train NLL: 8.616, Val NLL: 8.634:  42%|████▏     | 104/250 [08:24<11:01,  4.53s/it]Train NLL: 8.616, Val NLL: 8.662:  42%|████▏     | 105/250 [08:29<10:49,  4.48s/it]Train NLL: 8.613, Val NLL: 8.680:  42%|████▏     | 106/250 [08:34<11:15,  4.69s/it]Train NLL: 8.619, Val NLL: 8.684:  43%|████▎     | 107/250 [08:39<11:18,  4.74s/it]Train NLL: 8.615, Val NLL: 8.651:  43%|████▎     | 108/250 [08:43<11:09,  4.72s/it]Train NLL: 8.613, Val NLL: 8.649:  44%|████▎     | 109/250 [08:48<10:58,  4.67s/it]Train NLL: 8.620, Val NLL: 8.664:  44%|████▍     | 110/250 [08:53<11:01,  4.73s/it]Train NLL: 8.613, Val NLL: 8.642:  44%|████▍     | 111/250 [08:58<10:53,  4.70s/it]Train NLL: 8.620, Val NLL: 8.678:  45%|████▍     | 112/250 [09:02<10:49,  4.71s/it]Train NLL: 8.613, Val NLL: 8.649:  45%|████▌     | 113/250 [09:07<10:54,  4.78s/it]Train NLL: 8.611, Val NLL: 8.680:  46%|████▌     | 114/250 [09:12<10:46,  4.75s/it]Train NLL: 8.610, Val NLL: 8.645:  46%|████▌     | 115/250 [09:16<10:29,  4.66s/it]Epoch   116: reducing learning rate of group 0 to 1.0000e-03.
Train NLL: 8.612, Val NLL: 8.659:  46%|████▋     | 116/250 [09:21<10:20,  4.63s/it]Train NLL: 8.573, Val NLL: 8.617:  47%|████▋     | 117/250 [09:26<10:28,  4.72s/it]Train NLL: 8.567, Val NLL: 8.617:  47%|████▋     | 118/250 [09:31<10:26,  4.75s/it]Train NLL: 8.565, Val NLL: 8.617:  48%|████▊     | 119/250 [09:35<09:58,  4.57s/it]Train NLL: 8.566, Val NLL: 8.617:  48%|████▊     | 120/250 [09:39<09:31,  4.40s/it]Train NLL: 8.565, Val NLL: 8.618:  48%|████▊     | 121/250 [09:43<09:16,  4.32s/it]Train NLL: 8.566, Val NLL: 8.617:  49%|████▉     | 122/250 [09:47<08:58,  4.21s/it]Train NLL: 8.565, Val NLL: 8.620:  49%|████▉     | 123/250 [09:51<09:08,  4.32s/it]Train NLL: 8.566, Val NLL: 8.621:  50%|████▉     | 124/250 [09:56<08:55,  4.25s/it]Train NLL: 8.564, Val NLL: 8.624:  50%|█████     | 125/250 [10:00<08:51,  4.25s/it]Train NLL: 8.565, Val NLL: 8.619:  50%|█████     | 126/250 [10:04<08:56,  4.33s/it]Train NLL: 8.564, Val NLL: 8.620:  51%|█████     | 127/250 [10:09<09:06,  4.45s/it]Train NLL: 8.564, Val NLL: 8.627:  51%|█████     | 128/250 [10:14<09:10,  4.51s/it]Train NLL: 8.565, Val NLL: 8.619:  52%|█████▏    | 129/250 [10:18<09:05,  4.51s/it]Train NLL: 8.565, Val NLL: 8.618:  52%|█████▏    | 130/250 [10:24<09:39,  4.83s/it]Train NLL: 8.566, Val NLL: 8.617:  52%|█████▏    | 131/250 [10:28<09:15,  4.67s/it]Train NLL: 8.565, Val NLL: 8.617:  53%|█████▎    | 132/250 [10:33<09:34,  4.87s/it]Train NLL: 8.565, Val NLL: 8.622:  53%|█████▎    | 133/250 [10:38<09:10,  4.70s/it]Train NLL: 8.567, Val NLL: 8.619:  54%|█████▎    | 134/250 [10:43<09:23,  4.85s/it]Train NLL: 8.564, Val NLL: 8.624:  54%|█████▍    | 135/250 [10:48<09:34,  4.99s/it]Train NLL: 8.565, Val NLL: 8.621:  54%|█████▍    | 136/250 [10:54<09:50,  5.18s/it]Train NLL: 8.565, Val NLL: 8.616:  55%|█████▍    | 137/250 [10:59<09:56,  5.28s/it]Train NLL: 8.565, Val NLL: 8.618:  55%|█████▌    | 138/250 [11:04<09:29,  5.09s/it]Train NLL: 8.564, Val NLL: 8.626:  56%|█████▌    | 139/250 [11:10<09:40,  5.23s/it]Epoch   140: reducing learning rate of group 0 to 1.0000e-04.
Train NLL: 8.565, Val NLL: 8.619:  56%|█████▌    | 140/250 [11:15<09:38,  5.26s/it]Train NLL: 8.558, Val NLL: 8.617:  56%|█████▋    | 141/250 [11:19<08:59,  4.95s/it]Train NLL: 8.558, Val NLL: 8.617:  57%|█████▋    | 142/250 [11:24<08:38,  4.80s/it]Train NLL: 8.558, Val NLL: 8.617:  57%|█████▋    | 143/250 [11:28<08:17,  4.65s/it]Train NLL: 8.558, Val NLL: 8.617:  58%|█████▊    | 144/250 [11:32<08:11,  4.64s/it]Train NLL: 8.558, Val NLL: 8.616:  58%|█████▊    | 145/250 [11:37<07:55,  4.53s/it]Train NLL: 8.558, Val NLL: 8.617:  58%|█████▊    | 146/250 [11:42<08:26,  4.87s/it]Train NLL: 8.558, Val NLL: 8.617:  59%|█████▉    | 147/250 [11:48<08:31,  4.97s/it]Train NLL: 8.558, Val NLL: 8.617:  59%|█████▉    | 148/250 [11:53<08:32,  5.02s/it]Train NLL: 8.558, Val NLL: 8.617:  60%|█████▉    | 149/250 [11:58<08:26,  5.01s/it]Train NLL: 8.558, Val NLL: 8.617:  60%|██████    | 150/250 [12:02<08:09,  4.90s/it]Train NLL: 8.558, Val NLL: 8.617:  60%|██████    | 151/250 [12:07<07:51,  4.77s/it]Train NLL: 8.558, Val NLL: 8.617:  61%|██████    | 152/250 [12:12<07:44,  4.74s/it]Train NLL: 8.558, Val NLL: 8.617:  61%|██████    | 153/250 [12:16<07:30,  4.65s/it]Train NLL: 8.558, Val NLL: 8.617:  62%|██████▏   | 154/250 [12:21<07:30,  4.69s/it]Train NLL: 8.558, Val NLL: 8.617:  62%|██████▏   | 155/250 [12:25<07:19,  4.63s/it]Train NLL: 8.558, Val NLL: 8.617:  62%|██████▏   | 156/250 [12:30<07:29,  4.78s/it]Train NLL: 8.558, Val NLL: 8.617:  63%|██████▎   | 157/250 [12:35<07:20,  4.74s/it]Train NLL: 8.558, Val NLL: 8.617:  63%|██████▎   | 158/250 [12:40<07:27,  4.87s/it]Train NLL: 8.558, Val NLL: 8.617:  64%|██████▎   | 159/250 [12:45<07:19,  4.83s/it]Train NLL: 8.558, Val NLL: 8.617:  64%|██████▍   | 160/250 [12:50<07:22,  4.91s/it]Train NLL: 8.558, Val NLL: 8.617:  64%|██████▍   | 161/250 [12:55<07:09,  4.83s/it]Train NLL: 8.558, Val NLL: 8.617:  65%|██████▍   | 162/250 [12:59<06:57,  4.74s/it]Train NLL: 8.558, Val NLL: 8.617:  65%|██████▌   | 163/250 [13:04<06:48,  4.70s/it]Train NLL: 8.558, Val NLL: 8.617:  66%|██████▌   | 164/250 [13:08<06:38,  4.64s/it]Train NLL: 8.558, Val NLL: 8.617:  66%|██████▌   | 165/250 [13:13<06:33,  4.63s/it]Train NLL: 8.558, Val NLL: 8.617:  66%|██████▋   | 166/250 [13:17<06:23,  4.56s/it]Train NLL: 8.558, Val NLL: 8.617:  67%|██████▋   | 167/250 [13:22<06:22,  4.60s/it]Train NLL: 8.558, Val NLL: 8.617:  67%|██████▋   | 168/250 [13:27<06:16,  4.59s/it]Train NLL: 8.557, Val NLL: 8.617:  68%|██████▊   | 169/250 [13:32<06:23,  4.73s/it]Train NLL: 8.557, Val NLL: 8.617:  68%|██████▊   | 170/250 [13:36<06:12,  4.66s/it]Train NLL: 8.558, Val NLL: 8.617:  68%|██████▊   | 171/250 [13:41<06:06,  4.64s/it]Train NLL: 8.558, Val NLL: 8.617:  69%|██████▉   | 172/250 [13:45<05:59,  4.60s/it]Train NLL: 8.558, Val NLL: 8.617:  69%|██████▉   | 173/250 [13:50<05:55,  4.62s/it]Train NLL: 8.557, Val NLL: 8.617:  70%|██████▉   | 174/250 [13:54<05:49,  4.60s/it]Train NLL: 8.557, Val NLL: 8.617:  70%|███████   | 175/250 [13:59<05:43,  4.57s/it]Train NLL: 8.558, Val NLL: 8.617:  70%|███████   | 176/250 [14:04<05:39,  4.59s/it]Train NLL: 8.557, Val NLL: 8.617:  71%|███████   | 177/250 [14:08<05:34,  4.58s/it]Train NLL: 8.558, Val NLL: 8.617:  71%|███████   | 178/250 [14:13<05:31,  4.60s/it]Train NLL: 8.557, Val NLL: 8.617:  72%|███████▏  | 179/250 [14:17<05:24,  4.57s/it]Epoch   180: reducing learning rate of group 0 to 1.0000e-05.
Train NLL: 8.557, Val NLL: 8.617:  72%|███████▏  | 180/250 [14:22<05:22,  4.60s/it]Train NLL: 8.557, Val NLL: 8.617:  72%|███████▏  | 181/250 [14:27<05:16,  4.59s/it]Train NLL: 8.557, Val NLL: 8.617:  73%|███████▎  | 182/250 [14:31<05:14,  4.63s/it]Train NLL: 8.557, Val NLL: 8.617:  73%|███████▎  | 183/250 [14:36<05:06,  4.57s/it]Train NLL: 8.557, Val NLL: 8.617:  74%|███████▎  | 184/250 [14:40<05:06,  4.64s/it]Train NLL: 8.557, Val NLL: 8.617:  74%|███████▍  | 185/250 [14:45<04:58,  4.59s/it]Train NLL: 8.557, Val NLL: 8.617:  74%|███████▍  | 186/250 [14:50<04:53,  4.59s/it]Train NLL: 8.557, Val NLL: 8.617:  75%|███████▍  | 187/250 [14:54<04:48,  4.58s/it]Train NLL: 8.557, Val NLL: 8.617:  75%|███████▌  | 188/250 [14:59<04:42,  4.56s/it]Train NLL: 8.557, Val NLL: 8.617:  76%|███████▌  | 189/250 [15:03<04:39,  4.58s/it]Train NLL: 8.557, Val NLL: 8.617:  76%|███████▌  | 190/250 [15:08<04:31,  4.52s/it]Train NLL: 8.557, Val NLL: 8.617:  76%|███████▋  | 191/250 [15:12<04:18,  4.37s/it]Train NLL: 8.557, Val NLL: 8.617:  77%|███████▋  | 192/250 [15:16<04:08,  4.28s/it]Train NLL: 8.557, Val NLL: 8.617:  77%|███████▋  | 193/250 [15:20<04:00,  4.22s/it]Train NLL: 8.557, Val NLL: 8.617:  78%|███████▊  | 194/250 [15:24<03:57,  4.25s/it]Train NLL: 8.557, Val NLL: 8.617:  78%|███████▊  | 195/250 [15:28<03:52,  4.23s/it]Train NLL: 8.557, Val NLL: 8.617:  78%|███████▊  | 196/250 [15:33<04:03,  4.51s/it]Train NLL: 8.557, Val NLL: 8.617:  79%|███████▉  | 197/250 [15:38<03:54,  4.42s/it]Train NLL: 8.557, Val NLL: 8.617:  79%|███████▉  | 198/250 [15:44<04:13,  4.87s/it]Train NLL: 8.557, Val NLL: 8.617:  80%|███████▉  | 199/250 [15:49<04:10,  4.91s/it]Train NLL: 8.557, Val NLL: 8.617:  80%|████████  | 200/250 [15:54<04:07,  4.95s/it]Train NLL: 8.557, Val NLL: 8.617:  80%|████████  | 201/250 [15:58<03:56,  4.82s/it]Train NLL: 8.557, Val NLL: 8.617:  81%|████████  | 202/250 [16:03<03:53,  4.87s/it]Train NLL: 8.557, Val NLL: 8.617:  81%|████████  | 203/250 [16:08<03:44,  4.77s/it]Train NLL: 8.557, Val NLL: 8.617:  82%|████████▏ | 204/250 [16:13<03:40,  4.80s/it]Train NLL: 8.557, Val NLL: 8.617:  82%|████████▏ | 205/250 [16:16<03:24,  4.55s/it]Train NLL: 8.557, Val NLL: 8.617:  82%|████████▏ | 206/250 [16:21<03:15,  4.44s/it]Train NLL: 8.557, Val NLL: 8.617:  83%|████████▎ | 207/250 [16:25<03:05,  4.31s/it]Epoch   208: reducing learning rate of group 0 to 1.0000e-06.
Train NLL: 8.557, Val NLL: 8.617:  83%|████████▎ | 208/250 [16:29<02:57,  4.22s/it]Train NLL: 8.557, Val NLL: 8.617:  84%|████████▎ | 209/250 [16:33<02:52,  4.21s/it]Train NLL: 8.557, Val NLL: 8.617:  84%|████████▍ | 210/250 [16:37<02:49,  4.25s/it]Train NLL: 8.557, Val NLL: 8.617:  84%|████████▍ | 211/250 [16:42<02:48,  4.33s/it]Train NLL: 8.557, Val NLL: 8.617:  85%|████████▍ | 212/250 [16:46<02:42,  4.28s/it]Train NLL: 8.557, Val NLL: 8.617:  85%|████████▌ | 213/250 [16:50<02:41,  4.36s/it]Train NLL: 8.557, Val NLL: 8.617:  86%|████████▌ | 214/250 [16:55<02:40,  4.46s/it]Train NLL: 8.557, Val NLL: 8.617:  86%|████████▌ | 215/250 [17:00<02:39,  4.56s/it]Train NLL: 8.557, Val NLL: 8.617:  86%|████████▋ | 216/250 [17:05<02:38,  4.65s/it]Train NLL: 8.557, Val NLL: 8.617:  87%|████████▋ | 217/250 [17:09<02:32,  4.61s/it]Train NLL: 8.557, Val NLL: 8.617:  87%|████████▋ | 218/250 [17:14<02:27,  4.61s/it]Train NLL: 8.557, Val NLL: 8.617:  88%|████████▊ | 219/250 [17:19<02:28,  4.78s/it]Train NLL: 8.557, Val NLL: 8.617:  88%|████████▊ | 220/250 [17:24<02:24,  4.80s/it]Train NLL: 8.557, Val NLL: 8.617:  88%|████████▊ | 221/250 [17:28<02:11,  4.53s/it]Train NLL: 8.557, Val NLL: 8.617:  89%|████████▉ | 222/250 [17:32<02:03,  4.40s/it]Train NLL: 8.557, Val NLL: 8.617:  89%|████████▉ | 223/250 [17:36<01:55,  4.29s/it]Train NLL: 8.557, Val NLL: 8.617:  90%|████████▉ | 224/250 [17:41<01:56,  4.48s/it]Train NLL: 8.557, Val NLL: 8.617:  90%|█████████ | 225/250 [17:46<01:55,  4.64s/it]Train NLL: 8.557, Val NLL: 8.617:  90%|█████████ | 226/250 [17:51<01:51,  4.66s/it]Train NLL: 8.557, Val NLL: 8.617:  91%|█████████ | 227/250 [17:55<01:47,  4.67s/it]Train NLL: 8.557, Val NLL: 8.617:  91%|█████████ | 228/250 [18:00<01:41,  4.62s/it]Train NLL: 8.557, Val NLL: 8.617:  92%|█████████▏| 229/250 [18:04<01:35,  4.55s/it]Train NLL: 8.557, Val NLL: 8.617:  92%|█████████▏| 230/250 [18:08<01:27,  4.37s/it]Train NLL: 8.557, Val NLL: 8.617:  92%|█████████▏| 231/250 [18:12<01:22,  4.32s/it]Train NLL: 8.557, Val NLL: 8.617:  93%|█████████▎| 232/250 [18:16<01:15,  4.21s/it]Train NLL: 8.557, Val NLL: 8.617:  93%|█████████▎| 233/250 [18:21<01:12,  4.27s/it]Train NLL: 8.557, Val NLL: 8.617:  94%|█████████▎| 234/250 [18:25<01:06,  4.18s/it]Train NLL: 8.557, Val NLL: 8.617:  94%|█████████▍| 235/250 [18:29<01:02,  4.15s/it]Train NLL: 8.557, Val NLL: 8.617:  94%|█████████▍| 236/250 [18:33<00:58,  4.18s/it]Train NLL: 8.557, Val NLL: 8.617:  95%|█████████▍| 237/250 [18:37<00:53,  4.11s/it]Train NLL: 8.557, Val NLL: 8.617:  95%|█████████▌| 238/250 [18:41<00:49,  4.14s/it]Train NLL: 8.557, Val NLL: 8.617:  96%|█████████▌| 239/250 [18:45<00:44,  4.08s/it]Train NLL: 8.557, Val NLL: 8.617:  96%|█████████▌| 240/250 [18:49<00:40,  4.06s/it]Train NLL: 8.557, Val NLL: 8.617:  96%|█████████▋| 241/250 [18:53<00:36,  4.10s/it]Train NLL: 8.557, Val NLL: 8.617:  97%|█████████▋| 242/250 [18:58<00:34,  4.25s/it]Train NLL: 8.557, Val NLL: 8.617:  97%|█████████▋| 243/250 [19:02<00:29,  4.24s/it]Train NLL: 8.557, Val NLL: 8.617:  98%|█████████▊| 244/250 [19:06<00:24,  4.16s/it]Train NLL: 8.557, Val NLL: 8.617:  98%|█████████▊| 245/250 [19:10<00:20,  4.15s/it]Train NLL: 8.557, Val NLL: 8.617:  98%|█████████▊| 246/250 [19:14<00:16,  4.11s/it]Train NLL: 8.557, Val NLL: 8.617:  99%|█████████▉| 247/250 [19:18<00:12,  4.06s/it]Train NLL: 8.557, Val NLL: 8.617:  99%|█████████▉| 248/250 [19:22<00:08,  4.12s/it]Train NLL: 8.557, Val NLL: 8.617: 100%|█████████▉| 249/250 [19:26<00:04,  4.06s/it]Train NLL: 8.557, Val NLL: 8.617: 100%|██████████| 250/250 [19:32<00:00,  4.40s/it]Train NLL: 8.557, Val NLL: 8.617: 100%|██████████| 250/250 [19:32<00:00,  4.69s/it]
INFO - residual_nf - Completed after 0:19:35
