INFO - residual_nf - Running command 'run'
INFO - residual_nf - Started run with ID "4"
[CONFIG] {'bn': 'mehra-real', 'structure': 'faithful', 'coeff': 0.99, 'n_power_iterations': 5, 'num_blocks': 9, 'hidden_dims': [125], 'activation': 'lipswish', 'grad_in_forward': True, 'batch_size': 100, 'num_train_samples': 10000, 'num_val_samples': 5000, 'num_epochs': 600, 'num_train_batches': 100, 'num_val_batches': 50, 'lr': 0.01, 'seed': 3, 'patience': 20, 'double': True, 'run': 1, 'checkpoint_n': 10, 'load_from_checkpoint': False, 'ex_name': 'residual_nf_density_estimation', 'sub_folder': 'faithful_99_lipswish_9_[125]', 'path': './experiment_logs/residual_nf_density_estimation/mehra-real/faithful_99_lipswish_9_[125]', 'bt_config': {'depth': 5, 'seed': 4}}
[DEVICE] cpu
[LOADING DATA] Mehra
[ENCODED STRUCTURE] Using faithful BN structure.
  0%|          | 0/600 [00:00<?, ?it/s]Train NLL: 12.257, Val NLL: 11.539:   0%|          | 1/600 [00:06<1:09:36,  6.97s/it]Train NLL: 11.665, Val NLL: 11.459:   0%|          | 2/600 [00:09<42:23,  4.25s/it]  Train NLL: 11.530, Val NLL: 11.373:   0%|          | 3/600 [00:12<35:35,  3.58s/it]Train NLL: 11.429, Val NLL: 11.221:   1%|          | 4/600 [00:13<28:16,  2.85s/it]Train NLL: 11.357, Val NLL: 11.151:   1%|          | 5/600 [00:16<26:53,  2.71s/it]Train NLL: 11.303, Val NLL: 11.103:   1%|          | 6/600 [00:18<23:34,  2.38s/it]Train NLL: 11.277, Val NLL: 11.090:   1%|          | 7/600 [00:19<21:38,  2.19s/it]Train NLL: 11.240, Val NLL: 11.050:   1%|▏         | 8/600 [00:21<21:03,  2.13s/it]Train NLL: 11.218, Val NLL: 11.038:   2%|▏         | 9/600 [00:23<19:42,  2.00s/it]Train NLL: 11.186, Val NLL: 11.031:   2%|▏         | 10/600 [00:25<20:33,  2.09s/it]Train NLL: 11.163, Val NLL: 11.015:   2%|▏         | 11/600 [00:27<20:19,  2.07s/it]Train NLL: 11.171, Val NLL: 10.976:   2%|▏         | 12/600 [00:29<19:15,  1.97s/it]Train NLL: 11.158, Val NLL: 10.994:   2%|▏         | 13/600 [00:32<21:22,  2.19s/it]Train NLL: 11.133, Val NLL: 10.981:   2%|▏         | 14/600 [00:33<19:55,  2.04s/it]Train NLL: 11.117, Val NLL: 10.974:   2%|▎         | 15/600 [00:36<20:58,  2.15s/it]Train NLL: 11.135, Val NLL: 10.955:   3%|▎         | 16/600 [00:38<20:16,  2.08s/it]Train NLL: 11.118, Val NLL: 10.958:   3%|▎         | 17/600 [00:40<19:08,  1.97s/it]Train NLL: 11.096, Val NLL: 11.006:   3%|▎         | 18/600 [00:41<18:33,  1.91s/it]Train NLL: 11.100, Val NLL: 10.980:   3%|▎         | 19/600 [00:44<19:43,  2.04s/it]Train NLL: 11.103, Val NLL: 10.945:   3%|▎         | 20/600 [00:45<18:44,  1.94s/it]Train NLL: 11.108, Val NLL: 10.937:   4%|▎         | 21/600 [00:47<18:02,  1.87s/it]Train NLL: 11.085, Val NLL: 10.948:   4%|▎         | 22/600 [00:49<17:29,  1.82s/it]Train NLL: 11.079, Val NLL: 10.930:   4%|▍         | 23/600 [00:51<18:05,  1.88s/it]Train NLL: 11.103, Val NLL: 10.960:   4%|▍         | 24/600 [00:52<17:31,  1.83s/it]Train NLL: 11.101, Val NLL: 10.977:   4%|▍         | 25/600 [00:54<17:12,  1.80s/it]Train NLL: 11.089, Val NLL: 10.931:   4%|▍         | 26/600 [00:56<17:43,  1.85s/it]Train NLL: 11.090, Val NLL: 10.948:   4%|▍         | 27/600 [00:58<18:22,  1.92s/it]Train NLL: 11.051, Val NLL: 10.928:   5%|▍         | 28/600 [01:00<17:47,  1.87s/it]Train NLL: 11.085, Val NLL: 10.925:   5%|▍         | 29/600 [01:03<20:56,  2.20s/it]Train NLL: 11.060, Val NLL: 10.924:   5%|▌         | 30/600 [01:05<19:39,  2.07s/it]Train NLL: 11.068, Val NLL: 10.963:   5%|▌         | 31/600 [01:07<19:05,  2.01s/it]Train NLL: 11.063, Val NLL: 10.937:   5%|▌         | 32/600 [01:08<18:32,  1.96s/it]Train NLL: 11.044, Val NLL: 10.899:   6%|▌         | 33/600 [01:10<17:50,  1.89s/it]Train NLL: 11.088, Val NLL: 10.951:   6%|▌         | 34/600 [01:12<18:54,  2.00s/it]Train NLL: 11.065, Val NLL: 10.903:   6%|▌         | 35/600 [01:15<19:14,  2.04s/it]Train NLL: 11.050, Val NLL: 10.875:   6%|▌         | 36/600 [01:16<18:16,  1.94s/it]Train NLL: 11.045, Val NLL: 10.873:   6%|▌         | 37/600 [01:18<17:34,  1.87s/it]Train NLL: 11.041, Val NLL: 10.890:   6%|▋         | 38/600 [01:21<20:39,  2.21s/it]Train NLL: 11.038, Val NLL: 10.907:   6%|▋         | 39/600 [01:23<19:17,  2.06s/it]Train NLL: 11.070, Val NLL: 10.908:   7%|▋         | 40/600 [01:26<21:23,  2.29s/it]Train NLL: 11.026, Val NLL: 10.865:   7%|▋         | 41/600 [01:27<19:46,  2.12s/it]Train NLL: 11.036, Val NLL: 10.959:   7%|▋         | 42/600 [01:29<19:39,  2.11s/it]Train NLL: 11.030, Val NLL: 10.857:   7%|▋         | 43/600 [01:32<20:30,  2.21s/it]Train NLL: 11.018, Val NLL: 10.891:   7%|▋         | 44/600 [01:34<19:11,  2.07s/it]Train NLL: 11.045, Val NLL: 10.885:   8%|▊         | 45/600 [01:35<18:37,  2.01s/it]Train NLL: 11.018, Val NLL: 10.882:   8%|▊         | 46/600 [01:38<19:09,  2.07s/it]Train NLL: 11.034, Val NLL: 10.891:   8%|▊         | 47/600 [01:39<18:10,  1.97s/it]Train NLL: 11.007, Val NLL: 10.868:   8%|▊         | 48/600 [01:42<19:22,  2.11s/it]Train NLL: 11.005, Val NLL: 10.856:   8%|▊         | 49/600 [01:44<19:03,  2.08s/it]Train NLL: 11.085, Val NLL: 10.917:   8%|▊         | 50/600 [01:46<19:05,  2.08s/it]Train NLL: 11.010, Val NLL: 10.872:   8%|▊         | 51/600 [01:48<19:57,  2.18s/it]Train NLL: 11.007, Val NLL: 10.855:   9%|▊         | 52/600 [01:50<19:02,  2.08s/it]Train NLL: 11.012, Val NLL: 10.906:   9%|▉         | 53/600 [01:53<19:55,  2.19s/it]Train NLL: 11.010, Val NLL: 10.950:   9%|▉         | 54/600 [01:56<21:58,  2.41s/it]Train NLL: 11.021, Val NLL: 10.898:   9%|▉         | 55/600 [01:57<20:02,  2.21s/it]Train NLL: 11.017, Val NLL: 10.871:   9%|▉         | 56/600 [01:59<19:18,  2.13s/it]Train NLL: 10.996, Val NLL: 10.880:  10%|▉         | 57/600 [02:01<19:10,  2.12s/it]Train NLL: 10.986, Val NLL: 10.866:  10%|▉         | 58/600 [02:04<21:20,  2.36s/it]Train NLL: 11.022, Val NLL: 10.957:  10%|▉         | 59/600 [02:07<23:32,  2.61s/it]Train NLL: 11.012, Val NLL: 10.872:  10%|█         | 60/600 [02:09<21:38,  2.40s/it]Train NLL: 10.981, Val NLL: 10.858:  10%|█         | 61/600 [02:11<20:20,  2.26s/it]Train NLL: 11.003, Val NLL: 10.868:  10%|█         | 62/600 [02:13<18:52,  2.10s/it]Train NLL: 10.988, Val NLL: 10.849:  10%|█         | 63/600 [02:15<17:53,  2.00s/it]Train NLL: 10.990, Val NLL: 10.853:  11%|█         | 64/600 [02:17<19:12,  2.15s/it]Train NLL: 11.010, Val NLL: 10.895:  11%|█         | 65/600 [02:19<18:03,  2.03s/it]Train NLL: 11.011, Val NLL: 10.870:  11%|█         | 66/600 [02:21<17:11,  1.93s/it]Train NLL: 10.983, Val NLL: 10.826:  11%|█         | 67/600 [02:23<17:31,  1.97s/it]Train NLL: 10.983, Val NLL: 10.846:  11%|█▏        | 68/600 [02:25<17:03,  1.92s/it]Train NLL: 11.002, Val NLL: 10.879:  12%|█▏        | 69/600 [02:26<16:28,  1.86s/it]Train NLL: 10.983, Val NLL: 10.867:  12%|█▏        | 70/600 [02:29<18:23,  2.08s/it]Train NLL: 11.007, Val NLL: 10.856:  12%|█▏        | 71/600 [02:31<17:52,  2.03s/it]Train NLL: 11.011, Val NLL: 10.891:  12%|█▏        | 72/600 [02:33<17:07,  1.95s/it]Train NLL: 10.998, Val NLL: 10.882:  12%|█▏        | 73/600 [02:35<18:46,  2.14s/it]Train NLL: 10.988, Val NLL: 10.880:  12%|█▏        | 74/600 [02:37<18:47,  2.14s/it]Train NLL: 11.016, Val NLL: 10.893:  12%|█▎        | 75/600 [02:39<17:35,  2.01s/it]Train NLL: 11.015, Val NLL: 10.899:  13%|█▎        | 76/600 [02:41<16:44,  1.92s/it]Train NLL: 10.983, Val NLL: 10.846:  13%|█▎        | 77/600 [02:44<19:58,  2.29s/it]Train NLL: 11.002, Val NLL: 10.845:  13%|█▎        | 78/600 [02:46<18:22,  2.11s/it]Train NLL: 11.003, Val NLL: 10.890:  13%|█▎        | 79/600 [02:49<21:33,  2.48s/it]Train NLL: 10.984, Val NLL: 10.866:  13%|█▎        | 80/600 [02:51<19:28,  2.25s/it]Train NLL: 11.002, Val NLL: 10.852:  14%|█▎        | 81/600 [02:52<18:01,  2.08s/it]Train NLL: 10.974, Val NLL: 10.864:  14%|█▎        | 82/600 [02:54<17:08,  1.99s/it]Train NLL: 11.003, Val NLL: 10.831:  14%|█▍        | 83/600 [02:57<18:20,  2.13s/it]Train NLL: 10.986, Val NLL: 10.855:  14%|█▍        | 84/600 [02:58<17:16,  2.01s/it]Train NLL: 10.983, Val NLL: 10.912:  14%|█▍        | 85/600 [03:01<18:42,  2.18s/it]Train NLL: 10.993, Val NLL: 10.848:  14%|█▍        | 86/600 [03:03<17:55,  2.09s/it]Train NLL: 10.986, Val NLL: 10.845:  14%|█▍        | 87/600 [03:05<17:52,  2.09s/it]Train NLL: 10.984, Val NLL: 10.876:  15%|█▍        | 88/600 [03:08<20:34,  2.41s/it]Train NLL: 10.985, Val NLL: 10.858:  15%|█▍        | 89/600 [03:10<19:33,  2.30s/it]Train NLL: 10.987, Val NLL: 10.858:  15%|█▌        | 90/600 [03:12<18:42,  2.20s/it]Train NLL: 10.983, Val NLL: 10.866:  15%|█▌        | 91/600 [03:14<18:16,  2.15s/it]Train NLL: 11.004, Val NLL: 10.848:  15%|█▌        | 92/600 [03:16<17:07,  2.02s/it]Train NLL: 10.984, Val NLL: 10.842:  16%|█▌        | 93/600 [03:18<18:39,  2.21s/it]Train NLL: 10.967, Val NLL: 10.950:  16%|█▌        | 94/600 [03:20<17:26,  2.07s/it]Train NLL: 10.983, Val NLL: 10.829:  16%|█▌        | 95/600 [03:22<16:31,  1.96s/it]Train NLL: 10.955, Val NLL: 10.844:  16%|█▌        | 96/600 [03:25<19:31,  2.32s/it]Train NLL: 10.990, Val NLL: 10.856:  16%|█▌        | 97/600 [03:27<18:00,  2.15s/it]Train NLL: 10.981, Val NLL: 10.885:  16%|█▋        | 98/600 [03:29<17:09,  2.05s/it]Train NLL: 10.974, Val NLL: 10.825:  16%|█▋        | 99/600 [03:31<18:18,  2.19s/it]Train NLL: 10.982, Val NLL: 10.852:  17%|█▋        | 100/600 [03:33<17:10,  2.06s/it]Train NLL: 11.017, Val NLL: 10.864:  17%|█▋        | 101/600 [03:35<16:55,  2.04s/it]Train NLL: 10.992, Val NLL: 10.891:  17%|█▋        | 102/600 [03:37<16:11,  1.95s/it]Train NLL: 10.988, Val NLL: 10.941:  17%|█▋        | 103/600 [03:38<15:40,  1.89s/it]Train NLL: 10.983, Val NLL: 10.838:  17%|█▋        | 104/600 [03:41<16:50,  2.04s/it]Train NLL: 10.992, Val NLL: 10.819:  18%|█▊        | 105/600 [03:42<16:06,  1.95s/it]Train NLL: 10.988, Val NLL: 10.892:  18%|█▊        | 106/600 [03:44<15:34,  1.89s/it]Train NLL: 10.980, Val NLL: 10.865:  18%|█▊        | 107/600 [03:46<15:46,  1.92s/it]Train NLL: 10.964, Val NLL: 10.839:  18%|█▊        | 108/600 [03:48<16:11,  1.97s/it]Train NLL: 10.966, Val NLL: 10.835:  18%|█▊        | 109/600 [03:50<15:56,  1.95s/it]Train NLL: 10.954, Val NLL: 10.849:  18%|█▊        | 110/600 [03:52<15:48,  1.94s/it]Train NLL: 10.971, Val NLL: 10.840:  18%|█▊        | 111/600 [03:54<15:11,  1.86s/it]Train NLL: 10.988, Val NLL: 10.850:  19%|█▊        | 112/600 [03:56<14:51,  1.83s/it]Train NLL: 10.964, Val NLL: 10.841:  19%|█▉        | 113/600 [03:58<15:51,  1.95s/it]Train NLL: 10.965, Val NLL: 10.876:  19%|█▉        | 114/600 [04:00<15:16,  1.89s/it]Train NLL: 11.001, Val NLL: 10.895:  19%|█▉        | 115/600 [04:02<15:43,  1.95s/it]Train NLL: 10.971, Val NLL: 10.854:  19%|█▉        | 116/600 [04:03<15:22,  1.91s/it]Epoch   117: reducing learning rate of group 0 to 1.0000e-03.
Train NLL: 10.963, Val NLL: 10.857:  20%|█▉        | 117/600 [04:05<14:52,  1.85s/it]Train NLL: 10.907, Val NLL: 10.800:  20%|█▉        | 118/600 [04:07<14:48,  1.84s/it]Train NLL: 10.896, Val NLL: 10.801:  20%|█▉        | 119/600 [04:09<15:28,  1.93s/it]Train NLL: 10.896, Val NLL: 10.806:  20%|██        | 120/600 [04:11<15:42,  1.96s/it]Train NLL: 10.893, Val NLL: 10.797:  20%|██        | 121/600 [04:14<17:21,  2.17s/it]Train NLL: 10.890, Val NLL: 10.801:  20%|██        | 122/600 [04:16<16:15,  2.04s/it]Train NLL: 10.889, Val NLL: 10.801:  20%|██        | 123/600 [04:17<15:28,  1.95s/it]Train NLL: 10.892, Val NLL: 10.792:  21%|██        | 124/600 [04:19<15:04,  1.90s/it]Train NLL: 10.889, Val NLL: 10.796:  21%|██        | 125/600 [04:21<14:50,  1.88s/it]Train NLL: 10.890, Val NLL: 10.799:  21%|██        | 126/600 [04:23<14:45,  1.87s/it]Train NLL: 10.890, Val NLL: 10.792:  21%|██        | 127/600 [04:24<14:27,  1.83s/it]Train NLL: 10.889, Val NLL: 10.796:  21%|██▏       | 128/600 [04:26<14:19,  1.82s/it]Train NLL: 10.888, Val NLL: 10.798:  22%|██▏       | 129/600 [04:29<16:08,  2.06s/it]Train NLL: 10.888, Val NLL: 10.791:  22%|██▏       | 130/600 [04:31<15:22,  1.96s/it]Train NLL: 10.887, Val NLL: 10.794:  22%|██▏       | 131/600 [04:33<15:46,  2.02s/it]Train NLL: 10.886, Val NLL: 10.794:  22%|██▏       | 132/600 [04:35<16:01,  2.05s/it]Train NLL: 10.887, Val NLL: 10.801:  22%|██▏       | 133/600 [04:37<15:15,  1.96s/it]Train NLL: 10.886, Val NLL: 10.792:  22%|██▏       | 134/600 [04:39<15:12,  1.96s/it]Train NLL: 10.886, Val NLL: 10.789:  22%|██▎       | 135/600 [04:41<15:47,  2.04s/it]Train NLL: 10.886, Val NLL: 10.798:  23%|██▎       | 136/600 [04:43<15:11,  1.96s/it]Train NLL: 10.885, Val NLL: 10.800:  23%|██▎       | 137/600 [04:45<15:15,  1.98s/it]Train NLL: 10.887, Val NLL: 10.801:  23%|██▎       | 138/600 [04:46<14:39,  1.90s/it]Train NLL: 10.889, Val NLL: 10.793:  23%|██▎       | 139/600 [04:48<14:16,  1.86s/it]Train NLL: 10.885, Val NLL: 10.796:  23%|██▎       | 140/600 [04:50<14:02,  1.83s/it]Train NLL: 10.886, Val NLL: 10.790:  24%|██▎       | 141/600 [04:53<16:14,  2.12s/it]Train NLL: 10.885, Val NLL: 10.797:  24%|██▎       | 142/600 [04:54<15:24,  2.02s/it]Train NLL: 10.883, Val NLL: 10.790:  24%|██▍       | 143/600 [04:57<16:24,  2.15s/it]Train NLL: 10.887, Val NLL: 10.805:  24%|██▍       | 144/600 [04:59<16:01,  2.11s/it]Train NLL: 10.884, Val NLL: 10.806:  24%|██▍       | 145/600 [05:01<15:42,  2.07s/it]Train NLL: 10.885, Val NLL: 10.791:  24%|██▍       | 146/600 [05:04<17:55,  2.37s/it]Train NLL: 10.884, Val NLL: 10.809:  24%|██▍       | 147/600 [05:06<16:43,  2.21s/it]Train NLL: 10.881, Val NLL: 10.800:  25%|██▍       | 148/600 [05:08<16:17,  2.16s/it]Train NLL: 10.884, Val NLL: 10.801:  25%|██▍       | 149/600 [05:10<16:44,  2.23s/it]Train NLL: 10.886, Val NLL: 10.792:  25%|██▌       | 150/600 [05:12<15:33,  2.08s/it]Train NLL: 10.881, Val NLL: 10.794:  25%|██▌       | 151/600 [05:14<15:34,  2.08s/it]Train NLL: 10.883, Val NLL: 10.798:  25%|██▌       | 152/600 [05:16<15:03,  2.02s/it]Train NLL: 10.884, Val NLL: 10.795:  26%|██▌       | 153/600 [05:18<14:27,  1.94s/it]Train NLL: 10.884, Val NLL: 10.794:  26%|██▌       | 154/600 [05:20<15:30,  2.09s/it]Train NLL: 10.884, Val NLL: 10.797:  26%|██▌       | 155/600 [05:22<15:26,  2.08s/it]Train NLL: 10.885, Val NLL: 10.788:  26%|██▌       | 156/600 [05:24<15:24,  2.08s/it]Train NLL: 10.885, Val NLL: 10.799:  26%|██▌       | 157/600 [05:26<14:44,  2.00s/it]Train NLL: 10.882, Val NLL: 10.803:  26%|██▋       | 158/600 [05:28<14:08,  1.92s/it]Train NLL: 10.881, Val NLL: 10.798:  26%|██▋       | 159/600 [05:30<14:31,  1.98s/it]Train NLL: 10.881, Val NLL: 10.797:  27%|██▋       | 160/600 [05:32<14:30,  1.98s/it]Train NLL: 10.883, Val NLL: 10.788:  27%|██▋       | 161/600 [05:34<13:58,  1.91s/it]Train NLL: 10.882, Val NLL: 10.791:  27%|██▋       | 162/600 [05:37<16:57,  2.32s/it]Train NLL: 10.880, Val NLL: 10.794:  27%|██▋       | 163/600 [05:39<15:40,  2.15s/it]Train NLL: 10.882, Val NLL: 10.794:  27%|██▋       | 164/600 [05:41<14:53,  2.05s/it]Train NLL: 10.884, Val NLL: 10.789:  28%|██▊       | 165/600 [05:43<16:52,  2.33s/it]Train NLL: 10.878, Val NLL: 10.798:  28%|██▊       | 166/600 [05:45<15:31,  2.15s/it]Train NLL: 10.882, Val NLL: 10.787:  28%|██▊       | 167/600 [05:48<16:02,  2.22s/it]Train NLL: 10.884, Val NLL: 10.787:  28%|██▊       | 168/600 [05:49<15:04,  2.09s/it]Train NLL: 10.880, Val NLL: 10.791:  28%|██▊       | 169/600 [05:51<14:50,  2.07s/it]Train NLL: 10.879, Val NLL: 10.794:  28%|██▊       | 170/600 [05:53<14:19,  2.00s/it]Train NLL: 10.878, Val NLL: 10.794:  28%|██▊       | 171/600 [05:55<13:36,  1.90s/it]Train NLL: 10.882, Val NLL: 10.790:  29%|██▊       | 172/600 [05:57<13:37,  1.91s/it]Train NLL: 10.879, Val NLL: 10.798:  29%|██▉       | 173/600 [05:59<15:01,  2.11s/it]Train NLL: 10.879, Val NLL: 10.796:  29%|██▉       | 174/600 [06:01<14:07,  1.99s/it]Train NLL: 10.881, Val NLL: 10.792:  29%|██▉       | 175/600 [06:03<13:49,  1.95s/it]Train NLL: 10.879, Val NLL: 10.792:  29%|██▉       | 176/600 [06:05<14:01,  1.98s/it]Train NLL: 10.879, Val NLL: 10.795:  30%|██▉       | 177/600 [06:07<13:26,  1.91s/it]Train NLL: 10.877, Val NLL: 10.799:  30%|██▉       | 178/600 [06:09<13:07,  1.87s/it]Train NLL: 10.881, Val NLL: 10.794:  30%|██▉       | 179/600 [06:10<12:57,  1.85s/it]Train NLL: 10.875, Val NLL: 10.795:  30%|███       | 180/600 [06:13<13:34,  1.94s/it]Train NLL: 10.876, Val NLL: 10.792:  30%|███       | 181/600 [06:15<14:24,  2.06s/it]Train NLL: 10.875, Val NLL: 10.802:  30%|███       | 182/600 [06:17<15:24,  2.21s/it]Train NLL: 10.879, Val NLL: 10.787:  30%|███       | 183/600 [06:19<14:25,  2.08s/it]Train NLL: 10.881, Val NLL: 10.790:  31%|███       | 184/600 [06:21<14:04,  2.03s/it]Train NLL: 10.879, Val NLL: 10.790:  31%|███       | 185/600 [06:23<13:49,  2.00s/it]Train NLL: 10.876, Val NLL: 10.831:  31%|███       | 186/600 [06:25<13:11,  1.91s/it]Train NLL: 10.880, Val NLL: 10.797:  31%|███       | 187/600 [06:27<14:08,  2.05s/it]Train NLL: 10.876, Val NLL: 10.793:  31%|███▏      | 188/600 [06:29<14:08,  2.06s/it]Train NLL: 10.877, Val NLL: 10.796:  32%|███▏      | 189/600 [06:31<14:06,  2.06s/it]Train NLL: 10.879, Val NLL: 10.786:  32%|███▏      | 190/600 [06:33<13:57,  2.04s/it]Train NLL: 10.879, Val NLL: 10.789:  32%|███▏      | 191/600 [06:35<13:41,  2.01s/it]Train NLL: 10.873, Val NLL: 10.792:  32%|███▏      | 192/600 [06:37<13:04,  1.92s/it]Train NLL: 10.879, Val NLL: 10.789:  32%|███▏      | 193/600 [06:39<12:50,  1.89s/it]Train NLL: 10.876, Val NLL: 10.784:  32%|███▏      | 194/600 [06:41<13:00,  1.92s/it]Train NLL: 10.878, Val NLL: 10.796:  32%|███▎      | 195/600 [06:43<13:05,  1.94s/it]Train NLL: 10.874, Val NLL: 10.796:  33%|███▎      | 196/600 [06:45<13:18,  1.98s/it]Train NLL: 10.875, Val NLL: 10.793:  33%|███▎      | 197/600 [06:47<13:27,  2.00s/it]Train NLL: 10.876, Val NLL: 10.782:  33%|███▎      | 198/600 [06:49<12:54,  1.93s/it]Train NLL: 10.874, Val NLL: 10.792:  33%|███▎      | 199/600 [06:50<12:34,  1.88s/it]Train NLL: 10.875, Val NLL: 10.787:  33%|███▎      | 200/600 [06:52<12:56,  1.94s/it]Train NLL: 10.876, Val NLL: 10.793:  34%|███▎      | 201/600 [06:54<12:34,  1.89s/it]Train NLL: 10.874, Val NLL: 10.794:  34%|███▎      | 202/600 [06:57<13:40,  2.06s/it]Train NLL: 10.875, Val NLL: 10.790:  34%|███▍      | 203/600 [06:59<13:15,  2.00s/it]Train NLL: 10.875, Val NLL: 10.791:  34%|███▍      | 204/600 [07:00<12:42,  1.92s/it]Train NLL: 10.872, Val NLL: 10.798:  34%|███▍      | 205/600 [07:03<14:51,  2.26s/it]Train NLL: 10.873, Val NLL: 10.792:  34%|███▍      | 206/600 [07:05<13:47,  2.10s/it]Train NLL: 10.877, Val NLL: 10.793:  34%|███▍      | 207/600 [07:08<14:42,  2.24s/it]Train NLL: 10.875, Val NLL: 10.812:  35%|███▍      | 208/600 [07:09<13:44,  2.10s/it]Train NLL: 10.874, Val NLL: 10.784:  35%|███▍      | 209/600 [07:11<12:58,  1.99s/it]Train NLL: 10.878, Val NLL: 10.793:  35%|███▌      | 210/600 [07:14<14:23,  2.21s/it]Train NLL: 10.874, Val NLL: 10.797:  35%|███▌      | 211/600 [07:16<13:23,  2.07s/it]Train NLL: 10.874, Val NLL: 10.797:  35%|███▌      | 212/600 [07:18<13:33,  2.10s/it]Epoch   213: reducing learning rate of group 0 to 1.0000e-04.
Train NLL: 10.873, Val NLL: 10.782:  36%|███▌      | 213/600 [07:20<14:28,  2.24s/it]Train NLL: 10.867, Val NLL: 10.785:  36%|███▌      | 214/600 [07:22<13:27,  2.09s/it]Train NLL: 10.864, Val NLL: 10.785:  36%|███▌      | 215/600 [07:24<12:42,  1.98s/it]Train NLL: 10.863, Val NLL: 10.786:  36%|███▌      | 216/600 [07:28<16:01,  2.50s/it]Train NLL: 10.863, Val NLL: 10.785:  36%|███▌      | 217/600 [07:29<14:31,  2.28s/it]Train NLL: 10.863, Val NLL: 10.786:  36%|███▋      | 218/600 [07:32<15:06,  2.37s/it]Train NLL: 10.863, Val NLL: 10.786:  36%|███▋      | 219/600 [07:34<13:50,  2.18s/it]Train NLL: 10.863, Val NLL: 10.788:  37%|███▋      | 220/600 [07:36<13:45,  2.17s/it]Train NLL: 10.863, Val NLL: 10.787:  37%|███▋      | 221/600 [07:38<13:25,  2.13s/it]Train NLL: 10.863, Val NLL: 10.787:  37%|███▋      | 222/600 [07:40<12:38,  2.01s/it]Train NLL: 10.862, Val NLL: 10.786:  37%|███▋      | 223/600 [07:41<12:07,  1.93s/it]Train NLL: 10.863, Val NLL: 10.787:  37%|███▋      | 224/600 [07:44<14:06,  2.25s/it]Train NLL: 10.862, Val NLL: 10.787:  38%|███▊      | 225/600 [07:46<13:05,  2.10s/it]Train NLL: 10.862, Val NLL: 10.786:  38%|███▊      | 226/600 [07:48<12:21,  1.98s/it]Train NLL: 10.862, Val NLL: 10.787:  38%|███▊      | 227/600 [07:50<12:04,  1.94s/it]Train NLL: 10.862, Val NLL: 10.785:  38%|███▊      | 228/600 [07:52<12:13,  1.97s/it]Train NLL: 10.862, Val NLL: 10.786:  38%|███▊      | 229/600 [07:54<12:10,  1.97s/it]Train NLL: 10.862, Val NLL: 10.786:  38%|███▊      | 230/600 [07:56<13:39,  2.21s/it]Train NLL: 10.862, Val NLL: 10.787:  38%|███▊      | 231/600 [07:58<12:59,  2.11s/it]Train NLL: 10.863, Val NLL: 10.785:  39%|███▊      | 232/600 [08:00<12:14,  2.00s/it]Train NLL: 10.863, Val NLL: 10.786:  39%|███▉      | 233/600 [08:02<11:48,  1.93s/it]Train NLL: 10.862, Val NLL: 10.787:  39%|███▉      | 234/600 [08:04<12:54,  2.12s/it]Train NLL: 10.862, Val NLL: 10.786:  39%|███▉      | 235/600 [08:06<12:11,  2.00s/it]Train NLL: 10.862, Val NLL: 10.787:  39%|███▉      | 236/600 [08:09<13:31,  2.23s/it]Train NLL: 10.863, Val NLL: 10.788:  40%|███▉      | 237/600 [08:11<12:49,  2.12s/it]Train NLL: 10.862, Val NLL: 10.787:  40%|███▉      | 238/600 [08:12<12:02,  2.00s/it]Train NLL: 10.862, Val NLL: 10.785:  40%|███▉      | 239/600 [08:14<11:33,  1.92s/it]Train NLL: 10.862, Val NLL: 10.787:  40%|████      | 240/600 [08:16<12:16,  2.05s/it]Train NLL: 10.862, Val NLL: 10.787:  40%|████      | 241/600 [08:18<11:42,  1.96s/it]Train NLL: 10.862, Val NLL: 10.787:  40%|████      | 242/600 [08:20<11:18,  1.90s/it]Train NLL: 10.862, Val NLL: 10.787:  40%|████      | 243/600 [08:22<11:49,  1.99s/it]Train NLL: 10.862, Val NLL: 10.787:  41%|████      | 244/600 [08:24<11:21,  1.91s/it]Train NLL: 10.862, Val NLL: 10.785:  41%|████      | 245/600 [08:26<11:02,  1.87s/it]Train NLL: 10.862, Val NLL: 10.790:  41%|████      | 246/600 [08:27<10:57,  1.86s/it]Train NLL: 10.862, Val NLL: 10.787:  41%|████      | 247/600 [08:29<10:43,  1.82s/it]Train NLL: 10.862, Val NLL: 10.786:  41%|████▏     | 248/600 [08:31<10:35,  1.80s/it]Train NLL: 10.862, Val NLL: 10.788:  42%|████▏     | 249/600 [08:33<11:13,  1.92s/it]Epoch   250: reducing learning rate of group 0 to 1.0000e-05.
Train NLL: 10.862, Val NLL: 10.787:  42%|████▏     | 250/600 [08:35<11:30,  1.97s/it]Train NLL: 10.861, Val NLL: 10.786:  42%|████▏     | 251/600 [08:37<11:00,  1.89s/it]Train NLL: 10.861, Val NLL: 10.786:  42%|████▏     | 252/600 [08:40<12:19,  2.12s/it]Train NLL: 10.861, Val NLL: 10.786:  42%|████▏     | 253/600 [08:41<11:38,  2.01s/it]Train NLL: 10.861, Val NLL: 10.786:  42%|████▏     | 254/600 [08:43<11:40,  2.03s/it]Train NLL: 10.861, Val NLL: 10.786:  42%|████▎     | 255/600 [08:46<12:26,  2.16s/it]Train NLL: 10.861, Val NLL: 10.786:  43%|████▎     | 256/600 [08:48<11:39,  2.03s/it]Train NLL: 10.861, Val NLL: 10.786:  43%|████▎     | 257/600 [08:49<11:08,  1.95s/it]Train NLL: 10.861, Val NLL: 10.786:  43%|████▎     | 258/600 [08:51<11:18,  1.98s/it]Train NLL: 10.861, Val NLL: 10.786:  43%|████▎     | 259/600 [08:54<12:06,  2.13s/it]Train NLL: 10.861, Val NLL: 10.786:  43%|████▎     | 260/600 [08:56<12:16,  2.17s/it]Train NLL: 10.861, Val NLL: 10.786:  44%|████▎     | 261/600 [08:59<12:52,  2.28s/it]Train NLL: 10.861, Val NLL: 10.786:  44%|████▎     | 262/600 [09:01<12:06,  2.15s/it]Train NLL: 10.861, Val NLL: 10.786:  44%|████▍     | 263/600 [09:02<11:35,  2.06s/it]Train NLL: 10.861, Val NLL: 10.786:  44%|████▍     | 264/600 [09:04<11:19,  2.02s/it]Train NLL: 10.861, Val NLL: 10.786:  44%|████▍     | 265/600 [09:06<10:45,  1.93s/it]Train NLL: 10.861, Val NLL: 10.786:  44%|████▍     | 266/600 [09:08<10:22,  1.86s/it]Train NLL: 10.861, Val NLL: 10.786:  44%|████▍     | 267/600 [09:10<10:16,  1.85s/it]Train NLL: 10.861, Val NLL: 10.786:  45%|████▍     | 268/600 [09:11<10:07,  1.83s/it]Train NLL: 10.861, Val NLL: 10.786:  45%|████▍     | 269/600 [09:13<09:55,  1.80s/it]Train NLL: 10.861, Val NLL: 10.786:  45%|████▌     | 270/600 [09:16<11:09,  2.03s/it]Train NLL: 10.861, Val NLL: 10.786:  45%|████▌     | 271/600 [09:18<10:53,  1.99s/it]Epoch   272: reducing learning rate of group 0 to 1.0000e-06.
Train NLL: 10.861, Val NLL: 10.786:  45%|████▌     | 272/600 [09:19<10:25,  1.91s/it]Train NLL: 10.861, Val NLL: 10.786:  46%|████▌     | 273/600 [09:21<10:07,  1.86s/it]Train NLL: 10.861, Val NLL: 10.786:  46%|████▌     | 274/600 [09:23<10:46,  1.98s/it]Train NLL: 10.861, Val NLL: 10.786:  46%|████▌     | 275/600 [09:25<10:20,  1.91s/it]Train NLL: 10.861, Val NLL: 10.786:  46%|████▌     | 276/600 [09:27<09:59,  1.85s/it]Train NLL: 10.861, Val NLL: 10.786:  46%|████▌     | 277/600 [09:28<09:48,  1.82s/it]Train NLL: 10.861, Val NLL: 10.786:  46%|████▋     | 278/600 [09:31<10:43,  2.00s/it]Train NLL: 10.861, Val NLL: 10.786:  46%|████▋     | 279/600 [09:33<10:13,  1.91s/it]Train NLL: 10.861, Val NLL: 10.786:  47%|████▋     | 280/600 [09:35<10:14,  1.92s/it]Train NLL: 10.861, Val NLL: 10.786:  47%|████▋     | 281/600 [09:37<11:10,  2.10s/it]Train NLL: 10.861, Val NLL: 10.786:  47%|████▋     | 282/600 [09:39<10:34,  1.99s/it]Train NLL: 10.861, Val NLL: 10.786:  47%|████▋     | 283/600 [09:42<11:49,  2.24s/it]Train NLL: 10.861, Val NLL: 10.786:  47%|████▋     | 284/600 [09:43<11:00,  2.09s/it]Train NLL: 10.861, Val NLL: 10.786:  48%|████▊     | 285/600 [09:45<10:32,  2.01s/it]Train NLL: 10.861, Val NLL: 10.786:  48%|████▊     | 286/600 [09:48<11:30,  2.20s/it]Train NLL: 10.861, Val NLL: 10.786:  48%|████▊     | 287/600 [09:50<10:43,  2.06s/it]Train NLL: 10.861, Val NLL: 10.786:  48%|████▊     | 288/600 [09:51<10:09,  1.95s/it]Train NLL: 10.861, Val NLL: 10.786:  48%|████▊     | 289/600 [09:53<10:27,  2.02s/it]Train NLL: 10.861, Val NLL: 10.786:  48%|████▊     | 290/600 [09:55<10:27,  2.02s/it]Train NLL: 10.861, Val NLL: 10.786:  48%|████▊     | 291/600 [09:57<09:58,  1.94s/it]Train NLL: 10.861, Val NLL: 10.786:  49%|████▊     | 292/600 [09:59<09:37,  1.88s/it]Train NLL: 10.861, Val NLL: 10.786:  49%|████▉     | 293/600 [10:02<11:13,  2.19s/it]Train NLL: 10.861, Val NLL: 10.786:  49%|████▉     | 294/600 [10:04<10:29,  2.06s/it]Train NLL: 10.861, Val NLL: 10.786:  49%|████▉     | 295/600 [10:05<09:56,  1.96s/it]Train NLL: 10.861, Val NLL: 10.786:  49%|████▉     | 296/600 [10:07<10:11,  2.01s/it]Train NLL: 10.861, Val NLL: 10.786:  50%|████▉     | 297/600 [10:09<09:42,  1.92s/it]Train NLL: 10.861, Val NLL: 10.786:  50%|████▉     | 298/600 [10:11<09:44,  1.94s/it]Train NLL: 10.861, Val NLL: 10.786:  50%|████▉     | 299/600 [10:13<09:42,  1.93s/it]Train NLL: 10.861, Val NLL: 10.786:  50%|█████     | 300/600 [10:15<09:21,  1.87s/it]Train NLL: 10.861, Val NLL: 10.786:  50%|█████     | 301/600 [10:17<09:04,  1.82s/it]Train NLL: 10.861, Val NLL: 10.786:  50%|█████     | 302/600 [10:20<10:50,  2.18s/it]Train NLL: 10.861, Val NLL: 10.786:  50%|█████     | 303/600 [10:21<10:09,  2.05s/it]Train NLL: 10.861, Val NLL: 10.786:  51%|█████     | 304/600 [10:23<09:47,  1.99s/it]Train NLL: 10.861, Val NLL: 10.786:  51%|█████     | 305/600 [10:25<09:29,  1.93s/it]Train NLL: 10.861, Val NLL: 10.786:  51%|█████     | 306/600 [10:27<09:07,  1.86s/it]Train NLL: 10.861, Val NLL: 10.786:  51%|█████     | 307/600 [10:29<09:19,  1.91s/it]Train NLL: 10.861, Val NLL: 10.786:  51%|█████▏    | 308/600 [10:31<10:23,  2.14s/it]Train NLL: 10.861, Val NLL: 10.786:  52%|█████▏    | 309/600 [10:33<09:45,  2.01s/it]Train NLL: 10.861, Val NLL: 10.786:  52%|█████▏    | 310/600 [10:36<10:34,  2.19s/it]Train NLL: 10.861, Val NLL: 10.786:  52%|█████▏    | 311/600 [10:38<10:40,  2.22s/it]Train NLL: 10.861, Val NLL: 10.786:  52%|█████▏    | 312/600 [10:40<10:13,  2.13s/it]Train NLL: 10.861, Val NLL: 10.786:  52%|█████▏    | 313/600 [10:42<09:39,  2.02s/it]Train NLL: 10.861, Val NLL: 10.786:  52%|█████▏    | 314/600 [10:44<09:59,  2.10s/it]Train NLL: 10.861, Val NLL: 10.786:  52%|█████▎    | 315/600 [10:46<09:25,  1.99s/it]Train NLL: 10.861, Val NLL: 10.786:  53%|█████▎    | 316/600 [10:47<09:01,  1.91s/it]Train NLL: 10.861, Val NLL: 10.786:  53%|█████▎    | 317/600 [10:49<09:06,  1.93s/it]Train NLL: 10.861, Val NLL: 10.786:  53%|█████▎    | 318/600 [10:51<09:09,  1.95s/it]Train NLL: 10.861, Val NLL: 10.786:  53%|█████▎    | 319/600 [10:53<08:47,  1.88s/it]Train NLL: 10.861, Val NLL: 10.786:  53%|█████▎    | 320/600 [10:55<09:00,  1.93s/it]Train NLL: 10.861, Val NLL: 10.786:  54%|█████▎    | 321/600 [10:57<08:47,  1.89s/it]Train NLL: 10.861, Val NLL: 10.786:  54%|█████▎    | 322/600 [10:59<08:57,  1.93s/it]Train NLL: 10.861, Val NLL: 10.786:  54%|█████▍    | 323/600 [11:01<09:06,  1.97s/it]Train NLL: 10.861, Val NLL: 10.786:  54%|█████▍    | 324/600 [11:04<09:57,  2.17s/it]Train NLL: 10.861, Val NLL: 10.786:  54%|█████▍    | 325/600 [11:05<09:18,  2.03s/it]Train NLL: 10.861, Val NLL: 10.786:  54%|█████▍    | 326/600 [11:07<08:51,  1.94s/it]Train NLL: 10.861, Val NLL: 10.786:  55%|█████▍    | 327/600 [11:09<08:41,  1.91s/it]Train NLL: 10.861, Val NLL: 10.786:  55%|█████▍    | 328/600 [11:12<09:39,  2.13s/it]Train NLL: 10.861, Val NLL: 10.786:  55%|█████▍    | 329/600 [11:13<09:19,  2.06s/it]Train NLL: 10.861, Val NLL: 10.786:  55%|█████▌    | 330/600 [11:15<09:03,  2.01s/it]Train NLL: 10.861, Val NLL: 10.786:  55%|█████▌    | 331/600 [11:17<08:57,  2.00s/it]Train NLL: 10.861, Val NLL: 10.786:  55%|█████▌    | 332/600 [11:19<08:37,  1.93s/it]Train NLL: 10.861, Val NLL: 10.786:  56%|█████▌    | 333/600 [11:21<08:23,  1.88s/it]Train NLL: 10.861, Val NLL: 10.786:  56%|█████▌    | 334/600 [11:23<08:20,  1.88s/it]Train NLL: 10.861, Val NLL: 10.786:  56%|█████▌    | 335/600 [11:24<08:07,  1.84s/it]Train NLL: 10.861, Val NLL: 10.786:  56%|█████▌    | 336/600 [11:27<08:57,  2.03s/it]Train NLL: 10.861, Val NLL: 10.786:  56%|█████▌    | 337/600 [11:29<08:32,  1.95s/it]Train NLL: 10.861, Val NLL: 10.786:  56%|█████▋    | 338/600 [11:31<08:25,  1.93s/it]Train NLL: 10.861, Val NLL: 10.786:  56%|█████▋    | 339/600 [11:33<08:55,  2.05s/it]Train NLL: 10.861, Val NLL: 10.786:  57%|█████▋    | 340/600 [11:35<08:55,  2.06s/it]Train NLL: 10.861, Val NLL: 10.786:  57%|█████▋    | 341/600 [11:37<09:12,  2.13s/it]Train NLL: 10.861, Val NLL: 10.786:  57%|█████▋    | 342/600 [11:39<08:49,  2.05s/it]Train NLL: 10.861, Val NLL: 10.786:  57%|█████▋    | 343/600 [11:41<08:25,  1.97s/it]Train NLL: 10.861, Val NLL: 10.786:  57%|█████▋    | 344/600 [11:43<08:59,  2.11s/it]Train NLL: 10.861, Val NLL: 10.786:  57%|█████▊    | 345/600 [11:45<08:29,  2.00s/it]Train NLL: 10.861, Val NLL: 10.786:  58%|█████▊    | 346/600 [11:48<09:22,  2.21s/it]Train NLL: 10.861, Val NLL: 10.786:  58%|█████▊    | 347/600 [11:50<09:13,  2.19s/it]Train NLL: 10.861, Val NLL: 10.786:  58%|█████▊    | 348/600 [11:52<08:51,  2.11s/it]Train NLL: 10.861, Val NLL: 10.786:  58%|█████▊    | 349/600 [11:54<08:42,  2.08s/it]Train NLL: 10.861, Val NLL: 10.786:  58%|█████▊    | 350/600 [11:56<08:13,  1.98s/it]Train NLL: 10.861, Val NLL: 10.786:  58%|█████▊    | 351/600 [11:57<07:55,  1.91s/it]Train NLL: 10.861, Val NLL: 10.786:  59%|█████▊    | 352/600 [11:59<07:43,  1.87s/it]Train NLL: 10.861, Val NLL: 10.786:  59%|█████▉    | 353/600 [12:02<08:24,  2.04s/it]Train NLL: 10.861, Val NLL: 10.786:  59%|█████▉    | 354/600 [12:03<07:58,  1.94s/it]Train NLL: 10.861, Val NLL: 10.786:  59%|█████▉    | 355/600 [12:05<07:51,  1.92s/it]Train NLL: 10.861, Val NLL: 10.786:  59%|█████▉    | 356/600 [12:07<08:01,  1.98s/it]Train NLL: 10.861, Val NLL: 10.786:  60%|█████▉    | 357/600 [12:09<07:40,  1.89s/it]Train NLL: 10.861, Val NLL: 10.786:  60%|█████▉    | 358/600 [12:11<07:59,  1.98s/it]Train NLL: 10.861, Val NLL: 10.786:  60%|█████▉    | 359/600 [12:13<07:55,  1.97s/it]Train NLL: 10.861, Val NLL: 10.786:  60%|██████    | 360/600 [12:15<07:38,  1.91s/it]Train NLL: 10.861, Val NLL: 10.786:  60%|██████    | 361/600 [12:17<07:24,  1.86s/it]Train NLL: 10.861, Val NLL: 10.786:  60%|██████    | 362/600 [12:20<08:35,  2.16s/it]Train NLL: 10.861, Val NLL: 10.786:  60%|██████    | 363/600 [12:21<08:00,  2.03s/it]Train NLL: 10.861, Val NLL: 10.786:  61%|██████    | 364/600 [12:23<07:55,  2.02s/it]Train NLL: 10.861, Val NLL: 10.786:  61%|██████    | 365/600 [12:25<07:36,  1.94s/it]Train NLL: 10.861, Val NLL: 10.786:  61%|██████    | 366/600 [12:27<07:20,  1.88s/it]Train NLL: 10.861, Val NLL: 10.786:  61%|██████    | 367/600 [12:28<07:10,  1.85s/it]Train NLL: 10.861, Val NLL: 10.786:  61%|██████▏   | 368/600 [12:30<07:12,  1.87s/it]Train NLL: 10.861, Val NLL: 10.786:  62%|██████▏   | 369/600 [12:32<07:00,  1.82s/it]Train NLL: 10.861, Val NLL: 10.786:  62%|██████▏   | 370/600 [12:35<08:32,  2.23s/it]Train NLL: 10.861, Val NLL: 10.786:  62%|██████▏   | 371/600 [12:37<07:55,  2.07s/it]Train NLL: 10.861, Val NLL: 10.786:  62%|██████▏   | 372/600 [12:39<08:20,  2.19s/it]Train NLL: 10.861, Val NLL: 10.786:  62%|██████▏   | 373/600 [12:41<08:01,  2.12s/it]Train NLL: 10.861, Val NLL: 10.786:  62%|██████▏   | 374/600 [12:43<07:32,  2.00s/it]Train NLL: 10.861, Val NLL: 10.786:  62%|██████▎   | 375/600 [12:45<07:47,  2.08s/it]Train NLL: 10.861, Val NLL: 10.786:  63%|██████▎   | 376/600 [12:47<07:27,  2.00s/it]Train NLL: 10.861, Val NLL: 10.786:  63%|██████▎   | 377/600 [12:49<07:36,  2.05s/it]Train NLL: 10.861, Val NLL: 10.786:  63%|██████▎   | 378/600 [12:51<07:30,  2.03s/it]Train NLL: 10.861, Val NLL: 10.786:  63%|██████▎   | 379/600 [12:53<07:08,  1.94s/it]Train NLL: 10.861, Val NLL: 10.786:  63%|██████▎   | 380/600 [12:55<07:26,  2.03s/it]Train NLL: 10.861, Val NLL: 10.786:  64%|██████▎   | 381/600 [12:57<07:17,  2.00s/it]Train NLL: 10.861, Val NLL: 10.786:  64%|██████▎   | 382/600 [12:59<06:58,  1.92s/it]Train NLL: 10.861, Val NLL: 10.786:  64%|██████▍   | 383/600 [13:02<07:55,  2.19s/it]Train NLL: 10.861, Val NLL: 10.786:  64%|██████▍   | 384/600 [13:04<07:24,  2.06s/it]Train NLL: 10.861, Val NLL: 10.786:  64%|██████▍   | 385/600 [13:06<07:17,  2.03s/it]Train NLL: 10.861, Val NLL: 10.786:  64%|██████▍   | 386/600 [13:09<08:24,  2.36s/it]Train NLL: 10.861, Val NLL: 10.786:  64%|██████▍   | 387/600 [13:11<07:48,  2.20s/it]Train NLL: 10.861, Val NLL: 10.786:  65%|██████▍   | 388/600 [13:13<07:48,  2.21s/it]Train NLL: 10.861, Val NLL: 10.786:  65%|██████▍   | 389/600 [13:14<07:15,  2.06s/it]Train NLL: 10.861, Val NLL: 10.786:  65%|██████▌   | 390/600 [13:16<06:54,  1.98s/it]Train NLL: 10.861, Val NLL: 10.786:  65%|██████▌   | 391/600 [13:19<07:25,  2.13s/it]Train NLL: 10.861, Val NLL: 10.786:  65%|██████▌   | 392/600 [13:20<06:57,  2.01s/it]Train NLL: 10.861, Val NLL: 10.786:  66%|██████▌   | 393/600 [13:23<07:29,  2.17s/it]Train NLL: 10.861, Val NLL: 10.786:  66%|██████▌   | 394/600 [13:25<07:03,  2.06s/it]Train NLL: 10.861, Val NLL: 10.786:  66%|██████▌   | 395/600 [13:26<06:38,  1.94s/it]Train NLL: 10.861, Val NLL: 10.786:  66%|██████▌   | 396/600 [13:28<06:22,  1.88s/it]Train NLL: 10.861, Val NLL: 10.786:  66%|██████▌   | 397/600 [13:30<06:21,  1.88s/it]Train NLL: 10.861, Val NLL: 10.786:  66%|██████▋   | 398/600 [13:32<06:25,  1.91s/it]Train NLL: 10.861, Val NLL: 10.786:  66%|██████▋   | 399/600 [13:34<06:13,  1.86s/it]Train NLL: 10.861, Val NLL: 10.786:  67%|██████▋   | 400/600 [13:36<06:42,  2.01s/it]Train NLL: 10.861, Val NLL: 10.786:  67%|██████▋   | 401/600 [13:38<06:26,  1.94s/it]Train NLL: 10.861, Val NLL: 10.786:  67%|██████▋   | 402/600 [13:41<07:03,  2.14s/it]Train NLL: 10.861, Val NLL: 10.786:  67%|██████▋   | 403/600 [13:43<07:24,  2.26s/it]Train NLL: 10.861, Val NLL: 10.786:  67%|██████▋   | 404/600 [13:45<07:07,  2.18s/it]Train NLL: 10.861, Val NLL: 10.786:  68%|██████▊   | 405/600 [13:47<06:53,  2.12s/it]Train NLL: 10.861, Val NLL: 10.786:  68%|██████▊   | 406/600 [13:49<06:28,  2.00s/it]Train NLL: 10.861, Val NLL: 10.786:  68%|██████▊   | 407/600 [13:50<06:09,  1.91s/it]Train NLL: 10.861, Val NLL: 10.786:  68%|██████▊   | 408/600 [13:52<06:01,  1.88s/it]Train NLL: 10.861, Val NLL: 10.786:  68%|██████▊   | 409/600 [13:55<06:39,  2.09s/it]Train NLL: 10.861, Val NLL: 10.786:  68%|██████▊   | 410/600 [13:57<06:15,  1.98s/it]Train NLL: 10.861, Val NLL: 10.786:  68%|██████▊   | 411/600 [13:58<06:00,  1.91s/it]Train NLL: 10.861, Val NLL: 10.786:  69%|██████▊   | 412/600 [14:01<06:44,  2.15s/it]Train NLL: 10.861, Val NLL: 10.786:  69%|██████▉   | 413/600 [14:03<06:25,  2.06s/it]Train NLL: 10.861, Val NLL: 10.786:  69%|██████▉   | 414/600 [14:05<06:25,  2.07s/it]Train NLL: 10.861, Val NLL: 10.786:  69%|██████▉   | 415/600 [14:07<06:30,  2.11s/it]Train NLL: 10.861, Val NLL: 10.786:  69%|██████▉   | 416/600 [14:09<06:08,  2.00s/it]Train NLL: 10.861, Val NLL: 10.786:  70%|██████▉   | 417/600 [14:11<06:25,  2.11s/it]Train NLL: 10.861, Val NLL: 10.786:  70%|██████▉   | 418/600 [14:14<06:33,  2.16s/it]Train NLL: 10.861, Val NLL: 10.786:  70%|██████▉   | 419/600 [14:16<06:51,  2.28s/it]Train NLL: 10.861, Val NLL: 10.786:  70%|███████   | 420/600 [14:19<07:22,  2.46s/it]Train NLL: 10.861, Val NLL: 10.786:  70%|███████   | 421/600 [14:21<07:04,  2.37s/it]Train NLL: 10.861, Val NLL: 10.786:  70%|███████   | 422/600 [14:23<06:25,  2.17s/it]Train NLL: 10.861, Val NLL: 10.786:  70%|███████   | 423/600 [14:25<05:58,  2.02s/it]Train NLL: 10.861, Val NLL: 10.786:  71%|███████   | 424/600 [14:26<05:39,  1.93s/it]Train NLL: 10.861, Val NLL: 10.786:  71%|███████   | 425/600 [14:29<06:18,  2.16s/it]Train NLL: 10.861, Val NLL: 10.786:  71%|███████   | 426/600 [14:31<05:52,  2.02s/it]Train NLL: 10.861, Val NLL: 10.786:  71%|███████   | 427/600 [14:34<06:40,  2.32s/it]Train NLL: 10.861, Val NLL: 10.786:  71%|███████▏  | 428/600 [14:35<06:06,  2.13s/it]Train NLL: 10.861, Val NLL: 10.786:  72%|███████▏  | 429/600 [14:37<05:52,  2.06s/it]Train NLL: 10.861, Val NLL: 10.786:  72%|███████▏  | 430/600 [14:40<06:34,  2.32s/it]Train NLL: 10.861, Val NLL: 10.786:  72%|███████▏  | 431/600 [14:42<06:01,  2.14s/it]Train NLL: 10.861, Val NLL: 10.786:  72%|███████▏  | 432/600 [14:44<05:50,  2.09s/it]Train NLL: 10.861, Val NLL: 10.786:  72%|███████▏  | 433/600 [14:46<05:40,  2.04s/it]Train NLL: 10.861, Val NLL: 10.786:  72%|███████▏  | 434/600 [14:48<05:47,  2.09s/it]Train NLL: 10.861, Val NLL: 10.786:  72%|███████▎  | 435/600 [14:50<05:50,  2.12s/it]Train NLL: 10.861, Val NLL: 10.786:  73%|███████▎  | 436/600 [14:52<05:39,  2.07s/it]Train NLL: 10.861, Val NLL: 10.786:  73%|███████▎  | 437/600 [14:54<05:21,  1.97s/it]Train NLL: 10.861, Val NLL: 10.786:  73%|███████▎  | 438/600 [14:57<06:19,  2.34s/it]Train NLL: 10.861, Val NLL: 10.786:  73%|███████▎  | 439/600 [14:59<06:00,  2.24s/it]Train NLL: 10.861, Val NLL: 10.786:  73%|███████▎  | 440/600 [15:02<06:07,  2.30s/it]Train NLL: 10.861, Val NLL: 10.786:  74%|███████▎  | 441/600 [15:04<06:11,  2.34s/it]Train NLL: 10.861, Val NLL: 10.786:  74%|███████▎  | 442/600 [15:06<05:40,  2.16s/it]Train NLL: 10.861, Val NLL: 10.786:  74%|███████▍  | 443/600 [15:07<05:20,  2.04s/it]Train NLL: 10.861, Val NLL: 10.786:  74%|███████▍  | 444/600 [15:09<05:15,  2.02s/it]Train NLL: 10.861, Val NLL: 10.786:  74%|███████▍  | 445/600 [15:11<05:00,  1.94s/it]Train NLL: 10.861, Val NLL: 10.786:  74%|███████▍  | 446/600 [15:13<04:52,  1.90s/it]Train NLL: 10.861, Val NLL: 10.786:  74%|███████▍  | 447/600 [15:15<04:51,  1.91s/it]Train NLL: 10.861, Val NLL: 10.786:  75%|███████▍  | 448/600 [15:17<04:44,  1.87s/it]Train NLL: 10.861, Val NLL: 10.786:  75%|███████▍  | 449/600 [15:18<04:36,  1.83s/it]Train NLL: 10.861, Val NLL: 10.786:  75%|███████▌  | 450/600 [15:20<04:34,  1.83s/it]Train NLL: 10.861, Val NLL: 10.786:  75%|███████▌  | 451/600 [15:23<04:51,  1.96s/it]Train NLL: 10.861, Val NLL: 10.786:  75%|███████▌  | 452/600 [15:24<04:39,  1.89s/it]Train NLL: 10.861, Val NLL: 10.786:  76%|███████▌  | 453/600 [15:26<04:51,  1.98s/it]Train NLL: 10.861, Val NLL: 10.786:  76%|███████▌  | 454/600 [15:28<04:42,  1.94s/it]Train NLL: 10.861, Val NLL: 10.786:  76%|███████▌  | 455/600 [15:30<04:31,  1.87s/it]Train NLL: 10.861, Val NLL: 10.786:  76%|███████▌  | 456/600 [15:32<04:23,  1.83s/it]Train NLL: 10.861, Val NLL: 10.786:  76%|███████▌  | 457/600 [15:35<05:00,  2.10s/it]Train NLL: 10.861, Val NLL: 10.786:  76%|███████▋  | 458/600 [15:37<04:54,  2.07s/it]Train NLL: 10.861, Val NLL: 10.786:  76%|███████▋  | 459/600 [15:38<04:38,  1.98s/it]Train NLL: 10.861, Val NLL: 10.786:  77%|███████▋  | 460/600 [15:40<04:29,  1.93s/it]Train NLL: 10.861, Val NLL: 10.786:  77%|███████▋  | 461/600 [15:42<04:42,  2.04s/it]Train NLL: 10.861, Val NLL: 10.786:  77%|███████▋  | 462/600 [15:44<04:43,  2.06s/it]Train NLL: 10.861, Val NLL: 10.786:  77%|███████▋  | 463/600 [15:47<05:06,  2.24s/it]Train NLL: 10.861, Val NLL: 10.786:  77%|███████▋  | 464/600 [15:49<04:44,  2.09s/it]Train NLL: 10.861, Val NLL: 10.786:  78%|███████▊  | 465/600 [15:51<04:53,  2.17s/it]Train NLL: 10.861, Val NLL: 10.786:  78%|███████▊  | 466/600 [15:53<04:45,  2.13s/it]Train NLL: 10.861, Val NLL: 10.786:  78%|███████▊  | 467/600 [15:55<04:27,  2.01s/it]Train NLL: 10.861, Val NLL: 10.786:  78%|███████▊  | 468/600 [15:58<04:53,  2.22s/it]Train NLL: 10.861, Val NLL: 10.786:  78%|███████▊  | 469/600 [16:00<04:44,  2.17s/it]Train NLL: 10.861, Val NLL: 10.786:  78%|███████▊  | 470/600 [16:03<05:04,  2.34s/it]Train NLL: 10.861, Val NLL: 10.786:  78%|███████▊  | 471/600 [16:04<04:38,  2.16s/it]Train NLL: 10.861, Val NLL: 10.786:  79%|███████▊  | 472/600 [16:06<04:24,  2.07s/it]Train NLL: 10.861, Val NLL: 10.786:  79%|███████▉  | 473/600 [16:08<04:24,  2.08s/it]Train NLL: 10.861, Val NLL: 10.786:  79%|███████▉  | 474/600 [16:10<04:22,  2.08s/it]Train NLL: 10.861, Val NLL: 10.786:  79%|███████▉  | 475/600 [16:14<05:11,  2.49s/it]Train NLL: 10.861, Val NLL: 10.786:  79%|███████▉  | 476/600 [16:15<04:39,  2.26s/it]Train NLL: 10.861, Val NLL: 10.786:  80%|███████▉  | 477/600 [16:18<04:51,  2.37s/it]Train NLL: 10.861, Val NLL: 10.786:  80%|███████▉  | 478/600 [16:20<04:34,  2.25s/it]Train NLL: 10.861, Val NLL: 10.786:  80%|███████▉  | 479/600 [16:22<04:14,  2.10s/it]Train NLL: 10.861, Val NLL: 10.786:  80%|████████  | 480/600 [16:24<04:09,  2.08s/it]Train NLL: 10.861, Val NLL: 10.786:  80%|████████  | 481/600 [16:26<03:58,  2.00s/it]Train NLL: 10.861, Val NLL: 10.786:  80%|████████  | 482/600 [16:28<04:09,  2.11s/it]Train NLL: 10.861, Val NLL: 10.786:  80%|████████  | 483/600 [16:30<03:53,  2.00s/it]Train NLL: 10.861, Val NLL: 10.786:  81%|████████  | 484/600 [16:32<03:43,  1.92s/it]Train NLL: 10.861, Val NLL: 10.786:  81%|████████  | 485/600 [16:34<03:44,  1.95s/it]Train NLL: 10.861, Val NLL: 10.786:  81%|████████  | 486/600 [16:35<03:36,  1.90s/it]Train NLL: 10.861, Val NLL: 10.786:  81%|████████  | 487/600 [16:37<03:29,  1.85s/it]Train NLL: 10.861, Val NLL: 10.786:  81%|████████▏ | 488/600 [16:39<03:40,  1.97s/it]Train NLL: 10.861, Val NLL: 10.786:  82%|████████▏ | 489/600 [16:42<04:05,  2.21s/it]Train NLL: 10.861, Val NLL: 10.786:  82%|████████▏ | 490/600 [16:44<03:48,  2.07s/it]Train NLL: 10.861, Val NLL: 10.786:  82%|████████▏ | 491/600 [16:46<04:03,  2.23s/it]Train NLL: 10.861, Val NLL: 10.786:  82%|████████▏ | 492/600 [16:48<03:44,  2.08s/it]Train NLL: 10.861, Val NLL: 10.786:  82%|████████▏ | 493/600 [16:50<03:39,  2.05s/it]Train NLL: 10.861, Val NLL: 10.786:  82%|████████▏ | 494/600 [16:53<03:54,  2.21s/it]Train NLL: 10.861, Val NLL: 10.786:  82%|████████▎ | 495/600 [16:55<03:46,  2.15s/it]Train NLL: 10.861, Val NLL: 10.786:  83%|████████▎ | 496/600 [16:57<03:41,  2.13s/it]Train NLL: 10.861, Val NLL: 10.786:  83%|████████▎ | 497/600 [16:59<03:30,  2.05s/it]Train NLL: 10.861, Val NLL: 10.786:  83%|████████▎ | 498/600 [17:01<03:25,  2.01s/it]Train NLL: 10.861, Val NLL: 10.786:  83%|████████▎ | 499/600 [17:02<03:20,  1.98s/it]Train NLL: 10.861, Val NLL: 10.786:  83%|████████▎ | 500/600 [17:04<03:10,  1.90s/it]Train NLL: 10.861, Val NLL: 10.786:  84%|████████▎ | 501/600 [17:06<03:03,  1.85s/it]Train NLL: 10.861, Val NLL: 10.786:  84%|████████▎ | 502/600 [17:08<03:09,  1.94s/it]Train NLL: 10.861, Val NLL: 10.786:  84%|████████▍ | 503/600 [17:10<03:04,  1.90s/it]Train NLL: 10.861, Val NLL: 10.786:  84%|████████▍ | 504/600 [17:12<03:00,  1.88s/it]Train NLL: 10.861, Val NLL: 10.786:  84%|████████▍ | 505/600 [17:14<03:15,  2.06s/it]Train NLL: 10.861, Val NLL: 10.786:  84%|████████▍ | 506/600 [17:16<03:04,  1.96s/it]Train NLL: 10.861, Val NLL: 10.786:  84%|████████▍ | 507/600 [17:18<02:55,  1.89s/it]Train NLL: 10.861, Val NLL: 10.786:  85%|████████▍ | 508/600 [17:20<03:00,  1.96s/it]Train NLL: 10.861, Val NLL: 10.786:  85%|████████▍ | 509/600 [17:22<03:00,  1.98s/it]Train NLL: 10.861, Val NLL: 10.786:  85%|████████▌ | 510/600 [17:24<02:59,  2.00s/it]Train NLL: 10.861, Val NLL: 10.786:  85%|████████▌ | 511/600 [17:27<03:29,  2.36s/it]Train NLL: 10.861, Val NLL: 10.786:  85%|████████▌ | 512/600 [17:29<03:10,  2.17s/it]Train NLL: 10.861, Val NLL: 10.786:  86%|████████▌ | 513/600 [17:32<03:33,  2.45s/it]Train NLL: 10.861, Val NLL: 10.786:  86%|████████▌ | 514/600 [17:34<03:15,  2.27s/it]Train NLL: 10.861, Val NLL: 10.786:  86%|████████▌ | 515/600 [17:36<03:07,  2.21s/it]Train NLL: 10.861, Val NLL: 10.786:  86%|████████▌ | 516/600 [17:38<03:00,  2.15s/it]Train NLL: 10.861, Val NLL: 10.786:  86%|████████▌ | 517/600 [17:40<03:03,  2.21s/it]Train NLL: 10.861, Val NLL: 10.786:  86%|████████▋ | 518/600 [17:42<02:59,  2.19s/it]Train NLL: 10.861, Val NLL: 10.786:  86%|████████▋ | 519/600 [17:44<02:47,  2.07s/it]Train NLL: 10.861, Val NLL: 10.786:  87%|████████▋ | 520/600 [17:47<02:56,  2.21s/it]Train NLL: 10.861, Val NLL: 10.786:  87%|████████▋ | 521/600 [17:48<02:43,  2.07s/it]Train NLL: 10.861, Val NLL: 10.786:  87%|████████▋ | 522/600 [17:51<02:49,  2.17s/it]Train NLL: 10.861, Val NLL: 10.786:  87%|████████▋ | 523/600 [17:53<02:37,  2.04s/it]Train NLL: 10.861, Val NLL: 10.786:  87%|████████▋ | 524/600 [17:54<02:27,  1.94s/it]Train NLL: 10.861, Val NLL: 10.786:  88%|████████▊ | 525/600 [17:56<02:20,  1.87s/it]Train NLL: 10.861, Val NLL: 10.786:  88%|████████▊ | 526/600 [17:58<02:14,  1.82s/it]Train NLL: 10.861, Val NLL: 10.786:  88%|████████▊ | 527/600 [18:00<02:20,  1.92s/it]Train NLL: 10.861, Val NLL: 10.786:  88%|████████▊ | 528/600 [18:02<02:22,  1.99s/it]Train NLL: 10.861, Val NLL: 10.786:  88%|████████▊ | 529/600 [18:04<02:15,  1.91s/it]Train NLL: 10.861, Val NLL: 10.786:  88%|████████▊ | 530/600 [18:07<02:35,  2.22s/it]Train NLL: 10.861, Val NLL: 10.786:  88%|████████▊ | 531/600 [18:08<02:23,  2.08s/it]Train NLL: 10.861, Val NLL: 10.786:  89%|████████▊ | 532/600 [18:10<02:16,  2.00s/it]Train NLL: 10.861, Val NLL: 10.786:  89%|████████▉ | 533/600 [18:12<02:12,  1.98s/it]Train NLL: 10.861, Val NLL: 10.786:  89%|████████▉ | 534/600 [18:14<02:05,  1.91s/it]Train NLL: 10.861, Val NLL: 10.786:  89%|████████▉ | 535/600 [18:16<02:12,  2.03s/it]Train NLL: 10.861, Val NLL: 10.786:  89%|████████▉ | 536/600 [18:18<02:09,  2.02s/it]Train NLL: 10.861, Val NLL: 10.786:  90%|████████▉ | 537/600 [18:20<02:01,  1.92s/it]Train NLL: 10.861, Val NLL: 10.786:  90%|████████▉ | 538/600 [18:23<02:16,  2.20s/it]Train NLL: 10.861, Val NLL: 10.786:  90%|████████▉ | 539/600 [18:24<02:05,  2.05s/it]Train NLL: 10.861, Val NLL: 10.786:  90%|█████████ | 540/600 [18:26<01:57,  1.96s/it]Train NLL: 10.861, Val NLL: 10.786:  90%|█████████ | 541/600 [18:29<02:09,  2.19s/it]Train NLL: 10.861, Val NLL: 10.786:  90%|█████████ | 542/600 [18:31<01:58,  2.04s/it]Train NLL: 10.861, Val NLL: 10.786:  90%|█████████ | 543/600 [18:32<01:50,  1.95s/it]Train NLL: 10.861, Val NLL: 10.786:  91%|█████████ | 544/600 [18:35<01:55,  2.07s/it]Train NLL: 10.861, Val NLL: 10.786:  91%|█████████ | 545/600 [18:37<01:51,  2.02s/it]Train NLL: 10.861, Val NLL: 10.786:  91%|█████████ | 546/600 [18:38<01:45,  1.95s/it]Train NLL: 10.861, Val NLL: 10.786:  91%|█████████ | 547/600 [18:41<01:50,  2.08s/it]Train NLL: 10.861, Val NLL: 10.786:  91%|█████████▏| 548/600 [18:43<01:45,  2.02s/it]Train NLL: 10.861, Val NLL: 10.786:  92%|█████████▏| 549/600 [18:45<01:43,  2.03s/it]Train NLL: 10.861, Val NLL: 10.786:  92%|█████████▏| 550/600 [18:46<01:38,  1.97s/it]Train NLL: 10.861, Val NLL: 10.786:  92%|█████████▏| 551/600 [18:48<01:33,  1.90s/it]Train NLL: 10.861, Val NLL: 10.786:  92%|█████████▏| 552/600 [18:50<01:28,  1.84s/it]Train NLL: 10.861, Val NLL: 10.786:  92%|█████████▏| 553/600 [18:53<01:44,  2.22s/it]Train NLL: 10.861, Val NLL: 10.786:  92%|█████████▏| 554/600 [18:55<01:39,  2.17s/it]Train NLL: 10.861, Val NLL: 10.786:  92%|█████████▎| 555/600 [18:57<01:31,  2.03s/it]Train NLL: 10.861, Val NLL: 10.786:  93%|█████████▎| 556/600 [18:59<01:25,  1.95s/it]Train NLL: 10.861, Val NLL: 10.786:  93%|█████████▎| 557/600 [19:02<01:39,  2.31s/it]Train NLL: 10.861, Val NLL: 10.786:  93%|█████████▎| 558/600 [19:03<01:29,  2.13s/it]Train NLL: 10.861, Val NLL: 10.786:  93%|█████████▎| 559/600 [19:06<01:28,  2.16s/it]Train NLL: 10.861, Val NLL: 10.786:  93%|█████████▎| 560/600 [19:08<01:25,  2.14s/it]Train NLL: 10.861, Val NLL: 10.786:  94%|█████████▎| 561/600 [19:10<01:19,  2.05s/it]Train NLL: 10.861, Val NLL: 10.786:  94%|█████████▎| 562/600 [19:12<01:21,  2.15s/it]Train NLL: 10.861, Val NLL: 10.786:  94%|█████████▍| 563/600 [19:14<01:14,  2.02s/it]Train NLL: 10.861, Val NLL: 10.786:  94%|█████████▍| 564/600 [19:15<01:09,  1.92s/it]Train NLL: 10.861, Val NLL: 10.786:  94%|█████████▍| 565/600 [19:17<01:05,  1.86s/it]Train NLL: 10.861, Val NLL: 10.786:  94%|█████████▍| 566/600 [19:20<01:11,  2.09s/it]Train NLL: 10.861, Val NLL: 10.786:  94%|█████████▍| 567/600 [19:21<01:05,  1.97s/it]Train NLL: 10.861, Val NLL: 10.786:  95%|█████████▍| 568/600 [19:24<01:07,  2.11s/it]Train NLL: 10.861, Val NLL: 10.786:  95%|█████████▍| 569/600 [19:26<01:02,  2.03s/it]Train NLL: 10.861, Val NLL: 10.786:  95%|█████████▌| 570/600 [19:27<00:58,  1.95s/it]Train NLL: 10.861, Val NLL: 10.786:  95%|█████████▌| 571/600 [19:30<01:02,  2.15s/it]Train NLL: 10.861, Val NLL: 10.786:  95%|█████████▌| 572/600 [19:32<00:56,  2.02s/it]Train NLL: 10.861, Val NLL: 10.786:  96%|█████████▌| 573/600 [19:34<00:54,  2.02s/it]Train NLL: 10.861, Val NLL: 10.786:  96%|█████████▌| 574/600 [19:35<00:49,  1.92s/it]Train NLL: 10.861, Val NLL: 10.786:  96%|█████████▌| 575/600 [19:37<00:46,  1.87s/it]Train NLL: 10.861, Val NLL: 10.786:  96%|█████████▌| 576/600 [19:39<00:44,  1.84s/it]Train NLL: 10.861, Val NLL: 10.786:  96%|█████████▌| 577/600 [19:41<00:43,  1.89s/it]Train NLL: 10.861, Val NLL: 10.786:  96%|█████████▋| 578/600 [19:43<00:40,  1.84s/it]Train NLL: 10.861, Val NLL: 10.786:  96%|█████████▋| 579/600 [19:45<00:38,  1.83s/it]Train NLL: 10.861, Val NLL: 10.786:  97%|█████████▋| 580/600 [19:46<00:37,  1.87s/it]Train NLL: 10.861, Val NLL: 10.786:  97%|█████████▋| 581/600 [19:48<00:35,  1.84s/it]Train NLL: 10.861, Val NLL: 10.786:  97%|█████████▋| 582/600 [19:51<00:35,  1.96s/it]Train NLL: 10.861, Val NLL: 10.786:  97%|█████████▋| 583/600 [19:53<00:35,  2.08s/it]Train NLL: 10.861, Val NLL: 10.786:  97%|█████████▋| 584/600 [19:55<00:31,  1.99s/it]Train NLL: 10.861, Val NLL: 10.786:  98%|█████████▊| 585/600 [19:57<00:32,  2.19s/it]Train NLL: 10.861, Val NLL: 10.786:  98%|█████████▊| 586/600 [19:59<00:28,  2.07s/it]Train NLL: 10.861, Val NLL: 10.786:  98%|█████████▊| 587/600 [20:01<00:25,  1.97s/it]Train NLL: 10.861, Val NLL: 10.786:  98%|█████████▊| 588/600 [20:03<00:23,  1.97s/it]Train NLL: 10.861, Val NLL: 10.786:  98%|█████████▊| 589/600 [20:05<00:23,  2.12s/it]Train NLL: 10.861, Val NLL: 10.786:  98%|█████████▊| 590/600 [20:07<00:20,  2.00s/it]Train NLL: 10.861, Val NLL: 10.786:  98%|█████████▊| 591/600 [20:09<00:18,  2.01s/it]Train NLL: 10.861, Val NLL: 10.786:  99%|█████████▊| 592/600 [20:11<00:16,  2.04s/it]Train NLL: 10.861, Val NLL: 10.786:  99%|█████████▉| 593/600 [20:13<00:14,  2.04s/it]Train NLL: 10.861, Val NLL: 10.786:  99%|█████████▉| 594/600 [20:15<00:11,  1.95s/it]Train NLL: 10.861, Val NLL: 10.786:  99%|█████████▉| 595/600 [20:17<00:09,  1.89s/it]Train NLL: 10.861, Val NLL: 10.786:  99%|█████████▉| 596/600 [20:18<00:07,  1.86s/it]Train NLL: 10.861, Val NLL: 10.786: 100%|█████████▉| 597/600 [20:20<00:05,  1.90s/it]Train NLL: 10.861, Val NLL: 10.786: 100%|█████████▉| 598/600 [20:22<00:03,  1.88s/it]Train NLL: 10.861, Val NLL: 10.786: 100%|█████████▉| 599/600 [20:24<00:01,  1.84s/it]Train NLL: 10.861, Val NLL: 10.786: 100%|██████████| 600/600 [20:27<00:00,  2.12s/it]Train NLL: 10.861, Val NLL: 10.786: 100%|██████████| 600/600 [20:27<00:00,  2.05s/it]
