{
  "memory.usage": {
    "steps": [
      0,
      1,
      2,
      3,
      4,
      5,
      6,
      7,
      8,
      9,
      10,
      11,
      12,
      13,
      14,
      15,
      16,
      17,
      18,
      19,
      20,
      21,
      22,
      23,
      24,
      25,
      26,
      27,
      28,
      29,
      30,
      31,
      32,
      33,
      34,
      35,
      36,
      37,
      38,
      39,
      40,
      41,
      42,
      43,
      44,
      45,
      46,
      47,
      48,
      49,
      50,
      51,
      52,
      53,
      54,
      55,
      56,
      57,
      58,
      59,
      60,
      61,
      62,
      63,
      64,
      65,
      66,
      67,
      68,
      69,
      70,
      71,
      72,
      73,
      74,
      75,
      76,
      77,
      78,
      79,
      80,
      81,
      82,
      83,
      84,
      85,
      86,
      87,
      88,
      89,
      90,
      91,
      92,
      93,
      94,
      95,
      96,
      97,
      98,
      99,
      100,
      101,
      102,
      103,
      104,
      105,
      106,
      107,
      108,
      109,
      110,
      111,
      112,
      113,
      114,
      115,
      116,
      117,
      118,
      119,
      120,
      121,
      122,
      123,
      124,
      125,
      126,
      127,
      128,
      129,
      130,
      131,
      132,
      133,
      134,
      135,
      136,
      137,
      138,
      139,
      140,
      141,
      142,
      143,
      144,
      145,
      146,
      147,
      148,
      149,
      150,
      151,
      152,
      153,
      154,
      155,
      156,
      157,
      158,
      159,
      160,
      161,
      162,
      163,
      164,
      165,
      166,
      167,
      168,
      169,
      170,
      171,
      172,
      173,
      174,
      175,
      176,
      177,
      178,
      179,
      180,
      181,
      182,
      183,
      184,
      185,
      186,
      187,
      188,
      189,
      190,
      191,
      192,
      193,
      194,
      195,
      196,
      197,
      198,
      199,
      200,
      201,
      202,
      203,
      204,
      205,
      206,
      207,
      208,
      209,
      210,
      211,
      212,
      213,
      214,
      215,
      216,
      217,
      218,
      219,
      220,
      221,
      222,
      223,
      224,
      225,
      226,
      227,
      228,
      229,
      230,
      231,
      232,
      233,
      234,
      235,
      236,
      237,
      238,
      239,
      240,
      241,
      242,
      243,
      244,
      245,
      246,
      247,
      248,
      249,
      250,
      251,
      252,
      253,
      254,
      255,
      256,
      257,
      258,
      259,
      260,
      261,
      262,
      263,
      264,
      265,
      266,
      267,
      268,
      269,
      270,
      271,
      272,
      273,
      274,
      275,
      276,
      277,
      278,
      279,
      280,
      281,
      282,
      283,
      284,
      285,
      286,
      287,
      288,
      289,
      290,
      291,
      292,
      293,
      294,
      295,
      296,
      297,
      298,
      299,
      300,
      301,
      302,
      303,
      304,
      305,
      306,
      307,
      308,
      309,
      310,
      311,
      312,
      313,
      314,
      315,
      316,
      317,
      318,
      319,
      320,
      321,
      322,
      323,
      324,
      325,
      326,
      327,
      328,
      329,
      330,
      331,
      332,
      333,
      334,
      335,
      336,
      337,
      338,
      339,
      340,
      341,
      342,
      343,
      344,
      345,
      346,
      347,
      348,
      349,
      350,
      351,
      352,
      353,
      354,
      355,
      356,
      357,
      358,
      359,
      360,
      361,
      362,
      363,
      364,
      365,
      366,
      367,
      368,
      369,
      370,
      371,
      372,
      373,
      374,
      375,
      376,
      377,
      378,
      379,
      380,
      381,
      382,
      383,
      384,
      385,
      386,
      387,
      388,
      389,
      390,
      391,
      392,
      393,
      394,
      395,
      396,
      397,
      398,
      399
    ],
    "timestamps": [
      "2022-06-22T08:05:01.293133",
      "2022-06-22T08:05:07.712999",
      "2022-06-22T08:05:14.099761",
      "2022-06-22T08:05:20.513344",
      "2022-06-22T08:05:26.916121",
      "2022-06-22T08:05:33.397586",
      "2022-06-22T08:05:39.813637",
      "2022-06-22T08:05:46.197044",
      "2022-06-22T08:05:52.539696",
      "2022-06-22T08:05:58.967885",
      "2022-06-22T08:06:05.425439",
      "2022-06-22T08:06:11.846280",
      "2022-06-22T08:06:18.222842",
      "2022-06-22T08:06:24.761938",
      "2022-06-22T08:06:31.141978",
      "2022-06-22T08:06:37.469248",
      "2022-06-22T08:06:43.878796",
      "2022-06-22T08:06:50.295282",
      "2022-06-22T08:06:56.691685",
      "2022-06-22T08:07:03.125805",
      "2022-06-22T08:07:09.604361",
      "2022-06-22T08:07:16.051445",
      "2022-06-22T08:07:22.487927",
      "2022-06-22T08:07:28.915402",
      "2022-06-22T08:07:35.339400",
      "2022-06-22T08:07:41.741218",
      "2022-06-22T08:07:48.176467",
      "2022-06-22T08:07:54.596508",
      "2022-06-22T08:08:01.011785",
      "2022-06-22T08:08:07.499798",
      "2022-06-22T08:08:13.937141",
      "2022-06-22T08:08:20.335175",
      "2022-06-22T08:08:26.796559",
      "2022-06-22T08:08:33.300030",
      "2022-06-22T08:08:39.726437",
      "2022-06-22T08:08:46.161987",
      "2022-06-22T08:08:52.536537",
      "2022-06-22T08:08:58.929550",
      "2022-06-22T08:09:05.373933",
      "2022-06-22T08:09:11.795567",
      "2022-06-22T08:09:18.192286",
      "2022-06-22T08:09:24.612327",
      "2022-06-22T08:09:31.049469",
      "2022-06-22T08:09:37.472851",
      "2022-06-22T08:09:43.826820",
      "2022-06-22T08:09:50.226791",
      "2022-06-22T08:09:56.670844",
      "2022-06-22T08:10:03.119458",
      "2022-06-22T08:10:09.562480",
      "2022-06-22T08:10:15.924307",
      "2022-06-22T08:10:22.288280",
      "2022-06-22T08:10:28.731832",
      "2022-06-22T08:10:35.171724",
      "2022-06-22T08:10:41.557923",
      "2022-06-22T08:10:48.042069",
      "2022-06-22T08:10:54.528673",
      "2022-06-22T08:11:00.901423",
      "2022-06-22T08:11:07.199430",
      "2022-06-22T08:11:13.657339",
      "2022-06-22T08:11:20.081301",
      "2022-06-22T08:11:26.521782",
      "2022-06-22T08:11:32.894440",
      "2022-06-22T08:11:39.312221",
      "2022-06-22T08:11:45.766188",
      "2022-06-22T08:11:52.236538",
      "2022-06-22T08:11:58.616026",
      "2022-06-22T08:12:05.149086",
      "2022-06-22T08:12:11.541203",
      "2022-06-22T08:12:17.923064",
      "2022-06-22T08:12:24.274324",
      "2022-06-22T08:12:30.746039",
      "2022-06-22T08:12:37.185044",
      "2022-06-22T08:12:43.629019",
      "2022-06-22T08:12:50.036092",
      "2022-06-22T08:12:56.600776",
      "2022-06-22T08:13:02.935316",
      "2022-06-22T08:13:09.326512",
      "2022-06-22T08:13:15.706409",
      "2022-06-22T08:13:22.266835",
      "2022-06-22T08:13:28.693406",
      "2022-06-22T08:13:35.155418",
      "2022-06-22T08:13:41.575685",
      "2022-06-22T08:13:47.989169",
      "2022-06-22T08:13:54.427548",
      "2022-06-22T08:14:00.865290",
      "2022-06-22T08:14:07.309555",
      "2022-06-22T08:14:13.706632",
      "2022-06-22T08:14:20.152684",
      "2022-06-22T08:14:26.578192",
      "2022-06-22T08:14:32.990677",
      "2022-06-22T08:14:39.510185",
      "2022-06-22T08:14:45.984880",
      "2022-06-22T08:14:52.411839",
      "2022-06-22T08:14:58.806376",
      "2022-06-22T08:15:05.325796",
      "2022-06-22T08:15:11.770029",
      "2022-06-22T08:15:18.228802",
      "2022-06-22T08:15:24.618718",
      "2022-06-22T08:15:30.084196",
      "2022-06-22T08:15:33.187452",
      "2022-06-22T08:15:36.312276",
      "2022-06-22T08:15:39.409364",
      "2022-06-22T08:15:42.512772",
      "2022-06-22T08:15:45.645304",
      "2022-06-22T08:15:48.741669",
      "2022-06-22T08:15:51.844836",
      "2022-06-22T08:15:54.952348",
      "2022-06-22T08:15:58.055693",
      "2022-06-22T08:16:01.149635",
      "2022-06-22T08:16:04.247610",
      "2022-06-22T08:16:07.380146",
      "2022-06-22T08:16:10.482042",
      "2022-06-22T08:16:13.580118",
      "2022-06-22T08:16:16.717098",
      "2022-06-22T08:16:19.815081",
      "2022-06-22T08:16:22.912612",
      "2022-06-22T08:16:26.033176",
      "2022-06-22T08:16:29.127868",
      "2022-06-22T08:16:32.223361",
      "2022-06-22T08:16:35.346455",
      "2022-06-22T08:16:38.449291",
      "2022-06-22T08:16:41.549255",
      "2022-06-22T08:16:44.648001",
      "2022-06-22T08:16:47.767998",
      "2022-06-22T08:16:50.869014",
      "2022-06-22T08:16:53.973194",
      "2022-06-22T08:16:57.105880",
      "2022-06-22T08:17:00.204025",
      "2022-06-22T08:17:03.303788",
      "2022-06-22T08:17:06.418855",
      "2022-06-22T08:17:09.517086",
      "2022-06-22T08:17:12.615902",
      "2022-06-22T08:17:15.747750",
      "2022-06-22T08:17:18.844157",
      "2022-06-22T08:17:21.945328",
      "2022-06-22T08:17:25.059044",
      "2022-06-22T08:17:28.166437",
      "2022-06-22T08:17:31.259794",
      "2022-06-22T08:17:34.364828",
      "2022-06-22T08:17:37.498488",
      "2022-06-22T08:17:40.602070",
      "2022-06-22T08:17:43.706856",
      "2022-06-22T08:17:46.834807",
      "2022-06-22T08:17:49.930277",
      "2022-06-22T08:17:53.027661",
      "2022-06-22T08:17:56.163313",
      "2022-06-22T08:17:59.265015",
      "2022-06-22T08:18:02.364133",
      "2022-06-22T08:18:05.483302",
      "2022-06-22T08:18:08.578517",
      "2022-06-22T08:18:11.678413",
      "2022-06-22T08:18:14.771794",
      "2022-06-22T08:18:17.904666",
      "2022-06-22T08:18:21.003733",
      "2022-06-22T08:18:24.107411",
      "2022-06-22T08:18:27.226902",
      "2022-06-22T08:18:30.325602",
      "2022-06-22T08:18:33.423740",
      "2022-06-22T08:18:36.564717",
      "2022-06-22T08:18:39.668904",
      "2022-06-22T08:18:42.766698",
      "2022-06-22T08:18:45.895333",
      "2022-06-22T08:18:48.992790",
      "2022-06-22T08:18:52.098749",
      "2022-06-22T08:18:55.211868",
      "2022-06-22T08:18:58.336504",
      "2022-06-22T08:19:01.433719",
      "2022-06-22T08:19:04.535875",
      "2022-06-22T08:19:07.655654",
      "2022-06-22T08:19:10.752021",
      "2022-06-22T08:19:13.849823",
      "2022-06-22T08:19:16.988915",
      "2022-06-22T08:19:20.089805",
      "2022-06-22T08:19:23.192937",
      "2022-06-22T08:19:26.334276",
      "2022-06-22T08:19:29.431195",
      "2022-06-22T08:19:32.529291",
      "2022-06-22T08:19:35.662330",
      "2022-06-22T08:19:38.759018",
      "2022-06-22T08:19:41.865625",
      "2022-06-22T08:19:44.970874",
      "2022-06-22T08:19:48.076744",
      "2022-06-22T08:19:51.174101",
      "2022-06-22T08:19:54.278120",
      "2022-06-22T08:19:57.412804",
      "2022-06-22T08:20:00.513658",
      "2022-06-22T08:20:03.616302",
      "2022-06-22T08:20:06.753911",
      "2022-06-22T08:20:09.855985",
      "2022-06-22T08:20:12.959227",
      "2022-06-22T08:20:16.118513",
      "2022-06-22T08:20:19.218527",
      "2022-06-22T08:20:22.320134",
      "2022-06-22T08:20:25.435449",
      "2022-06-22T08:20:28.544804",
      "2022-06-22T08:20:31.647312",
      "2022-06-22T08:20:34.751102",
      "2022-06-22T08:20:37.888478",
      "2022-06-22T08:20:40.983915",
      "2022-06-22T08:20:44.083868",
      "2022-06-22T08:20:47.204719",
      "2022-06-22T08:20:50.305857",
      "2022-06-22T08:20:53.406501",
      "2022-06-22T08:20:56.541840",
      "2022-06-22T08:20:59.641526",
      "2022-06-22T08:21:02.736593",
      "2022-06-22T08:21:05.863099",
      "2022-06-22T08:21:08.959665",
      "2022-06-22T08:21:12.067887",
      "2022-06-22T08:21:15.174934",
      "2022-06-22T08:21:18.290502",
      "2022-06-22T08:21:21.385688",
      "2022-06-22T08:21:24.479889",
      "2022-06-22T08:21:27.604063",
      "2022-06-22T08:21:30.699897",
      "2022-06-22T08:21:33.797357",
      "2022-06-22T08:21:36.932046",
      "2022-06-22T08:21:40.025861",
      "2022-06-22T08:21:43.129416",
      "2022-06-22T08:21:46.258424",
      "2022-06-22T08:21:49.352669",
      "2022-06-22T08:21:52.448492",
      "2022-06-22T08:21:55.589785",
      "2022-06-22T08:21:58.692363",
      "2022-06-22T08:22:01.791016",
      "2022-06-22T08:22:04.895037",
      "2022-06-22T08:22:08.004052",
      "2022-06-22T08:22:11.108329",
      "2022-06-22T08:22:14.216345",
      "2022-06-22T08:22:17.357205",
      "2022-06-22T08:22:20.457005",
      "2022-06-22T08:22:23.558944",
      "2022-06-22T08:22:26.693937",
      "2022-06-22T08:22:29.790939",
      "2022-06-22T08:22:32.889843",
      "2022-06-22T08:22:36.011695",
      "2022-06-22T08:22:39.110941",
      "2022-06-22T08:22:42.219510",
      "2022-06-22T08:22:45.340889",
      "2022-06-22T08:22:48.442801",
      "2022-06-22T08:22:51.545917",
      "2022-06-22T08:22:54.650141",
      "2022-06-22T08:22:57.780275",
      "2022-06-22T08:23:00.877199",
      "2022-06-22T08:23:03.975416",
      "2022-06-22T08:23:07.101814",
      "2022-06-22T08:23:10.198901",
      "2022-06-22T08:23:13.299932",
      "2022-06-22T08:23:16.434285",
      "2022-06-22T08:23:19.534182",
      "2022-06-22T08:23:22.640376",
      "2022-06-22T08:23:25.779458",
      "2022-06-22T08:23:28.880028",
      "2022-06-22T08:23:31.989362",
      "2022-06-22T08:23:35.103051",
      "2022-06-22T08:23:38.217392",
      "2022-06-22T08:23:41.315228",
      "2022-06-22T08:23:44.419371",
      "2022-06-22T08:23:47.548086",
      "2022-06-22T08:23:50.650292",
      "2022-06-22T08:23:53.748939",
      "2022-06-22T08:23:56.890067",
      "2022-06-22T08:23:59.989997",
      "2022-06-22T08:24:03.088851",
      "2022-06-22T08:24:06.212706",
      "2022-06-22T08:24:09.310053",
      "2022-06-22T08:24:12.416027",
      "2022-06-22T08:24:15.556517",
      "2022-06-22T08:24:18.663161",
      "2022-06-22T08:24:21.765510",
      "2022-06-22T08:24:24.868210",
      "2022-06-22T08:24:27.985601",
      "2022-06-22T08:24:31.086410",
      "2022-06-22T08:24:34.184999",
      "2022-06-22T08:24:37.332866",
      "2022-06-22T08:24:40.434004",
      "2022-06-22T08:24:43.552899",
      "2022-06-22T08:24:46.695104",
      "2022-06-22T08:24:49.787798",
      "2022-06-22T08:24:52.888267",
      "2022-06-22T08:24:56.031320",
      "2022-06-22T08:24:59.129413",
      "2022-06-22T08:25:02.234519",
      "2022-06-22T08:25:05.346336",
      "2022-06-22T08:25:08.447040",
      "2022-06-22T08:25:11.545921",
      "2022-06-22T08:25:14.644941",
      "2022-06-22T08:25:17.769904",
      "2022-06-22T08:25:20.867717",
      "2022-06-22T08:25:23.986682",
      "2022-06-22T08:25:27.112305",
      "2022-06-22T08:25:30.211414",
      "2022-06-22T08:25:33.309900",
      "2022-06-22T08:25:36.440422",
      "2022-06-22T08:25:39.539739",
      "2022-06-22T08:25:42.645795",
      "2022-06-22T08:25:45.786731",
      "2022-06-22T08:25:48.883100",
      "2022-06-22T08:25:51.984958",
      "2022-06-22T08:25:55.094098",
      "2022-06-22T08:25:58.201059",
      "2022-06-22T08:26:01.294079",
      "2022-06-22T08:26:04.396562",
      "2022-06-22T08:26:07.528780",
      "2022-06-22T08:26:10.625062",
      "2022-06-22T08:26:13.725066",
      "2022-06-22T08:26:16.850966",
      "2022-06-22T08:26:19.954625",
      "2022-06-22T08:26:23.059813",
      "2022-06-22T08:26:26.202537",
      "2022-06-22T08:26:29.300372",
      "2022-06-22T08:26:32.403124",
      "2022-06-22T08:26:35.527663",
      "2022-06-22T08:26:38.627047",
      "2022-06-22T08:26:41.727340",
      "2022-06-22T08:26:44.822382",
      "2022-06-22T08:26:47.945264",
      "2022-06-22T08:26:51.043198",
      "2022-06-22T08:26:54.156373",
      "2022-06-22T08:26:57.292481",
      "2022-06-22T08:27:00.391109",
      "2022-06-22T08:27:03.489950",
      "2022-06-22T08:27:06.634738",
      "2022-06-22T08:27:09.737146",
      "2022-06-22T08:27:12.843949",
      "2022-06-22T08:27:15.966024",
      "2022-06-22T08:27:19.064338",
      "2022-06-22T08:27:22.169838",
      "2022-06-22T08:27:25.280424",
      "2022-06-22T08:27:28.391083",
      "2022-06-22T08:27:31.496989",
      "2022-06-22T08:27:34.604888",
      "2022-06-22T08:27:37.738569",
      "2022-06-22T08:27:40.836280",
      "2022-06-22T08:27:43.942029",
      "2022-06-22T08:27:47.078729",
      "2022-06-22T08:27:50.175684",
      "2022-06-22T08:27:53.278146",
      "2022-06-22T08:27:56.414379",
      "2022-06-22T08:27:59.515364",
      "2022-06-22T08:28:02.619500",
      "2022-06-22T08:28:05.749970",
      "2022-06-22T08:28:08.846465",
      "2022-06-22T08:28:11.946381",
      "2022-06-22T08:28:15.052492",
      "2022-06-22T08:28:18.173071",
      "2022-06-22T08:28:21.275283",
      "2022-06-22T08:28:24.379931",
      "2022-06-22T08:28:27.517436",
      "2022-06-22T08:28:30.613595",
      "2022-06-22T08:28:33.712103",
      "2022-06-22T08:28:36.838833",
      "2022-06-22T08:28:39.936544",
      "2022-06-22T08:28:43.034016",
      "2022-06-22T08:28:46.169334",
      "2022-06-22T08:28:49.264219",
      "2022-06-22T08:28:52.365857",
      "2022-06-22T08:28:55.473596",
      "2022-06-22T08:28:58.580649",
      "2022-06-22T08:29:01.679480",
      "2022-06-22T08:29:04.776361",
      "2022-06-22T08:29:07.896744",
      "2022-06-22T08:29:10.994354",
      "2022-06-22T08:29:14.094063",
      "2022-06-22T08:29:17.224124",
      "2022-06-22T08:29:20.324989",
      "2022-06-22T08:29:23.427707",
      "2022-06-22T08:29:26.554016",
      "2022-06-22T08:29:29.650236",
      "2022-06-22T08:29:32.753354",
      "2022-06-22T08:29:35.886987",
      "2022-06-22T08:29:38.987095",
      "2022-06-22T08:29:42.086186",
      "2022-06-22T08:29:45.191010",
      "2022-06-22T08:29:48.309572",
      "2022-06-22T08:29:51.405918",
      "2022-06-22T08:29:54.500436",
      "2022-06-22T08:29:57.630571",
      "2022-06-22T08:30:00.729082",
      "2022-06-22T08:30:03.828875",
      "2022-06-22T08:30:06.961643",
      "2022-06-22T08:30:10.062828",
      "2022-06-22T08:30:13.166201",
      "2022-06-22T08:30:16.289352",
      "2022-06-22T08:30:19.391429",
      "2022-06-22T08:30:22.490723",
      "2022-06-22T08:30:25.621260",
      "2022-06-22T08:30:28.723782",
      "2022-06-22T08:30:31.821541",
      "2022-06-22T08:30:34.925219",
      "2022-06-22T08:30:38.048161",
      "2022-06-22T08:30:41.146689",
      "2022-06-22T08:30:44.246253",
      "2022-06-22T08:30:47.382140",
      "2022-06-22T08:30:50.479215",
      "2022-06-22T08:30:53.584065",
      "2022-06-22T08:30:56.729295",
      "2022-06-22T08:30:59.824886",
      "2022-06-22T08:31:02.925063",
      "2022-06-22T08:31:06.060558"
    ],
    "values": [
      45.14304,
      45.14304,
      45.14304,
      45.14304,
      45.14304,
      45.14304,
      45.14304,
      45.14304,
      45.14304,
      45.14304,
      45.14304,
      45.14304,
      45.14304,
      45.14304,
      45.14304,
      45.14304,
      45.14304,
      45.14304,
      45.14304,
      45.14304,
      45.14304,
      45.14304,
      45.14304,
      45.14304,
      45.14304,
      45.14304,
      45.14304,
      45.14304,
      45.14304,
      45.14304,
      45.14304,
      45.14304,
      45.14304,
      45.14304,
      45.14304,
      45.14304,
      45.14304,
      45.14304,
      45.14304,
      45.14304,
      45.14304,
      45.14304,
      45.14304,
      45.14304,
      45.14304,
      45.14304,
      45.14304,
      45.14304,
      45.14304,
      45.14304,
      45.14304,
      45.14304,
      45.14304,
      45.14304,
      45.14304,
      45.14304,
      45.14304,
      45.14304,
      45.14304,
      45.14304,
      45.14304,
      45.14304,
      45.14304,
      45.14304,
      45.14304,
      45.14304,
      45.14304,
      45.14304,
      45.14304,
      45.14304,
      45.14304,
      45.14304,
      45.14304,
      45.14304,
      45.14304,
      45.14304,
      45.14304,
      45.14304,
      45.14304,
      45.14304,
      45.14304,
      45.14304,
      45.14304,
      45.14304,
      45.14304,
      45.14304,
      45.14304,
      45.14304,
      45.14304,
      45.14304,
      45.14304,
      45.14304,
      45.14304,
      45.14304,
      45.14304,
      45.14304,
      45.14304,
      45.14304,
      45.14304,
      45.14304,
      45.14304,
      45.14304,
      45.14304,
      45.14304,
      45.14304,
      45.14304,
      45.14304,
      45.14304,
      45.14304,
      45.14304,
      45.14304,
      45.14304,
      45.14304,
      45.14304,
      45.14304,
      45.14304,
      45.14304,
      45.14304,
      45.14304,
      45.14304,
      45.14304,
      45.14304,
      45.14304,
      45.14304,
      45.14304,
      45.14304,
      45.14304,
      45.14304,
      45.14304,
      45.14304,
      45.14304,
      45.14304,
      45.14304,
      45.14304,
      45.14304,
      45.14304,
      45.14304,
      45.14304,
      45.14304,
      45.14304,
      45.14304,
      45.14304,
      45.14304,
      45.14304,
      45.14304,
      45.14304,
      45.14304,
      45.14304,
      45.14304,
      45.14304,
      45.14304,
      45.14304,
      45.14304,
      45.14304,
      45.14304,
      45.14304,
      45.14304,
      45.14304,
      45.14304,
      45.14304,
      45.14304,
      45.14304,
      45.14304,
      45.14304,
      45.14304,
      45.14304,
      45.14304,
      45.14304,
      45.14304,
      45.14304,
      45.14304,
      45.14304,
      45.14304,
      45.14304,
      45.14304,
      45.14304,
      45.14304,
      45.14304,
      45.14304,
      45.14304,
      45.14304,
      45.14304,
      45.14304,
      45.14304,
      45.14304,
      45.14304,
      45.14304,
      45.14304,
      45.14304,
      45.14304,
      45.14304,
      45.14304,
      45.14304,
      45.14304,
      45.14304,
      45.14304,
      45.14304,
      45.14304,
      45.14304,
      45.14304,
      45.14304,
      45.14304,
      45.14304,
      45.14304,
      45.14304,
      45.14304,
      45.14304,
      45.14304,
      45.14304,
      45.14304,
      45.14304,
      45.14304,
      45.14304,
      45.14304,
      45.14304,
      45.14304,
      45.14304,
      45.14304,
      45.14304,
      45.14304,
      45.14304,
      45.14304,
      45.14304,
      45.14304,
      45.14304,
      45.14304,
      45.14304,
      45.14304,
      45.14304,
      45.14304,
      45.14304,
      45.14304,
      45.14304,
      45.14304,
      45.14304,
      45.14304,
      45.14304,
      45.14304,
      45.14304,
      45.14304,
      45.14304,
      45.14304,
      45.14304,
      45.14304,
      45.14304,
      45.14304,
      45.14304,
      45.14304,
      45.14304,
      45.14304,
      45.14304,
      45.14304,
      45.14304,
      45.14304,
      45.14304,
      45.14304,
      45.14304,
      45.14304,
      45.14304,
      45.14304,
      45.14304,
      45.14304,
      45.14304,
      45.14304,
      45.14304,
      45.14304,
      45.14304,
      45.14304,
      45.14304,
      45.14304,
      45.14304,
      45.14304,
      45.14304,
      45.14304,
      45.14304,
      45.14304,
      45.14304,
      45.14304,
      45.14304,
      45.14304,
      45.14304,
      45.14304,
      45.14304,
      45.14304,
      45.14304,
      45.14304,
      45.14304,
      45.14304,
      45.14304,
      45.14304,
      45.14304,
      45.14304,
      45.14304,
      45.14304,
      45.14304,
      45.14304,
      45.14304,
      45.14304,
      45.14304,
      45.14304,
      45.14304,
      45.14304,
      45.14304,
      45.14304,
      45.14304,
      45.14304,
      45.14304,
      45.14304,
      45.14304,
      45.14304,
      45.14304,
      45.14304,
      45.14304,
      45.14304,
      45.14304,
      45.14304,
      45.14304,
      45.14304,
      45.14304,
      45.14304,
      45.14304,
      45.14304,
      45.14304,
      45.14304,
      45.14304,
      45.14304,
      45.14304,
      45.14304,
      45.14304,
      45.14304,
      45.14304,
      45.14304,
      45.14304,
      45.14304,
      45.14304,
      45.14304,
      45.14304,
      45.14304,
      45.14304,
      45.14304,
      45.14304,
      45.14304,
      45.14304,
      45.14304,
      45.14304,
      45.14304,
      45.14304,
      45.14304,
      45.14304,
      45.14304,
      45.14304,
      45.14304,
      45.14304,
      45.14304,
      45.14304,
      45.14304,
      45.14304,
      45.14304,
      45.14304,
      45.14304,
      45.14304,
      45.14304,
      45.14304,
      45.14304,
      45.14304,
      45.14304,
      45.14304,
      45.14304,
      45.14304,
      45.14304,
      45.14304,
      45.14304,
      45.14304,
      45.14304,
      45.14304,
      45.14304,
      45.14304,
      45.14304,
      45.14304,
      45.14304,
      45.14304,
      45.14304,
      45.14304,
      45.14304,
      45.14304,
      45.14304,
      45.14304,
      45.14304,
      45.14304,
      45.14304,
      45.14304,
      45.14304,
      45.14304,
      45.14304,
      45.14304,
      45.14304,
      45.14304,
      45.14304,
      45.14304,
      45.14304
    ]
  },
  "test": {
    "steps": [
      0
    ],
    "timestamps": [
      "2022-06-22T08:31:06.754462"
    ],
    "values": [
      40.13049140061665
    ]
  },
  "train": {
    "steps": [
      0,
      1,
      2,
      3,
      4,
      5,
      6,
      7,
      8,
      9,
      10,
      11,
      12,
      13,
      14,
      15,
      16,
      17,
      18,
      19,
      20,
      21,
      22,
      23,
      24,
      25,
      26,
      27,
      28,
      29,
      30,
      31,
      32,
      33,
      34,
      35,
      36,
      37,
      38,
      39,
      40,
      41,
      42,
      43,
      44,
      45,
      46,
      47,
      48,
      49,
      50,
      51,
      52,
      53,
      54,
      55,
      56,
      57,
      58,
      59,
      60,
      61,
      62,
      63,
      64,
      65,
      66,
      67,
      68,
      69,
      70,
      71,
      72,
      73,
      74,
      75,
      76,
      77,
      78,
      79,
      80,
      81,
      82,
      83,
      84,
      85,
      86,
      87,
      88,
      89,
      90,
      91,
      92,
      93,
      94,
      95,
      96,
      97,
      98,
      99,
      100,
      101,
      102,
      103,
      104,
      105,
      106,
      107,
      108,
      109,
      110,
      111,
      112,
      113,
      114,
      115,
      116,
      117,
      118,
      119,
      120,
      121,
      122,
      123,
      124,
      125,
      126,
      127,
      128,
      129,
      130,
      131,
      132,
      133,
      134,
      135,
      136,
      137,
      138,
      139,
      140,
      141,
      142,
      143,
      144,
      145,
      146,
      147,
      148,
      149,
      150,
      151,
      152,
      153,
      154,
      155,
      156,
      157,
      158,
      159,
      160,
      161,
      162,
      163,
      164,
      165,
      166,
      167,
      168,
      169,
      170,
      171,
      172,
      173,
      174,
      175,
      176,
      177,
      178,
      179,
      180,
      181,
      182,
      183,
      184,
      185,
      186,
      187,
      188,
      189,
      190,
      191,
      192,
      193,
      194,
      195,
      196,
      197,
      198,
      199,
      200,
      201,
      202,
      203,
      204,
      205,
      206,
      207,
      208,
      209,
      210,
      211,
      212,
      213,
      214,
      215,
      216,
      217,
      218,
      219,
      220,
      221,
      222,
      223,
      224,
      225,
      226,
      227,
      228,
      229,
      230,
      231,
      232,
      233,
      234,
      235,
      236,
      237,
      238,
      239,
      240,
      241,
      242,
      243,
      244,
      245,
      246,
      247,
      248,
      249,
      250,
      251,
      252,
      253,
      254,
      255,
      256,
      257,
      258,
      259,
      260,
      261,
      262,
      263,
      264,
      265,
      266,
      267,
      268,
      269,
      270,
      271,
      272,
      273,
      274,
      275,
      276,
      277,
      278,
      279,
      280,
      281,
      282,
      283,
      284,
      285,
      286,
      287,
      288,
      289,
      290,
      291,
      292,
      293,
      294,
      295,
      296,
      297,
      298,
      299,
      300,
      301,
      302,
      303,
      304,
      305,
      306,
      307,
      308,
      309,
      310,
      311,
      312,
      313,
      314,
      315,
      316,
      317,
      318,
      319,
      320,
      321,
      322,
      323,
      324,
      325,
      326,
      327,
      328,
      329,
      330,
      331,
      332,
      333,
      334,
      335,
      336,
      337,
      338,
      339,
      340,
      341,
      342,
      343,
      344,
      345,
      346,
      347,
      348,
      349,
      350,
      351,
      352,
      353,
      354,
      355,
      356,
      357,
      358,
      359,
      360,
      361,
      362,
      363,
      364,
      365,
      366,
      367,
      368,
      369,
      370,
      371,
      372,
      373,
      374,
      375,
      376,
      377,
      378,
      379,
      380,
      381,
      382,
      383,
      384,
      385,
      386,
      387,
      388,
      389,
      390,
      391,
      392,
      393,
      394,
      395,
      396,
      397,
      398,
      399
    ],
    "timestamps": [
      "2022-06-22T08:05:01.292957",
      "2022-06-22T08:05:07.712842",
      "2022-06-22T08:05:14.099603",
      "2022-06-22T08:05:20.513192",
      "2022-06-22T08:05:26.915976",
      "2022-06-22T08:05:33.397428",
      "2022-06-22T08:05:39.813468",
      "2022-06-22T08:05:46.196888",
      "2022-06-22T08:05:52.539549",
      "2022-06-22T08:05:58.967723",
      "2022-06-22T08:06:05.425289",
      "2022-06-22T08:06:11.846134",
      "2022-06-22T08:06:18.222695",
      "2022-06-22T08:06:24.761752",
      "2022-06-22T08:06:31.141820",
      "2022-06-22T08:06:37.469092",
      "2022-06-22T08:06:43.878650",
      "2022-06-22T08:06:50.295130",
      "2022-06-22T08:06:56.691540",
      "2022-06-22T08:07:03.125655",
      "2022-06-22T08:07:09.604214",
      "2022-06-22T08:07:16.051293",
      "2022-06-22T08:07:22.487775",
      "2022-06-22T08:07:28.915246",
      "2022-06-22T08:07:35.339224",
      "2022-06-22T08:07:41.741066",
      "2022-06-22T08:07:48.176317",
      "2022-06-22T08:07:54.596361",
      "2022-06-22T08:08:01.011640",
      "2022-06-22T08:08:07.499640",
      "2022-06-22T08:08:13.936988",
      "2022-06-22T08:08:20.335026",
      "2022-06-22T08:08:26.796416",
      "2022-06-22T08:08:33.299868",
      "2022-06-22T08:08:39.726288",
      "2022-06-22T08:08:46.161835",
      "2022-06-22T08:08:52.536387",
      "2022-06-22T08:08:58.929395",
      "2022-06-22T08:09:05.373782",
      "2022-06-22T08:09:11.795410",
      "2022-06-22T08:09:18.192134",
      "2022-06-22T08:09:24.612151",
      "2022-06-22T08:09:31.049313",
      "2022-06-22T08:09:37.472689",
      "2022-06-22T08:09:43.826672",
      "2022-06-22T08:09:50.226638",
      "2022-06-22T08:09:56.670687",
      "2022-06-22T08:10:03.119306",
      "2022-06-22T08:10:09.562300",
      "2022-06-22T08:10:15.924158",
      "2022-06-22T08:10:22.288132",
      "2022-06-22T08:10:28.731670",
      "2022-06-22T08:10:35.171557",
      "2022-06-22T08:10:41.557777",
      "2022-06-22T08:10:48.041913",
      "2022-06-22T08:10:54.528519",
      "2022-06-22T08:11:00.901264",
      "2022-06-22T08:11:07.199276",
      "2022-06-22T08:11:13.657181",
      "2022-06-22T08:11:20.081180",
      "2022-06-22T08:11:26.521616",
      "2022-06-22T08:11:32.894289",
      "2022-06-22T08:11:39.312066",
      "2022-06-22T08:11:45.766035",
      "2022-06-22T08:11:52.236388",
      "2022-06-22T08:11:58.615876",
      "2022-06-22T08:12:05.148913",
      "2022-06-22T08:12:11.541047",
      "2022-06-22T08:12:17.922913",
      "2022-06-22T08:12:24.274175",
      "2022-06-22T08:12:30.745871",
      "2022-06-22T08:12:37.184877",
      "2022-06-22T08:12:43.628891",
      "2022-06-22T08:12:50.035944",
      "2022-06-22T08:12:56.600624",
      "2022-06-22T08:13:02.935162",
      "2022-06-22T08:13:09.326357",
      "2022-06-22T08:13:15.706258",
      "2022-06-22T08:13:22.266679",
      "2022-06-22T08:13:28.693253",
      "2022-06-22T08:13:35.155259",
      "2022-06-22T08:13:41.575534",
      "2022-06-22T08:13:47.989009",
      "2022-06-22T08:13:54.427399",
      "2022-06-22T08:14:00.865120",
      "2022-06-22T08:14:07.309403",
      "2022-06-22T08:14:13.706475",
      "2022-06-22T08:14:20.152526",
      "2022-06-22T08:14:26.578034",
      "2022-06-22T08:14:32.990526",
      "2022-06-22T08:14:39.510028",
      "2022-06-22T08:14:45.984743",
      "2022-06-22T08:14:52.411686",
      "2022-06-22T08:14:58.806208",
      "2022-06-22T08:15:05.325639",
      "2022-06-22T08:15:11.769875",
      "2022-06-22T08:15:18.228650",
      "2022-06-22T08:15:24.618563",
      "2022-06-22T08:15:30.084061",
      "2022-06-22T08:15:33.187314",
      "2022-06-22T08:15:36.312138",
      "2022-06-22T08:15:39.409228",
      "2022-06-22T08:15:42.512635",
      "2022-06-22T08:15:45.645170",
      "2022-06-22T08:15:48.741533",
      "2022-06-22T08:15:51.844700",
      "2022-06-22T08:15:54.952209",
      "2022-06-22T08:15:58.055558",
      "2022-06-22T08:16:01.149500",
      "2022-06-22T08:16:04.247473",
      "2022-06-22T08:16:07.380007",
      "2022-06-22T08:16:10.481902",
      "2022-06-22T08:16:13.579980",
      "2022-06-22T08:16:16.716956",
      "2022-06-22T08:16:19.814941",
      "2022-06-22T08:16:22.912473",
      "2022-06-22T08:16:26.033041",
      "2022-06-22T08:16:29.127730",
      "2022-06-22T08:16:32.223227",
      "2022-06-22T08:16:35.346314",
      "2022-06-22T08:16:38.449153",
      "2022-06-22T08:16:41.549080",
      "2022-06-22T08:16:44.647865",
      "2022-06-22T08:16:47.767860",
      "2022-06-22T08:16:50.868872",
      "2022-06-22T08:16:53.973056",
      "2022-06-22T08:16:57.105743",
      "2022-06-22T08:17:00.203888",
      "2022-06-22T08:17:03.303670",
      "2022-06-22T08:17:06.418720",
      "2022-06-22T08:17:09.516953",
      "2022-06-22T08:17:12.615767",
      "2022-06-22T08:17:15.747614",
      "2022-06-22T08:17:18.844020",
      "2022-06-22T08:17:21.945188",
      "2022-06-22T08:17:25.058877",
      "2022-06-22T08:17:28.166292",
      "2022-06-22T08:17:31.259657",
      "2022-06-22T08:17:34.364686",
      "2022-06-22T08:17:37.498349",
      "2022-06-22T08:17:40.601935",
      "2022-06-22T08:17:43.706721",
      "2022-06-22T08:17:46.834667",
      "2022-06-22T08:17:49.930140",
      "2022-06-22T08:17:53.027526",
      "2022-06-22T08:17:56.163176",
      "2022-06-22T08:17:59.264878",
      "2022-06-22T08:18:02.363995",
      "2022-06-22T08:18:05.483141",
      "2022-06-22T08:18:08.578377",
      "2022-06-22T08:18:11.678268",
      "2022-06-22T08:18:14.771655",
      "2022-06-22T08:18:17.904545",
      "2022-06-22T08:18:21.003596",
      "2022-06-22T08:18:24.107267",
      "2022-06-22T08:18:27.226766",
      "2022-06-22T08:18:30.325462",
      "2022-06-22T08:18:33.423625",
      "2022-06-22T08:18:36.564581",
      "2022-06-22T08:18:39.668766",
      "2022-06-22T08:18:42.766562",
      "2022-06-22T08:18:45.895192",
      "2022-06-22T08:18:48.992651",
      "2022-06-22T08:18:52.098610",
      "2022-06-22T08:18:55.211727",
      "2022-06-22T08:18:58.336364",
      "2022-06-22T08:19:01.433582",
      "2022-06-22T08:19:04.535737",
      "2022-06-22T08:19:07.655504",
      "2022-06-22T08:19:10.751887",
      "2022-06-22T08:19:13.849682",
      "2022-06-22T08:19:16.988776",
      "2022-06-22T08:19:20.089669",
      "2022-06-22T08:19:23.192800",
      "2022-06-22T08:19:26.334138",
      "2022-06-22T08:19:29.431059",
      "2022-06-22T08:19:32.529151",
      "2022-06-22T08:19:35.662192",
      "2022-06-22T08:19:38.758881",
      "2022-06-22T08:19:41.865476",
      "2022-06-22T08:19:44.970682",
      "2022-06-22T08:19:48.076608",
      "2022-06-22T08:19:51.173962",
      "2022-06-22T08:19:54.277983",
      "2022-06-22T08:19:57.412667",
      "2022-06-22T08:20:00.513522",
      "2022-06-22T08:20:03.616167",
      "2022-06-22T08:20:06.753774",
      "2022-06-22T08:20:09.855876",
      "2022-06-22T08:20:12.959091",
      "2022-06-22T08:20:16.118374",
      "2022-06-22T08:20:19.218389",
      "2022-06-22T08:20:22.319997",
      "2022-06-22T08:20:25.435310",
      "2022-06-22T08:20:28.544665",
      "2022-06-22T08:20:31.647143",
      "2022-06-22T08:20:34.750964",
      "2022-06-22T08:20:37.888326",
      "2022-06-22T08:20:40.983777",
      "2022-06-22T08:20:44.083727",
      "2022-06-22T08:20:47.204580",
      "2022-06-22T08:20:50.305719",
      "2022-06-22T08:20:53.406362",
      "2022-06-22T08:20:56.541701",
      "2022-06-22T08:20:59.641384",
      "2022-06-22T08:21:02.736456",
      "2022-06-22T08:21:05.862949",
      "2022-06-22T08:21:08.959526",
      "2022-06-22T08:21:12.067749",
      "2022-06-22T08:21:15.174781",
      "2022-06-22T08:21:18.290362",
      "2022-06-22T08:21:21.385549",
      "2022-06-22T08:21:24.479750",
      "2022-06-22T08:21:27.603927",
      "2022-06-22T08:21:30.699759",
      "2022-06-22T08:21:33.797221",
      "2022-06-22T08:21:36.931908",
      "2022-06-22T08:21:40.025726",
      "2022-06-22T08:21:43.129279",
      "2022-06-22T08:21:46.258287",
      "2022-06-22T08:21:49.352531",
      "2022-06-22T08:21:52.448354",
      "2022-06-22T08:21:55.589643",
      "2022-06-22T08:21:58.692251",
      "2022-06-22T08:22:01.790877",
      "2022-06-22T08:22:04.894897",
      "2022-06-22T08:22:08.003910",
      "2022-06-22T08:22:11.108192",
      "2022-06-22T08:22:14.216207",
      "2022-06-22T08:22:17.357096",
      "2022-06-22T08:22:20.456870",
      "2022-06-22T08:22:23.558808",
      "2022-06-22T08:22:26.693798",
      "2022-06-22T08:22:29.790803",
      "2022-06-22T08:22:32.889706",
      "2022-06-22T08:22:36.011558",
      "2022-06-22T08:22:39.110800",
      "2022-06-22T08:22:42.219373",
      "2022-06-22T08:22:45.340711",
      "2022-06-22T08:22:48.442661",
      "2022-06-22T08:22:51.545778",
      "2022-06-22T08:22:54.649997",
      "2022-06-22T08:22:57.780136",
      "2022-06-22T08:23:00.877062",
      "2022-06-22T08:23:03.975298",
      "2022-06-22T08:23:07.101677",
      "2022-06-22T08:23:10.198773",
      "2022-06-22T08:23:13.299793",
      "2022-06-22T08:23:16.434145",
      "2022-06-22T08:23:19.534046",
      "2022-06-22T08:23:22.640239",
      "2022-06-22T08:23:25.779321",
      "2022-06-22T08:23:28.879892",
      "2022-06-22T08:23:31.989223",
      "2022-06-22T08:23:35.102911",
      "2022-06-22T08:23:38.217254",
      "2022-06-22T08:23:41.315091",
      "2022-06-22T08:23:44.419231",
      "2022-06-22T08:23:47.547950",
      "2022-06-22T08:23:50.650175",
      "2022-06-22T08:23:53.748801",
      "2022-06-22T08:23:56.889927",
      "2022-06-22T08:23:59.989857",
      "2022-06-22T08:24:03.088715",
      "2022-06-22T08:24:06.212568",
      "2022-06-22T08:24:09.309917",
      "2022-06-22T08:24:12.415892",
      "2022-06-22T08:24:15.556377",
      "2022-06-22T08:24:18.663025",
      "2022-06-22T08:24:21.765366",
      "2022-06-22T08:24:24.868072",
      "2022-06-22T08:24:27.985457",
      "2022-06-22T08:24:31.086269",
      "2022-06-22T08:24:34.184863",
      "2022-06-22T08:24:37.332730",
      "2022-06-22T08:24:40.433864",
      "2022-06-22T08:24:43.552764",
      "2022-06-22T08:24:46.694964",
      "2022-06-22T08:24:49.787662",
      "2022-06-22T08:24:52.888128",
      "2022-06-22T08:24:56.031174",
      "2022-06-22T08:24:59.129304",
      "2022-06-22T08:25:02.234380",
      "2022-06-22T08:25:05.346176",
      "2022-06-22T08:25:08.446901",
      "2022-06-22T08:25:11.545812",
      "2022-06-22T08:25:14.644799",
      "2022-06-22T08:25:17.769762",
      "2022-06-22T08:25:20.867578",
      "2022-06-22T08:25:23.986549",
      "2022-06-22T08:25:27.112167",
      "2022-06-22T08:25:30.211276",
      "2022-06-22T08:25:33.309763",
      "2022-06-22T08:25:36.440287",
      "2022-06-22T08:25:39.539601",
      "2022-06-22T08:25:42.645658",
      "2022-06-22T08:25:45.786592",
      "2022-06-22T08:25:48.882964",
      "2022-06-22T08:25:51.984821",
      "2022-06-22T08:25:55.093922",
      "2022-06-22T08:25:58.200923",
      "2022-06-22T08:26:01.293941",
      "2022-06-22T08:26:04.396421",
      "2022-06-22T08:26:07.528640",
      "2022-06-22T08:26:10.624922",
      "2022-06-22T08:26:13.724924",
      "2022-06-22T08:26:16.850827",
      "2022-06-22T08:26:19.954494",
      "2022-06-22T08:26:23.059676",
      "2022-06-22T08:26:26.202397",
      "2022-06-22T08:26:29.300237",
      "2022-06-22T08:26:32.402989",
      "2022-06-22T08:26:35.527528",
      "2022-06-22T08:26:38.626919",
      "2022-06-22T08:26:41.727200",
      "2022-06-22T08:26:44.822237",
      "2022-06-22T08:26:47.945126",
      "2022-06-22T08:26:51.043060",
      "2022-06-22T08:26:54.156237",
      "2022-06-22T08:26:57.292342",
      "2022-06-22T08:27:00.390971",
      "2022-06-22T08:27:03.489840",
      "2022-06-22T08:27:06.634600",
      "2022-06-22T08:27:09.737008",
      "2022-06-22T08:27:12.843811",
      "2022-06-22T08:27:15.965888",
      "2022-06-22T08:27:19.064202",
      "2022-06-22T08:27:22.169700",
      "2022-06-22T08:27:25.280274",
      "2022-06-22T08:27:28.390949",
      "2022-06-22T08:27:31.496873",
      "2022-06-22T08:27:34.604751",
      "2022-06-22T08:27:37.738429",
      "2022-06-22T08:27:40.836134",
      "2022-06-22T08:27:43.941896",
      "2022-06-22T08:27:47.078609",
      "2022-06-22T08:27:50.175544",
      "2022-06-22T08:27:53.278008",
      "2022-06-22T08:27:56.414240",
      "2022-06-22T08:27:59.515228",
      "2022-06-22T08:28:02.619363",
      "2022-06-22T08:28:05.749829",
      "2022-06-22T08:28:08.846330",
      "2022-06-22T08:28:11.946245",
      "2022-06-22T08:28:15.052356",
      "2022-06-22T08:28:18.172961",
      "2022-06-22T08:28:21.275145",
      "2022-06-22T08:28:24.379783",
      "2022-06-22T08:28:27.517302",
      "2022-06-22T08:28:30.613425",
      "2022-06-22T08:28:33.711965",
      "2022-06-22T08:28:36.838690",
      "2022-06-22T08:28:39.936401",
      "2022-06-22T08:28:43.033876",
      "2022-06-22T08:28:46.169195",
      "2022-06-22T08:28:49.264080",
      "2022-06-22T08:28:52.365722",
      "2022-06-22T08:28:55.473432",
      "2022-06-22T08:28:58.580515",
      "2022-06-22T08:29:01.679334",
      "2022-06-22T08:29:04.776223",
      "2022-06-22T08:29:07.896608",
      "2022-06-22T08:29:10.994216",
      "2022-06-22T08:29:14.093935",
      "2022-06-22T08:29:17.223986",
      "2022-06-22T08:29:20.324849",
      "2022-06-22T08:29:23.427567",
      "2022-06-22T08:29:26.553903",
      "2022-06-22T08:29:29.650098",
      "2022-06-22T08:29:32.753211",
      "2022-06-22T08:29:35.886846",
      "2022-06-22T08:29:38.986958",
      "2022-06-22T08:29:42.086049",
      "2022-06-22T08:29:45.190831",
      "2022-06-22T08:29:48.309432",
      "2022-06-22T08:29:51.405783",
      "2022-06-22T08:29:54.500298",
      "2022-06-22T08:29:57.630437",
      "2022-06-22T08:30:00.728946",
      "2022-06-22T08:30:03.828739",
      "2022-06-22T08:30:06.961504",
      "2022-06-22T08:30:10.062688",
      "2022-06-22T08:30:13.166066",
      "2022-06-22T08:30:16.289241",
      "2022-06-22T08:30:19.391292",
      "2022-06-22T08:30:22.490582",
      "2022-06-22T08:30:25.621110",
      "2022-06-22T08:30:28.723644",
      "2022-06-22T08:30:31.821366",
      "2022-06-22T08:30:34.925082",
      "2022-06-22T08:30:38.048022",
      "2022-06-22T08:30:41.146551",
      "2022-06-22T08:30:44.246115",
      "2022-06-22T08:30:47.382001",
      "2022-06-22T08:30:50.479078",
      "2022-06-22T08:30:53.583931",
      "2022-06-22T08:30:56.729181",
      "2022-06-22T08:30:59.824729",
      "2022-06-22T08:31:02.924923",
      "2022-06-22T08:31:06.060418"
    ],
    "values": [
      56.677887403601716,
      41.12988076164021,
      40.695830891353204,
      40.54572919712359,
      40.48566020106863,
      40.42912453772719,
      40.43301736016409,
      40.40830392709461,
      40.3903855078964,
      40.37524539711317,
      40.360452389756745,
      40.34063044118309,
      40.343792249172736,
      40.34666503631328,
      40.33401907255417,
      40.30252596501925,
      40.30016546869748,
      40.33031350813791,
      40.314105821874904,
      40.30641799730602,
      40.32106262408432,
      40.29542866887946,
      40.302375438673806,
      40.288674882816245,
      40.29236523412723,
      40.30867397543021,
      40.287268051949006,
      40.26371034906543,
      40.300070204186255,
      40.282100303702734,
      40.27108934230746,
      40.275831910694166,
      40.26727575255348,
      40.274937603475735,
      40.26968913397091,
      40.265168979638155,
      40.26301712322888,
      40.251017144886,
      40.27188369267212,
      40.27891798558756,
      40.283982076274484,
      40.256002999509455,
      40.25395610333637,
      40.26186684857224,
      40.256922892357835,
      40.267620951573655,
      40.26637955788186,
      40.25748399778074,
      40.24924138896921,
      40.27338364384716,
      40.25436362236164,
      40.26392259695984,
      40.24479909001166,
      40.25451939423901,
      40.25674035161158,
      40.25554445418658,
      40.25854291359006,
      40.24377542408191,
      40.243970241113914,
      40.22763142826184,
      40.236378675146085,
      40.24742205296073,
      40.24298507682231,
      40.24299032043025,
      40.25313756370628,
      40.22747985670535,
      40.26671369943553,
      40.23331396525261,
      40.23616722774319,
      40.244087399130436,
      40.25024065834734,
      40.23599762492903,
      40.242029740033615,
      40.23970688034139,
      40.256327732134075,
      40.237004109877404,
      40.225294960707636,
      40.24108474430569,
      40.22185470056556,
      40.21966107534317,
      40.2420991015173,
      40.21906192478195,
      40.221638671314594,
      40.23101949754696,
      40.250750873118875,
      40.2348483356017,
      40.2181667149282,
      40.23223135745844,
      40.22867602091904,
      40.2251922297533,
      40.23650756002687,
      40.22722463947211,
      40.21340631746504,
      40.22243399468683,
      40.21785471301908,
      40.23551430191546,
      40.2267216894108,
      40.24528780820106,
      40.23481169004235,
      40.2245457628308,
      40.22802063642284,
      40.2316353890495,
      40.20398646158936,
      40.23976636613843,
      40.20907719235481,
      40.24091519556921,
      40.22589618373579,
      40.217349434921104,
      40.21156459355184,
      40.22177391383729,
      40.22751186976861,
      40.245792657082845,
      40.215894005456995,
      40.219523160844055,
      40.23089034365126,
      40.21754573845178,
      40.21337207372144,
      40.205854126765786,
      40.2081874797132,
      40.21189798878539,
      40.23346221023586,
      40.2324383847063,
      40.21179439460217,
      40.228228273629945,
      40.0804180096073,
      40.05835473333183,
      40.05943324175386,
      40.05627933562377,
      40.057305096940155,
      40.05648120891583,
      40.05664392372773,
      40.055944171712724,
      40.05752577640394,
      40.06066990327109,
      40.05915465832773,
      40.05845474995039,
      40.056492960892335,
      40.05878996831909,
      40.05675159138772,
      40.057059532835574,
      40.058455633186554,
      40.05781039719264,
      40.061973564985344,
      40.06016973626542,
      40.05950792773993,
      40.05801943523045,
      40.05916260070878,
      40.04200306338563,
      40.037966761683556,
      40.03756101386852,
      40.037625392421944,
      40.03768299103285,
      40.037608498609416,
      40.037712843612795,
      40.03807089808328,
      40.03738001667869,
      40.037655657218394,
      40.03724376987669,
      40.03761042031073,
      40.037956880507934,
      40.0372859057301,
      40.037708965733145,
      40.03731284478025,
      40.037486897571405,
      40.03748711509518,
      40.03726189484748,
      40.037248518668946,
      40.037871637846095,
      40.03737669989228,
      40.03755587733677,
      40.03487290359223,
      40.03476674234354,
      40.0346755122996,
      40.03467606820369,
      40.03464515072208,
      40.0346414753701,
      40.03460787546091,
      40.03461247439986,
      40.034566438611456,
      40.0345724062382,
      40.034558339452666,
      40.03456533816935,
      40.03462081259979,
      40.03451835720517,
      40.03453623855847,
      40.0345342288882,
      40.034563459987424,
      40.034595687738566,
      40.03457389184975,
      40.03452850279471,
      40.03455279940505,
      40.03423394025765,
      40.03423441585674,
      40.034230210395755,
      40.034231907504484,
      40.03423063479182,
      40.03423175665693,
      40.034231457833094,
      40.03423017010149,
      40.0342319934662,
      40.03423030568701,
      40.03422912855932,
      40.03422854332035,
      40.03422803235918,
      40.03423072992954,
      40.0342276669122,
      40.034230636052655,
      40.03422931653202,
      40.03423084639158,
      40.03422602398739,
      40.03422555016307,
      40.03422959279931,
      40.034231016979504,
      40.0342267529221,
      40.03422840420952,
      40.034232178358096,
      40.034227541675634,
      40.034230984700365,
      40.034231154092,
      40.03423180902025,
      40.03422730923029,
      40.03422961141209,
      40.03422681576425,
      40.03422840109524,
      40.03422545054993,
      40.03423276874791,
      40.03422709993046,
      40.034224907005736,
      40.03422936737047,
      40.03423024549405,
      40.03422822558795,
      40.03422839890722,
      40.03422573770108,
      40.03422760660776,
      40.034226548496065,
      40.03423363947193,
      40.034236699815835,
      40.03423856182762,
      40.034240690510494,
      40.03423788305777,
      40.03423693565722,
      40.03423708813304,
      40.03423600547754,
      40.03423598151848,
      40.03423556367635,
      40.03423788198121,
      40.03422999642954,
      40.034233630647755,
      40.03423554621519,
      40.034237144087854,
      40.034234899761834,
      40.03423398632877,
      40.03423145625334,
      40.034229848674315,
      40.0342356910125,
      40.03423454432588,
      40.03423527575864,
      40.03423259483402,
      40.03422946942828,
      40.034228208283096,
      40.03423116450546,
      40.03423268629469,
      40.034235537452375,
      40.034233129929106,
      40.0342299361064,
      40.03423652603272,
      40.03423106421208,
      40.03423423026192,
      40.0342332183953,
      40.03422628781059,
      40.03422733886938,
      40.034232746574276,
      40.03423158676138,
      40.03422762193183,
      40.03423308647038,
      40.03422987967785,
      40.03422711999651,
      40.03423361431017,
      40.03423186240254,
      40.034233566091864,
      40.034232797807775,
      40.03423245687706,
      40.03422923668785,
      40.034229743475386,
      40.03423191026194,
      40.03423045132652,
      40.03422750213026,
      40.034231231494935,
      40.0342350723333,
      40.03422881605817,
      40.03423183289199,
      40.034230390991645,
      40.03422659885214,
      40.03422881941748,
      40.034227142872325,
      40.03422724625858,
      40.03422841746296,
      40.03422638656026,
      40.034228325648925,
      40.03422804446994,
      40.03422764149316,
      40.03422821747379,
      40.034223444270324,
      40.03422629189834,
      40.03422801741535,
      40.03422942514328,
      40.03422983082879,
      40.03422501658169,
      40.034223537321516,
      40.034224444819586,
      40.034226371618914,
      40.03422675258311,
      40.03422523003864,
      40.03422727560527,
      40.03422876015324,
      40.03422737687878,
      40.03422463785099,
      40.03422527511182,
      40.03422495741278,
      40.0342266848297,
      40.03422842836899,
      40.0342260477049,
      40.03422483658564,
      40.0342271277757,
      40.03422420311753,
      40.03422343409525,
      40.03422563559558,
      40.03422601872143,
      40.03422770361286,
      40.034225269551776,
      40.03422554517487,
      40.03422383771128,
      40.03422615846499,
      40.034222520728505,
      40.034227877823035,
      40.03422539620443,
      40.03422722082704,
      40.03422822696284,
      40.03422207985754,
      40.03422524723934,
      40.034222572631016,
      40.03422556459075,
      40.03422590959277,
      40.034223002851185,
      40.03422303882268,
      40.0342246788809,
      40.034221034103254,
      40.03422522270198,
      40.03422445084581,
      40.03422070637008,
      40.034221145340695,
      40.03422078338428,
      40.03422496048476,
      40.0342218276514,
      40.03422462374901,
      40.0342215408611,
      40.034224202346124,
      40.034220680963045,
      40.034222219013024,
      40.034222228095395,
      40.034223988809934,
      40.034220556989474,
      40.03421904418822,
      40.03421972943336,
      40.034222978068655,
      40.03422064465755,
      40.0342242404257,
      40.03422369625617,
      40.03422065106577,
      40.034221833455234,
      40.03421944661625,
      40.034221564326415,
      40.034222651566786,
      40.03421946874777,
      40.03422252812918,
      40.03422225922415,
      40.03422615445474,
      40.03422221854413,
      40.034222869940436,
      40.03422068098999,
      40.03422005508597,
      40.03422112712595,
      40.034223087910476,
      40.03421897520137,
      40.03421753015122,
      40.03422236766233,
      40.03422166962543,
      40.03421832206037,
      40.0342198740558,
      40.034218895291154,
      40.03421861043085,
      40.03421845247725,
      40.03422003226015,
      40.03421858271302,
      40.03421955001063,
      40.03421911767236,
      40.03422198834129,
      40.0342164255767,
      40.03422166341437,
      40.03421555990984
    ]
  },
  "val": {
    "steps": [
      0,
      1,
      2,
      3,
      4,
      5,
      6,
      7,
      8,
      9,
      10,
      11,
      12,
      13,
      14,
      15,
      16,
      17,
      18,
      19,
      20,
      21,
      22,
      23,
      24,
      25,
      26,
      27,
      28,
      29,
      30,
      31,
      32,
      33,
      34,
      35,
      36,
      37,
      38,
      39,
      40,
      41,
      42,
      43,
      44,
      45,
      46,
      47,
      48,
      49,
      50,
      51,
      52,
      53,
      54,
      55,
      56,
      57,
      58,
      59,
      60,
      61,
      62,
      63,
      64,
      65,
      66,
      67,
      68,
      69,
      70,
      71,
      72,
      73,
      74,
      75,
      76,
      77,
      78,
      79,
      80,
      81,
      82,
      83,
      84,
      85,
      86,
      87,
      88,
      89,
      90,
      91,
      92,
      93,
      94,
      95,
      96,
      97,
      98,
      99,
      100,
      101,
      102,
      103,
      104,
      105,
      106,
      107,
      108,
      109,
      110,
      111,
      112,
      113,
      114,
      115,
      116,
      117,
      118,
      119,
      120,
      121,
      122,
      123,
      124,
      125,
      126,
      127,
      128,
      129,
      130,
      131,
      132,
      133,
      134,
      135,
      136,
      137,
      138,
      139,
      140,
      141,
      142,
      143,
      144,
      145,
      146,
      147,
      148,
      149,
      150,
      151,
      152,
      153,
      154,
      155,
      156,
      157,
      158,
      159,
      160,
      161,
      162,
      163,
      164,
      165,
      166,
      167,
      168,
      169,
      170,
      171,
      172,
      173,
      174,
      175,
      176,
      177,
      178,
      179,
      180,
      181,
      182,
      183,
      184,
      185,
      186,
      187,
      188,
      189,
      190,
      191,
      192,
      193,
      194,
      195,
      196,
      197,
      198,
      199,
      200,
      201,
      202,
      203,
      204,
      205,
      206,
      207,
      208,
      209,
      210,
      211,
      212,
      213,
      214,
      215,
      216,
      217,
      218,
      219,
      220,
      221,
      222,
      223,
      224,
      225,
      226,
      227,
      228,
      229,
      230,
      231,
      232,
      233,
      234,
      235,
      236,
      237,
      238,
      239,
      240,
      241,
      242,
      243,
      244,
      245,
      246,
      247,
      248,
      249,
      250,
      251,
      252,
      253,
      254,
      255,
      256,
      257,
      258,
      259,
      260,
      261,
      262,
      263,
      264,
      265,
      266,
      267,
      268,
      269,
      270,
      271,
      272,
      273,
      274,
      275,
      276,
      277,
      278,
      279,
      280,
      281,
      282,
      283,
      284,
      285,
      286,
      287,
      288,
      289,
      290,
      291,
      292,
      293,
      294,
      295,
      296,
      297,
      298,
      299,
      300,
      301,
      302,
      303,
      304,
      305,
      306,
      307,
      308,
      309,
      310,
      311,
      312,
      313,
      314,
      315,
      316,
      317,
      318,
      319,
      320,
      321,
      322,
      323,
      324,
      325,
      326,
      327,
      328,
      329,
      330,
      331,
      332,
      333,
      334,
      335,
      336,
      337,
      338,
      339,
      340,
      341,
      342,
      343,
      344,
      345,
      346,
      347,
      348,
      349,
      350,
      351,
      352,
      353,
      354,
      355,
      356,
      357,
      358,
      359,
      360,
      361,
      362,
      363,
      364,
      365,
      366,
      367,
      368,
      369,
      370,
      371,
      372,
      373,
      374,
      375,
      376,
      377,
      378,
      379,
      380,
      381,
      382,
      383,
      384,
      385,
      386,
      387,
      388,
      389,
      390,
      391,
      392,
      393,
      394,
      395,
      396,
      397,
      398,
      399
    ],
    "timestamps": [
      "2022-06-22T08:05:02.281310",
      "2022-06-22T08:05:08.750822",
      "2022-06-22T08:05:15.126158",
      "2022-06-22T08:05:21.556356",
      "2022-06-22T08:05:28.018487",
      "2022-06-22T08:05:34.429033",
      "2022-06-22T08:05:40.775722",
      "2022-06-22T08:05:47.156146",
      "2022-06-22T08:05:53.576644",
      "2022-06-22T08:06:00.003063",
      "2022-06-22T08:06:06.458370",
      "2022-06-22T08:06:12.880867",
      "2022-06-22T08:06:19.360196",
      "2022-06-22T08:06:25.690010",
      "2022-06-22T08:06:32.089689",
      "2022-06-22T08:06:38.504000",
      "2022-06-22T08:06:44.909605",
      "2022-06-22T08:06:51.330152",
      "2022-06-22T08:06:57.730498",
      "2022-06-22T08:07:04.166018",
      "2022-06-22T08:07:10.650774",
      "2022-06-22T08:07:17.092708",
      "2022-06-22T08:07:23.525165",
      "2022-06-22T08:07:29.959756",
      "2022-06-22T08:07:36.383820",
      "2022-06-22T08:07:42.780764",
      "2022-06-22T08:07:49.205022",
      "2022-06-22T08:07:55.620511",
      "2022-06-22T08:08:02.154463",
      "2022-06-22T08:08:08.530232",
      "2022-06-22T08:08:14.975461",
      "2022-06-22T08:08:21.387185",
      "2022-06-22T08:08:27.921133",
      "2022-06-22T08:08:34.349424",
      "2022-06-22T08:08:40.760255",
      "2022-06-22T08:08:47.121792",
      "2022-06-22T08:08:53.568665",
      "2022-06-22T08:08:59.965313",
      "2022-06-22T08:09:06.404217",
      "2022-06-22T08:09:12.823202",
      "2022-06-22T08:09:19.270376",
      "2022-06-22T08:09:25.604178",
      "2022-06-22T08:09:32.009300",
      "2022-06-22T08:09:38.417053",
      "2022-06-22T08:09:44.877358",
      "2022-06-22T08:09:51.278789",
      "2022-06-22T08:09:57.697551",
      "2022-06-22T08:10:04.149895",
      "2022-06-22T08:10:10.541338",
      "2022-06-22T08:10:16.866579",
      "2022-06-22T08:10:23.327467",
      "2022-06-22T08:10:29.770454",
      "2022-06-22T08:10:36.201083",
      "2022-06-22T08:10:42.648827",
      "2022-06-22T08:10:49.070845",
      "2022-06-22T08:10:55.471145",
      "2022-06-22T08:11:01.862368",
      "2022-06-22T08:11:08.266158",
      "2022-06-22T08:11:14.696192",
      "2022-06-22T08:11:21.117124",
      "2022-06-22T08:11:27.469533",
      "2022-06-22T08:11:33.949981",
      "2022-06-22T08:11:40.346049",
      "2022-06-22T08:11:46.801940",
      "2022-06-22T08:11:53.271403",
      "2022-06-22T08:11:59.743877",
      "2022-06-22T08:12:06.093116",
      "2022-06-22T08:12:12.491760",
      "2022-06-22T08:12:18.866484",
      "2022-06-22T08:12:25.311473",
      "2022-06-22T08:12:31.788200",
      "2022-06-22T08:12:38.230244",
      "2022-06-22T08:12:44.671394",
      "2022-06-22T08:12:51.178645",
      "2022-06-22T08:12:57.551847",
      "2022-06-22T08:13:03.968746",
      "2022-06-22T08:13:10.355416",
      "2022-06-22T08:13:16.840391",
      "2022-06-22T08:13:23.305413",
      "2022-06-22T08:13:29.730594",
      "2022-06-22T08:13:36.182090",
      "2022-06-22T08:13:42.615986",
      "2022-06-22T08:13:49.032930",
      "2022-06-22T08:13:55.451976",
      "2022-06-22T08:14:01.915624",
      "2022-06-22T08:14:08.353417",
      "2022-06-22T08:14:14.751102",
      "2022-06-22T08:14:21.184493",
      "2022-06-22T08:14:27.614031",
      "2022-06-22T08:14:34.122452",
      "2022-06-22T08:14:40.556375",
      "2022-06-22T08:14:47.023985",
      "2022-06-22T08:14:53.456052",
      "2022-06-22T08:14:59.946148",
      "2022-06-22T08:15:06.373316",
      "2022-06-22T08:15:12.815535",
      "2022-06-22T08:15:19.188677",
      "2022-06-22T08:15:25.615064",
      "2022-06-22T08:15:30.428450",
      "2022-06-22T08:15:33.531718",
      "2022-06-22T08:15:36.657840",
      "2022-06-22T08:15:39.755597",
      "2022-06-22T08:15:42.858102",
      "2022-06-22T08:15:45.989060",
      "2022-06-22T08:15:49.085772",
      "2022-06-22T08:15:52.190627",
      "2022-06-22T08:15:55.299319",
      "2022-06-22T08:15:58.398563",
      "2022-06-22T08:16:01.494205",
      "2022-06-22T08:16:04.590545",
      "2022-06-22T08:16:07.725568",
      "2022-06-22T08:16:10.826556",
      "2022-06-22T08:16:13.929293",
      "2022-06-22T08:16:17.061375",
      "2022-06-22T08:16:20.158087",
      "2022-06-22T08:16:23.257094",
      "2022-06-22T08:16:26.376443",
      "2022-06-22T08:16:29.471960",
      "2022-06-22T08:16:32.567586",
      "2022-06-22T08:16:35.696221",
      "2022-06-22T08:16:38.793093",
      "2022-06-22T08:16:41.895739",
      "2022-06-22T08:16:44.996278",
      "2022-06-22T08:16:48.112195",
      "2022-06-22T08:16:51.213315",
      "2022-06-22T08:16:54.317908",
      "2022-06-22T08:16:57.449479",
      "2022-06-22T08:17:00.548078",
      "2022-06-22T08:17:03.647196",
      "2022-06-22T08:17:06.763835",
      "2022-06-22T08:17:09.862205",
      "2022-06-22T08:17:12.960716",
      "2022-06-22T08:17:16.091212",
      "2022-06-22T08:17:19.189368",
      "2022-06-22T08:17:22.289352",
      "2022-06-22T08:17:25.406160",
      "2022-06-22T08:17:28.510732",
      "2022-06-22T08:17:31.604420",
      "2022-06-22T08:17:34.710252",
      "2022-06-22T08:17:37.846207",
      "2022-06-22T08:17:40.947125",
      "2022-06-22T08:17:44.053470",
      "2022-06-22T08:17:47.177352",
      "2022-06-22T08:17:50.274650",
      "2022-06-22T08:17:53.371276",
      "2022-06-22T08:17:56.507556",
      "2022-06-22T08:17:59.607935",
      "2022-06-22T08:18:02.708578",
      "2022-06-22T08:18:05.826873",
      "2022-06-22T08:18:08.922822",
      "2022-06-22T08:18:12.020164",
      "2022-06-22T08:18:15.128005",
      "2022-06-22T08:18:18.249207",
      "2022-06-22T08:18:21.347203",
      "2022-06-22T08:18:24.451757",
      "2022-06-22T08:18:27.570448",
      "2022-06-22T08:18:30.669408",
      "2022-06-22T08:18:33.767892",
      "2022-06-22T08:18:36.908656",
      "2022-06-22T08:18:40.013361",
      "2022-06-22T08:18:43.110844",
      "2022-06-22T08:18:46.240135",
      "2022-06-22T08:18:49.337790",
      "2022-06-22T08:18:52.442281",
      "2022-06-22T08:18:55.575228",
      "2022-06-22T08:18:58.681348",
      "2022-06-22T08:19:01.780401",
      "2022-06-22T08:19:04.880471",
      "2022-06-22T08:19:07.999378",
      "2022-06-22T08:19:11.095466",
      "2022-06-22T08:19:14.194069",
      "2022-06-22T08:19:17.332658",
      "2022-06-22T08:19:20.434386",
      "2022-06-22T08:19:23.537285",
      "2022-06-22T08:19:26.678209",
      "2022-06-22T08:19:29.777156",
      "2022-06-22T08:19:32.872834",
      "2022-06-22T08:19:36.005746",
      "2022-06-22T08:19:39.102288",
      "2022-06-22T08:19:42.210316",
      "2022-06-22T08:19:45.318282",
      "2022-06-22T08:19:48.420772",
      "2022-06-22T08:19:51.518003",
      "2022-06-22T08:19:54.622246",
      "2022-06-22T08:19:57.757623",
      "2022-06-22T08:20:00.857541",
      "2022-06-22T08:20:03.964695",
      "2022-06-22T08:20:07.099032",
      "2022-06-22T08:20:10.201170",
      "2022-06-22T08:20:13.304787",
      "2022-06-22T08:20:16.463779",
      "2022-06-22T08:20:19.562935",
      "2022-06-22T08:20:22.663678",
      "2022-06-22T08:20:25.781175",
      "2022-06-22T08:20:28.890202",
      "2022-06-22T08:20:31.992171",
      "2022-06-22T08:20:35.100058",
      "2022-06-22T08:20:38.231982",
      "2022-06-22T08:20:41.327758",
      "2022-06-22T08:20:44.428942",
      "2022-06-22T08:20:47.548534",
      "2022-06-22T08:20:50.650997",
      "2022-06-22T08:20:53.751200",
      "2022-06-22T08:20:56.885701",
      "2022-06-22T08:20:59.987002",
      "2022-06-22T08:21:03.080265",
      "2022-06-22T08:21:06.207437",
      "2022-06-22T08:21:09.304135",
      "2022-06-22T08:21:12.412657",
      "2022-06-22T08:21:15.533275",
      "2022-06-22T08:21:18.634057",
      "2022-06-22T08:21:21.730571",
      "2022-06-22T08:21:24.824179",
      "2022-06-22T08:21:27.949898",
      "2022-06-22T08:21:31.043481",
      "2022-06-22T08:21:34.145599",
      "2022-06-22T08:21:37.275439",
      "2022-06-22T08:21:40.370543",
      "2022-06-22T08:21:43.473768",
      "2022-06-22T08:21:46.603137",
      "2022-06-22T08:21:49.696505",
      "2022-06-22T08:21:52.793694",
      "2022-06-22T08:21:55.937407",
      "2022-06-22T08:21:59.037128",
      "2022-06-22T08:22:02.135998",
      "2022-06-22T08:22:05.245906",
      "2022-06-22T08:22:08.348973",
      "2022-06-22T08:22:11.452046",
      "2022-06-22T08:22:14.560403",
      "2022-06-22T08:22:17.700994",
      "2022-06-22T08:22:20.799968",
      "2022-06-22T08:22:23.907328",
      "2022-06-22T08:22:27.038406",
      "2022-06-22T08:22:30.135093",
      "2022-06-22T08:22:33.233293",
      "2022-06-22T08:22:36.356130",
      "2022-06-22T08:22:39.456148",
      "2022-06-22T08:22:42.565147",
      "2022-06-22T08:22:45.687347",
      "2022-06-22T08:22:48.787180",
      "2022-06-22T08:22:51.893814",
      "2022-06-22T08:22:54.998587",
      "2022-06-22T08:22:58.125153",
      "2022-06-22T08:23:01.220706",
      "2022-06-22T08:23:04.320069",
      "2022-06-22T08:23:07.445313",
      "2022-06-22T08:23:10.543828",
      "2022-06-22T08:23:13.644584",
      "2022-06-22T08:23:16.779272",
      "2022-06-22T08:23:19.880999",
      "2022-06-22T08:23:22.987337",
      "2022-06-22T08:23:26.124311",
      "2022-06-22T08:23:29.226419",
      "2022-06-22T08:23:32.334448",
      "2022-06-22T08:23:35.456153",
      "2022-06-22T08:23:38.562126",
      "2022-06-22T08:23:41.661503",
      "2022-06-22T08:23:44.762991",
      "2022-06-22T08:23:47.893683",
      "2022-06-22T08:23:50.994551",
      "2022-06-22T08:23:54.098075",
      "2022-06-22T08:23:57.234683",
      "2022-06-22T08:24:00.334003",
      "2022-06-22T08:24:03.433724",
      "2022-06-22T08:24:06.556418",
      "2022-06-22T08:24:09.655266",
      "2022-06-22T08:24:12.762024",
      "2022-06-22T08:24:15.904468",
      "2022-06-22T08:24:19.006202",
      "2022-06-22T08:24:22.108914",
      "2022-06-22T08:24:25.217353",
      "2022-06-22T08:24:28.329836",
      "2022-06-22T08:24:31.430211",
      "2022-06-22T08:24:34.528797",
      "2022-06-22T08:24:37.677190",
      "2022-06-22T08:24:40.778980",
      "2022-06-22T08:24:43.897605",
      "2022-06-22T08:24:47.039179",
      "2022-06-22T08:24:50.134385",
      "2022-06-22T08:24:53.232025",
      "2022-06-22T08:24:56.376438",
      "2022-06-22T08:24:59.473343",
      "2022-06-22T08:25:02.579058",
      "2022-06-22T08:25:05.693929",
      "2022-06-22T08:25:08.790741",
      "2022-06-22T08:25:11.891270",
      "2022-06-22T08:25:14.989888",
      "2022-06-22T08:25:18.114418",
      "2022-06-22T08:25:21.216279",
      "2022-06-22T08:25:24.331018",
      "2022-06-22T08:25:27.456248",
      "2022-06-22T08:25:30.555093",
      "2022-06-22T08:25:33.653628",
      "2022-06-22T08:25:36.784956",
      "2022-06-22T08:25:39.886859",
      "2022-06-22T08:25:42.990561",
      "2022-06-22T08:25:46.130230",
      "2022-06-22T08:25:49.227585",
      "2022-06-22T08:25:52.328532",
      "2022-06-22T08:25:55.442580",
      "2022-06-22T08:25:58.544680",
      "2022-06-22T08:26:01.637007",
      "2022-06-22T08:26:04.739902",
      "2022-06-22T08:26:07.873194",
      "2022-06-22T08:26:10.969614",
      "2022-06-22T08:26:14.073075",
      "2022-06-22T08:26:17.194698",
      "2022-06-22T08:26:20.299297",
      "2022-06-22T08:26:23.404103",
      "2022-06-22T08:26:26.546077",
      "2022-06-22T08:26:29.643466",
      "2022-06-22T08:26:32.746790",
      "2022-06-22T08:26:35.872711",
      "2022-06-22T08:26:38.972640",
      "2022-06-22T08:26:42.071633",
      "2022-06-22T08:26:45.174908",
      "2022-06-22T08:26:48.289597",
      "2022-06-22T08:26:51.387488",
      "2022-06-22T08:26:54.501326",
      "2022-06-22T08:26:57.636066",
      "2022-06-22T08:27:00.735523",
      "2022-06-22T08:27:03.833096",
      "2022-06-22T08:27:06.979633",
      "2022-06-22T08:27:10.083066",
      "2022-06-22T08:27:13.187151",
      "2022-06-22T08:27:16.310628",
      "2022-06-22T08:27:19.408067",
      "2022-06-22T08:27:22.514027",
      "2022-06-22T08:27:25.628024",
      "2022-06-22T08:27:28.734708",
      "2022-06-22T08:27:31.841669",
      "2022-06-22T08:27:34.949999",
      "2022-06-22T08:27:38.082492",
      "2022-06-22T08:27:41.179889",
      "2022-06-22T08:27:44.290447",
      "2022-06-22T08:27:47.422457",
      "2022-06-22T08:27:50.520119",
      "2022-06-22T08:27:53.621850",
      "2022-06-22T08:27:56.759541",
      "2022-06-22T08:27:59.860144",
      "2022-06-22T08:28:02.964053",
      "2022-06-22T08:28:06.095264",
      "2022-06-22T08:28:09.189914",
      "2022-06-22T08:28:12.290632",
      "2022-06-22T08:28:15.405569",
      "2022-06-22T08:28:18.518051",
      "2022-06-22T08:28:21.620581",
      "2022-06-22T08:28:24.725295",
      "2022-06-22T08:28:27.862029",
      "2022-06-22T08:28:30.957495",
      "2022-06-22T08:28:34.060236",
      "2022-06-22T08:28:37.182413",
      "2022-06-22T08:28:40.281234",
      "2022-06-22T08:28:43.378707",
      "2022-06-22T08:28:46.511837",
      "2022-06-22T08:28:49.609042",
      "2022-06-22T08:28:52.710476",
      "2022-06-22T08:28:55.821767",
      "2022-06-22T08:28:58.925460",
      "2022-06-22T08:29:02.024407",
      "2022-06-22T08:29:05.121375",
      "2022-06-22T08:29:08.240554",
      "2022-06-22T08:29:11.339192",
      "2022-06-22T08:29:14.438968",
      "2022-06-22T08:29:17.567114",
      "2022-06-22T08:29:20.667814",
      "2022-06-22T08:29:23.772236",
      "2022-06-22T08:29:26.899739",
      "2022-06-22T08:29:29.997246",
      "2022-06-22T08:29:33.097256",
      "2022-06-22T08:29:36.230761",
      "2022-06-22T08:29:39.331232",
      "2022-06-22T08:29:42.430373",
      "2022-06-22T08:29:45.546046",
      "2022-06-22T08:29:48.653745",
      "2022-06-22T08:29:51.750146",
      "2022-06-22T08:29:54.845397",
      "2022-06-22T08:29:57.975049",
      "2022-06-22T08:30:01.072320",
      "2022-06-22T08:30:04.178665",
      "2022-06-22T08:30:07.304899",
      "2022-06-22T08:30:10.406300",
      "2022-06-22T08:30:13.510401",
      "2022-06-22T08:30:16.632946",
      "2022-06-22T08:30:19.735266",
      "2022-06-22T08:30:22.834831",
      "2022-06-22T08:30:25.974271",
      "2022-06-22T08:30:29.066377",
      "2022-06-22T08:30:32.166073",
      "2022-06-22T08:30:35.274788",
      "2022-06-22T08:30:38.392789",
      "2022-06-22T08:30:41.491189",
      "2022-06-22T08:30:44.591610",
      "2022-06-22T08:30:47.725704",
      "2022-06-22T08:30:50.823458",
      "2022-06-22T08:30:53.928114",
      "2022-06-22T08:30:57.072593",
      "2022-06-22T08:31:00.169442",
      "2022-06-22T08:31:03.268503",
      "2022-06-22T08:31:06.404673"
    ],
    "values": [
      41.77299836330897,
      40.87217220480069,
      40.64013818772115,
      40.51607289103175,
      40.429054415137784,
      40.455479269476626,
      40.44095916345137,
      40.41270326809065,
      40.381323544909726,
      40.37511622310758,
      40.389792630459915,
      40.4005096322292,
      40.36553599888098,
      40.40813773187762,
      40.332221946094776,
      40.37380737627299,
      40.41279486491901,
      40.385338466459665,
      40.45085746039791,
      40.39589716776291,
      40.32299544022451,
      40.35826034008295,
      40.441965093805315,
      40.35049749065176,
      40.335700241570606,
      40.380594895067645,
      40.32830347985694,
      40.31110076936814,
      40.360665944068934,
      40.31556297870853,
      40.28634130153808,
      40.305302518959,
      40.32529017456577,
      40.325322422638905,
      40.31123972392218,
      40.35474475682893,
      40.3162031898304,
      40.370546519854365,
      40.30470875644425,
      40.32659351489238,
      40.380110804648545,
      40.3216303786007,
      40.33875147418772,
      40.341604119260126,
      40.29216952651506,
      40.38208541786525,
      40.325908701234056,
      40.31518340576351,
      40.29919154364701,
      40.39583145705416,
      40.46035748322263,
      40.32009244539944,
      40.36136546466753,
      40.31333335480772,
      40.350825598636874,
      40.33504526077327,
      40.27173685454652,
      40.33825202999694,
      40.25667610896962,
      40.31019915208338,
      40.2585368628596,
      40.29950600019664,
      40.29160527652647,
      40.30432179205803,
      40.357488813209955,
      40.39724069263291,
      40.293172899113095,
      40.320271089244095,
      40.3294266897319,
      40.35916736007249,
      40.28960364033466,
      40.319706510109384,
      40.35674257075424,
      40.308030891309954,
      40.26082532588338,
      40.37901353042457,
      40.33511562602302,
      40.316520426876565,
      40.304880250835474,
      40.30211015722274,
      40.26672041062313,
      40.278509801960006,
      40.22430308167898,
      40.30671537460019,
      40.32349040020372,
      40.28604735472593,
      40.29549419815005,
      40.31756061200854,
      40.25244046970699,
      40.21742116922706,
      40.23599526608855,
      40.28170025848217,
      40.28037169997701,
      40.26316381487192,
      40.30794225779813,
      40.295799795560555,
      40.32974630025929,
      40.26995888225691,
      40.26939303187823,
      40.320791588750126,
      40.31946272382439,
      40.29678695981195,
      40.34090872422803,
      40.252618437550375,
      40.27103175409412,
      40.32387412079771,
      40.31164582336403,
      40.296817662340125,
      40.302437360578935,
      40.27408115398853,
      40.27383264363341,
      40.27207869595782,
      40.35236170682941,
      40.33953140463611,
      40.28317487296013,
      40.2773983424678,
      40.229400521856185,
      40.32316215302365,
      40.28297852751664,
      40.29319112971969,
      40.2766969561862,
      40.264429787113734,
      40.26115583257651,
      40.310099435756825,
      40.134008390492184,
      40.12936727568058,
      40.13498852251499,
      40.136103452662226,
      40.13425012834353,
      40.13680323971898,
      40.142095315133034,
      40.133723700223634,
      40.13544319989523,
      40.13752898741989,
      40.13279919590768,
      40.138895301321206,
      40.13407326124964,
      40.13475861782895,
      40.12853432740099,
      40.13618740665102,
      40.12888683382152,
      40.13197564433697,
      40.13567171753103,
      40.137716139713596,
      40.13235725131256,
      40.13366845217882,
      40.13807867617194,
      40.12342558813516,
      40.12251154243713,
      40.121951206859954,
      40.121846548805486,
      40.122318331247655,
      40.121634625643225,
      40.12207401178365,
      40.12149126223303,
      40.12237750591663,
      40.12214739833357,
      40.12207988772896,
      40.12297874934873,
      40.12253805471737,
      40.12168292557586,
      40.12191468885121,
      40.12324939142982,
      40.12161147314869,
      40.121525609800116,
      40.12141693778503,
      40.123221566298504,
      40.121597174558445,
      40.12240560906297,
      40.123403146631915,
      40.12290365233955,
      40.12254810309965,
      40.12246237917608,
      40.122267306623726,
      40.12223046272742,
      40.1222300670843,
      40.12210509776443,
      40.12206498069488,
      40.121981519877686,
      40.12208739471926,
      40.1220174180815,
      40.12203002080386,
      40.12200183960606,
      40.12204498237048,
      40.122012643857914,
      40.122010360186124,
      40.122029365564046,
      40.12190350607684,
      40.12198194100455,
      40.12195475507663,
      40.12192826693621,
      40.12192865918052,
      40.12192766644521,
      40.12192763299958,
      40.12193359132328,
      40.1219353946651,
      40.12193363508536,
      40.12193073083215,
      40.121928041927205,
      40.1219415272359,
      40.121931174803144,
      40.12193225318334,
      40.12193419081691,
      40.121935511352305,
      40.12193728173243,
      40.12193225930306,
      40.121939962011936,
      40.12192855519497,
      40.12193891908767,
      40.12194337801567,
      40.121939124238004,
      40.12193497115073,
      40.12194665783862,
      40.121937934685995,
      40.121942906783886,
      40.12193623861074,
      40.12194220799784,
      40.12193686881507,
      40.12193731768072,
      40.12193966794837,
      40.121939051466754,
      40.12194214200766,
      40.12194124854484,
      40.12193584420905,
      40.12194335976224,
      40.121943280263515,
      40.12194541082265,
      40.12194976035238,
      40.12195126541816,
      40.12194159508152,
      40.12194835820502,
      40.121930783610765,
      40.12194613557334,
      40.12194774207269,
      40.12194752039547,
      40.121944344842035,
      40.12195817619273,
      40.121951576390124,
      40.12195709339249,
      40.12195598499553,
      40.121952027417926,
      40.12194187804564,
      40.12195564021155,
      40.12195110213406,
      40.12194702816043,
      40.121950332709076,
      40.121948942037235,
      40.12195151862642,
      40.121943453638636,
      40.121939051208884,
      40.12193252891043,
      40.1219350851824,
      40.12193998074279,
      40.121935578228054,
      40.121940035129974,
      40.12193316096762,
      40.12195003773254,
      40.12194083375589,
      40.12193366836049,
      40.1219354389877,
      40.121933686450014,
      40.121930950919214,
      40.12193709109701,
      40.121941765581944,
      40.121931920268004,
      40.12194332656331,
      40.121923393058516,
      40.12193076711524,
      40.12192524612273,
      40.12193057717225,
      40.121935571501666,
      40.12192775799984,
      40.12193620767704,
      40.1219227644988,
      40.121928802088796,
      40.12192266042048,
      40.121923616331244,
      40.121923362749115,
      40.12192955887202,
      40.12192726461368,
      40.12193485421862,
      40.12193065023059,
      40.12192212608038,
      40.12192533523001,
      40.12193159949731,
      40.12192647042495,
      40.12192546867177,
      40.12193151526433,
      40.12192120188994,
      40.121919699085474,
      40.12192685163436,
      40.12192564454476,
      40.121931013290734,
      40.121927147469115,
      40.12191827894065,
      40.121923206211676,
      40.12192475375252,
      40.12192558051125,
      40.121927266372204,
      40.121927761176345,
      40.12191599796002,
      40.1219158635331,
      40.12192448558702,
      40.121921760315765,
      40.1219228476174,
      40.121924499985106,
      40.12192243568241,
      40.12192100204031,
      40.12192360034508,
      40.121924211535735,
      40.12192212763776,
      40.121918658982956,
      40.12191858650414,
      40.12192154740754,
      40.121927733348265,
      40.12191406949537,
      40.121918064541674,
      40.12192084291709,
      40.12191962953802,
      40.12192360032415,
      40.12192426117346,
      40.12192041613709,
      40.121911458842284,
      40.12191427566088,
      40.121931444355,
      40.12192568840941,
      40.121918239983565,
      40.121916350920976,
      40.12192487452663,
      40.12192218242034,
      40.121923241196285,
      40.12192676649552,
      40.12192007866303,
      40.12192247248265,
      40.121917345480554,
      40.121920382219265,
      40.12192686579771,
      40.12192633889781,
      40.12192054324034,
      40.121918572011985,
      40.1219217415781,
      40.12192098144331,
      40.12191415501774,
      40.12192671616539,
      40.121915750652136,
      40.12191339751069,
      40.121918288625395,
      40.121915141454885,
      40.12191800411966,
      40.12191765983969,
      40.121917446600705,
      40.121916581206115,
      40.121917194606205,
      40.12191959964177,
      40.121916701149104,
      40.12191629680748,
      40.1219098321557,
      40.1219051380908,
      40.12191734376492,
      40.12192088412878,
      40.12191547381083,
      40.12191876422616,
      40.121917904972236,
      40.12191245472111,
      40.121918949385766,
      40.12192490426531,
      40.12191627713746,
      40.12191653502884,
      40.12191665450173,
      40.1219140803203,
      40.12192250647766,
      40.121912064566324,
      40.12192101836727,
      40.12191904721623,
      40.121910273141374,
      40.121915659128064,
      40.1219222328556,
      40.121914067460764,
      40.12191895893172,
      40.12191582316189,
      40.12191649419237,
      40.12191499256068,
      40.12191629865696,
      40.12191608717364,
      40.12191220822499,
      40.12191974499106,
      40.121917967654966,
      40.121922311882365,
      40.12192019568992,
      40.12191687226585,
      40.12191606200155,
      40.12192700277297,
      40.1219210418289,
      40.12192417526916,
      40.12191984622148,
      40.12191751530974,
      40.12191269683575,
      40.1219274843209,
      40.12191831312057,
      40.12191416416245
    ]
  }
}