INFO - residual_nf - Running command 'run'
INFO - residual_nf - Started run with ID "8"
[CONFIG] {'bn': 'arithmetic-circuit', 'structure': 'faithful', 'coeff': 0.99, 'n_power_iterations': 5, 'num_blocks': 8, 'hidden_dims': [125], 'activation': 'lipmish', 'grad_in_forward': True, 'batch_size': 100, 'num_train_samples': 10000, 'num_val_samples': 5000, 'num_epochs': 400, 'num_train_batches': 100, 'num_val_batches': 50, 'lr': 0.01, 'seed': 2, 'patience': 20, 'double': True, 'run': 3, 'checkpoint_n': 10, 'load_from_checkpoint': True, 'ex_name': 'residual_nf_density_estimation', 'sub_folder': 'faithful_99_lipmish_8_[125]', 'path': './experiment_logs/residual_nf_density_estimation/arithmetic-circuit/faithful_99_lipmish_8_[125]', 'bt_config': {'depth': 5, 'seed': 4}}
[DEVICE] cpu
[ENCODED STRUCTURE] Using faithful BN structure.
[LOADING FROM CHECKPOINT] Start epoch: 300
  0%|          | 0/100 [00:00<?, ?it/s]Train NLL: 1.245, Val NLL: 1.307:   1%|          | 1/100 [00:07<12:39,  7.67s/it]Train NLL: 1.244, Val NLL: 1.307:   2%|▏         | 2/100 [00:12<09:44,  5.96s/it]Train NLL: 1.241, Val NLL: 1.316:   3%|▎         | 3/100 [00:17<08:40,  5.37s/it]Train NLL: 1.243, Val NLL: 1.304:   4%|▍         | 4/100 [00:21<08:09,  5.09s/it]Train NLL: 1.244, Val NLL: 1.307:   5%|▌         | 5/100 [00:26<07:51,  4.96s/it]Train NLL: 1.242, Val NLL: 1.309:   6%|▌         | 6/100 [00:31<07:38,  4.87s/it]Train NLL: 1.241, Val NLL: 1.315:   7%|▋         | 7/100 [00:36<07:30,  4.85s/it]Train NLL: 1.242, Val NLL: 1.309:   8%|▊         | 8/100 [00:40<07:23,  4.82s/it]Train NLL: 1.242, Val NLL: 1.309:   9%|▉         | 9/100 [00:45<07:17,  4.80s/it]Train NLL: 1.243, Val NLL: 1.304:  10%|█         | 10/100 [00:50<07:11,  4.79s/it]Train NLL: 1.241, Val NLL: 1.310:  11%|█         | 11/100 [00:55<07:05,  4.78s/it]Train NLL: 1.243, Val NLL: 1.312:  12%|█▏        | 12/100 [00:59<07:01,  4.79s/it]Train NLL: 1.241, Val NLL: 1.305:  13%|█▎        | 13/100 [01:04<06:57,  4.80s/it]Train NLL: 1.245, Val NLL: 1.306:  14%|█▍        | 14/100 [01:09<06:52,  4.79s/it]Train NLL: 1.243, Val NLL: 1.305:  15%|█▌        | 15/100 [01:14<06:47,  4.79s/it]Train NLL: 1.243, Val NLL: 1.305:  16%|█▌        | 16/100 [01:19<06:41,  4.78s/it]Train NLL: 1.243, Val NLL: 1.307:  17%|█▋        | 17/100 [01:23<06:34,  4.75s/it]Train NLL: 1.242, Val NLL: 1.305:  18%|█▊        | 18/100 [01:28<06:29,  4.75s/it]Train NLL: 1.241, Val NLL: 1.315:  19%|█▉        | 19/100 [01:33<06:26,  4.77s/it]Train NLL: 1.242, Val NLL: 1.310:  20%|██        | 20/100 [01:38<06:22,  4.78s/it]Train NLL: 1.242, Val NLL: 1.309:  21%|██        | 21/100 [01:42<06:17,  4.78s/it]Train NLL: 1.244, Val NLL: 1.306:  22%|██▏       | 22/100 [01:47<06:11,  4.77s/it]Train NLL: 1.242, Val NLL: 1.303:  23%|██▎       | 23/100 [01:52<06:06,  4.75s/it]Train NLL: 1.240, Val NLL: 1.304:  24%|██▍       | 24/100 [01:56<06:00,  4.74s/it]Train NLL: 1.242, Val NLL: 1.305:  25%|██▌       | 25/100 [02:01<05:55,  4.74s/it]Train NLL: 1.241, Val NLL: 1.306:  26%|██▌       | 26/100 [02:06<05:56,  4.81s/it]Train NLL: 1.241, Val NLL: 1.307:  27%|██▋       | 27/100 [02:11<05:48,  4.78s/it]Train NLL: 1.243, Val NLL: 1.308:  28%|██▊       | 28/100 [02:16<05:42,  4.76s/it]Train NLL: 1.240, Val NLL: 1.308:  29%|██▉       | 29/100 [02:20<05:37,  4.75s/it]Train NLL: 1.241, Val NLL: 1.305:  30%|███       | 30/100 [02:25<05:31,  4.73s/it]Train NLL: 1.241, Val NLL: 1.307:  31%|███       | 31/100 [02:30<05:25,  4.72s/it]Train NLL: 1.241, Val NLL: 1.306:  32%|███▏      | 32/100 [02:34<05:20,  4.72s/it]Train NLL: 1.242, Val NLL: 1.306:  33%|███▎      | 33/100 [02:39<05:21,  4.80s/it]Train NLL: 1.241, Val NLL: 1.309:  34%|███▍      | 34/100 [02:44<05:18,  4.83s/it]Train NLL: 1.240, Val NLL: 1.303:  35%|███▌      | 35/100 [02:49<05:17,  4.88s/it]Train NLL: 1.241, Val NLL: 1.309:  36%|███▌      | 36/100 [02:54<05:09,  4.84s/it]Train NLL: 1.242, Val NLL: 1.315:  37%|███▋      | 37/100 [02:59<05:01,  4.79s/it]Train NLL: 1.241, Val NLL: 1.306:  38%|███▊      | 38/100 [03:04<04:58,  4.81s/it]Train NLL: 1.241, Val NLL: 1.307:  39%|███▉      | 39/100 [03:08<04:52,  4.80s/it]Train NLL: 1.241, Val NLL: 1.304:  40%|████      | 40/100 [03:13<04:46,  4.78s/it]Train NLL: 1.240, Val NLL: 1.308:  41%|████      | 41/100 [03:18<04:43,  4.81s/it]Train NLL: 1.240, Val NLL: 1.305:  42%|████▏     | 42/100 [03:23<04:38,  4.80s/it]Train NLL: 1.239, Val NLL: 1.310:  43%|████▎     | 43/100 [03:28<04:34,  4.81s/it]Train NLL: 1.241, Val NLL: 1.304:  44%|████▍     | 44/100 [03:32<04:29,  4.81s/it]Train NLL: 1.238, Val NLL: 1.304:  45%|████▌     | 45/100 [03:37<04:22,  4.77s/it]Train NLL: 1.241, Val NLL: 1.303:  46%|████▌     | 46/100 [03:42<04:16,  4.75s/it]Train NLL: 1.239, Val NLL: 1.307:  47%|████▋     | 47/100 [03:47<04:11,  4.74s/it]Train NLL: 1.240, Val NLL: 1.303:  48%|████▊     | 48/100 [03:51<04:07,  4.76s/it]Train NLL: 1.240, Val NLL: 1.305:  49%|████▉     | 49/100 [03:56<04:02,  4.76s/it]Train NLL: 1.241, Val NLL: 1.316:  50%|█████     | 50/100 [04:01<03:57,  4.76s/it]Train NLL: 1.239, Val NLL: 1.303:  51%|█████     | 51/100 [04:06<03:52,  4.74s/it]Train NLL: 1.241, Val NLL: 1.307:  52%|█████▏    | 52/100 [04:10<03:49,  4.77s/it]Train NLL: 1.240, Val NLL: 1.302:  53%|█████▎    | 53/100 [04:15<03:44,  4.78s/it]Train NLL: 1.241, Val NLL: 1.304:  54%|█████▍    | 54/100 [04:20<03:39,  4.77s/it]Train NLL: 1.241, Val NLL: 1.302:  55%|█████▌    | 55/100 [04:25<03:34,  4.77s/it]Train NLL: 1.240, Val NLL: 1.306:  56%|█████▌    | 56/100 [04:30<03:30,  4.78s/it]Train NLL: 1.240, Val NLL: 1.304:  57%|█████▋    | 57/100 [04:34<03:24,  4.76s/it]Train NLL: 1.239, Val NLL: 1.305:  58%|█████▊    | 58/100 [04:39<03:23,  4.85s/it]Train NLL: 1.238, Val NLL: 1.310:  59%|█████▉    | 59/100 [04:44<03:18,  4.83s/it]Train NLL: 1.239, Val NLL: 1.307:  60%|██████    | 60/100 [04:49<03:12,  4.81s/it]Train NLL: 1.242, Val NLL: 1.303:  61%|██████    | 61/100 [04:54<03:08,  4.82s/it]Train NLL: 1.240, Val NLL: 1.305:  62%|██████▏   | 62/100 [04:59<03:03,  4.84s/it]Train NLL: 1.240, Val NLL: 1.306:  63%|██████▎   | 63/100 [05:03<02:59,  4.86s/it]Train NLL: 1.241, Val NLL: 1.304:  64%|██████▍   | 64/100 [05:09<02:59,  4.98s/it]Train NLL: 1.240, Val NLL: 1.301:  65%|██████▌   | 65/100 [05:14<02:54,  5.00s/it]Epoch   366: reducing learning rate of group 0 to 1.0000e-05.
Train NLL: 1.240, Val NLL: 1.305:  66%|██████▌   | 66/100 [05:19<02:50,  5.02s/it]Train NLL: 1.235, Val NLL: 1.301:  67%|██████▋   | 67/100 [05:24<02:44,  4.98s/it]Train NLL: 1.235, Val NLL: 1.301:  68%|██████▊   | 68/100 [05:32<03:12,  6.02s/it]Train NLL: 1.234, Val NLL: 1.300:  69%|██████▉   | 69/100 [05:37<02:54,  5.64s/it]Train NLL: 1.234, Val NLL: 1.300:  70%|███████   | 70/100 [05:44<03:00,  6.01s/it]Train NLL: 1.234, Val NLL: 1.300:  71%|███████   | 71/100 [05:49<02:45,  5.71s/it]Train NLL: 1.234, Val NLL: 1.300:  72%|███████▏  | 72/100 [05:53<02:31,  5.39s/it]Train NLL: 1.234, Val NLL: 1.300:  73%|███████▎  | 73/100 [05:58<02:19,  5.17s/it]Train NLL: 1.234, Val NLL: 1.300:  74%|███████▍  | 74/100 [06:03<02:10,  5.02s/it]Train NLL: 1.234, Val NLL: 1.300:  75%|███████▌  | 75/100 [06:07<02:02,  4.91s/it]Train NLL: 1.234, Val NLL: 1.300:  76%|███████▌  | 76/100 [06:12<01:56,  4.84s/it]Train NLL: 1.234, Val NLL: 1.300:  77%|███████▋  | 77/100 [06:17<01:51,  4.86s/it]Train NLL: 1.234, Val NLL: 1.300:  78%|███████▊  | 78/100 [06:22<01:45,  4.79s/it]Train NLL: 1.234, Val NLL: 1.300:  79%|███████▉  | 79/100 [06:26<01:39,  4.76s/it]Train NLL: 1.234, Val NLL: 1.300:  80%|████████  | 80/100 [06:31<01:34,  4.73s/it]Train NLL: 1.233, Val NLL: 1.301:  81%|████████  | 81/100 [06:36<01:28,  4.68s/it]Train NLL: 1.234, Val NLL: 1.300:  82%|████████▏ | 82/100 [06:40<01:23,  4.65s/it]Train NLL: 1.234, Val NLL: 1.300:  83%|████████▎ | 83/100 [06:45<01:18,  4.63s/it]Train NLL: 1.233, Val NLL: 1.300:  84%|████████▍ | 84/100 [06:49<01:13,  4.62s/it]Train NLL: 1.233, Val NLL: 1.301:  85%|████████▌ | 85/100 [06:54<01:09,  4.61s/it]Train NLL: 1.233, Val NLL: 1.300:  86%|████████▌ | 86/100 [06:58<01:04,  4.59s/it]Train NLL: 1.233, Val NLL: 1.301:  87%|████████▋ | 87/100 [07:03<00:59,  4.59s/it]Train NLL: 1.233, Val NLL: 1.300:  88%|████████▊ | 88/100 [07:08<00:55,  4.59s/it]Train NLL: 1.233, Val NLL: 1.300:  89%|████████▉ | 89/100 [07:12<00:50,  4.59s/it]Train NLL: 1.234, Val NLL: 1.301:  90%|█████████ | 90/100 [07:17<00:45,  4.58s/it]Train NLL: 1.233, Val NLL: 1.300:  91%|█████████ | 91/100 [07:22<00:41,  4.62s/it]Train NLL: 1.234, Val NLL: 1.301:  92%|█████████▏| 92/100 [07:26<00:37,  4.63s/it]Train NLL: 1.233, Val NLL: 1.300:  93%|█████████▎| 93/100 [07:31<00:32,  4.62s/it]Train NLL: 1.234, Val NLL: 1.301:  94%|█████████▍| 94/100 [07:35<00:27,  4.61s/it]Train NLL: 1.234, Val NLL: 1.301:  95%|█████████▌| 95/100 [07:40<00:23,  4.60s/it]Train NLL: 1.233, Val NLL: 1.300:  96%|█████████▌| 96/100 [07:45<00:18,  4.60s/it]Train NLL: 1.234, Val NLL: 1.300:  97%|█████████▋| 97/100 [07:49<00:13,  4.60s/it]Train NLL: 1.234, Val NLL: 1.301:  98%|█████████▊| 98/100 [07:54<00:09,  4.60s/it]Train NLL: 1.233, Val NLL: 1.301:  99%|█████████▉| 99/100 [07:58<00:04,  4.60s/it]Train NLL: 1.235, Val NLL: 1.300: 100%|██████████| 100/100 [08:03<00:00,  4.59s/it]Train NLL: 1.235, Val NLL: 1.300: 100%|██████████| 100/100 [08:03<00:00,  4.83s/it]
INFO - residual_nf - Completed after 0:08:04
