INFO - discrete_nf - Running command 'run'
INFO - discrete_nf - Started run with ID "5"
[CONFIG] {'bn': 'arithmetic-circuit', 'conditioner_type': 'dag', 'normalizer_type': 'monotonic', 'int_net_hidden': [100], 'int_net_final_activation': 'elu', 'cond_size': 10, 'mono_num_steps': 15, 'mono_solver': 'CC', 'num_flow_steps': 2, 'hidden_dims': [50], 'batch_size': 100, 'num_train_samples': 10000, 'num_val_samples': 5000, 'num_epochs': 300, 'num_train_batches': 100, 'num_val_batches': 50, 'lr': 0.001, 'seed': 4, 'patience': 15, 'run': 1, 'double': False, 'checkpoint_n': 10, 'load_from_checkpoint': False, 'ex_name': 'discrete_nf_density_estimation', 'sub_folder': 'dag_monotonic_2_[50]', 'path': './experiment_logs/discrete_nf_density_estimation/arithmetic-circuit/dag_monotonic_2_[50]', 'bt_config': {'depth': 5, 'seed': 4}}
[DEVICE] cuda:0
  0%|          | 0/300 [00:00<?, ?it/s]Train NLL: 13.830, Val NLL: 10.970:   0%|          | 1/300 [00:05<27:25,  5.50s/it]Train NLL: 8.442, Val NLL: 6.658:   1%|          | 2/300 [00:08<19:23,  3.90s/it]  Train NLL: 5.721, Val NLL: 5.112:   1%|          | 3/300 [00:11<16:47,  3.39s/it]Train NLL: 4.738, Val NLL: 4.711:   1%|▏         | 4/300 [00:13<15:32,  3.15s/it]Train NLL: 4.215, Val NLL: 3.973:   2%|▏         | 5/300 [00:16<14:51,  3.02s/it]Train NLL: 3.835, Val NLL: 3.969:   2%|▏         | 6/300 [00:19<14:25,  2.95s/it]Train NLL: 3.590, Val NLL: 3.756:   2%|▏         | 7/300 [00:22<14:10,  2.90s/it]Train NLL: 3.347, Val NLL: 3.280:   3%|▎         | 8/300 [00:25<13:55,  2.86s/it]Train NLL: 3.294, Val NLL: 3.242:   3%|▎         | 9/300 [00:27<13:49,  2.85s/it]Train NLL: 3.159, Val NLL: 3.107:   3%|▎         | 10/300 [00:30<13:40,  2.83s/it]Train NLL: 3.077, Val NLL: 2.969:   4%|▎         | 11/300 [00:33<13:35,  2.82s/it]Train NLL: 2.859, Val NLL: 2.997:   4%|▍         | 12/300 [00:36<13:27,  2.80s/it]Train NLL: 2.825, Val NLL: 2.833:   4%|▍         | 13/300 [00:39<13:25,  2.81s/it]Train NLL: 2.771, Val NLL: 2.762:   5%|▍         | 14/300 [00:41<13:19,  2.80s/it]Train NLL: 2.829, Val NLL: 2.654:   5%|▌         | 15/300 [00:44<13:16,  2.80s/it]Train NLL: 2.527, Val NLL: 2.922:   5%|▌         | 16/300 [00:47<13:12,  2.79s/it]Train NLL: 2.919, Val NLL: 4.369:   6%|▌         | 17/300 [00:50<13:10,  2.79s/it]Train NLL: 2.671, Val NLL: 2.494:   6%|▌         | 18/300 [00:52<13:07,  2.79s/it]Train NLL: 2.374, Val NLL: 2.677:   6%|▋         | 19/300 [00:55<13:05,  2.80s/it]Train NLL: 2.387, Val NLL: 2.476:   7%|▋         | 20/300 [00:58<13:01,  2.79s/it]Train NLL: 2.286, Val NLL: 2.313:   7%|▋         | 21/300 [01:01<13:00,  2.80s/it]Train NLL: 2.308, Val NLL: 2.276:   7%|▋         | 22/300 [01:04<12:53,  2.78s/it]Train NLL: 2.175, Val NLL: 2.312:   8%|▊         | 23/300 [01:06<12:55,  2.80s/it]Train NLL: 2.279, Val NLL: 2.533:   8%|▊         | 24/300 [01:09<12:51,  2.80s/it]Train NLL: 2.327, Val NLL: 2.564:   8%|▊         | 25/300 [01:12<12:50,  2.80s/it]Train NLL: 2.090, Val NLL: 2.142:   9%|▊         | 26/300 [01:15<12:46,  2.80s/it]Train NLL: 2.161, Val NLL: 2.138:   9%|▉         | 27/300 [01:18<12:44,  2.80s/it]Train NLL: 2.054, Val NLL: 2.071:   9%|▉         | 28/300 [01:20<12:38,  2.79s/it]Train NLL: 2.026, Val NLL: 2.235:  10%|▉         | 29/300 [01:23<12:36,  2.79s/it]Train NLL: 2.645, Val NLL: 2.101:  10%|█         | 30/300 [01:26<12:32,  2.79s/it]Train NLL: 1.990, Val NLL: 2.129:  10%|█         | 31/300 [01:29<12:30,  2.79s/it]Train NLL: 1.920, Val NLL: 1.973:  11%|█         | 32/300 [01:32<12:29,  2.80s/it]Train NLL: 1.915, Val NLL: 2.032:  11%|█         | 33/300 [01:34<12:33,  2.82s/it]Train NLL: 2.150, Val NLL: 2.806:  11%|█▏        | 34/300 [01:37<12:27,  2.81s/it]Train NLL: 2.119, Val NLL: 2.314:  12%|█▏        | 35/300 [01:40<12:23,  2.81s/it]Train NLL: 2.105, Val NLL: 2.024:  12%|█▏        | 36/300 [01:43<12:22,  2.81s/it]Train NLL: 1.865, Val NLL: 1.964:  12%|█▏        | 37/300 [01:46<12:15,  2.80s/it]Train NLL: 1.889, Val NLL: 2.050:  13%|█▎        | 38/300 [01:48<12:16,  2.81s/it]Train NLL: 1.952, Val NLL: 1.947:  13%|█▎        | 39/300 [01:51<12:10,  2.80s/it]Train NLL: 1.872, Val NLL: 1.903:  13%|█▎        | 40/300 [01:54<12:05,  2.79s/it]Train NLL: 1.986, Val NLL: 2.128:  14%|█▎        | 41/300 [01:57<12:05,  2.80s/it]Train NLL: 1.979, Val NLL: 2.212:  14%|█▍        | 42/300 [02:00<12:01,  2.80s/it]Train NLL: 1.906, Val NLL: 2.498:  14%|█▍        | 43/300 [02:02<11:57,  2.79s/it]Train NLL: 1.795, Val NLL: 1.851:  15%|█▍        | 44/300 [02:05<11:54,  2.79s/it]Train NLL: 1.825, Val NLL: 2.106:  15%|█▌        | 45/300 [02:08<11:52,  2.79s/it]Train NLL: 1.786, Val NLL: 1.947:  15%|█▌        | 46/300 [02:11<11:51,  2.80s/it]Train NLL: 1.804, Val NLL: 1.865:  16%|█▌        | 47/300 [02:14<11:47,  2.79s/it]Train NLL: 1.830, Val NLL: 1.852:  16%|█▌        | 48/300 [02:16<11:46,  2.80s/it]Train NLL: 1.785, Val NLL: 1.917:  16%|█▋        | 49/300 [02:19<11:42,  2.80s/it]Train NLL: 1.809, Val NLL: 1.775:  17%|█▋        | 50/300 [02:22<11:40,  2.80s/it]Train NLL: 1.720, Val NLL: 1.940:  17%|█▋        | 51/300 [02:25<11:35,  2.79s/it]Train NLL: 1.754, Val NLL: 2.138:  17%|█▋        | 52/300 [02:28<11:33,  2.80s/it]Train NLL: 1.687, Val NLL: 1.749:  18%|█▊        | 53/300 [02:30<11:28,  2.79s/it]Train NLL: 1.794, Val NLL: 1.779:  18%|█▊        | 54/300 [02:33<11:27,  2.80s/it]Train NLL: 1.633, Val NLL: 1.908:  18%|█▊        | 55/300 [02:36<11:27,  2.81s/it]Train NLL: 1.695, Val NLL: 2.025:  19%|█▊        | 56/300 [02:39<11:26,  2.81s/it]Train NLL: 1.779, Val NLL: 1.783:  19%|█▉        | 57/300 [02:42<11:21,  2.80s/it]Train NLL: 1.645, Val NLL: 1.665:  19%|█▉        | 58/300 [02:44<11:21,  2.82s/it]Train NLL: 1.857, Val NLL: 2.058:  20%|█▉        | 59/300 [02:47<11:15,  2.80s/it]Train NLL: 1.731, Val NLL: 1.769:  20%|██        | 60/300 [02:50<11:13,  2.81s/it]Train NLL: 1.642, Val NLL: 1.837:  20%|██        | 61/300 [02:53<11:07,  2.79s/it]Train NLL: 1.756, Val NLL: 1.788:  21%|██        | 62/300 [02:56<11:07,  2.80s/it]Train NLL: 1.625, Val NLL: 1.759:  21%|██        | 63/300 [02:58<11:03,  2.80s/it]Train NLL: 1.714, Val NLL: 1.708:  21%|██▏       | 64/300 [03:01<11:03,  2.81s/it]Train NLL: 1.670, Val NLL: 1.775:  22%|██▏       | 65/300 [03:04<10:57,  2.80s/it]Train NLL: 1.597, Val NLL: 1.752:  22%|██▏       | 66/300 [03:07<10:56,  2.80s/it]Train NLL: 1.568, Val NLL: 1.707:  22%|██▏       | 67/300 [03:10<10:51,  2.80s/it]Train NLL: 1.623, Val NLL: 1.815:  23%|██▎       | 68/300 [03:12<10:48,  2.80s/it]Train NLL: 1.616, Val NLL: 1.693:  23%|██▎       | 69/300 [03:15<10:48,  2.81s/it]Train NLL: 1.639, Val NLL: 1.670:  23%|██▎       | 70/300 [03:18<10:44,  2.80s/it]Train NLL: 1.581, Val NLL: 1.656:  24%|██▎       | 71/300 [03:21<10:43,  2.81s/it]Train NLL: 1.652, Val NLL: 1.881:  24%|██▍       | 72/300 [03:24<10:39,  2.81s/it]Train NLL: 1.746, Val NLL: 1.897:  24%|██▍       | 73/300 [03:26<10:37,  2.81s/it]Train NLL: 1.598, Val NLL: 1.805:  25%|██▍       | 74/300 [03:29<10:32,  2.80s/it]Train NLL: 1.577, Val NLL: 1.933:  25%|██▌       | 75/300 [03:32<10:31,  2.81s/it]Train NLL: 1.622, Val NLL: 1.725:  25%|██▌       | 76/300 [03:35<10:27,  2.80s/it]Train NLL: 1.813, Val NLL: 1.949:  26%|██▌       | 77/300 [03:38<10:26,  2.81s/it]Train NLL: 1.588, Val NLL: 1.637:  26%|██▌       | 78/300 [03:40<10:21,  2.80s/it]Train NLL: 1.540, Val NLL: 1.742:  26%|██▋       | 79/300 [03:43<10:19,  2.80s/it]Train NLL: 1.535, Val NLL: 1.848:  27%|██▋       | 80/300 [03:46<10:13,  2.79s/it]Train NLL: 1.613, Val NLL: 2.073:  27%|██▋       | 81/300 [03:49<10:12,  2.80s/it]Train NLL: 1.588, Val NLL: 1.690:  27%|██▋       | 82/300 [03:52<10:09,  2.79s/it]Train NLL: 1.603, Val NLL: 1.606:  28%|██▊       | 83/300 [03:54<10:07,  2.80s/it]Train NLL: 1.577, Val NLL: 1.769:  28%|██▊       | 84/300 [03:57<10:02,  2.79s/it]Train NLL: 1.518, Val NLL: 1.739:  28%|██▊       | 85/300 [04:00<10:01,  2.80s/it]Train NLL: 1.597, Val NLL: 1.809:  29%|██▊       | 86/300 [04:03<09:59,  2.80s/it]Train NLL: 1.575, Val NLL: 1.736:  29%|██▉       | 87/300 [04:06<09:57,  2.80s/it]Train NLL: 1.517, Val NLL: 1.853:  29%|██▉       | 88/300 [04:08<09:52,  2.79s/it]Train NLL: 1.554, Val NLL: 1.613:  30%|██▉       | 89/300 [04:11<09:49,  2.79s/it]Train NLL: 1.572, Val NLL: 1.794:  30%|███       | 90/300 [04:14<09:45,  2.79s/it]Train NLL: 1.686, Val NLL: 1.608:  30%|███       | 91/300 [04:17<09:43,  2.79s/it]Train NLL: 1.545, Val NLL: 1.623:  31%|███       | 92/300 [04:20<09:40,  2.79s/it]Train NLL: 1.487, Val NLL: 1.795:  31%|███       | 93/300 [04:22<09:38,  2.79s/it]Train NLL: 1.565, Val NLL: 1.763:  31%|███▏      | 94/300 [04:25<09:35,  2.79s/it]Train NLL: 1.523, Val NLL: 1.546:  32%|███▏      | 95/300 [04:28<09:33,  2.80s/it]Train NLL: 1.486, Val NLL: 1.647:  32%|███▏      | 96/300 [04:31<09:32,  2.80s/it]Train NLL: 1.475, Val NLL: 2.618:  32%|███▏      | 97/300 [04:34<09:27,  2.80s/it]Train NLL: 1.944, Val NLL: 1.795:  33%|███▎      | 98/300 [04:36<09:26,  2.80s/it]Train NLL: 1.504, Val NLL: 1.649:  33%|███▎      | 99/300 [04:39<09:22,  2.80s/it]Train NLL: 1.438, Val NLL: 1.689:  33%|███▎      | 100/300 [04:42<09:20,  2.80s/it]Train NLL: 1.527, Val NLL: 1.587:  34%|███▎      | 101/300 [04:45<09:16,  2.79s/it]Train NLL: 1.435, Val NLL: 1.565:  34%|███▍      | 102/300 [04:48<09:13,  2.80s/it]Train NLL: 1.512, Val NLL: 1.560:  34%|███▍      | 103/300 [04:50<09:09,  2.79s/it]Train NLL: 1.534, Val NLL: 2.001:  35%|███▍      | 104/300 [04:53<09:07,  2.79s/it]Train NLL: 1.688, Val NLL: 1.514:  35%|███▌      | 105/300 [04:56<09:03,  2.79s/it]Train NLL: 1.434, Val NLL: 1.773:  35%|███▌      | 106/300 [04:59<09:06,  2.81s/it]Train NLL: 1.452, Val NLL: 2.022:  36%|███▌      | 107/300 [05:02<09:03,  2.81s/it]Train NLL: 1.599, Val NLL: 1.592:  36%|███▌      | 108/300 [05:04<09:00,  2.81s/it]Train NLL: 1.696, Val NLL: 2.039:  36%|███▋      | 109/300 [05:07<08:54,  2.80s/it]Train NLL: 1.555, Val NLL: 1.541:  37%|███▋      | 110/300 [05:10<08:52,  2.80s/it]Train NLL: 1.424, Val NLL: 1.592:  37%|███▋      | 111/300 [05:13<08:48,  2.80s/it]Train NLL: 1.467, Val NLL: 1.728:  37%|███▋      | 112/300 [05:16<08:46,  2.80s/it]Train NLL: 1.508, Val NLL: 2.106:  38%|███▊      | 113/300 [05:18<08:42,  2.79s/it]Train NLL: 1.560, Val NLL: 1.669:  38%|███▊      | 114/300 [05:21<08:42,  2.81s/it]Train NLL: 1.620, Val NLL: 1.582:  38%|███▊      | 115/300 [05:24<08:38,  2.80s/it]Train NLL: 1.553, Val NLL: 1.661:  39%|███▊      | 116/300 [05:27<08:35,  2.80s/it]Train NLL: 1.462, Val NLL: 1.557:  39%|███▉      | 117/300 [05:30<08:31,  2.80s/it]Train NLL: 1.414, Val NLL: 1.677:  39%|███▉      | 118/300 [05:32<08:29,  2.80s/it]Train NLL: 1.585, Val NLL: 1.670:  40%|███▉      | 119/300 [05:35<08:26,  2.80s/it]Train NLL: 1.457, Val NLL: 1.834:  40%|████      | 120/300 [05:38<08:24,  2.80s/it]Train NLL: 1.451, Val NLL: 1.644:  40%|████      | 121/300 [05:41<08:21,  2.80s/it]Train NLL: 1.425, Val NLL: 1.653:  41%|████      | 122/300 [05:44<08:19,  2.80s/it]Train NLL: 1.637, Val NLL: 1.709:  41%|████      | 123/300 [05:46<08:16,  2.81s/it]Train NLL: 1.451, Val NLL: 1.782:  41%|████▏     | 124/300 [05:49<08:12,  2.80s/it]Train NLL: 1.450, Val NLL: 1.535:  42%|████▏     | 125/300 [05:52<08:10,  2.80s/it]Train NLL: 1.570, Val NLL: 1.526:  42%|████▏     | 126/300 [05:55<08:06,  2.79s/it]Train NLL: 1.538, Val NLL: 1.528:  42%|████▏     | 127/300 [05:58<08:05,  2.80s/it]Train NLL: 1.404, Val NLL: 1.508:  43%|████▎     | 128/300 [06:00<08:01,  2.80s/it]Train NLL: 1.631, Val NLL: 5.589:  43%|████▎     | 129/300 [06:03<08:00,  2.81s/it]Train NLL: 1.898, Val NLL: 1.611:  43%|████▎     | 130/300 [06:06<07:58,  2.81s/it]Train NLL: 1.497, Val NLL: 1.568:  44%|████▎     | 131/300 [06:09<07:56,  2.82s/it]Train NLL: 1.432, Val NLL: 1.841:  44%|████▍     | 132/300 [06:12<07:52,  2.81s/it]Train NLL: 1.512, Val NLL: 1.553:  44%|████▍     | 133/300 [06:15<07:49,  2.81s/it]Train NLL: 1.427, Val NLL: 1.518:  45%|████▍     | 134/300 [06:17<07:44,  2.80s/it]Train NLL: 1.416, Val NLL: 1.855:  45%|████▌     | 135/300 [06:20<07:42,  2.80s/it]Train NLL: 1.538, Val NLL: 1.868:  45%|████▌     | 136/300 [06:23<07:37,  2.79s/it]Train NLL: 1.504, Val NLL: 1.538:  46%|████▌     | 137/300 [06:26<07:35,  2.80s/it]Train NLL: 1.433, Val NLL: 1.563:  46%|████▌     | 138/300 [06:28<07:33,  2.80s/it]Train NLL: 1.403, Val NLL: 1.516:  46%|████▋     | 139/300 [06:31<07:31,  2.80s/it]Train NLL: 1.412, Val NLL: 1.536:  47%|████▋     | 140/300 [06:34<07:26,  2.79s/it]Train NLL: 1.442, Val NLL: 1.558:  47%|████▋     | 141/300 [06:37<07:25,  2.80s/it]Train NLL: 1.485, Val NLL: 2.093:  47%|████▋     | 142/300 [06:40<07:22,  2.80s/it]Train NLL: 1.665, Val NLL: 1.553:  48%|████▊     | 143/300 [06:42<07:20,  2.81s/it]Train NLL: 1.395, Val NLL: 1.602:  48%|████▊     | 144/300 [06:45<07:15,  2.79s/it]Train NLL: 1.417, Val NLL: 1.532:  48%|████▊     | 145/300 [06:48<07:13,  2.80s/it]Train NLL: 1.425, Val NLL: 1.515:  49%|████▊     | 146/300 [06:51<07:09,  2.79s/it]Train NLL: 1.449, Val NLL: 1.602:  49%|████▉     | 147/300 [06:54<07:07,  2.80s/it]Train NLL: 1.464, Val NLL: 1.502:  49%|████▉     | 148/300 [06:56<07:05,  2.80s/it]Train NLL: 1.366, Val NLL: 1.525:  50%|████▉     | 149/300 [06:59<07:04,  2.81s/it]Train NLL: 1.452, Val NLL: 1.549:  50%|█████     | 150/300 [07:02<07:01,  2.81s/it]Train NLL: 1.447, Val NLL: 1.605:  50%|█████     | 151/300 [07:05<06:59,  2.82s/it]Train NLL: 1.493, Val NLL: 1.586:  51%|█████     | 152/300 [07:08<06:56,  2.81s/it]Train NLL: 1.451, Val NLL: 1.563:  51%|█████     | 153/300 [07:11<06:52,  2.81s/it]Train NLL: 1.436, Val NLL: 1.519:  51%|█████▏    | 154/300 [07:13<06:50,  2.81s/it]Train NLL: 1.387, Val NLL: 1.473:  52%|█████▏    | 155/300 [07:16<06:45,  2.80s/it]Train NLL: 1.436, Val NLL: 1.678:  52%|█████▏    | 156/300 [07:19<06:44,  2.81s/it]Train NLL: 1.445, Val NLL: 1.526:  52%|█████▏    | 157/300 [07:22<06:40,  2.80s/it]Train NLL: 1.396, Val NLL: 1.652:  53%|█████▎    | 158/300 [07:25<06:37,  2.80s/it]Train NLL: 1.427, Val NLL: 1.452:  53%|█████▎    | 159/300 [07:27<06:34,  2.79s/it]Train NLL: 1.547, Val NLL: 1.512:  53%|█████▎    | 160/300 [07:30<06:33,  2.81s/it]Train NLL: 1.419, Val NLL: 1.553:  54%|█████▎    | 161/300 [07:33<06:28,  2.80s/it]Train NLL: 1.487, Val NLL: 1.543:  54%|█████▍    | 162/300 [07:36<06:27,  2.81s/it]Train NLL: 1.420, Val NLL: 1.552:  54%|█████▍    | 163/300 [07:39<06:22,  2.80s/it]Train NLL: 1.471, Val NLL: 1.536:  55%|█████▍    | 164/300 [07:41<06:20,  2.80s/it]Epoch   165: reducing learning rate of group 0 to 1.0000e-04.
Train NLL: 1.471, Val NLL: 1.460:  55%|█████▌    | 165/300 [07:44<06:17,  2.80s/it]Train NLL: 1.246, Val NLL: 1.380:  55%|█████▌    | 166/300 [07:47<06:18,  2.83s/it]Train NLL: 1.230, Val NLL: 1.380:  56%|█████▌    | 167/300 [07:50<06:14,  2.81s/it]Train NLL: 1.226, Val NLL: 1.386:  56%|█████▌    | 168/300 [07:53<06:14,  2.83s/it]Train NLL: 1.221, Val NLL: 1.385:  56%|█████▋    | 169/300 [07:55<06:08,  2.81s/it]Train NLL: 1.221, Val NLL: 1.378:  57%|█████▋    | 170/300 [07:58<06:05,  2.81s/it]Train NLL: 1.219, Val NLL: 1.379:  57%|█████▋    | 171/300 [08:01<06:01,  2.80s/it]Train NLL: 1.219, Val NLL: 1.385:  57%|█████▋    | 172/300 [08:04<05:59,  2.81s/it]Train NLL: 1.216, Val NLL: 1.383:  58%|█████▊    | 173/300 [08:07<05:56,  2.80s/it]Train NLL: 1.215, Val NLL: 1.377:  58%|█████▊    | 174/300 [08:09<05:54,  2.81s/it]Train NLL: 1.213, Val NLL: 1.375:  58%|█████▊    | 175/300 [08:12<05:49,  2.80s/it]Train NLL: 1.215, Val NLL: 1.377:  59%|█████▊    | 176/300 [08:15<05:46,  2.80s/it]Train NLL: 1.216, Val NLL: 1.379:  59%|█████▉    | 177/300 [08:18<05:42,  2.78s/it]Train NLL: 1.215, Val NLL: 1.387:  59%|█████▉    | 178/300 [08:21<05:40,  2.79s/it]Train NLL: 1.211, Val NLL: 1.393:  60%|█████▉    | 179/300 [08:23<05:37,  2.79s/it]Train NLL: 1.216, Val NLL: 1.382:  60%|██████    | 180/300 [08:26<05:35,  2.79s/it]Train NLL: 1.218, Val NLL: 1.414:  60%|██████    | 181/300 [08:29<05:32,  2.80s/it]Train NLL: 1.214, Val NLL: 1.390:  61%|██████    | 182/300 [08:32<05:30,  2.80s/it]Train NLL: 1.211, Val NLL: 1.383:  61%|██████    | 183/300 [08:35<05:28,  2.80s/it]Train NLL: 1.218, Val NLL: 1.387:  61%|██████▏   | 184/300 [08:37<05:24,  2.80s/it]Train NLL: 1.212, Val NLL: 1.392:  62%|██████▏   | 185/300 [08:40<05:22,  2.80s/it]Train NLL: 1.213, Val NLL: 1.387:  62%|██████▏   | 186/300 [08:43<05:18,  2.79s/it]Train NLL: 1.210, Val NLL: 1.373:  62%|██████▏   | 187/300 [08:46<05:16,  2.80s/it]Train NLL: 1.209, Val NLL: 1.371:  63%|██████▎   | 188/300 [08:49<05:13,  2.80s/it]Train NLL: 1.219, Val NLL: 1.382:  63%|██████▎   | 189/300 [08:51<05:10,  2.80s/it]Train NLL: 1.209, Val NLL: 1.398:  63%|██████▎   | 190/300 [08:54<05:07,  2.80s/it]Train NLL: 1.210, Val NLL: 1.400:  64%|██████▎   | 191/300 [08:57<05:05,  2.80s/it]Train NLL: 1.211, Val NLL: 1.382:  64%|██████▍   | 192/300 [09:00<05:01,  2.79s/it]Train NLL: 1.207, Val NLL: 1.386:  64%|██████▍   | 193/300 [09:03<04:59,  2.80s/it]Train NLL: 1.218, Val NLL: 1.373:  65%|██████▍   | 194/300 [09:05<04:56,  2.79s/it]Train NLL: 1.202, Val NLL: 1.368:  65%|██████▌   | 195/300 [09:08<04:53,  2.80s/it]Train NLL: 1.202, Val NLL: 1.377:  65%|██████▌   | 196/300 [09:11<04:50,  2.80s/it]Train NLL: 1.201, Val NLL: 1.378:  66%|██████▌   | 197/300 [09:14<04:49,  2.81s/it]Train NLL: 1.213, Val NLL: 1.394:  66%|██████▌   | 198/300 [09:17<04:45,  2.80s/it]Train NLL: 1.201, Val NLL: 1.405:  66%|██████▋   | 199/300 [09:19<04:43,  2.81s/it]Train NLL: 1.202, Val NLL: 1.371:  67%|██████▋   | 200/300 [09:22<04:39,  2.80s/it]Train NLL: 1.208, Val NLL: 1.376:  67%|██████▋   | 201/300 [09:25<04:40,  2.83s/it]Train NLL: 1.208, Val NLL: 1.391:  67%|██████▋   | 202/300 [09:28<04:35,  2.82s/it]Train NLL: 1.207, Val NLL: 1.376:  68%|██████▊   | 203/300 [09:31<04:32,  2.81s/it]Train NLL: 1.205, Val NLL: 1.404:  68%|██████▊   | 204/300 [09:34<04:30,  2.82s/it]Train NLL: 1.212, Val NLL: 1.377:  68%|██████▊   | 205/300 [09:36<04:26,  2.81s/it]Train NLL: 1.212, Val NLL: 1.370:  69%|██████▊   | 206/300 [09:39<04:23,  2.80s/it]Train NLL: 1.208, Val NLL: 1.376:  69%|██████▉   | 207/300 [09:42<04:21,  2.81s/it]Train NLL: 1.202, Val NLL: 1.376:  69%|██████▉   | 208/300 [09:45<04:17,  2.80s/it]Train NLL: 1.200, Val NLL: 1.396:  70%|██████▉   | 209/300 [09:48<04:15,  2.81s/it]Train NLL: 1.204, Val NLL: 1.371:  70%|███████   | 210/300 [09:50<04:12,  2.81s/it]Train NLL: 1.195, Val NLL: 1.376:  70%|███████   | 211/300 [09:53<04:09,  2.80s/it]Train NLL: 1.198, Val NLL: 1.364:  71%|███████   | 212/300 [09:56<04:06,  2.80s/it]Train NLL: 1.199, Val NLL: 1.393:  71%|███████   | 213/300 [09:59<04:02,  2.79s/it]Train NLL: 1.198, Val NLL: 1.371:  71%|███████▏  | 214/300 [10:01<04:00,  2.80s/it]Train NLL: 1.196, Val NLL: 1.373:  72%|███████▏  | 215/300 [10:04<03:57,  2.79s/it]Train NLL: 1.210, Val NLL: 1.363:  72%|███████▏  | 216/300 [10:07<03:55,  2.80s/it]Train NLL: 1.208, Val NLL: 1.377:  72%|███████▏  | 217/300 [10:10<03:51,  2.79s/it]Train NLL: 1.194, Val NLL: 1.366:  73%|███████▎  | 218/300 [10:13<03:49,  2.80s/it]Train NLL: 1.203, Val NLL: 1.376:  73%|███████▎  | 219/300 [10:15<03:46,  2.79s/it]Train NLL: 1.203, Val NLL: 1.365:  73%|███████▎  | 220/300 [10:18<03:43,  2.80s/it]Train NLL: 1.204, Val NLL: 1.379:  74%|███████▎  | 221/300 [10:21<03:40,  2.79s/it]Train NLL: 1.198, Val NLL: 1.369:  74%|███████▍  | 222/300 [10:24<03:38,  2.81s/it]Train NLL: 1.193, Val NLL: 1.367:  74%|███████▍  | 223/300 [10:27<03:35,  2.80s/it]Train NLL: 1.191, Val NLL: 1.368:  75%|███████▍  | 224/300 [10:29<03:33,  2.81s/it]Train NLL: 1.192, Val NLL: 1.398:  75%|███████▌  | 225/300 [10:32<03:29,  2.79s/it]Train NLL: 1.202, Val NLL: 1.391:  75%|███████▌  | 226/300 [10:35<03:27,  2.80s/it]Train NLL: 1.193, Val NLL: 1.401:  76%|███████▌  | 227/300 [10:38<03:23,  2.79s/it]Train NLL: 1.209, Val NLL: 1.386:  76%|███████▌  | 228/300 [10:41<03:21,  2.79s/it]Train NLL: 1.199, Val NLL: 1.374:  76%|███████▋  | 229/300 [10:43<03:18,  2.79s/it]Train NLL: 1.196, Val NLL: 1.376:  77%|███████▋  | 230/300 [10:46<03:16,  2.80s/it]Train NLL: 1.193, Val NLL: 1.370:  77%|███████▋  | 231/300 [10:49<03:13,  2.80s/it]Train NLL: 1.189, Val NLL: 1.386:  77%|███████▋  | 232/300 [10:52<03:10,  2.80s/it]Train NLL: 1.188, Val NLL: 1.382:  78%|███████▊  | 233/300 [10:55<03:07,  2.80s/it]Train NLL: 1.191, Val NLL: 1.389:  78%|███████▊  | 234/300 [10:57<03:05,  2.81s/it]Train NLL: 1.198, Val NLL: 1.389:  78%|███████▊  | 235/300 [11:00<03:01,  2.80s/it]Train NLL: 1.207, Val NLL: 1.399:  79%|███████▊  | 236/300 [11:03<02:59,  2.80s/it]Train NLL: 1.190, Val NLL: 1.364:  79%|███████▉  | 237/300 [11:06<02:56,  2.80s/it]Train NLL: 1.199, Val NLL: 1.373:  79%|███████▉  | 238/300 [11:09<02:53,  2.80s/it]Train NLL: 1.199, Val NLL: 1.429:  80%|███████▉  | 239/300 [11:11<02:50,  2.80s/it]Train NLL: 1.196, Val NLL: 1.366:  80%|████████  | 240/300 [11:14<02:48,  2.80s/it]Train NLL: 1.190, Val NLL: 1.359:  80%|████████  | 241/300 [11:17<02:45,  2.81s/it]Train NLL: 1.195, Val NLL: 1.370:  81%|████████  | 242/300 [11:20<02:42,  2.80s/it]Train NLL: 1.195, Val NLL: 1.368:  81%|████████  | 243/300 [11:23<02:39,  2.81s/it]Train NLL: 1.197, Val NLL: 1.377:  81%|████████▏ | 244/300 [11:25<02:36,  2.79s/it]Train NLL: 1.195, Val NLL: 1.410:  82%|████████▏ | 245/300 [11:28<02:34,  2.80s/it]Train NLL: 1.199, Val NLL: 1.380:  82%|████████▏ | 246/300 [11:31<02:31,  2.80s/it]Train NLL: 1.186, Val NLL: 1.367:  82%|████████▏ | 247/300 [11:34<02:28,  2.80s/it]Train NLL: 1.190, Val NLL: 1.401:  83%|████████▎ | 248/300 [11:37<02:25,  2.79s/it]Train NLL: 1.193, Val NLL: 1.371:  83%|████████▎ | 249/300 [11:39<02:22,  2.80s/it]Train NLL: 1.199, Val NLL: 1.369:  83%|████████▎ | 250/300 [11:42<02:19,  2.79s/it]Train NLL: 1.187, Val NLL: 1.367:  84%|████████▎ | 251/300 [11:45<02:16,  2.79s/it]Train NLL: 1.191, Val NLL: 1.380:  84%|████████▍ | 252/300 [11:48<02:13,  2.79s/it]Train NLL: 1.184, Val NLL: 1.375:  84%|████████▍ | 253/300 [11:51<02:11,  2.80s/it]Train NLL: 1.195, Val NLL: 1.368:  85%|████████▍ | 254/300 [11:53<02:08,  2.80s/it]Train NLL: 1.189, Val NLL: 1.379:  85%|████████▌ | 255/300 [11:56<02:07,  2.83s/it]Train NLL: 1.187, Val NLL: 1.398:  85%|████████▌ | 256/300 [11:59<02:03,  2.82s/it]Train NLL: 1.196, Val NLL: 1.379:  86%|████████▌ | 257/300 [12:02<02:01,  2.82s/it]Train NLL: 1.187, Val NLL: 1.382:  86%|████████▌ | 258/300 [12:05<01:57,  2.81s/it]Train NLL: 1.198, Val NLL: 1.368:  86%|████████▋ | 259/300 [12:07<01:54,  2.80s/it]Train NLL: 1.193, Val NLL: 1.356:  87%|████████▋ | 260/300 [12:10<01:51,  2.79s/it]Train NLL: 1.197, Val NLL: 1.389:  87%|████████▋ | 261/300 [12:13<01:49,  2.80s/it]Train NLL: 1.197, Val NLL: 1.362:  87%|████████▋ | 262/300 [12:16<01:46,  2.79s/it]Train NLL: 1.191, Val NLL: 1.376:  88%|████████▊ | 263/300 [12:19<01:43,  2.80s/it]Train NLL: 1.206, Val NLL: 1.405:  88%|████████▊ | 264/300 [12:21<01:40,  2.79s/it]Train NLL: 1.195, Val NLL: 1.373:  88%|████████▊ | 265/300 [12:24<01:37,  2.80s/it]Train NLL: 1.183, Val NLL: 1.375:  89%|████████▊ | 266/300 [12:27<01:34,  2.79s/it]Train NLL: 1.188, Val NLL: 1.392:  89%|████████▉ | 267/300 [12:30<01:32,  2.80s/it]Train NLL: 1.191, Val NLL: 1.373:  89%|████████▉ | 268/300 [12:33<01:29,  2.79s/it]Train NLL: 1.187, Val NLL: 1.375:  90%|████████▉ | 269/300 [12:35<01:26,  2.80s/it]Train NLL: 1.185, Val NLL: 1.370:  90%|█████████ | 270/300 [12:38<01:23,  2.80s/it]Train NLL: 1.185, Val NLL: 1.368:  90%|█████████ | 271/300 [12:41<01:21,  2.80s/it]Train NLL: 1.188, Val NLL: 1.378:  91%|█████████ | 272/300 [12:44<01:18,  2.80s/it]Train NLL: 1.193, Val NLL: 1.378:  91%|█████████ | 273/300 [12:47<01:15,  2.80s/it]Train NLL: 1.186, Val NLL: 1.379:  91%|█████████▏| 274/300 [12:49<01:12,  2.80s/it]Train NLL: 1.183, Val NLL: 1.385:  92%|█████████▏| 275/300 [12:52<01:09,  2.80s/it]Train NLL: 1.185, Val NLL: 1.371:  92%|█████████▏| 276/300 [12:55<01:07,  2.80s/it]Train NLL: 1.185, Val NLL: 1.362:  92%|█████████▏| 277/300 [12:58<01:04,  2.80s/it]Train NLL: 1.185, Val NLL: 1.374:  93%|█████████▎| 278/300 [13:01<01:01,  2.81s/it]Train NLL: 1.202, Val NLL: 1.363:  93%|█████████▎| 279/300 [13:03<00:58,  2.80s/it]Train NLL: 1.188, Val NLL: 1.374:  93%|█████████▎| 280/300 [13:06<00:56,  2.81s/it]Train NLL: 1.187, Val NLL: 1.374:  94%|█████████▎| 281/300 [13:09<00:53,  2.80s/it]Train NLL: 1.186, Val NLL: 1.366:  94%|█████████▍| 282/300 [13:12<00:50,  2.81s/it]Train NLL: 1.189, Val NLL: 1.368:  94%|█████████▍| 283/300 [13:15<00:47,  2.80s/it]Train NLL: 1.187, Val NLL: 1.365:  95%|█████████▍| 284/300 [13:17<00:44,  2.80s/it]Train NLL: 1.183, Val NLL: 1.383:  95%|█████████▌| 285/300 [13:20<00:41,  2.79s/it]Train NLL: 1.182, Val NLL: 1.364:  95%|█████████▌| 286/300 [13:23<00:39,  2.79s/it]Train NLL: 1.184, Val NLL: 1.377:  96%|█████████▌| 287/300 [13:26<00:36,  2.79s/it]Train NLL: 1.182, Val NLL: 1.385:  96%|█████████▌| 288/300 [13:29<00:33,  2.80s/it]Train NLL: 1.188, Val NLL: 1.352:  96%|█████████▋| 289/300 [13:31<00:30,  2.79s/it]Train NLL: 1.179, Val NLL: 1.366:  97%|█████████▋| 290/300 [13:34<00:27,  2.80s/it]Train NLL: 1.181, Val NLL: 1.359:  97%|█████████▋| 291/300 [13:37<00:25,  2.79s/it]Train NLL: 1.187, Val NLL: 1.372:  97%|█████████▋| 292/300 [13:40<00:22,  2.79s/it]Train NLL: 1.185, Val NLL: 1.369:  98%|█████████▊| 293/300 [13:43<00:19,  2.78s/it]Train NLL: 1.182, Val NLL: 1.381:  98%|█████████▊| 294/300 [13:45<00:16,  2.79s/it]Train NLL: 1.183, Val NLL: 1.361:  98%|█████████▊| 295/300 [13:48<00:13,  2.79s/it]Train NLL: 1.180, Val NLL: 1.372:  99%|█████████▊| 296/300 [13:51<00:11,  2.80s/it]Train NLL: 1.184, Val NLL: 1.389:  99%|█████████▉| 297/300 [13:54<00:08,  2.79s/it]Train NLL: 1.195, Val NLL: 1.406:  99%|█████████▉| 298/300 [13:57<00:05,  2.80s/it]Train NLL: 1.185, Val NLL: 1.375: 100%|█████████▉| 299/300 [13:59<00:02,  2.79s/it]Train NLL: 1.179, Val NLL: 1.375: 100%|██████████| 300/300 [14:02<00:00,  2.80s/it]Train NLL: 1.179, Val NLL: 1.375: 100%|██████████| 300/300 [14:02<00:00,  2.81s/it]
