{
  "test": {
    "steps": [
      0
    ],
    "timestamps": [
      "2022-08-08T17:49:08.465477"
    ],
    "values": [
      11.574011975019605
    ]
  },
  "train": {
    "steps": [
      0,
      1,
      2,
      3,
      4,
      5,
      6,
      7,
      8,
      9,
      10,
      11,
      12,
      13,
      14,
      15,
      16,
      17,
      18,
      19,
      20,
      21,
      22,
      23,
      24,
      25,
      26,
      27,
      28,
      29,
      30,
      31,
      32,
      33,
      34,
      35,
      36,
      37,
      38,
      39,
      40,
      41,
      42,
      43,
      44,
      45,
      46,
      47,
      48,
      49,
      50,
      51,
      52,
      53,
      54,
      55,
      56,
      57,
      58,
      59,
      60,
      61,
      62,
      63,
      64,
      65,
      66,
      67,
      68,
      69,
      70,
      71,
      72,
      73,
      74,
      75,
      76,
      77,
      78,
      79,
      80,
      81,
      82,
      83,
      84,
      85,
      86,
      87,
      88,
      89,
      90,
      91,
      92,
      93,
      94,
      95,
      96,
      97,
      98,
      99,
      100,
      101,
      102,
      103,
      104,
      105,
      106,
      107,
      108,
      109,
      110,
      111,
      112,
      113,
      114,
      115,
      116,
      117,
      118,
      119,
      120,
      121,
      122,
      123,
      124,
      125,
      126,
      127,
      128,
      129,
      130,
      131,
      132,
      133,
      134,
      135,
      136,
      137,
      138,
      139,
      140,
      141,
      142,
      143,
      144,
      145,
      146,
      147,
      148,
      149,
      150,
      151,
      152,
      153,
      154,
      155,
      156,
      157,
      158,
      159,
      160,
      161,
      162,
      163,
      164,
      165,
      166,
      167,
      168,
      169,
      170,
      171,
      172,
      173,
      174,
      175,
      176,
      177,
      178,
      179,
      180,
      181,
      182,
      183,
      184,
      185,
      186,
      187,
      188,
      189,
      190,
      191,
      192,
      193,
      194,
      195,
      196,
      197,
      198,
      199,
      200,
      201,
      202,
      203,
      204,
      205,
      206,
      207,
      208,
      209,
      210,
      211,
      212,
      213,
      214,
      215,
      216,
      217,
      218,
      219,
      220,
      221,
      222,
      223,
      224,
      225,
      226,
      227,
      228,
      229,
      230,
      231,
      232,
      233,
      234,
      235,
      236,
      237,
      238,
      239,
      240,
      241,
      242,
      243,
      244,
      245,
      246,
      247,
      248,
      249,
      250,
      251,
      252,
      253,
      254,
      255,
      256,
      257,
      258,
      259,
      260,
      261,
      262,
      263,
      264,
      265,
      266,
      267,
      268,
      269,
      270,
      271,
      272,
      273,
      274,
      275,
      276,
      277,
      278,
      279,
      280,
      281,
      282,
      283,
      284,
      285,
      286,
      287,
      288,
      289,
      290,
      291,
      292,
      293,
      294,
      295,
      296,
      297,
      298,
      299
    ],
    "timestamps": [
      "2022-08-08T17:45:30.270365",
      "2022-08-08T17:45:30.993877",
      "2022-08-08T17:45:31.684750",
      "2022-08-08T17:45:32.469254",
      "2022-08-08T17:45:33.875240",
      "2022-08-08T17:45:34.936713",
      "2022-08-08T17:45:35.620229",
      "2022-08-08T17:45:36.296229",
      "2022-08-08T17:45:36.982175",
      "2022-08-08T17:45:37.664148",
      "2022-08-08T17:45:38.362896",
      "2022-08-08T17:45:39.169050",
      "2022-08-08T17:45:40.022578",
      "2022-08-08T17:45:40.768682",
      "2022-08-08T17:45:41.519232",
      "2022-08-08T17:45:42.205437",
      "2022-08-08T17:45:42.890597",
      "2022-08-08T17:45:43.572940",
      "2022-08-08T17:45:44.286577",
      "2022-08-08T17:45:45.027242",
      "2022-08-08T17:45:45.769988",
      "2022-08-08T17:45:46.516871",
      "2022-08-08T17:45:47.205280",
      "2022-08-08T17:45:47.881902",
      "2022-08-08T17:45:48.564230",
      "2022-08-08T17:45:49.247170",
      "2022-08-08T17:45:49.980535",
      "2022-08-08T17:45:50.715657",
      "2022-08-08T17:45:51.449131",
      "2022-08-08T17:45:52.124831",
      "2022-08-08T17:45:52.817285",
      "2022-08-08T17:45:53.501291",
      "2022-08-08T17:45:54.187398",
      "2022-08-08T17:45:55.041651",
      "2022-08-08T17:45:56.135505",
      "2022-08-08T17:45:57.066388",
      "2022-08-08T17:45:57.748469",
      "2022-08-08T17:45:58.417697",
      "2022-08-08T17:45:59.099810",
      "2022-08-08T17:45:59.786146",
      "2022-08-08T17:46:00.481245",
      "2022-08-08T17:46:01.195907",
      "2022-08-08T17:46:01.935066",
      "2022-08-08T17:46:02.671568",
      "2022-08-08T17:46:03.431194",
      "2022-08-08T17:46:04.116076",
      "2022-08-08T17:46:04.809465",
      "2022-08-08T17:46:05.495658",
      "2022-08-08T17:46:06.177201",
      "2022-08-08T17:46:06.860917",
      "2022-08-08T17:46:07.552369",
      "2022-08-08T17:46:08.338779",
      "2022-08-08T17:46:09.078244",
      "2022-08-08T17:46:09.810322",
      "2022-08-08T17:46:10.568212",
      "2022-08-08T17:46:11.280178",
      "2022-08-08T17:46:12.078636",
      "2022-08-08T17:46:12.757497",
      "2022-08-08T17:46:13.468104",
      "2022-08-08T17:46:14.204356",
      "2022-08-08T17:46:14.948817",
      "2022-08-08T17:46:15.712049",
      "2022-08-08T17:46:16.391856",
      "2022-08-08T17:46:17.065913",
      "2022-08-08T17:46:17.739020",
      "2022-08-08T17:46:18.414991",
      "2022-08-08T17:46:19.152733",
      "2022-08-08T17:46:19.876240",
      "2022-08-08T17:46:20.678084",
      "2022-08-08T17:46:21.353808",
      "2022-08-08T17:46:22.034069",
      "2022-08-08T17:46:22.702515",
      "2022-08-08T17:46:23.380148",
      "2022-08-08T17:46:24.117792",
      "2022-08-08T17:46:24.879594",
      "2022-08-08T17:46:25.738663",
      "2022-08-08T17:46:26.418235",
      "2022-08-08T17:46:27.087350",
      "2022-08-08T17:46:27.762814",
      "2022-08-08T17:46:28.432291",
      "2022-08-08T17:46:29.115829",
      "2022-08-08T17:46:29.795058",
      "2022-08-08T17:46:30.470126",
      "2022-08-08T17:46:31.210785",
      "2022-08-08T17:46:31.940188",
      "2022-08-08T17:46:32.715485",
      "2022-08-08T17:46:33.406496",
      "2022-08-08T17:46:34.197973",
      "2022-08-08T17:46:34.872841",
      "2022-08-08T17:46:35.556588",
      "2022-08-08T17:46:36.236811",
      "2022-08-08T17:46:36.943189",
      "2022-08-08T17:46:37.671249",
      "2022-08-08T17:46:38.389516",
      "2022-08-08T17:46:39.158330",
      "2022-08-08T17:46:39.838524",
      "2022-08-08T17:46:40.520173",
      "2022-08-08T17:46:41.190578",
      "2022-08-08T17:46:41.896235",
      "2022-08-08T17:46:42.624974",
      "2022-08-08T17:46:43.357791",
      "2022-08-08T17:46:44.198997",
      "2022-08-08T17:46:44.874393",
      "2022-08-08T17:46:45.546540",
      "2022-08-08T17:46:46.291024",
      "2022-08-08T17:46:46.961723",
      "2022-08-08T17:46:47.689762",
      "2022-08-08T17:46:48.429725",
      "2022-08-08T17:46:49.213034",
      "2022-08-08T17:46:49.909241",
      "2022-08-08T17:46:50.592122",
      "2022-08-08T17:46:51.267127",
      "2022-08-08T17:46:51.938270",
      "2022-08-08T17:46:52.628599",
      "2022-08-08T17:46:53.359231",
      "2022-08-08T17:46:54.088466",
      "2022-08-08T17:46:54.852391",
      "2022-08-08T17:46:55.546300",
      "2022-08-08T17:46:56.223132",
      "2022-08-08T17:46:56.900787",
      "2022-08-08T17:46:57.613214",
      "2022-08-08T17:46:58.325454",
      "2022-08-08T17:46:59.251818",
      "2022-08-08T17:47:00.076252",
      "2022-08-08T17:47:00.762562",
      "2022-08-08T17:47:01.431722",
      "2022-08-08T17:47:02.103121",
      "2022-08-08T17:47:02.775695",
      "2022-08-08T17:47:03.504750",
      "2022-08-08T17:47:04.294487",
      "2022-08-08T17:47:05.023876",
      "2022-08-08T17:47:05.766327",
      "2022-08-08T17:47:06.441742",
      "2022-08-08T17:47:07.148160",
      "2022-08-08T17:47:07.843278",
      "2022-08-08T17:47:08.548072",
      "2022-08-08T17:47:09.542630",
      "2022-08-08T17:47:10.482315",
      "2022-08-08T17:47:11.168111",
      "2022-08-08T17:47:11.848038",
      "2022-08-08T17:47:12.540343",
      "2022-08-08T17:47:13.223102",
      "2022-08-08T17:47:13.951432",
      "2022-08-08T17:47:14.679198",
      "2022-08-08T17:47:15.411659",
      "2022-08-08T17:47:16.167732",
      "2022-08-08T17:47:16.849575",
      "2022-08-08T17:47:17.525181",
      "2022-08-08T17:47:18.202733",
      "2022-08-08T17:47:18.878214",
      "2022-08-08T17:47:19.569891",
      "2022-08-08T17:47:20.249162",
      "2022-08-08T17:47:20.969956",
      "2022-08-08T17:47:21.702948",
      "2022-08-08T17:47:22.540852",
      "2022-08-08T17:47:23.228938",
      "2022-08-08T17:47:23.908534",
      "2022-08-08T17:47:24.590296",
      "2022-08-08T17:47:25.275112",
      "2022-08-08T17:47:25.954990",
      "2022-08-08T17:47:26.641081",
      "2022-08-08T17:47:27.357515",
      "2022-08-08T17:47:28.148854",
      "2022-08-08T17:47:28.922178",
      "2022-08-08T17:47:29.650049",
      "2022-08-08T17:47:30.323036",
      "2022-08-08T17:47:31.002315",
      "2022-08-08T17:47:31.682110",
      "2022-08-08T17:47:32.371346",
      "2022-08-08T17:47:33.419432",
      "2022-08-08T17:47:34.424048",
      "2022-08-08T17:47:35.230701",
      "2022-08-08T17:47:35.916523",
      "2022-08-08T17:47:36.593924",
      "2022-08-08T17:47:37.279126",
      "2022-08-08T17:47:38.135374",
      "2022-08-08T17:47:39.216139",
      "2022-08-08T17:47:40.149402",
      "2022-08-08T17:47:40.828611",
      "2022-08-08T17:47:41.497270",
      "2022-08-08T17:47:42.172628",
      "2022-08-08T17:47:42.858625",
      "2022-08-08T17:47:43.605563",
      "2022-08-08T17:47:44.340758",
      "2022-08-08T17:47:45.089698",
      "2022-08-08T17:47:45.763486",
      "2022-08-08T17:47:46.439739",
      "2022-08-08T17:47:47.118860",
      "2022-08-08T17:47:47.796796",
      "2022-08-08T17:47:48.471613",
      "2022-08-08T17:47:49.158253",
      "2022-08-08T17:47:49.837363",
      "2022-08-08T17:47:50.526424",
      "2022-08-08T17:47:51.303715",
      "2022-08-08T17:47:52.053204",
      "2022-08-08T17:47:52.782110",
      "2022-08-08T17:47:53.462190",
      "2022-08-08T17:47:54.144325",
      "2022-08-08T17:47:54.827938",
      "2022-08-08T17:47:55.502277",
      "2022-08-08T17:47:56.185988",
      "2022-08-08T17:47:56.886444",
      "2022-08-08T17:47:57.612435",
      "2022-08-08T17:47:58.338666",
      "2022-08-08T17:47:59.099768",
      "2022-08-08T17:47:59.783775",
      "2022-08-08T17:48:00.468261",
      "2022-08-08T17:48:01.150138",
      "2022-08-08T17:48:01.829712",
      "2022-08-08T17:48:02.584616",
      "2022-08-08T17:48:03.354174",
      "2022-08-08T17:48:04.053350",
      "2022-08-08T17:48:04.747498",
      "2022-08-08T17:48:05.424687",
      "2022-08-08T17:48:06.103273",
      "2022-08-08T17:48:06.776146",
      "2022-08-08T17:48:07.495731",
      "2022-08-08T17:48:08.237937",
      "2022-08-08T17:48:09.025022",
      "2022-08-08T17:48:09.727117",
      "2022-08-08T17:48:10.416959",
      "2022-08-08T17:48:11.095009",
      "2022-08-08T17:48:11.778709",
      "2022-08-08T17:48:12.568710",
      "2022-08-08T17:48:13.490088",
      "2022-08-08T17:48:14.289519",
      "2022-08-08T17:48:14.979358",
      "2022-08-08T17:48:15.669360",
      "2022-08-08T17:48:16.355348",
      "2022-08-08T17:48:17.034538",
      "2022-08-08T17:48:17.732018",
      "2022-08-08T17:48:18.519552",
      "2022-08-08T17:48:19.417027",
      "2022-08-08T17:48:20.364556",
      "2022-08-08T17:48:21.030941",
      "2022-08-08T17:48:21.697227",
      "2022-08-08T17:48:22.366429",
      "2022-08-08T17:48:23.034290",
      "2022-08-08T17:48:23.752742",
      "2022-08-08T17:48:24.478912",
      "2022-08-08T17:48:25.524612",
      "2022-08-08T17:48:26.240873",
      "2022-08-08T17:48:26.918800",
      "2022-08-08T17:48:27.592954",
      "2022-08-08T17:48:28.271110",
      "2022-08-08T17:48:28.996269",
      "2022-08-08T17:48:29.725722",
      "2022-08-08T17:48:30.451116",
      "2022-08-08T17:48:31.149581",
      "2022-08-08T17:48:31.819602",
      "2022-08-08T17:48:32.498299",
      "2022-08-08T17:48:33.168168",
      "2022-08-08T17:48:33.862427",
      "2022-08-08T17:48:34.602543",
      "2022-08-08T17:48:35.332313",
      "2022-08-08T17:48:36.118276",
      "2022-08-08T17:48:36.798287",
      "2022-08-08T17:48:37.470968",
      "2022-08-08T17:48:38.148214",
      "2022-08-08T17:48:38.822157",
      "2022-08-08T17:48:39.515349",
      "2022-08-08T17:48:40.234816",
      "2022-08-08T17:48:41.018883",
      "2022-08-08T17:48:41.944703",
      "2022-08-08T17:48:42.780048",
      "2022-08-08T17:48:43.451115",
      "2022-08-08T17:48:44.125152",
      "2022-08-08T17:48:44.802541",
      "2022-08-08T17:48:45.486374",
      "2022-08-08T17:48:46.169314",
      "2022-08-08T17:48:46.856298",
      "2022-08-08T17:48:47.565271",
      "2022-08-08T17:48:48.286644",
      "2022-08-08T17:48:49.009476",
      "2022-08-08T17:48:49.810736",
      "2022-08-08T17:48:50.482309",
      "2022-08-08T17:48:51.153673",
      "2022-08-08T17:48:51.841806",
      "2022-08-08T17:48:52.518771",
      "2022-08-08T17:48:53.253581",
      "2022-08-08T17:48:54.041100",
      "2022-08-08T17:48:54.809757",
      "2022-08-08T17:48:55.485304",
      "2022-08-08T17:48:56.251167",
      "2022-08-08T17:48:56.921454",
      "2022-08-08T17:48:57.630002",
      "2022-08-08T17:48:58.373407",
      "2022-08-08T17:48:59.109836",
      "2022-08-08T17:48:59.889203",
      "2022-08-08T17:49:00.589215",
      "2022-08-08T17:49:01.281006",
      "2022-08-08T17:49:01.961945",
      "2022-08-08T17:49:02.644374",
      "2022-08-08T17:49:03.419940",
      "2022-08-08T17:49:04.511804",
      "2022-08-08T17:49:05.575063",
      "2022-08-08T17:49:06.283037",
      "2022-08-08T17:49:06.965273",
      "2022-08-08T17:49:07.650019",
      "2022-08-08T17:49:08.334465"
    ],
    "values": [
      12.668834987017997,
      11.903691008499077,
      11.649277518366999,
      11.573922841378856,
      11.523144030656299,
      11.46683033460937,
      11.4651006907059,
      11.432227748988762,
      11.412189625686752,
      11.397842378293298,
      11.395160299195224,
      11.403780341677066,
      11.387772874220099,
      11.368309984174191,
      11.356999473078908,
      11.351503080203136,
      11.362024367134286,
      11.33758732306903,
      11.351718127288997,
      11.338162867412398,
      11.315638160478688,
      11.340399070436185,
      11.330751089150853,
      11.326990763258669,
      11.313518008468277,
      11.335370609542288,
      11.296521494920528,
      11.30132629521976,
      11.28823801508555,
      11.313859539390235,
      11.295219842401888,
      11.31386472703394,
      11.294166666428948,
      11.282096456812182,
      11.28682722471723,
      11.283076608848605,
      11.3054585891172,
      11.28493925481576,
      11.29143781588356,
      11.291306026755947,
      11.286406816221039,
      11.282945831444207,
      11.274925202699436,
      11.267828771570116,
      11.263193384384731,
      11.282929334909342,
      11.270818640621568,
      11.300039946424683,
      11.268914838120068,
      11.26031652401082,
      11.274043679810884,
      11.260935605633216,
      11.260518677319112,
      11.279855873143891,
      11.26599077449961,
      11.262857034368176,
      11.25475222408432,
      11.261016132825304,
      11.262802795300738,
      11.264235401212396,
      11.251118367677714,
      11.254834495038835,
      11.250203183501014,
      11.270514028608074,
      11.255223954947837,
      11.265867939281039,
      11.26053237837165,
      11.245403074823901,
      11.249795127240848,
      11.248272262046887,
      11.248543820960458,
      11.247488100416208,
      11.244345476112104,
      11.24400786732742,
      11.266030273972722,
      11.259652886296589,
      11.251838286186485,
      11.240741459818619,
      11.235397262936665,
      11.236889188287446,
      11.227246019709973,
      11.226990897645857,
      11.21117223066361,
      11.213997748729364,
      11.210155745859149,
      11.212749652266806,
      11.206793487153007,
      11.191722966431774,
      11.199053275051854,
      11.198325619675751,
      11.192649334444047,
      11.188372345322339,
      11.200185654575144,
      11.18510271943598,
      11.176280632031455,
      11.180652648512922,
      11.194767846859358,
      11.183102724630839,
      11.191909979763066,
      11.182428005707296,
      11.181143331309386,
      11.185936727365767,
      11.190709714225276,
      11.183815905261332,
      11.176521623317448,
      11.17257705102503,
      11.18623049986506,
      11.178413584236782,
      11.186230945144137,
      11.19487018064714,
      11.181030175645724,
      11.173060199778899,
      11.177415587336963,
      11.16687362005556,
      11.16669378196269,
      11.168101499438245,
      11.16825406425255,
      11.18307363559129,
      11.168445624650241,
      11.176078548757888,
      11.169761339238303,
      11.16701942090255,
      11.173712920467963,
      11.168595156184221,
      11.15890776604236,
      11.15878785604957,
      11.169668541809342,
      11.183574670537771,
      11.17141439236163,
      11.170096417668406,
      11.160435747623785,
      11.180494620148684,
      11.168859117863448,
      11.168155030896585,
      11.175862393683513,
      11.185531533378786,
      11.16854493616675,
      11.16712694844893,
      11.164540855091637,
      11.16173097852351,
      11.159737636097038,
      11.153398795663382,
      11.176741957443115,
      11.15835893358932,
      11.16016990053662,
      11.152599309565735,
      11.147900575464456,
      11.159542772994506,
      11.15603222097547,
      11.15085740398862,
      11.161101354426378,
      11.156096800359594,
      11.166588129318118,
      11.158131534751579,
      11.155051058081547,
      11.161138054476199,
      11.165812394882737,
      11.151678791435193,
      11.15206857255547,
      11.156117932591153,
      11.154600020948731,
      11.164236253235195,
      11.155403963213203,
      11.151933989771413,
      11.156474724072558,
      11.149381448678696,
      11.1510373852336,
      11.167684195489905,
      11.117268572115123,
      11.106430298670304,
      11.104170934740853,
      11.10364741658851,
      11.103012020028654,
      11.103299026203304,
      11.103245298247193,
      11.10401980809029,
      11.101581014137928,
      11.102000429348799,
      11.103460535628507,
      11.100807386511164,
      11.103589319753077,
      11.102901190668836,
      11.102816996389786,
      11.103707623678753,
      11.102611374046958,
      11.101702946257213,
      11.100036796000536,
      11.100803843213004,
      11.100690068652574,
      11.101285149333252,
      11.099735843374875,
      11.100522133238728,
      11.101794763036274,
      11.101099316782472,
      11.100668218970824,
      11.102271195955876,
      11.100982481736068,
      11.101432738231878,
      11.099788335636584,
      11.100721805560704,
      11.09909816419773,
      11.100220571291805,
      11.099930528699906,
      11.10109579529925,
      11.101085216822717,
      11.098265827143443,
      11.101802557935804,
      11.100202370644572,
      11.099729998209016,
      11.100644997049958,
      11.1003372409245,
      11.101474857670292,
      11.099901454286009,
      11.099947568261255,
      11.100193460770374,
      11.098397708970749,
      11.099799733167767,
      11.098861873827298,
      11.099070310806967,
      11.100767694306233,
      11.100227258348061,
      11.100411501483352,
      11.099443019984033,
      11.098321167971807,
      11.099873681442215,
      11.098405104177234,
      11.099639192871743,
      11.09407573525044,
      11.092811371918824,
      11.09243925577829,
      11.092156808523598,
      11.09179165038757,
      11.091892428195116,
      11.09172682695654,
      11.091658870209795,
      11.091773174876824,
      11.091639129500573,
      11.091602100927801,
      11.091579422997903,
      11.091836609572024,
      11.091707852063923,
      11.091529922429729,
      11.091633902602714,
      11.091516749787695,
      11.091524705611912,
      11.091475450491567,
      11.091573109087454,
      11.091448761576416,
      11.091514691977466,
      11.091407820745953,
      11.091470617563248,
      11.091233137618222,
      11.091452645015693,
      11.091504829159478,
      11.091540418646987,
      11.09134345678898,
      11.090789505094394,
      11.09087639465571,
      11.09094006075361,
      11.090971922892372,
      11.090938653839956,
      11.090890792422565,
      11.090900752890931,
      11.09086304187737,
      11.090834760678666,
      11.090828412430294,
      11.090808715392807,
      11.090754717646451,
      11.09073559068043,
      11.09073253849196,
      11.090682512038665,
      11.090669285844925,
      11.090640213958073,
      11.090662115699544,
      11.090640580433153,
      11.090637977340815,
      11.090641824721025,
      11.09053580477451,
      11.09054096291697,
      11.090548465754383,
      11.090554937144734,
      11.090556105687895,
      11.090559417344904,
      11.090561915365768,
      11.090562154404878,
      11.090563949354774,
      11.09056159925231,
      11.09055898171451,
      11.09056092154172,
      11.09056091369334,
      11.090562479970393,
      11.090560885325813,
      11.090560296558884,
      11.09055943246257,
      11.090560423857404,
      11.09055934751276,
      11.090558566832017,
      11.09055929106342,
      11.090558224807653,
      11.090556409583176
    ]
  },
  "val": {
    "steps": [
      0,
      1,
      2,
      3,
      4,
      5,
      6,
      7,
      8,
      9,
      10,
      11,
      12,
      13,
      14,
      15,
      16,
      17,
      18,
      19,
      20,
      21,
      22,
      23,
      24,
      25,
      26,
      27,
      28,
      29,
      30,
      31,
      32,
      33,
      34,
      35,
      36,
      37,
      38,
      39,
      40,
      41,
      42,
      43,
      44,
      45,
      46,
      47,
      48,
      49,
      50,
      51,
      52,
      53,
      54,
      55,
      56,
      57,
      58,
      59,
      60,
      61,
      62,
      63,
      64,
      65,
      66,
      67,
      68,
      69,
      70,
      71,
      72,
      73,
      74,
      75,
      76,
      77,
      78,
      79,
      80,
      81,
      82,
      83,
      84,
      85,
      86,
      87,
      88,
      89,
      90,
      91,
      92,
      93,
      94,
      95,
      96,
      97,
      98,
      99,
      100,
      101,
      102,
      103,
      104,
      105,
      106,
      107,
      108,
      109,
      110,
      111,
      112,
      113,
      114,
      115,
      116,
      117,
      118,
      119,
      120,
      121,
      122,
      123,
      124,
      125,
      126,
      127,
      128,
      129,
      130,
      131,
      132,
      133,
      134,
      135,
      136,
      137,
      138,
      139,
      140,
      141,
      142,
      143,
      144,
      145,
      146,
      147,
      148,
      149,
      150,
      151,
      152,
      153,
      154,
      155,
      156,
      157,
      158,
      159,
      160,
      161,
      162,
      163,
      164,
      165,
      166,
      167,
      168,
      169,
      170,
      171,
      172,
      173,
      174,
      175,
      176,
      177,
      178,
      179,
      180,
      181,
      182,
      183,
      184,
      185,
      186,
      187,
      188,
      189,
      190,
      191,
      192,
      193,
      194,
      195,
      196,
      197,
      198,
      199,
      200,
      201,
      202,
      203,
      204,
      205,
      206,
      207,
      208,
      209,
      210,
      211,
      212,
      213,
      214,
      215,
      216,
      217,
      218,
      219,
      220,
      221,
      222,
      223,
      224,
      225,
      226,
      227,
      228,
      229,
      230,
      231,
      232,
      233,
      234,
      235,
      236,
      237,
      238,
      239,
      240,
      241,
      242,
      243,
      244,
      245,
      246,
      247,
      248,
      249,
      250,
      251,
      252,
      253,
      254,
      255,
      256,
      257,
      258,
      259,
      260,
      261,
      262,
      263,
      264,
      265,
      266,
      267,
      268,
      269,
      270,
      271,
      272,
      273,
      274,
      275,
      276,
      277,
      278,
      279,
      280,
      281,
      282,
      283,
      284,
      285,
      286,
      287,
      288,
      289,
      290,
      291,
      292,
      293,
      294,
      295,
      296,
      297,
      298,
      299
    ],
    "timestamps": [
      "2022-08-08T17:45:30.322148",
      "2022-08-08T17:45:31.028040",
      "2022-08-08T17:45:31.719659",
      "2022-08-08T17:45:32.509561",
      "2022-08-08T17:45:34.049221",
      "2022-08-08T17:45:34.972279",
      "2022-08-08T17:45:35.655133",
      "2022-08-08T17:45:36.330881",
      "2022-08-08T17:45:37.016927",
      "2022-08-08T17:45:37.698947",
      "2022-08-08T17:45:38.397615",
      "2022-08-08T17:45:39.215535",
      "2022-08-08T17:45:40.060586",
      "2022-08-08T17:45:40.819236",
      "2022-08-08T17:45:41.554254",
      "2022-08-08T17:45:42.240860",
      "2022-08-08T17:45:42.926094",
      "2022-08-08T17:45:43.607637",
      "2022-08-08T17:45:44.323678",
      "2022-08-08T17:45:45.065085",
      "2022-08-08T17:45:45.807418",
      "2022-08-08T17:45:46.551595",
      "2022-08-08T17:45:47.239687",
      "2022-08-08T17:45:47.916548",
      "2022-08-08T17:45:48.598888",
      "2022-08-08T17:45:49.284582",
      "2022-08-08T17:45:50.017331",
      "2022-08-08T17:45:50.753965",
      "2022-08-08T17:45:51.483668",
      "2022-08-08T17:45:52.159928",
      "2022-08-08T17:45:52.851954",
      "2022-08-08T17:45:53.536005",
      "2022-08-08T17:45:54.223116",
      "2022-08-08T17:45:55.101081",
      "2022-08-08T17:45:56.193583",
      "2022-08-08T17:45:57.102071",
      "2022-08-08T17:45:57.782862",
      "2022-08-08T17:45:58.451447",
      "2022-08-08T17:45:59.135980",
      "2022-08-08T17:45:59.822199",
      "2022-08-08T17:46:00.516026",
      "2022-08-08T17:46:01.236586",
      "2022-08-08T17:46:01.972724",
      "2022-08-08T17:46:02.709521",
      "2022-08-08T17:46:03.465989",
      "2022-08-08T17:46:04.154012",
      "2022-08-08T17:46:04.844059",
      "2022-08-08T17:46:05.530268",
      "2022-08-08T17:46:06.211122",
      "2022-08-08T17:46:06.895687",
      "2022-08-08T17:46:07.587518",
      "2022-08-08T17:46:08.386287",
      "2022-08-08T17:46:09.115537",
      "2022-08-08T17:46:09.848919",
      "2022-08-08T17:46:10.603842",
      "2022-08-08T17:46:11.315814",
      "2022-08-08T17:46:12.112404",
      "2022-08-08T17:46:12.792311",
      "2022-08-08T17:46:13.506818",
      "2022-08-08T17:46:14.244599",
      "2022-08-08T17:46:14.986728",
      "2022-08-08T17:46:15.746307",
      "2022-08-08T17:46:16.427007",
      "2022-08-08T17:46:17.100644",
      "2022-08-08T17:46:17.773347",
      "2022-08-08T17:46:18.457463",
      "2022-08-08T17:46:19.190493",
      "2022-08-08T17:46:19.912679",
      "2022-08-08T17:46:20.712690",
      "2022-08-08T17:46:21.388908",
      "2022-08-08T17:46:22.068371",
      "2022-08-08T17:46:22.737409",
      "2022-08-08T17:46:23.414999",
      "2022-08-08T17:46:24.155376",
      "2022-08-08T17:46:24.928137",
      "2022-08-08T17:46:25.773440",
      "2022-08-08T17:46:26.452419",
      "2022-08-08T17:46:27.121953",
      "2022-08-08T17:46:27.797583",
      "2022-08-08T17:46:28.467088",
      "2022-08-08T17:46:29.153098",
      "2022-08-08T17:46:29.829432",
      "2022-08-08T17:46:30.510763",
      "2022-08-08T17:46:31.248446",
      "2022-08-08T17:46:31.977796",
      "2022-08-08T17:46:32.751215",
      "2022-08-08T17:46:33.453091",
      "2022-08-08T17:46:34.232158",
      "2022-08-08T17:46:34.907158",
      "2022-08-08T17:46:35.590763",
      "2022-08-08T17:46:36.271783",
      "2022-08-08T17:46:36.980093",
      "2022-08-08T17:46:37.708869",
      "2022-08-08T17:46:38.427045",
      "2022-08-08T17:46:39.193171",
      "2022-08-08T17:46:39.872666",
      "2022-08-08T17:46:40.554307",
      "2022-08-08T17:46:41.224560",
      "2022-08-08T17:46:41.934936",
      "2022-08-08T17:46:42.662568",
      "2022-08-08T17:46:43.395424",
      "2022-08-08T17:46:44.233244",
      "2022-08-08T17:46:44.908652",
      "2022-08-08T17:46:45.581314",
      "2022-08-08T17:46:46.325019",
      "2022-08-08T17:46:46.995869",
      "2022-08-08T17:46:47.726583",
      "2022-08-08T17:46:48.467272",
      "2022-08-08T17:46:49.250991",
      "2022-08-08T17:46:49.943207",
      "2022-08-08T17:46:50.626363",
      "2022-08-08T17:46:51.301303",
      "2022-08-08T17:46:51.971719",
      "2022-08-08T17:46:52.672103",
      "2022-08-08T17:46:53.396924",
      "2022-08-08T17:46:54.126131",
      "2022-08-08T17:46:54.886475",
      "2022-08-08T17:46:55.580509",
      "2022-08-08T17:46:56.257846",
      "2022-08-08T17:46:56.934888",
      "2022-08-08T17:46:57.647235",
      "2022-08-08T17:46:58.374054",
      "2022-08-08T17:46:59.300798",
      "2022-08-08T17:47:00.110426",
      "2022-08-08T17:47:00.796830",
      "2022-08-08T17:47:01.466144",
      "2022-08-08T17:47:02.137916",
      "2022-08-08T17:47:02.810389",
      "2022-08-08T17:47:03.552321",
      "2022-08-08T17:47:04.331852",
      "2022-08-08T17:47:05.061698",
      "2022-08-08T17:47:05.800457",
      "2022-08-08T17:47:06.476070",
      "2022-08-08T17:47:07.182357",
      "2022-08-08T17:47:07.888651",
      "2022-08-08T17:47:08.584044",
      "2022-08-08T17:47:09.590419",
      "2022-08-08T17:47:10.519990",
      "2022-08-08T17:47:11.202471",
      "2022-08-08T17:47:11.884220",
      "2022-08-08T17:47:12.575605",
      "2022-08-08T17:47:13.257564",
      "2022-08-08T17:47:13.989210",
      "2022-08-08T17:47:14.717804",
      "2022-08-08T17:47:15.449236",
      "2022-08-08T17:47:16.202063",
      "2022-08-08T17:47:16.884395",
      "2022-08-08T17:47:17.559597",
      "2022-08-08T17:47:18.236986",
      "2022-08-08T17:47:18.913034",
      "2022-08-08T17:47:19.604206",
      "2022-08-08T17:47:20.283715",
      "2022-08-08T17:47:21.007387",
      "2022-08-08T17:47:21.740883",
      "2022-08-08T17:47:22.577325",
      "2022-08-08T17:47:23.263592",
      "2022-08-08T17:47:23.943477",
      "2022-08-08T17:47:24.624706",
      "2022-08-08T17:47:25.309876",
      "2022-08-08T17:47:25.989439",
      "2022-08-08T17:47:26.675619",
      "2022-08-08T17:47:27.399666",
      "2022-08-08T17:47:28.186742",
      "2022-08-08T17:47:28.959454",
      "2022-08-08T17:47:29.682973",
      "2022-08-08T17:47:30.357729",
      "2022-08-08T17:47:31.036816",
      "2022-08-08T17:47:31.716516",
      "2022-08-08T17:47:32.413165",
      "2022-08-08T17:47:33.476910",
      "2022-08-08T17:47:34.476015",
      "2022-08-08T17:47:35.265370",
      "2022-08-08T17:47:35.951314",
      "2022-08-08T17:47:36.628528",
      "2022-08-08T17:47:37.313826",
      "2022-08-08T17:47:38.194434",
      "2022-08-08T17:47:39.275084",
      "2022-08-08T17:47:40.184968",
      "2022-08-08T17:47:40.863466",
      "2022-08-08T17:47:41.531731",
      "2022-08-08T17:47:42.207042",
      "2022-08-08T17:47:42.895460",
      "2022-08-08T17:47:43.643215",
      "2022-08-08T17:47:44.378289",
      "2022-08-08T17:47:45.125038",
      "2022-08-08T17:47:45.798195",
      "2022-08-08T17:47:46.474684",
      "2022-08-08T17:47:47.153958",
      "2022-08-08T17:47:47.831006",
      "2022-08-08T17:47:48.505837",
      "2022-08-08T17:47:49.193352",
      "2022-08-08T17:47:49.871993",
      "2022-08-08T17:47:50.562585",
      "2022-08-08T17:47:51.342056",
      "2022-08-08T17:47:52.104631",
      "2022-08-08T17:47:52.816873",
      "2022-08-08T17:47:53.496634",
      "2022-08-08T17:47:54.184095",
      "2022-08-08T17:47:54.862241",
      "2022-08-08T17:47:55.536441",
      "2022-08-08T17:47:56.220333",
      "2022-08-08T17:47:56.923137",
      "2022-08-08T17:47:57.648867",
      "2022-08-08T17:47:58.375798",
      "2022-08-08T17:47:59.134865",
      "2022-08-08T17:47:59.818863",
      "2022-08-08T17:48:00.502568",
      "2022-08-08T17:48:01.185509",
      "2022-08-08T17:48:01.869363",
      "2022-08-08T17:48:02.622633",
      "2022-08-08T17:48:03.395957",
      "2022-08-08T17:48:04.088047",
      "2022-08-08T17:48:04.781926",
      "2022-08-08T17:48:05.459595",
      "2022-08-08T17:48:06.138717",
      "2022-08-08T17:48:06.810681",
      "2022-08-08T17:48:07.533468",
      "2022-08-08T17:48:08.275596",
      "2022-08-08T17:48:09.060640",
      "2022-08-08T17:48:09.761655",
      "2022-08-08T17:48:10.451650",
      "2022-08-08T17:48:11.130172",
      "2022-08-08T17:48:11.813486",
      "2022-08-08T17:48:12.615769",
      "2022-08-08T17:48:13.539063",
      "2022-08-08T17:48:14.324870",
      "2022-08-08T17:48:15.014842",
      "2022-08-08T17:48:15.703919",
      "2022-08-08T17:48:16.390062",
      "2022-08-08T17:48:17.069659",
      "2022-08-08T17:48:17.766621",
      "2022-08-08T17:48:18.567210",
      "2022-08-08T17:48:19.468209",
      "2022-08-08T17:48:20.397191",
      "2022-08-08T17:48:21.064997",
      "2022-08-08T17:48:21.730545",
      "2022-08-08T17:48:22.400485",
      "2022-08-08T17:48:23.068418",
      "2022-08-08T17:48:23.790406",
      "2022-08-08T17:48:24.516458",
      "2022-08-08T17:48:25.579353",
      "2022-08-08T17:48:26.275167",
      "2022-08-08T17:48:26.952886",
      "2022-08-08T17:48:27.626979",
      "2022-08-08T17:48:28.305347",
      "2022-08-08T17:48:29.033672",
      "2022-08-08T17:48:29.763262",
      "2022-08-08T17:48:30.488648",
      "2022-08-08T17:48:31.183813",
      "2022-08-08T17:48:31.854399",
      "2022-08-08T17:48:32.532715",
      "2022-08-08T17:48:33.202656",
      "2022-08-08T17:48:33.912911",
      "2022-08-08T17:48:34.639900",
      "2022-08-08T17:48:35.369522",
      "2022-08-08T17:48:36.153280",
      "2022-08-08T17:48:36.832751",
      "2022-08-08T17:48:37.505269",
      "2022-08-08T17:48:38.182878",
      "2022-08-08T17:48:38.856908",
      "2022-08-08T17:48:39.549531",
      "2022-08-08T17:48:40.268883",
      "2022-08-08T17:48:41.077370",
      "2022-08-08T17:48:41.990608",
      "2022-08-08T17:48:42.814234",
      "2022-08-08T17:48:43.485217",
      "2022-08-08T17:48:44.162995",
      "2022-08-08T17:48:44.837346",
      "2022-08-08T17:48:45.520613",
      "2022-08-08T17:48:46.204679",
      "2022-08-08T17:48:46.890616",
      "2022-08-08T17:48:47.602041",
      "2022-08-08T17:48:48.324060",
      "2022-08-08T17:48:49.046813",
      "2022-08-08T17:48:49.847089",
      "2022-08-08T17:48:50.516388",
      "2022-08-08T17:48:51.188182",
      "2022-08-08T17:48:51.875963",
      "2022-08-08T17:48:52.564132",
      "2022-08-08T17:48:53.291023",
      "2022-08-08T17:48:54.077385",
      "2022-08-08T17:48:54.844619",
      "2022-08-08T17:48:55.519391",
      "2022-08-08T17:48:56.284742",
      "2022-08-08T17:48:56.955939",
      "2022-08-08T17:48:57.664142",
      "2022-08-08T17:48:58.411619",
      "2022-08-08T17:48:59.148807",
      "2022-08-08T17:48:59.927624",
      "2022-08-08T17:49:00.623774",
      "2022-08-08T17:49:01.315687",
      "2022-08-08T17:49:01.996544",
      "2022-08-08T17:49:02.679619",
      "2022-08-08T17:49:03.479243",
      "2022-08-08T17:49:04.571076",
      "2022-08-08T17:49:05.613779",
      "2022-08-08T17:49:06.317924",
      "2022-08-08T17:49:07.000041",
      "2022-08-08T17:49:07.684683",
      "2022-08-08T17:49:08.369416"
    ],
    "values": [
      12.04620250938195,
      11.605093829364254,
      11.542932783896367,
      11.466038040075562,
      11.416046077829867,
      11.422788591701728,
      11.318615512440266,
      11.345436841194877,
      11.342527903811169,
      11.323243870346314,
      11.340522513271548,
      11.331880514063304,
      11.304574253760176,
      11.294133674218557,
      11.263192676751842,
      11.284150567308384,
      11.305978884904942,
      11.28803621468929,
      11.241711410372597,
      11.260887462515797,
      11.252519552469737,
      11.237225834114444,
      11.244328913768188,
      11.291843479753538,
      11.206013601518254,
      11.238088342625858,
      11.276449040205861,
      11.234345837867055,
      11.247480026757632,
      11.221737349751894,
      11.20938130835789,
      11.217032014654897,
      11.227076223760978,
      11.203271055171907,
      11.199939054284007,
      11.215538894422053,
      11.199726531994006,
      11.223388547985257,
      11.236622516156796,
      11.245085529263555,
      11.209719616532452,
      11.191551541974452,
      11.229385181487668,
      11.205363753551307,
      11.20850158023536,
      11.20571319883314,
      11.223629233601358,
      11.235047280385364,
      11.196252609029113,
      11.194582283298775,
      11.187441686247722,
      11.211118964091966,
      11.202138639556456,
      11.226154077809824,
      11.21551974670181,
      11.199503778892751,
      11.210519251639509,
      11.211727759211294,
      11.200121778015056,
      11.194789214800858,
      11.203046104499618,
      11.205440244221077,
      11.205435543463953,
      11.194624114131974,
      11.169487047855903,
      11.19554226053899,
      11.240472679207123,
      11.181085629214014,
      11.189248972640874,
      11.231084921237526,
      11.201138398941868,
      11.203861424597912,
      11.216873905226453,
      11.193018515237387,
      11.2280713131657,
      11.163622259514389,
      11.244165157689645,
      11.173589666844206,
      11.21203096575233,
      11.191414116317484,
      11.183080573756397,
      11.20557453537627,
      11.15076816171696,
      11.15072110979693,
      11.131711338969382,
      11.158397548874142,
      11.147527062329214,
      11.144091263056183,
      11.175190641696307,
      11.113587618537688,
      11.15365370745724,
      11.223645950882602,
      11.114006764173062,
      11.129769347380272,
      11.149381286146326,
      11.181688516287707,
      11.161836121441919,
      11.123119495567572,
      11.157211450248942,
      11.129627530579775,
      11.156887808402008,
      11.116881248486049,
      11.12165455047567,
      11.113166424942168,
      11.123762944128874,
      11.146140306954317,
      11.105296975953697,
      11.153250071485962,
      11.180034922798798,
      11.151431097528832,
      11.139182431658027,
      11.122691972648491,
      11.1448634775679,
      11.121556528810043,
      11.119896387196178,
      11.11104059371869,
      11.111899591466205,
      11.11373653286634,
      11.130756528936843,
      11.111952922456226,
      11.126819862102728,
      11.114377583841488,
      11.1435992347219,
      11.121695823246302,
      11.12071077076948,
      11.096493613201087,
      11.131835513062091,
      11.127804572146541,
      11.132611214486385,
      11.150928858786141,
      11.111104856012215,
      11.150391950354134,
      11.138974183082565,
      11.180170593242696,
      11.14515373519433,
      11.14150605368518,
      11.106814790806155,
      11.110750083543351,
      11.124192567542721,
      11.122245731740017,
      11.103294845995508,
      11.099538474518202,
      11.12105382361283,
      11.137638340395153,
      11.127052939366589,
      11.102866665798409,
      11.10585327737828,
      11.116717916897423,
      11.123690303098423,
      11.093254759093403,
      11.145544965884794,
      11.119969592270193,
      11.118136126353642,
      11.084341046842972,
      11.114169751877544,
      11.108002749482667,
      11.113502690893881,
      11.110827989457709,
      11.099889627795312,
      11.107549433748492,
      11.11315464023511,
      11.109678231286036,
      11.105095382733325,
      11.111541563367156,
      11.14237475790426,
      11.089222152291267,
      11.114332641918004,
      11.137320686198198,
      11.069978146398707,
      11.079569800272722,
      11.065272045926543,
      11.069860971768257,
      11.067598800956109,
      11.066825757498274,
      11.073566386752335,
      11.06487367921977,
      11.061210342328115,
      11.064119636498148,
      11.072583754347237,
      11.070924278978046,
      11.061698372034403,
      11.067335575521035,
      11.068280456478963,
      11.064650032208995,
      11.065743701774007,
      11.061681578719421,
      11.066120953967625,
      11.067244726476057,
      11.068899233590182,
      11.063425187650147,
      11.067718678602345,
      11.069435072673166,
      11.063008855018838,
      11.071603962433073,
      11.06442522084158,
      11.067177276924317,
      11.059996983312175,
      11.061225227619527,
      11.072440081421464,
      11.062272794707821,
      11.063497580845745,
      11.063139270727913,
      11.06682613171397,
      11.06411683153277,
      11.061294056715685,
      11.065418702350842,
      11.06777909690565,
      11.062649074071881,
      11.062304211558331,
      11.063362121359676,
      11.062454451074677,
      11.070359695030954,
      11.064113781170505,
      11.066722570732855,
      11.062496078453963,
      11.066175369534399,
      11.060606564012371,
      11.064963552263489,
      11.065629730723838,
      11.064125658852637,
      11.066048565774915,
      11.059772602351941,
      11.069151377025221,
      11.063240216455451,
      11.063090510213993,
      11.06396771976615,
      11.063434693775545,
      11.06248859910481,
      11.061447168777015,
      11.060173747555824,
      11.060374479332172,
      11.05971085469898,
      11.059777358032802,
      11.059787358100348,
      11.05984844678493,
      11.059362784793432,
      11.059681551785138,
      11.059492848740673,
      11.060123989174887,
      11.05936944956424,
      11.05929881907171,
      11.059133179251189,
      11.058901470663285,
      11.059513173861422,
      11.0590102714694,
      11.059075704780522,
      11.059798742826297,
      11.059240533001196,
      11.05969524749143,
      11.059604588137988,
      11.059429355791218,
      11.059468323917391,
      11.059550337243017,
      11.060121947739354,
      11.059850177163554,
      11.059206025134053,
      11.059466811747761,
      11.059684153698925,
      11.059703342673854,
      11.059685705059225,
      11.05972527004457,
      11.05969535568881,
      11.059565954329353,
      11.059622406869316,
      11.0595660078103,
      11.05949684654129,
      11.059463470320374,
      11.059411064298565,
      11.059408709873187,
      11.059409209836142,
      11.05939006123775,
      11.059304208150532,
      11.059293029702017,
      11.059252186638332,
      11.059245870634246,
      11.05920086125785,
      11.059258465477464,
      11.059272381423641,
      11.059270591390295,
      11.059266145071188,
      11.05926825797805,
      11.05926897817671,
      11.05926963774537,
      11.059273530621248,
      11.059268536304344,
      11.059275990181371,
      11.059271323163898,
      11.05927268716096,
      11.059271928898228,
      11.059271379438037,
      11.059270633487731,
      11.059276061258167,
      11.059278513746928,
      11.059279885958029,
      11.059280425121406,
      11.059276356972028,
      11.059278015579903,
      11.059272960797049,
      11.059262177275688,
      11.05926885625945
    ]
  }
}