INFO - residual_nf - Running command 'run'
INFO - residual_nf - Started run with ID "5"
[CONFIG] {'bn': 'arithmetic-circuit', 'structure': 'faithful', 'coeff': 0.99, 'n_power_iterations': 5, 'num_blocks': 24, 'hidden_dims': [100], 'activation': 'lipswish', 'grad_in_forward': True, 'batch_size': 100, 'num_train_samples': 10000, 'num_val_samples': 5000, 'num_epochs': 300, 'num_train_batches': 100, 'num_val_batches': 50, 'lr': 0.01, 'seed': 4, 'patience': 20, 'double': True, 'run': 1, 'checkpoint_n': 10, 'load_from_checkpoint': False, 'ex_name': 'residual_nf_density_estimation', 'sub_folder': 'faithful_99_lipswish_24_[100]', 'path': './experiment_logs/residual_nf_density_estimation/arithmetic-circuit/faithful_99_lipswish_24_[100]', 'bt_config': {'depth': 5, 'seed': 4}}
[DEVICE] cpu
[ENCODED STRUCTURE] Using faithful BN structure.
  0%|          | 0/300 [00:00<?, ?it/s]Train NLL: 14.138, Val NLL: 7.346:   0%|          | 1/300 [00:22<1:50:37, 22.20s/it]Train NLL: 6.361, Val NLL: 5.256:   1%|          | 2/300 [00:36<1:27:02, 17.53s/it] Train NLL: 4.188, Val NLL: 2.658:   1%|          | 3/300 [00:49<1:15:46, 15.31s/it]Train NLL: 4.406, Val NLL: 2.976:   1%|▏         | 4/300 [01:02<1:12:37, 14.72s/it]Train NLL: 3.463, Val NLL: 3.499:   2%|▏         | 5/300 [01:16<1:09:44, 14.18s/it]Train NLL: 2.753, Val NLL: 2.289:   2%|▏         | 6/300 [01:29<1:07:53, 13.85s/it]Train NLL: 2.745, Val NLL: 2.901:   2%|▏         | 7/300 [01:43<1:07:24, 13.80s/it]Train NLL: 2.617, Val NLL: 2.812:   3%|▎         | 8/300 [01:56<1:06:40, 13.70s/it]Train NLL: 3.056, Val NLL: 2.436:   3%|▎         | 9/300 [02:09<1:05:34, 13.52s/it]Train NLL: 2.865, Val NLL: 3.603:   3%|▎         | 10/300 [02:25<1:08:45, 14.23s/it]Train NLL: 2.460, Val NLL: 2.028:   4%|▎         | 11/300 [02:40<1:09:02, 14.34s/it]Train NLL: 2.293, Val NLL: 3.328:   4%|▍         | 12/300 [02:54<1:08:59, 14.37s/it]Train NLL: 2.580, Val NLL: 2.773:   4%|▍         | 13/300 [03:07<1:06:32, 13.91s/it]Train NLL: 2.293, Val NLL: 2.139:   5%|▍         | 14/300 [03:20<1:04:28, 13.52s/it]Train NLL: 2.141, Val NLL: 1.734:   5%|▌         | 15/300 [03:29<57:55, 12.19s/it]  Train NLL: 2.190, Val NLL: 1.857:   5%|▌         | 16/300 [03:48<1:07:30, 14.26s/it]Train NLL: 2.055, Val NLL: 1.818:   6%|▌         | 17/300 [04:02<1:07:27, 14.30s/it]Train NLL: 1.946, Val NLL: 1.975:   6%|▌         | 18/300 [04:17<1:07:23, 14.34s/it]Train NLL: 2.089, Val NLL: 2.318:   6%|▋         | 19/300 [04:31<1:07:47, 14.47s/it]Train NLL: 2.194, Val NLL: 1.822:   7%|▋         | 20/300 [04:46<1:07:22, 14.44s/it]Train NLL: 1.981, Val NLL: 1.726:   7%|▋         | 21/300 [05:00<1:07:20, 14.48s/it]Train NLL: 1.954, Val NLL: 1.655:   7%|▋         | 22/300 [05:16<1:08:56, 14.88s/it]Train NLL: 1.951, Val NLL: 1.911:   8%|▊         | 23/300 [05:30<1:08:02, 14.74s/it]Train NLL: 1.866, Val NLL: 1.692:   8%|▊         | 24/300 [05:48<1:11:06, 15.46s/it]Train NLL: 2.049, Val NLL: 1.934:   8%|▊         | 25/300 [06:02<1:08:50, 15.02s/it]Train NLL: 1.800, Val NLL: 1.593:   9%|▊         | 26/300 [06:17<1:09:08, 15.14s/it]Train NLL: 1.940, Val NLL: 2.006:   9%|▉         | 27/300 [06:32<1:08:00, 14.95s/it]Train NLL: 1.958, Val NLL: 1.644:   9%|▉         | 28/300 [06:46<1:07:13, 14.83s/it]Train NLL: 2.153, Val NLL: 1.834:  10%|▉         | 29/300 [07:02<1:08:21, 15.13s/it]Train NLL: 1.829, Val NLL: 1.533:  10%|█         | 30/300 [07:15<1:05:02, 14.46s/it]Train NLL: 1.866, Val NLL: 1.693:  10%|█         | 31/300 [07:30<1:05:36, 14.63s/it]Train NLL: 1.824, Val NLL: 1.538:  11%|█         | 32/300 [07:44<1:04:26, 14.43s/it]Train NLL: 1.796, Val NLL: 1.529:  11%|█         | 33/300 [07:59<1:04:48, 14.56s/it]Train NLL: 1.799, Val NLL: 1.702:  11%|█▏        | 34/300 [08:15<1:06:43, 15.05s/it]Train NLL: 1.795, Val NLL: 1.883:  12%|█▏        | 35/300 [08:30<1:05:57, 14.93s/it]Train NLL: 1.743, Val NLL: 1.721:  12%|█▏        | 36/300 [08:45<1:06:28, 15.11s/it]Train NLL: 1.756, Val NLL: 1.913:  12%|█▏        | 37/300 [09:02<1:08:41, 15.67s/it]Train NLL: 1.834, Val NLL: 1.603:  13%|█▎        | 38/300 [09:18<1:09:10, 15.84s/it]Train NLL: 1.782, Val NLL: 1.521:  13%|█▎        | 39/300 [09:32<1:06:26, 15.27s/it]Train NLL: 1.730, Val NLL: 1.699:  13%|█▎        | 40/300 [09:47<1:05:17, 15.07s/it]Train NLL: 1.769, Val NLL: 1.511:  14%|█▎        | 41/300 [10:01<1:04:33, 14.96s/it]Train NLL: 1.783, Val NLL: 1.605:  14%|█▍        | 42/300 [10:16<1:04:06, 14.91s/it]Train NLL: 1.714, Val NLL: 1.736:  14%|█▍        | 43/300 [10:31<1:04:03, 14.95s/it]Train NLL: 1.747, Val NLL: 1.541:  15%|█▍        | 44/300 [10:46<1:03:01, 14.77s/it]Train NLL: 1.810, Val NLL: 1.830:  15%|█▌        | 45/300 [11:02<1:04:37, 15.20s/it]Train NLL: 1.677, Val NLL: 1.666:  15%|█▌        | 46/300 [11:17<1:03:48, 15.07s/it]Train NLL: 1.681, Val NLL: 1.555:  16%|█▌        | 47/300 [11:32<1:04:08, 15.21s/it]Train NLL: 1.685, Val NLL: 1.477:  16%|█▌        | 48/300 [11:46<1:01:44, 14.70s/it]Train NLL: 1.709, Val NLL: 1.568:  16%|█▋        | 49/300 [12:01<1:01:39, 14.74s/it]Train NLL: 1.754, Val NLL: 1.618:  17%|█▋        | 50/300 [12:15<1:01:08, 14.67s/it]Train NLL: 1.702, Val NLL: 1.915:  17%|█▋        | 51/300 [12:29<59:51, 14.42s/it]  Train NLL: 1.725, Val NLL: 1.562:  17%|█▋        | 52/300 [12:44<1:00:25, 14.62s/it]Train NLL: 1.733, Val NLL: 2.828:  18%|█▊        | 53/300 [12:58<59:56, 14.56s/it]  Train NLL: 1.927, Val NLL: 1.850:  18%|█▊        | 54/300 [13:13<1:00:02, 14.65s/it]Train NLL: 1.714, Val NLL: 1.647:  18%|█▊        | 55/300 [13:29<1:01:20, 15.02s/it]Train NLL: 1.685, Val NLL: 1.551:  19%|█▊        | 56/300 [13:44<1:00:19, 14.84s/it]Train NLL: 1.644, Val NLL: 1.400:  19%|█▉        | 57/300 [13:58<59:56, 14.80s/it]  Train NLL: 1.730, Val NLL: 1.878:  19%|█▉        | 58/300 [14:13<59:02, 14.64s/it]Train NLL: 1.629, Val NLL: 1.470:  20%|█▉        | 59/300 [14:28<59:17, 14.76s/it]Train NLL: 1.739, Val NLL: 1.419:  20%|██        | 60/300 [14:42<58:10, 14.54s/it]Train NLL: 1.625, Val NLL: 1.673:  20%|██        | 61/300 [14:56<57:20, 14.40s/it]Train NLL: 1.709, Val NLL: 1.665:  21%|██        | 62/300 [15:10<57:26, 14.48s/it]Train NLL: 1.620, Val NLL: 1.588:  21%|██        | 63/300 [15:25<56:56, 14.42s/it]Train NLL: 1.660, Val NLL: 1.861:  21%|██▏       | 64/300 [15:39<56:07, 14.27s/it]Train NLL: 1.584, Val NLL: 1.420:  22%|██▏       | 65/300 [15:54<57:27, 14.67s/it]Train NLL: 1.663, Val NLL: 1.555:  22%|██▏       | 66/300 [16:08<56:50, 14.58s/it]Train NLL: 1.666, Val NLL: 1.712:  22%|██▏       | 67/300 [16:25<59:12, 15.25s/it]Train NLL: 1.613, Val NLL: 1.529:  23%|██▎       | 68/300 [16:38<56:29, 14.61s/it]Train NLL: 1.712, Val NLL: 1.511:  23%|██▎       | 69/300 [16:53<56:25, 14.66s/it]Train NLL: 1.685, Val NLL: 1.487:  23%|██▎       | 70/300 [17:09<57:50, 15.09s/it]Train NLL: 1.659, Val NLL: 1.678:  24%|██▎       | 71/300 [17:24<57:17, 15.01s/it]Train NLL: 1.647, Val NLL: 1.517:  24%|██▍       | 72/300 [17:40<57:45, 15.20s/it]Train NLL: 1.670, Val NLL: 1.439:  24%|██▍       | 73/300 [17:54<56:16, 14.88s/it]Train NLL: 1.534, Val NLL: 1.654:  25%|██▍       | 74/300 [18:10<57:45, 15.33s/it]Train NLL: 1.622, Val NLL: 1.617:  25%|██▌       | 75/300 [18:25<56:17, 15.01s/it]Train NLL: 1.583, Val NLL: 1.601:  25%|██▌       | 76/300 [18:41<57:48, 15.49s/it]Train NLL: 1.677, Val NLL: 1.612:  26%|██▌       | 77/300 [18:56<56:29, 15.20s/it]Train NLL: 1.635, Val NLL: 1.585:  26%|██▌       | 78/300 [19:12<57:10, 15.45s/it]Train NLL: 1.592, Val NLL: 1.485:  26%|██▋       | 79/300 [19:26<55:50, 15.16s/it]Train NLL: 1.604, Val NLL: 1.499:  27%|██▋       | 80/300 [19:39<53:31, 14.60s/it]Train NLL: 1.611, Val NLL: 1.809:  27%|██▋       | 81/300 [19:55<54:29, 14.93s/it]Train NLL: 1.621, Val NLL: 1.482:  27%|██▋       | 82/300 [20:09<53:30, 14.73s/it]Train NLL: 1.642, Val NLL: 1.685:  28%|██▊       | 83/300 [20:25<54:41, 15.12s/it]Train NLL: 1.688, Val NLL: 1.658:  28%|██▊       | 84/300 [20:40<54:12, 15.06s/it]Train NLL: 1.603, Val NLL: 1.504:  28%|██▊       | 85/300 [20:55<53:18, 14.88s/it]Train NLL: 1.664, Val NLL: 1.606:  29%|██▊       | 86/300 [21:09<52:15, 14.65s/it]Train NLL: 1.671, Val NLL: 1.516:  29%|██▉       | 87/300 [21:26<54:15, 15.29s/it]Train NLL: 1.641, Val NLL: 1.551:  29%|██▉       | 88/300 [21:42<55:18, 15.65s/it]Train NLL: 1.528, Val NLL: 1.480:  30%|██▉       | 89/300 [21:55<52:05, 14.81s/it]Train NLL: 1.603, Val NLL: 2.138:  30%|███       | 90/300 [22:10<51:39, 14.76s/it]Train NLL: 1.550, Val NLL: 1.360:  30%|███       | 91/300 [22:24<51:19, 14.74s/it]Train NLL: 1.686, Val NLL: 1.583:  31%|███       | 92/300 [22:39<51:13, 14.78s/it]Train NLL: 1.505, Val NLL: 1.527:  31%|███       | 93/300 [22:54<50:38, 14.68s/it]Train NLL: 1.539, Val NLL: 1.527:  31%|███▏      | 94/300 [23:09<51:15, 14.93s/it]Train NLL: 1.652, Val NLL: 1.630:  32%|███▏      | 95/300 [23:23<50:16, 14.72s/it]Train NLL: 1.561, Val NLL: 1.479:  32%|███▏      | 96/300 [23:38<49:23, 14.52s/it]Train NLL: 1.573, Val NLL: 1.602:  32%|███▏      | 97/300 [23:52<48:39, 14.38s/it]Train NLL: 1.564, Val NLL: 1.801:  33%|███▎      | 98/300 [24:05<47:39, 14.16s/it]Train NLL: 1.602, Val NLL: 1.602:  33%|███▎      | 99/300 [24:21<49:24, 14.75s/it]Train NLL: 1.524, Val NLL: 1.585:  33%|███▎      | 100/300 [24:38<50:36, 15.18s/it]Train NLL: 1.684, Val NLL: 1.556:  34%|███▎      | 101/300 [24:52<49:37, 14.96s/it]Train NLL: 1.532, Val NLL: 1.514:  34%|███▍      | 102/300 [25:07<49:07, 14.89s/it]Train NLL: 1.611, Val NLL: 1.417:  34%|███▍      | 103/300 [25:21<48:19, 14.72s/it]Train NLL: 1.496, Val NLL: 1.436:  35%|███▍      | 104/300 [25:36<48:01, 14.70s/it]Train NLL: 1.583, Val NLL: 1.417:  35%|███▌      | 105/300 [25:50<47:35, 14.64s/it]Train NLL: 1.651, Val NLL: 1.525:  35%|███▌      | 106/300 [26:04<46:49, 14.48s/it]Train NLL: 1.570, Val NLL: 1.454:  36%|███▌      | 107/300 [26:17<44:30, 13.84s/it]Train NLL: 1.542, Val NLL: 1.509:  36%|███▌      | 108/300 [26:32<45:52, 14.34s/it]Train NLL: 1.519, Val NLL: 1.467:  36%|███▋      | 109/300 [26:47<45:48, 14.39s/it]Train NLL: 1.558, Val NLL: 1.582:  37%|███▋      | 110/300 [27:02<46:36, 14.72s/it]Train NLL: 1.593, Val NLL: 1.431:  37%|███▋      | 111/300 [27:17<46:26, 14.74s/it]Train NLL: 1.588, Val NLL: 1.566:  37%|███▋      | 112/300 [27:31<45:35, 14.55s/it]Train NLL: 1.488, Val NLL: 1.403:  38%|███▊      | 113/300 [27:46<45:32, 14.61s/it]Train NLL: 1.561, Val NLL: 1.690:  38%|███▊      | 114/300 [27:59<44:00, 14.20s/it]Train NLL: 1.556, Val NLL: 1.536:  38%|███▊      | 115/300 [28:15<45:40, 14.82s/it]Train NLL: 1.487, Val NLL: 1.494:  39%|███▊      | 116/300 [28:31<46:23, 15.13s/it]Train NLL: 1.492, Val NLL: 1.461:  39%|███▉      | 117/300 [28:47<46:34, 15.27s/it]Train NLL: 1.504, Val NLL: 1.472:  39%|███▉      | 118/300 [28:59<43:35, 14.37s/it]Train NLL: 1.490, Val NLL: 1.669:  40%|███▉      | 119/300 [29:14<43:37, 14.46s/it]Train NLL: 1.485, Val NLL: 1.427:  40%|████      | 120/300 [29:26<41:42, 13.90s/it]Train NLL: 1.528, Val NLL: 1.533:  40%|████      | 121/300 [29:41<41:59, 14.07s/it]Train NLL: 1.618, Val NLL: 1.482:  41%|████      | 122/300 [29:55<41:31, 13.99s/it]Train NLL: 1.618, Val NLL: 1.528:  41%|████      | 123/300 [30:08<40:51, 13.85s/it]Train NLL: 1.546, Val NLL: 1.455:  41%|████▏     | 124/300 [30:21<39:34, 13.49s/it]Train NLL: 1.595, Val NLL: 1.582:  42%|████▏     | 125/300 [30:37<41:26, 14.21s/it]Train NLL: 1.441, Val NLL: 1.485:  42%|████▏     | 126/300 [30:50<40:28, 13.96s/it]Train NLL: 1.632, Val NLL: 1.382:  42%|████▏     | 127/300 [31:03<39:36, 13.74s/it]Train NLL: 1.537, Val NLL: 1.703:  43%|████▎     | 128/300 [31:18<40:10, 14.01s/it]Train NLL: 1.515, Val NLL: 1.618:  43%|████▎     | 129/300 [31:35<42:59, 15.09s/it]Train NLL: 1.541, Val NLL: 1.767:  43%|████▎     | 130/300 [31:49<41:50, 14.77s/it]Train NLL: 1.571, Val NLL: 1.388:  44%|████▎     | 131/300 [32:04<41:44, 14.82s/it]Train NLL: 1.530, Val NLL: 1.367:  44%|████▍     | 132/300 [32:18<40:17, 14.39s/it]Train NLL: 1.457, Val NLL: 1.418:  44%|████▍     | 133/300 [32:32<40:04, 14.40s/it]Train NLL: 1.526, Val NLL: 1.525:  45%|████▍     | 134/300 [32:46<39:25, 14.25s/it]Train NLL: 1.460, Val NLL: 1.377:  45%|████▌     | 135/300 [32:59<37:50, 13.76s/it]Train NLL: 1.519, Val NLL: 1.467:  45%|████▌     | 136/300 [33:13<38:02, 13.91s/it]Train NLL: 1.504, Val NLL: 1.403:  46%|████▌     | 137/300 [33:27<38:04, 14.02s/it]Train NLL: 1.547, Val NLL: 1.417:  46%|████▌     | 138/300 [33:42<38:18, 14.19s/it]Train NLL: 1.556, Val NLL: 1.515:  46%|████▋     | 139/300 [33:57<38:35, 14.38s/it]Train NLL: 1.515, Val NLL: 1.399:  47%|████▋     | 140/300 [34:11<38:05, 14.28s/it]Train NLL: 1.561, Val NLL: 1.378:  47%|████▋     | 141/300 [34:25<37:59, 14.34s/it]Train NLL: 1.458, Val NLL: 1.521:  47%|████▋     | 142/300 [34:38<36:35, 13.90s/it]Train NLL: 1.612, Val NLL: 1.548:  48%|████▊     | 143/300 [34:51<35:11, 13.45s/it]Train NLL: 1.543, Val NLL: 1.571:  48%|████▊     | 144/300 [35:05<36:01, 13.86s/it]Train NLL: 1.457, Val NLL: 1.414:  48%|████▊     | 145/300 [35:19<35:17, 13.66s/it]Train NLL: 1.501, Val NLL: 1.492:  49%|████▊     | 146/300 [35:33<35:37, 13.88s/it]Epoch   147: reducing learning rate of group 0 to 1.0000e-03.
Train NLL: 1.553, Val NLL: 1.477:  49%|████▉     | 147/300 [35:47<35:39, 13.98s/it]Train NLL: 1.199, Val NLL: 1.252:  49%|████▉     | 148/300 [36:02<36:24, 14.37s/it]Train NLL: 1.172, Val NLL: 1.225:  50%|████▉     | 149/300 [36:17<36:33, 14.53s/it]Train NLL: 1.159, Val NLL: 1.227:  50%|█████     | 150/300 [36:31<36:03, 14.42s/it]Train NLL: 1.159, Val NLL: 1.224:  50%|█████     | 151/300 [36:46<35:51, 14.44s/it]Train NLL: 1.161, Val NLL: 1.199:  51%|█████     | 152/300 [36:59<34:52, 14.14s/it]Train NLL: 1.164, Val NLL: 1.217:  51%|█████     | 153/300 [37:14<34:54, 14.25s/it]Train NLL: 1.151, Val NLL: 1.218:  51%|█████▏    | 154/300 [37:31<36:36, 15.04s/it]Train NLL: 1.152, Val NLL: 1.240:  52%|█████▏    | 155/300 [37:44<35:15, 14.59s/it]Train NLL: 1.158, Val NLL: 1.203:  52%|█████▏    | 156/300 [37:59<35:01, 14.59s/it]Train NLL: 1.173, Val NLL: 1.204:  52%|█████▏    | 157/300 [38:12<33:58, 14.26s/it]Train NLL: 1.151, Val NLL: 1.229:  53%|█████▎    | 158/300 [38:27<34:01, 14.38s/it]Train NLL: 1.147, Val NLL: 1.212:  53%|█████▎    | 159/300 [38:40<33:02, 14.06s/it]Train NLL: 1.157, Val NLL: 1.205:  53%|█████▎    | 160/300 [38:53<31:58, 13.71s/it]Train NLL: 1.156, Val NLL: 1.210:  54%|█████▎    | 161/300 [39:06<31:21, 13.54s/it]Train NLL: 1.146, Val NLL: 1.205:  54%|█████▍    | 162/300 [39:21<31:56, 13.89s/it]Train NLL: 1.143, Val NLL: 1.195:  54%|█████▍    | 163/300 [39:35<31:32, 13.81s/it]Train NLL: 1.167, Val NLL: 1.204:  55%|█████▍    | 164/300 [39:47<30:23, 13.41s/it]Train NLL: 1.147, Val NLL: 1.204:  55%|█████▌    | 165/300 [40:01<30:05, 13.37s/it]Train NLL: 1.165, Val NLL: 1.276:  55%|█████▌    | 166/300 [40:15<30:36, 13.70s/it]Train NLL: 1.158, Val NLL: 1.199:  56%|█████▌    | 167/300 [40:29<30:31, 13.77s/it]Train NLL: 1.154, Val NLL: 1.231:  56%|█████▌    | 168/300 [40:42<29:50, 13.57s/it]Train NLL: 1.148, Val NLL: 1.346:  56%|█████▋    | 169/300 [40:56<30:00, 13.74s/it]Train NLL: 1.173, Val NLL: 1.221:  57%|█████▋    | 170/300 [41:08<28:43, 13.26s/it]Train NLL: 1.156, Val NLL: 1.211:  57%|█████▋    | 171/300 [41:21<28:25, 13.22s/it]Train NLL: 1.182, Val NLL: 1.267:  57%|█████▋    | 172/300 [41:36<29:11, 13.68s/it]Train NLL: 1.157, Val NLL: 1.237:  58%|█████▊    | 173/300 [41:49<28:42, 13.56s/it]Train NLL: 1.150, Val NLL: 1.197:  58%|█████▊    | 174/300 [42:02<28:04, 13.37s/it]Train NLL: 1.153, Val NLL: 1.223:  58%|█████▊    | 175/300 [42:17<28:42, 13.78s/it]Train NLL: 1.152, Val NLL: 1.206:  59%|█████▊    | 176/300 [42:30<27:58, 13.54s/it]Train NLL: 1.174, Val NLL: 1.187:  59%|█████▉    | 177/300 [42:44<28:10, 13.74s/it]Train NLL: 1.152, Val NLL: 1.202:  59%|█████▉    | 178/300 [42:59<28:27, 14.00s/it]Train NLL: 1.156, Val NLL: 1.211:  60%|█████▉    | 179/300 [43:13<28:29, 14.13s/it]Train NLL: 1.143, Val NLL: 1.209:  60%|██████    | 180/300 [43:29<29:06, 14.56s/it]Train NLL: 1.151, Val NLL: 1.200:  60%|██████    | 181/300 [43:44<29:03, 14.65s/it]Train NLL: 1.145, Val NLL: 1.209:  61%|██████    | 182/300 [43:57<27:56, 14.21s/it]Train NLL: 1.166, Val NLL: 1.195:  61%|██████    | 183/300 [44:12<28:25, 14.58s/it]Epoch   184: reducing learning rate of group 0 to 1.0000e-04.
Train NLL: 1.166, Val NLL: 1.206:  61%|██████▏   | 184/300 [44:29<29:20, 15.18s/it]Train NLL: 1.107, Val NLL: 1.167:  62%|██████▏   | 185/300 [44:43<28:40, 14.96s/it]Train NLL: 1.104, Val NLL: 1.170:  62%|██████▏   | 186/300 [44:58<28:11, 14.84s/it]Train NLL: 1.102, Val NLL: 1.171:  62%|██████▏   | 187/300 [45:11<26:55, 14.30s/it]Train NLL: 1.103, Val NLL: 1.175:  63%|██████▎   | 188/300 [45:26<26:50, 14.38s/it]Train NLL: 1.103, Val NLL: 1.169:  63%|██████▎   | 189/300 [45:38<25:42, 13.89s/it]Train NLL: 1.103, Val NLL: 1.171:  63%|██████▎   | 190/300 [45:55<26:46, 14.61s/it]Train NLL: 1.102, Val NLL: 1.171:  64%|██████▎   | 191/300 [46:05<24:18, 13.38s/it]Train NLL: 1.104, Val NLL: 1.167:  64%|██████▍   | 192/300 [46:27<28:32, 15.86s/it]Train NLL: 1.103, Val NLL: 1.168:  64%|██████▍   | 193/300 [46:41<27:16, 15.29s/it]Train NLL: 1.103, Val NLL: 1.166:  65%|██████▍   | 194/300 [46:57<27:18, 15.46s/it]Train NLL: 1.102, Val NLL: 1.167:  65%|██████▌   | 195/300 [47:09<25:20, 14.48s/it]Train NLL: 1.103, Val NLL: 1.166:  65%|██████▌   | 196/300 [47:25<25:51, 14.92s/it]Train NLL: 1.106, Val NLL: 1.167:  66%|██████▌   | 197/300 [47:39<25:24, 14.80s/it]Train NLL: 1.104, Val NLL: 1.172:  66%|██████▌   | 198/300 [47:55<25:34, 15.04s/it]Train NLL: 1.102, Val NLL: 1.170:  66%|██████▋   | 199/300 [48:10<25:20, 15.05s/it]Train NLL: 1.104, Val NLL: 1.166:  67%|██████▋   | 200/300 [48:24<24:34, 14.75s/it]Train NLL: 1.102, Val NLL: 1.169:  67%|██████▋   | 201/300 [48:38<23:51, 14.46s/it]Train NLL: 1.102, Val NLL: 1.167:  67%|██████▋   | 202/300 [48:53<24:04, 14.74s/it]Train NLL: 1.103, Val NLL: 1.172:  68%|██████▊   | 203/300 [49:07<23:14, 14.38s/it]Train NLL: 1.104, Val NLL: 1.166:  68%|██████▊   | 204/300 [49:22<23:13, 14.51s/it]Train NLL: 1.102, Val NLL: 1.165:  68%|██████▊   | 205/300 [49:37<23:17, 14.71s/it]Train NLL: 1.104, Val NLL: 1.174:  69%|██████▊   | 206/300 [49:52<23:20, 14.90s/it]Train NLL: 1.104, Val NLL: 1.165:  69%|██████▉   | 207/300 [50:07<23:13, 14.98s/it]Train NLL: 1.102, Val NLL: 1.167:  69%|██████▉   | 208/300 [50:21<22:22, 14.59s/it]Train NLL: 1.103, Val NLL: 1.166:  70%|██████▉   | 209/300 [50:35<21:51, 14.41s/it]Train NLL: 1.103, Val NLL: 1.170:  70%|███████   | 210/300 [50:51<22:16, 14.85s/it]Train NLL: 1.102, Val NLL: 1.174:  70%|███████   | 211/300 [51:06<22:12, 14.97s/it]Train NLL: 1.101, Val NLL: 1.164:  71%|███████   | 212/300 [51:20<21:43, 14.82s/it]Train NLL: 1.101, Val NLL: 1.165:  71%|███████   | 213/300 [51:37<22:02, 15.21s/it]Train NLL: 1.102, Val NLL: 1.167:  71%|███████▏  | 214/300 [51:52<21:52, 15.26s/it]Train NLL: 1.103, Val NLL: 1.169:  72%|███████▏  | 215/300 [52:08<22:04, 15.58s/it]Train NLL: 1.104, Val NLL: 1.169:  72%|███████▏  | 216/300 [52:23<21:20, 15.25s/it]Train NLL: 1.103, Val NLL: 1.165:  72%|███████▏  | 217/300 [52:39<21:38, 15.65s/it]Train NLL: 1.101, Val NLL: 1.166:  73%|███████▎  | 218/300 [52:54<20:53, 15.29s/it]Train NLL: 1.106, Val NLL: 1.164:  73%|███████▎  | 219/300 [53:10<20:55, 15.50s/it]Train NLL: 1.101, Val NLL: 1.166:  73%|███████▎  | 220/300 [53:25<20:40, 15.51s/it]Train NLL: 1.103, Val NLL: 1.167:  74%|███████▎  | 221/300 [53:40<20:16, 15.40s/it]Train NLL: 1.101, Val NLL: 1.190:  74%|███████▍  | 222/300 [53:55<19:36, 15.08s/it]Train NLL: 1.108, Val NLL: 1.177:  74%|███████▍  | 223/300 [54:11<19:40, 15.33s/it]Train NLL: 1.104, Val NLL: 1.171:  75%|███████▍  | 224/300 [54:25<19:11, 15.16s/it]Train NLL: 1.103, Val NLL: 1.168:  75%|███████▌  | 225/300 [54:41<18:59, 15.19s/it]Train NLL: 1.102, Val NLL: 1.168:  75%|███████▌  | 226/300 [54:57<19:18, 15.65s/it]Train NLL: 1.100, Val NLL: 1.164:  76%|███████▌  | 227/300 [55:13<18:51, 15.49s/it]Train NLL: 1.101, Val NLL: 1.166:  76%|███████▌  | 228/300 [55:29<19:01, 15.85s/it]Train NLL: 1.101, Val NLL: 1.175:  76%|███████▋  | 229/300 [55:45<18:47, 15.88s/it]Train NLL: 1.104, Val NLL: 1.166:  77%|███████▋  | 230/300 [55:59<17:45, 15.23s/it]Train NLL: 1.105, Val NLL: 1.174:  77%|███████▋  | 231/300 [56:12<16:49, 14.63s/it]Train NLL: 1.102, Val NLL: 1.171:  77%|███████▋  | 232/300 [56:28<16:53, 14.91s/it]Train NLL: 1.101, Val NLL: 1.179:  78%|███████▊  | 233/300 [56:42<16:27, 14.74s/it]Train NLL: 1.106, Val NLL: 1.167:  78%|███████▊  | 234/300 [56:56<15:54, 14.46s/it]Train NLL: 1.102, Val NLL: 1.167:  78%|███████▊  | 235/300 [57:10<15:26, 14.26s/it]Train NLL: 1.105, Val NLL: 1.173:  79%|███████▊  | 236/300 [57:26<15:47, 14.81s/it]Train NLL: 1.102, Val NLL: 1.165:  79%|███████▉  | 237/300 [57:41<15:41, 14.94s/it]Train NLL: 1.101, Val NLL: 1.166:  79%|███████▉  | 238/300 [57:53<14:38, 14.18s/it]Train NLL: 1.102, Val NLL: 1.170:  80%|███████▉  | 239/300 [58:09<14:51, 14.62s/it]Train NLL: 1.101, Val NLL: 1.169:  80%|████████  | 240/300 [58:23<14:33, 14.55s/it]Train NLL: 1.101, Val NLL: 1.172:  80%|████████  | 241/300 [58:40<15:01, 15.28s/it]Train NLL: 1.103, Val NLL: 1.179:  81%|████████  | 242/300 [58:57<15:05, 15.61s/it]Train NLL: 1.105, Val NLL: 1.169:  81%|████████  | 243/300 [59:12<14:35, 15.36s/it]Train NLL: 1.102, Val NLL: 1.165:  81%|████████▏ | 244/300 [59:28<14:31, 15.56s/it]Train NLL: 1.099, Val NLL: 1.166:  82%|████████▏ | 245/300 [59:41<13:31, 14.76s/it]Train NLL: 1.103, Val NLL: 1.169:  82%|████████▏ | 246/300 [59:55<13:18, 14.78s/it]Train NLL: 1.100, Val NLL: 1.166:  82%|████████▏ | 247/300 [1:00:09<12:46, 14.47s/it]Train NLL: 1.100, Val NLL: 1.165:  83%|████████▎ | 248/300 [1:00:23<12:27, 14.38s/it]Train NLL: 1.101, Val NLL: 1.169:  83%|████████▎ | 249/300 [1:00:37<12:06, 14.24s/it]Train NLL: 1.100, Val NLL: 1.165:  83%|████████▎ | 250/300 [1:00:50<11:34, 13.89s/it]Train NLL: 1.102, Val NLL: 1.167:  84%|████████▎ | 251/300 [1:01:06<11:55, 14.60s/it]Train NLL: 1.101, Val NLL: 1.167:  84%|████████▍ | 252/300 [1:01:19<11:15, 14.07s/it]Train NLL: 1.100, Val NLL: 1.162:  84%|████████▍ | 253/300 [1:01:35<11:29, 14.67s/it]Train NLL: 1.102, Val NLL: 1.169:  85%|████████▍ | 254/300 [1:01:49<11:05, 14.46s/it]Train NLL: 1.101, Val NLL: 1.165:  85%|████████▌ | 255/300 [1:02:05<11:05, 14.79s/it]Train NLL: 1.099, Val NLL: 1.168:  85%|████████▌ | 256/300 [1:02:19<10:40, 14.57s/it]Train NLL: 1.103, Val NLL: 1.163:  86%|████████▌ | 257/300 [1:02:35<10:47, 15.06s/it]Train NLL: 1.101, Val NLL: 1.162:  86%|████████▌ | 258/300 [1:02:48<10:02, 14.34s/it]Train NLL: 1.102, Val NLL: 1.167:  86%|████████▋ | 259/300 [1:03:02<09:42, 14.21s/it]Train NLL: 1.101, Val NLL: 1.177:  87%|████████▋ | 260/300 [1:03:17<09:37, 14.43s/it]Train NLL: 1.101, Val NLL: 1.162:  87%|████████▋ | 261/300 [1:03:30<09:12, 14.16s/it]Train NLL: 1.098, Val NLL: 1.165:  87%|████████▋ | 262/300 [1:03:45<09:07, 14.41s/it]Train NLL: 1.101, Val NLL: 1.162:  88%|████████▊ | 263/300 [1:03:59<08:47, 14.25s/it]Train NLL: 1.099, Val NLL: 1.167:  88%|████████▊ | 264/300 [1:04:15<08:52, 14.78s/it]Train NLL: 1.100, Val NLL: 1.173:  88%|████████▊ | 265/300 [1:04:32<09:00, 15.43s/it]Train NLL: 1.099, Val NLL: 1.164:  89%|████████▊ | 266/300 [1:04:46<08:32, 15.08s/it]Train NLL: 1.100, Val NLL: 1.172:  89%|████████▉ | 267/300 [1:05:00<08:05, 14.71s/it]Train NLL: 1.099, Val NLL: 1.167:  89%|████████▉ | 268/300 [1:05:17<08:12, 15.38s/it]Train NLL: 1.101, Val NLL: 1.176:  90%|████████▉ | 269/300 [1:05:33<08:01, 15.55s/it]Train NLL: 1.100, Val NLL: 1.164:  90%|█████████ | 270/300 [1:05:47<07:36, 15.21s/it]Train NLL: 1.099, Val NLL: 1.178:  90%|█████████ | 271/300 [1:06:03<07:20, 15.19s/it]Train NLL: 1.101, Val NLL: 1.167:  91%|█████████ | 272/300 [1:06:14<06:32, 14.01s/it]Train NLL: 1.099, Val NLL: 1.169:  91%|█████████ | 273/300 [1:06:32<06:55, 15.38s/it]Train NLL: 1.101, Val NLL: 1.171:  91%|█████████▏| 274/300 [1:06:47<06:36, 15.24s/it]Train NLL: 1.102, Val NLL: 1.175:  92%|█████████▏| 275/300 [1:07:02<06:13, 14.95s/it]Train NLL: 1.101, Val NLL: 1.167:  92%|█████████▏| 276/300 [1:07:15<05:45, 14.38s/it]Train NLL: 1.101, Val NLL: 1.172:  92%|█████████▏| 277/300 [1:07:28<05:24, 14.09s/it]Train NLL: 1.097, Val NLL: 1.163:  93%|█████████▎| 278/300 [1:07:42<05:11, 14.14s/it]Train NLL: 1.101, Val NLL: 1.163:  93%|█████████▎| 279/300 [1:07:58<05:04, 14.48s/it]Train NLL: 1.099, Val NLL: 1.164:  93%|█████████▎| 280/300 [1:08:11<04:41, 14.10s/it]Train NLL: 1.098, Val NLL: 1.163:  94%|█████████▎| 281/300 [1:08:27<04:40, 14.74s/it]Train NLL: 1.100, Val NLL: 1.166:  94%|█████████▍| 282/300 [1:08:44<04:34, 15.28s/it]Train NLL: 1.100, Val NLL: 1.171:  94%|█████████▍| 283/300 [1:08:58<04:12, 14.87s/it]Train NLL: 1.099, Val NLL: 1.163:  95%|█████████▍| 284/300 [1:09:14<04:06, 15.38s/it]Train NLL: 1.102, Val NLL: 1.164:  95%|█████████▌| 285/300 [1:09:31<03:58, 15.89s/it]Train NLL: 1.100, Val NLL: 1.171:  95%|█████████▌| 286/300 [1:09:45<03:33, 15.26s/it]Train NLL: 1.098, Val NLL: 1.163:  96%|█████████▌| 287/300 [1:09:59<03:13, 14.90s/it]Train NLL: 1.099, Val NLL: 1.167:  96%|█████████▌| 288/300 [1:10:14<02:58, 14.91s/it]Train NLL: 1.098, Val NLL: 1.176:  96%|█████████▋| 289/300 [1:10:31<02:49, 15.43s/it]Train NLL: 1.098, Val NLL: 1.165:  97%|█████████▋| 290/300 [1:10:43<02:24, 14.47s/it]Train NLL: 1.101, Val NLL: 1.166:  97%|█████████▋| 291/300 [1:10:58<02:12, 14.75s/it]Train NLL: 1.099, Val NLL: 1.168:  97%|█████████▋| 292/300 [1:11:12<01:55, 14.45s/it]Train NLL: 1.099, Val NLL: 1.174:  98%|█████████▊| 293/300 [1:11:28<01:44, 14.96s/it]Train NLL: 1.102, Val NLL: 1.163:  98%|█████████▊| 294/300 [1:11:43<01:29, 14.84s/it]Train NLL: 1.101, Val NLL: 1.169:  98%|█████████▊| 295/300 [1:11:58<01:14, 14.89s/it]Train NLL: 1.098, Val NLL: 1.162:  99%|█████████▊| 296/300 [1:12:12<00:58, 14.73s/it]Train NLL: 1.097, Val NLL: 1.173:  99%|█████████▉| 297/300 [1:12:27<00:44, 14.74s/it]Train NLL: 1.097, Val NLL: 1.168:  99%|█████████▉| 298/300 [1:12:42<00:29, 14.86s/it]Train NLL: 1.100, Val NLL: 1.167: 100%|█████████▉| 299/300 [1:12:56<00:14, 14.77s/it]Train NLL: 1.102, Val NLL: 1.163: 100%|██████████| 300/300 [1:13:11<00:00, 14.75s/it]Train NLL: 1.102, Val NLL: 1.163: 100%|██████████| 300/300 [1:13:11<00:00, 14.64s/it]
INFO - residual_nf - Completed after 1:13:13
