INFO - maf_vae - Running command 'run'
INFO - maf_vae - Started run with ID "2"
  0%|          | 0/400 [00:00<?, ?it/s]Train -ELBO: 18.189, Val -ELBO: 17.332:   1%|          | 4/400 [00:01<01:43,  3.82it/s]Train -ELBO: 16.629, Val -ELBO: 16.374:   2%|▎         | 10/400 [00:02<01:21,  4.77it/s]Train -ELBO: 15.752, Val -ELBO: 15.905:   4%|▍         | 16/400 [00:03<01:16,  5.01it/s]Train -ELBO: 15.407, Val -ELBO: 15.595:   6%|▌         | 22/400 [00:04<01:12,  5.20it/s]Train -ELBO: 15.619, Val -ELBO: 15.455:   7%|▋         | 28/400 [00:05<01:08,  5.42it/s]Train -ELBO: 15.565, Val -ELBO: 15.270:   8%|▊         | 34/400 [00:06<01:06,  5.54it/s]Train -ELBO: 15.205, Val -ELBO: 15.104:  10%|█         | 40/400 [00:07<01:04,  5.56it/s]Train -ELBO: 14.949, Val -ELBO: 14.983:  12%|█▏        | 46/400 [00:08<01:03,  5.54it/s]Train -ELBO: 15.520, Val -ELBO: 15.008:  13%|█▎        | 52/400 [00:09<01:02,  5.58it/s]Train -ELBO: 15.037, Val -ELBO: 14.895:  14%|█▍        | 58/400 [00:10<01:00,  5.63it/s]Train -ELBO: 14.072, Val -ELBO: 14.747:  16%|█▌        | 64/400 [00:11<01:00,  5.54it/s]Train -ELBO: 14.337, Val -ELBO: 14.613:  18%|█▊        | 70/400 [00:12<01:00,  5.47it/s]Train -ELBO: 13.695, Val -ELBO: 14.646:  19%|█▉        | 76/400 [00:13<00:58,  5.58it/s]Train -ELBO: 13.949, Val -ELBO: 14.276:  20%|██        | 82/400 [00:15<00:56,  5.61it/s]Train -ELBO: 13.181, Val -ELBO: 14.107:  22%|██▏       | 88/400 [00:16<00:56,  5.51it/s]Train -ELBO: 14.230, Val -ELBO: 14.062:  24%|██▎       | 94/400 [00:17<00:55,  5.51it/s]Train -ELBO: 12.848, Val -ELBO: 13.939:  25%|██▌       | 100/400 [00:18<00:54,  5.53it/s]Train -ELBO: 13.083, Val -ELBO: 13.870:  26%|██▋       | 106/400 [00:19<00:52,  5.58it/s]Train -ELBO: 12.733, Val -ELBO: 13.874:  28%|██▊       | 112/400 [00:20<00:51,  5.62it/s]Train -ELBO: 12.711, Val -ELBO: 14.000:  30%|██▉       | 118/400 [00:21<00:51,  5.44it/s]Train -ELBO: 13.283, Val -ELBO: 13.934:  31%|███       | 124/400 [00:22<00:50,  5.51it/s]Train -ELBO: 11.710, Val -ELBO: 14.073:  32%|███▎      | 130/400 [00:23<00:48,  5.60it/s]Train -ELBO: 15.034, Val -ELBO: 14.059:  34%|███▍      | 136/400 [00:24<00:46,  5.64it/s]Train -ELBO: 12.148, Val -ELBO: 13.872:  36%|███▌      | 142/400 [00:25<00:46,  5.50it/s]Train -ELBO: 12.907, Val -ELBO: 13.574:  37%|███▋      | 148/400 [00:26<00:45,  5.52it/s]Epoch   150: reducing learning rate of group 0 to 1.0000e-04.
Train -ELBO: 12.181, Val -ELBO: 13.676:  38%|███▊      | 154/400 [00:28<00:44,  5.57it/s]Train -ELBO: 12.065, Val -ELBO: 13.609:  40%|████      | 160/400 [00:29<00:42,  5.59it/s]Train -ELBO: 12.012, Val -ELBO: 13.648:  42%|████▏     | 166/400 [00:30<00:41,  5.63it/s]Train -ELBO: 11.918, Val -ELBO: 13.638:  43%|████▎     | 172/400 [00:31<00:41,  5.47it/s]Train -ELBO: 11.820, Val -ELBO: 13.567:  44%|████▍     | 178/400 [00:32<00:41,  5.40it/s]Train -ELBO: 12.300, Val -ELBO: 13.625:  46%|████▌     | 184/400 [00:33<00:39,  5.53it/s]Train -ELBO: 11.861, Val -ELBO: 13.642:  48%|████▊     | 190/400 [00:34<00:37,  5.62it/s]Train -ELBO: 11.631, Val -ELBO: 13.651:  49%|████▉     | 196/400 [00:35<00:35,  5.69it/s]Train -ELBO: 11.410, Val -ELBO: 13.647:  50%|█████     | 202/400 [00:36<00:34,  5.74it/s]Train -ELBO: 11.578, Val -ELBO: 13.634:  52%|█████▏    | 208/400 [00:37<00:33,  5.78it/s]Epoch   213: reducing learning rate of group 0 to 1.0000e-05.
Train -ELBO: 12.289, Val -ELBO: 13.564:  54%|█████▎    | 214/400 [00:38<00:32,  5.78it/s]Train -ELBO: 11.795, Val -ELBO: 13.546:  55%|█████▌    | 220/400 [00:39<00:31,  5.79it/s]Train -ELBO: 11.474, Val -ELBO: 13.576:  56%|█████▋    | 226/400 [00:40<00:29,  5.81it/s]Train -ELBO: 11.422, Val -ELBO: 13.568:  58%|█████▊    | 232/400 [00:41<00:28,  5.82it/s]Train -ELBO: 11.366, Val -ELBO: 13.526:  60%|█████▉    | 238/400 [00:42<00:27,  5.84it/s]Epoch   244: reducing learning rate of group 0 to 1.0000e-06.
Train -ELBO: 11.569, Val -ELBO: 13.669:  61%|██████    | 244/400 [00:43<00:26,  5.84it/s]Train -ELBO: 11.692, Val -ELBO: 13.586:  62%|██████▎   | 250/400 [00:44<00:25,  5.84it/s]Train -ELBO: 11.547, Val -ELBO: 13.515:  64%|██████▍   | 256/400 [00:45<00:24,  5.85it/s]Train -ELBO: 12.023, Val -ELBO: 13.643:  66%|██████▌   | 262/400 [00:46<00:23,  5.85it/s]Train -ELBO: 11.337, Val -ELBO: 13.530:  67%|██████▋   | 268/400 [00:47<00:22,  5.86it/s]Train -ELBO: 11.478, Val -ELBO: 13.590:  68%|██████▊   | 274/400 [00:48<00:21,  5.84it/s]Train -ELBO: 11.543, Val -ELBO: 13.530:  70%|███████   | 280/400 [00:49<00:20,  5.84it/s]Train -ELBO: 11.760, Val -ELBO: 13.579:  72%|███████▏  | 286/400 [00:50<00:19,  5.85it/s]Train -ELBO: 11.575, Val -ELBO: 13.547:  73%|███████▎  | 292/400 [00:51<00:18,  5.85it/s]Train -ELBO: 12.094, Val -ELBO: 13.610:  74%|███████▍  | 298/400 [00:52<00:17,  5.86it/s]Train -ELBO: 11.884, Val -ELBO: 13.507:  76%|███████▌  | 304/400 [00:54<00:16,  5.85it/s]Train -ELBO: 11.437, Val -ELBO: 13.591:  78%|███████▊  | 310/400 [00:55<00:15,  5.84it/s]Train -ELBO: 12.103, Val -ELBO: 13.588:  79%|███████▉  | 316/400 [00:56<00:14,  5.85it/s]Train -ELBO: 11.796, Val -ELBO: 13.620:  80%|████████  | 322/400 [00:57<00:13,  5.85it/s]Train -ELBO: 11.144, Val -ELBO: 13.671:  82%|████████▏ | 328/400 [00:58<00:12,  5.86it/s]Train -ELBO: 11.625, Val -ELBO: 13.556:  84%|████████▎ | 334/400 [00:59<00:11,  5.85it/s]Train -ELBO: 11.649, Val -ELBO: 13.546:  85%|████████▌ | 340/400 [01:00<00:10,  5.85it/s]Train -ELBO: 11.670, Val -ELBO: 13.718:  86%|████████▋ | 346/400 [01:01<00:09,  5.86it/s]Train -ELBO: 11.691, Val -ELBO: 13.542:  88%|████████▊ | 352/400 [01:02<00:08,  5.86it/s]Train -ELBO: 12.143, Val -ELBO: 13.620:  90%|████████▉ | 358/400 [01:03<00:07,  5.87it/s]Train -ELBO: 11.754, Val -ELBO: 13.631:  91%|█████████ | 364/400 [01:04<00:06,  5.86it/s]Train -ELBO: 11.275, Val -ELBO: 13.580:  92%|█████████▎| 370/400 [01:05<00:05,  5.86it/s]Train -ELBO: 11.742, Val -ELBO: 13.630:  94%|█████████▍| 376/400 [01:06<00:04,  5.86it/s]Train -ELBO: 11.349, Val -ELBO: 13.590:  96%|█████████▌| 382/400 [01:07<00:03,  5.86it/s]Train -ELBO: 11.620, Val -ELBO: 13.568:  97%|█████████▋| 388/400 [01:08<00:02,  5.70it/s]Train -ELBO: 11.330, Val -ELBO: 13.582:  98%|█████████▊| 394/400 [01:09<00:01,  5.68it/s]Train -ELBO: 11.764, Val -ELBO: 13.628: 100%|██████████| 400/400 [01:10<00:00,  5.67it/s]Train -ELBO: 11.764, Val -ELBO: 13.628: 100%|██████████| 400/400 [01:10<00:00,  5.67it/s]
