INFO - siren_vae - Running command 'run'
INFO - siren_vae - Started run with ID "4"
[ENCODED STRUCTURE] Using faithful BN structure.
[MODEL TYPE] IW-SIReN-VAE (k=32)
[WARM-UP] Applied to ['z0', 'z1', 'z2', 'z3', 'z4']
  0%|          | 0/400 [00:00<?, ?it/s]Train -ELBO: 18.20853, Val -ELBO: 17.29364:   0%|          | 1/400 [00:07<48:18,  7.26s/it]Train -ELBO: 17.60296, Val -ELBO: 16.87757:   0%|          | 2/400 [00:13<45:40,  6.89s/it]Train -ELBO: 16.94920, Val -ELBO: 16.46517:   1%|          | 3/400 [00:20<45:17,  6.85s/it]Train -ELBO: 16.35769, Val -ELBO: 16.05090:   1%|          | 4/400 [00:27<44:41,  6.77s/it]Train -ELBO: 15.70554, Val -ELBO: 15.69332:   1%|▏         | 5/400 [00:34<44:25,  6.75s/it]Train -ELBO: 15.11050, Val -ELBO: 15.42818:   2%|▏         | 6/400 [00:40<44:15,  6.74s/it]Train -ELBO: 14.53887, Val -ELBO: 15.29680:   2%|▏         | 7/400 [00:47<44:00,  6.72s/it]Train -ELBO: 14.03841, Val -ELBO: 15.30831:   2%|▏         | 8/400 [00:54<43:58,  6.73s/it]Train -ELBO: 13.63896, Val -ELBO: 15.28899:   2%|▏         | 9/400 [01:00<43:51,  6.73s/it]Train -ELBO: 13.28203, Val -ELBO: 15.21865:   2%|▎         | 10/400 [01:07<43:39,  6.72s/it]Train -ELBO: 12.87698, Val -ELBO: 15.11930:   3%|▎         | 11/400 [01:14<43:35,  6.72s/it]Train -ELBO: 12.59604, Val -ELBO: 15.10209:   3%|▎         | 12/400 [01:21<43:29,  6.73s/it]Train -ELBO: 12.37575, Val -ELBO: 14.92282:   3%|▎         | 13/400 [01:27<43:12,  6.70s/it]Train -ELBO: 11.80530, Val -ELBO: 14.64126:   4%|▎         | 14/400 [01:34<43:12,  6.72s/it]Train -ELBO: 11.49385, Val -ELBO: 14.57205:   4%|▍         | 15/400 [01:41<43:08,  6.72s/it]Train -ELBO: 11.31135, Val -ELBO: 14.53427:   4%|▍         | 16/400 [01:47<42:57,  6.71s/it]Train -ELBO: 11.08021, Val -ELBO: 14.53333:   4%|▍         | 17/400 [01:54<42:55,  6.72s/it]Train -ELBO: 10.97350, Val -ELBO: 14.52941:   4%|▍         | 18/400 [02:01<42:52,  6.73s/it]Train -ELBO: 10.59545, Val -ELBO: 14.62312:   5%|▍         | 19/400 [02:08<42:36,  6.71s/it]Train -ELBO: 10.72839, Val -ELBO: 14.32146:   5%|▌         | 20/400 [02:14<42:40,  6.74s/it]Train -ELBO: 10.82977, Val -ELBO: 14.18450:   5%|▌         | 21/400 [02:21<42:32,  6.73s/it]Train -ELBO: 10.37331, Val -ELBO: 14.02141:   6%|▌         | 22/400 [02:28<42:20,  6.72s/it]Train -ELBO: 9.97823, Val -ELBO: 13.96113:   6%|▌         | 23/400 [02:35<42:18,  6.73s/it] Train -ELBO: 10.71511, Val -ELBO: 13.79480:   6%|▌         | 24/400 [02:41<42:13,  6.74s/it]Train -ELBO: 10.08029, Val -ELBO: 13.73603:   6%|▋         | 25/400 [02:48<41:54,  6.70s/it]Train -ELBO: 10.11771, Val -ELBO: 13.48047:   6%|▋         | 26/400 [02:55<41:52,  6.72s/it]Train -ELBO: 9.96656, Val -ELBO: 13.28070:   7%|▋         | 27/400 [03:01<41:48,  6.73s/it] Train -ELBO: 9.87712, Val -ELBO: 13.10181:   7%|▋         | 28/400 [03:08<41:38,  6.72s/it]Train -ELBO: 9.85350, Val -ELBO: 13.03763:   7%|▋         | 29/400 [03:15<41:29,  6.71s/it]Train -ELBO: 9.87505, Val -ELBO: 12.97946:   8%|▊         | 30/400 [03:22<41:29,  6.73s/it]Train -ELBO: 9.79389, Val -ELBO: 12.94220:   8%|▊         | 31/400 [03:28<41:24,  6.73s/it]Train -ELBO: 9.61826, Val -ELBO: 13.00701:   8%|▊         | 32/400 [03:35<41:18,  6.74s/it]Train -ELBO: 9.70402, Val -ELBO: 12.80816:   8%|▊         | 33/400 [03:42<41:15,  6.75s/it]Train -ELBO: 9.40111, Val -ELBO: 12.82267:   8%|▊         | 34/400 [03:49<41:04,  6.73s/it]Train -ELBO: 9.48091, Val -ELBO: 12.92977:   9%|▉         | 35/400 [03:55<40:54,  6.73s/it]Train -ELBO: 9.36081, Val -ELBO: 13.00197:   9%|▉         | 36/400 [04:02<41:00,  6.76s/it]Train -ELBO: 9.71950, Val -ELBO: 12.73875:   9%|▉         | 37/400 [04:09<40:47,  6.74s/it]Train -ELBO: 9.15514, Val -ELBO: 12.66844:  10%|▉         | 38/400 [04:15<40:36,  6.73s/it]Train -ELBO: 9.09283, Val -ELBO: 12.86234:  10%|▉         | 39/400 [04:22<40:30,  6.73s/it]Train -ELBO: 9.23252, Val -ELBO: 12.82562:  10%|█         | 40/400 [04:29<40:22,  6.73s/it]Train -ELBO: 9.27518, Val -ELBO: 12.65865:  10%|█         | 41/400 [04:36<40:17,  6.74s/it]Train -ELBO: 8.93170, Val -ELBO: 12.55428:  10%|█         | 42/400 [04:42<40:09,  6.73s/it]Train -ELBO: 9.18218, Val -ELBO: 12.69868:  11%|█         | 43/400 [04:49<40:00,  6.72s/it]Train -ELBO: 9.09612, Val -ELBO: 12.75983:  11%|█         | 44/400 [04:56<39:54,  6.73s/it]Train -ELBO: 8.95415, Val -ELBO: 12.80571:  11%|█▏        | 45/400 [05:03<39:50,  6.73s/it]Train -ELBO: 9.10654, Val -ELBO: 12.92440:  12%|█▏        | 46/400 [05:09<39:35,  6.71s/it]Train -ELBO: 9.13264, Val -ELBO: 13.23979:  12%|█▏        | 47/400 [05:16<39:33,  6.72s/it]Train -ELBO: 9.22441, Val -ELBO: 13.42612:  12%|█▏        | 48/400 [05:23<39:22,  6.71s/it]Train -ELBO: 9.26189, Val -ELBO: 13.59964:  12%|█▏        | 49/400 [05:29<39:20,  6.72s/it]Train -ELBO: 9.42264, Val -ELBO: 13.46796:  12%|█▎        | 50/400 [05:36<39:13,  6.73s/it]Train -ELBO: 9.36533, Val -ELBO: 13.12527:  13%|█▎        | 51/400 [05:43<39:16,  6.75s/it]Train -ELBO: 9.36212, Val -ELBO: 12.75001:  13%|█▎        | 52/400 [05:50<39:08,  6.75s/it]Train -ELBO: 9.10158, Val -ELBO: 12.53483:  13%|█▎        | 53/400 [05:56<38:54,  6.73s/it]Train -ELBO: 9.01608, Val -ELBO: 12.33323:  14%|█▎        | 54/400 [06:03<38:50,  6.74s/it]Train -ELBO: 8.82271, Val -ELBO: 12.19897:  14%|█▍        | 55/400 [06:10<38:47,  6.75s/it]Train -ELBO: 8.84817, Val -ELBO: 12.30439:  14%|█▍        | 56/400 [06:17<38:35,  6.73s/it]Train -ELBO: 8.75441, Val -ELBO: 12.59136:  14%|█▍        | 57/400 [06:23<38:36,  6.75s/it]Train -ELBO: 8.87563, Val -ELBO: 12.70997:  14%|█▍        | 58/400 [06:30<38:27,  6.75s/it]Train -ELBO: 8.79554, Val -ELBO: 12.57448:  15%|█▍        | 59/400 [06:37<38:15,  6.73s/it]Train -ELBO: 8.76136, Val -ELBO: 12.39930:  15%|█▌        | 60/400 [06:44<38:12,  6.74s/it]Train -ELBO: 8.66182, Val -ELBO: 12.44536:  15%|█▌        | 61/400 [06:50<38:11,  6.76s/it]Train -ELBO: 8.90443, Val -ELBO: 12.50325:  16%|█▌        | 62/400 [06:57<37:57,  6.74s/it]Train -ELBO: 8.95262, Val -ELBO: 12.53429:  16%|█▌        | 63/400 [07:04<37:51,  6.74s/it]Train -ELBO: 8.63516, Val -ELBO: 12.47844:  16%|█▌        | 64/400 [07:11<37:45,  6.74s/it]Train -ELBO: 8.59563, Val -ELBO: 12.64072:  16%|█▋        | 65/400 [07:17<37:33,  6.73s/it]Train -ELBO: 8.64428, Val -ELBO: 13.04538:  16%|█▋        | 66/400 [07:24<37:23,  6.72s/it]Train -ELBO: 8.96234, Val -ELBO: 12.87916:  17%|█▋        | 67/400 [07:31<37:21,  6.73s/it]Train -ELBO: 9.03624, Val -ELBO: 12.59533:  17%|█▋        | 68/400 [07:37<37:10,  6.72s/it]Train -ELBO: 8.91483, Val -ELBO: 12.13775:  17%|█▋        | 69/400 [07:44<37:08,  6.73s/it]Train -ELBO: 8.76231, Val -ELBO: 12.14451:  18%|█▊        | 70/400 [07:51<37:05,  6.74s/it]Train -ELBO: 9.13917, Val -ELBO: 12.23780:  18%|█▊        | 71/400 [07:58<36:55,  6.73s/it]Train -ELBO: 8.68414, Val -ELBO: 12.26417:  18%|█▊        | 72/400 [08:04<36:49,  6.74s/it]Train -ELBO: 8.99594, Val -ELBO: 12.23262:  18%|█▊        | 73/400 [08:11<36:45,  6.74s/it]Train -ELBO: 8.59757, Val -ELBO: 12.27922:  18%|█▊        | 74/400 [08:18<36:34,  6.73s/it]Train -ELBO: 8.77035, Val -ELBO: 12.49009:  19%|█▉        | 75/400 [08:25<36:31,  6.74s/it]Train -ELBO: 8.98364, Val -ELBO: 12.35364:  19%|█▉        | 76/400 [08:31<36:26,  6.75s/it]Train -ELBO: 8.85644, Val -ELBO: 12.38098:  19%|█▉        | 77/400 [08:38<36:09,  6.72s/it]Train -ELBO: 8.71433, Val -ELBO: 12.44257:  20%|█▉        | 78/400 [08:45<36:06,  6.73s/it]Train -ELBO: 8.82572, Val -ELBO: 12.75909:  20%|█▉        | 79/400 [08:52<36:03,  6.74s/it]Train -ELBO: 8.67579, Val -ELBO: 12.53808:  20%|██        | 80/400 [08:58<35:57,  6.74s/it]Train -ELBO: 8.47117, Val -ELBO: 12.75706:  20%|██        | 81/400 [09:05<35:52,  6.75s/it]Train -ELBO: 8.69502, Val -ELBO: 13.05135:  20%|██        | 82/400 [09:12<35:47,  6.75s/it]Train -ELBO: 11.11392, Val -ELBO: 13.49658:  21%|██        | 83/400 [09:19<35:33,  6.73s/it]Train -ELBO: 9.14162, Val -ELBO: 13.62481:  21%|██        | 84/400 [09:25<35:32,  6.75s/it] Train -ELBO: 8.98941, Val -ELBO: 14.95349:  21%|██▏       | 85/400 [09:32<35:30,  6.76s/it]Train -ELBO: 10.58341, Val -ELBO: 15.35284:  22%|██▏       | 86/400 [09:39<35:18,  6.75s/it]Train -ELBO: 11.04532, Val -ELBO: 14.98423:  22%|██▏       | 87/400 [09:46<35:11,  6.75s/it]Train -ELBO: 10.65936, Val -ELBO: 14.63764:  22%|██▏       | 88/400 [09:52<35:07,  6.76s/it]Train -ELBO: 10.73157, Val -ELBO: 14.06061:  22%|██▏       | 89/400 [09:59<34:56,  6.74s/it]Train -ELBO: 10.34004, Val -ELBO: 13.62620:  22%|██▎       | 90/400 [10:06<34:45,  6.73s/it]Train -ELBO: 10.10990, Val -ELBO: 13.65178:  23%|██▎       | 91/400 [10:13<34:45,  6.75s/it]Train -ELBO: 10.36266, Val -ELBO: 12.94838:  23%|██▎       | 92/400 [10:19<34:32,  6.73s/it]Train -ELBO: 9.98973, Val -ELBO: 12.87917:  23%|██▎       | 93/400 [10:26<34:26,  6.73s/it] Train -ELBO: 10.04340, Val -ELBO: 12.75805:  24%|██▎       | 94/400 [10:33<34:21,  6.74s/it]Train -ELBO: 10.21741, Val -ELBO: 12.49244:  24%|██▍       | 95/400 [10:40<34:17,  6.74s/it]Train -ELBO: 10.09657, Val -ELBO: 12.24069:  24%|██▍       | 96/400 [10:46<34:07,  6.73s/it]Train -ELBO: 10.01468, Val -ELBO: 12.10359:  24%|██▍       | 97/400 [10:53<34:05,  6.75s/it]Train -ELBO: 10.08606, Val -ELBO: 12.02999:  24%|██▍       | 98/400 [11:00<33:58,  6.75s/it]Train -ELBO: 9.91211, Val -ELBO: 12.12758:  25%|██▍       | 99/400 [11:06<33:50,  6.75s/it] Train -ELBO: 10.09416, Val -ELBO: 12.16683:  25%|██▌       | 100/400 [11:13<33:43,  6.74s/it]Train -ELBO: 10.11685, Val -ELBO: 12.02488:  25%|██▌       | 101/400 [11:20<33:42,  6.76s/it]Train -ELBO: 9.79322, Val -ELBO: 11.89545:  26%|██▌       | 102/400 [11:27<33:30,  6.75s/it] Train -ELBO: 9.86434, Val -ELBO: 11.86451:  26%|██▌       | 103/400 [11:34<33:27,  6.76s/it]Train -ELBO: 9.73828, Val -ELBO: 11.92195:  26%|██▌       | 104/400 [11:40<33:24,  6.77s/it]Train -ELBO: 9.71065, Val -ELBO: 11.92278:  26%|██▋       | 105/400 [11:47<33:06,  6.73s/it]Train -ELBO: 9.92613, Val -ELBO: 11.88590:  26%|██▋       | 106/400 [11:54<33:05,  6.75s/it]Train -ELBO: 9.64647, Val -ELBO: 11.92730:  27%|██▋       | 107/400 [12:01<33:04,  6.77s/it]Train -ELBO: 9.75732, Val -ELBO: 11.99089:  27%|██▋       | 108/400 [12:07<32:48,  6.74s/it]Train -ELBO: 9.45596, Val -ELBO: 12.04466:  27%|██▋       | 109/400 [12:14<32:43,  6.75s/it]Train -ELBO: 9.50527, Val -ELBO: 12.08296:  28%|██▊       | 110/400 [12:21<32:37,  6.75s/it]Train -ELBO: 9.55392, Val -ELBO: 12.17095:  28%|██▊       | 111/400 [12:28<32:36,  6.77s/it]Train -ELBO: 9.56003, Val -ELBO: 12.26418:  28%|██▊       | 112/400 [12:34<32:28,  6.76s/it]Train -ELBO: 9.64734, Val -ELBO: 12.20483:  28%|██▊       | 113/400 [12:41<32:17,  6.75s/it]Train -ELBO: 9.63318, Val -ELBO: 12.10034:  28%|██▊       | 114/400 [12:48<32:05,  6.73s/it]Epoch    15: reducing learning rate of group 0 to 1.0000e-03.
Train -ELBO: 9.57916, Val -ELBO: 12.15587:  29%|██▉       | 115/400 [12:55<32:01,  6.74s/it]Train -ELBO: 9.60961, Val -ELBO: 12.11943:  29%|██▉       | 116/400 [13:01<31:55,  6.75s/it]Train -ELBO: 9.80540, Val -ELBO: 12.10272:  29%|██▉       | 117/400 [13:08<31:42,  6.72s/it]Train -ELBO: 9.43576, Val -ELBO: 12.12224:  30%|██▉       | 118/400 [13:15<31:42,  6.75s/it]Train -ELBO: 9.39479, Val -ELBO: 12.07782:  30%|██▉       | 119/400 [13:22<31:36,  6.75s/it]Train -ELBO: 9.36800, Val -ELBO: 12.08634:  30%|███       | 120/400 [13:28<31:28,  6.74s/it]Train -ELBO: 9.35458, Val -ELBO: 12.07598:  30%|███       | 121/400 [13:35<31:22,  6.75s/it]Train -ELBO: 9.58121, Val -ELBO: 12.05253:  30%|███       | 122/400 [13:42<31:15,  6.75s/it]Train -ELBO: 9.31903, Val -ELBO: 12.09951:  31%|███       | 123/400 [13:48<31:00,  6.72s/it]Train -ELBO: 9.35892, Val -ELBO: 12.03638:  31%|███       | 124/400 [13:55<30:58,  6.73s/it]Train -ELBO: 9.49523, Val -ELBO: 12.03674:  31%|███▏      | 125/400 [14:02<30:54,  6.74s/it]Train -ELBO: 9.47323, Val -ELBO: 12.03383:  32%|███▏      | 126/400 [14:09<30:45,  6.73s/it]Train -ELBO: 9.48127, Val -ELBO: 12.02418:  32%|███▏      | 127/400 [14:15<30:39,  6.74s/it]Train -ELBO: 9.53675, Val -ELBO: 12.06155:  32%|███▏      | 128/400 [14:22<30:35,  6.75s/it]Train -ELBO: 9.23526, Val -ELBO: 12.04442:  32%|███▏      | 129/400 [14:29<30:22,  6.72s/it]Train -ELBO: 9.35694, Val -ELBO: 12.03601:  32%|███▎      | 130/400 [14:36<30:17,  6.73s/it]Train -ELBO: 9.31763, Val -ELBO: 12.03398:  33%|███▎      | 131/400 [14:42<30:15,  6.75s/it]Train -ELBO: 9.28837, Val -ELBO: 12.04261:  33%|███▎      | 132/400 [14:49<30:03,  6.73s/it]Train -ELBO: 9.37240, Val -ELBO: 11.99798:  33%|███▎      | 133/400 [14:56<29:55,  6.73s/it]Train -ELBO: 9.64932, Val -ELBO: 12.00557:  34%|███▎      | 134/400 [15:03<29:56,  6.75s/it]Epoch    35: reducing learning rate of group 0 to 1.0000e-04.
Train -ELBO: 9.55438, Val -ELBO: 12.02125:  34%|███▍      | 135/400 [15:09<29:47,  6.74s/it]Train -ELBO: 9.33220, Val -ELBO: 12.02266:  34%|███▍      | 136/400 [15:16<29:37,  6.73s/it]Train -ELBO: 9.30842, Val -ELBO: 12.00833:  34%|███▍      | 137/400 [15:23<29:35,  6.75s/it]Train -ELBO: 9.29741, Val -ELBO: 12.00299:  34%|███▍      | 138/400 [15:30<29:44,  6.81s/it]Train -ELBO: 9.31532, Val -ELBO: 12.02215:  35%|███▍      | 139/400 [15:36<29:30,  6.78s/it]Train -ELBO: 9.48930, Val -ELBO: 12.04723:  35%|███▌      | 140/400 [15:44<29:45,  6.87s/it]Epoch    41: reducing learning rate of group 0 to 1.0000e-05.
Train -ELBO: 9.34181, Val -ELBO: 12.01487:  35%|███▌      | 141/400 [15:51<29:58,  6.94s/it]Train -ELBO: 9.24634, Val -ELBO: 12.00158:  36%|███▌      | 142/400 [15:57<29:41,  6.90s/it]Train -ELBO: 9.27090, Val -ELBO: 12.05328:  36%|███▌      | 143/400 [16:04<29:39,  6.93s/it]Train -ELBO: 9.35708, Val -ELBO: 12.02625:  36%|███▌      | 144/400 [16:11<29:19,  6.87s/it]Train -ELBO: 9.14257, Val -ELBO: 12.01244:  36%|███▋      | 145/400 [16:18<28:58,  6.82s/it]