{
  "test": {
    "steps": [
      0
    ],
    "timestamps": [
      "2022-07-09T21:03:27.957239"
    ],
    "values": [
      8.62220018919989
    ]
  },
  "train": {
    "steps": [
      0,
      1,
      2,
      3,
      4,
      5,
      6,
      7,
      8,
      9,
      10,
      11,
      12,
      13,
      14,
      15,
      16,
      17,
      18,
      19,
      20,
      21,
      22,
      23,
      24,
      25,
      26,
      27,
      28,
      29,
      30,
      31,
      32,
      33,
      34,
      35,
      36,
      37,
      38,
      39,
      40,
      41,
      42,
      43,
      44,
      45,
      46,
      47,
      48,
      49,
      50,
      51,
      52,
      53,
      54,
      55,
      56,
      57,
      58,
      59,
      60,
      61,
      62,
      63,
      64,
      65,
      66,
      67,
      68,
      69,
      70,
      71,
      72,
      73,
      74,
      75,
      76,
      77,
      78,
      79,
      80,
      81,
      82,
      83,
      84,
      85,
      86,
      87,
      88,
      89,
      90,
      91,
      92,
      93,
      94,
      95,
      96,
      97,
      98,
      99,
      100,
      101,
      102,
      103,
      104,
      105,
      106,
      107,
      108,
      109,
      110,
      111,
      112,
      113,
      114,
      115,
      116,
      117,
      118,
      119,
      120,
      121,
      122,
      123,
      124,
      125,
      126,
      127,
      128,
      129,
      130,
      131,
      132,
      133,
      134,
      135,
      136,
      137,
      138,
      139,
      140,
      141,
      142,
      143,
      144,
      145,
      146,
      147,
      148,
      149,
      150,
      151,
      152,
      153,
      154,
      155,
      156,
      157,
      158,
      159,
      160,
      161,
      162,
      163,
      164,
      165,
      166,
      167,
      168,
      169,
      170,
      171,
      172,
      173,
      174,
      175,
      176,
      177,
      178,
      179,
      180,
      181,
      182,
      183,
      184,
      185,
      186,
      187,
      188,
      189,
      190,
      191,
      192,
      193,
      194,
      195,
      196,
      197,
      198,
      199,
      200,
      201,
      202,
      203,
      204,
      205,
      206,
      207,
      208,
      209,
      210,
      211,
      212,
      213,
      214,
      215,
      216,
      217,
      218,
      219,
      220,
      221,
      222,
      223,
      224,
      225,
      226,
      227,
      228,
      229,
      230,
      231,
      232,
      233,
      234,
      235,
      236,
      237,
      238,
      239,
      240,
      241,
      242,
      243,
      244,
      245,
      246,
      247,
      248,
      249,
      250,
      251,
      252,
      253,
      254,
      255,
      256,
      257,
      258,
      259,
      260,
      261,
      262,
      263,
      264,
      265,
      266,
      267,
      268,
      269,
      270,
      271,
      272,
      273,
      274,
      275,
      276,
      277,
      278,
      279,
      280,
      281,
      282,
      283,
      284,
      285,
      286,
      287,
      288,
      289,
      290,
      291,
      292,
      293,
      294,
      295,
      296,
      297,
      298,
      299
    ],
    "timestamps": [
      "2022-07-09T20:50:08.231887",
      "2022-07-09T20:50:12.142196",
      "2022-07-09T20:50:15.479569",
      "2022-07-09T20:50:17.946748",
      "2022-07-09T20:50:20.469508",
      "2022-07-09T20:50:22.955976",
      "2022-07-09T20:50:25.503187",
      "2022-07-09T20:50:28.019625",
      "2022-07-09T20:50:30.593293",
      "2022-07-09T20:50:33.075725",
      "2022-07-09T20:50:35.509803",
      "2022-07-09T20:50:38.010372",
      "2022-07-09T20:50:40.501659",
      "2022-07-09T20:50:42.934630",
      "2022-07-09T20:50:45.383193",
      "2022-07-09T20:50:47.883440",
      "2022-07-09T20:50:50.324241",
      "2022-07-09T20:50:52.773428",
      "2022-07-09T20:50:55.219944",
      "2022-07-09T20:50:57.661722",
      "2022-07-09T20:51:00.095772",
      "2022-07-09T20:51:02.538507",
      "2022-07-09T20:51:04.994361",
      "2022-07-09T20:51:07.422328",
      "2022-07-09T20:51:09.865851",
      "2022-07-09T20:51:12.308035",
      "2022-07-09T20:51:14.760319",
      "2022-07-09T20:51:17.193183",
      "2022-07-09T20:51:19.715911",
      "2022-07-09T20:51:22.151758",
      "2022-07-09T20:51:24.629998",
      "2022-07-09T20:51:27.069839",
      "2022-07-09T20:51:29.500977",
      "2022-07-09T20:51:31.937828",
      "2022-07-09T20:51:34.367102",
      "2022-07-09T20:51:36.831467",
      "2022-07-09T20:51:39.270682",
      "2022-07-09T20:51:41.711350",
      "2022-07-09T20:51:44.153496",
      "2022-07-09T20:51:46.589048",
      "2022-07-09T20:51:49.033104",
      "2022-07-09T20:51:51.499116",
      "2022-07-09T20:51:54.059084",
      "2022-07-09T20:51:56.486125",
      "2022-07-09T20:51:58.946515",
      "2022-07-09T20:52:01.377247",
      "2022-07-09T20:52:03.839655",
      "2022-07-09T20:52:06.344578",
      "2022-07-09T20:52:08.800800",
      "2022-07-09T20:52:11.307119",
      "2022-07-09T20:52:13.755275",
      "2022-07-09T20:52:16.309253",
      "2022-07-09T20:52:18.953824",
      "2022-07-09T20:52:21.388001",
      "2022-07-09T20:52:23.847597",
      "2022-07-09T20:52:26.316302",
      "2022-07-09T20:52:28.799559",
      "2022-07-09T20:52:31.240593",
      "2022-07-09T20:52:33.702402",
      "2022-07-09T20:52:36.132910",
      "2022-07-09T20:52:38.585990",
      "2022-07-09T20:52:41.028250",
      "2022-07-09T20:52:43.528029",
      "2022-07-09T20:52:45.976750",
      "2022-07-09T20:52:48.503049",
      "2022-07-09T20:52:50.958867",
      "2022-07-09T20:52:53.406004",
      "2022-07-09T20:52:55.843691",
      "2022-07-09T20:52:58.300769",
      "2022-07-09T20:53:00.778694",
      "2022-07-09T20:53:03.256978",
      "2022-07-09T20:53:05.725429",
      "2022-07-09T20:53:08.205822",
      "2022-07-09T20:53:10.682332",
      "2022-07-09T20:53:13.162624",
      "2022-07-09T20:53:15.642358",
      "2022-07-09T20:53:18.113552",
      "2022-07-09T20:53:20.608346",
      "2022-07-09T20:53:23.121270",
      "2022-07-09T20:53:25.633892",
      "2022-07-09T20:53:28.144774",
      "2022-07-09T20:53:30.642856",
      "2022-07-09T20:53:33.162598",
      "2022-07-09T20:53:35.866434",
      "2022-07-09T20:53:38.698883",
      "2022-07-09T20:53:41.359017",
      "2022-07-09T20:53:43.931858",
      "2022-07-09T20:53:46.536517",
      "2022-07-09T20:53:49.328378",
      "2022-07-09T20:53:52.459872",
      "2022-07-09T20:53:55.559876",
      "2022-07-09T20:53:58.829536",
      "2022-07-09T20:54:01.738786",
      "2022-07-09T20:54:04.568539",
      "2022-07-09T20:54:07.811376",
      "2022-07-09T20:54:10.865146",
      "2022-07-09T20:54:13.699066",
      "2022-07-09T20:54:16.639052",
      "2022-07-09T20:54:19.327021",
      "2022-07-09T20:54:21.903278",
      "2022-07-09T20:54:24.417812",
      "2022-07-09T20:54:26.925384",
      "2022-07-09T20:54:29.827570",
      "2022-07-09T20:54:32.460969",
      "2022-07-09T20:54:35.994185",
      "2022-07-09T20:54:38.900507",
      "2022-07-09T20:54:41.578639",
      "2022-07-09T20:54:44.137659",
      "2022-07-09T20:54:47.384377",
      "2022-07-09T20:54:49.874803",
      "2022-07-09T20:54:52.359467",
      "2022-07-09T20:54:54.889395",
      "2022-07-09T20:54:57.489022",
      "2022-07-09T20:54:59.969076",
      "2022-07-09T20:55:02.453262",
      "2022-07-09T20:55:04.981518",
      "2022-07-09T20:55:07.586428",
      "2022-07-09T20:55:10.062408",
      "2022-07-09T20:55:12.653175",
      "2022-07-09T20:55:15.375900",
      "2022-07-09T20:55:18.051986",
      "2022-07-09T20:55:20.577638",
      "2022-07-09T20:55:23.258026",
      "2022-07-09T20:55:26.258145",
      "2022-07-09T20:55:29.408911",
      "2022-07-09T20:55:32.284136",
      "2022-07-09T20:55:35.408773",
      "2022-07-09T20:55:38.238889",
      "2022-07-09T20:55:41.292068",
      "2022-07-09T20:55:44.086250",
      "2022-07-09T20:55:47.553752",
      "2022-07-09T20:55:50.396616",
      "2022-07-09T20:55:53.427503",
      "2022-07-09T20:55:56.828802",
      "2022-07-09T20:55:59.779148",
      "2022-07-09T20:56:02.704527",
      "2022-07-09T20:56:05.720868",
      "2022-07-09T20:56:08.553815",
      "2022-07-09T20:56:11.120423",
      "2022-07-09T20:56:13.602804",
      "2022-07-09T20:56:16.338364",
      "2022-07-09T20:56:18.943032",
      "2022-07-09T20:56:21.417482",
      "2022-07-09T20:56:23.891921",
      "2022-07-09T20:56:26.551535",
      "2022-07-09T20:56:29.028943",
      "2022-07-09T20:56:31.502799",
      "2022-07-09T20:56:33.984709",
      "2022-07-09T20:56:36.644509",
      "2022-07-09T20:56:39.118018",
      "2022-07-09T20:56:41.612547",
      "2022-07-09T20:56:44.125499",
      "2022-07-09T20:56:46.786934",
      "2022-07-09T20:56:49.254965",
      "2022-07-09T20:56:51.744951",
      "2022-07-09T20:56:54.236480",
      "2022-07-09T20:56:56.886699",
      "2022-07-09T20:56:59.568507",
      "2022-07-09T20:57:02.507702",
      "2022-07-09T20:57:05.788508",
      "2022-07-09T20:57:08.831987",
      "2022-07-09T20:57:11.542826",
      "2022-07-09T20:57:14.210087",
      "2022-07-09T20:57:16.996550",
      "2022-07-09T20:57:19.540071",
      "2022-07-09T20:57:22.170205",
      "2022-07-09T20:57:24.869734",
      "2022-07-09T20:57:27.834982",
      "2022-07-09T20:57:30.575778",
      "2022-07-09T20:57:33.280886",
      "2022-07-09T20:57:36.159135",
      "2022-07-09T20:57:38.746400",
      "2022-07-09T20:57:41.649738",
      "2022-07-09T20:57:44.411347",
      "2022-07-09T20:57:47.380467",
      "2022-07-09T20:57:50.277896",
      "2022-07-09T20:57:52.968905",
      "2022-07-09T20:57:55.800468",
      "2022-07-09T20:57:58.517993",
      "2022-07-09T20:58:01.129931",
      "2022-07-09T20:58:03.767743",
      "2022-07-09T20:58:06.662561",
      "2022-07-09T20:58:09.243778",
      "2022-07-09T20:58:11.744705",
      "2022-07-09T20:58:14.246056",
      "2022-07-09T20:58:17.222131",
      "2022-07-09T20:58:19.721955",
      "2022-07-09T20:58:22.343237",
      "2022-07-09T20:58:24.962339",
      "2022-07-09T20:58:27.787822",
      "2022-07-09T20:58:30.470642",
      "2022-07-09T20:58:33.313529",
      "2022-07-09T20:58:36.108428",
      "2022-07-09T20:58:38.976549",
      "2022-07-09T20:58:41.613551",
      "2022-07-09T20:58:44.289965",
      "2022-07-09T20:58:47.028283",
      "2022-07-09T20:58:49.829547",
      "2022-07-09T20:58:52.393512",
      "2022-07-09T20:58:55.150187",
      "2022-07-09T20:58:57.970912",
      "2022-07-09T20:59:00.494368",
      "2022-07-09T20:59:03.012510",
      "2022-07-09T20:59:05.777909",
      "2022-07-09T20:59:09.320370",
      "2022-07-09T20:59:13.300972",
      "2022-07-09T20:59:16.637442",
      "2022-07-09T20:59:19.682908",
      "2022-07-09T20:59:22.479319",
      "2022-07-09T20:59:25.320993",
      "2022-07-09T20:59:28.245706",
      "2022-07-09T20:59:30.927342",
      "2022-07-09T20:59:33.739629",
      "2022-07-09T20:59:37.072995",
      "2022-07-09T20:59:39.665087",
      "2022-07-09T20:59:42.173912",
      "2022-07-09T20:59:44.794702",
      "2022-07-09T20:59:47.683786",
      "2022-07-09T20:59:50.633241",
      "2022-07-09T20:59:53.580810",
      "2022-07-09T20:59:56.530178",
      "2022-07-09T20:59:59.260742",
      "2022-07-09T21:00:01.940601",
      "2022-07-09T21:00:04.474247",
      "2022-07-09T21:00:07.139355",
      "2022-07-09T21:00:09.672554",
      "2022-07-09T21:00:12.250010",
      "2022-07-09T21:00:14.951208",
      "2022-07-09T21:00:17.634359",
      "2022-07-09T21:00:20.232318",
      "2022-07-09T21:00:22.971530",
      "2022-07-09T21:00:25.659950",
      "2022-07-09T21:00:28.821930",
      "2022-07-09T21:00:31.927111",
      "2022-07-09T21:00:34.417311",
      "2022-07-09T21:00:37.026294",
      "2022-07-09T21:00:39.505322",
      "2022-07-09T21:00:41.991631",
      "2022-07-09T21:00:44.509204",
      "2022-07-09T21:00:47.126368",
      "2022-07-09T21:00:49.560935",
      "2022-07-09T21:00:52.067196",
      "2022-07-09T21:00:54.538783",
      "2022-07-09T21:00:57.212998",
      "2022-07-09T21:00:59.739645",
      "2022-07-09T21:01:02.227806",
      "2022-07-09T21:01:04.859763",
      "2022-07-09T21:01:07.790620",
      "2022-07-09T21:01:10.270683",
      "2022-07-09T21:01:12.820599",
      "2022-07-09T21:01:15.771612",
      "2022-07-09T21:01:18.382819",
      "2022-07-09T21:01:21.077807",
      "2022-07-09T21:01:24.605108",
      "2022-07-09T21:01:27.624969",
      "2022-07-09T21:01:30.564660",
      "2022-07-09T21:01:33.352862",
      "2022-07-09T21:01:36.491374",
      "2022-07-09T21:01:39.298271",
      "2022-07-09T21:01:41.872728",
      "2022-07-09T21:01:44.547947",
      "2022-07-09T21:01:47.257833",
      "2022-07-09T21:01:49.766313",
      "2022-07-09T21:01:52.317801",
      "2022-07-09T21:01:54.883354",
      "2022-07-09T21:01:57.396605",
      "2022-07-09T21:01:59.916863",
      "2022-07-09T21:02:02.447371",
      "2022-07-09T21:02:05.026947",
      "2022-07-09T21:02:08.574771",
      "2022-07-09T21:02:11.871143",
      "2022-07-09T21:02:14.577253",
      "2022-07-09T21:02:17.207834",
      "2022-07-09T21:02:19.813130",
      "2022-07-09T21:02:23.068122",
      "2022-07-09T21:02:26.020513",
      "2022-07-09T21:02:28.718378",
      "2022-07-09T21:02:31.360699",
      "2022-07-09T21:02:34.033389",
      "2022-07-09T21:02:36.567578",
      "2022-07-09T21:02:39.058974",
      "2022-07-09T21:02:41.677196",
      "2022-07-09T21:02:44.263334",
      "2022-07-09T21:02:46.734651",
      "2022-07-09T21:02:49.223599",
      "2022-07-09T21:02:51.722975",
      "2022-07-09T21:02:54.302092",
      "2022-07-09T21:02:56.829251",
      "2022-07-09T21:02:59.373129",
      "2022-07-09T21:03:01.897820",
      "2022-07-09T21:03:04.421735",
      "2022-07-09T21:03:06.923316",
      "2022-07-09T21:03:09.531245",
      "2022-07-09T21:03:12.137983",
      "2022-07-09T21:03:14.656698",
      "2022-07-09T21:03:17.185837",
      "2022-07-09T21:03:19.700269",
      "2022-07-09T21:03:22.205692",
      "2022-07-09T21:03:24.725879",
      "2022-07-09T21:03:27.341151"
    ],
    "values": [
      9.891808726932515,
      9.083749691712889,
      8.838101934567225,
      8.799987628316556,
      8.760643324212687,
      8.751437844934987,
      8.721372548823311,
      8.717487079539184,
      8.71023853262398,
      8.705450920018874,
      8.697950443794788,
      8.691991630115997,
      8.69926728646905,
      8.681438997134636,
      8.691971135621367,
      8.689296155287225,
      8.681386772370264,
      8.680169098517634,
      8.679941260536502,
      8.67790363518734,
      8.68438736710527,
      8.67494640706058,
      8.67083458003289,
      8.66698685803906,
      8.676349061443881,
      8.673903005435939,
      8.670948175066329,
      8.675480382833843,
      8.663272761458453,
      8.66075969655228,
      8.673771745905617,
      8.667981681899226,
      8.664477297973963,
      8.670556405065058,
      8.669338823207642,
      8.663784125272747,
      8.667215661775517,
      8.667474550167487,
      8.661940712010228,
      8.671081071678564,
      8.665269276346267,
      8.659084247981008,
      8.656466524337224,
      8.664619166095294,
      8.66298126684989,
      8.659031912993731,
      8.659327611462055,
      8.657495760349436,
      8.663646758900898,
      8.666648715423952,
      8.658166743737421,
      8.65560234769502,
      8.651570194878875,
      8.662010124250116,
      8.658447744766761,
      8.653695591436355,
      8.655316755107913,
      8.657832385265984,
      8.658500156535329,
      8.659779564337983,
      8.659272468502412,
      8.658862606376644,
      8.656434468924123,
      8.658018187573822,
      8.655726190017974,
      8.647453419244705,
      8.654736153375355,
      8.652842283875975,
      8.662147017534735,
      8.659399417144469,
      8.65539139409008,
      8.660029822951367,
      8.654139325346618,
      8.657406584195563,
      8.65644883277506,
      8.648784064136946,
      8.646739576509717,
      8.658361755376285,
      8.651867529498467,
      8.65352194185296,
      8.645083360959829,
      8.647760545903736,
      8.647692753839532,
      8.648119008505592,
      8.655467724297479,
      8.644009892055143,
      8.646185619345747,
      8.655105662260516,
      8.653137989934747,
      8.654464988877406,
      8.656499296626798,
      8.65193215778095,
      8.652327643459058,
      8.647469412940014,
      8.64968147658138,
      8.64830900591034,
      8.64709383856654,
      8.65773658849412,
      8.64819060608857,
      8.650273470263969,
      8.643642108024068,
      8.64936167563437,
      8.652811756567479,
      8.652592410015744,
      8.647919274093471,
      8.650742355562166,
      8.647071037053585,
      8.617106731145554,
      8.612731148468384,
      8.611471729995346,
      8.61248660716131,
      8.612725065231507,
      8.61185554695155,
      8.61209471750354,
      8.611663666971381,
      8.611737560225734,
      8.611958585193838,
      8.612154948011899,
      8.612492995552694,
      8.61177107843174,
      8.612242221947236,
      8.61323785647458,
      8.611624737193582,
      8.61151624777538,
      8.611715628866177,
      8.611585429032028,
      8.611987541573649,
      8.612032875785378,
      8.612156281604644,
      8.611852818995555,
      8.611703100002178,
      8.607709134839707,
      8.607298739719484,
      8.6070996446393,
      8.607022258463687,
      8.60709766154764,
      8.607075222851643,
      8.606999480407778,
      8.60683875510157,
      8.606854490591605,
      8.606938328224883,
      8.607027284712135,
      8.606918416894791,
      8.60696083410085,
      8.606954891661895,
      8.606900709431242,
      8.607071701462273,
      8.60679647183776,
      8.60693297124212,
      8.606967140894643,
      8.606957755556504,
      8.606994201142976,
      8.606892746224457,
      8.606942181075826,
      8.606961113675958,
      8.606879902565423,
      8.60703341427233,
      8.606917676747683,
      8.606963676736624,
      8.606900314684799,
      8.606282142040396,
      8.606269095645056,
      8.606272793621423,
      8.606257298258837,
      8.606277845862245,
      8.606279939279258,
      8.606262415067421,
      8.606269638570808,
      8.60625579767603,
      8.606249253389375,
      8.606254031959917,
      8.606255036376693,
      8.606269138280192,
      8.606263601894286,
      8.606266368506386,
      8.606266706325396,
      8.606257530987657,
      8.606254800960544,
      8.606254086427672,
      8.606255027056376,
      8.60623977019356,
      8.606178756960853,
      8.606179166358917,
      8.606179723185766,
      8.606182905567113,
      8.606180518058526,
      8.606179245706702,
      8.606178855484714,
      8.606179743748038,
      8.60617930024006,
      8.606178317813072,
      8.606176875182056,
      8.60617647046359,
      8.606176319349675,
      8.606176289607784,
      8.606178004133056,
      8.606176897270004,
      8.606179113566537,
      8.606180881277146,
      8.606179735977035,
      8.606182131571593,
      8.606181383707165,
      8.606181885575221,
      8.606183708864116,
      8.60618041328421,
      8.60618134492182,
      8.60618003718419,
      8.606180119185119,
      8.606179382799482,
      8.606179850750738,
      8.60617966473297,
      8.606179518638394,
      8.606179110345089,
      8.606178763056064,
      8.606178202004674,
      8.606179208114066,
      8.60617819948418,
      8.606176797668105,
      8.606177283754059,
      8.606176440137874,
      8.606178357763968,
      8.60617739464532,
      8.606177325963968,
      8.606175131679713,
      8.606176028870268,
      8.606177053081103,
      8.606174350228752,
      8.606175216377604,
      8.606177148164683,
      8.606174030102743,
      8.606175149105947,
      8.606173995179752,
      8.606175203363968,
      8.606173487293235,
      8.606173081451121,
      8.60617324812733,
      8.6061717350395,
      8.606173846239958,
      8.606171941594326,
      8.60617321822721,
      8.60617216217049,
      8.606172483592811,
      8.606171868261956,
      8.606171947206724,
      8.606172078567413,
      8.60617166909238,
      8.606170022594519,
      8.606171844690545,
      8.60617042002448,
      8.606169489160662,
      8.606168917740115,
      8.606172519953505,
      8.60616885439304,
      8.60616918141742,
      8.606167064841781,
      8.606170734516331,
      8.606169156832841,
      8.606167598536421,
      8.606169432526933,
      8.60616871742305,
      8.606166405712974,
      8.606167008362739,
      8.606167176587679,
      8.60616542347245,
      8.6061689275974,
      8.606166134554389,
      8.606166427547718,
      8.6061654547298,
      8.606165406105498,
      8.606165922745186,
      8.606166479082594,
      8.606165211166775,
      8.606165969289101,
      8.606166331709476,
      8.6061648787854,
      8.606164584051406,
      8.606163049790203,
      8.606165046116772,
      8.60616378005507,
      8.606161965742253,
      8.60616412252675,
      8.606162361997477,
      8.60616344710972,
      8.606162954401997,
      8.606161878387152,
      8.60616284187827,
      8.606161030077999,
      8.606161810822027,
      8.60616190818741,
      8.606162859683472,
      8.606162815212597,
      8.606163969021543,
      8.606165254804107,
      8.606164952722466,
      8.606165943217334,
      8.606164446873246,
      8.606165386981152,
      8.60616502849961,
      8.606163003026055,
      8.606165039866465
    ]
  },
  "val": {
    "steps": [
      0,
      1,
      2,
      3,
      4,
      5,
      6,
      7,
      8,
      9,
      10,
      11,
      12,
      13,
      14,
      15,
      16,
      17,
      18,
      19,
      20,
      21,
      22,
      23,
      24,
      25,
      26,
      27,
      28,
      29,
      30,
      31,
      32,
      33,
      34,
      35,
      36,
      37,
      38,
      39,
      40,
      41,
      42,
      43,
      44,
      45,
      46,
      47,
      48,
      49,
      50,
      51,
      52,
      53,
      54,
      55,
      56,
      57,
      58,
      59,
      60,
      61,
      62,
      63,
      64,
      65,
      66,
      67,
      68,
      69,
      70,
      71,
      72,
      73,
      74,
      75,
      76,
      77,
      78,
      79,
      80,
      81,
      82,
      83,
      84,
      85,
      86,
      87,
      88,
      89,
      90,
      91,
      92,
      93,
      94,
      95,
      96,
      97,
      98,
      99,
      100,
      101,
      102,
      103,
      104,
      105,
      106,
      107,
      108,
      109,
      110,
      111,
      112,
      113,
      114,
      115,
      116,
      117,
      118,
      119,
      120,
      121,
      122,
      123,
      124,
      125,
      126,
      127,
      128,
      129,
      130,
      131,
      132,
      133,
      134,
      135,
      136,
      137,
      138,
      139,
      140,
      141,
      142,
      143,
      144,
      145,
      146,
      147,
      148,
      149,
      150,
      151,
      152,
      153,
      154,
      155,
      156,
      157,
      158,
      159,
      160,
      161,
      162,
      163,
      164,
      165,
      166,
      167,
      168,
      169,
      170,
      171,
      172,
      173,
      174,
      175,
      176,
      177,
      178,
      179,
      180,
      181,
      182,
      183,
      184,
      185,
      186,
      187,
      188,
      189,
      190,
      191,
      192,
      193,
      194,
      195,
      196,
      197,
      198,
      199,
      200,
      201,
      202,
      203,
      204,
      205,
      206,
      207,
      208,
      209,
      210,
      211,
      212,
      213,
      214,
      215,
      216,
      217,
      218,
      219,
      220,
      221,
      222,
      223,
      224,
      225,
      226,
      227,
      228,
      229,
      230,
      231,
      232,
      233,
      234,
      235,
      236,
      237,
      238,
      239,
      240,
      241,
      242,
      243,
      244,
      245,
      246,
      247,
      248,
      249,
      250,
      251,
      252,
      253,
      254,
      255,
      256,
      257,
      258,
      259,
      260,
      261,
      262,
      263,
      264,
      265,
      266,
      267,
      268,
      269,
      270,
      271,
      272,
      273,
      274,
      275,
      276,
      277,
      278,
      279,
      280,
      281,
      282,
      283,
      284,
      285,
      286,
      287,
      288,
      289,
      290,
      291,
      292,
      293,
      294,
      295,
      296,
      297,
      298,
      299
    ],
    "timestamps": [
      "2022-07-09T20:50:09.146734",
      "2022-07-09T20:50:12.547478",
      "2022-07-09T20:50:15.766757",
      "2022-07-09T20:50:18.235133",
      "2022-07-09T20:50:20.755421",
      "2022-07-09T20:50:23.245131",
      "2022-07-09T20:50:25.786194",
      "2022-07-09T20:50:28.303279",
      "2022-07-09T20:50:30.885615",
      "2022-07-09T20:50:33.362569",
      "2022-07-09T20:50:35.795510",
      "2022-07-09T20:50:38.295525",
      "2022-07-09T20:50:40.783983",
      "2022-07-09T20:50:43.222435",
      "2022-07-09T20:50:45.669808",
      "2022-07-09T20:50:48.167853",
      "2022-07-09T20:50:50.610159",
      "2022-07-09T20:50:53.059069",
      "2022-07-09T20:50:55.505987",
      "2022-07-09T20:50:57.948080",
      "2022-07-09T20:51:00.380411",
      "2022-07-09T20:51:02.825911",
      "2022-07-09T20:51:05.279899",
      "2022-07-09T20:51:07.708009",
      "2022-07-09T20:51:10.150983",
      "2022-07-09T20:51:12.593216",
      "2022-07-09T20:51:15.045162",
      "2022-07-09T20:51:17.479171",
      "2022-07-09T20:51:20.000130",
      "2022-07-09T20:51:22.436936",
      "2022-07-09T20:51:24.912404",
      "2022-07-09T20:51:27.352662",
      "2022-07-09T20:51:29.784161",
      "2022-07-09T20:51:32.221212",
      "2022-07-09T20:51:34.651127",
      "2022-07-09T20:51:37.116189",
      "2022-07-09T20:51:39.555258",
      "2022-07-09T20:51:41.995665",
      "2022-07-09T20:51:44.438541",
      "2022-07-09T20:51:46.874789",
      "2022-07-09T20:51:49.318524",
      "2022-07-09T20:51:51.784645",
      "2022-07-09T20:51:54.339988",
      "2022-07-09T20:51:56.770685",
      "2022-07-09T20:51:59.228721",
      "2022-07-09T20:52:01.668965",
      "2022-07-09T20:52:04.125016",
      "2022-07-09T20:52:06.649427",
      "2022-07-09T20:52:09.086366",
      "2022-07-09T20:52:11.590292",
      "2022-07-09T20:52:14.072237",
      "2022-07-09T20:52:16.591485",
      "2022-07-09T20:52:19.233825",
      "2022-07-09T20:52:21.676826",
      "2022-07-09T20:52:24.132973",
      "2022-07-09T20:52:26.602019",
      "2022-07-09T20:52:29.085083",
      "2022-07-09T20:52:31.525112",
      "2022-07-09T20:52:33.986606",
      "2022-07-09T20:52:36.418351",
      "2022-07-09T20:52:38.870203",
      "2022-07-09T20:52:41.315290",
      "2022-07-09T20:52:43.812102",
      "2022-07-09T20:52:46.258980",
      "2022-07-09T20:52:48.785834",
      "2022-07-09T20:52:51.242637",
      "2022-07-09T20:52:53.691867",
      "2022-07-09T20:52:56.132097",
      "2022-07-09T20:52:58.581829",
      "2022-07-09T20:53:01.062360",
      "2022-07-09T20:53:03.544526",
      "2022-07-09T20:53:06.011593",
      "2022-07-09T20:53:08.495549",
      "2022-07-09T20:53:10.970393",
      "2022-07-09T20:53:13.454770",
      "2022-07-09T20:53:15.929128",
      "2022-07-09T20:53:18.401334",
      "2022-07-09T20:53:20.915054",
      "2022-07-09T20:53:23.421311",
      "2022-07-09T20:53:25.926748",
      "2022-07-09T20:53:28.438453",
      "2022-07-09T20:53:30.932689",
      "2022-07-09T20:53:33.460438",
      "2022-07-09T20:53:36.179934",
      "2022-07-09T20:53:38.997702",
      "2022-07-09T20:53:41.701538",
      "2022-07-09T20:53:44.219680",
      "2022-07-09T20:53:46.907250",
      "2022-07-09T20:53:49.713571",
      "2022-07-09T20:53:52.779621",
      "2022-07-09T20:53:55.997159",
      "2022-07-09T20:53:59.143647",
      "2022-07-09T20:54:02.059258",
      "2022-07-09T20:54:05.058541",
      "2022-07-09T20:54:08.161360",
      "2022-07-09T20:54:11.192973",
      "2022-07-09T20:54:14.008589",
      "2022-07-09T20:54:16.961377",
      "2022-07-09T20:54:19.620226",
      "2022-07-09T20:54:22.190986",
      "2022-07-09T20:54:24.711131",
      "2022-07-09T20:54:27.216226",
      "2022-07-09T20:54:30.127363",
      "2022-07-09T20:54:32.797438",
      "2022-07-09T20:54:36.441731",
      "2022-07-09T20:54:39.206340",
      "2022-07-09T20:54:41.900368",
      "2022-07-09T20:54:44.480431",
      "2022-07-09T20:54:47.673672",
      "2022-07-09T20:54:50.162976",
      "2022-07-09T20:54:52.649030",
      "2022-07-09T20:54:55.195997",
      "2022-07-09T20:54:57.778687",
      "2022-07-09T20:55:00.259165",
      "2022-07-09T20:55:02.742877",
      "2022-07-09T20:55:05.288171",
      "2022-07-09T20:55:07.876367",
      "2022-07-09T20:55:10.352288",
      "2022-07-09T20:55:12.947216",
      "2022-07-09T20:55:15.707395",
      "2022-07-09T20:55:18.348024",
      "2022-07-09T20:55:20.886034",
      "2022-07-09T20:55:23.569182",
      "2022-07-09T20:55:26.661328",
      "2022-07-09T20:55:29.722241",
      "2022-07-09T20:55:32.612607",
      "2022-07-09T20:55:35.713471",
      "2022-07-09T20:55:38.529761",
      "2022-07-09T20:55:41.607826",
      "2022-07-09T20:55:44.435152",
      "2022-07-09T20:55:47.879856",
      "2022-07-09T20:55:50.732901",
      "2022-07-09T20:55:53.794019",
      "2022-07-09T20:55:57.180404",
      "2022-07-09T20:56:00.115636",
      "2022-07-09T20:56:03.063049",
      "2022-07-09T20:56:06.097416",
      "2022-07-09T20:56:08.882394",
      "2022-07-09T20:56:11.408815",
      "2022-07-09T20:56:13.906208",
      "2022-07-09T20:56:16.650665",
      "2022-07-09T20:56:19.231910",
      "2022-07-09T20:56:21.706712",
      "2022-07-09T20:56:24.180239",
      "2022-07-09T20:56:26.843948",
      "2022-07-09T20:56:29.317476",
      "2022-07-09T20:56:31.789614",
      "2022-07-09T20:56:34.272198",
      "2022-07-09T20:56:36.935951",
      "2022-07-09T20:56:39.406846",
      "2022-07-09T20:56:41.908588",
      "2022-07-09T20:56:44.420286",
      "2022-07-09T20:56:47.076636",
      "2022-07-09T20:56:49.543960",
      "2022-07-09T20:56:52.034703",
      "2022-07-09T20:56:54.538651",
      "2022-07-09T20:56:57.178008",
      "2022-07-09T20:56:59.900057",
      "2022-07-09T20:57:02.823081",
      "2022-07-09T20:57:06.300930",
      "2022-07-09T20:57:09.144577",
      "2022-07-09T20:57:11.844666",
      "2022-07-09T20:57:14.539261",
      "2022-07-09T20:57:17.285881",
      "2022-07-09T20:57:19.848199",
      "2022-07-09T20:57:22.473895",
      "2022-07-09T20:57:25.226054",
      "2022-07-09T20:57:28.134920",
      "2022-07-09T20:57:30.891058",
      "2022-07-09T20:57:33.582213",
      "2022-07-09T20:57:36.459998",
      "2022-07-09T20:57:39.056913",
      "2022-07-09T20:57:41.963166",
      "2022-07-09T20:57:44.759642",
      "2022-07-09T20:57:47.691375",
      "2022-07-09T20:57:50.611190",
      "2022-07-09T20:57:53.293247",
      "2022-07-09T20:57:56.177438",
      "2022-07-09T20:57:58.818972",
      "2022-07-09T20:58:01.430003",
      "2022-07-09T20:58:04.065220",
      "2022-07-09T20:58:06.977359",
      "2022-07-09T20:58:09.534995",
      "2022-07-09T20:58:12.034791",
      "2022-07-09T20:58:14.579801",
      "2022-07-09T20:58:17.516207",
      "2022-07-09T20:58:20.012655",
      "2022-07-09T20:58:22.644708",
      "2022-07-09T20:58:25.299889",
      "2022-07-09T20:58:28.113399",
      "2022-07-09T20:58:30.774669",
      "2022-07-09T20:58:33.628957",
      "2022-07-09T20:58:36.423625",
      "2022-07-09T20:58:39.310678",
      "2022-07-09T20:58:41.939094",
      "2022-07-09T20:58:44.606783",
      "2022-07-09T20:58:47.388682",
      "2022-07-09T20:58:50.123747",
      "2022-07-09T20:58:52.705495",
      "2022-07-09T20:58:55.478604",
      "2022-07-09T20:58:58.264010",
      "2022-07-09T20:59:00.818321",
      "2022-07-09T20:59:03.308752",
      "2022-07-09T20:59:06.126958",
      "2022-07-09T20:59:09.787401",
      "2022-07-09T20:59:13.784426",
      "2022-07-09T20:59:17.034746",
      "2022-07-09T20:59:19.998987",
      "2022-07-09T20:59:22.790356",
      "2022-07-09T20:59:25.658104",
      "2022-07-09T20:59:28.587479",
      "2022-07-09T20:59:31.242628",
      "2022-07-09T20:59:34.152793",
      "2022-07-09T20:59:37.391798",
      "2022-07-09T20:59:39.964764",
      "2022-07-09T20:59:42.463988",
      "2022-07-09T20:59:45.172546",
      "2022-07-09T20:59:47.975575",
      "2022-07-09T20:59:50.959932",
      "2022-07-09T20:59:53.916448",
      "2022-07-09T20:59:56.848406",
      "2022-07-09T20:59:59.573603",
      "2022-07-09T21:00:02.233431",
      "2022-07-09T21:00:04.792269",
      "2022-07-09T21:00:07.434369",
      "2022-07-09T21:00:09.963630",
      "2022-07-09T21:00:12.560930",
      "2022-07-09T21:00:15.268570",
      "2022-07-09T21:00:17.926705",
      "2022-07-09T21:00:20.533569",
      "2022-07-09T21:00:23.263499",
      "2022-07-09T21:00:26.061385",
      "2022-07-09T21:00:29.117241",
      "2022-07-09T21:00:32.217888",
      "2022-07-09T21:00:34.704998",
      "2022-07-09T21:00:37.318866",
      "2022-07-09T21:00:39.793422",
      "2022-07-09T21:00:42.279802",
      "2022-07-09T21:00:44.826674",
      "2022-07-09T21:00:47.412624",
      "2022-07-09T21:00:49.884589",
      "2022-07-09T21:00:52.350919",
      "2022-07-09T21:00:54.841964",
      "2022-07-09T21:00:57.498331",
      "2022-07-09T21:01:00.023619",
      "2022-07-09T21:01:02.511171",
      "2022-07-09T21:01:05.334258",
      "2022-07-09T21:01:08.076004",
      "2022-07-09T21:01:10.572510",
      "2022-07-09T21:01:13.147106",
      "2022-07-09T21:01:16.108159",
      "2022-07-09T21:01:18.678766",
      "2022-07-09T21:01:21.507104",
      "2022-07-09T21:01:24.970805",
      "2022-07-09T21:01:27.999551",
      "2022-07-09T21:01:30.889939",
      "2022-07-09T21:01:33.751136",
      "2022-07-09T21:01:36.834497",
      "2022-07-09T21:01:39.603789",
      "2022-07-09T21:01:42.193222",
      "2022-07-09T21:01:44.877209",
      "2022-07-09T21:01:47.548783",
      "2022-07-09T21:01:50.059864",
      "2022-07-09T21:01:52.613999",
      "2022-07-09T21:01:55.175351",
      "2022-07-09T21:01:57.694897",
      "2022-07-09T21:02:00.211197",
      "2022-07-09T21:02:02.739924",
      "2022-07-09T21:02:05.309832",
      "2022-07-09T21:02:08.905870",
      "2022-07-09T21:02:12.176664",
      "2022-07-09T21:02:14.878490",
      "2022-07-09T21:02:17.508541",
      "2022-07-09T21:02:20.185378",
      "2022-07-09T21:02:23.451471",
      "2022-07-09T21:02:26.336132",
      "2022-07-09T21:02:29.022897",
      "2022-07-09T21:02:31.663048",
      "2022-07-09T21:02:34.331493",
      "2022-07-09T21:02:36.860627",
      "2022-07-09T21:02:39.349467",
      "2022-07-09T21:02:42.013985",
      "2022-07-09T21:02:44.553663",
      "2022-07-09T21:02:47.030530",
      "2022-07-09T21:02:49.527564",
      "2022-07-09T21:02:52.014242",
      "2022-07-09T21:02:54.591867",
      "2022-07-09T21:02:57.117391",
      "2022-07-09T21:02:59.664949",
      "2022-07-09T21:03:02.186416",
      "2022-07-09T21:03:04.709909",
      "2022-07-09T21:03:07.212891",
      "2022-07-09T21:03:09.856187",
      "2022-07-09T21:03:12.431185",
      "2022-07-09T21:03:14.945302",
      "2022-07-09T21:03:17.484315",
      "2022-07-09T21:03:19.992761",
      "2022-07-09T21:03:22.496613",
      "2022-07-09T21:03:25.030779",
      "2022-07-09T21:03:27.647900"
    ],
    "values": [
      9.420830352180785,
      8.865758271333634,
      8.791903430696344,
      8.790781094718106,
      8.768705711150597,
      8.740312826542576,
      8.713320862052043,
      8.71778005820276,
      8.712431546260094,
      8.689073866874956,
      8.688180489367074,
      8.757173134393442,
      8.702533865676333,
      8.679338545426951,
      8.727013598891846,
      8.687476185161383,
      8.691825102488243,
      8.715237140065915,
      8.696684402342983,
      8.681668216540457,
      8.687777361692945,
      8.703064684817974,
      8.681132615096109,
      8.692040818814766,
      8.677586948752108,
      8.672061039992904,
      8.6978296705156,
      8.682152790487924,
      8.680405620756302,
      8.722213036680726,
      8.677625203299355,
      8.697688464928282,
      8.662453601643426,
      8.66929739361742,
      8.687610894866527,
      8.677422921786563,
      8.69390273036595,
      8.728843292254565,
      8.67145861665707,
      8.673188855791622,
      8.689769311174588,
      8.67719557930036,
      8.669117829754319,
      8.687624000096541,
      8.68863272487346,
      8.685807026475802,
      8.700027389843902,
      8.695192806804002,
      8.67872821206661,
      8.65913804722362,
      8.661568972275568,
      8.680122405784346,
      8.672696906792325,
      8.673601501419334,
      8.686075619962997,
      8.669275557338253,
      8.686890057190746,
      8.676426811872693,
      8.669550965589533,
      8.67923514127289,
      8.693166802622619,
      8.680898135913976,
      8.663797575689095,
      8.67138306680245,
      8.652496021319925,
      8.662023373813737,
      8.672030865484414,
      8.664191686310685,
      8.660059984399176,
      8.701519565959137,
      8.689530797549608,
      8.698048158051618,
      8.688524261245853,
      8.678309979001265,
      8.65472293358633,
      8.682886878493518,
      8.664777237529783,
      8.672971619409227,
      8.678466252969653,
      8.65841969182825,
      8.657993112755413,
      8.671554868327442,
      8.664238777692416,
      8.677354617151133,
      8.661489879386524,
      8.669636909846593,
      8.679011969240001,
      8.667220745949823,
      8.683287717153917,
      8.668397061854712,
      8.672251431491642,
      8.65654185653153,
      8.658290999060211,
      8.664241495707806,
      8.661192055896306,
      8.66377030534627,
      8.677003611359673,
      8.653276708772118,
      8.67359102491979,
      8.652773882783654,
      8.670942389232147,
      8.665668646409356,
      8.672066828166134,
      8.675635073407395,
      8.661434212496324,
      8.68829192239161,
      8.668731335567625,
      8.636008401177973,
      8.637589169376897,
      8.643943097243783,
      8.637364664555626,
      8.638536442595354,
      8.639890106496447,
      8.638026517998068,
      8.640243290124177,
      8.637252736263871,
      8.6355751682093,
      8.638206197268627,
      8.636895819378417,
      8.63838571628785,
      8.638770891250623,
      8.635660709323174,
      8.63883720451718,
      8.63920524893549,
      8.637907457174895,
      8.643616191378241,
      8.638746831677317,
      8.638478704795073,
      8.641460715575725,
      8.636006978111045,
      8.637758987926253,
      8.637243846475053,
      8.636931824024094,
      8.636488818837776,
      8.636599057698383,
      8.636433592586291,
      8.636381384565487,
      8.636012019295734,
      8.635863167475925,
      8.636114023294168,
      8.635986410270515,
      8.636216906542003,
      8.635917849817496,
      8.636167012522357,
      8.635877649046872,
      8.636078449296154,
      8.636318444583782,
      8.636055539767197,
      8.636105428742466,
      8.636081017589483,
      8.63600533838619,
      8.636389450335946,
      8.636089951240589,
      8.636453396919,
      8.636173219691981,
      8.636173989367437,
      8.636361547582652,
      8.636168786989778,
      8.636074766811149,
      8.63613783302653,
      8.636136103155412,
      8.636151565971172,
      8.636164675412466,
      8.636167436386676,
      8.636190386295972,
      8.636194332413398,
      8.636164535140585,
      8.636164626877356,
      8.636179685894554,
      8.63616080385325,
      8.636163124796388,
      8.63616103567172,
      8.63616563945263,
      8.636172073756967,
      8.636189250899603,
      8.636190708029437,
      8.636224087916776,
      8.636214984368554,
      8.636204919827104,
      8.636203697388494,
      8.636216708158049,
      8.636217593035413,
      8.636214928725108,
      8.63620905609588,
      8.63620711445434,
      8.636208168484089,
      8.636205714701497,
      8.636207159776918,
      8.636206000317078,
      8.636206896408956,
      8.636203156974048,
      8.636204779702387,
      8.636203520551604,
      8.636205420430814,
      8.63620686929824,
      8.636206223305987,
      8.636205680325277,
      8.63621015555754,
      8.636209938053153,
      8.636206268528268,
      8.636204900179177,
      8.63620700367553,
      8.636205777209153,
      8.636205852006142,
      8.636206549159017,
      8.636204484723134,
      8.636204586759344,
      8.636203125639081,
      8.636201858075417,
      8.636203052994954,
      8.636202458449903,
      8.636196965411209,
      8.636197261920778,
      8.636198458955239,
      8.636194383852454,
      8.636198375294432,
      8.636193624142294,
      8.63619592497021,
      8.636196120422785,
      8.636196030061592,
      8.636193184758016,
      8.636192448031093,
      8.636190695657334,
      8.636191663441968,
      8.636190792943264,
      8.636191043861364,
      8.636190934411607,
      8.636190903427723,
      8.636187994725537,
      8.636190369029787,
      8.636186140458223,
      8.63618774042098,
      8.636186191950873,
      8.63618792016365,
      8.636184398844172,
      8.636184000353232,
      8.636184323855652,
      8.636183782090157,
      8.6361840917561,
      8.63618389692931,
      8.636180744659876,
      8.63618205139206,
      8.63618019334399,
      8.636178031832745,
      8.636182531255333,
      8.63617865873653,
      8.636181006753723,
      8.63617949301409,
      8.636178617935048,
      8.636179507893972,
      8.636177483553832,
      8.636177148310786,
      8.636176364897192,
      8.636173107675143,
      8.63617518508078,
      8.636172697776123,
      8.636175511607396,
      8.636174670540951,
      8.636174849236303,
      8.636175604048422,
      8.63617373484673,
      8.636171814233757,
      8.636171251634645,
      8.636170275776145,
      8.636172825791714,
      8.636171032778936,
      8.636169496421907,
      8.636171564288112,
      8.63617141848686,
      8.63617114724384,
      8.636171020883605,
      8.636169922866097,
      8.636167566011796,
      8.63616632620205,
      8.636167549798522,
      8.636167341258725,
      8.636165278250523,
      8.636166320921513,
      8.636166404763914,
      8.636164929610404,
      8.636163951737144,
      8.636164992222943,
      8.63616619767863,
      8.636163703448867,
      8.636166522177525,
      8.636164128669948,
      8.636162072381712,
      8.636163828985573,
      8.636165112548232,
      8.636164082717798,
      8.636161949847827,
      8.636163549646005,
      8.636166058836354,
      8.636161844553882,
      8.636160719467009,
      8.636162427502173,
      8.636162613781408,
      8.63616443154769,
      8.636162848285988,
      8.636161863764261
    ]
  }
}