{
  "memory.usage": {
    "steps": [
      0,
      1,
      2,
      3,
      4,
      5,
      6,
      7,
      8,
      9,
      10,
      11,
      12,
      13,
      14,
      15,
      16,
      17,
      18,
      19,
      20,
      21,
      22,
      23,
      24,
      25,
      26,
      27,
      28,
      29,
      30,
      31,
      32,
      33,
      34,
      35,
      36,
      37,
      38,
      39,
      40,
      41,
      42,
      43,
      44,
      45,
      46,
      47,
      48,
      49,
      50,
      51,
      52,
      53,
      54,
      55,
      56,
      57,
      58,
      59,
      60,
      61,
      62,
      63,
      64,
      65,
      66,
      67,
      68,
      69,
      70,
      71,
      72,
      73,
      74,
      75,
      76,
      77,
      78,
      79,
      80,
      81,
      82,
      83,
      84,
      85,
      86,
      87,
      88,
      89,
      90,
      91,
      92,
      93,
      94,
      95,
      96,
      97,
      98,
      99,
      100,
      101,
      102,
      103,
      104,
      105,
      106,
      107,
      108,
      109,
      110,
      111,
      112,
      113,
      114,
      115,
      116,
      117,
      118,
      119,
      120,
      121,
      122,
      123,
      124,
      125,
      126,
      127,
      128,
      129,
      130,
      131,
      132,
      133,
      134,
      135,
      136,
      137,
      138,
      139,
      140,
      141,
      142,
      143,
      144,
      145,
      146,
      147,
      148,
      149,
      150,
      151,
      152,
      153,
      154,
      155,
      156,
      157,
      158,
      159,
      160,
      161,
      162,
      163,
      164,
      165,
      166,
      167,
      168,
      169,
      170,
      171,
      172,
      173,
      174,
      175,
      176,
      177,
      178,
      179,
      180,
      181,
      182,
      183,
      184,
      185,
      186,
      187,
      188,
      189,
      190,
      191,
      192,
      193,
      194,
      195,
      196,
      197,
      198,
      199,
      200,
      201,
      202,
      203,
      204,
      205,
      206,
      207,
      208,
      209,
      210,
      211,
      212,
      213,
      214,
      215,
      216,
      217,
      218,
      219,
      220,
      221,
      222,
      223,
      224,
      225,
      226,
      227,
      228,
      229,
      230,
      231,
      232,
      233,
      234,
      235,
      236,
      237,
      238,
      239,
      240,
      241,
      242,
      243,
      244,
      245,
      246,
      247,
      248,
      249,
      250,
      251,
      252,
      253,
      254,
      255,
      256,
      257,
      258,
      259,
      260,
      261,
      262,
      263,
      264,
      265,
      266,
      267,
      268,
      269,
      270,
      271,
      272,
      273,
      274,
      275,
      276,
      277,
      278,
      279,
      280,
      281,
      282,
      283,
      284,
      285,
      286,
      287,
      288,
      289,
      290,
      291,
      292,
      293,
      294,
      295,
      296,
      297,
      298,
      299,
      300,
      301,
      302,
      303,
      304,
      305,
      306,
      307,
      308,
      309,
      310,
      311,
      312,
      313,
      314,
      315,
      316,
      317,
      318,
      319,
      320,
      321,
      322,
      323,
      324,
      325,
      326,
      327,
      328,
      329,
      330,
      331,
      332,
      333,
      334,
      335,
      336,
      337,
      338,
      339,
      340,
      341,
      342,
      343,
      344,
      345,
      346,
      347,
      348,
      349,
      350,
      351,
      352,
      353,
      354,
      355,
      356,
      357,
      358,
      359,
      360,
      361,
      362,
      363,
      364,
      365,
      366,
      367,
      368,
      369,
      370,
      371,
      372,
      373,
      374,
      375,
      376,
      377,
      378,
      379,
      380,
      381,
      382,
      383,
      384,
      385,
      386,
      387,
      388,
      389,
      390,
      391,
      392,
      393,
      394,
      395,
      396,
      397,
      398,
      399
    ],
    "timestamps": [
      "2022-06-21T21:05:27.594904",
      "2022-06-21T21:05:29.657948",
      "2022-06-21T21:05:31.720633",
      "2022-06-21T21:05:33.782484",
      "2022-06-21T21:05:35.845284",
      "2022-06-21T21:05:37.906211",
      "2022-06-21T21:05:39.968780",
      "2022-06-21T21:05:42.031331",
      "2022-06-21T21:05:44.092863",
      "2022-06-21T21:05:46.155963",
      "2022-06-21T21:05:48.226483",
      "2022-06-21T21:05:50.287507",
      "2022-06-21T21:05:52.388743",
      "2022-06-21T21:05:54.455120",
      "2022-06-21T21:05:56.519363",
      "2022-06-21T21:05:58.580938",
      "2022-06-21T21:06:00.645677",
      "2022-06-21T21:06:02.707768",
      "2022-06-21T21:06:04.772615",
      "2022-06-21T21:06:06.840846",
      "2022-06-21T21:06:08.905721",
      "2022-06-21T21:06:10.975825",
      "2022-06-21T21:06:13.040607",
      "2022-06-21T21:06:15.107531",
      "2022-06-21T21:06:17.177107",
      "2022-06-21T21:06:19.241378",
      "2022-06-21T21:06:21.310608",
      "2022-06-21T21:06:23.376284",
      "2022-06-21T21:06:25.444774",
      "2022-06-21T21:06:27.510237",
      "2022-06-21T21:06:29.574258",
      "2022-06-21T21:06:31.639973",
      "2022-06-21T21:06:33.703733",
      "2022-06-21T21:06:35.770567",
      "2022-06-21T21:06:37.834569",
      "2022-06-21T21:06:39.898364",
      "2022-06-21T21:06:41.963271",
      "2022-06-21T21:06:44.029375",
      "2022-06-21T21:06:46.094596",
      "2022-06-21T21:06:48.157967",
      "2022-06-21T21:06:50.224388",
      "2022-06-21T21:06:52.288693",
      "2022-06-21T21:06:54.350106",
      "2022-06-21T21:06:56.413751",
      "2022-06-21T21:06:58.476558",
      "2022-06-21T21:07:00.539880",
      "2022-06-21T21:07:02.603202",
      "2022-06-21T21:07:04.667450",
      "2022-06-21T21:07:06.731719",
      "2022-06-21T21:07:08.793256",
      "2022-06-21T21:07:10.866124",
      "2022-06-21T21:07:12.930114",
      "2022-06-21T21:07:14.992755",
      "2022-06-21T21:07:17.056351",
      "2022-06-21T21:07:19.118840",
      "2022-06-21T21:07:21.182924",
      "2022-06-21T21:07:23.246829",
      "2022-06-21T21:07:25.313290",
      "2022-06-21T21:07:27.376185",
      "2022-06-21T21:07:29.438155",
      "2022-06-21T21:07:31.502914",
      "2022-06-21T21:07:33.566955",
      "2022-06-21T21:07:35.631048",
      "2022-06-21T21:07:37.694816",
      "2022-06-21T21:07:39.757394",
      "2022-06-21T21:07:41.820371",
      "2022-06-21T21:07:43.883032",
      "2022-06-21T21:07:45.946728",
      "2022-06-21T21:07:48.010468",
      "2022-06-21T21:07:50.073436",
      "2022-06-21T21:07:52.135538",
      "2022-06-21T21:07:54.198304",
      "2022-06-21T21:07:56.261186",
      "2022-06-21T21:07:58.324144",
      "2022-06-21T21:08:00.388282",
      "2022-06-21T21:08:02.450942",
      "2022-06-21T21:08:04.515554",
      "2022-06-21T21:08:06.580255",
      "2022-06-21T21:08:08.642808",
      "2022-06-21T21:08:10.707070",
      "2022-06-21T21:08:12.771448",
      "2022-06-21T21:08:14.839130",
      "2022-06-21T21:08:16.923186",
      "2022-06-21T21:08:18.993025",
      "2022-06-21T21:08:21.061741",
      "2022-06-21T21:08:23.130436",
      "2022-06-21T21:08:25.202333",
      "2022-06-21T21:08:27.266662",
      "2022-06-21T21:08:29.329311",
      "2022-06-21T21:08:31.393330",
      "2022-06-21T21:08:33.456939",
      "2022-06-21T21:08:35.524865",
      "2022-06-21T21:08:37.586881",
      "2022-06-21T21:08:39.648832",
      "2022-06-21T21:08:41.713631",
      "2022-06-21T21:08:43.778352",
      "2022-06-21T21:08:45.842960",
      "2022-06-21T21:08:47.905422",
      "2022-06-21T21:08:49.967099",
      "2022-06-21T21:08:52.031063",
      "2022-06-21T21:08:54.096852",
      "2022-06-21T21:08:56.161172",
      "2022-06-21T21:08:58.223022",
      "2022-06-21T21:09:00.286338",
      "2022-06-21T21:09:02.349093",
      "2022-06-21T21:09:04.412960",
      "2022-06-21T21:09:06.477708",
      "2022-06-21T21:09:08.539957",
      "2022-06-21T21:09:10.654760",
      "2022-06-21T21:09:12.718272",
      "2022-06-21T21:09:14.781195",
      "2022-06-21T21:09:16.844943",
      "2022-06-21T21:09:18.906627",
      "2022-06-21T21:09:20.969868",
      "2022-06-21T21:09:23.033886",
      "2022-06-21T21:09:25.098455",
      "2022-06-21T21:09:27.161072",
      "2022-06-21T21:09:29.227207",
      "2022-06-21T21:09:31.292182",
      "2022-06-21T21:09:33.363284",
      "2022-06-21T21:09:35.440151",
      "2022-06-21T21:09:37.504481",
      "2022-06-21T21:09:39.566844",
      "2022-06-21T21:09:41.632544",
      "2022-06-21T21:09:43.700623",
      "2022-06-21T21:09:45.768237",
      "2022-06-21T21:09:47.830573",
      "2022-06-21T21:09:49.891558",
      "2022-06-21T21:09:51.966508",
      "2022-06-21T21:09:54.032352",
      "2022-06-21T21:09:56.098215",
      "2022-06-21T21:09:58.162738",
      "2022-06-21T21:10:00.226387",
      "2022-06-21T21:10:02.292877",
      "2022-06-21T21:10:04.357911",
      "2022-06-21T21:10:06.425191",
      "2022-06-21T21:10:08.488583",
      "2022-06-21T21:10:10.552820",
      "2022-06-21T21:10:12.616786",
      "2022-06-21T21:10:14.687007",
      "2022-06-21T21:10:16.755497",
      "2022-06-21T21:10:18.816623",
      "2022-06-21T21:10:20.879917",
      "2022-06-21T21:10:22.949726",
      "2022-06-21T21:10:25.015913",
      "2022-06-21T21:10:27.081275",
      "2022-06-21T21:10:29.144650",
      "2022-06-21T21:10:31.208758",
      "2022-06-21T21:10:33.273114",
      "2022-06-21T21:10:35.338887",
      "2022-06-21T21:10:37.403762",
      "2022-06-21T21:10:39.467045",
      "2022-06-21T21:10:41.540714",
      "2022-06-21T21:10:43.605766",
      "2022-06-21T21:10:45.671213",
      "2022-06-21T21:10:47.738305",
      "2022-06-21T21:10:49.801825",
      "2022-06-21T21:10:51.869775",
      "2022-06-21T21:10:53.933069",
      "2022-06-21T21:10:56.001457",
      "2022-06-21T21:10:58.065470",
      "2022-06-21T21:11:00.128831",
      "2022-06-21T21:11:02.193175",
      "2022-06-21T21:11:04.261453",
      "2022-06-21T21:11:06.325213",
      "2022-06-21T21:11:08.388830",
      "2022-06-21T21:11:10.455630",
      "2022-06-21T21:11:12.519098",
      "2022-06-21T21:11:14.587638",
      "2022-06-21T21:11:16.652902",
      "2022-06-21T21:11:18.716842",
      "2022-06-21T21:11:20.784264",
      "2022-06-21T21:11:22.848820",
      "2022-06-21T21:11:24.914764",
      "2022-06-21T21:11:26.982534",
      "2022-06-21T21:11:29.052001",
      "2022-06-21T21:11:31.116810",
      "2022-06-21T21:11:33.184594",
      "2022-06-21T21:11:35.252671",
      "2022-06-21T21:11:37.315833",
      "2022-06-21T21:11:39.379810",
      "2022-06-21T21:11:41.443763",
      "2022-06-21T21:11:43.505653",
      "2022-06-21T21:11:45.573770",
      "2022-06-21T21:11:47.638647",
      "2022-06-21T21:11:49.703693",
      "2022-06-21T21:11:51.770352",
      "2022-06-21T21:11:53.837970",
      "2022-06-21T21:11:55.904201",
      "2022-06-21T21:11:57.969239",
      "2022-06-21T21:12:00.033480",
      "2022-06-21T21:12:02.099443",
      "2022-06-21T21:12:04.168126",
      "2022-06-21T21:12:06.233768",
      "2022-06-21T21:12:08.296491",
      "2022-06-21T21:12:10.362736",
      "2022-06-21T21:12:12.427943",
      "2022-06-21T21:12:14.497150",
      "2022-06-21T21:12:16.567072",
      "2022-06-21T21:12:18.631366",
      "2022-06-21T21:12:20.696805",
      "2022-06-21T21:12:22.762016",
      "2022-06-21T21:12:24.830827",
      "2022-06-21T21:12:26.913294",
      "2022-06-21T21:12:28.976023",
      "2022-06-21T21:12:31.040655",
      "2022-06-21T21:12:33.104635",
      "2022-06-21T21:12:35.170411",
      "2022-06-21T21:12:37.236829",
      "2022-06-21T21:12:39.299915",
      "2022-06-21T21:12:41.366945",
      "2022-06-21T21:12:43.431070",
      "2022-06-21T21:12:45.501910",
      "2022-06-21T21:12:47.566400",
      "2022-06-21T21:12:49.628595",
      "2022-06-21T21:12:51.694194",
      "2022-06-21T21:12:53.761141",
      "2022-06-21T21:12:55.824428",
      "2022-06-21T21:12:57.886889",
      "2022-06-21T21:12:59.951347",
      "2022-06-21T21:13:02.016952",
      "2022-06-21T21:13:04.082676",
      "2022-06-21T21:13:06.149263",
      "2022-06-21T21:13:08.213661",
      "2022-06-21T21:13:10.279559",
      "2022-06-21T21:13:12.345992",
      "2022-06-21T21:13:14.424515",
      "2022-06-21T21:13:16.491652",
      "2022-06-21T21:13:18.559264",
      "2022-06-21T21:13:20.626676",
      "2022-06-21T21:13:22.697339",
      "2022-06-21T21:13:24.773962",
      "2022-06-21T21:13:26.841815",
      "2022-06-21T21:13:28.907906",
      "2022-06-21T21:13:30.972617",
      "2022-06-21T21:13:33.040834",
      "2022-06-21T21:13:35.108744",
      "2022-06-21T21:13:37.181240",
      "2022-06-21T21:13:39.250577",
      "2022-06-21T21:13:41.322192",
      "2022-06-21T21:13:43.391455",
      "2022-06-21T21:13:45.466451",
      "2022-06-21T21:13:47.540239",
      "2022-06-21T21:13:49.609379",
      "2022-06-21T21:13:51.678417",
      "2022-06-21T21:13:53.747634",
      "2022-06-21T21:13:55.818889",
      "2022-06-21T21:13:57.884848",
      "2022-06-21T21:13:59.948140",
      "2022-06-21T21:14:02.015426",
      "2022-06-21T21:14:04.083845",
      "2022-06-21T21:14:06.154657",
      "2022-06-21T21:14:08.218020",
      "2022-06-21T21:14:10.282421",
      "2022-06-21T21:14:12.346341",
      "2022-06-21T21:14:14.412917",
      "2022-06-21T21:14:16.476968",
      "2022-06-21T21:14:18.538071",
      "2022-06-21T21:14:20.601190",
      "2022-06-21T21:14:22.663445",
      "2022-06-21T21:14:24.729730",
      "2022-06-21T21:14:26.793961",
      "2022-06-21T21:14:28.858002",
      "2022-06-21T21:14:30.922151",
      "2022-06-21T21:14:32.989350",
      "2022-06-21T21:14:35.053399",
      "2022-06-21T21:14:37.118371",
      "2022-06-21T21:14:39.181283",
      "2022-06-21T21:14:41.246503",
      "2022-06-21T21:14:43.309751",
      "2022-06-21T21:14:45.380751",
      "2022-06-21T21:14:47.446232",
      "2022-06-21T21:14:49.509537",
      "2022-06-21T21:14:51.576354",
      "2022-06-21T21:14:53.641265",
      "2022-06-21T21:14:55.709835",
      "2022-06-21T21:14:57.775922",
      "2022-06-21T21:14:59.839939",
      "2022-06-21T21:15:01.905918",
      "2022-06-21T21:15:03.974909",
      "2022-06-21T21:15:06.040680",
      "2022-06-21T21:15:08.106259",
      "2022-06-21T21:15:10.172095",
      "2022-06-21T21:15:12.238209",
      "2022-06-21T21:15:14.307697",
      "2022-06-21T21:15:16.374876",
      "2022-06-21T21:15:18.438399",
      "2022-06-21T21:15:20.504307",
      "2022-06-21T21:15:22.578217",
      "2022-06-21T21:15:24.646561",
      "2022-06-21T21:15:26.711981",
      "2022-06-21T21:15:28.773397",
      "2022-06-21T21:15:30.838459",
      "2022-06-21T21:15:32.903193",
      "2022-06-21T21:15:34.966732",
      "2022-06-21T21:15:37.032971",
      "2022-06-21T21:15:39.095771",
      "2022-06-21T21:15:41.162429",
      "2022-06-21T21:15:43.226581",
      "2022-06-21T21:15:45.294583",
      "2022-06-21T21:15:47.371356",
      "2022-06-21T21:15:49.433789",
      "2022-06-21T21:15:51.499456",
      "2022-06-21T21:15:53.561857",
      "2022-06-21T21:15:55.632702",
      "2022-06-21T21:15:57.697828",
      "2022-06-21T21:15:59.761733",
      "2022-06-21T21:16:01.826853",
      "2022-06-21T21:16:03.894285",
      "2022-06-21T21:16:05.959993",
      "2022-06-21T21:16:08.023214",
      "2022-06-21T21:16:10.087558",
      "2022-06-21T21:16:12.155317",
      "2022-06-21T21:16:14.221745",
      "2022-06-21T21:16:16.286077",
      "2022-06-21T21:16:18.348304",
      "2022-06-21T21:16:20.414476",
      "2022-06-21T21:16:22.477671",
      "2022-06-21T21:16:24.547107",
      "2022-06-21T21:16:26.613069",
      "2022-06-21T21:16:28.675741",
      "2022-06-21T21:16:30.740225",
      "2022-06-21T21:16:32.804939",
      "2022-06-21T21:16:34.877008",
      "2022-06-21T21:16:36.941171",
      "2022-06-21T21:16:39.004791",
      "2022-06-21T21:16:41.068454",
      "2022-06-21T21:16:43.130107",
      "2022-06-21T21:16:45.197628",
      "2022-06-21T21:16:47.262323",
      "2022-06-21T21:16:49.324963",
      "2022-06-21T21:16:51.389128",
      "2022-06-21T21:16:53.452527",
      "2022-06-21T21:16:55.518798",
      "2022-06-21T21:16:57.581830",
      "2022-06-21T21:16:59.644861",
      "2022-06-21T21:17:01.710078",
      "2022-06-21T21:17:03.778266",
      "2022-06-21T21:17:05.842803",
      "2022-06-21T21:17:07.905526",
      "2022-06-21T21:17:09.969844",
      "2022-06-21T21:17:12.035349",
      "2022-06-21T21:17:14.103502",
      "2022-06-21T21:17:16.169844",
      "2022-06-21T21:17:18.232471",
      "2022-06-21T21:17:20.296656",
      "2022-06-21T21:17:22.361639",
      "2022-06-21T21:17:24.428856",
      "2022-06-21T21:17:26.495587",
      "2022-06-21T21:17:28.561272",
      "2022-06-21T21:17:30.627596",
      "2022-06-21T21:17:32.692840",
      "2022-06-21T21:17:34.763516",
      "2022-06-21T21:17:36.834216",
      "2022-06-21T21:17:38.896013",
      "2022-06-21T21:17:40.960313",
      "2022-06-21T21:17:43.023351",
      "2022-06-21T21:17:45.096225",
      "2022-06-21T21:17:47.161094",
      "2022-06-21T21:17:49.225870",
      "2022-06-21T21:17:51.291594",
      "2022-06-21T21:17:53.356693",
      "2022-06-21T21:17:55.427767",
      "2022-06-21T21:17:57.492065",
      "2022-06-21T21:17:59.556444",
      "2022-06-21T21:18:01.622246",
      "2022-06-21T21:18:03.686490",
      "2022-06-21T21:18:05.761265",
      "2022-06-21T21:18:07.822863",
      "2022-06-21T21:18:09.886539",
      "2022-06-21T21:18:11.951793",
      "2022-06-21T21:18:14.014990",
      "2022-06-21T21:18:16.080965",
      "2022-06-21T21:18:18.145274",
      "2022-06-21T21:18:20.208587",
      "2022-06-21T21:18:22.273544",
      "2022-06-21T21:18:24.342615",
      "2022-06-21T21:18:26.408635",
      "2022-06-21T21:18:28.471864",
      "2022-06-21T21:18:30.537360",
      "2022-06-21T21:18:32.600647",
      "2022-06-21T21:18:34.664840",
      "2022-06-21T21:18:36.730322",
      "2022-06-21T21:18:38.792688",
      "2022-06-21T21:18:40.856939",
      "2022-06-21T21:18:42.920942",
      "2022-06-21T21:18:44.989738",
      "2022-06-21T21:18:47.056712",
      "2022-06-21T21:18:49.121385",
      "2022-06-21T21:18:51.186279",
      "2022-06-21T21:18:53.251258",
      "2022-06-21T21:18:55.316579",
      "2022-06-21T21:18:57.384460",
      "2022-06-21T21:18:59.451008",
      "2022-06-21T21:19:01.520513",
      "2022-06-21T21:19:03.587627",
      "2022-06-21T21:19:05.666308",
      "2022-06-21T21:19:07.731340",
      "2022-06-21T21:19:09.797090",
      "2022-06-21T21:19:11.863766"
    ],
    "values": [
      34.165248,
      34.165248,
      34.165248,
      34.165248,
      34.165248,
      34.165248,
      34.165248,
      34.165248,
      34.165248,
      34.165248,
      34.165248,
      34.165248,
      34.165248,
      34.165248,
      34.165248,
      34.165248,
      34.165248,
      34.165248,
      34.165248,
      34.165248,
      34.165248,
      34.165248,
      34.165248,
      34.165248,
      34.165248,
      34.165248,
      34.165248,
      34.165248,
      34.165248,
      34.165248,
      34.165248,
      34.165248,
      34.165248,
      34.165248,
      34.165248,
      34.165248,
      34.165248,
      34.165248,
      34.165248,
      34.165248,
      34.165248,
      34.165248,
      34.165248,
      34.165248,
      34.165248,
      34.165248,
      34.165248,
      34.165248,
      34.165248,
      34.165248,
      34.165248,
      34.165248,
      34.165248,
      34.165248,
      34.165248,
      34.165248,
      34.165248,
      34.165248,
      34.165248,
      34.165248,
      34.165248,
      34.165248,
      34.165248,
      34.165248,
      34.165248,
      34.165248,
      34.165248,
      34.165248,
      34.165248,
      34.165248,
      34.165248,
      34.165248,
      34.165248,
      34.165248,
      34.165248,
      34.165248,
      34.165248,
      34.165248,
      34.165248,
      34.165248,
      34.165248,
      34.165248,
      34.165248,
      34.165248,
      34.165248,
      34.165248,
      34.165248,
      34.165248,
      34.165248,
      34.165248,
      34.165248,
      34.165248,
      34.165248,
      34.165248,
      34.165248,
      34.165248,
      34.165248,
      34.165248,
      34.165248,
      34.165248,
      34.165248,
      34.165248,
      34.165248,
      34.165248,
      34.165248,
      34.165248,
      34.165248,
      34.165248,
      34.165248,
      34.165248,
      34.165248,
      34.165248,
      34.165248,
      34.165248,
      34.165248,
      34.165248,
      34.165248,
      34.165248,
      34.165248,
      34.165248,
      34.165248,
      34.165248,
      34.165248,
      34.165248,
      34.165248,
      34.165248,
      34.165248,
      34.165248,
      34.165248,
      34.165248,
      34.165248,
      34.165248,
      34.165248,
      34.165248,
      34.165248,
      34.165248,
      34.165248,
      34.165248,
      34.165248,
      34.165248,
      34.165248,
      34.165248,
      34.165248,
      34.165248,
      34.165248,
      34.165248,
      34.165248,
      34.165248,
      34.165248,
      34.165248,
      34.165248,
      34.165248,
      34.165248,
      34.165248,
      34.165248,
      34.165248,
      34.165248,
      34.165248,
      34.165248,
      34.165248,
      34.165248,
      34.165248,
      34.165248,
      34.165248,
      34.165248,
      34.165248,
      34.165248,
      34.165248,
      34.165248,
      34.165248,
      34.165248,
      34.165248,
      34.165248,
      34.165248,
      34.165248,
      34.165248,
      34.165248,
      34.165248,
      34.165248,
      34.165248,
      34.165248,
      34.165248,
      34.165248,
      34.165248,
      34.165248,
      34.165248,
      34.165248,
      34.165248,
      34.165248,
      34.165248,
      34.165248,
      34.165248,
      34.165248,
      34.165248,
      34.165248,
      34.165248,
      34.165248,
      34.165248,
      34.165248,
      34.165248,
      34.165248,
      34.165248,
      34.165248,
      34.165248,
      34.165248,
      34.165248,
      34.165248,
      34.165248,
      34.165248,
      34.165248,
      34.165248,
      34.165248,
      34.165248,
      34.165248,
      34.165248,
      34.165248,
      34.165248,
      34.165248,
      34.165248,
      34.165248,
      34.165248,
      34.165248,
      34.165248,
      34.165248,
      34.165248,
      34.165248,
      34.165248,
      34.165248,
      34.165248,
      34.165248,
      34.165248,
      34.165248,
      34.165248,
      34.165248,
      34.165248,
      34.165248,
      34.165248,
      34.165248,
      34.165248,
      34.165248,
      34.165248,
      34.165248,
      34.165248,
      34.165248,
      34.165248,
      34.165248,
      34.165248,
      34.165248,
      34.165248,
      34.165248,
      34.165248,
      34.165248,
      34.165248,
      34.165248,
      34.165248,
      34.165248,
      34.165248,
      34.165248,
      34.165248,
      34.165248,
      34.165248,
      34.165248,
      34.165248,
      34.165248,
      34.165248,
      34.165248,
      34.165248,
      34.165248,
      34.165248,
      34.165248,
      34.165248,
      34.165248,
      34.165248,
      34.165248,
      34.165248,
      34.165248,
      34.165248,
      34.165248,
      34.165248,
      34.165248,
      34.165248,
      34.165248,
      34.165248,
      34.165248,
      34.165248,
      34.165248,
      34.165248,
      34.165248,
      34.165248,
      34.165248,
      34.165248,
      34.165248,
      34.165248,
      34.165248,
      34.165248,
      34.165248,
      34.165248,
      34.165248,
      34.165248,
      34.165248,
      34.165248,
      34.165248,
      34.165248,
      34.165248,
      34.165248,
      34.165248,
      34.165248,
      34.165248,
      34.165248,
      34.165248,
      34.165248,
      34.165248,
      34.165248,
      34.165248,
      34.165248,
      34.165248,
      34.165248,
      34.165248,
      34.165248,
      34.165248,
      34.165248,
      34.165248,
      34.165248,
      34.165248,
      34.165248,
      34.165248,
      34.165248,
      34.165248,
      34.165248,
      34.165248,
      34.165248,
      34.165248,
      34.165248,
      34.165248,
      34.165248,
      34.165248,
      34.165248,
      34.165248,
      34.165248,
      34.165248,
      34.165248,
      34.165248,
      34.165248,
      34.165248,
      34.165248,
      34.165248,
      34.165248,
      34.165248,
      34.165248,
      34.165248,
      34.165248,
      34.165248,
      34.165248,
      34.165248,
      34.165248,
      34.165248,
      34.165248,
      34.165248,
      34.165248,
      34.165248,
      34.165248,
      34.165248,
      34.165248,
      34.165248,
      34.165248,
      34.165248,
      34.165248,
      34.165248,
      34.165248,
      34.165248,
      34.165248,
      34.165248,
      34.165248,
      34.165248,
      34.165248,
      34.165248,
      34.165248,
      34.165248,
      34.165248,
      34.165248,
      34.165248,
      34.165248,
      34.165248,
      34.165248,
      34.165248,
      34.165248,
      34.165248,
      34.165248,
      34.165248,
      34.165248,
      34.165248,
      34.165248,
      34.165248,
      34.165248,
      34.165248,
      34.165248,
      34.165248,
      34.165248,
      34.165248,
      34.165248
    ]
  },
  "test": {
    "steps": [
      0
    ],
    "timestamps": [
      "2022-06-21T21:19:12.342685"
    ],
    "values": [
      39.98472301173822
    ]
  },
  "train": {
    "steps": [
      0,
      1,
      2,
      3,
      4,
      5,
      6,
      7,
      8,
      9,
      10,
      11,
      12,
      13,
      14,
      15,
      16,
      17,
      18,
      19,
      20,
      21,
      22,
      23,
      24,
      25,
      26,
      27,
      28,
      29,
      30,
      31,
      32,
      33,
      34,
      35,
      36,
      37,
      38,
      39,
      40,
      41,
      42,
      43,
      44,
      45,
      46,
      47,
      48,
      49,
      50,
      51,
      52,
      53,
      54,
      55,
      56,
      57,
      58,
      59,
      60,
      61,
      62,
      63,
      64,
      65,
      66,
      67,
      68,
      69,
      70,
      71,
      72,
      73,
      74,
      75,
      76,
      77,
      78,
      79,
      80,
      81,
      82,
      83,
      84,
      85,
      86,
      87,
      88,
      89,
      90,
      91,
      92,
      93,
      94,
      95,
      96,
      97,
      98,
      99,
      100,
      101,
      102,
      103,
      104,
      105,
      106,
      107,
      108,
      109,
      110,
      111,
      112,
      113,
      114,
      115,
      116,
      117,
      118,
      119,
      120,
      121,
      122,
      123,
      124,
      125,
      126,
      127,
      128,
      129,
      130,
      131,
      132,
      133,
      134,
      135,
      136,
      137,
      138,
      139,
      140,
      141,
      142,
      143,
      144,
      145,
      146,
      147,
      148,
      149,
      150,
      151,
      152,
      153,
      154,
      155,
      156,
      157,
      158,
      159,
      160,
      161,
      162,
      163,
      164,
      165,
      166,
      167,
      168,
      169,
      170,
      171,
      172,
      173,
      174,
      175,
      176,
      177,
      178,
      179,
      180,
      181,
      182,
      183,
      184,
      185,
      186,
      187,
      188,
      189,
      190,
      191,
      192,
      193,
      194,
      195,
      196,
      197,
      198,
      199,
      200,
      201,
      202,
      203,
      204,
      205,
      206,
      207,
      208,
      209,
      210,
      211,
      212,
      213,
      214,
      215,
      216,
      217,
      218,
      219,
      220,
      221,
      222,
      223,
      224,
      225,
      226,
      227,
      228,
      229,
      230,
      231,
      232,
      233,
      234,
      235,
      236,
      237,
      238,
      239,
      240,
      241,
      242,
      243,
      244,
      245,
      246,
      247,
      248,
      249,
      250,
      251,
      252,
      253,
      254,
      255,
      256,
      257,
      258,
      259,
      260,
      261,
      262,
      263,
      264,
      265,
      266,
      267,
      268,
      269,
      270,
      271,
      272,
      273,
      274,
      275,
      276,
      277,
      278,
      279,
      280,
      281,
      282,
      283,
      284,
      285,
      286,
      287,
      288,
      289,
      290,
      291,
      292,
      293,
      294,
      295,
      296,
      297,
      298,
      299,
      300,
      301,
      302,
      303,
      304,
      305,
      306,
      307,
      308,
      309,
      310,
      311,
      312,
      313,
      314,
      315,
      316,
      317,
      318,
      319,
      320,
      321,
      322,
      323,
      324,
      325,
      326,
      327,
      328,
      329,
      330,
      331,
      332,
      333,
      334,
      335,
      336,
      337,
      338,
      339,
      340,
      341,
      342,
      343,
      344,
      345,
      346,
      347,
      348,
      349,
      350,
      351,
      352,
      353,
      354,
      355,
      356,
      357,
      358,
      359,
      360,
      361,
      362,
      363,
      364,
      365,
      366,
      367,
      368,
      369,
      370,
      371,
      372,
      373,
      374,
      375,
      376,
      377,
      378,
      379,
      380,
      381,
      382,
      383,
      384,
      385,
      386,
      387,
      388,
      389,
      390,
      391,
      392,
      393,
      394,
      395,
      396,
      397,
      398,
      399
    ],
    "timestamps": [
      "2022-06-21T21:05:27.594754",
      "2022-06-21T21:05:29.657823",
      "2022-06-21T21:05:31.720506",
      "2022-06-21T21:05:33.782363",
      "2022-06-21T21:05:35.845158",
      "2022-06-21T21:05:37.906086",
      "2022-06-21T21:05:39.968652",
      "2022-06-21T21:05:42.031204",
      "2022-06-21T21:05:44.092744",
      "2022-06-21T21:05:46.155840",
      "2022-06-21T21:05:48.226362",
      "2022-06-21T21:05:50.287349",
      "2022-06-21T21:05:52.388619",
      "2022-06-21T21:05:54.455010",
      "2022-06-21T21:05:56.519236",
      "2022-06-21T21:05:58.580815",
      "2022-06-21T21:06:00.645551",
      "2022-06-21T21:06:02.707644",
      "2022-06-21T21:06:04.772493",
      "2022-06-21T21:06:06.840721",
      "2022-06-21T21:06:08.905599",
      "2022-06-21T21:06:10.975701",
      "2022-06-21T21:06:13.040484",
      "2022-06-21T21:06:15.107407",
      "2022-06-21T21:06:17.176982",
      "2022-06-21T21:06:19.241256",
      "2022-06-21T21:06:21.310476",
      "2022-06-21T21:06:23.376156",
      "2022-06-21T21:06:25.444659",
      "2022-06-21T21:06:27.510111",
      "2022-06-21T21:06:29.574131",
      "2022-06-21T21:06:31.639847",
      "2022-06-21T21:06:33.703614",
      "2022-06-21T21:06:35.770441",
      "2022-06-21T21:06:37.834445",
      "2022-06-21T21:06:39.898238",
      "2022-06-21T21:06:41.963146",
      "2022-06-21T21:06:44.029273",
      "2022-06-21T21:06:46.094472",
      "2022-06-21T21:06:48.157843",
      "2022-06-21T21:06:50.224262",
      "2022-06-21T21:06:52.288567",
      "2022-06-21T21:06:54.349983",
      "2022-06-21T21:06:56.413627",
      "2022-06-21T21:06:58.476433",
      "2022-06-21T21:07:00.539754",
      "2022-06-21T21:07:02.603077",
      "2022-06-21T21:07:04.667327",
      "2022-06-21T21:07:06.731592",
      "2022-06-21T21:07:08.793133",
      "2022-06-21T21:07:10.865998",
      "2022-06-21T21:07:12.929990",
      "2022-06-21T21:07:14.992632",
      "2022-06-21T21:07:17.056226",
      "2022-06-21T21:07:19.118716",
      "2022-06-21T21:07:21.182798",
      "2022-06-21T21:07:23.246703",
      "2022-06-21T21:07:25.313150",
      "2022-06-21T21:07:27.376060",
      "2022-06-21T21:07:29.438032",
      "2022-06-21T21:07:31.502789",
      "2022-06-21T21:07:33.566840",
      "2022-06-21T21:07:35.630921",
      "2022-06-21T21:07:37.694690",
      "2022-06-21T21:07:39.757271",
      "2022-06-21T21:07:41.820246",
      "2022-06-21T21:07:43.882914",
      "2022-06-21T21:07:45.946604",
      "2022-06-21T21:07:48.010342",
      "2022-06-21T21:07:50.073313",
      "2022-06-21T21:07:52.135411",
      "2022-06-21T21:07:54.198181",
      "2022-06-21T21:07:56.261057",
      "2022-06-21T21:07:58.324017",
      "2022-06-21T21:08:00.388155",
      "2022-06-21T21:08:02.450817",
      "2022-06-21T21:08:04.515431",
      "2022-06-21T21:08:06.580127",
      "2022-06-21T21:08:08.642684",
      "2022-06-21T21:08:10.706950",
      "2022-06-21T21:08:12.771323",
      "2022-06-21T21:08:14.839005",
      "2022-06-21T21:08:16.923060",
      "2022-06-21T21:08:18.992899",
      "2022-06-21T21:08:21.061617",
      "2022-06-21T21:08:23.130312",
      "2022-06-21T21:08:25.202205",
      "2022-06-21T21:08:27.266539",
      "2022-06-21T21:08:29.329188",
      "2022-06-21T21:08:31.393205",
      "2022-06-21T21:08:33.456814",
      "2022-06-21T21:08:35.524737",
      "2022-06-21T21:08:37.586756",
      "2022-06-21T21:08:39.648705",
      "2022-06-21T21:08:41.713505",
      "2022-06-21T21:08:43.778232",
      "2022-06-21T21:08:45.842834",
      "2022-06-21T21:08:47.905298",
      "2022-06-21T21:08:49.966975",
      "2022-06-21T21:08:52.030936",
      "2022-06-21T21:08:54.096730",
      "2022-06-21T21:08:56.161046",
      "2022-06-21T21:08:58.222899",
      "2022-06-21T21:09:00.286214",
      "2022-06-21T21:09:02.348969",
      "2022-06-21T21:09:04.412835",
      "2022-06-21T21:09:06.477581",
      "2022-06-21T21:09:08.539832",
      "2022-06-21T21:09:10.654632",
      "2022-06-21T21:09:12.718146",
      "2022-06-21T21:09:14.781069",
      "2022-06-21T21:09:16.844816",
      "2022-06-21T21:09:18.906503",
      "2022-06-21T21:09:20.969741",
      "2022-06-21T21:09:23.033759",
      "2022-06-21T21:09:25.098331",
      "2022-06-21T21:09:27.160948",
      "2022-06-21T21:09:29.227080",
      "2022-06-21T21:09:31.292044",
      "2022-06-21T21:09:33.363160",
      "2022-06-21T21:09:35.440025",
      "2022-06-21T21:09:37.504354",
      "2022-06-21T21:09:39.566719",
      "2022-06-21T21:09:41.632417",
      "2022-06-21T21:09:43.700455",
      "2022-06-21T21:09:45.768111",
      "2022-06-21T21:09:47.830448",
      "2022-06-21T21:09:49.891434",
      "2022-06-21T21:09:51.966381",
      "2022-06-21T21:09:54.032231",
      "2022-06-21T21:09:56.098088",
      "2022-06-21T21:09:58.162613",
      "2022-06-21T21:10:00.226262",
      "2022-06-21T21:10:02.292751",
      "2022-06-21T21:10:04.357785",
      "2022-06-21T21:10:06.425060",
      "2022-06-21T21:10:08.488459",
      "2022-06-21T21:10:10.552694",
      "2022-06-21T21:10:12.616661",
      "2022-06-21T21:10:14.686884",
      "2022-06-21T21:10:16.755371",
      "2022-06-21T21:10:18.816497",
      "2022-06-21T21:10:20.879788",
      "2022-06-21T21:10:22.949596",
      "2022-06-21T21:10:25.015786",
      "2022-06-21T21:10:27.081148",
      "2022-06-21T21:10:29.144525",
      "2022-06-21T21:10:31.208630",
      "2022-06-21T21:10:33.272989",
      "2022-06-21T21:10:35.338757",
      "2022-06-21T21:10:37.403636",
      "2022-06-21T21:10:39.466919",
      "2022-06-21T21:10:41.540586",
      "2022-06-21T21:10:43.605652",
      "2022-06-21T21:10:45.671085",
      "2022-06-21T21:10:47.738177",
      "2022-06-21T21:10:49.801697",
      "2022-06-21T21:10:51.869647",
      "2022-06-21T21:10:53.932946",
      "2022-06-21T21:10:56.001330",
      "2022-06-21T21:10:58.065346",
      "2022-06-21T21:11:00.128704",
      "2022-06-21T21:11:02.193049",
      "2022-06-21T21:11:04.261331",
      "2022-06-21T21:11:06.325081",
      "2022-06-21T21:11:08.388705",
      "2022-06-21T21:11:10.455503",
      "2022-06-21T21:11:12.518973",
      "2022-06-21T21:11:14.587515",
      "2022-06-21T21:11:16.652775",
      "2022-06-21T21:11:18.716715",
      "2022-06-21T21:11:20.784139",
      "2022-06-21T21:11:22.848689",
      "2022-06-21T21:11:24.914637",
      "2022-06-21T21:11:26.982405",
      "2022-06-21T21:11:29.051875",
      "2022-06-21T21:11:31.116684",
      "2022-06-21T21:11:33.184469",
      "2022-06-21T21:11:35.252545",
      "2022-06-21T21:11:37.315707",
      "2022-06-21T21:11:39.379685",
      "2022-06-21T21:11:41.443638",
      "2022-06-21T21:11:43.505525",
      "2022-06-21T21:11:45.573642",
      "2022-06-21T21:11:47.638521",
      "2022-06-21T21:11:49.703568",
      "2022-06-21T21:11:51.770224",
      "2022-06-21T21:11:53.837851",
      "2022-06-21T21:11:55.904076",
      "2022-06-21T21:11:57.969113",
      "2022-06-21T21:12:00.033354",
      "2022-06-21T21:12:02.099316",
      "2022-06-21T21:12:04.167992",
      "2022-06-21T21:12:06.233640",
      "2022-06-21T21:12:08.296361",
      "2022-06-21T21:12:10.362609",
      "2022-06-21T21:12:12.427816",
      "2022-06-21T21:12:14.497026",
      "2022-06-21T21:12:16.566945",
      "2022-06-21T21:12:18.631240",
      "2022-06-21T21:12:20.696676",
      "2022-06-21T21:12:22.761891",
      "2022-06-21T21:12:24.830702",
      "2022-06-21T21:12:26.913167",
      "2022-06-21T21:12:28.975896",
      "2022-06-21T21:12:31.040527",
      "2022-06-21T21:12:33.104511",
      "2022-06-21T21:12:35.170286",
      "2022-06-21T21:12:37.236702",
      "2022-06-21T21:12:39.299788",
      "2022-06-21T21:12:41.366815",
      "2022-06-21T21:12:43.430941",
      "2022-06-21T21:12:45.501779",
      "2022-06-21T21:12:47.566275",
      "2022-06-21T21:12:49.628466",
      "2022-06-21T21:12:51.694067",
      "2022-06-21T21:12:53.761022",
      "2022-06-21T21:12:55.824298",
      "2022-06-21T21:12:57.886763",
      "2022-06-21T21:12:59.951220",
      "2022-06-21T21:13:02.016823",
      "2022-06-21T21:13:04.082554",
      "2022-06-21T21:13:06.149134",
      "2022-06-21T21:13:08.213536",
      "2022-06-21T21:13:10.279431",
      "2022-06-21T21:13:12.345867",
      "2022-06-21T21:13:14.424389",
      "2022-06-21T21:13:16.491523",
      "2022-06-21T21:13:18.559138",
      "2022-06-21T21:13:20.626548",
      "2022-06-21T21:13:22.697211",
      "2022-06-21T21:13:24.773836",
      "2022-06-21T21:13:26.841687",
      "2022-06-21T21:13:28.907773",
      "2022-06-21T21:13:30.972487",
      "2022-06-21T21:13:33.040708",
      "2022-06-21T21:13:35.108615",
      "2022-06-21T21:13:37.181112",
      "2022-06-21T21:13:39.250451",
      "2022-06-21T21:13:41.322060",
      "2022-06-21T21:13:43.391327",
      "2022-06-21T21:13:45.466323",
      "2022-06-21T21:13:47.540113",
      "2022-06-21T21:13:49.609277",
      "2022-06-21T21:13:51.678291",
      "2022-06-21T21:13:53.747515",
      "2022-06-21T21:13:55.818761",
      "2022-06-21T21:13:57.884721",
      "2022-06-21T21:13:59.948010",
      "2022-06-21T21:14:02.015298",
      "2022-06-21T21:14:04.083723",
      "2022-06-21T21:14:06.154529",
      "2022-06-21T21:14:08.217895",
      "2022-06-21T21:14:10.282293",
      "2022-06-21T21:14:12.346214",
      "2022-06-21T21:14:14.412791",
      "2022-06-21T21:14:16.476840",
      "2022-06-21T21:14:18.537944",
      "2022-06-21T21:14:20.601063",
      "2022-06-21T21:14:22.663319",
      "2022-06-21T21:14:24.729602",
      "2022-06-21T21:14:26.793836",
      "2022-06-21T21:14:28.857875",
      "2022-06-21T21:14:30.922025",
      "2022-06-21T21:14:32.989223",
      "2022-06-21T21:14:35.053271",
      "2022-06-21T21:14:37.118242",
      "2022-06-21T21:14:39.181157",
      "2022-06-21T21:14:41.246374",
      "2022-06-21T21:14:43.309621",
      "2022-06-21T21:14:45.380619",
      "2022-06-21T21:14:47.446104",
      "2022-06-21T21:14:49.509406",
      "2022-06-21T21:14:51.576226",
      "2022-06-21T21:14:53.641135",
      "2022-06-21T21:14:55.709706",
      "2022-06-21T21:14:57.775794",
      "2022-06-21T21:14:59.839810",
      "2022-06-21T21:15:01.905791",
      "2022-06-21T21:15:03.974787",
      "2022-06-21T21:15:06.040552",
      "2022-06-21T21:15:08.106132",
      "2022-06-21T21:15:10.171967",
      "2022-06-21T21:15:12.238083",
      "2022-06-21T21:15:14.307573",
      "2022-06-21T21:15:16.374745",
      "2022-06-21T21:15:18.438274",
      "2022-06-21T21:15:20.504180",
      "2022-06-21T21:15:22.578088",
      "2022-06-21T21:15:24.646435",
      "2022-06-21T21:15:26.711850",
      "2022-06-21T21:15:28.773268",
      "2022-06-21T21:15:30.838330",
      "2022-06-21T21:15:32.903063",
      "2022-06-21T21:15:34.966605",
      "2022-06-21T21:15:37.032841",
      "2022-06-21T21:15:39.095641",
      "2022-06-21T21:15:41.162301",
      "2022-06-21T21:15:43.226451",
      "2022-06-21T21:15:45.294460",
      "2022-06-21T21:15:47.371230",
      "2022-06-21T21:15:49.433664",
      "2022-06-21T21:15:51.499329",
      "2022-06-21T21:15:53.561729",
      "2022-06-21T21:15:55.632574",
      "2022-06-21T21:15:57.697701",
      "2022-06-21T21:15:59.761605",
      "2022-06-21T21:16:01.826728",
      "2022-06-21T21:16:03.894166",
      "2022-06-21T21:16:05.959863",
      "2022-06-21T21:16:08.023084",
      "2022-06-21T21:16:10.087430",
      "2022-06-21T21:16:12.155189",
      "2022-06-21T21:16:14.221622",
      "2022-06-21T21:16:16.285947",
      "2022-06-21T21:16:18.348177",
      "2022-06-21T21:16:20.414342",
      "2022-06-21T21:16:22.477541",
      "2022-06-21T21:16:24.546980",
      "2022-06-21T21:16:26.612939",
      "2022-06-21T21:16:28.675616",
      "2022-06-21T21:16:30.740097",
      "2022-06-21T21:16:32.804797",
      "2022-06-21T21:16:34.876882",
      "2022-06-21T21:16:36.941042",
      "2022-06-21T21:16:39.004665",
      "2022-06-21T21:16:41.068326",
      "2022-06-21T21:16:43.129979",
      "2022-06-21T21:16:45.197502",
      "2022-06-21T21:16:47.262194",
      "2022-06-21T21:16:49.324837",
      "2022-06-21T21:16:51.388996",
      "2022-06-21T21:16:53.452400",
      "2022-06-21T21:16:55.518668",
      "2022-06-21T21:16:57.581703",
      "2022-06-21T21:16:59.644734",
      "2022-06-21T21:17:01.709948",
      "2022-06-21T21:17:03.778144",
      "2022-06-21T21:17:05.842673",
      "2022-06-21T21:17:07.905393",
      "2022-06-21T21:17:09.969711",
      "2022-06-21T21:17:12.035223",
      "2022-06-21T21:17:14.103382",
      "2022-06-21T21:17:16.169714",
      "2022-06-21T21:17:18.232345",
      "2022-06-21T21:17:20.296529",
      "2022-06-21T21:17:22.361513",
      "2022-06-21T21:17:24.428731",
      "2022-06-21T21:17:26.495460",
      "2022-06-21T21:17:28.561146",
      "2022-06-21T21:17:30.627473",
      "2022-06-21T21:17:32.692711",
      "2022-06-21T21:17:34.763391",
      "2022-06-21T21:17:36.834087",
      "2022-06-21T21:17:38.895886",
      "2022-06-21T21:17:40.960182",
      "2022-06-21T21:17:43.023224",
      "2022-06-21T21:17:45.096098",
      "2022-06-21T21:17:47.160964",
      "2022-06-21T21:17:49.225745",
      "2022-06-21T21:17:51.291468",
      "2022-06-21T21:17:53.356566",
      "2022-06-21T21:17:55.427653",
      "2022-06-21T21:17:57.491937",
      "2022-06-21T21:17:59.556317",
      "2022-06-21T21:18:01.622117",
      "2022-06-21T21:18:03.686360",
      "2022-06-21T21:18:05.761138",
      "2022-06-21T21:18:07.822735",
      "2022-06-21T21:18:09.886413",
      "2022-06-21T21:18:11.951666",
      "2022-06-21T21:18:14.014868",
      "2022-06-21T21:18:16.080834",
      "2022-06-21T21:18:18.145147",
      "2022-06-21T21:18:20.208459",
      "2022-06-21T21:18:22.273407",
      "2022-06-21T21:18:24.342486",
      "2022-06-21T21:18:26.408500",
      "2022-06-21T21:18:28.471735",
      "2022-06-21T21:18:30.537226",
      "2022-06-21T21:18:32.600517",
      "2022-06-21T21:18:34.664711",
      "2022-06-21T21:18:36.730194",
      "2022-06-21T21:18:38.792560",
      "2022-06-21T21:18:40.856810",
      "2022-06-21T21:18:42.920817",
      "2022-06-21T21:18:44.989612",
      "2022-06-21T21:18:47.056583",
      "2022-06-21T21:18:49.121260",
      "2022-06-21T21:18:51.186151",
      "2022-06-21T21:18:53.251132",
      "2022-06-21T21:18:55.316398",
      "2022-06-21T21:18:57.384342",
      "2022-06-21T21:18:59.450879",
      "2022-06-21T21:19:01.520384",
      "2022-06-21T21:19:03.587499",
      "2022-06-21T21:19:05.666181",
      "2022-06-21T21:19:07.731212",
      "2022-06-21T21:19:09.796963",
      "2022-06-21T21:19:11.863635"
    ],
    "values": [
      59.597683400397756,
      41.713535149656416,
      41.0105088089434,
      40.81748896959989,
      40.73269449437775,
      40.67202707096852,
      40.626308563781414,
      40.60120321887092,
      40.57540179996045,
      40.5695877090293,
      40.54086283834351,
      40.52556856194869,
      40.501339478802244,
      40.50039967335717,
      40.52359676903955,
      40.50178894634305,
      40.51422674393951,
      40.48875446492175,
      40.46830396504189,
      40.475873160108925,
      40.44533175077172,
      40.45736639772539,
      40.46613408101362,
      40.45835454198398,
      40.451695995438605,
      40.45719725138793,
      40.46219013400343,
      40.44829297949586,
      40.4403225775917,
      40.453509538713696,
      40.45100197754452,
      40.44432855908459,
      40.40480032037464,
      40.442632179012165,
      40.443144653176354,
      40.43689984422121,
      40.4525216701331,
      40.43555794986372,
      40.42489277195498,
      40.409273525590294,
      40.436166923937556,
      40.40459642078892,
      40.3792080417145,
      40.40179011884669,
      40.42286303336086,
      40.41092405464588,
      40.39731344951488,
      40.41536013236163,
      40.41698022302815,
      40.40002631652309,
      40.41339657003864,
      40.40554668830887,
      40.39747157145641,
      40.370480720884515,
      40.3940011312451,
      40.403696404995245,
      40.37880680225389,
      40.38318398277357,
      40.38002726557582,
      40.40275280457079,
      40.37858168053078,
      40.40586620113929,
      40.384655456433435,
      40.37484035448063,
      40.37127498757072,
      40.38507006807336,
      40.37528177415956,
      40.370506501575484,
      40.3873549052723,
      40.38418549589292,
      40.368906059360256,
      40.36065274534532,
      40.37333975598643,
      40.37959954595681,
      40.36225480719388,
      40.36383873218016,
      40.363287915858116,
      40.378171029331526,
      40.34187595122647,
      40.35963502383744,
      40.37353601576874,
      40.3663234365104,
      40.3560937413821,
      40.34007131047754,
      40.34546342299139,
      40.357649179369666,
      40.36203015768943,
      40.36332029860283,
      40.362330931316635,
      40.349270200553995,
      40.35317687281644,
      40.34870860685268,
      40.33913546104981,
      40.35108413788649,
      40.36310729422153,
      40.35149655192794,
      40.33496949236592,
      40.353755041036365,
      40.32847124969382,
      40.33825102524589,
      40.34297266771759,
      40.339211995564376,
      40.337341458788835,
      40.3452036840308,
      40.33845190542734,
      40.335844933045195,
      40.30906335048216,
      40.34519540022628,
      40.3412508001416,
      40.342693883407804,
      40.33103456668142,
      40.32934766341993,
      40.31923249190783,
      40.32770635703736,
      40.3343831436187,
      40.31209134349666,
      40.33206508710413,
      40.328709101394956,
      40.34339608292554,
      40.32846828430597,
      40.32057158940297,
      40.30652292347076,
      40.3349075154311,
      40.31934202921176,
      40.328634789969534,
      40.32829460463149,
      40.31354960760582,
      40.33037982889905,
      40.19075762128038,
      40.16853490998412,
      40.1626118197003,
      40.16304693984352,
      40.16415118193378,
      40.164767382164655,
      40.16273057480959,
      40.16519887073546,
      40.16257500968389,
      40.16348710477388,
      40.162451641372776,
      40.161913556444006,
      40.164786516387906,
      40.16434290678135,
      40.164370918171315,
      40.163280615941346,
      40.16333461098267,
      40.16234617617305,
      40.16180624788407,
      40.1636149318459,
      40.163608650512586,
      40.16230662939907,
      40.16192733337205,
      40.16571748935193,
      40.14700045455753,
      40.14394981574486,
      40.143339738725174,
      40.14296550416091,
      40.14294795735086,
      40.14287027014129,
      40.142810745864026,
      40.14269536384613,
      40.142690912500214,
      40.1428451980368,
      40.14280088660249,
      40.14285907874273,
      40.14288944229311,
      40.142673030359255,
      40.14314921060512,
      40.14282645197756,
      40.1424521711897,
      40.14237723422972,
      40.14280487653185,
      40.14272976871317,
      40.14250258804817,
      40.14230453023316,
      40.14296618038148,
      40.142923737934574,
      40.142372132125146,
      40.14002623276,
      40.14003643326678,
      40.13999482816638,
      40.13993871296462,
      40.1398978826099,
      40.1398928569246,
      40.139871331459545,
      40.13983984147163,
      40.139842580853156,
      40.139834890252764,
      40.13985062687781,
      40.13988335683279,
      40.139857445252375,
      40.13980117774898,
      40.139866121609245,
      40.13981324183382,
      40.13983028844354,
      40.13978081425337,
      40.13983295596875,
      40.13979284689536,
      40.13981601756347,
      40.13947957932638,
      40.13948560303029,
      40.13948239950018,
      40.13948412182066,
      40.13948271541466,
      40.13948391742225,
      40.13948525074123,
      40.13948766781577,
      40.13948617325935,
      40.13948835961775,
      40.13949076400106,
      40.13949070415574,
      40.13949255246752,
      40.139486814616745,
      40.13949249332627,
      40.139489816023826,
      40.13949234517072,
      40.13948802659889,
      40.139486669139984,
      40.139489560969565,
      40.139483227077136,
      40.13948808879333,
      40.139486657742125,
      40.13948621573441,
      40.139484895121484,
      40.13948507525731,
      40.139479036835425,
      40.13948048042021,
      40.13948705504522,
      40.13948227187525,
      40.139481690747814,
      40.13947885442955,
      40.139482249025384,
      40.139481665117664,
      40.13947932849073,
      40.13948268614758,
      40.13947979111552,
      40.13948173600179,
      40.13948370095002,
      40.13947804315267,
      40.13948192370188,
      40.13948106108851,
      40.13948167010899,
      40.139481119752965,
      40.13947962089135,
      40.139477959185655,
      40.13947929615454,
      40.139484800159,
      40.13948261409044,
      40.139479771448606,
      40.13947717938209,
      40.13948062787905,
      40.13947711462325,
      40.1394723846982,
      40.139476814677316,
      40.13947757451318,
      40.13947375516841,
      40.13947924199403,
      40.139473406838235,
      40.139478479087764,
      40.139478468923066,
      40.13947502185096,
      40.13947351777244,
      40.1394688802139,
      40.139473971707936,
      40.139467306638565,
      40.13947251292592,
      40.13947111254182,
      40.139472325664954,
      40.139475636384745,
      40.139467782835894,
      40.13947246425732,
      40.13947047308042,
      40.139467541049754,
      40.139468504852395,
      40.13947374613901,
      40.13947676736932,
      40.13947105108919,
      40.13947226589465,
      40.139469674499054,
      40.13946636775423,
      40.13946744086746,
      40.139466366612595,
      40.13946597085742,
      40.139463724149735,
      40.13946721679623,
      40.13945971516296,
      40.13946202659451,
      40.139464964141226,
      40.139459281460034,
      40.13945946305505,
      40.13946410525991,
      40.13946052340093,
      40.13946027056174,
      40.1394595274721,
      40.13945694078802,
      40.13945822410049,
      40.13945865544706,
      40.1394569176823,
      40.13945934093415,
      40.13946145050661,
      40.139459256886006,
      40.13945605378978,
      40.139456321738834,
      40.139461428073304,
      40.13945857983214,
      40.13946220263996,
      40.13946371533693,
      40.13945954808208,
      40.13946036646174,
      40.139461906961856,
      40.139459067581605,
      40.139463469406316,
      40.13946132529152,
      40.13946197197195,
      40.13945567837307,
      40.13945709412185,
      40.13945710518336,
      40.13945680748804,
      40.139454092604666,
      40.13945426759202,
      40.13945782382606,
      40.13945947728352,
      40.139458477890464,
      40.13945826069742,
      40.13945586620607,
      40.139458447878035,
      40.13945718905081,
      40.13945468765793,
      40.13945694004617,
      40.1394551690179,
      40.139458456359904,
      40.139453568303985,
      40.13945298419561,
      40.13945529755198,
      40.13945050602809,
      40.13945126298377,
      40.13945095280867,
      40.13945375230725,
      40.13945180459537,
      40.139451612825816,
      40.13944850857375,
      40.13945205252277,
      40.139448166633336,
      40.139448846766534,
      40.1394481595758,
      40.1394463868441,
      40.13944845662026,
      40.13944904583602,
      40.139452174113586,
      40.139453049990706,
      40.13944984198668,
      40.139451484215726,
      40.1394496403683,
      40.139454033595435,
      40.13944910205848,
      40.139452210365924,
      40.139448288584155,
      40.13944771672061,
      40.139451359853226,
      40.139449993553896,
      40.13944829284246,
      40.13944910354595,
      40.139448010688945,
      40.13944792136329,
      40.13945274090259,
      40.139445816128585,
      40.139445830039406,
      40.13944809905452,
      40.13944269813508,
      40.139442202410535,
      40.13943935540811,
      40.13944414420673,
      40.13944267151121,
      40.139441411952454,
      40.13943801536574,
      40.13944240603752,
      40.13944044761626,
      40.1394362080252,
      40.1394442037089,
      40.1394426449942,
      40.13943827674428,
      40.13943778153751,
      40.13943857978297,
      40.13944118846815,
      40.139441253807,
      40.13943772667794,
      40.13944351867465,
      40.13943763271683,
      40.13943814781724,
      40.13944463610235,
      40.13943967025527,
      40.13944371620886,
      40.13944347131336,
      40.13944595754518,
      40.139442779619415,
      40.13944490451695,
      40.13943902987294,
      40.139443082952965,
      40.13944307954867,
      40.13944636313068,
      40.13944140760901
    ]
  },
  "val": {
    "steps": [
      0,
      1,
      2,
      3,
      4,
      5,
      6,
      7,
      8,
      9,
      10,
      11,
      12,
      13,
      14,
      15,
      16,
      17,
      18,
      19,
      20,
      21,
      22,
      23,
      24,
      25,
      26,
      27,
      28,
      29,
      30,
      31,
      32,
      33,
      34,
      35,
      36,
      37,
      38,
      39,
      40,
      41,
      42,
      43,
      44,
      45,
      46,
      47,
      48,
      49,
      50,
      51,
      52,
      53,
      54,
      55,
      56,
      57,
      58,
      59,
      60,
      61,
      62,
      63,
      64,
      65,
      66,
      67,
      68,
      69,
      70,
      71,
      72,
      73,
      74,
      75,
      76,
      77,
      78,
      79,
      80,
      81,
      82,
      83,
      84,
      85,
      86,
      87,
      88,
      89,
      90,
      91,
      92,
      93,
      94,
      95,
      96,
      97,
      98,
      99,
      100,
      101,
      102,
      103,
      104,
      105,
      106,
      107,
      108,
      109,
      110,
      111,
      112,
      113,
      114,
      115,
      116,
      117,
      118,
      119,
      120,
      121,
      122,
      123,
      124,
      125,
      126,
      127,
      128,
      129,
      130,
      131,
      132,
      133,
      134,
      135,
      136,
      137,
      138,
      139,
      140,
      141,
      142,
      143,
      144,
      145,
      146,
      147,
      148,
      149,
      150,
      151,
      152,
      153,
      154,
      155,
      156,
      157,
      158,
      159,
      160,
      161,
      162,
      163,
      164,
      165,
      166,
      167,
      168,
      169,
      170,
      171,
      172,
      173,
      174,
      175,
      176,
      177,
      178,
      179,
      180,
      181,
      182,
      183,
      184,
      185,
      186,
      187,
      188,
      189,
      190,
      191,
      192,
      193,
      194,
      195,
      196,
      197,
      198,
      199,
      200,
      201,
      202,
      203,
      204,
      205,
      206,
      207,
      208,
      209,
      210,
      211,
      212,
      213,
      214,
      215,
      216,
      217,
      218,
      219,
      220,
      221,
      222,
      223,
      224,
      225,
      226,
      227,
      228,
      229,
      230,
      231,
      232,
      233,
      234,
      235,
      236,
      237,
      238,
      239,
      240,
      241,
      242,
      243,
      244,
      245,
      246,
      247,
      248,
      249,
      250,
      251,
      252,
      253,
      254,
      255,
      256,
      257,
      258,
      259,
      260,
      261,
      262,
      263,
      264,
      265,
      266,
      267,
      268,
      269,
      270,
      271,
      272,
      273,
      274,
      275,
      276,
      277,
      278,
      279,
      280,
      281,
      282,
      283,
      284,
      285,
      286,
      287,
      288,
      289,
      290,
      291,
      292,
      293,
      294,
      295,
      296,
      297,
      298,
      299,
      300,
      301,
      302,
      303,
      304,
      305,
      306,
      307,
      308,
      309,
      310,
      311,
      312,
      313,
      314,
      315,
      316,
      317,
      318,
      319,
      320,
      321,
      322,
      323,
      324,
      325,
      326,
      327,
      328,
      329,
      330,
      331,
      332,
      333,
      334,
      335,
      336,
      337,
      338,
      339,
      340,
      341,
      342,
      343,
      344,
      345,
      346,
      347,
      348,
      349,
      350,
      351,
      352,
      353,
      354,
      355,
      356,
      357,
      358,
      359,
      360,
      361,
      362,
      363,
      364,
      365,
      366,
      367,
      368,
      369,
      370,
      371,
      372,
      373,
      374,
      375,
      376,
      377,
      378,
      379,
      380,
      381,
      382,
      383,
      384,
      385,
      386,
      387,
      388,
      389,
      390,
      391,
      392,
      393,
      394,
      395,
      396,
      397,
      398,
      399
    ],
    "timestamps": [
      "2022-06-21T21:05:27.824656",
      "2022-06-21T21:05:29.888390",
      "2022-06-21T21:05:31.950783",
      "2022-06-21T21:05:34.011982",
      "2022-06-21T21:05:36.075041",
      "2022-06-21T21:05:38.136174",
      "2022-06-21T21:05:40.198844",
      "2022-06-21T21:05:42.260930",
      "2022-06-21T21:05:44.322938",
      "2022-06-21T21:05:46.386201",
      "2022-06-21T21:05:48.456220",
      "2022-06-21T21:05:50.518440",
      "2022-06-21T21:05:52.619794",
      "2022-06-21T21:05:54.684434",
      "2022-06-21T21:05:56.749499",
      "2022-06-21T21:05:58.811260",
      "2022-06-21T21:06:00.875504",
      "2022-06-21T21:06:02.937491",
      "2022-06-21T21:06:05.002133",
      "2022-06-21T21:06:07.071091",
      "2022-06-21T21:06:09.135853",
      "2022-06-21T21:06:11.205066",
      "2022-06-21T21:06:13.271235",
      "2022-06-21T21:06:15.340522",
      "2022-06-21T21:06:17.406921",
      "2022-06-21T21:06:19.471464",
      "2022-06-21T21:06:21.541518",
      "2022-06-21T21:06:23.608796",
      "2022-06-21T21:06:25.675396",
      "2022-06-21T21:06:27.740782",
      "2022-06-21T21:06:29.804777",
      "2022-06-21T21:06:31.870313",
      "2022-06-21T21:06:33.934277",
      "2022-06-21T21:06:36.001072",
      "2022-06-21T21:06:38.065087",
      "2022-06-21T21:06:40.128557",
      "2022-06-21T21:06:42.193310",
      "2022-06-21T21:06:44.259344",
      "2022-06-21T21:06:46.325227",
      "2022-06-21T21:06:48.388608",
      "2022-06-21T21:06:50.455189",
      "2022-06-21T21:06:52.517896",
      "2022-06-21T21:06:54.580263",
      "2022-06-21T21:06:56.643644",
      "2022-06-21T21:06:58.706846",
      "2022-06-21T21:07:00.770634",
      "2022-06-21T21:07:02.832771",
      "2022-06-21T21:07:04.897354",
      "2022-06-21T21:07:06.961957",
      "2022-06-21T21:07:09.023234",
      "2022-06-21T21:07:11.096615",
      "2022-06-21T21:07:13.159745",
      "2022-06-21T21:07:15.222568",
      "2022-06-21T21:07:17.286722",
      "2022-06-21T21:07:19.349287",
      "2022-06-21T21:07:21.413656",
      "2022-06-21T21:07:23.477160",
      "2022-06-21T21:07:25.543019",
      "2022-06-21T21:07:27.606680",
      "2022-06-21T21:07:29.668370",
      "2022-06-21T21:07:31.732820",
      "2022-06-21T21:07:33.797437",
      "2022-06-21T21:07:35.861772",
      "2022-06-21T21:07:37.924451",
      "2022-06-21T21:07:39.987344",
      "2022-06-21T21:07:42.049902",
      "2022-06-21T21:07:44.113253",
      "2022-06-21T21:07:46.177234",
      "2022-06-21T21:07:48.240850",
      "2022-06-21T21:07:50.303664",
      "2022-06-21T21:07:52.365395",
      "2022-06-21T21:07:54.428103",
      "2022-06-21T21:07:56.491247",
      "2022-06-21T21:07:58.554346",
      "2022-06-21T21:08:00.618798",
      "2022-06-21T21:08:02.680316",
      "2022-06-21T21:08:04.745317",
      "2022-06-21T21:08:06.810487",
      "2022-06-21T21:08:08.871954",
      "2022-06-21T21:08:10.937076",
      "2022-06-21T21:08:13.001434",
      "2022-06-21T21:08:15.069079",
      "2022-06-21T21:08:17.154107",
      "2022-06-21T21:08:19.223557",
      "2022-06-21T21:08:21.292514",
      "2022-06-21T21:08:23.360657",
      "2022-06-21T21:08:25.433686",
      "2022-06-21T21:08:27.496638",
      "2022-06-21T21:08:29.559543",
      "2022-06-21T21:08:31.623530",
      "2022-06-21T21:08:33.689146",
      "2022-06-21T21:08:35.754795",
      "2022-06-21T21:08:37.816794",
      "2022-06-21T21:08:39.879525",
      "2022-06-21T21:08:41.943578",
      "2022-06-21T21:08:44.009118",
      "2022-06-21T21:08:46.073069",
      "2022-06-21T21:08:48.135590",
      "2022-06-21T21:08:50.197008",
      "2022-06-21T21:08:52.261574",
      "2022-06-21T21:08:54.327234",
      "2022-06-21T21:08:56.390979",
      "2022-06-21T21:08:58.453485",
      "2022-06-21T21:09:00.516658",
      "2022-06-21T21:09:02.579064",
      "2022-06-21T21:09:04.643119",
      "2022-06-21T21:09:06.707964",
      "2022-06-21T21:09:08.820266",
      "2022-06-21T21:09:10.885295",
      "2022-06-21T21:09:12.948519",
      "2022-06-21T21:09:15.011227",
      "2022-06-21T21:09:17.074868",
      "2022-06-21T21:09:19.136343",
      "2022-06-21T21:09:21.200499",
      "2022-06-21T21:09:23.263821",
      "2022-06-21T21:09:25.328110",
      "2022-06-21T21:09:27.391793",
      "2022-06-21T21:09:29.457556",
      "2022-06-21T21:09:31.529900",
      "2022-06-21T21:09:33.597067",
      "2022-06-21T21:09:35.670710",
      "2022-06-21T21:09:37.734554",
      "2022-06-21T21:09:39.797435",
      "2022-06-21T21:09:41.863231",
      "2022-06-21T21:09:43.933253",
      "2022-06-21T21:09:45.998349",
      "2022-06-21T21:09:48.060636",
      "2022-06-21T21:09:50.121187",
      "2022-06-21T21:09:52.196727",
      "2022-06-21T21:09:54.262755",
      "2022-06-21T21:09:56.328714",
      "2022-06-21T21:09:58.393066",
      "2022-06-21T21:10:00.457412",
      "2022-06-21T21:10:02.523383",
      "2022-06-21T21:10:04.588469",
      "2022-06-21T21:10:06.655057",
      "2022-06-21T21:10:08.718189",
      "2022-06-21T21:10:10.782694",
      "2022-06-21T21:10:12.846982",
      "2022-06-21T21:10:14.919304",
      "2022-06-21T21:10:16.984931",
      "2022-06-21T21:10:19.046697",
      "2022-06-21T21:10:21.110533",
      "2022-06-21T21:10:23.179400",
      "2022-06-21T21:10:25.246137",
      "2022-06-21T21:10:27.311515",
      "2022-06-21T21:10:29.374270",
      "2022-06-21T21:10:31.439420",
      "2022-06-21T21:10:33.503820",
      "2022-06-21T21:10:35.569570",
      "2022-06-21T21:10:37.633791",
      "2022-06-21T21:10:39.697421",
      "2022-06-21T21:10:41.770790",
      "2022-06-21T21:10:43.835991",
      "2022-06-21T21:10:45.901155",
      "2022-06-21T21:10:47.968678",
      "2022-06-21T21:10:50.034239",
      "2022-06-21T21:10:52.100149",
      "2022-06-21T21:10:54.164240",
      "2022-06-21T21:10:56.231852",
      "2022-06-21T21:10:58.295887",
      "2022-06-21T21:11:00.359912",
      "2022-06-21T21:11:02.423481",
      "2022-06-21T21:11:04.491133",
      "2022-06-21T21:11:06.555524",
      "2022-06-21T21:11:08.619136",
      "2022-06-21T21:11:10.685769",
      "2022-06-21T21:11:12.749643",
      "2022-06-21T21:11:14.818482",
      "2022-06-21T21:11:16.882993",
      "2022-06-21T21:11:18.947321",
      "2022-06-21T21:11:21.014152",
      "2022-06-21T21:11:23.079515",
      "2022-06-21T21:11:25.147269",
      "2022-06-21T21:11:27.212832",
      "2022-06-21T21:11:29.282097",
      "2022-06-21T21:11:31.347016",
      "2022-06-21T21:11:33.415219",
      "2022-06-21T21:11:35.482976",
      "2022-06-21T21:11:37.545684",
      "2022-06-21T21:11:39.610176",
      "2022-06-21T21:11:41.673733",
      "2022-06-21T21:11:43.738814",
      "2022-06-21T21:11:45.804703",
      "2022-06-21T21:11:47.869213",
      "2022-06-21T21:11:49.934570",
      "2022-06-21T21:11:52.001060",
      "2022-06-21T21:11:54.068652",
      "2022-06-21T21:11:56.134426",
      "2022-06-21T21:11:58.199727",
      "2022-06-21T21:12:00.263986",
      "2022-06-21T21:12:02.329676",
      "2022-06-21T21:12:04.398523",
      "2022-06-21T21:12:06.463884",
      "2022-06-21T21:12:08.526839",
      "2022-06-21T21:12:10.593268",
      "2022-06-21T21:12:12.659577",
      "2022-06-21T21:12:14.728085",
      "2022-06-21T21:12:16.797509",
      "2022-06-21T21:12:18.862365",
      "2022-06-21T21:12:20.926885",
      "2022-06-21T21:12:22.992900",
      "2022-06-21T21:12:25.060966",
      "2022-06-21T21:12:27.143808",
      "2022-06-21T21:12:29.206237",
      "2022-06-21T21:12:31.271342",
      "2022-06-21T21:12:33.334952",
      "2022-06-21T21:12:35.401862",
      "2022-06-21T21:12:37.467100",
      "2022-06-21T21:12:39.530482",
      "2022-06-21T21:12:41.597453",
      "2022-06-21T21:12:43.665333",
      "2022-06-21T21:12:45.732047",
      "2022-06-21T21:12:47.796222",
      "2022-06-21T21:12:49.858649",
      "2022-06-21T21:12:51.924118",
      "2022-06-21T21:12:53.990881",
      "2022-06-21T21:12:56.054583",
      "2022-06-21T21:12:58.116905",
      "2022-06-21T21:13:00.181840",
      "2022-06-21T21:13:02.246509",
      "2022-06-21T21:13:04.313067",
      "2022-06-21T21:13:06.379291",
      "2022-06-21T21:13:08.444597",
      "2022-06-21T21:13:10.510331",
      "2022-06-21T21:13:12.577040",
      "2022-06-21T21:13:14.653967",
      "2022-06-21T21:13:16.722441",
      "2022-06-21T21:13:18.789348",
      "2022-06-21T21:13:20.857550",
      "2022-06-21T21:13:22.927516",
      "2022-06-21T21:13:25.003824",
      "2022-06-21T21:13:27.071313",
      "2022-06-21T21:13:29.136995",
      "2022-06-21T21:13:31.203044",
      "2022-06-21T21:13:33.271294",
      "2022-06-21T21:13:35.340164",
      "2022-06-21T21:13:37.411438",
      "2022-06-21T21:13:39.480885",
      "2022-06-21T21:13:41.552430",
      "2022-06-21T21:13:43.621842",
      "2022-06-21T21:13:45.697689",
      "2022-06-21T21:13:47.770239",
      "2022-06-21T21:13:49.839871",
      "2022-06-21T21:13:51.907829",
      "2022-06-21T21:13:53.978471",
      "2022-06-21T21:13:56.049654",
      "2022-06-21T21:13:58.115848",
      "2022-06-21T21:14:00.179699",
      "2022-06-21T21:14:02.246387",
      "2022-06-21T21:14:04.314688",
      "2022-06-21T21:14:06.385889",
      "2022-06-21T21:14:08.448182",
      "2022-06-21T21:14:10.512563",
      "2022-06-21T21:14:12.576392",
      "2022-06-21T21:14:14.642717",
      "2022-06-21T21:14:16.706534",
      "2022-06-21T21:14:18.767937",
      "2022-06-21T21:14:20.830963",
      "2022-06-21T21:14:22.893458",
      "2022-06-21T21:14:24.959884",
      "2022-06-21T21:14:27.024105",
      "2022-06-21T21:14:29.088389",
      "2022-06-21T21:14:31.153097",
      "2022-06-21T21:14:33.219310",
      "2022-06-21T21:14:35.283445",
      "2022-06-21T21:14:37.348351",
      "2022-06-21T21:14:39.411230",
      "2022-06-21T21:14:41.476802",
      "2022-06-21T21:14:43.540741",
      "2022-06-21T21:14:45.612062",
      "2022-06-21T21:14:47.675850",
      "2022-06-21T21:14:49.740044",
      "2022-06-21T21:14:51.807045",
      "2022-06-21T21:14:53.875226",
      "2022-06-21T21:14:55.940856",
      "2022-06-21T21:14:58.006220",
      "2022-06-21T21:15:00.070585",
      "2022-06-21T21:15:02.136277",
      "2022-06-21T21:15:04.204871",
      "2022-06-21T21:15:06.271078",
      "2022-06-21T21:15:08.336485",
      "2022-06-21T21:15:10.402480",
      "2022-06-21T21:15:12.468630",
      "2022-06-21T21:15:14.538215",
      "2022-06-21T21:15:16.605239",
      "2022-06-21T21:15:18.669658",
      "2022-06-21T21:15:20.734432",
      "2022-06-21T21:15:22.807810",
      "2022-06-21T21:15:24.876649",
      "2022-06-21T21:15:26.941871",
      "2022-06-21T21:15:29.003657",
      "2022-06-21T21:15:31.069298",
      "2022-06-21T21:15:33.132613",
      "2022-06-21T21:15:35.196508",
      "2022-06-21T21:15:37.263041",
      "2022-06-21T21:15:39.325870",
      "2022-06-21T21:15:41.392749",
      "2022-06-21T21:15:43.456511",
      "2022-06-21T21:15:45.525471",
      "2022-06-21T21:15:47.600995",
      "2022-06-21T21:15:49.664051",
      "2022-06-21T21:15:51.729398",
      "2022-06-21T21:15:53.796088",
      "2022-06-21T21:15:55.862919",
      "2022-06-21T21:15:57.927860",
      "2022-06-21T21:15:59.992326",
      "2022-06-21T21:16:02.057555",
      "2022-06-21T21:16:04.123683",
      "2022-06-21T21:16:06.189957",
      "2022-06-21T21:16:08.253551",
      "2022-06-21T21:16:10.317109",
      "2022-06-21T21:16:12.385376",
      "2022-06-21T21:16:14.451715",
      "2022-06-21T21:16:16.516287",
      "2022-06-21T21:16:18.579118",
      "2022-06-21T21:16:20.645194",
      "2022-06-21T21:16:22.707431",
      "2022-06-21T21:16:24.777523",
      "2022-06-21T21:16:26.843030",
      "2022-06-21T21:16:28.905990",
      "2022-06-21T21:16:30.971038",
      "2022-06-21T21:16:33.035134",
      "2022-06-21T21:16:35.106297",
      "2022-06-21T21:16:37.171774",
      "2022-06-21T21:16:39.234789",
      "2022-06-21T21:16:41.297538",
      "2022-06-21T21:16:43.360280",
      "2022-06-21T21:16:45.428559",
      "2022-06-21T21:16:47.492440",
      "2022-06-21T21:16:49.555233",
      "2022-06-21T21:16:51.619207",
      "2022-06-21T21:16:53.683128",
      "2022-06-21T21:16:55.748601",
      "2022-06-21T21:16:57.812402",
      "2022-06-21T21:16:59.875393",
      "2022-06-21T21:17:01.940485",
      "2022-06-21T21:17:04.008436",
      "2022-06-21T21:17:06.073003",
      "2022-06-21T21:17:08.136280",
      "2022-06-21T21:17:10.200031",
      "2022-06-21T21:17:12.265049",
      "2022-06-21T21:17:14.333882",
      "2022-06-21T21:17:16.400078",
      "2022-06-21T21:17:18.463491",
      "2022-06-21T21:17:20.527706",
      "2022-06-21T21:17:22.592523",
      "2022-06-21T21:17:24.659672",
      "2022-06-21T21:17:26.726347",
      "2022-06-21T21:17:28.792079",
      "2022-06-21T21:17:30.858335",
      "2022-06-21T21:17:32.923635",
      "2022-06-21T21:17:34.993905",
      "2022-06-21T21:17:37.063887",
      "2022-06-21T21:17:39.125846",
      "2022-06-21T21:17:41.190750",
      "2022-06-21T21:17:43.254023",
      "2022-06-21T21:17:45.326869",
      "2022-06-21T21:17:47.391809",
      "2022-06-21T21:17:49.456263",
      "2022-06-21T21:17:51.522058",
      "2022-06-21T21:17:53.587465",
      "2022-06-21T21:17:55.658327",
      "2022-06-21T21:17:57.722275",
      "2022-06-21T21:17:59.787032",
      "2022-06-21T21:18:01.852568",
      "2022-06-21T21:18:03.921038",
      "2022-06-21T21:18:05.990729",
      "2022-06-21T21:18:08.052797",
      "2022-06-21T21:18:10.116945",
      "2022-06-21T21:18:12.181980",
      "2022-06-21T21:18:14.245150",
      "2022-06-21T21:18:16.310954",
      "2022-06-21T21:18:18.375668",
      "2022-06-21T21:18:20.439952",
      "2022-06-21T21:18:22.503349",
      "2022-06-21T21:18:24.573032",
      "2022-06-21T21:18:26.638562",
      "2022-06-21T21:18:28.702222",
      "2022-06-21T21:18:30.766737",
      "2022-06-21T21:18:32.830846",
      "2022-06-21T21:18:34.895462",
      "2022-06-21T21:18:36.960177",
      "2022-06-21T21:18:39.022959",
      "2022-06-21T21:18:41.087330",
      "2022-06-21T21:18:43.151258",
      "2022-06-21T21:18:45.220266",
      "2022-06-21T21:18:47.287457",
      "2022-06-21T21:18:49.351580",
      "2022-06-21T21:18:51.416890",
      "2022-06-21T21:18:53.481790",
      "2022-06-21T21:18:55.547649",
      "2022-06-21T21:18:57.615066",
      "2022-06-21T21:18:59.681565",
      "2022-06-21T21:19:01.751655",
      "2022-06-21T21:19:03.822904",
      "2022-06-21T21:19:05.895747",
      "2022-06-21T21:19:07.961669",
      "2022-06-21T21:19:10.027271",
      "2022-06-21T21:19:12.093981"
    ],
    "values": [
      42.912570902546605,
      41.08439723346269,
      40.83367713064401,
      40.68832486181007,
      40.637602713205645,
      40.58978830106188,
      40.64194102460729,
      40.47958272118275,
      40.583738229725405,
      40.502744654166776,
      40.440105019151694,
      40.441871219979426,
      40.51095020630566,
      40.42472784582553,
      40.50941679305122,
      40.40506969985325,
      40.38080043992036,
      40.38583589919899,
      40.46729903685712,
      40.37582370889052,
      40.38487273083143,
      40.418520196737944,
      40.44621637219844,
      40.421753290858135,
      40.45817736931084,
      40.40741863564193,
      40.54184392871109,
      40.3655228742187,
      40.363101911449526,
      40.46416883206198,
      40.33050997645487,
      40.34081848004699,
      40.38601120612716,
      40.386483796325244,
      40.40500391620611,
      40.46494005972528,
      40.363894256455005,
      40.372863016824446,
      40.330920360069086,
      40.37090681004081,
      40.34434846513488,
      40.369792463169716,
      40.36297305697469,
      40.34370105886508,
      40.412030473314346,
      40.347440205861595,
      40.32359416470487,
      40.32940316408528,
      40.41894381794494,
      40.38008135711649,
      40.37100362827521,
      40.32735857231372,
      40.327172465311236,
      40.372687434791644,
      40.37498488901296,
      40.337626575835664,
      40.34145196318323,
      40.31820474833775,
      40.308947727506514,
      40.370202341399946,
      40.391095869445955,
      40.29306349513952,
      40.33309411952917,
      40.3031240139545,
      40.32984788616148,
      40.29753720186778,
      40.27931398648414,
      40.3737165109492,
      40.39778772392775,
      40.38703334225955,
      40.34348483259759,
      40.317435423911434,
      40.34196497119317,
      40.3541321963006,
      40.2553610486709,
      40.338261668880925,
      40.30147813663869,
      40.31158983813693,
      40.273860008754056,
      40.3697990351897,
      40.29125626554213,
      40.29064997881696,
      40.32472098079888,
      40.29572989041049,
      40.309610305889706,
      40.29298348824619,
      40.28793950460362,
      40.279180576020174,
      40.30884544551996,
      40.30525109910599,
      40.278076012603634,
      40.28140990112872,
      40.29060176981061,
      40.32675621586765,
      40.35831183451591,
      40.24522097055959,
      40.35342174335286,
      40.29123525834553,
      40.26868274202413,
      40.29386144164148,
      40.270486210527544,
      40.35518448279644,
      40.234319733583455,
      40.369074915195476,
      40.270446117812206,
      40.26738883520628,
      40.29737436177985,
      40.30337201570776,
      40.320001993090095,
      40.2868515882312,
      40.30376963766028,
      40.21830980151743,
      40.307057509207326,
      40.32020514873871,
      40.296729727422694,
      40.24804109699997,
      40.29751379370851,
      40.36082222351496,
      40.2748478038408,
      40.26440206657542,
      40.27762905650089,
      40.23304999519646,
      40.25270167007487,
      40.24461176451765,
      40.276891234810016,
      40.34298897426261,
      40.29880503975916,
      40.33589693441001,
      40.15155431842013,
      40.14047212504504,
      40.13676851023457,
      40.13934102097381,
      40.13771545152569,
      40.130779775006154,
      40.13535614162557,
      40.14572933469625,
      40.13572182217577,
      40.1364992575292,
      40.14023596345874,
      40.134654317267625,
      40.13462905640802,
      40.13644066656674,
      40.13029153429959,
      40.128683007175994,
      40.130231277243965,
      40.14109406313762,
      40.132854875451784,
      40.14397913890304,
      40.13125746667733,
      40.135031274907675,
      40.14125757553535,
      40.1353220424871,
      40.12637379420829,
      40.12563780191948,
      40.1247705615821,
      40.12391068336613,
      40.12417670956164,
      40.12367810875861,
      40.12413402240289,
      40.123337670179545,
      40.124795587067354,
      40.123481941060646,
      40.123342765680185,
      40.12447595298484,
      40.124208956671865,
      40.12397556546938,
      40.12404463502881,
      40.12416333086689,
      40.124389177825954,
      40.12367180926946,
      40.12321616479363,
      40.12394421096649,
      40.12434550549533,
      40.1233877759183,
      40.12330612638573,
      40.12389492515101,
      40.12311077785566,
      40.12318331651044,
      40.12317351289984,
      40.123188799611555,
      40.12324581568571,
      40.12319500372615,
      40.12323954822457,
      40.123375445876555,
      40.123276641784486,
      40.12329484653754,
      40.12321057509754,
      40.12331685462748,
      40.1232410971442,
      40.123233653342055,
      40.12326054367153,
      40.12331077037866,
      40.12332311538196,
      40.12321342774277,
      40.12331887843019,
      40.123276705239256,
      40.12332353208172,
      40.1233550774051,
      40.12334990550848,
      40.12335684681269,
      40.12334381441959,
      40.12335149250892,
      40.12333291545478,
      40.123333427266246,
      40.12334036124156,
      40.12332733998646,
      40.12332133498947,
      40.1233287862254,
      40.123321925042724,
      40.123320962146835,
      40.12332806968201,
      40.1233263883995,
      40.12332380156281,
      40.12331605453666,
      40.12331718021788,
      40.123325359691634,
      40.123325318547835,
      40.123333769530205,
      40.12332520805609,
      40.12332605378592,
      40.12331955650267,
      40.12333165292871,
      40.123325367862485,
      40.123319111061264,
      40.12332947233865,
      40.12332826725439,
      40.1233225314799,
      40.12333368639925,
      40.123326148324864,
      40.123323862836706,
      40.12333200900076,
      40.12333687658823,
      40.12332740331362,
      40.12333801816175,
      40.123326842792174,
      40.12333615159296,
      40.123329274473484,
      40.12332599058255,
      40.12332548492194,
      40.12333106495217,
      40.12333086471321,
      40.123335639357194,
      40.12333704475489,
      40.12334092502788,
      40.12333528097731,
      40.123338923078876,
      40.12333260516593,
      40.12332956511636,
      40.1233324115463,
      40.123336460183324,
      40.123327048675336,
      40.1233277565008,
      40.12331931166103,
      40.123335977557666,
      40.12332268606041,
      40.12333107829446,
      40.12332980178031,
      40.12333001926305,
      40.123328731456084,
      40.123323059183846,
      40.12332656097778,
      40.12331985242941,
      40.12333309181949,
      40.123327111960755,
      40.12332243648104,
      40.123327394274355,
      40.123328018054764,
      40.123318953074005,
      40.1233265852118,
      40.123330099935494,
      40.12333147689725,
      40.12332169812705,
      40.12332407952214,
      40.123331638104226,
      40.123326967035865,
      40.123319747177824,
      40.123313917134205,
      40.1233286446823,
      40.12332113214784,
      40.12332324092702,
      40.12331983335916,
      40.12333201926531,
      40.12332784440573,
      40.12332450172655,
      40.12332658068816,
      40.12332555727298,
      40.12332770083631,
      40.12332271391093,
      40.12333473058611,
      40.123317875852905,
      40.12332913276664,
      40.12332264425116,
      40.12332771451563,
      40.12331889000882,
      40.123319247901584,
      40.12332422112393,
      40.12332036066739,
      40.12332001483891,
      40.12331761348358,
      40.12332148180052,
      40.12332687951118,
      40.12332397551803,
      40.123319183180676,
      40.12331884685039,
      40.12333241597343,
      40.123319396748904,
      40.12332791321615,
      40.123322019408235,
      40.12332627262199,
      40.12333469610763,
      40.123322557130464,
      40.12332736194858,
      40.123330815170796,
      40.123326964556526,
      40.12332190986854,
      40.123321167942265,
      40.12332443835502,
      40.1233215193939,
      40.123331747171264,
      40.123323499182845,
      40.12332124561891,
      40.1233254680875,
      40.12332623015007,
      40.12332150369401,
      40.12332463337549,
      40.123326733714805,
      40.12332160149313,
      40.12332408678038,
      40.123320840958456,
      40.12331935775065,
      40.12331398014379,
      40.12332516957397,
      40.12331706612124,
      40.12332002335181,
      40.12332254457575,
      40.12331994277259,
      40.12331304925969,
      40.12331940867947,
      40.12330607992347,
      40.123317047061015,
      40.123326263317075,
      40.12332280474782,
      40.12331882283298,
      40.12331800567121,
      40.12331864759559,
      40.123324710428015,
      40.12332842181103,
      40.12332425172941,
      40.123322976951115,
      40.1233310962342,
      40.12332508458086,
      40.12332411966797,
      40.12332521120521,
      40.12332768060041,
      40.12332987020289,
      40.12333654914125,
      40.123336577287596,
      40.123330997073126,
      40.1233358533328,
      40.1233256173767,
      40.12333133870587,
      40.123318348636296,
      40.12332107265296,
      40.123319970634945,
      40.12332672761701,
      40.12332874164088,
      40.12331829251499,
      40.12332832349312,
      40.123322719519166,
      40.1233327109907,
      40.12332021143494,
      40.123318584799506,
      40.123313844894,
      40.123323156858916,
      40.123327526013064,
      40.123316680723946,
      40.12332244202089,
      40.12332813344495,
      40.12332497384704,
      40.12333251083599,
      40.12332835087855,
      40.123325149251,
      40.12332659121091,
      40.12333058271234,
      40.12332712987214,
      40.12332539164479,
      40.123321063221304,
      40.12332453910977,
      40.12332454061237,
      40.12332356972618,
      40.12332193755407,
      40.12332393064352,
      40.12332302853558,
      40.123314583117306,
      40.1233156844243,
      40.1233221509085,
      40.12331475730543,
      40.12331965203198,
      40.12332348646434,
      40.12331330697502
    ]
  }
}