INFO - siren_vae - Running command 'run'
INFO - siren_vae - Started run with ID "4"
[ENCODED STRUCTURE] Randomizing the faithful BN structure.
Randomized BN:
New Topological Ordering:  [ 3  4  1  0  2  5  6  7  8  9 10 11 12 13 14]
Edges:  [('z3', 'z1'), ('z4', 'z2'), ('z1', 'x12'), ('z0', 'x13'), ('z2', 'x6'), ('z1', 'x5'), ('z3', 'x7'), ('z2', 'x8'), ('z2', 'x9'), ('z3', 'x10'), ('z1', 'x11'), ('z4', 'x14'), ('z1', 'x9'), ('z0', 'x14'), ('z0', 'x11')]
  0%|          | 0/400 [00:00<?, ?it/s]Train -ELBO: 17.58394, Val -ELBO: 18.00996:   0%|          | 1/400 [00:01<07:28,  1.12s/it]Train -ELBO: 17.20850, Val -ELBO: 17.78253:   1%|          | 3/400 [00:02<05:45,  1.15it/s]Train -ELBO: 17.20598, Val -ELBO: 17.62847:   1%|▏         | 5/400 [00:04<05:25,  1.21it/s]Train -ELBO: 17.04283, Val -ELBO: 17.53820:   2%|▏         | 7/400 [00:05<05:16,  1.24it/s]Train -ELBO: 16.77894, Val -ELBO: 17.45069:   2%|▏         | 9/400 [00:07<05:11,  1.25it/s]Train -ELBO: 16.76145, Val -ELBO: 17.37780:   3%|▎         | 11/400 [00:09<05:12,  1.24it/s]Train -ELBO: 16.85081, Val -ELBO: 17.31720:   3%|▎         | 13/400 [00:10<05:08,  1.26it/s]Train -ELBO: 16.68179, Val -ELBO: 17.27222:   4%|▍         | 15/400 [00:12<05:04,  1.26it/s]Train -ELBO: 16.62955, Val -ELBO: 17.17436:   4%|▍         | 17/400 [00:13<05:02,  1.27it/s]Train -ELBO: 16.44128, Val -ELBO: 17.13308:   5%|▍         | 19/400 [00:15<04:59,  1.27it/s]Train -ELBO: 16.44789, Val -ELBO: 17.07359:   5%|▌         | 21/400 [00:17<05:07,  1.23it/s]Train -ELBO: 16.50730, Val -ELBO: 17.01977:   6%|▌         | 23/400 [00:18<05:08,  1.22it/s]Train -ELBO: 16.35526, Val -ELBO: 16.96626:   6%|▋         | 25/400 [00:20<05:13,  1.19it/s]Train -ELBO: 16.33450, Val -ELBO: 16.90474:   7%|▋         | 27/400 [00:22<05:10,  1.20it/s]Train -ELBO: 16.29300, Val -ELBO: 16.85562:   7%|▋         | 29/400 [00:23<05:06,  1.21it/s]Train -ELBO: 16.14805, Val -ELBO: 16.78664:   8%|▊         | 31/400 [00:25<05:04,  1.21it/s]Train -ELBO: 16.26514, Val -ELBO: 16.76660:   8%|▊         | 33/400 [00:27<05:07,  1.19it/s]Train -ELBO: 15.96970, Val -ELBO: 16.69805:   9%|▉         | 35/400 [00:28<04:59,  1.22it/s]Train -ELBO: 15.97482, Val -ELBO: 16.67079:   9%|▉         | 37/400 [00:30<04:53,  1.24it/s]Train -ELBO: 16.13267, Val -ELBO: 16.62374:  10%|▉         | 39/400 [00:31<04:51,  1.24it/s]Train -ELBO: 15.99383, Val -ELBO: 16.58459:  10%|█         | 41/400 [00:33<04:54,  1.22it/s]Train -ELBO: 15.90950, Val -ELBO: 16.56020:  11%|█         | 43/400 [00:35<04:50,  1.23it/s]Train -ELBO: 15.95344, Val -ELBO: 16.51932:  11%|█▏        | 45/400 [00:36<04:52,  1.21it/s]Train -ELBO: 15.72677, Val -ELBO: 16.49635:  12%|█▏        | 47/400 [00:38<04:48,  1.23it/s]Train -ELBO: 15.73409, Val -ELBO: 16.44781:  12%|█▏        | 49/400 [00:39<04:43,  1.24it/s]Train -ELBO: 15.65657, Val -ELBO: 16.42525:  13%|█▎        | 51/400 [00:41<04:39,  1.25it/s]Train -ELBO: 15.64383, Val -ELBO: 16.36245:  13%|█▎        | 53/400 [00:43<04:36,  1.26it/s]Train -ELBO: 15.57176, Val -ELBO: 16.33594:  14%|█▍        | 55/400 [00:44<04:33,  1.26it/s]Train -ELBO: 15.70367, Val -ELBO: 16.29559:  14%|█▍        | 57/400 [00:46<04:31,  1.27it/s]Train -ELBO: 15.69970, Val -ELBO: 16.27362:  15%|█▍        | 59/400 [00:47<04:28,  1.27it/s]Train -ELBO: 15.48065, Val -ELBO: 16.23718:  15%|█▌        | 61/400 [00:49<04:27,  1.27it/s]Train -ELBO: 15.55849, Val -ELBO: 16.20990:  16%|█▌        | 63/400 [00:50<04:25,  1.27it/s]Train -ELBO: 15.44874, Val -ELBO: 16.17174:  16%|█▋        | 65/400 [00:52<04:23,  1.27it/s]Train -ELBO: 15.42514, Val -ELBO: 16.13033:  17%|█▋        | 67/400 [00:54<04:21,  1.27it/s]Train -ELBO: 15.35627, Val -ELBO: 16.10138:  17%|█▋        | 69/400 [00:55<04:19,  1.27it/s]Train -ELBO: 15.23946, Val -ELBO: 16.08251:  18%|█▊        | 71/400 [00:57<04:18,  1.27it/s]Train -ELBO: 15.34698, Val -ELBO: 16.03675:  18%|█▊        | 73/400 [00:58<04:16,  1.27it/s]Train -ELBO: 15.10913, Val -ELBO: 16.00982:  19%|█▉        | 75/400 [01:00<04:14,  1.28it/s]Train -ELBO: 15.11606, Val -ELBO: 15.96106:  19%|█▉        | 77/400 [01:01<04:12,  1.28it/s]Train -ELBO: 15.33718, Val -ELBO: 15.92781:  20%|█▉        | 79/400 [01:03<04:11,  1.28it/s]Train -ELBO: 15.05608, Val -ELBO: 15.91039:  20%|██        | 81/400 [01:05<04:10,  1.28it/s]Train -ELBO: 15.00810, Val -ELBO: 15.89126:  21%|██        | 83/400 [01:06<04:08,  1.28it/s]Train -ELBO: 14.99646, Val -ELBO: 15.88217:  21%|██▏       | 85/400 [01:08<04:06,  1.28it/s]Train -ELBO: 15.10074, Val -ELBO: 15.83591:  22%|██▏       | 87/400 [01:09<04:04,  1.28it/s]Train -ELBO: 15.01903, Val -ELBO: 15.82368:  22%|██▏       | 89/400 [01:11<04:03,  1.28it/s]Train -ELBO: 15.02122, Val -ELBO: 15.78647:  23%|██▎       | 91/400 [01:12<04:03,  1.27it/s]Train -ELBO: 15.07993, Val -ELBO: 15.78775:  23%|██▎       | 93/400 [01:14<04:03,  1.26it/s]Train -ELBO: 14.98053, Val -ELBO: 15.73389:  24%|██▍       | 95/400 [01:16<04:08,  1.23it/s]Train -ELBO: 15.02731, Val -ELBO: 15.72948:  24%|██▍       | 97/400 [01:17<04:05,  1.24it/s]Train -ELBO: 15.11917, Val -ELBO: 15.72467:  25%|██▍       | 99/400 [01:19<04:01,  1.24it/s]Train -ELBO: 14.81574, Val -ELBO: 15.69629:  25%|██▌       | 101/400 [01:21<04:00,  1.24it/s]Train -ELBO: 14.89309, Val -ELBO: 15.68567:  26%|██▌       | 103/400 [01:22<03:57,  1.25it/s]Train -ELBO: 14.91413, Val -ELBO: 15.67491:  26%|██▋       | 105/400 [01:24<03:56,  1.25it/s]Train -ELBO: 14.87579, Val -ELBO: 15.65972:  27%|██▋       | 107/400 [01:25<03:53,  1.26it/s]Train -ELBO: 14.70648, Val -ELBO: 15.63280:  27%|██▋       | 109/400 [01:27<03:50,  1.26it/s]Train -ELBO: 14.87239, Val -ELBO: 15.61392:  28%|██▊       | 111/400 [01:28<03:49,  1.26it/s]Train -ELBO: 14.91473, Val -ELBO: 15.60499:  28%|██▊       | 113/400 [01:30<03:46,  1.27it/s]Train -ELBO: 14.88917, Val -ELBO: 15.58380:  29%|██▉       | 115/400 [01:32<03:45,  1.27it/s]Train -ELBO: 14.71095, Val -ELBO: 15.57366:  29%|██▉       | 117/400 [01:33<03:43,  1.27it/s]Train -ELBO: 14.82381, Val -ELBO: 15.57484:  30%|██▉       | 119/400 [01:35<03:41,  1.27it/s]Train -ELBO: 14.75766, Val -ELBO: 15.56515:  30%|███       | 121/400 [01:36<03:40,  1.26it/s]Train -ELBO: 14.91831, Val -ELBO: 15.55940:  31%|███       | 123/400 [01:38<03:38,  1.27it/s]Train -ELBO: 14.67596, Val -ELBO: 15.55307:  31%|███▏      | 125/400 [01:40<03:39,  1.25it/s]Train -ELBO: 14.79020, Val -ELBO: 15.52559:  32%|███▏      | 127/400 [01:41<03:38,  1.25it/s]Train -ELBO: 14.78526, Val -ELBO: 15.55068:  32%|███▏      | 129/400 [01:43<03:35,  1.26it/s]Train -ELBO: 14.79721, Val -ELBO: 15.55585:  33%|███▎      | 131/400 [01:44<03:35,  1.25it/s]Train -ELBO: 14.79704, Val -ELBO: 15.54519:  33%|███▎      | 133/400 [01:46<03:34,  1.24it/s]Train -ELBO: 14.73430, Val -ELBO: 15.56563:  34%|███▍      | 135/400 [01:48<03:31,  1.25it/s]Train -ELBO: 14.72989, Val -ELBO: 15.55016:  34%|███▍      | 137/400 [01:49<03:30,  1.25it/s]Train -ELBO: 14.66493, Val -ELBO: 15.54079:  35%|███▍      | 139/400 [01:51<03:27,  1.26it/s]Train -ELBO: 14.66759, Val -ELBO: 15.53834:  35%|███▌      | 141/400 [01:52<03:26,  1.26it/s]Train -ELBO: 14.87799, Val -ELBO: 15.52801:  36%|███▌      | 143/400 [01:54<03:23,  1.26it/s]Train -ELBO: 14.67830, Val -ELBO: 15.51212:  36%|███▋      | 145/400 [01:55<03:21,  1.26it/s]Train -ELBO: 14.64234, Val -ELBO: 15.49909:  37%|███▋      | 147/400 [01:57<03:19,  1.27it/s]Train -ELBO: 14.62917, Val -ELBO: 15.48611:  37%|███▋      | 149/400 [01:59<03:17,  1.27it/s]Train -ELBO: 14.75934, Val -ELBO: 15.48641:  38%|███▊      | 151/400 [02:00<03:16,  1.27it/s]Train -ELBO: 14.60449, Val -ELBO: 15.46997:  38%|███▊      | 153/400 [02:02<03:14,  1.27it/s]Train -ELBO: 14.65231, Val -ELBO: 15.48056:  39%|███▉      | 155/400 [02:03<03:13,  1.27it/s]Train -ELBO: 14.68775, Val -ELBO: 15.46076:  39%|███▉      | 157/400 [02:05<03:11,  1.27it/s]Train -ELBO: 14.68145, Val -ELBO: 15.44642:  40%|███▉      | 159/400 [02:07<03:09,  1.27it/s]Train -ELBO: 14.64683, Val -ELBO: 15.45353:  40%|████      | 161/400 [02:08<03:09,  1.26it/s]Train -ELBO: 14.62578, Val -ELBO: 15.46056:  41%|████      | 163/400 [02:10<03:10,  1.25it/s]Train -ELBO: 14.58117, Val -ELBO: 15.46798:  41%|████▏     | 165/400 [02:11<03:10,  1.23it/s]Train -ELBO: 14.56124, Val -ELBO: 15.47190:  42%|████▏     | 167/400 [02:13<03:07,  1.24it/s]Train -ELBO: 14.51723, Val -ELBO: 15.46018:  42%|████▏     | 169/400 [02:15<03:04,  1.25it/s]Train -ELBO: 14.54436, Val -ELBO: 15.47650:  43%|████▎     | 171/400 [02:16<03:05,  1.24it/s]Train -ELBO: 14.70012, Val -ELBO: 15.48135:  43%|████▎     | 173/400 [02:18<03:02,  1.24it/s]Train -ELBO: 14.76098, Val -ELBO: 15.48465:  44%|████▍     | 175/400 [02:19<03:01,  1.24it/s]Train -ELBO: 14.58251, Val -ELBO: 15.45978:  44%|████▍     | 177/400 [02:21<02:59,  1.24it/s]Train -ELBO: 14.57243, Val -ELBO: 15.46889:  45%|████▍     | 179/400 [02:23<02:56,  1.25it/s]Train -ELBO: 14.61987, Val -ELBO: 15.46250:  45%|████▌     | 181/400 [02:24<02:55,  1.25it/s]Train -ELBO: 14.61051, Val -ELBO: 15.46767:  46%|████▌     | 183/400 [02:26<02:54,  1.25it/s]Train -ELBO: 14.62127, Val -ELBO: 15.46049:  46%|████▋     | 185/400 [02:27<02:51,  1.25it/s]Train -ELBO: 14.57070, Val -ELBO: 15.44920:  47%|████▋     | 187/400 [02:29<02:49,  1.26it/s]Train -ELBO: 14.68757, Val -ELBO: 15.45533:  47%|████▋     | 189/400 [02:31<02:47,  1.26it/s]Train -ELBO: 14.54142, Val -ELBO: 15.46079:  48%|████▊     | 191/400 [02:32<02:46,  1.26it/s]Train -ELBO: 14.56901, Val -ELBO: 15.44952:  48%|████▊     | 193/400 [02:34<02:44,  1.26it/s]Train -ELBO: 14.64197, Val -ELBO: 15.43856:  49%|████▉     | 195/400 [02:35<02:42,  1.26it/s]Train -ELBO: 14.57749, Val -ELBO: 15.45196:  49%|████▉     | 197/400 [02:37<02:40,  1.27it/s]Train -ELBO: 14.42132, Val -ELBO: 15.43254:  50%|████▉     | 199/400 [02:39<02:39,  1.26it/s]Train -ELBO: 14.53461, Val -ELBO: 15.43285:  50%|█████     | 201/400 [02:40<02:39,  1.25it/s]Train -ELBO: 14.56388, Val -ELBO: 15.43185:  51%|█████     | 203/400 [02:42<02:37,  1.25it/s]Train -ELBO: 14.62887, Val -ELBO: 15.40828:  51%|█████▏    | 205/400 [02:43<02:34,  1.26it/s]Train -ELBO: 14.48618, Val -ELBO: 15.41058:  52%|█████▏    | 207/400 [02:45<02:32,  1.26it/s]Train -ELBO: 14.65346, Val -ELBO: 15.39927:  52%|█████▏    | 209/400 [02:46<02:31,  1.26it/s]Train -ELBO: 14.42105, Val -ELBO: 15.40187:  53%|█████▎    | 211/400 [02:48<02:29,  1.26it/s]Train -ELBO: 14.61775, Val -ELBO: 15.39675:  53%|█████▎    | 213/400 [02:50<02:30,  1.25it/s]Train -ELBO: 14.48445, Val -ELBO: 15.41781:  54%|█████▍    | 215/400 [02:51<02:33,  1.20it/s]Train -ELBO: 14.57867, Val -ELBO: 15.40763:  54%|█████▍    | 217/400 [02:53<02:29,  1.22it/s]Train -ELBO: 14.57739, Val -ELBO: 15.41840:  55%|█████▍    | 219/400 [02:55<02:27,  1.23it/s]Epoch   220: reducing learning rate of group 0 to 1.0000e-04.
Train -ELBO: 14.47187, Val -ELBO: 15.41792:  55%|█████▌    | 221/400 [02:56<02:25,  1.23it/s]Train -ELBO: 14.48107, Val -ELBO: 15.40234:  56%|█████▌    | 223/400 [02:58<02:24,  1.23it/s]Train -ELBO: 14.54199, Val -ELBO: 15.40088:  56%|█████▋    | 225/400 [03:00<02:21,  1.24it/s]Train -ELBO: 14.47250, Val -ELBO: 15.40878:  57%|█████▋    | 227/400 [03:01<02:21,  1.22it/s]Train -ELBO: 14.59081, Val -ELBO: 15.39478:  57%|█████▋    | 229/400 [03:03<02:20,  1.22it/s]Train -ELBO: 14.48192, Val -ELBO: 15.39940:  58%|█████▊    | 231/400 [03:05<02:22,  1.18it/s]Train -ELBO: 14.55079, Val -ELBO: 15.40877:  58%|█████▊    | 233/400 [03:06<02:22,  1.17it/s]Train -ELBO: 14.48127, Val -ELBO: 15.40967:  59%|█████▉    | 235/400 [03:08<02:18,  1.19it/s]Train -ELBO: 14.50277, Val -ELBO: 15.40689:  59%|█████▉    | 237/400 [03:10<02:14,  1.21it/s]Train -ELBO: 14.62845, Val -ELBO: 15.39773:  60%|█████▉    | 239/400 [03:11<02:10,  1.23it/s]Train -ELBO: 14.46443, Val -ELBO: 15.39401:  60%|██████    | 241/400 [03:13<02:08,  1.24it/s]Train -ELBO: 14.53075, Val -ELBO: 15.40915:  61%|██████    | 243/400 [03:14<02:05,  1.25it/s]Train -ELBO: 14.53671, Val -ELBO: 15.40461:  61%|██████▏   | 245/400 [03:16<02:04,  1.25it/s]Train -ELBO: 14.64621, Val -ELBO: 15.39428:  62%|██████▏   | 247/400 [03:18<02:04,  1.23it/s]Train -ELBO: 14.50932, Val -ELBO: 15.39590:  62%|██████▏   | 249/400 [03:19<02:04,  1.22it/s]Train -ELBO: 14.56099, Val -ELBO: 15.40721:  63%|██████▎   | 251/400 [03:21<02:02,  1.22it/s]Train -ELBO: 14.56516, Val -ELBO: 15.39724:  63%|██████▎   | 253/400 [03:23<02:01,  1.21it/s]Train -ELBO: 14.43015, Val -ELBO: 15.39629:  64%|██████▍   | 255/400 [03:24<01:59,  1.22it/s]Train -ELBO: 14.54062, Val -ELBO: 15.39488:  64%|██████▍   | 257/400 [03:26<01:57,  1.22it/s]Epoch   259: reducing learning rate of group 0 to 1.0000e-05.
Train -ELBO: 14.50773, Val -ELBO: 15.39503:  65%|██████▍   | 259/400 [03:28<01:55,  1.22it/s]Train -ELBO: 14.55396, Val -ELBO: 15.39149:  65%|██████▌   | 261/400 [03:29<01:52,  1.23it/s]Train -ELBO: 14.48753, Val -ELBO: 15.38739:  66%|██████▌   | 263/400 [03:31<01:49,  1.25it/s]Train -ELBO: 14.49015, Val -ELBO: 15.39431:  66%|██████▋   | 265/400 [03:32<01:47,  1.25it/s]Train -ELBO: 14.60104, Val -ELBO: 15.39646:  67%|██████▋   | 267/400 [03:34<01:45,  1.26it/s]Train -ELBO: 14.63179, Val -ELBO: 15.40660:  67%|██████▋   | 269/400 [03:35<01:45,  1.24it/s]Train -ELBO: 14.46771, Val -ELBO: 15.37564:  68%|██████▊   | 271/400 [03:37<01:43,  1.24it/s]Train -ELBO: 14.58201, Val -ELBO: 15.38909:  68%|██████▊   | 273/400 [03:39<01:41,  1.25it/s]Train -ELBO: 14.49301, Val -ELBO: 15.38488:  69%|██████▉   | 275/400 [03:40<01:40,  1.25it/s]Train -ELBO: 14.54685, Val -ELBO: 15.39470:  69%|██████▉   | 277/400 [03:42<01:39,  1.24it/s]Train -ELBO: 14.57332, Val -ELBO: 15.38483:  70%|██████▉   | 279/400 [03:44<01:37,  1.24it/s]Epoch   280: reducing learning rate of group 0 to 1.0000e-06.
Train -ELBO: 14.49133, Val -ELBO: 15.39717:  70%|███████   | 281/400 [03:45<01:35,  1.24it/s]Train -ELBO: 14.44167, Val -ELBO: 15.38998:  71%|███████   | 283/400 [03:47<01:34,  1.23it/s]Train -ELBO: 14.55964, Val -ELBO: 15.39496:  71%|███████▏  | 285/400 [03:48<01:34,  1.22it/s]Train -ELBO: 14.47506, Val -ELBO: 15.39617:  72%|███████▏  | 287/400 [03:50<01:32,  1.23it/s]Train -ELBO: 14.48954, Val -ELBO: 15.39353:  72%|███████▏  | 289/400 [03:52<01:29,  1.24it/s]Train -ELBO: 14.45255, Val -ELBO: 15.39184:  73%|███████▎  | 291/400 [03:53<01:28,  1.23it/s]Train -ELBO: 14.48708, Val -ELBO: 15.38948:  73%|███████▎  | 293/400 [03:55<01:27,  1.22it/s]Train -ELBO: 14.44396, Val -ELBO: 15.39166:  74%|███████▍  | 295/400 [03:57<01:26,  1.21it/s]Train -ELBO: 14.63871, Val -ELBO: 15.40068:  74%|███████▍  | 297/400 [03:58<01:25,  1.21it/s]Train -ELBO: 14.55801, Val -ELBO: 15.39298:  75%|███████▍  | 299/400 [04:00<01:23,  1.21it/s]Train -ELBO: 14.57813, Val -ELBO: 15.39789:  75%|███████▌  | 301/400 [04:02<01:22,  1.20it/s]Train -ELBO: 14.51812, Val -ELBO: 15.38745:  76%|███████▌  | 303/400 [04:03<01:20,  1.20it/s]Train -ELBO: 14.53887, Val -ELBO: 15.38061:  76%|███████▋  | 305/400 [04:05<01:18,  1.21it/s]Train -ELBO: 14.53196, Val -ELBO: 15.39437:  77%|███████▋  | 307/400 [04:07<01:16,  1.22it/s]Train -ELBO: 14.51093, Val -ELBO: 15.37410:  77%|███████▋  | 309/400 [04:08<01:13,  1.24it/s]Train -ELBO: 14.43434, Val -ELBO: 15.39660:  78%|███████▊  | 311/400 [04:10<01:11,  1.24it/s]Train -ELBO: 14.60512, Val -ELBO: 15.39825:  78%|███████▊  | 313/400 [04:11<01:10,  1.23it/s]Train -ELBO: 14.53555, Val -ELBO: 15.39452:  79%|███████▉  | 315/400 [04:13<01:09,  1.23it/s]Train -ELBO: 14.53945, Val -ELBO: 15.39896:  79%|███████▉  | 317/400 [04:15<01:07,  1.23it/s]Train -ELBO: 14.47999, Val -ELBO: 15.39728:  80%|███████▉  | 319/400 [04:16<01:06,  1.23it/s]Train -ELBO: 14.62544, Val -ELBO: 15.39034:  80%|████████  | 321/400 [04:18<01:05,  1.21it/s]Train -ELBO: 14.49164, Val -ELBO: 15.37659:  81%|████████  | 323/400 [04:20<01:04,  1.20it/s]Train -ELBO: 14.54101, Val -ELBO: 15.38915:  81%|████████▏ | 325/400 [04:21<01:02,  1.20it/s]Train -ELBO: 14.51579, Val -ELBO: 15.38684:  82%|████████▏ | 327/400 [04:23<01:00,  1.22it/s]Train -ELBO: 14.55995, Val -ELBO: 15.39800:  82%|████████▏ | 329/400 [04:24<00:57,  1.23it/s]Train -ELBO: 14.48559, Val -ELBO: 15.38947:  83%|████████▎ | 331/400 [04:26<00:56,  1.23it/s]Train -ELBO: 14.48562, Val -ELBO: 15.38433:  83%|████████▎ | 333/400 [04:28<00:54,  1.24it/s]Train -ELBO: 14.57323, Val -ELBO: 15.38450:  84%|████████▍ | 335/400 [04:29<00:52,  1.23it/s]Train -ELBO: 14.53918, Val -ELBO: 15.39700:  84%|████████▍ | 337/400 [04:31<00:50,  1.24it/s]Train -ELBO: 14.50841, Val -ELBO: 15.39047:  85%|████████▍ | 339/400 [04:33<00:48,  1.25it/s]Train -ELBO: 14.57081, Val -ELBO: 15.38803:  85%|████████▌ | 341/400 [04:34<00:47,  1.25it/s]Train -ELBO: 14.56948, Val -ELBO: 15.39569:  86%|████████▌ | 343/400 [04:36<00:45,  1.26it/s]Train -ELBO: 14.67006, Val -ELBO: 15.38631:  86%|████████▋ | 345/400 [04:37<00:43,  1.26it/s]Train -ELBO: 14.48372, Val -ELBO: 15.40389:  87%|████████▋ | 347/400 [04:39<00:41,  1.26it/s]Train -ELBO: 14.57705, Val -ELBO: 15.37788:  87%|████████▋ | 349/400 [04:40<00:40,  1.27it/s]Train -ELBO: 14.57471, Val -ELBO: 15.39963:  88%|████████▊ | 351/400 [04:42<00:38,  1.26it/s]Train -ELBO: 14.43004, Val -ELBO: 15.38791:  88%|████████▊ | 353/400 [04:44<00:37,  1.27it/s]Train -ELBO: 14.54390, Val -ELBO: 15.39264:  89%|████████▉ | 355/400 [04:45<00:35,  1.27it/s]Train -ELBO: 14.53867, Val -ELBO: 15.38607:  89%|████████▉ | 357/400 [04:47<00:33,  1.27it/s]Train -ELBO: 14.48560, Val -ELBO: 15.38654:  90%|████████▉ | 359/400 [04:48<00:32,  1.27it/s]Train -ELBO: 14.49434, Val -ELBO: 15.39756:  90%|█████████ | 361/400 [04:50<00:30,  1.26it/s]Train -ELBO: 14.55997, Val -ELBO: 15.38161:  91%|█████████ | 363/400 [04:52<00:29,  1.26it/s]Train -ELBO: 14.55316, Val -ELBO: 15.40034:  91%|█████████▏| 365/400 [04:53<00:28,  1.25it/s]Train -ELBO: 14.49811, Val -ELBO: 15.38206:  92%|█████████▏| 367/400 [04:55<00:26,  1.25it/s]Train -ELBO: 14.51649, Val -ELBO: 15.39318:  92%|█████████▏| 369/400 [04:56<00:24,  1.25it/s]Train -ELBO: 14.54248, Val -ELBO: 15.39616:  93%|█████████▎| 371/400 [04:58<00:23,  1.24it/s]Train -ELBO: 14.55611, Val -ELBO: 15.39138:  93%|█████████▎| 373/400 [05:00<00:21,  1.23it/s]Train -ELBO: 14.40884, Val -ELBO: 15.39451:  94%|█████████▍| 375/400 [05:01<00:20,  1.25it/s]Train -ELBO: 14.55833, Val -ELBO: 15.39969:  94%|█████████▍| 377/400 [05:03<00:18,  1.25it/s]Train -ELBO: 14.59361, Val -ELBO: 15.38990:  95%|█████████▍| 379/400 [05:04<00:16,  1.26it/s]Train -ELBO: 14.54691, Val -ELBO: 15.39528:  95%|█████████▌| 381/400 [05:06<00:15,  1.26it/s]Train -ELBO: 14.49471, Val -ELBO: 15.39557:  96%|█████████▌| 383/400 [05:07<00:13,  1.26it/s]Train -ELBO: 14.49653, Val -ELBO: 15.39020:  96%|█████████▋| 385/400 [05:09<00:11,  1.26it/s]Train -ELBO: 14.51173, Val -ELBO: 15.39582:  97%|█████████▋| 387/400 [05:11<00:10,  1.27it/s]Train -ELBO: 14.56191, Val -ELBO: 15.39555:  97%|█████████▋| 389/400 [05:12<00:08,  1.25it/s]Train -ELBO: 14.61817, Val -ELBO: 15.39490:  98%|█████████▊| 391/400 [05:14<00:07,  1.23it/s]Train -ELBO: 14.52778, Val -ELBO: 15.39830:  98%|█████████▊| 393/400 [05:16<00:05,  1.24it/s]Train -ELBO: 14.59240, Val -ELBO: 15.38458:  99%|█████████▉| 395/400 [05:17<00:03,  1.25it/s]Train -ELBO: 14.52727, Val -ELBO: 15.37408:  99%|█████████▉| 397/400 [05:19<00:02,  1.26it/s]Train -ELBO: 14.61166, Val -ELBO: 15.39354: 100%|█████████▉| 399/400 [05:20<00:00,  1.26it/s]Train -ELBO: 14.57448, Val -ELBO: 15.37905: 100%|██████████| 400/400 [05:21<00:00,  1.24it/s]
