{
  "test": {
    "steps": [
      0
    ],
    "timestamps": [
      "2022-07-05T20:19:24.123319"
    ],
    "values": [
      40.02528503380566
    ]
  },
  "train": {
    "steps": [
      0,
      1,
      2,
      3,
      4,
      5,
      6,
      7,
      8,
      9,
      10,
      11,
      12,
      13,
      14,
      15,
      16,
      17,
      18,
      19,
      20,
      21,
      22,
      23,
      24,
      25,
      26,
      27,
      28,
      29,
      30,
      31,
      32,
      33,
      34,
      35,
      36,
      37,
      38,
      39,
      40,
      41,
      42,
      43,
      44,
      45,
      46,
      47,
      48,
      49,
      50,
      51,
      52,
      53,
      54,
      55,
      56,
      57,
      58,
      59,
      60,
      61,
      62,
      63,
      64,
      65,
      66,
      67,
      68,
      69,
      70,
      71,
      72,
      73,
      74,
      75,
      76,
      77,
      78,
      79,
      80,
      81,
      82,
      83,
      84,
      85,
      86,
      87,
      88,
      89,
      90,
      91,
      92,
      93,
      94,
      95,
      96,
      97,
      98,
      99,
      100,
      101,
      102,
      103,
      104,
      105,
      106,
      107,
      108,
      109,
      110,
      111,
      112,
      113,
      114,
      115,
      116,
      117,
      118,
      119,
      120,
      121,
      122,
      123,
      124,
      125,
      126,
      127,
      128,
      129,
      130,
      131,
      132,
      133,
      134,
      135,
      136,
      137,
      138,
      139,
      140,
      141,
      142,
      143,
      144,
      145,
      146,
      147,
      148,
      149,
      150,
      151,
      152,
      153,
      154,
      155,
      156,
      157,
      158,
      159,
      160,
      161,
      162,
      163,
      164,
      165,
      166,
      167,
      168,
      169,
      170,
      171,
      172,
      173,
      174,
      175,
      176,
      177,
      178,
      179,
      180,
      181,
      182,
      183,
      184,
      185,
      186,
      187,
      188,
      189,
      190,
      191,
      192,
      193,
      194,
      195,
      196,
      197,
      198,
      199,
      200,
      201,
      202,
      203,
      204,
      205,
      206,
      207,
      208,
      209,
      210,
      211,
      212,
      213,
      214,
      215,
      216,
      217,
      218,
      219,
      220,
      221,
      222,
      223,
      224,
      225,
      226,
      227,
      228,
      229,
      230,
      231,
      232,
      233,
      234,
      235,
      236,
      237,
      238,
      239,
      240,
      241,
      242,
      243,
      244,
      245,
      246,
      247,
      248,
      249,
      250,
      251,
      252,
      253,
      254,
      255,
      256,
      257,
      258,
      259,
      260,
      261,
      262,
      263,
      264,
      265,
      266,
      267,
      268,
      269,
      270,
      271,
      272,
      273,
      274,
      275,
      276,
      277,
      278,
      279,
      280,
      281,
      282,
      283,
      284,
      285,
      286,
      287,
      288,
      289,
      290,
      291,
      292,
      293,
      294,
      295,
      296,
      297,
      298,
      299
    ],
    "timestamps": [
      "2022-07-05T20:07:10.506027",
      "2022-07-05T20:07:14.213968",
      "2022-07-05T20:07:16.483334",
      "2022-07-05T20:07:19.182030",
      "2022-07-05T20:07:21.721446",
      "2022-07-05T20:07:24.424604",
      "2022-07-05T20:07:27.257564",
      "2022-07-05T20:07:29.825865",
      "2022-07-05T20:07:32.537590",
      "2022-07-05T20:07:34.952592",
      "2022-07-05T20:07:37.280996",
      "2022-07-05T20:07:39.739779",
      "2022-07-05T20:07:42.008210",
      "2022-07-05T20:07:44.418045",
      "2022-07-05T20:07:46.895830",
      "2022-07-05T20:07:49.544127",
      "2022-07-05T20:07:52.196850",
      "2022-07-05T20:07:54.713523",
      "2022-07-05T20:07:57.308036",
      "2022-07-05T20:07:59.942628",
      "2022-07-05T20:08:02.562845",
      "2022-07-05T20:08:05.120496",
      "2022-07-05T20:08:07.685360",
      "2022-07-05T20:08:10.123718",
      "2022-07-05T20:08:12.441100",
      "2022-07-05T20:08:14.782677",
      "2022-07-05T20:08:17.129118",
      "2022-07-05T20:08:19.385038",
      "2022-07-05T20:08:21.628248",
      "2022-07-05T20:08:23.849455",
      "2022-07-05T20:08:26.279812",
      "2022-07-05T20:08:28.701705",
      "2022-07-05T20:08:30.971447",
      "2022-07-05T20:08:33.189962",
      "2022-07-05T20:08:35.363914",
      "2022-07-05T20:08:37.569006",
      "2022-07-05T20:08:39.657730",
      "2022-07-05T20:08:42.028340",
      "2022-07-05T20:08:44.351626",
      "2022-07-05T20:08:46.535907",
      "2022-07-05T20:08:48.911080",
      "2022-07-05T20:08:51.101094",
      "2022-07-05T20:08:53.394270",
      "2022-07-05T20:08:55.610733",
      "2022-07-05T20:08:57.802968",
      "2022-07-05T20:09:00.131469",
      "2022-07-05T20:09:02.390673",
      "2022-07-05T20:09:04.639533",
      "2022-07-05T20:09:06.905947",
      "2022-07-05T20:09:09.191675",
      "2022-07-05T20:09:11.430805",
      "2022-07-05T20:09:13.859962",
      "2022-07-05T20:09:16.323797",
      "2022-07-05T20:09:18.669594",
      "2022-07-05T20:09:21.143791",
      "2022-07-05T20:09:23.580520",
      "2022-07-05T20:09:26.041112",
      "2022-07-05T20:09:28.544935",
      "2022-07-05T20:09:30.944508",
      "2022-07-05T20:09:33.343953",
      "2022-07-05T20:09:35.655433",
      "2022-07-05T20:09:37.915379",
      "2022-07-05T20:09:40.294585",
      "2022-07-05T20:09:42.674613",
      "2022-07-05T20:09:45.025864",
      "2022-07-05T20:09:47.408056",
      "2022-07-05T20:09:49.888327",
      "2022-07-05T20:09:52.219603",
      "2022-07-05T20:09:54.543361",
      "2022-07-05T20:09:56.924051",
      "2022-07-05T20:09:59.346561",
      "2022-07-05T20:10:01.618367",
      "2022-07-05T20:10:03.865333",
      "2022-07-05T20:10:06.192016",
      "2022-07-05T20:10:08.449754",
      "2022-07-05T20:10:10.759742",
      "2022-07-05T20:10:13.120954",
      "2022-07-05T20:10:15.585194",
      "2022-07-05T20:10:18.295071",
      "2022-07-05T20:10:20.914994",
      "2022-07-05T20:10:23.320386",
      "2022-07-05T20:10:25.789539",
      "2022-07-05T20:10:28.158751",
      "2022-07-05T20:10:30.725644",
      "2022-07-05T20:10:33.281341",
      "2022-07-05T20:10:35.967046",
      "2022-07-05T20:10:38.633519",
      "2022-07-05T20:10:41.309901",
      "2022-07-05T20:10:43.991149",
      "2022-07-05T20:10:46.682795",
      "2022-07-05T20:10:48.919728",
      "2022-07-05T20:10:51.142919",
      "2022-07-05T20:10:53.458381",
      "2022-07-05T20:10:55.970432",
      "2022-07-05T20:10:58.681135",
      "2022-07-05T20:11:01.076049",
      "2022-07-05T20:11:03.495241",
      "2022-07-05T20:11:05.716152",
      "2022-07-05T20:11:08.109621",
      "2022-07-05T20:11:10.818480",
      "2022-07-05T20:11:13.520675",
      "2022-07-05T20:11:16.359539",
      "2022-07-05T20:11:18.870414",
      "2022-07-05T20:11:21.288593",
      "2022-07-05T20:11:23.521532",
      "2022-07-05T20:11:25.841883",
      "2022-07-05T20:11:28.224636",
      "2022-07-05T20:11:30.712733",
      "2022-07-05T20:11:33.231534",
      "2022-07-05T20:11:35.628866",
      "2022-07-05T20:11:38.057712",
      "2022-07-05T20:11:40.481391",
      "2022-07-05T20:11:42.845935",
      "2022-07-05T20:11:45.455977",
      "2022-07-05T20:11:48.077560",
      "2022-07-05T20:11:50.481327",
      "2022-07-05T20:11:52.688731",
      "2022-07-05T20:11:54.983680",
      "2022-07-05T20:11:57.683094",
      "2022-07-05T20:12:00.101184",
      "2022-07-05T20:12:02.463745",
      "2022-07-05T20:12:05.132965",
      "2022-07-05T20:12:07.484985",
      "2022-07-05T20:12:09.843282",
      "2022-07-05T20:12:12.227745",
      "2022-07-05T20:12:15.016045",
      "2022-07-05T20:12:17.514914",
      "2022-07-05T20:12:19.775741",
      "2022-07-05T20:12:21.979730",
      "2022-07-05T20:12:24.275700",
      "2022-07-05T20:12:26.499592",
      "2022-07-05T20:12:28.748725",
      "2022-07-05T20:12:31.234458",
      "2022-07-05T20:12:33.654899",
      "2022-07-05T20:12:36.259771",
      "2022-07-05T20:12:38.975507",
      "2022-07-05T20:12:41.468089",
      "2022-07-05T20:12:44.038487",
      "2022-07-05T20:12:46.637582",
      "2022-07-05T20:12:49.054082",
      "2022-07-05T20:12:51.736294",
      "2022-07-05T20:12:54.105916",
      "2022-07-05T20:12:56.668622",
      "2022-07-05T20:12:59.093148",
      "2022-07-05T20:13:01.755067",
      "2022-07-05T20:13:04.399896",
      "2022-07-05T20:13:06.712710",
      "2022-07-05T20:13:09.082801",
      "2022-07-05T20:13:11.401562",
      "2022-07-05T20:13:13.821780",
      "2022-07-05T20:13:16.185116",
      "2022-07-05T20:13:18.545860",
      "2022-07-05T20:13:21.039519",
      "2022-07-05T20:13:23.451739",
      "2022-07-05T20:13:26.075382",
      "2022-07-05T20:13:28.508069",
      "2022-07-05T20:13:31.222426",
      "2022-07-05T20:13:33.818674",
      "2022-07-05T20:13:36.413727",
      "2022-07-05T20:13:38.884732",
      "2022-07-05T20:13:41.169404",
      "2022-07-05T20:13:43.538852",
      "2022-07-05T20:13:45.920854",
      "2022-07-05T20:13:48.170146",
      "2022-07-05T20:13:50.366929",
      "2022-07-05T20:13:52.578148",
      "2022-07-05T20:13:54.916169",
      "2022-07-05T20:13:57.248408",
      "2022-07-05T20:13:59.564935",
      "2022-07-05T20:14:01.890596",
      "2022-07-05T20:14:04.215130",
      "2022-07-05T20:14:06.600081",
      "2022-07-05T20:14:09.050173",
      "2022-07-05T20:14:11.640334",
      "2022-07-05T20:14:14.360320",
      "2022-07-05T20:14:17.078422",
      "2022-07-05T20:14:19.609553",
      "2022-07-05T20:14:22.017518",
      "2022-07-05T20:14:24.351609",
      "2022-07-05T20:14:26.699118",
      "2022-07-05T20:14:29.303313",
      "2022-07-05T20:14:31.997897",
      "2022-07-05T20:14:34.586331",
      "2022-07-05T20:14:36.904564",
      "2022-07-05T20:14:39.299741",
      "2022-07-05T20:14:41.501364",
      "2022-07-05T20:14:43.705633",
      "2022-07-05T20:14:46.156584",
      "2022-07-05T20:14:48.566812",
      "2022-07-05T20:14:50.902772",
      "2022-07-05T20:14:53.322004",
      "2022-07-05T20:14:55.895443",
      "2022-07-05T20:14:58.323943",
      "2022-07-05T20:15:00.891054",
      "2022-07-05T20:15:03.291229",
      "2022-07-05T20:15:05.476502",
      "2022-07-05T20:15:07.730827",
      "2022-07-05T20:15:09.953225",
      "2022-07-05T20:15:12.182587",
      "2022-07-05T20:15:14.588944",
      "2022-07-05T20:15:17.324791",
      "2022-07-05T20:15:20.039369",
      "2022-07-05T20:15:22.620843",
      "2022-07-05T20:15:25.205827",
      "2022-07-05T20:15:27.756677",
      "2022-07-05T20:15:30.511684",
      "2022-07-05T20:15:33.258826",
      "2022-07-05T20:15:35.884928",
      "2022-07-05T20:15:38.353801",
      "2022-07-05T20:15:40.626775",
      "2022-07-05T20:15:43.075500",
      "2022-07-05T20:15:45.677479",
      "2022-07-05T20:15:48.181736",
      "2022-07-05T20:15:50.778907",
      "2022-07-05T20:15:53.406031",
      "2022-07-05T20:15:56.050971",
      "2022-07-05T20:15:58.657058",
      "2022-07-05T20:16:01.059215",
      "2022-07-05T20:16:03.479359",
      "2022-07-05T20:16:06.107284",
      "2022-07-05T20:16:08.418624",
      "2022-07-05T20:16:10.832384",
      "2022-07-05T20:16:13.386350",
      "2022-07-05T20:16:15.995177",
      "2022-07-05T20:16:18.495337",
      "2022-07-05T20:16:20.943032",
      "2022-07-05T20:16:23.637194",
      "2022-07-05T20:16:26.485822",
      "2022-07-05T20:16:29.242501",
      "2022-07-05T20:16:31.969384",
      "2022-07-05T20:16:34.650282",
      "2022-07-05T20:16:36.916202",
      "2022-07-05T20:16:39.171228",
      "2022-07-05T20:16:41.481986",
      "2022-07-05T20:16:44.084532",
      "2022-07-05T20:16:46.340166",
      "2022-07-05T20:16:48.570765",
      "2022-07-05T20:16:50.807274",
      "2022-07-05T20:16:53.076199",
      "2022-07-05T20:16:55.384288",
      "2022-07-05T20:16:57.912518",
      "2022-07-05T20:17:00.651067",
      "2022-07-05T20:17:03.387549",
      "2022-07-05T20:17:06.146663",
      "2022-07-05T20:17:08.886606",
      "2022-07-05T20:17:11.480686",
      "2022-07-05T20:17:14.009145",
      "2022-07-05T20:17:16.629240",
      "2022-07-05T20:17:19.125023",
      "2022-07-05T20:17:21.718362",
      "2022-07-05T20:17:23.976255",
      "2022-07-05T20:17:26.260068",
      "2022-07-05T20:17:28.717146",
      "2022-07-05T20:17:31.090389",
      "2022-07-05T20:17:33.608989",
      "2022-07-05T20:17:36.096644",
      "2022-07-05T20:17:38.477300",
      "2022-07-05T20:17:40.978970",
      "2022-07-05T20:17:43.394468",
      "2022-07-05T20:17:46.065550",
      "2022-07-05T20:17:48.800676",
      "2022-07-05T20:17:51.104748",
      "2022-07-05T20:17:53.341758",
      "2022-07-05T20:17:55.695251",
      "2022-07-05T20:17:58.150433",
      "2022-07-05T20:18:00.558188",
      "2022-07-05T20:18:02.835607",
      "2022-07-05T20:18:05.102389",
      "2022-07-05T20:18:07.357352",
      "2022-07-05T20:18:09.596379",
      "2022-07-05T20:18:11.862616",
      "2022-07-05T20:18:14.411881",
      "2022-07-05T20:18:16.733518",
      "2022-07-05T20:18:18.966241",
      "2022-07-05T20:18:21.604488",
      "2022-07-05T20:18:24.086948",
      "2022-07-05T20:18:26.473127",
      "2022-07-05T20:18:29.069274",
      "2022-07-05T20:18:31.573678",
      "2022-07-05T20:18:34.157704",
      "2022-07-05T20:18:36.397049",
      "2022-07-05T20:18:38.634702",
      "2022-07-05T20:18:41.136815",
      "2022-07-05T20:18:43.578669",
      "2022-07-05T20:18:46.082044",
      "2022-07-05T20:18:48.666645",
      "2022-07-05T20:18:51.071392",
      "2022-07-05T20:18:53.482715",
      "2022-07-05T20:18:56.041428",
      "2022-07-05T20:18:58.684436",
      "2022-07-05T20:19:01.559975",
      "2022-07-05T20:19:04.220471",
      "2022-07-05T20:19:06.519027",
      "2022-07-05T20:19:08.799037",
      "2022-07-05T20:19:11.290104",
      "2022-07-05T20:19:13.762834",
      "2022-07-05T20:19:16.069136",
      "2022-07-05T20:19:18.536565",
      "2022-07-05T20:19:21.038698",
      "2022-07-05T20:19:23.620814"
    ],
    "values": [
      62.71383573850756,
      43.60495172892358,
      41.87502266708279,
      41.4525558622209,
      41.19189643352842,
      41.09065133638633,
      40.98608253507016,
      40.901097752064054,
      40.86424797768337,
      40.84860838158333,
      40.808980785814946,
      40.745633094817755,
      40.70587654173357,
      40.72837472477481,
      40.717376266685676,
      40.64623681606961,
      40.698247955577195,
      40.63864953238669,
      40.63945700971901,
      40.59890857250861,
      40.58656167085878,
      40.595542635689455,
      40.58307508653449,
      40.553496130745124,
      40.58128303763949,
      40.554342278182254,
      40.58194207452322,
      40.545317845184805,
      40.538605146986846,
      40.52585881419078,
      40.509977226150774,
      40.54033346843938,
      40.51482155231103,
      40.52231701010762,
      40.504836664573915,
      40.491987236793804,
      40.51250974136709,
      40.49292032920166,
      40.478873096567874,
      40.48153882600481,
      40.517791159644496,
      40.50418684614478,
      40.48302002100456,
      40.49221402049815,
      40.48652218662525,
      40.47239006531236,
      40.445035721942645,
      40.44405345803463,
      40.45728368363966,
      40.46193887662424,
      40.473999813847485,
      40.44650225471366,
      40.44267191288493,
      40.44785462054475,
      40.458441643195314,
      40.45702997429955,
      40.44642310599794,
      40.42729121046095,
      40.445652023260436,
      40.436337758343015,
      40.45271276938997,
      40.43825154540252,
      40.430940182844665,
      40.4323921441366,
      40.44026273738502,
      40.41554147407267,
      40.44100703447143,
      40.437994202045275,
      40.43510432759029,
      40.439701514426616,
      40.41488427535969,
      40.412367995357265,
      40.41530046784503,
      40.41272477033628,
      40.40975032070453,
      40.427678576444286,
      40.412223583056566,
      40.414007412571344,
      40.391761014496254,
      40.39305006334789,
      40.406132140950604,
      40.407361017458484,
      40.41082041455037,
      40.41356129746387,
      40.40222444277419,
      40.39376102515221,
      40.39150182730466,
      40.3993413660754,
      40.41220007270193,
      40.40525335322692,
      40.37473936602848,
      40.39323029090621,
      40.39975248475977,
      40.3968636785413,
      40.408710497873905,
      40.39205395767779,
      40.38604432599726,
      40.398474885584534,
      40.42066134524694,
      40.41312050467574,
      40.385033552551235,
      40.391327707049896,
      40.37966953929206,
      40.37793573518358,
      40.38129926526864,
      40.39217581722814,
      40.399952908692356,
      40.399480175489295,
      40.39505795555351,
      40.375999338424876,
      40.40167754540076,
      40.4044659088666,
      40.2430070707308,
      40.215354108487844,
      40.211959634774466,
      40.21069743155691,
      40.212983104247385,
      40.21041073751138,
      40.211050685869104,
      40.21305081621984,
      40.21051336337748,
      40.21293779215265,
      40.21082882489098,
      40.21196566124513,
      40.21021042859734,
      40.21082482300748,
      40.208460019078316,
      40.210270540326775,
      40.21108023709908,
      40.208193731674406,
      40.20966823176211,
      40.20685809781603,
      40.20962528441,
      40.21005120042666,
      40.2114258507079,
      40.210581995784715,
      40.21266056077551,
      40.19558770401681,
      40.18888893379573,
      40.18823069478195,
      40.18749979935846,
      40.18812385765282,
      40.187230842385354,
      40.18740423810373,
      40.187446486658565,
      40.187672356598014,
      40.1874451185062,
      40.18671547985888,
      40.187233637923754,
      40.18690328973849,
      40.18753287516479,
      40.18702901774309,
      40.186998017558125,
      40.18734054688521,
      40.187223091353864,
      40.18696721821364,
      40.186906177702866,
      40.187181598051296,
      40.18715683987029,
      40.187187169033926,
      40.18422833895804,
      40.18450437641581,
      40.18460180670566,
      40.1843738012592,
      40.18427208574137,
      40.18418837134652,
      40.18407302980186,
      40.183970768253204,
      40.18397833349487,
      40.18398170919811,
      40.18395498315728,
      40.18395046107673,
      40.183847563482125,
      40.18383353457597,
      40.18387542421823,
      40.18396369093718,
      40.183922390665195,
      40.18402455980224,
      40.18404516057765,
      40.18398664245032,
      40.183873771828836,
      40.1838396910589,
      40.183571728026806,
      40.18367944696273,
      40.18375787367138,
      40.183808736379504,
      40.18381370150503,
      40.18380506097703,
      40.183793725000974,
      40.18376977509477,
      40.1837538160188,
      40.183730334926615,
      40.18371223432394,
      40.183694319392764,
      40.18368137095092,
      40.18366397925641,
      40.18365179127895,
      40.18363407053071,
      40.183622270893395,
      40.18360825461698,
      40.18359957489563,
      40.183588107171516,
      40.18358346288919,
      40.18357539386752,
      40.18357264473471,
      40.183574441822536,
      40.18357540932692,
      40.18357859234625,
      40.183581792070626,
      40.18359740303209,
      40.18359671037035,
      40.18360148582829,
      40.18359122138906,
      40.183587815564174,
      40.18358185645277,
      40.18357424971221,
      40.18356554327621,
      40.183560210673626,
      40.18355332658308,
      40.18354251451129,
      40.18352910238345,
      40.18352564120424,
      40.18352111369422,
      40.183512018752076,
      40.18351189280183,
      40.183506023706606,
      40.183505778586216,
      40.18350419175143,
      40.18349818777659,
      40.183506046078676,
      40.18350578552627,
      40.18351860686041,
      40.183545802183296,
      40.18357458074733,
      40.183599222974834,
      40.183603007387525,
      40.183601583284755,
      40.183592644279535,
      40.183590433052544,
      40.18358047757427,
      40.18356939899977,
      40.18356001138467,
      40.183550255002835,
      40.18354466224618,
      40.18353548150035,
      40.18352553168584,
      40.183526239181546,
      40.1835176578854,
      40.18351009778958,
      40.183510051694,
      40.18350184414371,
      40.18350254098377,
      40.1834973083753,
      40.18349384905168,
      40.183492555638075,
      40.18348882510528,
      40.18348324063507,
      40.18347535944793,
      40.183475129217214,
      40.1834741559596,
      40.183479472376554,
      40.1834952993203,
      40.183503230520756,
      40.18353494611112,
      40.183561883539994,
      40.18357750923742,
      40.18359329990119,
      40.183588966910335,
      40.18359406129383,
      40.183589018029664,
      40.18358681433427,
      40.183581979254434,
      40.18357552503573,
      40.1835717803936,
      40.18356537221084,
      40.18355764046904,
      40.18355044789717,
      40.18354551998521,
      40.18354411328027,
      40.18354449098971,
      40.183537307645175,
      40.18353040712174,
      40.18353617348683,
      40.183531827523915,
      40.1835384148049,
      40.183531289452475,
      40.18353906743086,
      40.18354137917253,
      40.183545342623376,
      40.18354286056227,
      40.18354440280913,
      40.18354474574845,
      40.18354978778363,
      40.183548630328474,
      40.183554873232744,
      40.18354526723028,
      40.18354548598499,
      40.183540969753366,
      40.18354932095747,
      40.18354057844747
    ]
  },
  "val": {
    "steps": [
      0,
      1,
      2,
      3,
      4,
      5,
      6,
      7,
      8,
      9,
      10,
      11,
      12,
      13,
      14,
      15,
      16,
      17,
      18,
      19,
      20,
      21,
      22,
      23,
      24,
      25,
      26,
      27,
      28,
      29,
      30,
      31,
      32,
      33,
      34,
      35,
      36,
      37,
      38,
      39,
      40,
      41,
      42,
      43,
      44,
      45,
      46,
      47,
      48,
      49,
      50,
      51,
      52,
      53,
      54,
      55,
      56,
      57,
      58,
      59,
      60,
      61,
      62,
      63,
      64,
      65,
      66,
      67,
      68,
      69,
      70,
      71,
      72,
      73,
      74,
      75,
      76,
      77,
      78,
      79,
      80,
      81,
      82,
      83,
      84,
      85,
      86,
      87,
      88,
      89,
      90,
      91,
      92,
      93,
      94,
      95,
      96,
      97,
      98,
      99,
      100,
      101,
      102,
      103,
      104,
      105,
      106,
      107,
      108,
      109,
      110,
      111,
      112,
      113,
      114,
      115,
      116,
      117,
      118,
      119,
      120,
      121,
      122,
      123,
      124,
      125,
      126,
      127,
      128,
      129,
      130,
      131,
      132,
      133,
      134,
      135,
      136,
      137,
      138,
      139,
      140,
      141,
      142,
      143,
      144,
      145,
      146,
      147,
      148,
      149,
      150,
      151,
      152,
      153,
      154,
      155,
      156,
      157,
      158,
      159,
      160,
      161,
      162,
      163,
      164,
      165,
      166,
      167,
      168,
      169,
      170,
      171,
      172,
      173,
      174,
      175,
      176,
      177,
      178,
      179,
      180,
      181,
      182,
      183,
      184,
      185,
      186,
      187,
      188,
      189,
      190,
      191,
      192,
      193,
      194,
      195,
      196,
      197,
      198,
      199,
      200,
      201,
      202,
      203,
      204,
      205,
      206,
      207,
      208,
      209,
      210,
      211,
      212,
      213,
      214,
      215,
      216,
      217,
      218,
      219,
      220,
      221,
      222,
      223,
      224,
      225,
      226,
      227,
      228,
      229,
      230,
      231,
      232,
      233,
      234,
      235,
      236,
      237,
      238,
      239,
      240,
      241,
      242,
      243,
      244,
      245,
      246,
      247,
      248,
      249,
      250,
      251,
      252,
      253,
      254,
      255,
      256,
      257,
      258,
      259,
      260,
      261,
      262,
      263,
      264,
      265,
      266,
      267,
      268,
      269,
      270,
      271,
      272,
      273,
      274,
      275,
      276,
      277,
      278,
      279,
      280,
      281,
      282,
      283,
      284,
      285,
      286,
      287,
      288,
      289,
      290,
      291,
      292,
      293,
      294,
      295,
      296,
      297,
      298,
      299
    ],
    "timestamps": [
      "2022-07-05T20:07:11.672707",
      "2022-07-05T20:07:14.432552",
      "2022-07-05T20:07:16.776795",
      "2022-07-05T20:07:19.432811",
      "2022-07-05T20:07:21.995315",
      "2022-07-05T20:07:24.706841",
      "2022-07-05T20:07:27.555486",
      "2022-07-05T20:07:30.115340",
      "2022-07-05T20:07:32.781623",
      "2022-07-05T20:07:35.183680",
      "2022-07-05T20:07:37.579421",
      "2022-07-05T20:07:39.971130",
      "2022-07-05T20:07:42.233848",
      "2022-07-05T20:07:44.657406",
      "2022-07-05T20:07:47.237624",
      "2022-07-05T20:07:49.848325",
      "2022-07-05T20:07:52.419567",
      "2022-07-05T20:07:55.044232",
      "2022-07-05T20:07:57.631660",
      "2022-07-05T20:08:00.175033",
      "2022-07-05T20:08:02.790195",
      "2022-07-05T20:08:05.392654",
      "2022-07-05T20:08:07.978449",
      "2022-07-05T20:08:10.352063",
      "2022-07-05T20:08:12.694108",
      "2022-07-05T20:08:15.018227",
      "2022-07-05T20:08:17.376628",
      "2022-07-05T20:08:19.613576",
      "2022-07-05T20:08:21.858918",
      "2022-07-05T20:08:24.146898",
      "2022-07-05T20:08:26.547271",
      "2022-07-05T20:08:28.966351",
      "2022-07-05T20:08:31.191847",
      "2022-07-05T20:08:33.407072",
      "2022-07-05T20:08:35.588439",
      "2022-07-05T20:08:37.791830",
      "2022-07-05T20:08:39.883500",
      "2022-07-05T20:08:42.368445",
      "2022-07-05T20:08:44.568285",
      "2022-07-05T20:08:46.789376",
      "2022-07-05T20:08:49.127929",
      "2022-07-05T20:08:51.334832",
      "2022-07-05T20:08:53.624803",
      "2022-07-05T20:08:55.839935",
      "2022-07-05T20:08:58.022498",
      "2022-07-05T20:09:00.362978",
      "2022-07-05T20:09:02.615755",
      "2022-07-05T20:09:04.902230",
      "2022-07-05T20:09:07.131198",
      "2022-07-05T20:09:09.419250",
      "2022-07-05T20:09:11.683909",
      "2022-07-05T20:09:14.130212",
      "2022-07-05T20:09:16.616356",
      "2022-07-05T20:09:18.936168",
      "2022-07-05T20:09:21.422403",
      "2022-07-05T20:09:23.837683",
      "2022-07-05T20:09:26.301549",
      "2022-07-05T20:09:28.778762",
      "2022-07-05T20:09:31.222164",
      "2022-07-05T20:09:33.662149",
      "2022-07-05T20:09:35.883881",
      "2022-07-05T20:09:38.149409",
      "2022-07-05T20:09:40.562254",
      "2022-07-05T20:09:42.917882",
      "2022-07-05T20:09:45.275206",
      "2022-07-05T20:09:47.720548",
      "2022-07-05T20:09:50.118825",
      "2022-07-05T20:09:52.442299",
      "2022-07-05T20:09:54.787284",
      "2022-07-05T20:09:57.157938",
      "2022-07-05T20:09:59.610053",
      "2022-07-05T20:10:01.838211",
      "2022-07-05T20:10:04.113923",
      "2022-07-05T20:10:06.421340",
      "2022-07-05T20:10:08.685332",
      "2022-07-05T20:10:11.012649",
      "2022-07-05T20:10:13.372379",
      "2022-07-05T20:10:15.915100",
      "2022-07-05T20:10:18.574501",
      "2022-07-05T20:10:21.167081",
      "2022-07-05T20:10:23.595135",
      "2022-07-05T20:10:26.035021",
      "2022-07-05T20:10:28.412151",
      "2022-07-05T20:10:30.969860",
      "2022-07-05T20:10:33.564528",
      "2022-07-05T20:10:36.238295",
      "2022-07-05T20:10:38.930585",
      "2022-07-05T20:10:41.596385",
      "2022-07-05T20:10:44.288424",
      "2022-07-05T20:10:46.950268",
      "2022-07-05T20:10:49.143878",
      "2022-07-05T20:10:51.367185",
      "2022-07-05T20:10:53.747443",
      "2022-07-05T20:10:56.250827",
      "2022-07-05T20:10:58.920488",
      "2022-07-05T20:11:01.340752",
      "2022-07-05T20:11:03.710689",
      "2022-07-05T20:11:05.944183",
      "2022-07-05T20:11:08.407132",
      "2022-07-05T20:11:11.106199",
      "2022-07-05T20:11:13.818892",
      "2022-07-05T20:11:16.629676",
      "2022-07-05T20:11:19.085813",
      "2022-07-05T20:11:21.526489",
      "2022-07-05T20:11:23.753096",
      "2022-07-05T20:11:26.079087",
      "2022-07-05T20:11:28.486450",
      "2022-07-05T20:11:31.012125",
      "2022-07-05T20:11:33.447490",
      "2022-07-05T20:11:35.927985",
      "2022-07-05T20:11:38.308832",
      "2022-07-05T20:11:40.756168",
      "2022-07-05T20:11:43.162080",
      "2022-07-05T20:11:45.710340",
      "2022-07-05T20:11:48.318258",
      "2022-07-05T20:11:50.712241",
      "2022-07-05T20:11:52.919673",
      "2022-07-05T20:11:55.310764",
      "2022-07-05T20:11:57.902804",
      "2022-07-05T20:12:00.339682",
      "2022-07-05T20:12:02.744701",
      "2022-07-05T20:12:05.375033",
      "2022-07-05T20:12:07.720826",
      "2022-07-05T20:12:10.092118",
      "2022-07-05T20:12:12.477574",
      "2022-07-05T20:12:15.298295",
      "2022-07-05T20:12:17.781799",
      "2022-07-05T20:12:19.990847",
      "2022-07-05T20:12:22.212473",
      "2022-07-05T20:12:24.523929",
      "2022-07-05T20:12:26.729165",
      "2022-07-05T20:12:29.059318",
      "2022-07-05T20:12:31.484038",
      "2022-07-05T20:12:33.901319",
      "2022-07-05T20:12:36.510706",
      "2022-07-05T20:12:39.200251",
      "2022-07-05T20:12:41.779292",
      "2022-07-05T20:12:44.294598",
      "2022-07-05T20:12:46.859904",
      "2022-07-05T20:12:49.361265",
      "2022-07-05T20:12:51.966093",
      "2022-07-05T20:12:54.353116",
      "2022-07-05T20:12:56.922158",
      "2022-07-05T20:12:59.416956",
      "2022-07-05T20:13:02.049138",
      "2022-07-05T20:13:04.640023",
      "2022-07-05T20:13:06.959073",
      "2022-07-05T20:13:09.332850",
      "2022-07-05T20:13:11.676369",
      "2022-07-05T20:13:14.107950",
      "2022-07-05T20:13:16.433901",
      "2022-07-05T20:13:18.822670",
      "2022-07-05T20:13:21.255145",
      "2022-07-05T20:13:23.775148",
      "2022-07-05T20:13:26.299100",
      "2022-07-05T20:13:28.794222",
      "2022-07-05T20:13:31.523961",
      "2022-07-05T20:13:34.078396",
      "2022-07-05T20:13:36.633571",
      "2022-07-05T20:13:39.115520",
      "2022-07-05T20:13:41.438878",
      "2022-07-05T20:13:43.789275",
      "2022-07-05T20:13:46.147159",
      "2022-07-05T20:13:48.392243",
      "2022-07-05T20:13:50.597163",
      "2022-07-05T20:13:52.811664",
      "2022-07-05T20:13:55.167266",
      "2022-07-05T20:13:57.480094",
      "2022-07-05T20:13:59.814326",
      "2022-07-05T20:14:02.118843",
      "2022-07-05T20:14:04.453389",
      "2022-07-05T20:14:06.821259",
      "2022-07-05T20:14:09.279219",
      "2022-07-05T20:14:11.939812",
      "2022-07-05T20:14:14.656081",
      "2022-07-05T20:14:17.371527",
      "2022-07-05T20:14:19.883192",
      "2022-07-05T20:14:22.260123",
      "2022-07-05T20:14:24.598278",
      "2022-07-05T20:14:26.950399",
      "2022-07-05T20:14:29.582047",
      "2022-07-05T20:14:32.287851",
      "2022-07-05T20:14:34.809054",
      "2022-07-05T20:14:37.172259",
      "2022-07-05T20:14:39.523928",
      "2022-07-05T20:14:41.723185",
      "2022-07-05T20:14:43.979780",
      "2022-07-05T20:14:46.403316",
      "2022-07-05T20:14:48.802766",
      "2022-07-05T20:14:51.148744",
      "2022-07-05T20:14:53.543310",
      "2022-07-05T20:14:56.131512",
      "2022-07-05T20:14:58.642417",
      "2022-07-05T20:15:01.118259",
      "2022-07-05T20:15:03.520643",
      "2022-07-05T20:15:05.705820",
      "2022-07-05T20:15:07.939143",
      "2022-07-05T20:15:10.179805",
      "2022-07-05T20:15:12.410109",
      "2022-07-05T20:15:14.883632",
      "2022-07-05T20:15:17.620267",
      "2022-07-05T20:15:20.332917",
      "2022-07-05T20:15:22.841443",
      "2022-07-05T20:15:25.459071",
      "2022-07-05T20:15:28.049963",
      "2022-07-05T20:15:30.803044",
      "2022-07-05T20:15:33.563645",
      "2022-07-05T20:15:36.186883",
      "2022-07-05T20:15:38.573771",
      "2022-07-05T20:15:40.854591",
      "2022-07-05T20:15:43.308737",
      "2022-07-05T20:15:45.929028",
      "2022-07-05T20:15:48.501247",
      "2022-07-05T20:15:51.011464",
      "2022-07-05T20:15:53.629866",
      "2022-07-05T20:15:56.332910",
      "2022-07-05T20:15:58.904686",
      "2022-07-05T20:16:01.295357",
      "2022-07-05T20:16:03.779005",
      "2022-07-05T20:16:06.327719",
      "2022-07-05T20:16:08.666784",
      "2022-07-05T20:16:11.081038",
      "2022-07-05T20:16:13.608235",
      "2022-07-05T20:16:16.265299",
      "2022-07-05T20:16:18.730163",
      "2022-07-05T20:16:21.175302",
      "2022-07-05T20:16:23.943268",
      "2022-07-05T20:16:26.780854",
      "2022-07-05T20:16:29.523191",
      "2022-07-05T20:16:32.250060",
      "2022-07-05T20:16:34.863955",
      "2022-07-05T20:16:37.142872",
      "2022-07-05T20:16:39.393134",
      "2022-07-05T20:16:41.713475",
      "2022-07-05T20:16:44.298680",
      "2022-07-05T20:16:46.559724",
      "2022-07-05T20:16:48.793789",
      "2022-07-05T20:16:51.027248",
      "2022-07-05T20:16:53.290711",
      "2022-07-05T20:16:55.696562",
      "2022-07-05T20:16:58.190828",
      "2022-07-05T20:17:00.939040",
      "2022-07-05T20:17:03.691047",
      "2022-07-05T20:17:06.423868",
      "2022-07-05T20:17:09.172330",
      "2022-07-05T20:17:11.697451",
      "2022-07-05T20:17:14.230866",
      "2022-07-05T20:17:16.854933",
      "2022-07-05T20:17:19.435971",
      "2022-07-05T20:17:21.942743",
      "2022-07-05T20:17:24.192362",
      "2022-07-05T20:17:26.493895",
      "2022-07-05T20:17:28.952122",
      "2022-07-05T20:17:31.330726",
      "2022-07-05T20:17:33.899776",
      "2022-07-05T20:17:36.318269",
      "2022-07-05T20:17:38.799007",
      "2022-07-05T20:17:41.260054",
      "2022-07-05T20:17:43.613710",
      "2022-07-05T20:17:46.354282",
      "2022-07-05T20:17:49.076722",
      "2022-07-05T20:17:51.323974",
      "2022-07-05T20:17:53.557155",
      "2022-07-05T20:17:55.931182",
      "2022-07-05T20:17:58.423418",
      "2022-07-05T20:18:00.816350",
      "2022-07-05T20:18:03.051664",
      "2022-07-05T20:18:05.318940",
      "2022-07-05T20:18:07.577484",
      "2022-07-05T20:18:09.817307",
      "2022-07-05T20:18:12.133022",
      "2022-07-05T20:18:14.629333",
      "2022-07-05T20:18:16.947639",
      "2022-07-05T20:18:19.191098",
      "2022-07-05T20:18:21.842232",
      "2022-07-05T20:18:24.317846",
      "2022-07-05T20:18:26.742812",
      "2022-07-05T20:18:29.354451",
      "2022-07-05T20:18:31.869714",
      "2022-07-05T20:18:34.385070",
      "2022-07-05T20:18:36.614195",
      "2022-07-05T20:18:38.876795",
      "2022-07-05T20:18:41.433434",
      "2022-07-05T20:18:43.809964",
      "2022-07-05T20:18:46.363906",
      "2022-07-05T20:18:48.925934",
      "2022-07-05T20:18:51.321093",
      "2022-07-05T20:18:53.731176",
      "2022-07-05T20:18:56.281294",
      "2022-07-05T20:18:59.002889",
      "2022-07-05T20:19:01.804855",
      "2022-07-05T20:19:04.439966",
      "2022-07-05T20:19:06.737190",
      "2022-07-05T20:19:09.086986",
      "2022-07-05T20:19:11.508278",
      "2022-07-05T20:19:14.008425",
      "2022-07-05T20:19:16.314254",
      "2022-07-05T20:19:18.773296",
      "2022-07-05T20:19:21.324224",
      "2022-07-05T20:19:23.855478"
    ],
    "values": [
      46.02577037067118,
      42.00358355723447,
      41.64026330443295,
      41.09509854314628,
      41.01139547531236,
      41.01269088946572,
      40.87985159280073,
      40.7813562819518,
      40.817366862779075,
      40.705001607892584,
      40.77034972251723,
      40.67437843060602,
      40.634337949087445,
      40.59653917267738,
      40.68874481396223,
      40.66435356261611,
      40.56897331550584,
      40.54741059139499,
      40.45150346313314,
      40.57296747186764,
      40.577677739700974,
      40.587155286692784,
      40.533979615277765,
      40.49785182324841,
      40.58174856901838,
      40.4792886517093,
      40.46366375921025,
      40.55594134952473,
      40.42404764408034,
      40.461543718071006,
      40.39260466475113,
      40.48618635496322,
      40.45372852679375,
      40.46094768856437,
      40.39692066141642,
      40.44352529073195,
      40.4012688995703,
      40.377815745695685,
      40.38567162894563,
      40.456642801936155,
      40.436543336956845,
      40.41641804394136,
      40.450195920894444,
      40.39554501206683,
      40.4017073587735,
      40.45932010820308,
      40.35601392587662,
      40.45286657946603,
      40.408896358285226,
      40.397959721341635,
      40.42860530386249,
      40.50558131080832,
      40.38586281019312,
      40.46160511318683,
      40.43871557586371,
      40.474045529044275,
      40.396040343748034,
      40.38968282897966,
      40.36874842686465,
      40.45158801500301,
      40.39391747408407,
      40.397878963193705,
      40.39710691338921,
      40.33243507754052,
      40.40055881249942,
      40.37722235549536,
      40.3493588642323,
      40.410672112447145,
      40.38079217151399,
      40.40476867770694,
      40.34932205123791,
      40.37807708461661,
      40.3477110365242,
      40.39432943291263,
      40.35750405577529,
      40.3548125919025,
      40.38183430271519,
      40.28490983590669,
      40.46025529719515,
      40.38892009252064,
      40.39443353870516,
      40.3494588406857,
      40.36571562525453,
      40.42441524194379,
      40.38350862834748,
      40.329585362957644,
      40.34012524584088,
      40.329570139449515,
      40.302113145096634,
      40.399110934833125,
      40.30645300413603,
      40.32148759404914,
      40.35014421170444,
      40.37291383986458,
      40.333814473240274,
      40.311648012208764,
      40.3152290317181,
      40.47029698486289,
      40.34234483872052,
      40.336239142678295,
      40.404612186308924,
      40.30897187506356,
      40.3216326254222,
      40.348762221741175,
      40.317481091385275,
      40.36367575096991,
      40.344822273515575,
      40.36237736927507,
      40.361242385967294,
      40.424267802480074,
      40.33330073139056,
      40.32763719882544,
      40.188107750945214,
      40.17653970110263,
      40.17956403614087,
      40.18653690001903,
      40.17900300937863,
      40.171646531705996,
      40.18104669356566,
      40.18115154118973,
      40.193580530535215,
      40.17322759146199,
      40.17717001799794,
      40.17754758922481,
      40.17838509048303,
      40.17417459746805,
      40.18727865050874,
      40.17841604523958,
      40.18065355835019,
      40.16869001028586,
      40.175728102927664,
      40.17319104658548,
      40.17754231059149,
      40.18173443747712,
      40.184970157375254,
      40.182249217301795,
      40.17437268475124,
      40.161271147592814,
      40.16358892911458,
      40.160083992538745,
      40.161166469117326,
      40.161852405106345,
      40.16049808463553,
      40.1604566054251,
      40.16090617949828,
      40.161338436194505,
      40.15930433067047,
      40.160424653931315,
      40.16203016209533,
      40.15965717001832,
      40.160423966863284,
      40.16106694320488,
      40.16046263111385,
      40.159392809029384,
      40.160844530878464,
      40.16039201868708,
      40.16092076805975,
      40.16053662521884,
      40.16129359039095,
      40.16026566373305,
      40.160171591161884,
      40.160590784327994,
      40.16049536670954,
      40.16033943888185,
      40.16016911069904,
      40.16017330651317,
      40.16009396652259,
      40.16014940472417,
      40.15997084788488,
      40.16009084457461,
      40.16007741927659,
      40.159903487470054,
      40.159834224754306,
      40.159969171540986,
      40.15993178757926,
      40.159927896754915,
      40.15998332967583,
      40.15988955872289,
      40.15987905250566,
      40.1599300217602,
      40.15995338502583,
      40.15997661097173,
      40.16004544059004,
      40.16013441361499,
      40.160179478596916,
      40.160193462275814,
      40.16018125634367,
      40.160168613722504,
      40.1601534310451,
      40.1601338928803,
      40.16011342509675,
      40.160103674430815,
      40.160078751616695,
      40.16006111058213,
      40.160042555741285,
      40.16003513118217,
      40.160018768777014,
      40.16000532767241,
      40.15999510713496,
      40.159982974542054,
      40.15998868420103,
      40.15997974726111,
      40.15997810293043,
      40.15998113882797,
      40.159974622049546,
      40.15998518424808,
      40.159995526557125,
      40.16000432272406,
      40.16000997890481,
      40.160027229292155,
      40.16001589152786,
      40.160022906447196,
      40.1600093684143,
      40.160004858790195,
      40.15999129264653,
      40.16000167309417,
      40.159983435468,
      40.159987692586725,
      40.15996938732827,
      40.15997198983619,
      40.15996445372206,
      40.15995766654869,
      40.159950754318864,
      40.159944514792095,
      40.15992384512053,
      40.159921931426595,
      40.15992456196863,
      40.159929992265845,
      40.159920463981884,
      40.1599137563526,
      40.15992306165206,
      40.15994094028957,
      40.15996891730714,
      40.159974311814125,
      40.159991782559665,
      40.15998386909091,
      40.15998736029473,
      40.159978493382226,
      40.159959723653785,
      40.15996779034848,
      40.15995973704892,
      40.1599571656203,
      40.15994098181116,
      40.15993716467951,
      40.15994136739374,
      40.15993653234892,
      40.15993509003673,
      40.159932281734484,
      40.15991990850362,
      40.15992736612261,
      40.159921615405935,
      40.15991253126245,
      40.15990691374819,
      40.15990560317553,
      40.15990274294752,
      40.15990778354548,
      40.15989395454319,
      40.15989612806435,
      40.159905270611205,
      40.15989293358323,
      40.15989849249194,
      40.15990338330488,
      40.15991519539332,
      40.15993573135239,
      40.15995474608537,
      40.15994169287775,
      40.15995871452058,
      40.15995195383218,
      40.15996676989806,
      40.15994541365073,
      40.159958091765205,
      40.15994614939673,
      40.15995629754278,
      40.15994030103416,
      40.15993079288,
      40.15992833743464,
      40.15993047421076,
      40.159935460690356,
      40.15991288067415,
      40.15993352531991,
      40.159936066650154,
      40.15993063367998,
      40.15993059880479,
      40.15992507118713,
      40.15994536915437,
      40.1599479256425,
      40.159955006337206,
      40.159953469778344,
      40.15995352485986,
      40.15996263990728,
      40.1599581684406,
      40.15997278283385,
      40.159968095552706,
      40.15997780606015,
      40.15997896993548,
      40.15997260306648,
      40.15996163248506,
      40.15998430136774,
      40.159967824197906,
      40.1599712662364
    ]
  }
}