{
  "test": {
    "steps": [
      0
    ],
    "timestamps": [
      "2022-08-14T20:37:56.213402"
    ],
    "values": [
      1.320905701724927
    ]
  },
  "train": {
    "steps": [
      0,
      1,
      2,
      3,
      4,
      5,
      6,
      7,
      8,
      9,
      10,
      11,
      12,
      13,
      14,
      15,
      16,
      17,
      18,
      19,
      20,
      21,
      22,
      23,
      24,
      25,
      26,
      27,
      28,
      29,
      30,
      31,
      32,
      33,
      34,
      35,
      36,
      37,
      38,
      39,
      40,
      41,
      42,
      43,
      44,
      45,
      46,
      47,
      48,
      49,
      50,
      51,
      52,
      53,
      54,
      55,
      56,
      57,
      58,
      59,
      60,
      61,
      62,
      63,
      64,
      65,
      66,
      67,
      68,
      69,
      70,
      71,
      72,
      73,
      74,
      75,
      76,
      77,
      78,
      79,
      80,
      81,
      82,
      83,
      84,
      85,
      86,
      87,
      88,
      89,
      90,
      91,
      92,
      93,
      94,
      95,
      96,
      97,
      98,
      99,
      100,
      101,
      102,
      103,
      104,
      105,
      106,
      107,
      108,
      109,
      110,
      111,
      112,
      113,
      114,
      115,
      116,
      117,
      118,
      119,
      120,
      121,
      122,
      123,
      124,
      125,
      126,
      127,
      128,
      129,
      130,
      131,
      132,
      133,
      134,
      135,
      136,
      137,
      138,
      139,
      140,
      141,
      142,
      143,
      144,
      145,
      146,
      147,
      148,
      149,
      150,
      151,
      152,
      153,
      154,
      155,
      156,
      157,
      158,
      159,
      160,
      161,
      162,
      163,
      164,
      165,
      166,
      167,
      168,
      169,
      170,
      171,
      172,
      173,
      174,
      175,
      176,
      177,
      178,
      179,
      180,
      181,
      182,
      183,
      184,
      185,
      186,
      187,
      188,
      189,
      190,
      191,
      192,
      193,
      194,
      195,
      196,
      197,
      198,
      199,
      200,
      201,
      202,
      203,
      204,
      205,
      206,
      207,
      208,
      209,
      210,
      211,
      212,
      213,
      214,
      215,
      216,
      217,
      218,
      219,
      220,
      221,
      222,
      223,
      224,
      225,
      226,
      227,
      228,
      229,
      230,
      231,
      232,
      233,
      234,
      235,
      236,
      237,
      238,
      239,
      240,
      241,
      242,
      243,
      244,
      245,
      246,
      247,
      248,
      249,
      250,
      251,
      252,
      253,
      254,
      255,
      256,
      257,
      258,
      259,
      260,
      261,
      262,
      263,
      264,
      265,
      266,
      267,
      268,
      269,
      270,
      271,
      272,
      273,
      274,
      275,
      276,
      277,
      278,
      279,
      280,
      281,
      282,
      283,
      284,
      285,
      286,
      287,
      288,
      289,
      290,
      291,
      292,
      293,
      294,
      295,
      296,
      297,
      298,
      299,
      300,
      301,
      302,
      303,
      304,
      305,
      306,
      307,
      308,
      309,
      310,
      311,
      312,
      313,
      314,
      315,
      316,
      317,
      318,
      319,
      320,
      321,
      322,
      323,
      324,
      325,
      326,
      327,
      328,
      329,
      330,
      331,
      332,
      333,
      334,
      335,
      336,
      337,
      338,
      339,
      340,
      341,
      342,
      343,
      344,
      345,
      346,
      347,
      348,
      349,
      350,
      351,
      352,
      353,
      354,
      355,
      356,
      357,
      358,
      359,
      360,
      361,
      362,
      363,
      364,
      365,
      366,
      367,
      368,
      369,
      370,
      371,
      372,
      373,
      374,
      375,
      376,
      377,
      378,
      379,
      380,
      381,
      382,
      383,
      384,
      385,
      386,
      387,
      388,
      389,
      390,
      391,
      392,
      393,
      394,
      395,
      396,
      397,
      398,
      399,
      400,
      401,
      402,
      403,
      404,
      405,
      406,
      407,
      408,
      409,
      410,
      411,
      412,
      413,
      414,
      415,
      416,
      417,
      418,
      419,
      420,
      421,
      422,
      423,
      424,
      425,
      426,
      427,
      428,
      429,
      430,
      431,
      432,
      433,
      434,
      435,
      436,
      437,
      438,
      439,
      440,
      441,
      442,
      443,
      444,
      445,
      446,
      447,
      448,
      449
    ],
    "timestamps": [
      "2022-08-14T20:16:53.909412",
      "2022-08-14T20:16:56.504880",
      "2022-08-14T20:17:00.277379",
      "2022-08-14T20:17:03.000026",
      "2022-08-14T20:17:05.782398",
      "2022-08-14T20:17:08.497998",
      "2022-08-14T20:17:11.163832",
      "2022-08-14T20:17:13.832739",
      "2022-08-14T20:17:16.492897",
      "2022-08-14T20:17:19.164409",
      "2022-08-14T20:17:21.833427",
      "2022-08-14T20:17:24.489758",
      "2022-08-14T20:17:27.157539",
      "2022-08-14T20:17:29.829762",
      "2022-08-14T20:17:32.494502",
      "2022-08-14T20:17:35.148111",
      "2022-08-14T20:17:37.797550",
      "2022-08-14T20:17:40.453048",
      "2022-08-14T20:17:43.106370",
      "2022-08-14T20:17:45.782806",
      "2022-08-14T20:17:48.456951",
      "2022-08-14T20:17:51.129261",
      "2022-08-14T20:17:53.783749",
      "2022-08-14T20:17:56.452646",
      "2022-08-14T20:17:59.141406",
      "2022-08-14T20:18:01.841760",
      "2022-08-14T20:18:04.556447",
      "2022-08-14T20:18:07.243606",
      "2022-08-14T20:18:09.967605",
      "2022-08-14T20:18:12.747472",
      "2022-08-14T20:18:15.577756",
      "2022-08-14T20:18:18.255425",
      "2022-08-14T20:18:20.930595",
      "2022-08-14T20:18:23.595200",
      "2022-08-14T20:18:26.256950",
      "2022-08-14T20:18:28.923678",
      "2022-08-14T20:18:31.605140",
      "2022-08-14T20:18:34.283108",
      "2022-08-14T20:18:37.095750",
      "2022-08-14T20:18:39.776423",
      "2022-08-14T20:18:42.456925",
      "2022-08-14T20:18:45.223810",
      "2022-08-14T20:18:47.933204",
      "2022-08-14T20:18:50.653449",
      "2022-08-14T20:18:53.397062",
      "2022-08-14T20:18:56.052005",
      "2022-08-14T20:18:58.825704",
      "2022-08-14T20:19:01.727349",
      "2022-08-14T20:19:04.400608",
      "2022-08-14T20:19:07.080905",
      "2022-08-14T20:19:09.816884",
      "2022-08-14T20:19:12.601094",
      "2022-08-14T20:19:15.318861",
      "2022-08-14T20:19:18.038313",
      "2022-08-14T20:19:20.783490",
      "2022-08-14T20:19:23.545188",
      "2022-08-14T20:19:26.410514",
      "2022-08-14T20:19:29.498648",
      "2022-08-14T20:19:32.740388",
      "2022-08-14T20:19:35.826813",
      "2022-08-14T20:19:38.796433",
      "2022-08-14T20:19:41.475960",
      "2022-08-14T20:19:44.153350",
      "2022-08-14T20:19:46.840438",
      "2022-08-14T20:19:49.515673",
      "2022-08-14T20:19:52.251471",
      "2022-08-14T20:19:54.922246",
      "2022-08-14T20:19:57.612108",
      "2022-08-14T20:20:00.290114",
      "2022-08-14T20:20:03.087429",
      "2022-08-14T20:20:05.837807",
      "2022-08-14T20:20:08.620537",
      "2022-08-14T20:20:11.420862",
      "2022-08-14T20:20:14.253814",
      "2022-08-14T20:20:17.066976",
      "2022-08-14T20:20:19.867167",
      "2022-08-14T20:20:22.535436",
      "2022-08-14T20:20:25.229320",
      "2022-08-14T20:20:27.919930",
      "2022-08-14T20:20:30.605042",
      "2022-08-14T20:20:33.283648",
      "2022-08-14T20:20:36.126404",
      "2022-08-14T20:20:38.892895",
      "2022-08-14T20:20:41.646182",
      "2022-08-14T20:20:44.328999",
      "2022-08-14T20:20:47.371627",
      "2022-08-14T20:20:50.296968",
      "2022-08-14T20:20:52.977470",
      "2022-08-14T20:20:55.663797",
      "2022-08-14T20:20:58.348481",
      "2022-08-14T20:21:01.033838",
      "2022-08-14T20:21:03.714691",
      "2022-08-14T20:21:06.397468",
      "2022-08-14T20:21:09.075684",
      "2022-08-14T20:21:11.757771",
      "2022-08-14T20:21:14.434253",
      "2022-08-14T20:21:17.098432",
      "2022-08-14T20:21:19.762446",
      "2022-08-14T20:21:22.429461",
      "2022-08-14T20:21:25.227165",
      "2022-08-14T20:21:27.985972",
      "2022-08-14T20:21:30.653321",
      "2022-08-14T20:21:33.326677",
      "2022-08-14T20:21:36.006317",
      "2022-08-14T20:21:38.762382",
      "2022-08-14T20:21:41.458709",
      "2022-08-14T20:21:44.170153",
      "2022-08-14T20:21:46.887032",
      "2022-08-14T20:21:49.590870",
      "2022-08-14T20:21:52.262021",
      "2022-08-14T20:21:54.956254",
      "2022-08-14T20:21:57.695931",
      "2022-08-14T20:22:00.373068",
      "2022-08-14T20:22:03.060354",
      "2022-08-14T20:22:05.770274",
      "2022-08-14T20:22:08.607310",
      "2022-08-14T20:22:11.405019",
      "2022-08-14T20:22:14.100446",
      "2022-08-14T20:22:16.840905",
      "2022-08-14T20:22:19.553966",
      "2022-08-14T20:22:22.266617",
      "2022-08-14T20:22:25.080885",
      "2022-08-14T20:22:28.081119",
      "2022-08-14T20:22:31.067552",
      "2022-08-14T20:22:34.146850",
      "2022-08-14T20:22:37.201906",
      "2022-08-14T20:22:40.297478",
      "2022-08-14T20:22:43.046656",
      "2022-08-14T20:22:45.727902",
      "2022-08-14T20:22:48.433549",
      "2022-08-14T20:22:51.224933",
      "2022-08-14T20:22:54.086738",
      "2022-08-14T20:22:57.714805",
      "2022-08-14T20:23:01.647349",
      "2022-08-14T20:23:05.800753",
      "2022-08-14T20:23:09.515119",
      "2022-08-14T20:23:13.236197",
      "2022-08-14T20:23:16.906820",
      "2022-08-14T20:23:20.537663",
      "2022-08-14T20:23:24.190663",
      "2022-08-14T20:23:27.833440",
      "2022-08-14T20:23:30.986509",
      "2022-08-14T20:23:33.701069",
      "2022-08-14T20:23:36.411407",
      "2022-08-14T20:23:39.125455",
      "2022-08-14T20:23:41.843505",
      "2022-08-14T20:23:44.640718",
      "2022-08-14T20:23:47.403694",
      "2022-08-14T20:23:50.119493",
      "2022-08-14T20:23:52.837028",
      "2022-08-14T20:23:55.537339",
      "2022-08-14T20:23:58.241573",
      "2022-08-14T20:24:00.950090",
      "2022-08-14T20:24:04.011059",
      "2022-08-14T20:24:06.935557",
      "2022-08-14T20:24:09.704667",
      "2022-08-14T20:24:12.443428",
      "2022-08-14T20:24:15.333351",
      "2022-08-14T20:24:18.569837",
      "2022-08-14T20:24:21.493809",
      "2022-08-14T20:24:24.428083",
      "2022-08-14T20:24:27.418677",
      "2022-08-14T20:24:30.701866",
      "2022-08-14T20:24:34.257143",
      "2022-08-14T20:24:36.992394",
      "2022-08-14T20:24:39.752945",
      "2022-08-14T20:24:42.661024",
      "2022-08-14T20:24:45.463903",
      "2022-08-14T20:24:48.250254",
      "2022-08-14T20:24:51.190932",
      "2022-08-14T20:24:53.962011",
      "2022-08-14T20:24:56.751089",
      "2022-08-14T20:24:59.494772",
      "2022-08-14T20:25:02.221852",
      "2022-08-14T20:25:04.964413",
      "2022-08-14T20:25:07.660306",
      "2022-08-14T20:25:10.366392",
      "2022-08-14T20:25:13.233420",
      "2022-08-14T20:25:16.247903",
      "2022-08-14T20:25:18.933050",
      "2022-08-14T20:25:21.612939",
      "2022-08-14T20:25:24.284027",
      "2022-08-14T20:25:26.958164",
      "2022-08-14T20:25:29.632540",
      "2022-08-14T20:25:32.456777",
      "2022-08-14T20:25:35.892053",
      "2022-08-14T20:25:38.999379",
      "2022-08-14T20:25:42.125361",
      "2022-08-14T20:25:45.122848",
      "2022-08-14T20:25:48.100394",
      "2022-08-14T20:25:51.183786",
      "2022-08-14T20:25:53.895134",
      "2022-08-14T20:25:56.563530",
      "2022-08-14T20:25:59.234422",
      "2022-08-14T20:26:01.900227",
      "2022-08-14T20:26:04.581331",
      "2022-08-14T20:26:07.239177",
      "2022-08-14T20:26:09.935631",
      "2022-08-14T20:26:12.601926",
      "2022-08-14T20:26:15.444069",
      "2022-08-14T20:26:18.196107",
      "2022-08-14T20:26:21.181598",
      "2022-08-14T20:26:24.123258",
      "2022-08-14T20:26:27.185788",
      "2022-08-14T20:26:30.449486",
      "2022-08-14T20:26:33.457611",
      "2022-08-14T20:26:36.445019",
      "2022-08-14T20:26:39.481236",
      "2022-08-14T20:26:42.427791",
      "2022-08-14T20:26:45.524043",
      "2022-08-14T20:26:48.508773",
      "2022-08-14T20:26:51.801147",
      "2022-08-14T20:26:54.781938",
      "2022-08-14T20:26:57.476784",
      "2022-08-14T20:27:00.225151",
      "2022-08-14T20:27:02.989660",
      "2022-08-14T20:27:05.702595",
      "2022-08-14T20:27:08.426617",
      "2022-08-14T20:27:11.145357",
      "2022-08-14T20:27:13.876717",
      "2022-08-14T20:27:16.604934",
      "2022-08-14T20:27:19.322034",
      "2022-08-14T20:27:22.043903",
      "2022-08-14T20:27:24.755832",
      "2022-08-14T20:27:27.475012",
      "2022-08-14T20:27:30.187560",
      "2022-08-14T20:27:32.931533",
      "2022-08-14T20:27:35.662613",
      "2022-08-14T20:27:38.784318",
      "2022-08-14T20:27:41.754900",
      "2022-08-14T20:27:44.837539",
      "2022-08-14T20:27:48.097968",
      "2022-08-14T20:27:51.212196",
      "2022-08-14T20:27:54.176442",
      "2022-08-14T20:27:57.160512",
      "2022-08-14T20:28:00.030554",
      "2022-08-14T20:28:03.123601",
      "2022-08-14T20:28:05.867007",
      "2022-08-14T20:28:08.611801",
      "2022-08-14T20:28:11.367306",
      "2022-08-14T20:28:14.218809",
      "2022-08-14T20:28:17.009778",
      "2022-08-14T20:28:19.785079",
      "2022-08-14T20:28:22.538699",
      "2022-08-14T20:28:25.419527",
      "2022-08-14T20:28:28.156581",
      "2022-08-14T20:28:30.888572",
      "2022-08-14T20:28:33.771836",
      "2022-08-14T20:28:36.480992",
      "2022-08-14T20:28:39.145244",
      "2022-08-14T20:28:41.837791",
      "2022-08-14T20:28:44.538378",
      "2022-08-14T20:28:47.199444",
      "2022-08-14T20:28:49.892612",
      "2022-08-14T20:28:52.578453",
      "2022-08-14T20:28:55.258442",
      "2022-08-14T20:28:57.956553",
      "2022-08-14T20:29:00.627858",
      "2022-08-14T20:29:03.310447",
      "2022-08-14T20:29:06.044381",
      "2022-08-14T20:29:08.724772",
      "2022-08-14T20:29:11.442772",
      "2022-08-14T20:29:14.269376",
      "2022-08-14T20:29:17.183045",
      "2022-08-14T20:29:20.307446",
      "2022-08-14T20:29:23.375854",
      "2022-08-14T20:29:26.406303",
      "2022-08-14T20:29:29.378726",
      "2022-08-14T20:29:32.338133",
      "2022-08-14T20:29:35.060778",
      "2022-08-14T20:29:37.807155",
      "2022-08-14T20:29:40.571734",
      "2022-08-14T20:29:43.359824",
      "2022-08-14T20:29:46.087089",
      "2022-08-14T20:29:48.804985",
      "2022-08-14T20:29:51.517690",
      "2022-08-14T20:29:54.233723",
      "2022-08-14T20:29:57.054754",
      "2022-08-14T20:29:59.997734",
      "2022-08-14T20:30:02.797109",
      "2022-08-14T20:30:05.629998",
      "2022-08-14T20:30:08.378718",
      "2022-08-14T20:30:11.091797",
      "2022-08-14T20:30:13.809767",
      "2022-08-14T20:30:16.515345",
      "2022-08-14T20:30:19.279060",
      "2022-08-14T20:30:21.997696",
      "2022-08-14T20:30:24.705641",
      "2022-08-14T20:30:27.406840",
      "2022-08-14T20:30:30.109855",
      "2022-08-14T20:30:32.840622",
      "2022-08-14T20:30:35.546906",
      "2022-08-14T20:30:38.278027",
      "2022-08-14T20:30:41.018841",
      "2022-08-14T20:30:43.722801",
      "2022-08-14T20:30:46.406088",
      "2022-08-14T20:30:49.109191",
      "2022-08-14T20:30:51.806830",
      "2022-08-14T20:30:54.510578",
      "2022-08-14T20:30:57.206699",
      "2022-08-14T20:30:59.916947",
      "2022-08-14T20:31:02.611806",
      "2022-08-14T20:31:05.311695",
      "2022-08-14T20:31:08.187480",
      "2022-08-14T20:31:11.093778",
      "2022-08-14T20:31:14.418111",
      "2022-08-14T20:31:17.260710",
      "2022-08-14T20:31:20.058227",
      "2022-08-14T20:31:23.014906",
      "2022-08-14T20:31:25.742103",
      "2022-08-14T20:31:28.497474",
      "2022-08-14T20:31:31.292601",
      "2022-08-14T20:31:34.104226",
      "2022-08-14T20:31:37.006605",
      "2022-08-14T20:31:40.001836",
      "2022-08-14T20:31:42.806169",
      "2022-08-14T20:31:45.590921",
      "2022-08-14T20:31:48.702839",
      "2022-08-14T20:31:51.548185",
      "2022-08-14T20:31:54.603553",
      "2022-08-14T20:31:57.335830",
      "2022-08-14T20:32:00.226969",
      "2022-08-14T20:32:03.050706",
      "2022-08-14T20:32:05.895412",
      "2022-08-14T20:32:08.662789",
      "2022-08-14T20:32:11.760200",
      "2022-08-14T20:32:14.541954",
      "2022-08-14T20:32:17.347075",
      "2022-08-14T20:32:20.087618",
      "2022-08-14T20:32:23.679585",
      "2022-08-14T20:32:26.812525",
      "2022-08-14T20:32:29.576201",
      "2022-08-14T20:32:32.417153",
      "2022-08-14T20:32:35.296083",
      "2022-08-14T20:32:38.279574",
      "2022-08-14T20:32:41.035557",
      "2022-08-14T20:32:43.800435",
      "2022-08-14T20:32:46.520753",
      "2022-08-14T20:32:49.237388",
      "2022-08-14T20:32:51.941676",
      "2022-08-14T20:32:54.691272",
      "2022-08-14T20:32:57.395805",
      "2022-08-14T20:33:00.107940",
      "2022-08-14T20:33:02.860708",
      "2022-08-14T20:33:05.585757",
      "2022-08-14T20:33:08.314654",
      "2022-08-14T20:33:11.045355",
      "2022-08-14T20:33:13.863405",
      "2022-08-14T20:33:16.588140",
      "2022-08-14T20:33:19.265144",
      "2022-08-14T20:33:21.961094",
      "2022-08-14T20:33:24.635865",
      "2022-08-14T20:33:27.307040",
      "2022-08-14T20:33:30.167893",
      "2022-08-14T20:33:32.879935",
      "2022-08-14T20:33:35.610976",
      "2022-08-14T20:33:38.344798",
      "2022-08-14T20:33:41.114271",
      "2022-08-14T20:33:43.897966",
      "2022-08-14T20:33:46.772562",
      "2022-08-14T20:33:49.646485",
      "2022-08-14T20:33:52.534114",
      "2022-08-14T20:33:55.539678",
      "2022-08-14T20:33:58.474349",
      "2022-08-14T20:34:01.421942",
      "2022-08-14T20:34:04.416463",
      "2022-08-14T20:34:07.429000",
      "2022-08-14T20:34:10.445487",
      "2022-08-14T20:34:13.221665",
      "2022-08-14T20:34:15.991856",
      "2022-08-14T20:34:18.691179",
      "2022-08-14T20:34:21.401911",
      "2022-08-14T20:34:24.116202",
      "2022-08-14T20:34:26.898323",
      "2022-08-14T20:34:29.638142",
      "2022-08-14T20:34:32.322897",
      "2022-08-14T20:34:34.996305",
      "2022-08-14T20:34:37.787023",
      "2022-08-14T20:34:40.655931",
      "2022-08-14T20:34:43.368495",
      "2022-08-14T20:34:46.065797",
      "2022-08-14T20:34:48.750974",
      "2022-08-14T20:34:51.496450",
      "2022-08-14T20:34:54.174414",
      "2022-08-14T20:34:56.856093",
      "2022-08-14T20:34:59.529989",
      "2022-08-14T20:35:02.219859",
      "2022-08-14T20:35:04.889046",
      "2022-08-14T20:35:07.538850",
      "2022-08-14T20:35:10.215072",
      "2022-08-14T20:35:12.910677",
      "2022-08-14T20:35:15.579827",
      "2022-08-14T20:35:18.387926",
      "2022-08-14T20:35:21.459211",
      "2022-08-14T20:35:24.297644",
      "2022-08-14T20:35:26.982254",
      "2022-08-14T20:35:29.760089",
      "2022-08-14T20:35:32.854059",
      "2022-08-14T20:35:36.025255",
      "2022-08-14T20:35:38.927373",
      "2022-08-14T20:35:41.613489",
      "2022-08-14T20:35:44.307094",
      "2022-08-14T20:35:46.969518",
      "2022-08-14T20:35:49.676972",
      "2022-08-14T20:35:52.385381",
      "2022-08-14T20:35:55.149993",
      "2022-08-14T20:35:57.839548",
      "2022-08-14T20:36:00.544533",
      "2022-08-14T20:36:03.252478",
      "2022-08-14T20:36:05.917163",
      "2022-08-14T20:36:08.586462",
      "2022-08-14T20:36:11.272334",
      "2022-08-14T20:36:14.117295",
      "2022-08-14T20:36:16.842037",
      "2022-08-14T20:36:19.592224",
      "2022-08-14T20:36:22.294215",
      "2022-08-14T20:36:25.384925",
      "2022-08-14T20:36:28.400889",
      "2022-08-14T20:36:31.391635",
      "2022-08-14T20:36:34.153916",
      "2022-08-14T20:36:36.960502",
      "2022-08-14T20:36:39.750245",
      "2022-08-14T20:36:42.418572",
      "2022-08-14T20:36:45.100492",
      "2022-08-14T20:36:47.773278",
      "2022-08-14T20:36:50.509319",
      "2022-08-14T20:36:53.225404",
      "2022-08-14T20:36:55.949055",
      "2022-08-14T20:36:58.633515",
      "2022-08-14T20:37:01.303398",
      "2022-08-14T20:37:03.987452",
      "2022-08-14T20:37:06.639283",
      "2022-08-14T20:37:09.308022",
      "2022-08-14T20:37:11.996303",
      "2022-08-14T20:37:14.714825",
      "2022-08-14T20:37:17.430351",
      "2022-08-14T20:37:20.135594",
      "2022-08-14T20:37:22.865167",
      "2022-08-14T20:37:25.568308",
      "2022-08-14T20:37:28.293373",
      "2022-08-14T20:37:31.048904",
      "2022-08-14T20:37:33.770549",
      "2022-08-14T20:37:36.478550",
      "2022-08-14T20:37:39.199992",
      "2022-08-14T20:37:41.916843",
      "2022-08-14T20:37:44.639429",
      "2022-08-14T20:37:47.342592",
      "2022-08-14T20:37:50.048742",
      "2022-08-14T20:37:52.782927",
      "2022-08-14T20:37:55.489376"
    ],
    "values": [
      17.74551947357507,
      7.518938594905918,
      6.067078004470023,
      5.394194494257147,
      4.125648159437667,
      3.370698132603092,
      3.236877835208034,
      3.0995092093146392,
      2.8811377812096617,
      2.6970540231223015,
      2.742384456160849,
      2.562243838255654,
      2.5591627015094325,
      2.4571214890875863,
      2.379344255276585,
      2.2742915753848685,
      2.439463716235102,
      2.259021199619198,
      2.2123562381151847,
      2.300735538811705,
      2.2836311557152404,
      2.194917985631144,
      2.2127400774860404,
      2.1336012414727934,
      2.115771857147097,
      2.165168364276711,
      2.192296097460548,
      2.0641865203051086,
      2.1059275718599513,
      2.0641551642891898,
      2.1266075048590634,
      2.0054215836781775,
      2.132055127901993,
      2.113794723283353,
      2.071377784873345,
      2.0184105279068856,
      2.0925165275709063,
      2.0219833603725,
      1.9249939986154836,
      1.9710925945682833,
      2.0085983597919776,
      2.050688269540574,
      2.0501445789343617,
      1.897697198316843,
      1.9947878924857592,
      1.9462902234907922,
      1.9401500018045263,
      1.9896416913324224,
      1.90052010582972,
      1.8905278213065515,
      1.9313413513252382,
      1.9178849638686142,
      1.9092957275086615,
      2.022711401958047,
      1.8723908802015332,
      1.8812712788308528,
      1.8788753536818834,
      1.900880648855966,
      1.8852015994293583,
      1.8655779255980696,
      1.9196588564723414,
      1.9701889228476812,
      1.8844287048992985,
      1.9154360341155579,
      1.8436813297065189,
      1.980330181901403,
      1.824643874052593,
      1.932614568091989,
      1.8357599978754804,
      1.8306930164018018,
      1.8892818739297306,
      1.8575506673450628,
      1.9339022930858512,
      1.8635698977590553,
      1.8715356563335135,
      1.884584549396898,
      1.9093944777779408,
      1.8355073253091092,
      1.7335253641805457,
      1.780967284222354,
      1.806216896858006,
      1.8024267940755734,
      1.8098606142041236,
      1.9453425524914534,
      1.8591798266361002,
      1.9155680352075808,
      1.8890651631463615,
      1.8618553561588767,
      1.8229242194515518,
      1.76630506947173,
      1.7919703550640422,
      1.7482557933786578,
      1.7753818785549123,
      1.7194099698997123,
      1.8579916309310847,
      1.7764506968723834,
      1.7695073139083795,
      1.837775480527887,
      1.7528224617393928,
      1.823480588316354,
      1.7947136943655428,
      1.7877356951997552,
      1.7605506855809718,
      1.7178690699922643,
      1.7824830682411126,
      1.7647810071867656,
      1.682958905189359,
      1.7283529118021617,
      1.8423708672304964,
      1.7203368618108272,
      1.8141308639760978,
      1.7807262022872368,
      1.752866358903581,
      1.7098313423723235,
      1.7528961755975339,
      1.6938187200069197,
      1.7078922965431675,
      1.8182691831551392,
      1.7615528307561104,
      1.707383183714191,
      1.7605352613931728,
      1.7870806651390583,
      1.835739929315352,
      1.6833334762569323,
      1.7025220134189656,
      1.766311344642327,
      1.7172433929524644,
      1.7054842915327697,
      1.4695819364212321,
      1.439149108973477,
      1.4398216839940223,
      1.4326721560746092,
      1.435300124896649,
      1.4265401206856603,
      1.4308937040823837,
      1.4273917049518832,
      1.425209069024487,
      1.427656279953433,
      1.4323110647534543,
      1.430758057439452,
      1.4358338954295689,
      1.428074688950539,
      1.430503810416357,
      1.435237493618468,
      1.4333830801375504,
      1.4385759499974344,
      1.423722592383119,
      1.4325190192229353,
      1.4347442694220467,
      1.4432852678761803,
      1.4261974058509523,
      1.4314642978910244,
      1.427140942233433,
      1.4267281839172166,
      1.4425816914689185,
      1.437994551115334,
      1.4283837110828272,
      1.4270338910748808,
      1.4211543331001795,
      1.4405832865184607,
      1.4196823176607238,
      1.4382008154761339,
      1.4208540017169855,
      1.4285993079842267,
      1.4379978785073595,
      1.4189301930431912,
      1.4339949717534701,
      1.4254513836736522,
      1.4256872023863076,
      1.4153339394282187,
      1.4235596974291622,
      1.4124456853142806,
      1.435073059593009,
      1.416276314436797,
      1.4137683322751329,
      1.4211060512411087,
      1.4304403988217715,
      1.417285197100613,
      1.4206483744838476,
      1.412156627625198,
      1.4206073132310626,
      1.4200659878721522,
      1.4177505772670056,
      1.4267998629191772,
      1.4194952615387886,
      1.409752560165031,
      1.4182122587270316,
      1.4080652273189178,
      1.4071343854407112,
      1.4040167123465972,
      1.4289697538340045,
      1.4254512437888942,
      1.4207248676683648,
      1.4079137770073915,
      1.4040062360514054,
      1.4105152128337617,
      1.4207289980733457,
      1.4033717137939654,
      1.4110077454621046,
      1.4071931662942112,
      1.4102306098186224,
      1.4166420054509457,
      1.4049007183588322,
      1.4108523915572528,
      1.4069139742492618,
      1.4012184278428368,
      1.4118500137335528,
      1.4096140607807612,
      1.4129713378378193,
      1.3911328570401247,
      1.398320625900628,
      1.3984801535876181,
      1.420336692852953,
      1.4084842775489763,
      1.4020238781268324,
      1.4198489318681038,
      1.4121000066025948,
      1.4016523859222934,
      1.4155337599595434,
      1.4100473152401642,
      1.4067016837207955,
      1.4075072481965112,
      1.3960865969709295,
      1.4036594406399556,
      1.3957426328507778,
      1.4075761072548887,
      1.390017523395165,
      1.3950553532705714,
      1.4108380794434114,
      1.4019645971347179,
      1.3963353026555998,
      1.4038694016116713,
      1.386259794575466,
      1.3928567516296466,
      1.39433026202202,
      1.4002784812985976,
      1.3958427374799802,
      1.4032083039697332,
      1.3954774949461861,
      1.4037566557102488,
      1.3970719972232515,
      1.3923829435429522,
      1.394165510665251,
      1.385671236029954,
      1.38561569343763,
      1.3910546046623582,
      1.3874624840724712,
      1.3961684370798297,
      1.3952739212058916,
      1.384906620263164,
      1.3941617747313508,
      1.3946204681900867,
      1.3982235001790015,
      1.3937208289274696,
      1.4022898938276027,
      1.388053324375349,
      1.3947296387213755,
      1.3956791413484395,
      1.379820194375272,
      1.3937922026900782,
      1.3868813913199178,
      1.3792890368463677,
      1.3811003276025735,
      1.3747277903140522,
      1.3915363351395609,
      1.4034069982390391,
      1.3902709129861812,
      1.3809681451060782,
      1.3873988665669739,
      1.3980840929682512,
      1.3964560739521097,
      1.3864437741088615,
      1.391849275398236,
      1.3868350717300604,
      1.3868966362144113,
      1.3948358455346568,
      1.38126339629292,
      1.389216338722628,
      1.3879030985815268,
      1.389870898019308,
      1.3976477867584964,
      1.3852543855570254,
      1.3917655498038253,
      1.3799348909198401,
      1.393794386771056,
      1.3447611890936393,
      1.340836469990518,
      1.3389206361616632,
      1.337968515989184,
      1.338339822213589,
      1.3407804150272797,
      1.3392310506457872,
      1.3399890902168017,
      1.338684594353269,
      1.3387172093354511,
      1.3386426747536118,
      1.3385207490665976,
      1.337679268820832,
      1.337497457091602,
      1.3387502587209383,
      1.3381294050089014,
      1.3390530624534713,
      1.3378440410376253,
      1.340487291639239,
      1.3387317848301692,
      1.3390836069361196,
      1.340954607693928,
      1.3385024847321714,
      1.3383179134041077,
      1.3394608323364563,
      1.3377073812013336,
      1.3365692251988182,
      1.3379297123427916,
      1.3381873642556896,
      1.3388533857080902,
      1.337451760630583,
      1.3377426805995165,
      1.3382997292460237,
      1.3370821355445892,
      1.3391003306861575,
      1.3382083754350145,
      1.3397532257255185,
      1.33971016506342,
      1.3367913380318543,
      1.3369047076542586,
      1.3389801310820466,
      1.3383585671281915,
      1.3409547700540398,
      1.3380109347869,
      1.3378564138608755,
      1.338140825478702,
      1.3414670766942605,
      1.3359182427407654,
      1.3377764943083952,
      1.3357625366777044,
      1.336405989080086,
      1.337090268550437,
      1.3385993795298576,
      1.3379559393315819,
      1.3368507621651855,
      1.337010794028587,
      1.3379490970369332,
      1.337915708709921,
      1.3375134854922661,
      1.336362417645672,
      1.3376842355763123,
      1.3372739251711687,
      1.3380805623341996,
      1.3380414681325292,
      1.3380297450656957,
      1.3364165990370922,
      1.3374798741637628,
      1.3374264048576447,
      1.337252401751738,
      1.3359758462654838,
      1.3390652289949525,
      1.3318998001397448,
      1.3318466487785474,
      1.331471771354398,
      1.3316202069521643,
      1.3315079044152833,
      1.3312810276475753,
      1.3311132343857863,
      1.3306379585592867,
      1.3309048517769964,
      1.330891371573231,
      1.3308251351154323,
      1.3308145812321512,
      1.3309036260059668,
      1.3308015622015614,
      1.3307338431200049,
      1.3307810264032727,
      1.3307352685029485,
      1.3307313980116913,
      1.3305826212078755,
      1.3306091189853246,
      1.3304581189138702,
      1.3306478023974642,
      1.330681613564789,
      1.3303693312672435,
      1.330616622622435,
      1.3304303133443816,
      1.3305566246094134,
      1.330648819060683,
      1.3304145864197494,
      1.3305168718874885,
      1.330221276746534,
      1.3302905008750943,
      1.3302872261928966,
      1.3302785845738727,
      1.330711893414004,
      1.3305593658155406,
      1.3308203658436535,
      1.330859769663737,
      1.330577472928478,
      1.330189795314553,
      1.3304781651921223,
      1.3303269956101693,
      1.3304175845415298,
      1.3303726766972486,
      1.3302483308426343,
      1.3302899265391324,
      1.330439372226196,
      1.3306082419545155,
      1.3305191987901126,
      1.330137256509975,
      1.3303017446738814,
      1.3302179790344104,
      1.3296531481785183,
      1.3297080328705397,
      1.3297384575220432,
      1.3297912169429713,
      1.3298108613411437,
      1.3297685668834833,
      1.3297657340582605,
      1.3297517547153461,
      1.3297443533336935,
      1.329720247959024,
      1.3296808168927277,
      1.3296651299072635,
      1.3296138403272848,
      1.3296071234539226,
      1.3295735702111298,
      1.3295769207391779,
      1.329518345917675,
      1.3295431941601714,
      1.3295189899604989,
      1.3295244059274833,
      1.329538481664189,
      1.3295891908293545,
      1.3296524746675475,
      1.3296591141891876,
      1.3296807311162429,
      1.3296975944690492,
      1.3296748287859512,
      1.3296628451912826,
      1.3296494531502738,
      1.3296260432489155,
      1.3296227701665424,
      1.329617906561493,
      1.3295906480478097,
      1.329586484667149,
      1.3295711006846878,
      1.329571934297795,
      1.3296001865145166,
      1.3296363916416727,
      1.3296254352903634,
      1.3296368270552312,
      1.3296325599171357,
      1.3296229264482218
    ]
  },
  "val": {
    "steps": [
      0,
      1,
      2,
      3,
      4,
      5,
      6,
      7,
      8,
      9,
      10,
      11,
      12,
      13,
      14,
      15,
      16,
      17,
      18,
      19,
      20,
      21,
      22,
      23,
      24,
      25,
      26,
      27,
      28,
      29,
      30,
      31,
      32,
      33,
      34,
      35,
      36,
      37,
      38,
      39,
      40,
      41,
      42,
      43,
      44,
      45,
      46,
      47,
      48,
      49,
      50,
      51,
      52,
      53,
      54,
      55,
      56,
      57,
      58,
      59,
      60,
      61,
      62,
      63,
      64,
      65,
      66,
      67,
      68,
      69,
      70,
      71,
      72,
      73,
      74,
      75,
      76,
      77,
      78,
      79,
      80,
      81,
      82,
      83,
      84,
      85,
      86,
      87,
      88,
      89,
      90,
      91,
      92,
      93,
      94,
      95,
      96,
      97,
      98,
      99,
      100,
      101,
      102,
      103,
      104,
      105,
      106,
      107,
      108,
      109,
      110,
      111,
      112,
      113,
      114,
      115,
      116,
      117,
      118,
      119,
      120,
      121,
      122,
      123,
      124,
      125,
      126,
      127,
      128,
      129,
      130,
      131,
      132,
      133,
      134,
      135,
      136,
      137,
      138,
      139,
      140,
      141,
      142,
      143,
      144,
      145,
      146,
      147,
      148,
      149,
      150,
      151,
      152,
      153,
      154,
      155,
      156,
      157,
      158,
      159,
      160,
      161,
      162,
      163,
      164,
      165,
      166,
      167,
      168,
      169,
      170,
      171,
      172,
      173,
      174,
      175,
      176,
      177,
      178,
      179,
      180,
      181,
      182,
      183,
      184,
      185,
      186,
      187,
      188,
      189,
      190,
      191,
      192,
      193,
      194,
      195,
      196,
      197,
      198,
      199,
      200,
      201,
      202,
      203,
      204,
      205,
      206,
      207,
      208,
      209,
      210,
      211,
      212,
      213,
      214,
      215,
      216,
      217,
      218,
      219,
      220,
      221,
      222,
      223,
      224,
      225,
      226,
      227,
      228,
      229,
      230,
      231,
      232,
      233,
      234,
      235,
      236,
      237,
      238,
      239,
      240,
      241,
      242,
      243,
      244,
      245,
      246,
      247,
      248,
      249,
      250,
      251,
      252,
      253,
      254,
      255,
      256,
      257,
      258,
      259,
      260,
      261,
      262,
      263,
      264,
      265,
      266,
      267,
      268,
      269,
      270,
      271,
      272,
      273,
      274,
      275,
      276,
      277,
      278,
      279,
      280,
      281,
      282,
      283,
      284,
      285,
      286,
      287,
      288,
      289,
      290,
      291,
      292,
      293,
      294,
      295,
      296,
      297,
      298,
      299,
      300,
      301,
      302,
      303,
      304,
      305,
      306,
      307,
      308,
      309,
      310,
      311,
      312,
      313,
      314,
      315,
      316,
      317,
      318,
      319,
      320,
      321,
      322,
      323,
      324,
      325,
      326,
      327,
      328,
      329,
      330,
      331,
      332,
      333,
      334,
      335,
      336,
      337,
      338,
      339,
      340,
      341,
      342,
      343,
      344,
      345,
      346,
      347,
      348,
      349,
      350,
      351,
      352,
      353,
      354,
      355,
      356,
      357,
      358,
      359,
      360,
      361,
      362,
      363,
      364,
      365,
      366,
      367,
      368,
      369,
      370,
      371,
      372,
      373,
      374,
      375,
      376,
      377,
      378,
      379,
      380,
      381,
      382,
      383,
      384,
      385,
      386,
      387,
      388,
      389,
      390,
      391,
      392,
      393,
      394,
      395,
      396,
      397,
      398,
      399,
      400,
      401,
      402,
      403,
      404,
      405,
      406,
      407,
      408,
      409,
      410,
      411,
      412,
      413,
      414,
      415,
      416,
      417,
      418,
      419,
      420,
      421,
      422,
      423,
      424,
      425,
      426,
      427,
      428,
      429,
      430,
      431,
      432,
      433,
      434,
      435,
      436,
      437,
      438,
      439,
      440,
      441,
      442,
      443,
      444,
      445,
      446,
      447,
      448,
      449
    ],
    "timestamps": [
      "2022-08-14T20:16:54.287503",
      "2022-08-14T20:16:56.804688",
      "2022-08-14T20:17:00.600983",
      "2022-08-14T20:17:03.318764",
      "2022-08-14T20:17:06.103349",
      "2022-08-14T20:17:08.817437",
      "2022-08-14T20:17:11.488129",
      "2022-08-14T20:17:14.154511",
      "2022-08-14T20:17:16.813384",
      "2022-08-14T20:17:19.481420",
      "2022-08-14T20:17:22.153546",
      "2022-08-14T20:17:24.810126",
      "2022-08-14T20:17:27.477071",
      "2022-08-14T20:17:30.150245",
      "2022-08-14T20:17:32.814502",
      "2022-08-14T20:17:35.456838",
      "2022-08-14T20:17:38.117410",
      "2022-08-14T20:17:40.771164",
      "2022-08-14T20:17:43.429745",
      "2022-08-14T20:17:46.099241",
      "2022-08-14T20:17:48.779303",
      "2022-08-14T20:17:51.450650",
      "2022-08-14T20:17:54.106187",
      "2022-08-14T20:17:56.771895",
      "2022-08-14T20:17:59.466628",
      "2022-08-14T20:18:02.176782",
      "2022-08-14T20:18:04.881139",
      "2022-08-14T20:18:07.565500",
      "2022-08-14T20:18:10.295551",
      "2022-08-14T20:18:13.071621",
      "2022-08-14T20:18:15.902103",
      "2022-08-14T20:18:18.582566",
      "2022-08-14T20:18:21.255206",
      "2022-08-14T20:18:23.913757",
      "2022-08-14T20:18:26.578393",
      "2022-08-14T20:18:29.245401",
      "2022-08-14T20:18:31.925440",
      "2022-08-14T20:18:34.605805",
      "2022-08-14T20:18:37.428577",
      "2022-08-14T20:18:40.097347",
      "2022-08-14T20:18:42.781448",
      "2022-08-14T20:18:45.550355",
      "2022-08-14T20:18:48.254412",
      "2022-08-14T20:18:50.980807",
      "2022-08-14T20:18:53.718151",
      "2022-08-14T20:18:56.377654",
      "2022-08-14T20:18:59.193512",
      "2022-08-14T20:19:02.050811",
      "2022-08-14T20:19:04.724902",
      "2022-08-14T20:19:07.413443",
      "2022-08-14T20:19:10.140517",
      "2022-08-14T20:19:12.919719",
      "2022-08-14T20:19:15.638611",
      "2022-08-14T20:19:18.360617",
      "2022-08-14T20:19:21.114306",
      "2022-08-14T20:19:23.917463",
      "2022-08-14T20:19:26.805758",
      "2022-08-14T20:19:29.878496",
      "2022-08-14T20:19:33.119341",
      "2022-08-14T20:19:36.181807",
      "2022-08-14T20:19:39.123259",
      "2022-08-14T20:19:41.799650",
      "2022-08-14T20:19:44.478396",
      "2022-08-14T20:19:47.162890",
      "2022-08-14T20:19:49.839108",
      "2022-08-14T20:19:52.574716",
      "2022-08-14T20:19:55.244003",
      "2022-08-14T20:19:57.937010",
      "2022-08-14T20:20:00.614900",
      "2022-08-14T20:20:03.424051",
      "2022-08-14T20:20:06.172901",
      "2022-08-14T20:20:08.956289",
      "2022-08-14T20:20:11.752680",
      "2022-08-14T20:20:14.577066",
      "2022-08-14T20:20:17.420349",
      "2022-08-14T20:20:20.192094",
      "2022-08-14T20:20:22.855009",
      "2022-08-14T20:20:25.554071",
      "2022-08-14T20:20:28.248346",
      "2022-08-14T20:20:30.928045",
      "2022-08-14T20:20:33.604841",
      "2022-08-14T20:20:36.450722",
      "2022-08-14T20:20:39.222938",
      "2022-08-14T20:20:41.969356",
      "2022-08-14T20:20:44.655637",
      "2022-08-14T20:20:47.740505",
      "2022-08-14T20:20:50.620552",
      "2022-08-14T20:20:53.299731",
      "2022-08-14T20:20:55.984543",
      "2022-08-14T20:20:58.673380",
      "2022-08-14T20:21:01.355869",
      "2022-08-14T20:21:04.041742",
      "2022-08-14T20:21:06.718922",
      "2022-08-14T20:21:09.398368",
      "2022-08-14T20:21:12.080385",
      "2022-08-14T20:21:14.754514",
      "2022-08-14T20:21:17.418634",
      "2022-08-14T20:21:20.081179",
      "2022-08-14T20:21:22.750083",
      "2022-08-14T20:21:25.546889",
      "2022-08-14T20:21:28.305582",
      "2022-08-14T20:21:30.976301",
      "2022-08-14T20:21:33.646811",
      "2022-08-14T20:21:36.327437",
      "2022-08-14T20:21:39.080939",
      "2022-08-14T20:21:41.813509",
      "2022-08-14T20:21:44.490805",
      "2022-08-14T20:21:47.235674",
      "2022-08-14T20:21:49.913654",
      "2022-08-14T20:21:52.584384",
      "2022-08-14T20:21:55.300564",
      "2022-08-14T20:21:58.016886",
      "2022-08-14T20:22:00.698235",
      "2022-08-14T20:22:03.381948",
      "2022-08-14T20:22:06.100087",
      "2022-08-14T20:22:08.930921",
      "2022-08-14T20:22:11.728936",
      "2022-08-14T20:22:14.420737",
      "2022-08-14T20:22:17.163308",
      "2022-08-14T20:22:19.871761",
      "2022-08-14T20:22:22.611140",
      "2022-08-14T20:22:25.398974",
      "2022-08-14T20:22:28.446065",
      "2022-08-14T20:22:31.475762",
      "2022-08-14T20:22:34.526265",
      "2022-08-14T20:22:37.556717",
      "2022-08-14T20:22:40.622620",
      "2022-08-14T20:22:43.368608",
      "2022-08-14T20:22:46.079313",
      "2022-08-14T20:22:48.755073",
      "2022-08-14T20:22:51.628735",
      "2022-08-14T20:22:54.507466",
      "2022-08-14T20:22:58.163287",
      "2022-08-14T20:23:02.101977",
      "2022-08-14T20:23:06.278391",
      "2022-08-14T20:23:09.956613",
      "2022-08-14T20:23:13.671805",
      "2022-08-14T20:23:17.344092",
      "2022-08-14T20:23:20.976431",
      "2022-08-14T20:23:24.631041",
      "2022-08-14T20:23:28.274932",
      "2022-08-14T20:23:31.317837",
      "2022-08-14T20:23:34.026409",
      "2022-08-14T20:23:36.737383",
      "2022-08-14T20:23:39.454761",
      "2022-08-14T20:23:42.171296",
      "2022-08-14T20:23:44.978303",
      "2022-08-14T20:23:47.731791",
      "2022-08-14T20:23:50.447062",
      "2022-08-14T20:23:53.167599",
      "2022-08-14T20:23:55.861331",
      "2022-08-14T20:23:58.570522",
      "2022-08-14T20:24:01.286040",
      "2022-08-14T20:24:04.349940",
      "2022-08-14T20:24:07.272255",
      "2022-08-14T20:24:10.052017",
      "2022-08-14T20:24:12.776845",
      "2022-08-14T20:24:15.873703",
      "2022-08-14T20:24:18.919480",
      "2022-08-14T20:24:21.842637",
      "2022-08-14T20:24:24.780442",
      "2022-08-14T20:24:27.794324",
      "2022-08-14T20:24:31.077729",
      "2022-08-14T20:24:34.597910",
      "2022-08-14T20:24:37.322129",
      "2022-08-14T20:24:40.090378",
      "2022-08-14T20:24:43.002260",
      "2022-08-14T20:24:45.799579",
      "2022-08-14T20:24:48.601830",
      "2022-08-14T20:24:51.524527",
      "2022-08-14T20:24:54.299013",
      "2022-08-14T20:24:57.083967",
      "2022-08-14T20:24:59.826959",
      "2022-08-14T20:25:02.552052",
      "2022-08-14T20:25:05.285603",
      "2022-08-14T20:25:07.990625",
      "2022-08-14T20:25:10.695749",
      "2022-08-14T20:25:13.608808",
      "2022-08-14T20:25:16.569547",
      "2022-08-14T20:25:19.254818",
      "2022-08-14T20:25:21.935954",
      "2022-08-14T20:25:24.598026",
      "2022-08-14T20:25:27.280367",
      "2022-08-14T20:25:29.948970",
      "2022-08-14T20:25:32.820137",
      "2022-08-14T20:25:36.251174",
      "2022-08-14T20:25:39.365314",
      "2022-08-14T20:25:42.484787",
      "2022-08-14T20:25:45.454971",
      "2022-08-14T20:25:48.435188",
      "2022-08-14T20:25:51.513463",
      "2022-08-14T20:25:54.213039",
      "2022-08-14T20:25:56.886680",
      "2022-08-14T20:25:59.554634",
      "2022-08-14T20:26:02.218404",
      "2022-08-14T20:26:04.903531",
      "2022-08-14T20:26:07.561712",
      "2022-08-14T20:26:10.251944",
      "2022-08-14T20:26:12.923404",
      "2022-08-14T20:26:15.775189",
      "2022-08-14T20:26:18.564469",
      "2022-08-14T20:26:21.541332",
      "2022-08-14T20:26:24.491291",
      "2022-08-14T20:26:27.574649",
      "2022-08-14T20:26:30.795796",
      "2022-08-14T20:26:33.784727",
      "2022-08-14T20:26:36.780808",
      "2022-08-14T20:26:39.830004",
      "2022-08-14T20:26:42.774375",
      "2022-08-14T20:26:45.858660",
      "2022-08-14T20:26:48.920891",
      "2022-08-14T20:26:52.183333",
      "2022-08-14T20:26:55.107534",
      "2022-08-14T20:26:57.797825",
      "2022-08-14T20:27:00.546349",
      "2022-08-14T20:27:03.319059",
      "2022-08-14T20:27:06.030194",
      "2022-08-14T20:27:08.755424",
      "2022-08-14T20:27:11.475361",
      "2022-08-14T20:27:14.206604",
      "2022-08-14T20:27:16.932533",
      "2022-08-14T20:27:19.652240",
      "2022-08-14T20:27:22.370839",
      "2022-08-14T20:27:25.084351",
      "2022-08-14T20:27:27.801767",
      "2022-08-14T20:27:30.513577",
      "2022-08-14T20:27:33.262131",
      "2022-08-14T20:27:35.995636",
      "2022-08-14T20:27:39.159705",
      "2022-08-14T20:27:42.110917",
      "2022-08-14T20:27:45.181122",
      "2022-08-14T20:27:48.455691",
      "2022-08-14T20:27:51.575797",
      "2022-08-14T20:27:54.534967",
      "2022-08-14T20:27:57.503710",
      "2022-08-14T20:28:00.422680",
      "2022-08-14T20:28:03.467281",
      "2022-08-14T20:28:06.202270",
      "2022-08-14T20:28:08.929843",
      "2022-08-14T20:28:11.706139",
      "2022-08-14T20:28:14.545505",
      "2022-08-14T20:28:17.337236",
      "2022-08-14T20:28:20.105367",
      "2022-08-14T20:28:22.879460",
      "2022-08-14T20:28:25.771618",
      "2022-08-14T20:28:28.481524",
      "2022-08-14T20:28:31.231471",
      "2022-08-14T20:28:34.089944",
      "2022-08-14T20:28:36.798921",
      "2022-08-14T20:28:39.456706",
      "2022-08-14T20:28:42.160895",
      "2022-08-14T20:28:44.858974",
      "2022-08-14T20:28:47.522388",
      "2022-08-14T20:28:50.212973",
      "2022-08-14T20:28:52.900864",
      "2022-08-14T20:28:55.577938",
      "2022-08-14T20:28:58.276619",
      "2022-08-14T20:29:00.950643",
      "2022-08-14T20:29:03.627654",
      "2022-08-14T20:29:06.362126",
      "2022-08-14T20:29:09.047240",
      "2022-08-14T20:29:11.761839",
      "2022-08-14T20:29:14.602284",
      "2022-08-14T20:29:17.537134",
      "2022-08-14T20:29:20.626929",
      "2022-08-14T20:29:23.711408",
      "2022-08-14T20:29:26.766168",
      "2022-08-14T20:29:29.756261",
      "2022-08-14T20:29:32.665844",
      "2022-08-14T20:29:35.399336",
      "2022-08-14T20:29:38.131226",
      "2022-08-14T20:29:40.904101",
      "2022-08-14T20:29:43.690149",
      "2022-08-14T20:29:46.413042",
      "2022-08-14T20:29:49.134649",
      "2022-08-14T20:29:51.845467",
      "2022-08-14T20:29:54.561517",
      "2022-08-14T20:29:57.390860",
      "2022-08-14T20:30:00.331635",
      "2022-08-14T20:30:03.129167",
      "2022-08-14T20:30:05.980211",
      "2022-08-14T20:30:08.705213",
      "2022-08-14T20:30:11.420569",
      "2022-08-14T20:30:14.137278",
      "2022-08-14T20:30:16.840564",
      "2022-08-14T20:30:19.606479",
      "2022-08-14T20:30:22.324853",
      "2022-08-14T20:30:25.029968",
      "2022-08-14T20:30:27.735682",
      "2022-08-14T20:30:30.438054",
      "2022-08-14T20:30:33.168363",
      "2022-08-14T20:30:35.873589",
      "2022-08-14T20:30:38.605163",
      "2022-08-14T20:30:41.346530",
      "2022-08-14T20:30:44.048639",
      "2022-08-14T20:30:46.729965",
      "2022-08-14T20:30:49.435954",
      "2022-08-14T20:30:52.132688",
      "2022-08-14T20:30:54.835615",
      "2022-08-14T20:30:57.535848",
      "2022-08-14T20:31:00.243232",
      "2022-08-14T20:31:02.937896",
      "2022-08-14T20:31:05.638012",
      "2022-08-14T20:31:08.524293",
      "2022-08-14T20:31:11.459522",
      "2022-08-14T20:31:14.776431",
      "2022-08-14T20:31:17.605067",
      "2022-08-14T20:31:20.392364",
      "2022-08-14T20:31:23.339808",
      "2022-08-14T20:31:26.066997",
      "2022-08-14T20:31:28.833624",
      "2022-08-14T20:31:31.630418",
      "2022-08-14T20:31:34.431642",
      "2022-08-14T20:31:37.333615",
      "2022-08-14T20:31:40.328890",
      "2022-08-14T20:31:43.127088",
      "2022-08-14T20:31:45.993916",
      "2022-08-14T20:31:49.037656",
      "2022-08-14T20:31:51.934947",
      "2022-08-14T20:31:54.926301",
      "2022-08-14T20:31:57.660462",
      "2022-08-14T20:32:00.556319",
      "2022-08-14T20:32:03.377947",
      "2022-08-14T20:32:06.230687",
      "2022-08-14T20:32:08.994830",
      "2022-08-14T20:32:12.100989",
      "2022-08-14T20:32:14.871008",
      "2022-08-14T20:32:17.689829",
      "2022-08-14T20:32:20.460700",
      "2022-08-14T20:32:24.040525",
      "2022-08-14T20:32:27.162528",
      "2022-08-14T20:32:29.903049",
      "2022-08-14T20:32:32.752957",
      "2022-08-14T20:32:35.643840",
      "2022-08-14T20:32:38.621712",
      "2022-08-14T20:32:41.363624",
      "2022-08-14T20:32:44.133489",
      "2022-08-14T20:32:46.849434",
      "2022-08-14T20:32:49.560308",
      "2022-08-14T20:32:52.269715",
      "2022-08-14T20:32:55.021625",
      "2022-08-14T20:32:57.727198",
      "2022-08-14T20:33:00.437587",
      "2022-08-14T20:33:03.191772",
      "2022-08-14T20:33:05.915392",
      "2022-08-14T20:33:08.644775",
      "2022-08-14T20:33:11.374191",
      "2022-08-14T20:33:14.190507",
      "2022-08-14T20:33:16.913451",
      "2022-08-14T20:33:19.591131",
      "2022-08-14T20:33:22.286758",
      "2022-08-14T20:33:24.959867",
      "2022-08-14T20:33:27.645877",
      "2022-08-14T20:33:30.492951",
      "2022-08-14T20:33:33.204382",
      "2022-08-14T20:33:35.942993",
      "2022-08-14T20:33:38.676344",
      "2022-08-14T20:33:41.451330",
      "2022-08-14T20:33:44.233068",
      "2022-08-14T20:33:47.114187",
      "2022-08-14T20:33:49.979050",
      "2022-08-14T20:33:52.881635",
      "2022-08-14T20:33:55.874383",
      "2022-08-14T20:33:58.842166",
      "2022-08-14T20:34:01.763197",
      "2022-08-14T20:34:04.776806",
      "2022-08-14T20:34:07.786334",
      "2022-08-14T20:34:10.773729",
      "2022-08-14T20:34:13.548675",
      "2022-08-14T20:34:16.320449",
      "2022-08-14T20:34:19.019307",
      "2022-08-14T20:34:21.734403",
      "2022-08-14T20:34:24.438541",
      "2022-08-14T20:34:27.222995",
      "2022-08-14T20:34:29.964083",
      "2022-08-14T20:34:32.647382",
      "2022-08-14T20:34:35.323857",
      "2022-08-14T20:34:38.151827",
      "2022-08-14T20:34:40.986901",
      "2022-08-14T20:34:43.693165",
      "2022-08-14T20:34:46.392854",
      "2022-08-14T20:34:49.074163",
      "2022-08-14T20:34:51.829675",
      "2022-08-14T20:34:54.499495",
      "2022-08-14T20:34:57.177065",
      "2022-08-14T20:34:59.853623",
      "2022-08-14T20:35:02.542576",
      "2022-08-14T20:35:05.199322",
      "2022-08-14T20:35:07.859308",
      "2022-08-14T20:35:10.540048",
      "2022-08-14T20:35:13.232763",
      "2022-08-14T20:35:15.899448",
      "2022-08-14T20:35:18.734535",
      "2022-08-14T20:35:21.863514",
      "2022-08-14T20:35:24.619477",
      "2022-08-14T20:35:27.303047",
      "2022-08-14T20:35:30.098860",
      "2022-08-14T20:35:33.181139",
      "2022-08-14T20:35:36.432974",
      "2022-08-14T20:35:39.246230",
      "2022-08-14T20:35:41.940230",
      "2022-08-14T20:35:44.628880",
      "2022-08-14T20:35:47.290600",
      "2022-08-14T20:35:50.007288",
      "2022-08-14T20:35:52.712943",
      "2022-08-14T20:35:55.487077",
      "2022-08-14T20:35:58.159103",
      "2022-08-14T20:36:00.881643",
      "2022-08-14T20:36:03.574842",
      "2022-08-14T20:36:06.237317",
      "2022-08-14T20:36:08.911151",
      "2022-08-14T20:36:11.596377",
      "2022-08-14T20:36:14.444365",
      "2022-08-14T20:36:17.160493",
      "2022-08-14T20:36:19.919052",
      "2022-08-14T20:36:22.657465",
      "2022-08-14T20:36:25.824977",
      "2022-08-14T20:36:28.729366",
      "2022-08-14T20:36:31.793667",
      "2022-08-14T20:36:34.508178",
      "2022-08-14T20:36:37.285611",
      "2022-08-14T20:36:40.072304",
      "2022-08-14T20:36:42.741577",
      "2022-08-14T20:36:45.421507",
      "2022-08-14T20:36:48.116731",
      "2022-08-14T20:36:50.830441",
      "2022-08-14T20:36:53.546268",
      "2022-08-14T20:36:56.284106",
      "2022-08-14T20:36:58.954173",
      "2022-08-14T20:37:01.625862",
      "2022-08-14T20:37:04.307466",
      "2022-08-14T20:37:06.959083",
      "2022-08-14T20:37:09.627245",
      "2022-08-14T20:37:12.323767",
      "2022-08-14T20:37:15.043257",
      "2022-08-14T20:37:17.759142",
      "2022-08-14T20:37:20.463518",
      "2022-08-14T20:37:23.193594",
      "2022-08-14T20:37:25.896145",
      "2022-08-14T20:37:28.619967",
      "2022-08-14T20:37:31.376165",
      "2022-08-14T20:37:34.099244",
      "2022-08-14T20:37:36.806491",
      "2022-08-14T20:37:39.526723",
      "2022-08-14T20:37:42.244534",
      "2022-08-14T20:37:44.966098",
      "2022-08-14T20:37:47.672439",
      "2022-08-14T20:37:50.375946",
      "2022-08-14T20:37:53.109281",
      "2022-08-14T20:37:55.813476"
    ],
    "values": [
      8.677302863155614,
      6.271978475084989,
      4.755287875906497,
      5.323762872201903,
      3.5051271581577663,
      2.8991999283525614,
      3.9447547182136575,
      2.9749502185746413,
      2.5718995044001853,
      2.7717998191311968,
      2.773821527355106,
      2.8481323472102464,
      2.532969314311418,
      2.6854559349660003,
      2.1986685505779597,
      2.21895708316676,
      2.4474940574214794,
      2.074441910534698,
      2.284097078455996,
      2.430129376452231,
      2.131465576859124,
      2.403711284005052,
      2.113674244683419,
      1.9664978948175702,
      2.0890529262231485,
      1.9890628607390872,
      2.040073076229457,
      2.2685834313005175,
      1.9589603643242754,
      2.0019579513464296,
      2.329163806170341,
      1.926881858303777,
      1.9520536465360943,
      2.075274037396156,
      1.8461709372190434,
      1.9902622846295486,
      2.0331061629506038,
      2.046762382238496,
      1.8166843548900262,
      2.406024790393284,
      1.8784553949995522,
      1.881059046344694,
      1.80920090519376,
      1.831779984200732,
      1.9481866062849071,
      2.0280497922666982,
      1.9779339225377444,
      1.9323448161007901,
      1.863540238432144,
      1.8547372142281244,
      1.986945097975847,
      1.865771295356175,
      1.896679284081229,
      1.780776399775346,
      1.9688251331713849,
      1.885618035873777,
      1.8065197174790766,
      1.6716225691648332,
      1.8959042047049899,
      1.912664679832865,
      1.883592221570384,
      1.783761949557541,
      2.1034919921120676,
      1.7514094744880728,
      1.712274342003718,
      1.8389277090169214,
      1.7652082327637555,
      1.908054308362631,
      1.747330079572113,
      2.3827612813015575,
      1.8690795254743287,
      1.8827633052203228,
      1.753232539554313,
      1.9522242890417056,
      1.7844342951421512,
      1.8484356799608614,
      2.113718668219025,
      1.9495901525578325,
      1.6224972027176998,
      1.752864367213657,
      1.7978362329382467,
      1.7504639515046898,
      1.9682175742033272,
      1.7066159710466795,
      1.7454620708133968,
      1.7374949872127323,
      1.7726086649999464,
      1.8013399332657398,
      1.886869471807339,
      1.7899641859596926,
      1.728744805773579,
      2.0449601998188767,
      1.701593962460574,
      1.7256527038192793,
      1.7060020815925814,
      1.8538472605817997,
      1.8193628173100962,
      1.6239285301333868,
      1.7009568492851392,
      1.8290574506454815,
      1.7738175393831677,
      1.8544311764892851,
      1.677765650817083,
      1.7194861265053307,
      1.8357366873421264,
      1.584935799410589,
      1.67209046736024,
      1.6882330685546592,
      1.6679222718240643,
      1.6803050183884878,
      1.6607352697266966,
      1.6723717287811257,
      1.9777507958604976,
      1.7367116907857525,
      1.806754739489741,
      1.572293628814197,
      1.714502599773424,
      1.9443885862886319,
      1.8796701098108475,
      1.6190197538550544,
      1.753894039384088,
      1.8160882876077205,
      1.70222679365445,
      1.6337986374684998,
      1.6099352530502207,
      1.625821824157546,
      1.6968485566526592,
      1.6242389739749579,
      1.4954740044952017,
      1.4980060246348208,
      1.4906399412451725,
      1.4930085231342185,
      1.5023868363020956,
      1.5192629623648048,
      1.489498141115274,
      1.4848600721278253,
      1.4806258902538771,
      1.4834591308803835,
      1.4862669367023573,
      1.4888779789739155,
      1.47748383561133,
      1.4892128852634527,
      1.5072817616554988,
      1.499012828982988,
      1.4827446936119333,
      1.5046618875635043,
      1.516555978236169,
      1.465924047211916,
      1.5237366557691177,
      1.4745547063118787,
      1.4677573603048086,
      1.480179020230748,
      1.4686650220696604,
      1.4849407591399468,
      1.5046154557385483,
      1.47744700835201,
      1.4660256844148458,
      1.4841153145716217,
      1.501502144120863,
      1.4814348382976894,
      1.4795566483291256,
      1.4568684241943586,
      1.461934575817954,
      1.4780205221269644,
      1.5183694210978755,
      1.495076766089326,
      1.4760599258288087,
      1.4682591569254146,
      1.520490241670438,
      1.467177468530589,
      1.4521128847405589,
      1.4538259880086468,
      1.522025367886063,
      1.4966771464336965,
      1.4753365391855178,
      1.4988457998243667,
      1.4698887233263012,
      1.4885458474065367,
      1.4534519953494138,
      1.4663406530803116,
      1.4664506275641278,
      1.5107304827525738,
      1.465079190143983,
      1.4807003010407938,
      1.4892619390960489,
      1.4726084586914308,
      1.4491940716606226,
      1.4751921027573025,
      1.460872152515316,
      1.5226751138964314,
      1.4927197660642408,
      1.454702220275405,
      1.4773957546585916,
      1.4378479558898751,
      1.4582783828207144,
      1.4813708170705546,
      1.4662378120470398,
      1.467870277212086,
      1.4496207453048704,
      1.4638430558895497,
      1.528416791603595,
      1.4546524932979572,
      1.4480478950917453,
      1.5872316531161579,
      1.4567693724136177,
      1.4693838469108151,
      1.4552130906720933,
      1.456126578262245,
      1.4503911729062833,
      1.4578744326795918,
      1.4442535027140913,
      1.4636094465308847,
      1.5232871266470551,
      1.4825740597257662,
      1.4369365716070757,
      1.4716224604325452,
      1.4718617932870421,
      1.459864789703035,
      1.4692357118374135,
      1.4370381693436158,
      1.4807932348955288,
      1.4577909359811594,
      1.4738566734990488,
      1.4390059840586418,
      1.437751409186651,
      1.4785531979692172,
      1.4546351841546155,
      1.4286487182437504,
      1.4486900727791288,
      1.4535764656555465,
      1.4297196680313886,
      1.4879803271853462,
      1.4550139960003496,
      1.454795150519389,
      1.4497766954846105,
      1.4343426688610408,
      1.4588883872625846,
      1.4781108019698863,
      1.4365021730157281,
      1.4326113350405854,
      1.4303932431790392,
      1.4723842090239143,
      1.4480683552429499,
      1.4436108218001038,
      1.4424088244066982,
      1.4609415289123304,
      1.4448275280630647,
      1.4830444164354901,
      1.4331867400167413,
      1.427412171866445,
      1.5571054363196328,
      1.4878656460782655,
      1.4500943782276343,
      1.4755234408653488,
      1.4688670282065452,
      1.4416494593054097,
      1.424959332895141,
      1.4224455521926362,
      1.4663872450341373,
      1.4706678071745694,
      1.4325997912686919,
      1.4332714987467565,
      1.4351024580520246,
      1.4429603885042868,
      1.441702448554606,
      1.4361974380997073,
      1.5103816578677998,
      1.4518239980290055,
      1.4362254520244297,
      1.5750770367512197,
      1.4402338204885408,
      1.4348856608565683,
      1.430900973217098,
      1.4238733073405152,
      1.4416088920584367,
      1.4439678995060632,
      1.4239725404761907,
      1.4348527258891681,
      1.4655659151826705,
      1.4857346211513913,
      1.437900890016853,
      1.4336313161887924,
      1.4372467539617435,
      1.4519072076082862,
      1.4252417326156794,
      1.4039254557877276,
      1.4003775059126418,
      1.4043049114124104,
      1.3992407215327736,
      1.400779097933811,
      1.4040657335740931,
      1.4011799622071193,
      1.403428209881492,
      1.4023343076242418,
      1.4037456982876524,
      1.4024596769044888,
      1.4012116758479936,
      1.398897833962765,
      1.400896142386824,
      1.4008646143509254,
      1.4022071377764334,
      1.4018589545977205,
      1.3997280009240836,
      1.4057630288962923,
      1.4020133984524363,
      1.3992431470476685,
      1.4017526174842854,
      1.3996211132802074,
      1.3988915608241417,
      1.3988745777676395,
      1.4026843724872662,
      1.4023892858215348,
      1.4034422867771852,
      1.4031359673392083,
      1.4003638123532591,
      1.3978114356855746,
      1.4080071629031656,
      1.3972602189242807,
      1.4154498298203775,
      1.4025414863339036,
      1.4019477034530106,
      1.399461123313873,
      1.4009979159528712,
      1.397307275311847,
      1.4004454571996439,
      1.4016531252993616,
      1.410753025281678,
      1.4035440287484129,
      1.398032560650988,
      1.3974427567089285,
      1.4072227974964346,
      1.4019503139586442,
      1.402152758200923,
      1.403586105758144,
      1.3977479915678097,
      1.4006293271353951,
      1.4033198401356173,
      1.398790507080764,
      1.4004476746434142,
      1.3996750835906144,
      1.3983018750017744,
      1.397437542205885,
      1.399282391773646,
      1.40201994157934,
      1.3989110250839891,
      1.4016986358538839,
      1.3976955057859497,
      1.3963917312319327,
      1.3987910542755737,
      1.4021710158766731,
      1.401971944108916,
      1.3974143901714227,
      1.4037230898252175,
      1.401484853113854,
      1.4000915386513335,
      1.3962521391722393,
      1.396772082206562,
      1.396948714725064,
      1.3971455123566638,
      1.3965498862140362,
      1.3973168432556227,
      1.3960388051650419,
      1.3959744085508614,
      1.3957175669684583,
      1.3962543065812816,
      1.3957118781053601,
      1.3955694124362408,
      1.3964029764768535,
      1.3957147917666666,
      1.3958782153909024,
      1.3956555456514739,
      1.3956435816177004,
      1.3957288823504757,
      1.3959599518878172,
      1.395937636577048,
      1.3957475919945066,
      1.3960444727567207,
      1.3964075507566571,
      1.3958083988644614,
      1.3954692877457893,
      1.3957919901166098,
      1.3956220391764649,
      1.3953703846586771,
      1.3958315402383077,
      1.3956274010167196,
      1.395352714712256,
      1.3953095994918154,
      1.3958263081863798,
      1.3958010488309032,
      1.3964173050999398,
      1.395379680808212,
      1.3958594749312985,
      1.396245946523095,
      1.3954416595046417,
      1.3955099772283552,
      1.396547219712411,
      1.3953293819147263,
      1.3970270559996794,
      1.395387535522749,
      1.396396665071922,
      1.3954656775931575,
      1.3954245132337848,
      1.3952577152176135,
      1.395316366145469,
      1.3953973128208113,
      1.3959441765034788,
      1.3955720087032788,
      1.3951431373807748,
      1.3951633010430147,
      1.395189769216916,
      1.3952480585351767,
      1.3952406283800662,
      1.3952828711384826,
      1.395317562361378,
      1.3952449439793366,
      1.3953002613602117,
      1.3952855530324666,
      1.3952714216984856,
      1.3952756088289198,
      1.3952213252555399,
      1.395199693027068,
      1.395211800379071,
      1.3951654847484594,
      1.3952065095217514,
      1.3951621655636304,
      1.3951537739058952,
      1.3950909106775493,
      1.3951203153305882,
      1.395172385589359,
      1.3952312606928272,
      1.3952566220577356,
      1.3952964883470704,
      1.3952808054182921,
      1.3953181753426178,
      1.395315983735551,
      1.395280984061387,
      1.3952924113479588,
      1.395324185343599,
      1.3952852194151018,
      1.395256943267669,
      1.3952793300940478,
      1.395255937194042,
      1.3952324153297258,
      1.3953639374286877,
      1.395311978048374,
      1.3953163967841138,
      1.3952962721961029,
      1.3953103060356,
      1.3953224033427707,
      1.395290163635323
    ]
  }
}