{
  "memory.usage": {
    "steps": [
      0,
      1,
      2,
      3,
      4,
      5,
      6,
      7,
      8,
      9,
      10,
      11,
      12,
      13,
      14,
      15,
      16,
      17,
      18,
      19,
      20,
      21,
      22,
      23,
      24,
      25,
      26,
      27,
      28,
      29,
      30,
      31,
      32,
      33,
      34,
      35,
      36,
      37,
      38,
      39,
      40,
      41,
      42,
      43,
      44,
      45,
      46,
      47,
      48,
      49,
      50
    ],
    "timestamps": [
      "2022-11-11T16:46:43.545248",
      "2022-11-11T16:46:59.977612",
      "2022-11-11T16:47:18.416676",
      "2022-11-11T16:47:36.624216",
      "2022-11-11T16:47:54.833274",
      "2022-11-11T16:48:13.042159",
      "2022-11-11T16:48:31.249494",
      "2022-11-11T16:48:49.456534",
      "2022-11-11T16:49:07.665951",
      "2022-11-11T16:49:25.905425",
      "2022-11-11T16:49:44.144832",
      "2022-11-11T16:50:02.396751",
      "2022-11-11T16:50:20.651474",
      "2022-11-11T16:50:38.904338",
      "2022-11-11T16:50:57.157600",
      "2022-11-11T16:51:15.409021",
      "2022-11-11T16:51:33.648419",
      "2022-11-11T16:51:51.894047",
      "2022-11-11T16:52:10.192165",
      "2022-11-11T16:52:28.490922",
      "2022-11-11T16:52:46.714412",
      "2022-11-11T16:53:04.948902",
      "2022-11-11T16:53:23.187906",
      "2022-11-11T16:53:41.447606",
      "2022-11-11T16:53:59.692822",
      "2022-11-11T16:54:17.967908",
      "2022-11-11T16:54:36.212544",
      "2022-11-11T16:54:54.468076",
      "2022-11-11T16:55:12.744167",
      "2022-11-11T16:55:30.995616",
      "2022-11-11T16:55:49.215519",
      "2022-11-11T16:56:07.470415",
      "2022-11-11T16:56:25.720906",
      "2022-11-11T16:56:43.964316",
      "2022-11-11T16:57:02.221783",
      "2022-11-11T16:57:20.502563",
      "2022-11-11T16:57:38.736567",
      "2022-11-11T16:57:56.975698",
      "2022-11-11T16:58:15.237219",
      "2022-11-11T16:58:33.475813",
      "2022-11-11T16:58:51.709039",
      "2022-11-11T16:59:09.956368",
      "2022-11-11T16:59:28.195683",
      "2022-11-11T16:59:46.448102",
      "2022-11-11T17:00:04.684584",
      "2022-11-11T17:00:22.944515",
      "2022-11-11T17:00:41.210059",
      "2022-11-11T17:00:59.479495",
      "2022-11-11T17:01:17.737400",
      "2022-11-11T17:01:35.992743",
      "2022-11-11T17:01:54.236720"
    ],
    "values": [
      139.698176,
      139.698176,
      139.698176,
      139.698176,
      139.698176,
      139.698176,
      139.698176,
      139.698176,
      139.698176,
      139.698176,
      139.698176,
      139.698176,
      139.698176,
      139.698176,
      139.698176,
      139.698176,
      139.698176,
      139.698176,
      139.698176,
      139.698176,
      139.698176,
      139.698176,
      139.698176,
      139.698176,
      139.698176,
      139.698176,
      139.698176,
      139.698176,
      139.698176,
      139.698176,
      139.698176,
      139.698176,
      139.698176,
      139.698176,
      139.698176,
      139.698176,
      139.698176,
      139.698176,
      139.698176,
      139.698176,
      139.698176,
      139.698176,
      139.698176,
      139.698176,
      139.698176,
      139.698176,
      139.698176,
      139.698176,
      139.698176,
      139.698176,
      139.698176
    ]
  },
  "train": {
    "steps": [
      0,
      1,
      2,
      3,
      4,
      5,
      6,
      7,
      8,
      9,
      10,
      11,
      12,
      13,
      14,
      15,
      16,
      17,
      18,
      19,
      20,
      21,
      22,
      23,
      24,
      25,
      26,
      27,
      28,
      29,
      30,
      31,
      32,
      33,
      34,
      35,
      36,
      37,
      38,
      39,
      40,
      41,
      42,
      43,
      44,
      45,
      46,
      47,
      48,
      49,
      50,
      51,
      52,
      53,
      54,
      55,
      56,
      57,
      58,
      59,
      60,
      61,
      62,
      63,
      64,
      65,
      66,
      67,
      68,
      69,
      70,
      71,
      72,
      73,
      74,
      75,
      76,
      77,
      78,
      79,
      80,
      81,
      82,
      83,
      84,
      85,
      86,
      87,
      88,
      89,
      90,
      91,
      92,
      93,
      94,
      95,
      96,
      97,
      98,
      99,
      100,
      101,
      102,
      103,
      104,
      105,
      106,
      107,
      108,
      109,
      110,
      111,
      112,
      113,
      114,
      115,
      116,
      117,
      118,
      119,
      120,
      121,
      122,
      123,
      124,
      125,
      126,
      127,
      128,
      129,
      130,
      131,
      132,
      133,
      134,
      135,
      136,
      137,
      138,
      139,
      140,
      141,
      142,
      143,
      144,
      145,
      146,
      147,
      148,
      149,
      150,
      151,
      152,
      153,
      154,
      155,
      156,
      157,
      158,
      159,
      160,
      161,
      162,
      163,
      164,
      165,
      166,
      167,
      168,
      169,
      170,
      171,
      172,
      173,
      174,
      175,
      176,
      177,
      178,
      179,
      180,
      181,
      182,
      183,
      184,
      185,
      186,
      187,
      188,
      189,
      190,
      191,
      192,
      193,
      194,
      195,
      196,
      197,
      198,
      199,
      200,
      201,
      202,
      203,
      204,
      205,
      206,
      207,
      208,
      209,
      210,
      211,
      212,
      213,
      214,
      215,
      216,
      217,
      218,
      219,
      220,
      221,
      222,
      223,
      224,
      225,
      226,
      227,
      228,
      229,
      230,
      231,
      232,
      233,
      234,
      235,
      236,
      237,
      238,
      239,
      240,
      241,
      242,
      243,
      244,
      245,
      246,
      247,
      248,
      249,
      250,
      251,
      252,
      253,
      254,
      255,
      256,
      257,
      258,
      259,
      260,
      261,
      262,
      263,
      264,
      265,
      266,
      267,
      268,
      269,
      270,
      271,
      272,
      273,
      274,
      275,
      276,
      277,
      278,
      279,
      280,
      281,
      282,
      283,
      284,
      285,
      286,
      287,
      288,
      289,
      290,
      291,
      292,
      293,
      294,
      295,
      296,
      297,
      298,
      299,
      300,
      301,
      302,
      303,
      304,
      305,
      306,
      307,
      308,
      309,
      310,
      311,
      312,
      313,
      314,
      315,
      316,
      317,
      318,
      319,
      320,
      321,
      322,
      323,
      324,
      325,
      326,
      327,
      328,
      329,
      330,
      331,
      332,
      333,
      334,
      335,
      336,
      337,
      338,
      339,
      340,
      341,
      342,
      343,
      344,
      345,
      346,
      347,
      348,
      349,
      350,
      351,
      352,
      353,
      354,
      355,
      356,
      357,
      358,
      359,
      360,
      361,
      362,
      363,
      364,
      365,
      366,
      367,
      368,
      369,
      370,
      371,
      372,
      373,
      374,
      375,
      376,
      377,
      378,
      379,
      380,
      381,
      382,
      383,
      384,
      385,
      386,
      387,
      388,
      389,
      390,
      391,
      392,
      393,
      394,
      395,
      396,
      397,
      398,
      399,
      400,
      401,
      402,
      403,
      404,
      405,
      406,
      407,
      408,
      409,
      410,
      411,
      412,
      413,
      414,
      415,
      416,
      417,
      418,
      419,
      420,
      421,
      422,
      423,
      424,
      425,
      426,
      427,
      428,
      429,
      430,
      431,
      432,
      433,
      434,
      435,
      436,
      437,
      438,
      439,
      440,
      441,
      442,
      443,
      444,
      445,
      446,
      447,
      448,
      449,
      450,
      451,
      452,
      453,
      454,
      455,
      456,
      457,
      458,
      459,
      460,
      461,
      462,
      463,
      464,
      465,
      466,
      467,
      468,
      469,
      470,
      471,
      472,
      473,
      474,
      475,
      476,
      477,
      478,
      479,
      480,
      481,
      482,
      483,
      484,
      485,
      486,
      487,
      488,
      489,
      490,
      491,
      492,
      493,
      494,
      495,
      496,
      497,
      498,
      499
    ],
    "timestamps": [
      "2022-11-11T16:46:43.544554",
      "2022-11-11T16:46:45.437455",
      "2022-11-11T16:46:47.257066",
      "2022-11-11T16:46:49.071615",
      "2022-11-11T16:46:50.891372",
      "2022-11-11T16:46:52.706154",
      "2022-11-11T16:46:54.525711",
      "2022-11-11T16:46:56.343200",
      "2022-11-11T16:46:58.156155",
      "2022-11-11T16:46:59.977277",
      "2022-11-11T16:47:01.874253",
      "2022-11-11T16:47:03.688517",
      "2022-11-11T16:47:05.529027",
      "2022-11-11T16:47:07.379860",
      "2022-11-11T16:47:09.243047",
      "2022-11-11T16:47:11.068347",
      "2022-11-11T16:47:12.888179",
      "2022-11-11T16:47:14.705322",
      "2022-11-11T16:47:16.595257",
      "2022-11-11T16:47:18.416557",
      "2022-11-11T16:47:20.263625",
      "2022-11-11T16:47:22.082438",
      "2022-11-11T16:47:23.898193",
      "2022-11-11T16:47:25.714164",
      "2022-11-11T16:47:27.531277",
      "2022-11-11T16:47:29.351481",
      "2022-11-11T16:47:31.171620",
      "2022-11-11T16:47:32.987320",
      "2022-11-11T16:47:34.804509",
      "2022-11-11T16:47:36.623877",
      "2022-11-11T16:47:38.473289",
      "2022-11-11T16:47:40.294393",
      "2022-11-11T16:47:42.112213",
      "2022-11-11T16:47:43.929400",
      "2022-11-11T16:47:45.746411",
      "2022-11-11T16:47:47.564978",
      "2022-11-11T16:47:49.382833",
      "2022-11-11T16:47:51.199738",
      "2022-11-11T16:47:53.016405",
      "2022-11-11T16:47:54.832932",
      "2022-11-11T16:47:56.679341",
      "2022-11-11T16:47:58.497026",
      "2022-11-11T16:48:00.317053",
      "2022-11-11T16:48:02.130800",
      "2022-11-11T16:48:03.948392",
      "2022-11-11T16:48:05.768133",
      "2022-11-11T16:48:07.585701",
      "2022-11-11T16:48:09.404437",
      "2022-11-11T16:48:11.222946",
      "2022-11-11T16:48:13.041833",
      "2022-11-11T16:48:14.887672",
      "2022-11-11T16:48:16.707837",
      "2022-11-11T16:48:18.524451",
      "2022-11-11T16:48:20.347094",
      "2022-11-11T16:48:22.161825",
      "2022-11-11T16:48:23.977693",
      "2022-11-11T16:48:25.795259",
      "2022-11-11T16:48:27.614025",
      "2022-11-11T16:48:29.430467",
      "2022-11-11T16:48:31.249115",
      "2022-11-11T16:48:33.091408",
      "2022-11-11T16:48:34.907933",
      "2022-11-11T16:48:36.723272",
      "2022-11-11T16:48:38.541112",
      "2022-11-11T16:48:40.364937",
      "2022-11-11T16:48:42.181181",
      "2022-11-11T16:48:44.000188",
      "2022-11-11T16:48:45.821223",
      "2022-11-11T16:48:47.636868",
      "2022-11-11T16:48:49.456364",
      "2022-11-11T16:48:51.302740",
      "2022-11-11T16:48:53.117472",
      "2022-11-11T16:48:54.931788",
      "2022-11-11T16:48:56.749181",
      "2022-11-11T16:48:58.564563",
      "2022-11-11T16:49:00.384516",
      "2022-11-11T16:49:02.202553",
      "2022-11-11T16:49:04.023066",
      "2022-11-11T16:49:05.845179",
      "2022-11-11T16:49:07.665612",
      "2022-11-11T16:49:09.517614",
      "2022-11-11T16:49:11.342706",
      "2022-11-11T16:49:13.159186",
      "2022-11-11T16:49:14.977992",
      "2022-11-11T16:49:16.799830",
      "2022-11-11T16:49:18.615392",
      "2022-11-11T16:49:20.441162",
      "2022-11-11T16:49:22.261390",
      "2022-11-11T16:49:24.081504",
      "2022-11-11T16:49:25.905259",
      "2022-11-11T16:49:27.754051",
      "2022-11-11T16:49:29.580533",
      "2022-11-11T16:49:31.407423",
      "2022-11-11T16:49:33.224811",
      "2022-11-11T16:49:35.045038",
      "2022-11-11T16:49:36.869950",
      "2022-11-11T16:49:38.686861",
      "2022-11-11T16:49:40.507557",
      "2022-11-11T16:49:42.327296",
      "2022-11-11T16:49:44.144664",
      "2022-11-11T16:49:45.994542",
      "2022-11-11T16:49:47.817759",
      "2022-11-11T16:49:49.638348",
      "2022-11-11T16:49:51.460609",
      "2022-11-11T16:49:53.280741",
      "2022-11-11T16:49:55.100865",
      "2022-11-11T16:49:56.926120",
      "2022-11-11T16:49:58.748157",
      "2022-11-11T16:50:00.572639",
      "2022-11-11T16:50:02.396582",
      "2022-11-11T16:50:04.246962",
      "2022-11-11T16:50:06.069907",
      "2022-11-11T16:50:07.892700",
      "2022-11-11T16:50:09.712078",
      "2022-11-11T16:50:11.539796",
      "2022-11-11T16:50:13.362208",
      "2022-11-11T16:50:15.183929",
      "2022-11-11T16:50:17.006160",
      "2022-11-11T16:50:18.825903",
      "2022-11-11T16:50:20.651180",
      "2022-11-11T16:50:22.499803",
      "2022-11-11T16:50:24.318444",
      "2022-11-11T16:50:26.138913",
      "2022-11-11T16:50:27.959963",
      "2022-11-11T16:50:29.778027",
      "2022-11-11T16:50:31.602277",
      "2022-11-11T16:50:33.428662",
      "2022-11-11T16:50:35.255169",
      "2022-11-11T16:50:37.081647",
      "2022-11-11T16:50:38.904003",
      "2022-11-11T16:50:40.759371",
      "2022-11-11T16:50:42.579906",
      "2022-11-11T16:50:44.401937",
      "2022-11-11T16:50:46.221732",
      "2022-11-11T16:50:48.043688",
      "2022-11-11T16:50:49.868894",
      "2022-11-11T16:50:51.689982",
      "2022-11-11T16:50:53.512225",
      "2022-11-11T16:50:55.337118",
      "2022-11-11T16:50:57.157426",
      "2022-11-11T16:50:59.005056",
      "2022-11-11T16:51:00.830308",
      "2022-11-11T16:51:02.651713",
      "2022-11-11T16:51:04.471493",
      "2022-11-11T16:51:06.294531",
      "2022-11-11T16:51:08.113092",
      "2022-11-11T16:51:09.932826",
      "2022-11-11T16:51:11.758177",
      "2022-11-11T16:51:13.576576",
      "2022-11-11T16:51:15.408706",
      "2022-11-11T16:51:17.255631",
      "2022-11-11T16:51:19.076060",
      "2022-11-11T16:51:20.900187",
      "2022-11-11T16:51:22.717855",
      "2022-11-11T16:51:24.538849",
      "2022-11-11T16:51:26.363822",
      "2022-11-11T16:51:28.182038",
      "2022-11-11T16:51:30.004441",
      "2022-11-11T16:51:31.826389",
      "2022-11-11T16:51:33.648129",
      "2022-11-11T16:51:35.497813",
      "2022-11-11T16:51:37.321057",
      "2022-11-11T16:51:39.138163",
      "2022-11-11T16:51:40.959051",
      "2022-11-11T16:51:42.777959",
      "2022-11-11T16:51:44.598971",
      "2022-11-11T16:51:46.423746",
      "2022-11-11T16:51:48.245589",
      "2022-11-11T16:51:50.068313",
      "2022-11-11T16:51:51.893716",
      "2022-11-11T16:51:53.741522",
      "2022-11-11T16:51:55.567419",
      "2022-11-11T16:51:57.395862",
      "2022-11-11T16:51:59.218286",
      "2022-11-11T16:52:01.048892",
      "2022-11-11T16:52:02.877813",
      "2022-11-11T16:52:04.704218",
      "2022-11-11T16:52:06.535118",
      "2022-11-11T16:52:08.363456",
      "2022-11-11T16:52:10.191863",
      "2022-11-11T16:52:12.048354",
      "2022-11-11T16:52:13.880296",
      "2022-11-11T16:52:15.704227",
      "2022-11-11T16:52:17.535847",
      "2022-11-11T16:52:19.362842",
      "2022-11-11T16:52:21.189123",
      "2022-11-11T16:52:23.013943",
      "2022-11-11T16:52:24.840795",
      "2022-11-11T16:52:26.664354",
      "2022-11-11T16:52:28.490754",
      "2022-11-11T16:52:30.340459",
      "2022-11-11T16:52:32.158120",
      "2022-11-11T16:52:33.977718",
      "2022-11-11T16:52:35.804376",
      "2022-11-11T16:52:37.623836",
      "2022-11-11T16:52:39.442256",
      "2022-11-11T16:52:41.263365",
      "2022-11-11T16:52:43.080003",
      "2022-11-11T16:52:44.897429",
      "2022-11-11T16:52:46.714248",
      "2022-11-11T16:52:48.565528",
      "2022-11-11T16:52:50.387747",
      "2022-11-11T16:52:52.208516",
      "2022-11-11T16:52:54.026771",
      "2022-11-11T16:52:55.849024",
      "2022-11-11T16:52:57.667881",
      "2022-11-11T16:52:59.488707",
      "2022-11-11T16:53:01.313501",
      "2022-11-11T16:53:03.129653",
      "2022-11-11T16:53:04.948574",
      "2022-11-11T16:53:06.795623",
      "2022-11-11T16:53:08.612721",
      "2022-11-11T16:53:10.440453",
      "2022-11-11T16:53:12.262235",
      "2022-11-11T16:53:14.079758",
      "2022-11-11T16:53:15.902354",
      "2022-11-11T16:53:17.721849",
      "2022-11-11T16:53:19.543897",
      "2022-11-11T16:53:21.365840",
      "2022-11-11T16:53:23.187787",
      "2022-11-11T16:53:25.038699",
      "2022-11-11T16:53:26.865645",
      "2022-11-11T16:53:28.684854",
      "2022-11-11T16:53:30.509263",
      "2022-11-11T16:53:32.333502",
      "2022-11-11T16:53:34.153468",
      "2022-11-11T16:53:35.977818",
      "2022-11-11T16:53:37.799533",
      "2022-11-11T16:53:39.620694",
      "2022-11-11T16:53:41.447493",
      "2022-11-11T16:53:43.296207",
      "2022-11-11T16:53:45.116395",
      "2022-11-11T16:53:46.940601",
      "2022-11-11T16:53:48.761600",
      "2022-11-11T16:53:50.586567",
      "2022-11-11T16:53:52.409610",
      "2022-11-11T16:53:54.227992",
      "2022-11-11T16:53:56.050633",
      "2022-11-11T16:53:57.871004",
      "2022-11-11T16:53:59.692491",
      "2022-11-11T16:54:01.544947",
      "2022-11-11T16:54:03.366769",
      "2022-11-11T16:54:05.187373",
      "2022-11-11T16:54:07.009433",
      "2022-11-11T16:54:08.831845",
      "2022-11-11T16:54:10.667893",
      "2022-11-11T16:54:12.498847",
      "2022-11-11T16:54:14.321684",
      "2022-11-11T16:54:16.147798",
      "2022-11-11T16:54:17.967578",
      "2022-11-11T16:54:19.821750",
      "2022-11-11T16:54:21.643261",
      "2022-11-11T16:54:23.462938",
      "2022-11-11T16:54:25.281556",
      "2022-11-11T16:54:27.104162",
      "2022-11-11T16:54:28.927334",
      "2022-11-11T16:54:30.749495",
      "2022-11-11T16:54:32.571135",
      "2022-11-11T16:54:34.392953",
      "2022-11-11T16:54:36.212221",
      "2022-11-11T16:54:38.060899",
      "2022-11-11T16:54:39.885878",
      "2022-11-11T16:54:41.709094",
      "2022-11-11T16:54:43.531955",
      "2022-11-11T16:54:45.355701",
      "2022-11-11T16:54:47.176484",
      "2022-11-11T16:54:48.998155",
      "2022-11-11T16:54:50.826017",
      "2022-11-11T16:54:52.646783",
      "2022-11-11T16:54:54.467778",
      "2022-11-11T16:54:56.320704",
      "2022-11-11T16:54:58.141927",
      "2022-11-11T16:54:59.961521",
      "2022-11-11T16:55:01.785287",
      "2022-11-11T16:55:03.607301",
      "2022-11-11T16:55:05.435836",
      "2022-11-11T16:55:07.262936",
      "2022-11-11T16:55:09.090423",
      "2022-11-11T16:55:10.920862",
      "2022-11-11T16:55:12.743778",
      "2022-11-11T16:55:14.593360",
      "2022-11-11T16:55:16.420467",
      "2022-11-11T16:55:18.240373",
      "2022-11-11T16:55:20.060115",
      "2022-11-11T16:55:21.882378",
      "2022-11-11T16:55:23.703563",
      "2022-11-11T16:55:25.525916",
      "2022-11-11T16:55:27.347647",
      "2022-11-11T16:55:29.166573",
      "2022-11-11T16:55:30.995427",
      "2022-11-11T16:55:32.842963",
      "2022-11-11T16:55:34.657992",
      "2022-11-11T16:55:36.479786",
      "2022-11-11T16:55:38.300629",
      "2022-11-11T16:55:40.122289",
      "2022-11-11T16:55:41.943553",
      "2022-11-11T16:55:43.762028",
      "2022-11-11T16:55:45.582214",
      "2022-11-11T16:55:47.401398",
      "2022-11-11T16:55:49.215352",
      "2022-11-11T16:55:51.066971",
      "2022-11-11T16:55:52.888002",
      "2022-11-11T16:55:54.705157",
      "2022-11-11T16:55:56.529169",
      "2022-11-11T16:55:58.350866",
      "2022-11-11T16:56:00.179728",
      "2022-11-11T16:56:02.005316",
      "2022-11-11T16:56:03.828373",
      "2022-11-11T16:56:05.649045",
      "2022-11-11T16:56:07.470244",
      "2022-11-11T16:56:09.318065",
      "2022-11-11T16:56:11.146064",
      "2022-11-11T16:56:12.965113",
      "2022-11-11T16:56:14.784707",
      "2022-11-11T16:56:16.610549",
      "2022-11-11T16:56:18.431719",
      "2022-11-11T16:56:20.254259",
      "2022-11-11T16:56:22.079677",
      "2022-11-11T16:56:23.901036",
      "2022-11-11T16:56:25.720500",
      "2022-11-11T16:56:27.568561",
      "2022-11-11T16:56:29.391744",
      "2022-11-11T16:56:31.217683",
      "2022-11-11T16:56:33.039086",
      "2022-11-11T16:56:34.859151",
      "2022-11-11T16:56:36.678653",
      "2022-11-11T16:56:38.501546",
      "2022-11-11T16:56:40.328718",
      "2022-11-11T16:56:42.146580",
      "2022-11-11T16:56:43.963977",
      "2022-11-11T16:56:45.817140",
      "2022-11-11T16:56:47.637915",
      "2022-11-11T16:56:49.462973",
      "2022-11-11T16:56:51.287217",
      "2022-11-11T16:56:53.109307",
      "2022-11-11T16:56:54.928656",
      "2022-11-11T16:56:56.752738",
      "2022-11-11T16:56:58.573236",
      "2022-11-11T16:57:00.401517",
      "2022-11-11T16:57:02.221592",
      "2022-11-11T16:57:04.071914",
      "2022-11-11T16:57:05.896114",
      "2022-11-11T16:57:07.716324",
      "2022-11-11T16:57:09.538951",
      "2022-11-11T16:57:11.368175",
      "2022-11-11T16:57:13.187561",
      "2022-11-11T16:57:15.011609",
      "2022-11-11T16:57:16.856903",
      "2022-11-11T16:57:18.674222",
      "2022-11-11T16:57:20.502239",
      "2022-11-11T16:57:22.352570",
      "2022-11-11T16:57:24.170562",
      "2022-11-11T16:57:25.994331",
      "2022-11-11T16:57:27.817410",
      "2022-11-11T16:57:29.635115",
      "2022-11-11T16:57:31.457877",
      "2022-11-11T16:57:33.276635",
      "2022-11-11T16:57:35.097153",
      "2022-11-11T16:57:36.919280",
      "2022-11-11T16:57:38.736370",
      "2022-11-11T16:57:40.583991",
      "2022-11-11T16:57:42.404406",
      "2022-11-11T16:57:44.219788",
      "2022-11-11T16:57:46.044477",
      "2022-11-11T16:57:47.867005",
      "2022-11-11T16:57:49.688584",
      "2022-11-11T16:57:51.511564",
      "2022-11-11T16:57:53.332242",
      "2022-11-11T16:57:55.151176",
      "2022-11-11T16:57:56.975325",
      "2022-11-11T16:57:58.823669",
      "2022-11-11T16:58:00.649436",
      "2022-11-11T16:58:02.472917",
      "2022-11-11T16:58:04.294826",
      "2022-11-11T16:58:06.116658",
      "2022-11-11T16:58:07.941968",
      "2022-11-11T16:58:09.763111",
      "2022-11-11T16:58:11.590738",
      "2022-11-11T16:58:13.414702",
      "2022-11-11T16:58:15.236811",
      "2022-11-11T16:58:17.086305",
      "2022-11-11T16:58:18.908668",
      "2022-11-11T16:58:20.736719",
      "2022-11-11T16:58:22.558246",
      "2022-11-11T16:58:24.377956",
      "2022-11-11T16:58:26.197079",
      "2022-11-11T16:58:28.016407",
      "2022-11-11T16:58:29.836043",
      "2022-11-11T16:58:31.655673",
      "2022-11-11T16:58:33.475646",
      "2022-11-11T16:58:35.326794",
      "2022-11-11T16:58:37.146118",
      "2022-11-11T16:58:38.963383",
      "2022-11-11T16:58:40.784289",
      "2022-11-11T16:58:42.605388",
      "2022-11-11T16:58:44.426580",
      "2022-11-11T16:58:46.246932",
      "2022-11-11T16:58:48.066263",
      "2022-11-11T16:58:49.886143",
      "2022-11-11T16:58:51.708709",
      "2022-11-11T16:58:53.560111",
      "2022-11-11T16:58:55.385805",
      "2022-11-11T16:58:57.204085",
      "2022-11-11T16:58:59.024881",
      "2022-11-11T16:59:00.849848",
      "2022-11-11T16:59:02.668733",
      "2022-11-11T16:59:04.489107",
      "2022-11-11T16:59:06.312842",
      "2022-11-11T16:59:08.135775",
      "2022-11-11T16:59:09.956186",
      "2022-11-11T16:59:11.808069",
      "2022-11-11T16:59:13.624989",
      "2022-11-11T16:59:15.449466",
      "2022-11-11T16:59:17.268434",
      "2022-11-11T16:59:19.087758",
      "2022-11-11T16:59:20.909996",
      "2022-11-11T16:59:22.729744",
      "2022-11-11T16:59:24.551341",
      "2022-11-11T16:59:26.375341",
      "2022-11-11T16:59:28.195383",
      "2022-11-11T16:59:30.051422",
      "2022-11-11T16:59:31.875681",
      "2022-11-11T16:59:33.694754",
      "2022-11-11T16:59:35.520171",
      "2022-11-11T16:59:37.342155",
      "2022-11-11T16:59:39.159636",
      "2022-11-11T16:59:40.988110",
      "2022-11-11T16:59:42.808439",
      "2022-11-11T16:59:44.624606",
      "2022-11-11T16:59:46.447936",
      "2022-11-11T16:59:48.296197",
      "2022-11-11T16:59:50.115832",
      "2022-11-11T16:59:51.935811",
      "2022-11-11T16:59:53.754064",
      "2022-11-11T16:59:55.574246",
      "2022-11-11T16:59:57.397233",
      "2022-11-11T16:59:59.214966",
      "2022-11-11T17:00:01.044577",
      "2022-11-11T17:00:02.867153",
      "2022-11-11T17:00:04.684261",
      "2022-11-11T17:00:06.535295",
      "2022-11-11T17:00:08.358473",
      "2022-11-11T17:00:10.179443",
      "2022-11-11T17:00:12.001233",
      "2022-11-11T17:00:13.822067",
      "2022-11-11T17:00:15.644640",
      "2022-11-11T17:00:17.467880",
      "2022-11-11T17:00:19.288447",
      "2022-11-11T17:00:21.121265",
      "2022-11-11T17:00:22.944345",
      "2022-11-11T17:00:24.793781",
      "2022-11-11T17:00:26.618294",
      "2022-11-11T17:00:28.442401",
      "2022-11-11T17:00:30.272316",
      "2022-11-11T17:00:32.094265",
      "2022-11-11T17:00:33.915295",
      "2022-11-11T17:00:35.736378",
      "2022-11-11T17:00:37.559162",
      "2022-11-11T17:00:39.381773",
      "2022-11-11T17:00:41.209717",
      "2022-11-11T17:00:43.062065",
      "2022-11-11T17:00:44.886388",
      "2022-11-11T17:00:46.710804",
      "2022-11-11T17:00:48.534175",
      "2022-11-11T17:00:50.364821",
      "2022-11-11T17:00:52.186284",
      "2022-11-11T17:00:54.008942",
      "2022-11-11T17:00:55.834059",
      "2022-11-11T17:00:57.657211",
      "2022-11-11T17:00:59.479328",
      "2022-11-11T17:01:01.338619",
      "2022-11-11T17:01:03.160694",
      "2022-11-11T17:01:04.980846",
      "2022-11-11T17:01:06.801293",
      "2022-11-11T17:01:08.620089",
      "2022-11-11T17:01:10.449936",
      "2022-11-11T17:01:12.269814",
      "2022-11-11T17:01:14.090422",
      "2022-11-11T17:01:15.916715",
      "2022-11-11T17:01:17.737218",
      "2022-11-11T17:01:19.588060",
      "2022-11-11T17:01:21.412004",
      "2022-11-11T17:01:23.232522",
      "2022-11-11T17:01:25.053558",
      "2022-11-11T17:01:26.879071",
      "2022-11-11T17:01:28.699698",
      "2022-11-11T17:01:30.529749",
      "2022-11-11T17:01:32.352670",
      "2022-11-11T17:01:34.169198",
      "2022-11-11T17:01:35.992574",
      "2022-11-11T17:01:37.840672",
      "2022-11-11T17:01:39.663448",
      "2022-11-11T17:01:41.487338",
      "2022-11-11T17:01:43.307032",
      "2022-11-11T17:01:45.126681",
      "2022-11-11T17:01:46.950725",
      "2022-11-11T17:01:48.771927",
      "2022-11-11T17:01:50.595924",
      "2022-11-11T17:01:52.418001",
      "2022-11-11T17:01:54.236287"
    ],
    "values": [
      636.5242504906116,
      201.57649833521862,
      173.53279124992838,
      140.141096560305,
      109.51647431407629,
      84.47614532378176,
      69.46628395157188,
      59.77246708774332,
      55.82324355781661,
      53.47017376261442,
      51.697938976305345,
      50.16956071860513,
      48.92770309086602,
      48.07125309446612,
      47.69061357076927,
      46.373132796314806,
      46.188449235252854,
      45.89762661584575,
      45.53325328052353,
      44.94545655973775,
      44.926185048568996,
      44.53639433647242,
      44.26381635627914,
      44.01759717447697,
      43.940632560514075,
      43.41103164408738,
      43.257328745734135,
      43.56015299447531,
      43.569827327734565,
      43.35894031167182,
      42.86214167783476,
      42.74588883280143,
      42.85193130816526,
      42.583165409611084,
      42.74496345838308,
      42.635519589195276,
      42.2664017655014,
      42.2043799067869,
      42.38833951026233,
      42.40547531202791,
      42.7613857695156,
      42.188132427685815,
      41.96845744140875,
      41.92322618341635,
      41.67369111997389,
      41.72242408825093,
      41.79054230427964,
      42.12740406580952,
      42.07622000874322,
      41.585945898256796,
      41.559245565326776,
      41.49437470221745,
      41.262430534107885,
      41.28449593781077,
      41.50619658020913,
      41.14322733242851,
      41.49177220894533,
      41.19037267731691,
      41.182941509423934,
      41.305287241593575,
      41.32428013663001,
      41.1566900872958,
      41.07614341962169,
      41.36238178549524,
      40.986112284481905,
      41.090102233635015,
      40.97573269772609,
      40.7000095664465,
      40.81423648582399,
      40.56998897006782,
      40.7209247814759,
      40.53242605050548,
      40.59358768475071,
      40.550559278773406,
      40.43808919525079,
      40.35592148657683,
      40.167550549084496,
      40.24871581296481,
      40.313634772068056,
      40.16424016363492,
      40.158245964788904,
      40.50453193748069,
      40.198739029692234,
      39.98479008491538,
      39.99633311262754,
      39.78733139002607,
      39.68865177680631,
      39.60172308785435,
      39.74469567373162,
      40.04424429389571,
      39.823434189335046,
      39.70105947085454,
      39.66905190234388,
      39.44050875913363,
      39.55634793364517,
      39.54146374088801,
      39.74943116313702,
      39.35672962540021,
      39.6224100011341,
      39.71515768857776,
      39.54824826854279,
      39.601712472986186,
      39.342843356473914,
      39.30048343232118,
      39.37784438299869,
      39.39114218225748,
      39.401351319398216,
      39.386500600541005,
      39.55514647965714,
      39.21914269256953,
      39.348330668132704,
      39.23504550287754,
      39.36691313898034,
      39.58911234440742,
      39.12561195054422,
      39.25844548861932,
      39.93563491925615,
      39.57779728308658,
      39.235207842280715,
      39.39924843669274,
      39.11924734312131,
      39.142673497634,
      39.37224148096368,
      39.169059197439196,
      39.14829327330275,
      39.40344047218878,
      39.18167452188052,
      39.30021078423416,
      39.07957946627277,
      39.156495386773265,
      39.24064359931983,
      39.27250089231998,
      39.04370895716947,
      39.171786678728985,
      39.11690712922477,
      39.23590691101155,
      39.14838669008826,
      39.08395801356785,
      39.120267696591334,
      39.45476544517796,
      39.165976983593715,
      38.987898687124044,
      39.136957152744294,
      39.396188020156096,
      39.31002872551737,
      39.3197762656852,
      39.22206738659558,
      39.14076914042102,
      38.94661737828422,
      39.11087899946956,
      39.074848351391566,
      39.164064723620534,
      39.06897440544085,
      39.10458235937627,
      38.99116028050028,
      39.035284061131925,
      38.88555738886013,
      38.955729718915016,
      39.025400576045925,
      38.995353354200546,
      39.39108285002812,
      39.1381548968957,
      38.89070254289715,
      39.08409645824328,
      39.08987800277829,
      38.984908660000926,
      39.02698761307224,
      39.115667465578035,
      38.976683135477856,
      38.99386993365854,
      39.00927341070433,
      38.97976541784686,
      38.78884461619637,
      39.039209681020466,
      38.96078480714266,
      38.93504789050033,
      39.06425166713171,
      38.89897769812535,
      38.726581920180685,
      38.85176830833151,
      39.014061576436205,
      39.0352600212866,
      38.924940644359395,
      38.790113174197316,
      39.19617108683514,
      38.90209527583051,
      38.87785739790177,
      38.75691177027786,
      38.91575688151664,
      38.97284497628741,
      39.09365797559623,
      40.02740587099134,
      39.08955667994659,
      38.94926577076994,
      38.78754120769361,
      38.807415873078014,
      38.80655833741595,
      38.93404699699996,
      38.805192368239275,
      38.92538883993618,
      38.102222592484964,
      37.94451415286165,
      37.92981451651469,
      37.92499727146101,
      37.91104531337342,
      37.90792868275523,
      37.89232726103261,
      37.919251107161614,
      37.92325782894201,
      37.90533788760842,
      37.891067783481375,
      37.899092568773035,
      37.8970410344603,
      37.90850671339019,
      37.92396974621877,
      37.90180601964362,
      37.92051114938131,
      37.912085940031396,
      37.91365451941681,
      37.90609196273308,
      37.917688782607904,
      37.91990949294348,
      37.91312886894999,
      37.92395509949421,
      37.913440235688334,
      37.90188740521008,
      37.91568292361964,
      37.92246123393881,
      37.84622483205171,
      37.79856923607638,
      37.80124435617349,
      37.80040290005533,
      37.79833983695273,
      37.80442452831302,
      37.80219746754855,
      37.805707334878875,
      37.79677596695959,
      37.798566545000966,
      37.8011985589248,
      37.79848908084174,
      37.792489715969296,
      37.79627757741051,
      37.7955134561363,
      37.80753309364723,
      37.795891175169395,
      37.79512585525,
      37.80691836789226,
      37.80254158493048,
      37.79336981978004,
      37.79684764798685,
      37.79471065194429,
      37.79316612049501,
      37.797202491381846,
      37.802177410109294,
      37.78831780204922,
      37.78883504808154,
      37.7918266768163,
      37.787999595110804,
      37.787431794572235,
      37.791659987101646,
      37.792742117522536,
      37.80298645350803,
      37.800090529299084,
      37.77988804099007,
      37.80272472518646,
      37.7993714005401,
      37.80222890173001,
      37.80758619649283,
      37.79395369798728,
      37.796215669154755,
      37.800738879394366,
      37.79298149219332,
      37.79804144109413,
      37.79812535881324,
      37.80035543527664,
      37.79549376319116,
      37.795163294159394,
      37.80548031502475,
      37.800803093350446,
      37.79388061461078,
      37.79241174928756,
      37.79972453586328,
      37.80135867358236,
      37.79977710744495,
      37.79076252233128,
      37.78530590386515,
      37.7765249547949,
      37.7862911219206,
      37.785654711492,
      37.78905384131445,
      37.778970699107525,
      37.78454513827911,
      37.78191362034072,
      37.77782015975672,
      37.783640309946556,
      37.77782319496441,
      37.77631104780577,
      37.77691088983791,
      37.779418659791254,
      37.780685818552556,
      37.77024638193116,
      37.77971616971262,
      37.78723772150205,
      37.77675610797137,
      37.78554894743645,
      37.7814290552144,
      37.77942989488882,
      37.77554459248281,
      37.78127605654253,
      37.77635677927648,
      37.7810841105176,
      37.77357009903806,
      37.78027163921073,
      37.777594038374716,
      37.785801384162696,
      37.77705876028037,
      37.7778112755242,
      37.778142179100776,
      37.779728267751665,
      37.78649834272647,
      37.783524233682414,
      37.77135293247439,
      37.76861993925514,
      37.77637484040691,
      37.773895120614306,
      37.78347200821007,
      37.77557269502282,
      37.782479809479526,
      37.780611257059654,
      37.77906267618654,
      37.77906700925343,
      37.765927737197735,
      37.774313904753285,
      37.77400053171245,
      37.77921833228194,
      37.78278045751613,
      37.78078928249355,
      37.78161499818263,
      37.78315981308788,
      37.78038549793546,
      37.782124285582924,
      37.784267211650075,
      37.77348449862491,
      37.779557850736886,
      37.78465771598691,
      37.78596236628041,
      37.78590468356092,
      37.781628048966795,
      37.77974138634619,
      37.78201490210276,
      37.79011065384902,
      37.781727616256966,
      37.775991812453604,
      37.77866870542301,
      37.78326515447975,
      37.78114406370002,
      37.78755597936539,
      37.77037384384795,
      37.78479191819321,
      37.771103310517425,
      37.78260910973825,
      37.77924255570018,
      37.76946623409654,
      37.77006604527858,
      37.776846507007456,
      37.77821800403781,
      37.77781699156758,
      37.77717685264596,
      37.781187741884914,
      37.780283935508216,
      37.77937711631661,
      37.780696044760425,
      37.776053271745596,
      37.77420670757562,
      37.7898876736577,
      37.7761558499389,
      37.78536505771725,
      37.76630308346482,
      37.77487439272586,
      37.78054518641217,
      37.77658703048792,
      37.77522657839861,
      37.772932889138126,
      37.77441754158026,
      37.781520955479635,
      37.77996710266936,
      37.77145803614695,
      37.77369016129324,
      37.77215267415744,
      37.78465071798079,
      37.76358861080692,
      37.77101022451304,
      37.78063849293617,
      37.78037915048521,
      37.76826003934622,
      37.778701251928005,
      37.780926395032495,
      37.77296564380923,
      37.78116559620261,
      37.78349583824941,
      37.77164989684178,
      37.78207478900268,
      37.776164049944356,
      37.77255349523121,
      37.77221283393954,
      37.777136897061155,
      37.78335844226677,
      37.792247941026034,
      37.772753147527744,
      37.7756149703212,
      37.77898094580717,
      37.772048196036785,
      37.77479528303243,
      37.78241622843093,
      37.767764508547046,
      37.7773053028113,
      37.78146464977983,
      37.77627171750709,
      37.772398096016886,
      37.78059094423728,
      37.777925318630714,
      37.78484274634839,
      37.77369688876098,
      37.778327327109714,
      37.78265121682235,
      37.78372299935856,
      37.770201234277856,
      37.77915460192106,
      37.77377042439637,
      37.77169955495952,
      37.780983817689105,
      37.77075339741792,
      37.78549115849281,
      37.77917228817669,
      37.78005356760482,
      37.772104784371066,
      37.77553946957259,
      37.78417639240238,
      37.774917362965105,
      37.778649679441614,
      37.782435275733675,
      37.773076519141185,
      37.779726954818294,
      37.77877768943611,
      37.77598783406522,
      37.785345779132264,
      37.77649165757829,
      37.771282213949306,
      37.77144858627057,
      37.78238564975103,
      37.77334886449948,
      37.786536365022705,
      37.782628643971194,
      37.777194392357366,
      37.786548387926864,
      37.77063728555783,
      37.77515903026996,
      37.782306533582286,
      37.7929663177678,
      37.767518020721674,
      37.78188708200103,
      37.77635899259695,
      37.7780336307152,
      37.77342708495355,
      37.77936375297196,
      37.77231763883992,
      37.780769837602485,
      37.771437039449445,
      37.78096861054179,
      37.78036769357547,
      37.770439947860304,
      37.77425147601827,
      37.785583166945095,
      37.77562442730993,
      37.77705232473219,
      37.77499859910873,
      37.773734786885655,
      37.78244541908633,
      37.778574579012286,
      37.77434192957257,
      37.78221345408673,
      37.78433352009051,
      37.77322992298199,
      37.77537274382032,
      37.771396576105296,
      37.77215228655711,
      37.78155310715096,
      37.77211600933709,
      37.77592764709783,
      37.79089193236144,
      37.77147411266987,
      37.7720632364547,
      37.777018466740145,
      37.77474383772644,
      37.78432422405636,
      37.77199919527449,
      37.774690614069875,
      37.77377618023503,
      37.78199411785317,
      37.7782452549611
    ]
  },
  "val": {
    "steps": [
      0,
      1,
      2,
      3,
      4,
      5,
      6,
      7,
      8,
      9,
      10,
      11,
      12,
      13,
      14,
      15,
      16,
      17,
      18,
      19,
      20,
      21,
      22,
      23,
      24,
      25,
      26,
      27,
      28,
      29,
      30,
      31,
      32,
      33,
      34,
      35,
      36,
      37,
      38,
      39,
      40,
      41,
      42,
      43,
      44,
      45,
      46,
      47,
      48,
      49,
      50,
      51,
      52,
      53,
      54,
      55,
      56,
      57,
      58,
      59,
      60,
      61,
      62,
      63,
      64,
      65,
      66,
      67,
      68,
      69,
      70,
      71,
      72,
      73,
      74,
      75,
      76,
      77,
      78,
      79,
      80,
      81,
      82,
      83,
      84,
      85,
      86,
      87,
      88,
      89,
      90,
      91,
      92,
      93,
      94,
      95,
      96,
      97,
      98,
      99,
      100,
      101,
      102,
      103,
      104,
      105,
      106,
      107,
      108,
      109,
      110,
      111,
      112,
      113,
      114,
      115,
      116,
      117,
      118,
      119,
      120,
      121,
      122,
      123,
      124,
      125,
      126,
      127,
      128,
      129,
      130,
      131,
      132,
      133,
      134,
      135,
      136,
      137,
      138,
      139,
      140,
      141,
      142,
      143,
      144,
      145,
      146,
      147,
      148,
      149,
      150,
      151,
      152,
      153,
      154,
      155,
      156,
      157,
      158,
      159,
      160,
      161,
      162,
      163,
      164,
      165,
      166,
      167,
      168,
      169,
      170,
      171,
      172,
      173,
      174,
      175,
      176,
      177,
      178,
      179,
      180,
      181,
      182,
      183,
      184,
      185,
      186,
      187,
      188,
      189,
      190,
      191,
      192,
      193,
      194,
      195,
      196,
      197,
      198,
      199,
      200,
      201,
      202,
      203,
      204,
      205,
      206,
      207,
      208,
      209,
      210,
      211,
      212,
      213,
      214,
      215,
      216,
      217,
      218,
      219,
      220,
      221,
      222,
      223,
      224,
      225,
      226,
      227,
      228,
      229,
      230,
      231,
      232,
      233,
      234,
      235,
      236,
      237,
      238,
      239,
      240,
      241,
      242,
      243,
      244,
      245,
      246,
      247,
      248,
      249,
      250,
      251,
      252,
      253,
      254,
      255,
      256,
      257,
      258,
      259,
      260,
      261,
      262,
      263,
      264,
      265,
      266,
      267,
      268,
      269,
      270,
      271,
      272,
      273,
      274,
      275,
      276,
      277,
      278,
      279,
      280,
      281,
      282,
      283,
      284,
      285,
      286,
      287,
      288,
      289,
      290,
      291,
      292,
      293,
      294,
      295,
      296,
      297,
      298,
      299,
      300,
      301,
      302,
      303,
      304,
      305,
      306,
      307,
      308,
      309,
      310,
      311,
      312,
      313,
      314,
      315,
      316,
      317,
      318,
      319,
      320,
      321,
      322,
      323,
      324,
      325,
      326,
      327,
      328,
      329,
      330,
      331,
      332,
      333,
      334,
      335,
      336,
      337,
      338,
      339,
      340,
      341,
      342,
      343,
      344,
      345,
      346,
      347,
      348,
      349,
      350,
      351,
      352,
      353,
      354,
      355,
      356,
      357,
      358,
      359,
      360,
      361,
      362,
      363,
      364,
      365,
      366,
      367,
      368,
      369,
      370,
      371,
      372,
      373,
      374,
      375,
      376,
      377,
      378,
      379,
      380,
      381,
      382,
      383,
      384,
      385,
      386,
      387,
      388,
      389,
      390,
      391,
      392,
      393,
      394,
      395,
      396,
      397,
      398,
      399,
      400,
      401,
      402,
      403,
      404,
      405,
      406,
      407,
      408,
      409,
      410,
      411,
      412,
      413,
      414,
      415,
      416,
      417,
      418,
      419,
      420,
      421,
      422,
      423,
      424,
      425,
      426,
      427,
      428,
      429,
      430,
      431,
      432,
      433,
      434,
      435,
      436,
      437,
      438,
      439,
      440,
      441,
      442,
      443,
      444,
      445,
      446,
      447,
      448,
      449,
      450,
      451,
      452,
      453,
      454,
      455,
      456,
      457,
      458,
      459,
      460,
      461,
      462,
      463,
      464,
      465,
      466,
      467,
      468,
      469,
      470,
      471,
      472,
      473,
      474,
      475,
      476,
      477,
      478,
      479,
      480,
      481,
      482,
      483,
      484,
      485,
      486,
      487,
      488,
      489,
      490,
      491,
      492,
      493,
      494,
      495,
      496,
      497,
      498,
      499
    ],
    "timestamps": [
      "2022-11-11T16:46:43.706817",
      "2022-11-11T16:46:45.565774",
      "2022-11-11T16:46:47.387652",
      "2022-11-11T16:46:49.200100",
      "2022-11-11T16:46:51.019659",
      "2022-11-11T16:46:52.837572",
      "2022-11-11T16:46:54.654050",
      "2022-11-11T16:46:56.471755",
      "2022-11-11T16:46:58.285866",
      "2022-11-11T16:47:00.107287",
      "2022-11-11T16:47:02.002705",
      "2022-11-11T16:47:03.820124",
      "2022-11-11T16:47:05.657551",
      "2022-11-11T16:47:07.509150",
      "2022-11-11T16:47:09.373962",
      "2022-11-11T16:47:11.197239",
      "2022-11-11T16:47:13.016713",
      "2022-11-11T16:47:14.837160",
      "2022-11-11T16:47:16.726946",
      "2022-11-11T16:47:18.545072",
      "2022-11-11T16:47:20.394403",
      "2022-11-11T16:47:22.210964",
      "2022-11-11T16:47:24.026749",
      "2022-11-11T16:47:25.845391",
      "2022-11-11T16:47:27.659826",
      "2022-11-11T16:47:29.480117",
      "2022-11-11T16:47:31.302423",
      "2022-11-11T16:47:33.115809",
      "2022-11-11T16:47:34.933527",
      "2022-11-11T16:47:36.753661",
      "2022-11-11T16:47:38.601764",
      "2022-11-11T16:47:40.424463",
      "2022-11-11T16:47:42.241949",
      "2022-11-11T16:47:44.057957",
      "2022-11-11T16:47:45.877137",
      "2022-11-11T16:47:47.693590",
      "2022-11-11T16:47:49.511455",
      "2022-11-11T16:47:51.331619",
      "2022-11-11T16:47:53.144702",
      "2022-11-11T16:47:54.961460",
      "2022-11-11T16:47:56.811093",
      "2022-11-11T16:47:58.625476",
      "2022-11-11T16:48:00.445612",
      "2022-11-11T16:48:02.260332",
      "2022-11-11T16:48:04.076769",
      "2022-11-11T16:48:05.898757",
      "2022-11-11T16:48:07.714081",
      "2022-11-11T16:48:09.533114",
      "2022-11-11T16:48:11.353970",
      "2022-11-11T16:48:13.170415",
      "2022-11-11T16:48:15.016247",
      "2022-11-11T16:48:16.839719",
      "2022-11-11T16:48:18.652715",
      "2022-11-11T16:48:20.475542",
      "2022-11-11T16:48:22.292708",
      "2022-11-11T16:48:24.106427",
      "2022-11-11T16:48:25.925405",
      "2022-11-11T16:48:27.743739",
      "2022-11-11T16:48:29.559058",
      "2022-11-11T16:48:31.379671",
      "2022-11-11T16:48:33.219573",
      "2022-11-11T16:48:35.036246",
      "2022-11-11T16:48:36.855018",
      "2022-11-11T16:48:38.669345",
      "2022-11-11T16:48:40.493323",
      "2022-11-11T16:48:42.312982",
      "2022-11-11T16:48:44.128560",
      "2022-11-11T16:48:45.949997",
      "2022-11-11T16:48:47.766426",
      "2022-11-11T16:48:49.584669",
      "2022-11-11T16:48:51.431999",
      "2022-11-11T16:48:53.247329",
      "2022-11-11T16:48:55.060574",
      "2022-11-11T16:48:56.879484",
      "2022-11-11T16:48:58.693156",
      "2022-11-11T16:49:00.512925",
      "2022-11-11T16:49:02.334969",
      "2022-11-11T16:49:04.152108",
      "2022-11-11T16:49:05.974634",
      "2022-11-11T16:49:07.797217",
      "2022-11-11T16:49:09.646431",
      "2022-11-11T16:49:11.471743",
      "2022-11-11T16:49:13.289120",
      "2022-11-11T16:49:15.107396",
      "2022-11-11T16:49:16.929666",
      "2022-11-11T16:49:18.745566",
      "2022-11-11T16:49:20.570386",
      "2022-11-11T16:49:22.393017",
      "2022-11-11T16:49:24.210640",
      "2022-11-11T16:49:26.034188",
      "2022-11-11T16:49:27.885548",
      "2022-11-11T16:49:29.709582",
      "2022-11-11T16:49:31.536674",
      "2022-11-11T16:49:33.356841",
      "2022-11-11T16:49:35.175879",
      "2022-11-11T16:49:36.998949",
      "2022-11-11T16:49:38.818625",
      "2022-11-11T16:49:40.636470",
      "2022-11-11T16:49:42.456817",
      "2022-11-11T16:49:44.274518",
      "2022-11-11T16:49:46.124215",
      "2022-11-11T16:49:47.946776",
      "2022-11-11T16:49:49.769228",
      "2022-11-11T16:49:51.589321",
      "2022-11-11T16:49:53.411623",
      "2022-11-11T16:49:55.232036",
      "2022-11-11T16:49:57.055648",
      "2022-11-11T16:49:58.879447",
      "2022-11-11T16:50:00.701950",
      "2022-11-11T16:50:02.525455",
      "2022-11-11T16:50:04.378117",
      "2022-11-11T16:50:06.199166",
      "2022-11-11T16:50:08.022174",
      "2022-11-11T16:50:09.844386",
      "2022-11-11T16:50:11.668853",
      "2022-11-11T16:50:13.491413",
      "2022-11-11T16:50:15.316366",
      "2022-11-11T16:50:17.135095",
      "2022-11-11T16:50:18.954907",
      "2022-11-11T16:50:20.781313",
      "2022-11-11T16:50:22.629014",
      "2022-11-11T16:50:24.448085",
      "2022-11-11T16:50:26.269232",
      "2022-11-11T16:50:28.089008",
      "2022-11-11T16:50:29.909125",
      "2022-11-11T16:50:31.732051",
      "2022-11-11T16:50:33.557556",
      "2022-11-11T16:50:35.387153",
      "2022-11-11T16:50:37.210913",
      "2022-11-11T16:50:39.033405",
      "2022-11-11T16:50:40.890335",
      "2022-11-11T16:50:42.708867",
      "2022-11-11T16:50:44.530960",
      "2022-11-11T16:50:46.354054",
      "2022-11-11T16:50:48.172772",
      "2022-11-11T16:50:49.998107",
      "2022-11-11T16:50:51.821789",
      "2022-11-11T16:50:53.641147",
      "2022-11-11T16:50:55.466278",
      "2022-11-11T16:50:57.287596",
      "2022-11-11T16:50:59.133942",
      "2022-11-11T16:51:00.959664",
      "2022-11-11T16:51:02.781784",
      "2022-11-11T16:51:04.600361",
      "2022-11-11T16:51:06.424204",
      "2022-11-11T16:51:08.243020",
      "2022-11-11T16:51:10.062346",
      "2022-11-11T16:51:11.889084",
      "2022-11-11T16:51:13.705328",
      "2022-11-11T16:51:15.537614",
      "2022-11-11T16:51:17.387183",
      "2022-11-11T16:51:19.205218",
      "2022-11-11T16:51:21.028978",
      "2022-11-11T16:51:22.850226",
      "2022-11-11T16:51:24.667386",
      "2022-11-11T16:51:26.492856",
      "2022-11-11T16:51:28.314365",
      "2022-11-11T16:51:30.134200",
      "2022-11-11T16:51:31.955284",
      "2022-11-11T16:51:33.778541",
      "2022-11-11T16:51:35.626915",
      "2022-11-11T16:51:37.450294",
      "2022-11-11T16:51:39.267953",
      "2022-11-11T16:51:41.088080",
      "2022-11-11T16:51:42.909270",
      "2022-11-11T16:51:44.728925",
      "2022-11-11T16:51:46.552887",
      "2022-11-11T16:51:48.376931",
      "2022-11-11T16:51:50.198370",
      "2022-11-11T16:51:52.023449",
      "2022-11-11T16:51:53.872672",
      "2022-11-11T16:51:55.696667",
      "2022-11-11T16:51:57.525142",
      "2022-11-11T16:51:59.352980",
      "2022-11-11T16:52:01.178628",
      "2022-11-11T16:52:03.006643",
      "2022-11-11T16:52:04.837479",
      "2022-11-11T16:52:06.664275",
      "2022-11-11T16:52:08.492289",
      "2022-11-11T16:52:10.323918",
      "2022-11-11T16:52:12.177379",
      "2022-11-11T16:52:14.009324",
      "2022-11-11T16:52:15.835806",
      "2022-11-11T16:52:17.664460",
      "2022-11-11T16:52:19.491879",
      "2022-11-11T16:52:21.320856",
      "2022-11-11T16:52:23.142858",
      "2022-11-11T16:52:24.970113",
      "2022-11-11T16:52:26.795877",
      "2022-11-11T16:52:28.619695",
      "2022-11-11T16:52:30.469241",
      "2022-11-11T16:52:32.287917",
      "2022-11-11T16:52:34.106636",
      "2022-11-11T16:52:35.934071",
      "2022-11-11T16:52:37.753702",
      "2022-11-11T16:52:39.571144",
      "2022-11-11T16:52:41.394357",
      "2022-11-11T16:52:43.208616",
      "2022-11-11T16:52:45.026358",
      "2022-11-11T16:52:46.846092",
      "2022-11-11T16:52:48.694473",
      "2022-11-11T16:52:50.516978",
      "2022-11-11T16:52:52.340364",
      "2022-11-11T16:52:54.156057",
      "2022-11-11T16:52:55.978020",
      "2022-11-11T16:52:57.799579",
      "2022-11-11T16:52:59.617620",
      "2022-11-11T16:53:01.443059",
      "2022-11-11T16:53:03.259620",
      "2022-11-11T16:53:05.077872",
      "2022-11-11T16:53:06.925074",
      "2022-11-11T16:53:08.742455",
      "2022-11-11T16:53:10.569579",
      "2022-11-11T16:53:12.392490",
      "2022-11-11T16:53:14.208723",
      "2022-11-11T16:53:16.031208",
      "2022-11-11T16:53:17.853416",
      "2022-11-11T16:53:19.672987",
      "2022-11-11T16:53:21.495058",
      "2022-11-11T16:53:23.319595",
      "2022-11-11T16:53:25.168000",
      "2022-11-11T16:53:26.994741",
      "2022-11-11T16:53:28.816982",
      "2022-11-11T16:53:30.637919",
      "2022-11-11T16:53:32.462388",
      "2022-11-11T16:53:34.283432",
      "2022-11-11T16:53:36.107028",
      "2022-11-11T16:53:37.928716",
      "2022-11-11T16:53:39.750761",
      "2022-11-11T16:53:41.576355",
      "2022-11-11T16:53:43.426172",
      "2022-11-11T16:53:45.246671",
      "2022-11-11T16:53:47.069950",
      "2022-11-11T16:53:48.892597",
      "2022-11-11T16:53:50.715539",
      "2022-11-11T16:53:52.538491",
      "2022-11-11T16:53:54.359715",
      "2022-11-11T16:53:56.180006",
      "2022-11-11T16:53:58.000090",
      "2022-11-11T16:53:59.824238",
      "2022-11-11T16:54:01.674155",
      "2022-11-11T16:54:03.495734",
      "2022-11-11T16:54:05.319283",
      "2022-11-11T16:54:07.138777",
      "2022-11-11T16:54:08.961059",
      "2022-11-11T16:54:10.800056",
      "2022-11-11T16:54:12.627923",
      "2022-11-11T16:54:14.451188",
      "2022-11-11T16:54:16.277761",
      "2022-11-11T16:54:18.096517",
      "2022-11-11T16:54:19.950699",
      "2022-11-11T16:54:21.773389",
      "2022-11-11T16:54:23.591696",
      "2022-11-11T16:54:25.412851",
      "2022-11-11T16:54:27.234214",
      "2022-11-11T16:54:29.056394",
      "2022-11-11T16:54:30.880616",
      "2022-11-11T16:54:32.699799",
      "2022-11-11T16:54:34.521954",
      "2022-11-11T16:54:36.344414",
      "2022-11-11T16:54:38.189948",
      "2022-11-11T16:54:40.015358",
      "2022-11-11T16:54:41.841549",
      "2022-11-11T16:54:43.661157",
      "2022-11-11T16:54:45.484997",
      "2022-11-11T16:54:47.309145",
      "2022-11-11T16:54:49.127155",
      "2022-11-11T16:54:50.955149",
      "2022-11-11T16:54:52.776878",
      "2022-11-11T16:54:54.596555",
      "2022-11-11T16:54:56.449745",
      "2022-11-11T16:54:58.272081",
      "2022-11-11T16:55:00.091546",
      "2022-11-11T16:55:01.916841",
      "2022-11-11T16:55:03.737107",
      "2022-11-11T16:55:05.564630",
      "2022-11-11T16:55:07.395594",
      "2022-11-11T16:55:09.219597",
      "2022-11-11T16:55:11.050215",
      "2022-11-11T16:55:12.875142",
      "2022-11-11T16:55:14.722328",
      "2022-11-11T16:55:16.549642",
      "2022-11-11T16:55:18.371521",
      "2022-11-11T16:55:20.189841",
      "2022-11-11T16:55:22.011910",
      "2022-11-11T16:55:23.835714",
      "2022-11-11T16:55:25.654789",
      "2022-11-11T16:55:27.476810",
      "2022-11-11T16:55:29.298482",
      "2022-11-11T16:55:31.124637",
      "2022-11-11T16:55:32.972106",
      "2022-11-11T16:55:34.787898",
      "2022-11-11T16:55:36.608535",
      "2022-11-11T16:55:38.429816",
      "2022-11-11T16:55:40.252287",
      "2022-11-11T16:55:42.072601",
      "2022-11-11T16:55:43.892595",
      "2022-11-11T16:55:45.710975",
      "2022-11-11T16:55:47.530292",
      "2022-11-11T16:55:49.347187",
      "2022-11-11T16:55:51.196237",
      "2022-11-11T16:55:53.016678",
      "2022-11-11T16:55:54.837146",
      "2022-11-11T16:55:56.658025",
      "2022-11-11T16:55:58.479822",
      "2022-11-11T16:56:00.311962",
      "2022-11-11T16:56:02.134024",
      "2022-11-11T16:56:03.957642",
      "2022-11-11T16:56:05.779211",
      "2022-11-11T16:56:07.599243",
      "2022-11-11T16:56:09.450864",
      "2022-11-11T16:56:11.276230",
      "2022-11-11T16:56:13.094074",
      "2022-11-11T16:56:14.915600",
      "2022-11-11T16:56:16.740957",
      "2022-11-11T16:56:18.560626",
      "2022-11-11T16:56:20.385559",
      "2022-11-11T16:56:22.208614",
      "2022-11-11T16:56:24.030110",
      "2022-11-11T16:56:25.852492",
      "2022-11-11T16:56:27.697695",
      "2022-11-11T16:56:29.523710",
      "2022-11-11T16:56:31.349811",
      "2022-11-11T16:56:33.168185",
      "2022-11-11T16:56:34.988111",
      "2022-11-11T16:56:36.810893",
      "2022-11-11T16:56:38.630623",
      "2022-11-11T16:56:40.457732",
      "2022-11-11T16:56:42.276555",
      "2022-11-11T16:56:44.093025",
      "2022-11-11T16:56:45.946276",
      "2022-11-11T16:56:47.768069",
      "2022-11-11T16:56:49.592289",
      "2022-11-11T16:56:51.418194",
      "2022-11-11T16:56:53.239232",
      "2022-11-11T16:56:55.058043",
      "2022-11-11T16:56:56.884449",
      "2022-11-11T16:56:58.701995",
      "2022-11-11T16:57:00.530610",
      "2022-11-11T16:57:02.353709",
      "2022-11-11T16:57:04.200985",
      "2022-11-11T16:57:06.025086",
      "2022-11-11T16:57:07.848604",
      "2022-11-11T16:57:09.668036",
      "2022-11-11T16:57:11.496994",
      "2022-11-11T16:57:13.319683",
      "2022-11-11T16:57:15.153998",
      "2022-11-11T16:57:16.985694",
      "2022-11-11T16:57:18.806455",
      "2022-11-11T16:57:20.631129",
      "2022-11-11T16:57:22.481250",
      "2022-11-11T16:57:24.302751",
      "2022-11-11T16:57:26.123500",
      "2022-11-11T16:57:27.946608",
      "2022-11-11T16:57:29.765143",
      "2022-11-11T16:57:31.586817",
      "2022-11-11T16:57:33.407432",
      "2022-11-11T16:57:35.227463",
      "2022-11-11T16:57:37.048516",
      "2022-11-11T16:57:38.867920",
      "2022-11-11T16:57:40.713152",
      "2022-11-11T16:57:42.533391",
      "2022-11-11T16:57:44.351837",
      "2022-11-11T16:57:46.173699",
      "2022-11-11T16:57:47.996048",
      "2022-11-11T16:57:49.820631",
      "2022-11-11T16:57:51.640674",
      "2022-11-11T16:57:53.461232",
      "2022-11-11T16:57:55.282780",
      "2022-11-11T16:57:57.104503",
      "2022-11-11T16:57:58.952534",
      "2022-11-11T16:58:00.779750",
      "2022-11-11T16:58:02.601877",
      "2022-11-11T16:58:04.424200",
      "2022-11-11T16:58:06.247160",
      "2022-11-11T16:58:08.070913",
      "2022-11-11T16:58:09.894344",
      "2022-11-11T16:58:11.719688",
      "2022-11-11T16:58:13.543624",
      "2022-11-11T16:58:15.368817",
      "2022-11-11T16:58:17.215374",
      "2022-11-11T16:58:19.038122",
      "2022-11-11T16:58:20.868038",
      "2022-11-11T16:58:22.687251",
      "2022-11-11T16:58:24.506604",
      "2022-11-11T16:58:26.328476",
      "2022-11-11T16:58:28.145490",
      "2022-11-11T16:58:29.965140",
      "2022-11-11T16:58:31.785413",
      "2022-11-11T16:58:33.604555",
      "2022-11-11T16:58:35.455880",
      "2022-11-11T16:58:37.275999",
      "2022-11-11T16:58:39.092532",
      "2022-11-11T16:58:40.915368",
      "2022-11-11T16:58:42.735218",
      "2022-11-11T16:58:44.555701",
      "2022-11-11T16:58:46.377994",
      "2022-11-11T16:58:48.194776",
      "2022-11-11T16:58:50.015033",
      "2022-11-11T16:58:51.841230",
      "2022-11-11T16:58:53.689440",
      "2022-11-11T16:58:55.514619",
      "2022-11-11T16:58:57.336039",
      "2022-11-11T16:58:59.153887",
      "2022-11-11T16:59:00.979210",
      "2022-11-11T16:59:02.800787",
      "2022-11-11T16:59:04.618153",
      "2022-11-11T16:59:06.442267",
      "2022-11-11T16:59:08.266167",
      "2022-11-11T16:59:10.085687",
      "2022-11-11T16:59:11.937708",
      "2022-11-11T16:59:13.755528",
      "2022-11-11T16:59:15.578305",
      "2022-11-11T16:59:17.399598",
      "2022-11-11T16:59:19.216646",
      "2022-11-11T16:59:21.038877",
      "2022-11-11T16:59:22.861197",
      "2022-11-11T16:59:24.680451",
      "2022-11-11T16:59:26.504437",
      "2022-11-11T16:59:28.327692",
      "2022-11-11T16:59:30.181062",
      "2022-11-11T16:59:32.004749",
      "2022-11-11T16:59:33.826420",
      "2022-11-11T16:59:35.648847",
      "2022-11-11T16:59:37.471391",
      "2022-11-11T16:59:39.290251",
      "2022-11-11T16:59:41.117174",
      "2022-11-11T16:59:42.937253",
      "2022-11-11T16:59:44.754363",
      "2022-11-11T16:59:46.576788",
      "2022-11-11T16:59:48.426243",
      "2022-11-11T16:59:50.246254",
      "2022-11-11T16:59:52.065190",
      "2022-11-11T16:59:53.885237",
      "2022-11-11T16:59:55.703105",
      "2022-11-11T16:59:57.526525",
      "2022-11-11T16:59:59.346926",
      "2022-11-11T17:00:01.173567",
      "2022-11-11T17:00:02.995948",
      "2022-11-11T17:00:04.815727",
      "2022-11-11T17:00:06.664021",
      "2022-11-11T17:00:08.487458",
      "2022-11-11T17:00:10.311233",
      "2022-11-11T17:00:12.130009",
      "2022-11-11T17:00:13.951449",
      "2022-11-11T17:00:15.774328",
      "2022-11-11T17:00:17.596695",
      "2022-11-11T17:00:19.419270",
      "2022-11-11T17:00:21.251355",
      "2022-11-11T17:00:23.073170",
      "2022-11-11T17:00:24.924192",
      "2022-11-11T17:00:26.748175",
      "2022-11-11T17:00:28.571717",
      "2022-11-11T17:00:30.403445",
      "2022-11-11T17:00:32.224134",
      "2022-11-11T17:00:34.044247",
      "2022-11-11T17:00:35.868139",
      "2022-11-11T17:00:37.688270",
      "2022-11-11T17:00:39.515097",
      "2022-11-11T17:00:41.342510",
      "2022-11-11T17:00:43.191319",
      "2022-11-11T17:00:45.015335",
      "2022-11-11T17:00:46.843360",
      "2022-11-11T17:00:48.663164",
      "2022-11-11T17:00:50.493461",
      "2022-11-11T17:00:52.318191",
      "2022-11-11T17:00:54.137884",
      "2022-11-11T17:00:55.963400",
      "2022-11-11T17:00:57.787191",
      "2022-11-11T17:00:59.613306",
      "2022-11-11T17:01:01.467542",
      "2022-11-11T17:01:03.291576",
      "2022-11-11T17:01:05.110157",
      "2022-11-11T17:01:06.930597",
      "2022-11-11T17:01:08.749938",
      "2022-11-11T17:01:10.578841",
      "2022-11-11T17:01:12.400677",
      "2022-11-11T17:01:14.219096",
      "2022-11-11T17:01:16.045667",
      "2022-11-11T17:01:17.868631",
      "2022-11-11T17:01:19.717015",
      "2022-11-11T17:01:21.541159",
      "2022-11-11T17:01:23.363849",
      "2022-11-11T17:01:25.182947",
      "2022-11-11T17:01:27.007783",
      "2022-11-11T17:01:28.831765",
      "2022-11-11T17:01:30.658646",
      "2022-11-11T17:01:32.481693",
      "2022-11-11T17:01:34.300444",
      "2022-11-11T17:01:36.121462",
      "2022-11-11T17:01:37.969722",
      "2022-11-11T17:01:39.794267",
      "2022-11-11T17:01:41.616238",
      "2022-11-11T17:01:43.436667",
      "2022-11-11T17:01:45.256943",
      "2022-11-11T17:01:47.080056",
      "2022-11-11T17:01:48.903209",
      "2022-11-11T17:01:50.726692",
      "2022-11-11T17:01:52.546893",
      "2022-11-11T17:01:54.368210"
    ],
    "values": [
      218.43740436606714,
      187.15385268240573,
      156.63480286997338,
      123.63592409318838,
      94.45038268028551,
      74.66793654200015,
      62.68181427496156,
      56.765897917071825,
      53.67298374951855,
      53.14585371635777,
      49.85448167744597,
      49.03677107470787,
      47.758584103804765,
      47.296343642369514,
      45.87255662616537,
      45.14991002813777,
      45.36025607762785,
      45.55469806447855,
      44.712208608434395,
      43.88405558159802,
      44.23911962971276,
      43.721972086960434,
      43.90723689890603,
      43.843176922559216,
      43.27789500876762,
      43.25205047695939,
      43.048912159550376,
      42.99688426835983,
      42.547264333696525,
      42.67524849011183,
      41.60094385969953,
      42.26503018466558,
      42.14979938854113,
      42.75769568670791,
      42.31530050470994,
      41.87743134174129,
      42.09813861795622,
      42.1385865457951,
      41.54882020163608,
      41.29451399134355,
      42.022355069671924,
      42.23354436159468,
      41.26023549497151,
      40.85287894557867,
      41.43867216200649,
      41.3475162518955,
      41.28539836518,
      42.5313253358941,
      41.33383913404838,
      41.09832229117874,
      40.945972880147494,
      41.0256946727428,
      40.982487756418884,
      40.837598522218244,
      40.556036495966524,
      41.064116460574084,
      40.836072875326614,
      40.52760012938472,
      40.98297231434766,
      40.44129597048426,
      40.67325482443731,
      40.4119019594036,
      40.46231430529616,
      40.79400535292976,
      40.53419711334961,
      40.747484671446564,
      40.4850362974332,
      40.265745732694796,
      40.6508346873047,
      40.12755056539141,
      40.25570497965022,
      40.44448581831632,
      39.88737047855303,
      40.002021753068206,
      40.47010642903668,
      40.15759565365209,
      39.72701626152026,
      39.79989098584366,
      39.789377046893144,
      39.38105845298577,
      40.200065974812865,
      39.8323751407234,
      39.65972228212196,
      39.214560627146895,
      39.19766334936463,
      39.50888489956253,
      39.10624211453057,
      39.23635036952242,
      39.701315788673526,
      39.584379721655935,
      39.332467413602025,
      39.40895351307117,
      39.37265487072617,
      38.70076100091929,
      39.43364751777792,
      38.9014402102102,
      38.89401881643823,
      38.64210803998509,
      39.1049109271139,
      38.83524886651781,
      38.97474192783747,
      39.12906120790033,
      39.16290001090719,
      38.80347642579974,
      39.12328965126294,
      38.898239103537215,
      39.27744641038252,
      39.01284627333588,
      38.888671988648106,
      38.71103286223543,
      38.84116209552374,
      38.92649711178394,
      39.0276927961067,
      38.9770920746963,
      38.81708316404896,
      38.65876690654988,
      39.08905450498263,
      39.01101328320115,
      38.73634233310803,
      38.77625928685778,
      38.394655640591324,
      39.05476112673572,
      39.20440031035466,
      38.57845671629272,
      38.82741206806979,
      38.94660669232667,
      38.623636878490785,
      38.57453227375488,
      38.94598486666412,
      38.72431359567562,
      38.93205143383027,
      38.98803298564617,
      38.71248989124184,
      38.57395899374686,
      38.7521390089088,
      39.02113120358492,
      38.9296537454818,
      38.847928773986396,
      38.65365071801048,
      39.19315762019902,
      38.58194901350059,
      38.853945447026604,
      38.85610649266429,
      38.70544269957445,
      38.835357047897766,
      39.27482081005276,
      38.8246585020575,
      38.61770297189064,
      38.71278919003594,
      38.63335183212793,
      38.62722559461198,
      39.00459635090725,
      38.60813230348404,
      38.67121239368801,
      38.70503295283076,
      38.35254015842037,
      38.482167394233684,
      38.401781031358404,
      38.58218170975603,
      39.056902533071415,
      38.527804755426985,
      38.49461473277718,
      38.61865651715301,
      38.965956726302196,
      38.49861157202694,
      38.46534047390146,
      38.71694248429912,
      38.56423982313069,
      38.48206111547896,
      38.93670317035911,
      38.52570487153193,
      38.30672461758792,
      38.52345270217588,
      38.53729147079229,
      38.64724176686128,
      38.64844983770233,
      38.67171056797649,
      38.52415100278215,
      38.32468594354466,
      38.36834300195489,
      38.67984495240412,
      38.518053876331855,
      38.470332216177496,
      38.621325366992494,
      38.58216348494945,
      38.59778044807277,
      38.66089651881702,
      38.57156143171958,
      38.38121057524146,
      38.83964441439007,
      38.71963714398938,
      39.02555483657649,
      39.239911365878314,
      38.513610833984664,
      38.38072374639539,
      38.62235621878805,
      38.48899764144826,
      38.32197473663265,
      38.789284860313316,
      38.45210529689365,
      37.70877224731086,
      37.71290019386295,
      37.69000672863425,
      37.702743186589466,
      37.701644104397324,
      37.66644787477314,
      37.690737016051756,
      37.68135564276547,
      37.66542118094582,
      37.654320296593774,
      37.69088467385067,
      37.63851645564067,
      37.654102292952,
      37.64786351595639,
      37.65787318174649,
      37.6846528279155,
      37.66590339597162,
      37.65984913265325,
      37.661690093266074,
      37.70327325797534,
      37.70237018456764,
      37.69918733833778,
      37.6408118666726,
      37.697643545004695,
      37.658381993754666,
      37.72434528577542,
      37.71287738843453,
      37.71523288246209,
      37.602131179571124,
      37.575635439822165,
      37.586470495482956,
      37.585846493955096,
      37.595039400126225,
      37.59354477789913,
      37.57648958657931,
      37.57674107013461,
      37.592894750785625,
      37.58171022857239,
      37.586929898834875,
      37.579339721991616,
      37.582112362626695,
      37.591888527833106,
      37.58416284242551,
      37.56682483358051,
      37.559429256621804,
      37.590203340680695,
      37.5982382930775,
      37.572542363499196,
      37.5662242730496,
      37.592039640111565,
      37.593330673576205,
      37.57774023086593,
      37.588932664577925,
      37.58854186795911,
      37.597366043254475,
      37.59416984762531,
      37.56819445121899,
      37.5880236987817,
      37.579323954514585,
      37.57714891194032,
      37.5720196605531,
      37.59758329124224,
      37.57355737766027,
      37.57481603405969,
      37.57657932231709,
      37.591254433037776,
      37.58623931375844,
      37.583692736156266,
      37.585128044244534,
      37.592916426660764,
      37.57574965705447,
      37.589914657037994,
      37.57348127225017,
      37.5890000430917,
      37.577278710335,
      37.604471462482145,
      37.579240416944735,
      37.60138634115487,
      37.55100427065554,
      37.589670147815625,
      37.577103435296934,
      37.577914112329765,
      37.57391599348756,
      37.586273435664765,
      37.5929410420437,
      37.58844571366598,
      37.588910780004724,
      37.57833021003876,
      37.57090465850401,
      37.56610669285903,
      37.58221366949989,
      37.58479647478571,
      37.57020921283674,
      37.56221364633129,
      37.5625415687486,
      37.57817823913007,
      37.5687961552005,
      37.58517655586687,
      37.57086594566685,
      37.56377681394655,
      37.569490738452245,
      37.566291882682826,
      37.57685599635121,
      37.584481794583404,
      37.55882084631415,
      37.578288422754504,
      37.57357002986133,
      37.559101655619266,
      37.576521571153435,
      37.58024888132189,
      37.56206739228273,
      37.573205663297145,
      37.55518852081739,
      37.581870879758505,
      37.569055314399016,
      37.57201640973199,
      37.56641240713914,
      37.56178458301495,
      37.57651883722302,
      37.5834782196524,
      37.56850083664655,
      37.568569083627544,
      37.573482598111255,
      37.55704161349341,
      37.55852774609696,
      37.56222346617325,
      37.581243199939436,
      37.566043683244324,
      37.5768931553669,
      37.590923094886115,
      37.57126567146781,
      37.56351824320327,
      37.56412226335698,
      37.54823869807364,
      37.57921014336315,
      37.57244430087391,
      37.57741317002622,
      37.5577467390547,
      37.56512628287734,
      37.568715154164465,
      37.573568500698045,
      37.583789227461715,
      37.57686683978254,
      37.57433996489661,
      37.572720716125346,
      37.58471032056691,
      37.576696025005404,
      37.57914185499195,
      37.57446733772424,
      37.56555318847031,
      37.554759845980826,
      37.5688866502761,
      37.579524881487885,
      37.58163426128588,
      37.569536309222364,
      37.571291811440865,
      37.5732020828185,
      37.56285242019693,
      37.560492303399215,
      37.56367580281116,
      37.579148218201624,
      37.57557103751218,
      37.563463447319144,
      37.578531913875956,
      37.563822538025505,
      37.575092845310515,
      37.580375456540956,
      37.57787023761022,
      37.55049819952409,
      37.56224173965999,
      37.56367830780553,
      37.56939661257132,
      37.56838755722526,
      37.58105187159156,
      37.57219262548944,
      37.55192659678727,
      37.57974486520597,
      37.56357548435657,
      37.573619523280016,
      37.57092373157588,
      37.55438675656376,
      37.57413023457276,
      37.571573327016054,
      37.556429181554904,
      37.57308235710537,
      37.58054542757937,
      37.57353296377698,
      37.57443208998349,
      37.560432675429645,
      37.55944297961081,
      37.594437567074024,
      37.56900224188389,
      37.55935316894805,
      37.56442997497804,
      37.57264971011263,
      37.567713339673254,
      37.583444471074976,
      37.581669406149125,
      37.55644891788226,
      37.57236327158078,
      37.57120467327777,
      37.573570656004776,
      37.57908491844381,
      37.5745747216825,
      37.58314626040712,
      37.565456879269185,
      37.561486201314885,
      37.56049560873066,
      37.55739171522658,
      37.55647532785095,
      37.5598239833111,
      37.563466753936936,
      37.579052769135615,
      37.58190439895498,
      37.573442700402104,
      37.571098228589804,
      37.58499647964097,
      37.58403689821865,
      37.57520849282709,
      37.564344555577016,
      37.557055075115315,
      37.56300282343995,
      37.57103713974178,
      37.57524929864818,
      37.58450976732645,
      37.55043106686377,
      37.5710522332209,
      37.56605898893721,
      37.571222386205974,
      37.57496580153365,
      37.56381806761817,
      37.56538754426274,
      37.56089733858417,
      37.59017150248539,
      37.54379347581642,
      37.574606902460644,
      37.554795159561834,
      37.57618594109401,
      37.570586183896054,
      37.56521811920598,
      37.57120247349237,
      37.58678815282491,
      37.578449848893385,
      37.55947707903228,
      37.57593448457531,
      37.57287839838745,
      37.55826865014698,
      37.550385784156376,
      37.575962152387035,
      37.573762114880296,
      37.57791115097767,
      37.5821221972643,
      37.57164271757672,
      37.55012102568462,
      37.590769327996384,
      37.55029545847246,
      37.55972283284194,
      37.55966130811019,
      37.58130517898306,
      37.56875444083713,
      37.5699832546405,
      37.565560339375835,
      37.56217880706027,
      37.575315299907935,
      37.56910513242535,
      37.5668656623444,
      37.57260693508953,
      37.57152760418383,
      37.56963575291688,
      37.57595742442162,
      37.56121325441887,
      37.56566433915001,
      37.56928207887122,
      37.57795794019823,
      37.56544608933812,
      37.558922146869904,
      37.568239916796095,
      37.57087449621373,
      37.56659087044335,
      37.56323592314624,
      37.5598723665246,
      37.56877668941972,
      37.56444660846357,
      37.55964484298783,
      37.57616626835443,
      37.56552658033959,
      37.575604568775205,
      37.55786584992253,
      37.58633437137036,
      37.564613079565476,
      37.553827934350196,
      37.565924854607125,
      37.56594759732724,
      37.56986504728316,
      37.56615427020343,
      37.58606911174867,
      37.56880100205369,
      37.562721144202065,
      37.566050036098716,
      37.55703338190195
    ]
  }
}