INFO - residual_nf - Running command 'run'
INFO - residual_nf - Started run with ID "5"
[CONFIG] {'bn': 'mehra-real', 'structure': 'faithful', 'coeff': 0.99, 'n_power_iterations': 5, 'num_blocks': 12, 'hidden_dims': [100], 'activation': 'elu', 'grad_in_forward': True, 'batch_size': 100, 'num_train_samples': 10000, 'num_val_samples': 5000, 'num_epochs': 400, 'num_train_batches': 100, 'num_val_batches': 50, 'lr': 0.01, 'seed': 4, 'patience': 20, 'double': True, 'run': 1, 'checkpoint_n': 10, 'load_from_checkpoint': False, 'ex_name': 'residual_nf_density_estimation', 'sub_folder': 'faithful_99_elu_12_[100]', 'path': './experiment_logs/residual_nf_density_estimation/mehra-real/faithful_99_elu_12_[100]', 'bt_config': {'depth': 5, 'seed': 4}}
[DEVICE] cpu
[LOADING DATA] Mehra
[ENCODED STRUCTURE] Using faithful BN structure.
  0%|          | 0/400 [00:00<?, ?it/s]Train NLL: 12.392, Val NLL: 11.910:   0%|          | 1/400 [00:02<17:22,  2.61s/it]Train NLL: 11.806, Val NLL: 11.757:   0%|          | 2/400 [00:04<15:21,  2.32s/it]Train NLL: 11.604, Val NLL: 11.556:   1%|          | 3/400 [00:06<14:09,  2.14s/it]Train NLL: 11.557, Val NLL: 11.552:   1%|          | 4/400 [00:08<13:20,  2.02s/it]Train NLL: 11.500, Val NLL: 11.545:   1%|▏         | 5/400 [00:10<12:34,  1.91s/it]Train NLL: 11.460, Val NLL: 11.642:   2%|▏         | 6/400 [00:12<12:19,  1.88s/it]Train NLL: 11.442, Val NLL: 11.448:   2%|▏         | 7/400 [00:13<12:12,  1.86s/it]Train NLL: 11.434, Val NLL: 11.425:   2%|▏         | 8/400 [00:15<11:53,  1.82s/it]Train NLL: 11.410, Val NLL: 11.413:   2%|▏         | 9/400 [00:17<12:18,  1.89s/it]Train NLL: 11.437, Val NLL: 11.436:   2%|▎         | 10/400 [00:19<12:21,  1.90s/it]Train NLL: 11.372, Val NLL: 11.402:   3%|▎         | 11/400 [00:22<13:26,  2.07s/it]Train NLL: 11.376, Val NLL: 11.391:   3%|▎         | 12/400 [00:23<13:12,  2.04s/it]Train NLL: 11.398, Val NLL: 11.404:   3%|▎         | 13/400 [00:26<13:26,  2.08s/it]Train NLL: 11.343, Val NLL: 11.482:   4%|▎         | 14/400 [00:28<13:13,  2.06s/it]Train NLL: 11.359, Val NLL: 11.567:   4%|▍         | 15/400 [00:30<13:26,  2.09s/it]Train NLL: 11.350, Val NLL: 11.395:   4%|▍         | 16/400 [00:32<13:08,  2.05s/it]Train NLL: 11.309, Val NLL: 11.427:   4%|▍         | 17/400 [00:34<12:38,  1.98s/it]Train NLL: 11.324, Val NLL: 11.372:   4%|▍         | 18/400 [00:36<12:32,  1.97s/it]Train NLL: 11.318, Val NLL: 11.479:   5%|▍         | 19/400 [00:37<12:18,  1.94s/it]Train NLL: 11.286, Val NLL: 11.323:   5%|▌         | 20/400 [00:39<12:11,  1.92s/it]Train NLL: 11.323, Val NLL: 11.423:   5%|▌         | 21/400 [00:41<12:06,  1.92s/it]Train NLL: 11.267, Val NLL: 11.387:   6%|▌         | 22/400 [00:43<11:43,  1.86s/it]Train NLL: 11.263, Val NLL: 11.316:   6%|▌         | 23/400 [00:45<11:43,  1.86s/it]Train NLL: 11.289, Val NLL: 11.321:   6%|▌         | 24/400 [00:47<12:13,  1.95s/it]Train NLL: 11.261, Val NLL: 11.307:   6%|▋         | 25/400 [00:49<12:18,  1.97s/it]Train NLL: 11.241, Val NLL: 11.335:   6%|▋         | 26/400 [00:51<12:24,  1.99s/it]Train NLL: 11.266, Val NLL: 11.273:   7%|▋         | 27/400 [00:53<12:34,  2.02s/it]Train NLL: 11.231, Val NLL: 11.327:   7%|▋         | 28/400 [00:55<12:31,  2.02s/it]Train NLL: 11.242, Val NLL: 11.373:   7%|▋         | 29/400 [00:57<12:37,  2.04s/it]Train NLL: 11.283, Val NLL: 11.344:   8%|▊         | 30/400 [00:59<12:39,  2.05s/it]Train NLL: 11.225, Val NLL: 11.330:   8%|▊         | 31/400 [01:02<13:03,  2.12s/it]Train NLL: 11.221, Val NLL: 11.290:   8%|▊         | 32/400 [01:04<12:57,  2.11s/it]Train NLL: 11.232, Val NLL: 11.247:   8%|▊         | 33/400 [01:06<12:54,  2.11s/it]Train NLL: 11.230, Val NLL: 11.264:   8%|▊         | 34/400 [01:08<12:59,  2.13s/it]Train NLL: 11.201, Val NLL: 11.252:   9%|▉         | 35/400 [01:10<12:44,  2.10s/it]Train NLL: 11.189, Val NLL: 11.314:   9%|▉         | 36/400 [01:12<13:28,  2.22s/it]Train NLL: 11.193, Val NLL: 11.274:   9%|▉         | 37/400 [01:15<13:27,  2.22s/it]Train NLL: 11.205, Val NLL: 11.288:  10%|▉         | 38/400 [01:17<12:48,  2.12s/it]Train NLL: 11.223, Val NLL: 11.259:  10%|▉         | 39/400 [01:19<12:26,  2.07s/it]Train NLL: 11.198, Val NLL: 11.339:  10%|█         | 40/400 [01:20<12:02,  2.01s/it]Train NLL: 11.185, Val NLL: 11.253:  10%|█         | 41/400 [01:22<12:02,  2.01s/it]Train NLL: 11.188, Val NLL: 11.265:  10%|█         | 42/400 [01:24<12:05,  2.03s/it]Train NLL: 11.184, Val NLL: 11.281:  11%|█         | 43/400 [01:27<12:14,  2.06s/it]Train NLL: 11.207, Val NLL: 11.236:  11%|█         | 44/400 [01:29<12:11,  2.06s/it]Train NLL: 11.180, Val NLL: 11.227:  11%|█▏        | 45/400 [01:31<12:18,  2.08s/it]Train NLL: 11.207, Val NLL: 11.283:  12%|█▏        | 46/400 [01:33<12:55,  2.19s/it]Train NLL: 11.199, Val NLL: 11.231:  12%|█▏        | 47/400 [01:36<12:57,  2.20s/it]Train NLL: 11.213, Val NLL: 11.302:  12%|█▏        | 48/400 [01:38<13:07,  2.24s/it]Train NLL: 11.184, Val NLL: 11.234:  12%|█▏        | 49/400 [01:40<12:49,  2.19s/it]Train NLL: 11.215, Val NLL: 11.250:  12%|█▎        | 50/400 [01:42<12:47,  2.19s/it]Train NLL: 11.179, Val NLL: 11.279:  13%|█▎        | 51/400 [01:44<13:03,  2.25s/it]Train NLL: 11.171, Val NLL: 11.253:  13%|█▎        | 52/400 [01:47<12:39,  2.18s/it]Train NLL: 11.180, Val NLL: 11.252:  13%|█▎        | 53/400 [01:49<12:39,  2.19s/it]Train NLL: 11.184, Val NLL: 11.265:  14%|█▎        | 54/400 [01:51<12:32,  2.17s/it]Train NLL: 11.195, Val NLL: 11.379:  14%|█▍        | 55/400 [01:54<13:32,  2.36s/it]Train NLL: 11.207, Val NLL: 11.282:  14%|█▍        | 56/400 [02:00<19:34,  3.41s/it]Train NLL: 11.159, Val NLL: 11.251:  14%|█▍        | 57/400 [02:06<24:39,  4.31s/it]Train NLL: 11.207, Val NLL: 11.261:  14%|█▍        | 58/400 [02:13<29:09,  5.11s/it]Train NLL: 11.191, Val NLL: 11.316:  15%|█▍        | 59/400 [02:17<27:52,  4.91s/it]Train NLL: 11.169, Val NLL: 11.325:  15%|█▌        | 60/400 [02:23<29:12,  5.16s/it]Train NLL: 11.157, Val NLL: 11.252:  15%|█▌        | 61/400 [02:29<30:33,  5.41s/it]Train NLL: 11.161, Val NLL: 11.252:  16%|█▌        | 62/400 [02:35<30:55,  5.49s/it]Train NLL: 11.157, Val NLL: 11.235:  16%|█▌        | 63/400 [02:43<35:49,  6.38s/it]Train NLL: 11.165, Val NLL: 11.253:  16%|█▌        | 64/400 [02:47<31:16,  5.58s/it]Train NLL: 11.147, Val NLL: 11.224:  16%|█▋        | 65/400 [02:53<32:15,  5.78s/it]Train NLL: 11.149, Val NLL: 11.235:  16%|█▋        | 66/400 [02:58<31:14,  5.61s/it]Train NLL: 11.169, Val NLL: 11.261:  17%|█▋        | 67/400 [03:05<32:40,  5.89s/it]Train NLL: 11.185, Val NLL: 11.272:  17%|█▋        | 68/400 [03:11<32:55,  5.95s/it]Train NLL: 11.167, Val NLL: 11.275:  17%|█▋        | 69/400 [03:16<31:17,  5.67s/it]Train NLL: 11.164, Val NLL: 11.244:  18%|█▊        | 70/400 [03:23<33:15,  6.05s/it]Train NLL: 11.146, Val NLL: 11.252:  18%|█▊        | 71/400 [03:30<34:31,  6.30s/it]Train NLL: 11.136, Val NLL: 11.233:  18%|█▊        | 72/400 [03:36<34:06,  6.24s/it]Train NLL: 11.155, Val NLL: 11.304:  18%|█▊        | 73/400 [03:41<31:56,  5.86s/it]Train NLL: 11.174, Val NLL: 11.220:  18%|█▊        | 74/400 [03:43<25:34,  4.71s/it]Train NLL: 11.161, Val NLL: 11.205:  19%|█▉        | 75/400 [03:45<21:07,  3.90s/it]Train NLL: 11.151, Val NLL: 11.213:  19%|█▉        | 76/400 [03:47<17:33,  3.25s/it]Train NLL: 11.137, Val NLL: 11.201:  19%|█▉        | 77/400 [03:48<15:02,  2.79s/it]Train NLL: 11.169, Val NLL: 11.254:  20%|█▉        | 78/400 [03:51<14:09,  2.64s/it]Train NLL: 11.142, Val NLL: 11.234:  20%|█▉        | 79/400 [03:53<13:09,  2.46s/it]Train NLL: 11.139, Val NLL: 11.207:  20%|██        | 80/400 [03:55<12:06,  2.27s/it]Train NLL: 11.172, Val NLL: 11.253:  20%|██        | 81/400 [03:57<11:36,  2.18s/it]Train NLL: 11.146, Val NLL: 11.205:  20%|██        | 82/400 [03:59<11:18,  2.13s/it]Train NLL: 11.149, Val NLL: 11.215:  21%|██        | 83/400 [04:01<11:00,  2.08s/it]Train NLL: 11.149, Val NLL: 11.252:  21%|██        | 84/400 [04:02<10:46,  2.05s/it]Train NLL: 11.132, Val NLL: 11.197:  21%|██▏       | 85/400 [04:04<10:32,  2.01s/it]Train NLL: 11.144, Val NLL: 11.253:  22%|██▏       | 86/400 [04:06<10:09,  1.94s/it]Train NLL: 11.135, Val NLL: 11.219:  22%|██▏       | 87/400 [04:08<10:01,  1.92s/it]Train NLL: 11.144, Val NLL: 11.230:  22%|██▏       | 88/400 [04:11<11:20,  2.18s/it]Train NLL: 11.120, Val NLL: 11.197:  22%|██▏       | 89/400 [04:13<11:33,  2.23s/it]Train NLL: 11.140, Val NLL: 11.185:  22%|██▎       | 90/400 [04:15<11:26,  2.22s/it]Train NLL: 11.122, Val NLL: 11.227:  23%|██▎       | 91/400 [04:18<11:21,  2.20s/it]Train NLL: 11.128, Val NLL: 11.192:  23%|██▎       | 92/400 [04:20<11:20,  2.21s/it]Train NLL: 11.115, Val NLL: 11.197:  23%|██▎       | 93/400 [04:22<11:24,  2.23s/it]Train NLL: 11.127, Val NLL: 11.252:  24%|██▎       | 94/400 [04:25<11:54,  2.33s/it]Train NLL: 11.142, Val NLL: 11.213:  24%|██▍       | 95/400 [04:27<11:19,  2.23s/it]Train NLL: 11.120, Val NLL: 11.235:  24%|██▍       | 96/400 [04:29<10:50,  2.14s/it]Train NLL: 11.146, Val NLL: 11.298:  24%|██▍       | 97/400 [04:31<10:48,  2.14s/it]Train NLL: 11.142, Val NLL: 11.257:  24%|██▍       | 98/400 [04:33<11:08,  2.21s/it]Train NLL: 11.118, Val NLL: 11.170:  25%|██▍       | 99/400 [04:35<10:52,  2.17s/it]Train NLL: 11.113, Val NLL: 11.165:  25%|██▌       | 100/400 [04:37<10:45,  2.15s/it]Train NLL: 11.126, Val NLL: 11.237:  25%|██▌       | 101/400 [04:40<11:03,  2.22s/it]Train NLL: 11.114, Val NLL: 11.188:  26%|██▌       | 102/400 [04:42<11:15,  2.27s/it]Train NLL: 11.141, Val NLL: 11.185:  26%|██▌       | 103/400 [04:44<10:54,  2.20s/it]Train NLL: 11.120, Val NLL: 11.176:  26%|██▌       | 104/400 [04:47<11:17,  2.29s/it]Train NLL: 11.107, Val NLL: 11.217:  26%|██▋       | 105/400 [04:49<11:26,  2.33s/it]Train NLL: 11.114, Val NLL: 11.262:  26%|██▋       | 106/400 [04:52<11:47,  2.41s/it]Train NLL: 11.125, Val NLL: 11.213:  27%|██▋       | 107/400 [04:54<11:52,  2.43s/it]Train NLL: 11.139, Val NLL: 11.263:  27%|██▋       | 108/400 [04:56<11:22,  2.34s/it]Train NLL: 11.125, Val NLL: 11.189:  27%|██▋       | 109/400 [04:58<10:59,  2.27s/it]Train NLL: 11.130, Val NLL: 11.205:  28%|██▊       | 110/400 [05:01<11:46,  2.44s/it]Train NLL: 11.106, Val NLL: 11.201:  28%|██▊       | 111/400 [05:03<11:11,  2.32s/it]Train NLL: 11.119, Val NLL: 11.292:  28%|██▊       | 112/400 [05:05<10:34,  2.20s/it]Train NLL: 11.103, Val NLL: 11.214:  28%|██▊       | 113/400 [05:07<10:41,  2.23s/it]Train NLL: 11.149, Val NLL: 11.229:  28%|██▊       | 114/400 [05:10<10:51,  2.28s/it]Train NLL: 11.112, Val NLL: 11.165:  29%|██▉       | 115/400 [05:12<11:06,  2.34s/it]Train NLL: 11.096, Val NLL: 11.180:  29%|██▉       | 116/400 [05:14<10:55,  2.31s/it]Train NLL: 11.132, Val NLL: 11.222:  29%|██▉       | 117/400 [05:16<10:21,  2.20s/it]Train NLL: 11.123, Val NLL: 11.204:  30%|██▉       | 118/400 [05:19<10:27,  2.23s/it]Train NLL: 11.110, Val NLL: 11.195:  30%|██▉       | 119/400 [05:21<10:53,  2.33s/it]Train NLL: 11.094, Val NLL: 11.233:  30%|███       | 120/400 [05:24<10:56,  2.34s/it]Train NLL: 11.116, Val NLL: 11.269:  30%|███       | 121/400 [05:26<10:35,  2.28s/it]Train NLL: 11.098, Val NLL: 11.181:  30%|███       | 122/400 [05:28<10:27,  2.26s/it]Train NLL: 11.101, Val NLL: 11.171:  31%|███       | 123/400 [05:30<10:24,  2.26s/it]Train NLL: 11.092, Val NLL: 11.228:  31%|███       | 124/400 [05:33<10:43,  2.33s/it]Train NLL: 11.117, Val NLL: 11.195:  31%|███▏      | 125/400 [05:35<10:58,  2.40s/it]Train NLL: 11.116, Val NLL: 11.153:  32%|███▏      | 126/400 [05:37<10:21,  2.27s/it]Train NLL: 11.089, Val NLL: 11.155:  32%|███▏      | 127/400 [05:39<10:07,  2.22s/it]Train NLL: 11.083, Val NLL: 11.176:  32%|███▏      | 128/400 [05:42<09:57,  2.20s/it]Train NLL: 11.086, Val NLL: 11.187:  32%|███▏      | 129/400 [05:44<09:49,  2.17s/it]Train NLL: 11.090, Val NLL: 11.199:  32%|███▎      | 130/400 [05:46<09:45,  2.17s/it]Train NLL: 11.088, Val NLL: 11.233:  33%|███▎      | 131/400 [05:49<10:28,  2.34s/it]Train NLL: 11.103, Val NLL: 11.162:  33%|███▎      | 132/400 [05:51<10:13,  2.29s/it]Train NLL: 11.100, Val NLL: 11.172:  33%|███▎      | 133/400 [05:53<10:03,  2.26s/it]Train NLL: 11.098, Val NLL: 11.174:  34%|███▎      | 134/400 [05:55<09:43,  2.19s/it]Train NLL: 11.102, Val NLL: 11.185:  34%|███▍      | 135/400 [05:57<09:50,  2.23s/it]Train NLL: 11.107, Val NLL: 11.219:  34%|███▍      | 136/400 [05:59<09:40,  2.20s/it]Train NLL: 11.084, Val NLL: 11.170:  34%|███▍      | 137/400 [06:02<10:00,  2.28s/it]Train NLL: 11.100, Val NLL: 11.178:  34%|███▍      | 138/400 [06:04<10:01,  2.30s/it]Train NLL: 11.085, Val NLL: 11.180:  35%|███▍      | 139/400 [06:07<10:07,  2.33s/it]Train NLL: 11.087, Val NLL: 11.179:  35%|███▌      | 140/400 [06:09<10:15,  2.37s/it]Train NLL: 11.069, Val NLL: 11.157:  35%|███▌      | 141/400 [06:11<10:18,  2.39s/it]Train NLL: 11.105, Val NLL: 11.265:  36%|███▌      | 142/400 [06:14<10:24,  2.42s/it]Train NLL: 11.108, Val NLL: 11.183:  36%|███▌      | 143/400 [06:16<10:21,  2.42s/it]Train NLL: 11.072, Val NLL: 11.197:  36%|███▌      | 144/400 [06:19<10:23,  2.44s/it]Train NLL: 11.088, Val NLL: 11.226:  36%|███▋      | 145/400 [06:21<10:31,  2.48s/it]Train NLL: 11.111, Val NLL: 11.160:  36%|███▋      | 146/400 [06:24<10:05,  2.39s/it]Train NLL: 11.075, Val NLL: 11.172:  37%|███▋      | 147/400 [06:26<09:35,  2.27s/it]Train NLL: 11.086, Val NLL: 11.166:  37%|███▋      | 148/400 [06:28<09:17,  2.21s/it]Train NLL: 11.106, Val NLL: 11.199:  37%|███▋      | 149/400 [06:30<09:30,  2.27s/it]Train NLL: 11.121, Val NLL: 11.227:  38%|███▊      | 150/400 [06:32<09:36,  2.31s/it]Train NLL: 11.097, Val NLL: 11.193:  38%|███▊      | 151/400 [06:35<09:33,  2.30s/it]Train NLL: 11.076, Val NLL: 11.191:  38%|███▊      | 152/400 [06:37<09:23,  2.27s/it]Train NLL: 11.080, Val NLL: 11.203:  38%|███▊      | 153/400 [06:39<09:15,  2.25s/it]Train NLL: 11.058, Val NLL: 11.163:  38%|███▊      | 154/400 [06:41<09:01,  2.20s/it]Train NLL: 11.103, Val NLL: 11.165:  39%|███▉      | 155/400 [06:43<08:58,  2.20s/it]Train NLL: 11.086, Val NLL: 11.131:  39%|███▉      | 156/400 [06:46<09:08,  2.25s/it]Train NLL: 11.077, Val NLL: 11.159:  39%|███▉      | 157/400 [06:48<09:05,  2.25s/it]Train NLL: 11.069, Val NLL: 11.145:  40%|███▉      | 158/400 [06:51<09:33,  2.37s/it]Train NLL: 11.068, Val NLL: 11.163:  40%|███▉      | 159/400 [06:53<09:38,  2.40s/it]Train NLL: 11.069, Val NLL: 11.168:  40%|████      | 160/400 [06:55<09:27,  2.36s/it]Train NLL: 11.072, Val NLL: 11.200:  40%|████      | 161/400 [06:57<09:00,  2.26s/it]Train NLL: 11.130, Val NLL: 11.154:  40%|████      | 162/400 [07:00<08:54,  2.24s/it]Train NLL: 11.075, Val NLL: 11.176:  41%|████      | 163/400 [07:02<09:26,  2.39s/it]Train NLL: 11.059, Val NLL: 11.169:  41%|████      | 164/400 [07:05<09:18,  2.37s/it]Train NLL: 11.056, Val NLL: 11.192:  41%|████▏     | 165/400 [07:07<09:20,  2.38s/it]Train NLL: 11.081, Val NLL: 11.147:  42%|████▏     | 166/400 [07:10<09:19,  2.39s/it]Train NLL: 11.052, Val NLL: 11.288:  42%|████▏     | 167/400 [07:12<09:04,  2.34s/it]Train NLL: 11.082, Val NLL: 11.176:  42%|████▏     | 168/400 [07:14<09:04,  2.35s/it]Train NLL: 11.067, Val NLL: 11.167:  42%|████▏     | 169/400 [07:17<09:03,  2.35s/it]Train NLL: 11.065, Val NLL: 11.190:  42%|████▎     | 170/400 [07:19<09:03,  2.36s/it]Train NLL: 11.068, Val NLL: 11.239:  43%|████▎     | 171/400 [07:21<09:14,  2.42s/it]Train NLL: 11.071, Val NLL: 11.173:  43%|████▎     | 172/400 [07:24<09:11,  2.42s/it]Train NLL: 11.070, Val NLL: 11.175:  43%|████▎     | 173/400 [07:26<09:05,  2.40s/it]Train NLL: 11.062, Val NLL: 11.172:  44%|████▎     | 174/400 [07:28<08:44,  2.32s/it]Train NLL: 11.057, Val NLL: 11.184:  44%|████▍     | 175/400 [07:31<08:38,  2.31s/it]Train NLL: 11.053, Val NLL: 11.192:  44%|████▍     | 176/400 [07:33<08:21,  2.24s/it]Train NLL: 11.076, Val NLL: 11.150:  44%|████▍     | 177/400 [07:35<08:17,  2.23s/it]Train NLL: 11.060, Val NLL: 11.155:  44%|████▍     | 178/400 [07:37<08:14,  2.23s/it]Train NLL: 11.060, Val NLL: 11.196:  45%|████▍     | 179/400 [07:39<07:58,  2.17s/it]Train NLL: 11.070, Val NLL: 11.257:  45%|████▌     | 180/400 [07:41<08:03,  2.20s/it]Train NLL: 11.071, Val NLL: 11.179:  45%|████▌     | 181/400 [07:44<07:53,  2.16s/it]Train NLL: 11.051, Val NLL: 11.168:  46%|████▌     | 182/400 [07:46<07:48,  2.15s/it]Train NLL: 11.051, Val NLL: 11.143:  46%|████▌     | 183/400 [07:48<07:35,  2.10s/it]Train NLL: 11.063, Val NLL: 11.137:  46%|████▌     | 184/400 [07:50<07:45,  2.16s/it]Train NLL: 11.052, Val NLL: 11.163:  46%|████▋     | 185/400 [07:52<08:04,  2.25s/it]Train NLL: 11.066, Val NLL: 11.194:  46%|████▋     | 186/400 [07:54<07:52,  2.21s/it]Train NLL: 11.065, Val NLL: 11.141:  47%|████▋     | 187/400 [07:57<07:44,  2.18s/it]Train NLL: 11.050, Val NLL: 11.138:  47%|████▋     | 188/400 [07:59<08:00,  2.27s/it]Train NLL: 11.061, Val NLL: 11.132:  47%|████▋     | 189/400 [08:01<07:53,  2.24s/it]Train NLL: 11.058, Val NLL: 11.145:  48%|████▊     | 190/400 [08:03<07:49,  2.23s/it]Train NLL: 11.040, Val NLL: 11.128:  48%|████▊     | 191/400 [08:06<07:43,  2.22s/it]Train NLL: 11.045, Val NLL: 11.161:  48%|████▊     | 192/400 [08:08<08:02,  2.32s/it]Train NLL: 11.057, Val NLL: 11.188:  48%|████▊     | 193/400 [08:10<07:45,  2.25s/it]Train NLL: 11.067, Val NLL: 11.159:  48%|████▊     | 194/400 [08:13<07:42,  2.25s/it]Train NLL: 11.052, Val NLL: 11.101:  49%|████▉     | 195/400 [08:15<07:36,  2.22s/it]Train NLL: 11.042, Val NLL: 11.196:  49%|████▉     | 196/400 [08:17<07:39,  2.25s/it]Train NLL: 11.101, Val NLL: 11.262:  49%|████▉     | 197/400 [08:19<07:34,  2.24s/it]Train NLL: 11.098, Val NLL: 11.143:  50%|████▉     | 198/400 [08:21<07:33,  2.25s/it]Train NLL: 11.057, Val NLL: 11.180:  50%|████▉     | 199/400 [08:24<07:38,  2.28s/it]Train NLL: 11.067, Val NLL: 11.204:  50%|█████     | 200/400 [08:26<07:29,  2.25s/it]Train NLL: 11.060, Val NLL: 11.172:  50%|█████     | 201/400 [08:28<07:33,  2.28s/it]Train NLL: 11.052, Val NLL: 11.196:  50%|█████     | 202/400 [08:31<07:22,  2.23s/it]Train NLL: 11.074, Val NLL: 11.149:  51%|█████     | 203/400 [08:33<07:37,  2.32s/it]Train NLL: 11.060, Val NLL: 11.145:  51%|█████     | 204/400 [08:35<07:17,  2.23s/it]Train NLL: 11.053, Val NLL: 11.191:  51%|█████▏    | 205/400 [08:37<07:16,  2.24s/it]Train NLL: 11.070, Val NLL: 11.140:  52%|█████▏    | 206/400 [08:40<07:45,  2.40s/it]Train NLL: 11.046, Val NLL: 11.181:  52%|█████▏    | 207/400 [08:43<07:48,  2.43s/it]Train NLL: 11.054, Val NLL: 11.137:  52%|█████▏    | 208/400 [08:45<07:44,  2.42s/it]Train NLL: 11.041, Val NLL: 11.166:  52%|█████▏    | 209/400 [08:48<07:50,  2.46s/it]Train NLL: 11.054, Val NLL: 11.134:  52%|█████▎    | 210/400 [08:50<07:35,  2.40s/it]Train NLL: 11.048, Val NLL: 11.137:  53%|█████▎    | 211/400 [08:52<07:27,  2.37s/it]Train NLL: 11.039, Val NLL: 11.207:  53%|█████▎    | 212/400 [08:55<07:32,  2.41s/it]Train NLL: 11.028, Val NLL: 11.173:  53%|█████▎    | 213/400 [08:57<07:42,  2.47s/it]Train NLL: 11.082, Val NLL: 11.165:  54%|█████▎    | 214/400 [09:00<07:47,  2.51s/it]Train NLL: 11.053, Val NLL: 11.189:  54%|█████▍    | 215/400 [09:02<07:15,  2.35s/it]Train NLL: 11.048, Val NLL: 11.178:  54%|█████▍    | 216/400 [09:04<07:06,  2.32s/it]Train NLL: 11.063, Val NLL: 11.138:  54%|█████▍    | 217/400 [09:06<06:58,  2.29s/it]Train NLL: 11.045, Val NLL: 11.155:  55%|█████▍    | 218/400 [09:08<06:51,  2.26s/it]Train NLL: 11.056, Val NLL: 11.140:  55%|█████▍    | 219/400 [09:11<06:55,  2.29s/it]Train NLL: 11.043, Val NLL: 11.133:  55%|█████▌    | 220/400 [09:13<06:57,  2.32s/it]Train NLL: 11.037, Val NLL: 11.191:  55%|█████▌    | 221/400 [09:15<06:47,  2.28s/it]Train NLL: 11.039, Val NLL: 11.118:  56%|█████▌    | 222/400 [09:18<06:57,  2.35s/it]Train NLL: 11.052, Val NLL: 11.164:  56%|█████▌    | 223/400 [09:20<06:49,  2.31s/it]Train NLL: 11.021, Val NLL: 11.171:  56%|█████▌    | 224/400 [09:22<06:44,  2.30s/it]Train NLL: 11.052, Val NLL: 11.200:  56%|█████▋    | 225/400 [09:25<06:54,  2.37s/it]Train NLL: 11.062, Val NLL: 11.135:  56%|█████▋    | 226/400 [09:27<06:56,  2.40s/it]Train NLL: 11.031, Val NLL: 11.137:  57%|█████▋    | 227/400 [09:30<07:03,  2.45s/it]Train NLL: 11.055, Val NLL: 11.170:  57%|█████▋    | 228/400 [09:32<06:59,  2.44s/it]Train NLL: 11.096, Val NLL: 11.163:  57%|█████▋    | 229/400 [09:34<06:35,  2.31s/it]Train NLL: 11.058, Val NLL: 11.155:  57%|█████▊    | 230/400 [09:37<06:24,  2.26s/it]Train NLL: 11.037, Val NLL: 11.155:  58%|█████▊    | 231/400 [09:39<06:15,  2.22s/it]Train NLL: 11.034, Val NLL: 11.135:  58%|█████▊    | 232/400 [09:41<06:29,  2.32s/it]Train NLL: 11.072, Val NLL: 11.117:  58%|█████▊    | 233/400 [09:43<06:14,  2.24s/it]Train NLL: 11.040, Val NLL: 11.154:  58%|█████▊    | 234/400 [09:45<05:59,  2.16s/it]Train NLL: 11.036, Val NLL: 11.137:  59%|█████▉    | 235/400 [09:47<05:47,  2.11s/it]Train NLL: 11.047, Val NLL: 11.152:  59%|█████▉    | 236/400 [09:49<05:49,  2.13s/it]Train NLL: 11.043, Val NLL: 11.156:  59%|█████▉    | 237/400 [09:52<05:53,  2.17s/it]Train NLL: 11.032, Val NLL: 11.138:  60%|█████▉    | 238/400 [09:54<05:57,  2.21s/it]Train NLL: 11.032, Val NLL: 11.187:  60%|█████▉    | 239/400 [09:57<06:13,  2.32s/it]Train NLL: 11.045, Val NLL: 11.121:  60%|██████    | 240/400 [09:59<06:06,  2.29s/it]Train NLL: 11.049, Val NLL: 11.103:  60%|██████    | 241/400 [10:01<05:59,  2.26s/it]Train NLL: 11.040, Val NLL: 11.130:  60%|██████    | 242/400 [10:03<05:49,  2.21s/it]Train NLL: 11.029, Val NLL: 11.150:  61%|██████    | 243/400 [10:05<05:48,  2.22s/it]Train NLL: 11.054, Val NLL: 11.122:  61%|██████    | 244/400 [10:08<05:50,  2.24s/it]Epoch   245: reducing learning rate of group 0 to 1.0000e-03.
Train NLL: 11.030, Val NLL: 11.164:  61%|██████▏   | 245/400 [10:10<05:44,  2.23s/it]Train NLL: 10.984, Val NLL: 11.085:  62%|██████▏   | 246/400 [10:12<05:30,  2.15s/it]Train NLL: 10.967, Val NLL: 11.087:  62%|██████▏   | 247/400 [10:14<05:27,  2.14s/it]Train NLL: 10.966, Val NLL: 11.089:  62%|██████▏   | 248/400 [10:16<05:36,  2.21s/it]Train NLL: 10.967, Val NLL: 11.087:  62%|██████▏   | 249/400 [10:18<05:30,  2.19s/it]Train NLL: 10.965, Val NLL: 11.093:  62%|██████▎   | 250/400 [10:21<05:29,  2.20s/it]Train NLL: 10.966, Val NLL: 11.091:  63%|██████▎   | 251/400 [10:23<05:28,  2.20s/it]Train NLL: 10.967, Val NLL: 11.088:  63%|██████▎   | 252/400 [10:25<05:22,  2.18s/it]Train NLL: 10.964, Val NLL: 11.090:  63%|██████▎   | 253/400 [10:27<05:14,  2.14s/it]Train NLL: 10.966, Val NLL: 11.093:  64%|██████▎   | 254/400 [10:29<05:13,  2.14s/it]Train NLL: 10.964, Val NLL: 11.090:  64%|██████▍   | 255/400 [10:32<05:27,  2.26s/it]Train NLL: 10.964, Val NLL: 11.092:  64%|██████▍   | 256/400 [10:34<05:21,  2.24s/it]Train NLL: 10.966, Val NLL: 11.093:  64%|██████▍   | 257/400 [10:36<05:10,  2.17s/it]Train NLL: 10.963, Val NLL: 11.092:  64%|██████▍   | 258/400 [10:38<04:58,  2.10s/it]Train NLL: 10.964, Val NLL: 11.089:  65%|██████▍   | 259/400 [10:40<05:01,  2.14s/it]Train NLL: 10.965, Val NLL: 11.093:  65%|██████▌   | 260/400 [10:42<04:57,  2.13s/it]Train NLL: 10.965, Val NLL: 11.095:  65%|██████▌   | 261/400 [10:44<04:54,  2.12s/it]Train NLL: 10.963, Val NLL: 11.093:  66%|██████▌   | 262/400 [10:46<04:55,  2.14s/it]Train NLL: 10.963, Val NLL: 11.085:  66%|██████▌   | 263/400 [10:49<04:58,  2.18s/it]Train NLL: 10.963, Val NLL: 11.094:  66%|██████▌   | 264/400 [10:51<04:54,  2.16s/it]Train NLL: 10.965, Val NLL: 11.088:  66%|██████▋   | 265/400 [10:53<04:56,  2.20s/it]Train NLL: 10.965, Val NLL: 11.096:  66%|██████▋   | 266/400 [10:55<04:49,  2.16s/it]Train NLL: 10.966, Val NLL: 11.091:  67%|██████▋   | 267/400 [10:57<04:40,  2.11s/it]Train NLL: 10.960, Val NLL: 11.089:  67%|██████▋   | 268/400 [10:59<04:36,  2.09s/it]Train NLL: 10.965, Val NLL: 11.092:  67%|██████▋   | 269/400 [11:02<04:52,  2.23s/it]Train NLL: 10.963, Val NLL: 11.086:  68%|██████▊   | 270/400 [11:04<05:02,  2.32s/it]Train NLL: 10.966, Val NLL: 11.090:  68%|██████▊   | 271/400 [11:06<04:45,  2.22s/it]Train NLL: 10.963, Val NLL: 11.089:  68%|██████▊   | 272/400 [11:08<04:38,  2.18s/it]Train NLL: 10.963, Val NLL: 11.088:  68%|██████▊   | 273/400 [11:11<04:46,  2.25s/it]Train NLL: 10.963, Val NLL: 11.087:  68%|██████▊   | 274/400 [11:13<04:41,  2.24s/it]Train NLL: 10.963, Val NLL: 11.090:  69%|██████▉   | 275/400 [11:16<04:54,  2.36s/it]Train NLL: 10.961, Val NLL: 11.090:  69%|██████▉   | 276/400 [11:18<04:47,  2.32s/it]Train NLL: 10.964, Val NLL: 11.091:  69%|██████▉   | 277/400 [11:20<04:38,  2.26s/it]Train NLL: 10.963, Val NLL: 11.083:  70%|██████▉   | 278/400 [11:22<04:28,  2.20s/it]Train NLL: 10.962, Val NLL: 11.086:  70%|██████▉   | 279/400 [11:24<04:30,  2.24s/it]Train NLL: 10.961, Val NLL: 11.092:  70%|███████   | 280/400 [11:26<04:21,  2.18s/it]Train NLL: 10.963, Val NLL: 11.086:  70%|███████   | 281/400 [11:29<04:19,  2.18s/it]Train NLL: 10.964, Val NLL: 11.088:  70%|███████   | 282/400 [11:31<04:22,  2.22s/it]Train NLL: 10.964, Val NLL: 11.088:  71%|███████   | 283/400 [11:33<04:18,  2.21s/it]Train NLL: 10.962, Val NLL: 11.089:  71%|███████   | 284/400 [11:36<04:28,  2.32s/it]Train NLL: 10.964, Val NLL: 11.093:  71%|███████▏  | 285/400 [11:38<04:29,  2.34s/it]Train NLL: 10.961, Val NLL: 11.083:  72%|███████▏  | 286/400 [11:41<04:31,  2.38s/it]Train NLL: 10.961, Val NLL: 11.089:  72%|███████▏  | 287/400 [11:43<04:22,  2.33s/it]Train NLL: 10.962, Val NLL: 11.085:  72%|███████▏  | 288/400 [11:45<04:17,  2.30s/it]Epoch   289: reducing learning rate of group 0 to 1.0000e-04.
Train NLL: 10.962, Val NLL: 11.093:  72%|███████▏  | 289/400 [11:47<04:19,  2.34s/it]Train NLL: 10.956, Val NLL: 11.087:  72%|███████▎  | 290/400 [11:50<04:15,  2.33s/it]Train NLL: 10.953, Val NLL: 11.084:  73%|███████▎  | 291/400 [11:52<04:14,  2.34s/it]Train NLL: 10.953, Val NLL: 11.085:  73%|███████▎  | 292/400 [11:54<04:15,  2.37s/it]Train NLL: 10.953, Val NLL: 11.085:  73%|███████▎  | 293/400 [11:57<04:16,  2.40s/it]Train NLL: 10.953, Val NLL: 11.083:  74%|███████▎  | 294/400 [11:59<04:06,  2.33s/it]Train NLL: 10.953, Val NLL: 11.083:  74%|███████▍  | 295/400 [12:02<04:06,  2.35s/it]Train NLL: 10.953, Val NLL: 11.084:  74%|███████▍  | 296/400 [12:04<04:08,  2.39s/it]Train NLL: 10.953, Val NLL: 11.083:  74%|███████▍  | 297/400 [12:06<04:07,  2.40s/it]Train NLL: 10.952, Val NLL: 11.084:  74%|███████▍  | 298/400 [12:09<04:09,  2.44s/it]Train NLL: 10.952, Val NLL: 11.084:  75%|███████▍  | 299/400 [12:11<04:06,  2.44s/it]Train NLL: 10.952, Val NLL: 11.084:  75%|███████▌  | 300/400 [12:14<04:07,  2.48s/it]Train NLL: 10.952, Val NLL: 11.083:  75%|███████▌  | 301/400 [12:16<03:52,  2.35s/it]Train NLL: 10.952, Val NLL: 11.083:  76%|███████▌  | 302/400 [12:18<03:47,  2.32s/it]Train NLL: 10.952, Val NLL: 11.084:  76%|███████▌  | 303/400 [12:21<03:44,  2.32s/it]Train NLL: 10.952, Val NLL: 11.083:  76%|███████▌  | 304/400 [12:23<03:32,  2.21s/it]Train NLL: 10.952, Val NLL: 11.083:  76%|███████▋  | 305/400 [12:25<03:43,  2.35s/it]Train NLL: 10.952, Val NLL: 11.083:  76%|███████▋  | 306/400 [12:28<03:38,  2.33s/it]Train NLL: 10.952, Val NLL: 11.084:  77%|███████▋  | 307/400 [12:29<03:25,  2.21s/it]Train NLL: 10.952, Val NLL: 11.083:  77%|███████▋  | 308/400 [12:32<03:23,  2.21s/it]Train NLL: 10.952, Val NLL: 11.084:  77%|███████▋  | 309/400 [12:34<03:17,  2.17s/it]Train NLL: 10.952, Val NLL: 11.083:  78%|███████▊  | 310/400 [12:36<03:17,  2.20s/it]Train NLL: 10.953, Val NLL: 11.084:  78%|███████▊  | 311/400 [12:38<03:18,  2.23s/it]Train NLL: 10.953, Val NLL: 11.083:  78%|███████▊  | 312/400 [12:40<03:13,  2.20s/it]Train NLL: 10.952, Val NLL: 11.083:  78%|███████▊  | 313/400 [12:42<03:06,  2.14s/it]Train NLL: 10.952, Val NLL: 11.083:  78%|███████▊  | 314/400 [12:45<03:10,  2.21s/it]Train NLL: 10.952, Val NLL: 11.083:  79%|███████▉  | 315/400 [12:47<03:07,  2.20s/it]Train NLL: 10.952, Val NLL: 11.084:  79%|███████▉  | 316/400 [12:49<03:03,  2.19s/it]Train NLL: 10.952, Val NLL: 11.083:  79%|███████▉  | 317/400 [12:51<03:03,  2.21s/it]Train NLL: 10.952, Val NLL: 11.083:  80%|███████▉  | 318/400 [12:54<03:08,  2.30s/it]Train NLL: 10.952, Val NLL: 11.084:  80%|███████▉  | 319/400 [12:57<03:14,  2.40s/it]Train NLL: 10.952, Val NLL: 11.084:  80%|████████  | 320/400 [12:59<03:15,  2.44s/it]Train NLL: 10.952, Val NLL: 11.083:  80%|████████  | 321/400 [13:01<03:06,  2.36s/it]Train NLL: 10.952, Val NLL: 11.083:  80%|████████  | 322/400 [13:04<03:03,  2.36s/it]Train NLL: 10.952, Val NLL: 11.083:  81%|████████  | 323/400 [13:06<02:56,  2.29s/it]Train NLL: 10.952, Val NLL: 11.084:  81%|████████  | 324/400 [13:08<02:49,  2.23s/it]Train NLL: 10.952, Val NLL: 11.083:  81%|████████▏ | 325/400 [13:10<02:47,  2.24s/it]Train NLL: 10.952, Val NLL: 11.083:  82%|████████▏ | 326/400 [13:12<02:41,  2.18s/it]Epoch   327: reducing learning rate of group 0 to 1.0000e-05.
Train NLL: 10.952, Val NLL: 11.083:  82%|████████▏ | 327/400 [13:14<02:40,  2.19s/it]Train NLL: 10.951, Val NLL: 11.083:  82%|████████▏ | 328/400 [13:17<02:42,  2.26s/it]Train NLL: 10.951, Val NLL: 11.083:  82%|████████▏ | 329/400 [13:19<02:44,  2.32s/it]Train NLL: 10.951, Val NLL: 11.083:  82%|████████▎ | 330/400 [13:22<02:46,  2.37s/it]Train NLL: 10.951, Val NLL: 11.083:  83%|████████▎ | 331/400 [13:24<02:45,  2.40s/it]Train NLL: 10.951, Val NLL: 11.083:  83%|████████▎ | 332/400 [13:27<02:45,  2.44s/it]Train NLL: 10.951, Val NLL: 11.083:  83%|████████▎ | 333/400 [13:29<02:42,  2.43s/it]Train NLL: 10.951, Val NLL: 11.083:  84%|████████▎ | 334/400 [13:31<02:35,  2.36s/it]Train NLL: 10.951, Val NLL: 11.083:  84%|████████▍ | 335/400 [13:34<02:33,  2.35s/it]Train NLL: 10.951, Val NLL: 11.083:  84%|████████▍ | 336/400 [13:36<02:30,  2.35s/it]Train NLL: 10.951, Val NLL: 11.083:  84%|████████▍ | 337/400 [13:38<02:23,  2.28s/it]Train NLL: 10.951, Val NLL: 11.083:  84%|████████▍ | 338/400 [13:41<02:23,  2.31s/it]Train NLL: 10.951, Val NLL: 11.083:  85%|████████▍ | 339/400 [13:43<02:20,  2.30s/it]Train NLL: 10.951, Val NLL: 11.083:  85%|████████▌ | 340/400 [13:45<02:14,  2.25s/it]Train NLL: 10.951, Val NLL: 11.083:  85%|████████▌ | 341/400 [13:47<02:11,  2.23s/it]Train NLL: 10.951, Val NLL: 11.083:  86%|████████▌ | 342/400 [13:49<02:05,  2.16s/it]Train NLL: 10.951, Val NLL: 11.083:  86%|████████▌ | 343/400 [13:51<02:03,  2.17s/it]Train NLL: 10.951, Val NLL: 11.083:  86%|████████▌ | 344/400 [13:53<02:01,  2.17s/it]Train NLL: 10.951, Val NLL: 11.083:  86%|████████▋ | 345/400 [13:56<02:04,  2.26s/it]Train NLL: 10.951, Val NLL: 11.083:  86%|████████▋ | 346/400 [13:59<02:12,  2.46s/it]Train NLL: 10.951, Val NLL: 11.083:  87%|████████▋ | 347/400 [14:01<02:12,  2.50s/it]Train NLL: 10.951, Val NLL: 11.083:  87%|████████▋ | 348/400 [14:04<02:05,  2.42s/it]Train NLL: 10.951, Val NLL: 11.083:  87%|████████▋ | 349/400 [14:06<02:01,  2.38s/it]Train NLL: 10.951, Val NLL: 11.083:  88%|████████▊ | 350/400 [14:08<01:55,  2.31s/it]Train NLL: 10.951, Val NLL: 11.083:  88%|████████▊ | 351/400 [14:10<01:47,  2.20s/it]Epoch   352: reducing learning rate of group 0 to 1.0000e-06.
Train NLL: 10.951, Val NLL: 11.083:  88%|████████▊ | 352/400 [14:12<01:47,  2.24s/it]Train NLL: 10.951, Val NLL: 11.083:  88%|████████▊ | 353/400 [14:15<01:45,  2.25s/it]Train NLL: 10.951, Val NLL: 11.083:  88%|████████▊ | 354/400 [14:17<01:38,  2.15s/it]Train NLL: 10.951, Val NLL: 11.083:  89%|████████▉ | 355/400 [14:19<01:36,  2.15s/it]Train NLL: 10.951, Val NLL: 11.083:  89%|████████▉ | 356/400 [14:21<01:40,  2.29s/it]Train NLL: 10.951, Val NLL: 11.083:  89%|████████▉ | 357/400 [14:24<01:36,  2.25s/it]Train NLL: 10.951, Val NLL: 11.083:  90%|████████▉ | 358/400 [14:26<01:37,  2.33s/it]Train NLL: 10.951, Val NLL: 11.083:  90%|████████▉ | 359/400 [14:28<01:36,  2.35s/it]Train NLL: 10.951, Val NLL: 11.083:  90%|█████████ | 360/400 [14:31<01:36,  2.41s/it]Train NLL: 10.951, Val NLL: 11.083:  90%|█████████ | 361/400 [14:33<01:34,  2.41s/it]Train NLL: 10.951, Val NLL: 11.083:  90%|█████████ | 362/400 [14:36<01:32,  2.44s/it]Train NLL: 10.951, Val NLL: 11.083:  91%|█████████ | 363/400 [14:38<01:30,  2.44s/it]Train NLL: 10.951, Val NLL: 11.083:  91%|█████████ | 364/400 [14:41<01:27,  2.42s/it]Train NLL: 10.951, Val NLL: 11.083:  91%|█████████▏| 365/400 [14:43<01:23,  2.38s/it]Train NLL: 10.951, Val NLL: 11.083:  92%|█████████▏| 366/400 [14:45<01:18,  2.31s/it]Train NLL: 10.951, Val NLL: 11.083:  92%|█████████▏| 367/400 [14:47<01:15,  2.29s/it]Train NLL: 10.951, Val NLL: 11.083:  92%|█████████▏| 368/400 [14:49<01:11,  2.22s/it]Train NLL: 10.951, Val NLL: 11.083:  92%|█████████▏| 369/400 [14:52<01:08,  2.20s/it]Train NLL: 10.951, Val NLL: 11.083:  92%|█████████▎| 370/400 [14:54<01:06,  2.22s/it]Train NLL: 10.951, Val NLL: 11.083:  93%|█████████▎| 371/400 [14:56<01:05,  2.27s/it]Train NLL: 10.951, Val NLL: 11.083:  93%|█████████▎| 372/400 [14:59<01:04,  2.32s/it]Train NLL: 10.951, Val NLL: 11.083:  93%|█████████▎| 373/400 [15:01<01:00,  2.23s/it]Train NLL: 10.951, Val NLL: 11.083:  94%|█████████▎| 374/400 [15:03<00:59,  2.31s/it]Train NLL: 10.951, Val NLL: 11.083:  94%|█████████▍| 375/400 [15:05<00:55,  2.23s/it]Train NLL: 10.951, Val NLL: 11.083:  94%|█████████▍| 376/400 [15:08<00:54,  2.25s/it]Train NLL: 10.951, Val NLL: 11.083:  94%|█████████▍| 377/400 [15:10<00:51,  2.26s/it]Train NLL: 10.951, Val NLL: 11.083:  94%|█████████▍| 378/400 [15:12<00:50,  2.28s/it]Train NLL: 10.951, Val NLL: 11.083:  95%|█████████▍| 379/400 [15:15<00:49,  2.34s/it]Train NLL: 10.951, Val NLL: 11.083:  95%|█████████▌| 380/400 [15:17<00:47,  2.35s/it]Train NLL: 10.951, Val NLL: 11.083:  95%|█████████▌| 381/400 [15:19<00:43,  2.31s/it]Train NLL: 10.951, Val NLL: 11.083:  96%|█████████▌| 382/400 [15:21<00:40,  2.23s/it]Train NLL: 10.951, Val NLL: 11.083:  96%|█████████▌| 383/400 [15:23<00:37,  2.22s/it]Train NLL: 10.951, Val NLL: 11.083:  96%|█████████▌| 384/400 [15:26<00:36,  2.30s/it]Train NLL: 10.951, Val NLL: 11.083:  96%|█████████▋| 385/400 [15:28<00:35,  2.36s/it]Train NLL: 10.951, Val NLL: 11.083:  96%|█████████▋| 386/400 [15:31<00:32,  2.33s/it]Train NLL: 10.951, Val NLL: 11.083:  97%|█████████▋| 387/400 [15:33<00:30,  2.35s/it]Train NLL: 10.951, Val NLL: 11.083:  97%|█████████▋| 388/400 [15:36<00:28,  2.39s/it]Train NLL: 10.951, Val NLL: 11.083:  97%|█████████▋| 389/400 [15:38<00:25,  2.36s/it]Train NLL: 10.951, Val NLL: 11.083:  98%|█████████▊| 390/400 [15:40<00:23,  2.36s/it]Train NLL: 10.951, Val NLL: 11.083:  98%|█████████▊| 391/400 [15:43<00:21,  2.40s/it]Train NLL: 10.951, Val NLL: 11.083:  98%|█████████▊| 392/400 [15:45<00:19,  2.41s/it]Train NLL: 10.951, Val NLL: 11.083:  98%|█████████▊| 393/400 [15:47<00:16,  2.35s/it]Train NLL: 10.951, Val NLL: 11.083:  98%|█████████▊| 394/400 [15:50<00:13,  2.32s/it]Train NLL: 10.951, Val NLL: 11.083:  99%|█████████▉| 395/400 [15:52<00:11,  2.39s/it]Train NLL: 10.951, Val NLL: 11.083:  99%|█████████▉| 396/400 [15:55<00:09,  2.41s/it]Train NLL: 10.951, Val NLL: 11.083:  99%|█████████▉| 397/400 [15:57<00:07,  2.39s/it]Train NLL: 10.951, Val NLL: 11.083: 100%|█████████▉| 398/400 [15:59<00:04,  2.42s/it]Train NLL: 10.951, Val NLL: 11.083: 100%|█████████▉| 399/400 [16:02<00:02,  2.41s/it]Train NLL: 10.951, Val NLL: 11.083: 100%|██████████| 400/400 [16:04<00:00,  2.41s/it]Train NLL: 10.951, Val NLL: 11.083: 100%|██████████| 400/400 [16:04<00:00,  2.41s/it]
INFO - residual_nf - Completed after 0:16:05
