INFO - continuous_nf - Running command 'run'
INFO - continuous_nf - Started run with ID "1"
Initializing step:
In 44 Out 250
Initializing step:
In 250 Out 250
Initializing step:
In 250 Out 15
  0%|          | 0/150 [00:00<?, ?it/s]Train: 103.508, Val: 37.079:   1%|          | 1/150 [00:10<26:37, 10.72s/it]Train: 36.636, Val: 36.425:   1%|▏         | 2/150 [00:22<28:13, 11.44s/it] Train: 36.241, Val: 36.351:   2%|▏         | 3/150 [00:37<31:42, 12.94s/it]Train: 36.039, Val: 36.181:   3%|▎         | 4/150 [00:50<31:53, 13.11s/it]Train: 36.186, Val: 35.927:   3%|▎         | 5/150 [01:04<31:51, 13.18s/it]Train: 35.998, Val: 35.991:   4%|▍         | 6/150 [01:17<31:49, 13.26s/it]Train: 36.027, Val: 35.881:   5%|▍         | 7/150 [01:30<31:37, 13.27s/it]Train: 36.014, Val: 36.166:   5%|▌         | 8/150 [01:44<31:29, 13.31s/it]Train: 35.841, Val: 35.689:   6%|▌         | 9/150 [01:57<31:35, 13.44s/it]Train: 35.799, Val: 35.559:   7%|▋         | 10/150 [02:11<31:40, 13.57s/it]Train: 35.980, Val: 35.751:   7%|▋         | 11/150 [02:25<31:52, 13.76s/it]Train: 35.813, Val: 35.589:   8%|▊         | 12/150 [02:40<32:16, 14.03s/it]Train: 35.889, Val: 35.830:   9%|▊         | 13/150 [02:55<32:44, 14.34s/it]Train: 35.809, Val: 35.658:   9%|▉         | 14/150 [03:11<33:15, 14.68s/it]Train: 35.589, Val: 35.707:  10%|█         | 15/150 [03:26<33:39, 14.96s/it]Train: 35.587, Val: 35.688:  11%|█         | 16/150 [03:42<34:02, 15.24s/it]Train: 35.536, Val: 35.687:  11%|█▏        | 17/150 [03:58<34:13, 15.44s/it]Train: 35.592, Val: 35.718:  12%|█▏        | 18/150 [04:14<34:25, 15.65s/it]Train: 35.662, Val: 35.539:  13%|█▎        | 19/150 [04:30<34:30, 15.80s/it]Train: 35.684, Val: 35.573:  13%|█▎        | 20/150 [04:47<34:35, 15.96s/it]Train: 35.593, Val: 35.650:  14%|█▍        | 21/150 [05:03<34:33, 16.07s/it]Train: 35.649, Val: 35.536:  15%|█▍        | 22/150 [05:20<34:36, 16.22s/it]Train: 35.429, Val: 35.626:  15%|█▌        | 23/150 [05:36<34:43, 16.41s/it]Train: 35.525, Val: 35.415:  16%|█▌        | 24/150 [05:53<34:50, 16.59s/it]Train: 35.543, Val: 35.670:  17%|█▋        | 25/150 [06:10<34:51, 16.73s/it]Train: 35.472, Val: 35.523:  17%|█▋        | 26/150 [06:28<34:58, 16.93s/it]Train: 35.599, Val: 35.651:  18%|█▊        | 27/150 [06:45<34:52, 17.01s/it]Train: 35.620, Val: 35.503:  19%|█▊        | 28/150 [07:03<35:02, 17.23s/it]Train: 35.465, Val: 35.427:  19%|█▉        | 29/150 [07:21<35:17, 17.50s/it]Train: 35.639, Val: 35.232:  20%|██        | 30/150 [07:39<35:28, 17.73s/it]Train: 35.350, Val: 35.580:  21%|██        | 31/150 [07:58<35:40, 17.99s/it]Train: 35.540, Val: 35.445:  21%|██▏       | 32/150 [08:17<35:48, 18.21s/it]Train: 35.565, Val: 35.357:  22%|██▏       | 33/150 [08:35<35:55, 18.42s/it]Train: 35.562, Val: 35.280:  23%|██▎       | 34/150 [08:55<36:05, 18.67s/it]Train: 35.394, Val: 35.261:  23%|██▎       | 35/150 [09:14<36:09, 18.87s/it]Train: 35.446, Val: 35.554:  24%|██▍       | 36/150 [09:33<36:10, 19.04s/it]Train: 35.399, Val: 35.322:  25%|██▍       | 37/150 [09:53<36:06, 19.17s/it]Train: 35.375, Val: 35.592:  25%|██▌       | 38/150 [10:13<36:15, 19.42s/it]Train: 35.346, Val: 35.336:  26%|██▌       | 39/150 [10:33<36:32, 19.75s/it]Train: 35.475, Val: 35.406:  27%|██▋       | 40/150 [10:54<36:44, 20.04s/it]Train: 35.507, Val: 35.382:  27%|██▋       | 41/150 [11:15<36:55, 20.32s/it]Train: 35.399, Val: 35.335:  28%|██▊       | 42/150 [11:36<36:59, 20.55s/it]Train: 35.348, Val: 35.300:  29%|██▊       | 43/150 [11:57<36:59, 20.75s/it]Train: 35.289, Val: 35.409:  29%|██▉       | 44/150 [12:19<37:03, 20.97s/it]Train: 35.365, Val: 35.545:  30%|███       | 45/150 [12:40<36:56, 21.11s/it]Train: 35.309, Val: 35.118:  31%|███       | 46/150 [13:02<36:42, 21.18s/it]Train: 35.493, Val: 35.488:  31%|███▏      | 47/150 [13:23<36:27, 21.24s/it]Train: 35.439, Val: 35.393:  32%|███▏      | 48/150 [13:45<36:20, 21.38s/it]Train: 35.394, Val: 35.494:  33%|███▎      | 49/150 [14:06<36:07, 21.46s/it]Train: 35.346, Val: 35.365:  33%|███▎      | 50/150 [14:28<35:56, 21.57s/it]Train: 35.355, Val: 35.273:  34%|███▍      | 51/150 [14:50<35:43, 21.65s/it]Train: 35.381, Val: 35.195:  35%|███▍      | 52/150 [15:13<35:48, 21.93s/it]Train: 35.397, Val: 35.296:  35%|███▌      | 53/150 [15:36<35:56, 22.23s/it]Train: 35.569, Val: 35.329:  36%|███▌      | 54/150 [15:58<35:48, 22.38s/it]Train: 35.393, Val: 35.348:  37%|███▋      | 55/150 [16:21<35:36, 22.49s/it]Train: 35.374, Val: 35.202:  37%|███▋      | 56/150 [16:44<35:28, 22.64s/it]Train: 35.289, Val: 35.354:  38%|███▊      | 57/150 [17:07<35:21, 22.82s/it]Train: 35.351, Val: 35.430:  39%|███▊      | 58/150 [17:31<35:23, 23.08s/it]Train: 35.423, Val: 35.487:  39%|███▉      | 59/150 [17:55<35:11, 23.21s/it]Train: 35.305, Val: 35.342:  40%|████      | 60/150 [18:19<35:15, 23.50s/it]Train: 35.392, Val: 35.326:  41%|████      | 61/150 [18:43<35:15, 23.77s/it]Train: 35.477, Val: 35.480:  41%|████▏     | 62/150 [19:08<35:11, 23.99s/it]Train: 35.339, Val: 35.374:  42%|████▏     | 63/150 [19:32<35:04, 24.19s/it]Train: 35.309, Val: 35.391:  43%|████▎     | 64/150 [19:57<34:59, 24.41s/it]Epoch    65: reducing learning rate of group 0 to 1.0000e-03.
Train: 35.424, Val: 35.537:  43%|████▎     | 65/150 [20:22<34:47, 24.56s/it]Train: 35.324, Val: 35.217:  44%|████▍     | 66/150 [20:47<34:26, 24.60s/it]Train: 35.130, Val: 34.994:  45%|████▍     | 67/150 [21:12<34:05, 24.65s/it]Train: 35.080, Val: 35.063:  45%|████▌     | 68/150 [21:36<33:35, 24.57s/it]Train: 35.238, Val: 35.042:  46%|████▌     | 69/150 [22:01<33:09, 24.56s/it]Train: 35.028, Val: 35.007:  47%|████▋     | 70/150 [22:25<32:43, 24.55s/it]Train: 35.120, Val: 34.995:  47%|████▋     | 71/150 [22:50<32:20, 24.57s/it]Train: 35.026, Val: 34.980:  48%|████▊     | 72/150 [23:14<32:00, 24.62s/it]Train: 35.292, Val: 35.236:  49%|████▊     | 73/150 [23:39<31:36, 24.62s/it]Train: 35.259, Val: 35.002:  49%|████▉     | 74/150 [24:03<31:07, 24.57s/it]Train: 35.278, Val: 35.116:  50%|█████     | 75/150 [24:28<30:40, 24.54s/it]Train: 35.116, Val: 35.257:  51%|█████     | 76/150 [24:52<30:10, 24.47s/it]Train: 35.142, Val: 35.075:  51%|█████▏    | 77/150 [25:17<29:46, 24.47s/it]Train: 35.194, Val: 35.134:  52%|█████▏    | 78/150 [25:41<29:26, 24.54s/it]Train: 35.011, Val: 35.289:  53%|█████▎    | 79/150 [26:06<29:08, 24.62s/it]Train: 35.063, Val: 35.078:  53%|█████▎    | 80/150 [26:31<28:55, 24.80s/it]Train: 35.172, Val: 35.367:  54%|█████▍    | 81/150 [26:56<28:35, 24.86s/it]Train: 35.220, Val: 35.029:  55%|█████▍    | 82/150 [27:21<28:12, 24.89s/it]Train: 35.122, Val: 35.184:  55%|█████▌    | 83/150 [27:46<27:41, 24.80s/it]Train: 35.202, Val: 35.161:  56%|█████▌    | 84/150 [28:11<27:16, 24.80s/it]Train: 35.182, Val: 35.048:  57%|█████▋    | 85/150 [28:35<26:43, 24.67s/it]Train: 35.077, Val: 35.018:  57%|█████▋    | 86/150 [29:00<26:15, 24.62s/it]Train: 35.236, Val: 35.141:  58%|█████▊    | 87/150 [29:24<25:47, 24.56s/it]Train: 35.109, Val: 35.149:  59%|█████▊    | 88/150 [29:48<25:19, 24.51s/it]Train: 35.037, Val: 35.121:  59%|█████▉    | 89/150 [30:13<24:54, 24.50s/it]Train: 35.073, Val: 35.103:  60%|██████    | 90/150 [30:37<24:30, 24.51s/it]Train: 35.166, Val: 35.195:  61%|██████    | 91/150 [31:02<24:05, 24.49s/it]Train: 35.183, Val: 35.029:  61%|██████▏   | 92/150 [31:26<23:40, 24.49s/it]Train: 35.182, Val: 35.345:  62%|██████▏   | 93/150 [31:51<23:16, 24.51s/it]Train: 35.146, Val: 35.192:  63%|██████▎   | 94/150 [32:15<22:51, 24.50s/it]Train: 35.070, Val: 35.192:  63%|██████▎   | 95/150 [32:40<22:29, 24.54s/it]Train: 35.082, Val: 35.038:  64%|██████▍   | 96/150 [33:05<22:04, 24.53s/it]Train: 35.121, Val: 35.166:  65%|██████▍   | 97/150 [33:30<21:47, 24.67s/it]Train: 35.130, Val: 35.280:  65%|██████▌   | 98/150 [33:54<21:22, 24.66s/it]Train: 34.952, Val: 35.057:  66%|██████▌   | 99/150 [34:19<20:56, 24.63s/it]Train: 35.019, Val: 35.044:  67%|██████▋   | 100/150 [34:44<20:39, 24.79s/it]Train: 34.956, Val: 34.987:  67%|██████▋   | 101/150 [35:08<20:10, 24.71s/it]Train: 35.074, Val: 34.907:  68%|██████▊   | 102/150 [35:33<19:46, 24.72s/it]Train: 34.937, Val: 35.174:  69%|██████▊   | 103/150 [35:58<19:23, 24.76s/it]Train: 35.109, Val: 35.159:  69%|██████▉   | 104/150 [36:23<18:58, 24.76s/it]Train: 35.150, Val: 35.002:  70%|███████   | 105/150 [36:48<18:33, 24.74s/it]Train: 35.141, Val: 35.117:  71%|███████   | 106/150 [37:12<18:07, 24.72s/it]Train: 35.029, Val: 35.097:  71%|███████▏  | 107/150 [37:37<17:42, 24.70s/it]Train: 35.110, Val: 35.120:  72%|███████▏  | 108/150 [38:02<17:17, 24.71s/it]Train: 35.127, Val: 35.188:  73%|███████▎  | 109/150 [38:26<16:52, 24.71s/it]Train: 35.117, Val: 34.983:  73%|███████▎  | 110/150 [38:51<16:30, 24.77s/it]Train: 35.181, Val: 35.066:  74%|███████▍  | 111/150 [39:16<16:05, 24.77s/it]Train: 35.198, Val: 35.118:  75%|███████▍  | 112/150 [39:40<15:38, 24.70s/it]Train: 35.000, Val: 34.994:  75%|███████▌  | 113/150 [40:05<15:13, 24.70s/it]Train: 35.009, Val: 35.088:  76%|███████▌  | 114/150 [40:30<14:47, 24.66s/it]Train: 35.144, Val: 34.980:  77%|███████▋  | 115/150 [40:55<14:27, 24.78s/it]Train: 35.186, Val: 35.166:  77%|███████▋  | 116/150 [41:20<14:02, 24.78s/it]Train: 35.125, Val: 35.216:  78%|███████▊  | 117/150 [41:44<13:36, 24.75s/it]Train: 34.989, Val: 34.883:  79%|███████▊  | 118/150 [42:09<13:12, 24.77s/it]Train: 35.229, Val: 34.800:  79%|███████▉  | 119/150 [42:34<12:48, 24.78s/it]Train: 35.090, Val: 35.051:  80%|████████  | 120/150 [42:59<12:23, 24.78s/it]Train: 35.010, Val: 35.016:  81%|████████  | 121/150 [43:23<11:57, 24.76s/it]Train: 35.204, Val: 34.921:  81%|████████▏ | 122/150 [43:48<11:33, 24.75s/it]Train: 35.122, Val: 35.022:  82%|████████▏ | 123/150 [44:13<11:05, 24.67s/it]Epoch   124: reducing learning rate of group 0 to 1.0000e-04.
Train: 35.071, Val: 34.850:  83%|████████▎ | 124/150 [44:37<10:39, 24.60s/it]Train: 35.118, Val: 34.821:  83%|████████▎ | 125/150 [45:02<10:15, 24.62s/it]Train: 35.193, Val: 34.923:  84%|████████▍ | 126/150 [45:27<09:54, 24.76s/it]Train: 35.063, Val: 35.023:  85%|████████▍ | 127/150 [45:52<09:31, 24.83s/it]Train: 35.004, Val: 35.136:  85%|████████▌ | 128/150 [46:17<09:07, 24.89s/it]Train: 35.105, Val: 35.023:  86%|████████▌ | 129/150 [46:42<08:44, 24.98s/it]Train: 35.014, Val: 35.040:  87%|████████▋ | 130/150 [47:07<08:18, 24.92s/it]Train: 34.985, Val: 35.009:  87%|████████▋ | 131/150 [47:31<07:50, 24.78s/it]Train: 34.994, Val: 35.122:  88%|████████▊ | 132/150 [47:56<07:25, 24.73s/it]Train: 35.119, Val: 35.125:  89%|████████▊ | 133/150 [48:20<06:59, 24.68s/it]Train: 35.095, Val: 34.891:  89%|████████▉ | 134/150 [48:45<06:34, 24.68s/it]Train: 35.085, Val: 35.107:  90%|█████████ | 135/150 [49:10<06:10, 24.69s/it]Train: 35.105, Val: 35.026:  91%|█████████ | 136/150 [49:35<05:45, 24.70s/it]Train: 35.155, Val: 35.129:  91%|█████████▏| 137/150 [49:59<05:21, 24.71s/it]Train: 35.022, Val: 35.087:  92%|█████████▏| 138/150 [50:24<04:56, 24.70s/it]Train: 35.102, Val: 34.866:  93%|█████████▎| 139/150 [50:49<04:31, 24.67s/it]Train: 35.114, Val: 35.088:  93%|█████████▎| 140/150 [51:14<04:07, 24.77s/it]Train: 34.987, Val: 34.962:  94%|█████████▍| 141/150 [51:39<03:44, 24.91s/it]Train: 35.063, Val: 35.130:  95%|█████████▍| 142/150 [52:04<03:19, 24.95s/it]Train: 34.988, Val: 34.991:  95%|█████████▌| 143/150 [52:29<02:55, 25.02s/it]Train: 35.115, Val: 35.086:  96%|█████████▌| 144/150 [52:54<02:30, 25.06s/it]Epoch   145: reducing learning rate of group 0 to 1.0000e-05.
Train: 35.106, Val: 34.939:  97%|█████████▋| 145/150 [53:19<02:05, 25.12s/it]Train: 34.999, Val: 35.078:  97%|█████████▋| 146/150 [53:44<01:40, 25.11s/it]Train: 34.990, Val: 35.132:  98%|█████████▊| 147/150 [54:10<01:15, 25.13s/it]Train: 35.080, Val: 35.196:  99%|█████████▊| 148/150 [54:35<00:50, 25.10s/it]Train: 35.075, Val: 35.008:  99%|█████████▉| 149/150 [55:00<00:25, 25.05s/it]Train: 34.984, Val: 35.094: 100%|██████████| 150/150 [55:24<00:00, 24.98s/it]Train: 34.984, Val: 35.094: 100%|██████████| 150/150 [55:24<00:00, 22.17s/it]
INFO - continuous_nf - Completed after 0:55:28
