[MUTUAL INFORMATION RESULTS]
True model: p*(x|z)p*(z)
Learned model: p(x|z)p(z)
Inference model: q(z|x)
-- Between z* ~ p*(z) and z ~ q(z|x): --
	 MI(z*, z) = 3.106
	 Per dimension: 
	 0: (0: 0.200) (1: 0.155) (2: 0.366) (3: 0.001) (4: 0.000) (5: 0.372) (6: 0.047) (7: 0.118) (8: 0.568) (9: 0.024) (10: 0.001) (11: 0.077) (12: 0.001) (13: 0.616) (14: 0.451) 
	 1: (0: 0.157) (1: 0.242) (2: 0.423) (3: 0.001) (4: 0.000) (5: 0.694) (6: 0.007) (7: 0.107) (8: 0.473) (9: 0.012) (10: 0.001) (11: 0.012) (12: 0.001) (13: 0.524) (14: 0.846) 
	 2: (0: 0.140) (1: 0.189) (2: 0.594) (3: 0.001) (4: 0.000) (5: 0.350) (6: 0.001) (7: 0.205) (8: 0.364) (9: 0.016) (10: 0.001) (11: 0.000) (12: 0.001) (13: 0.378) (14: 0.378) 
	 3: (0: 0.001) (1: 0.001) (2: 0.001) (3: 0.520) (4: 0.024) (5: 0.002) (6: 0.000) (7: 0.000) (8: 0.001) (9: 0.002) (10: 0.001) (11: 0.001) (12: 0.018) (13: 0.001) (14: 0.001) 
	 4: (0: 0.001) (1: 0.001) (2: 0.001) (3: 0.024) (4: 0.736) (5: 0.013) (6: 0.001) (7: 0.000) (8: 0.001) (9: 0.015) (10: 0.001) (11: 0.001) (12: 0.457) (13: 0.001) (14: 0.012) 
	 5: (0: 0.126) (1: 0.222) (2: 0.293) (3: 0.003) (4: 0.010) (5: 0.945) (6: 0.007) (7: 0.084) (8: 0.358) (9: 0.010) (10: 0.002) (11: 0.014) (12: 0.020) (13: 0.401) (14: 0.907) 
	 6: (0: 0.040) (1: 0.001) (2: 0.001) (3: 0.001) (4: 0.001) (5: 0.010) (6: 0.795) (7: 0.001) (8: 0.051) (9: 0.009) (10: 0.005) (11: 0.399) (12: 0.001) (13: 0.056) (14: 0.006) 
	 7: (0: 0.048) (1: 0.063) (2: 0.236) (3: 0.001) (4: 0.001) (5: 0.087) (6: 0.002) (7: 0.515) (8: 0.116) (9: 0.003) (10: 0.001) (11: 0.001) (12: 0.000) (13: 0.118) (14: 0.084) 
	 8: (0: 0.208) (1: 0.148) (2: 0.335) (3: 0.001) (4: 0.000) (5: 0.306) (6: 0.045) (7: 0.101) (8: 0.782) (9: 0.017) (10: 0.000) (11: 0.074) (12: 0.001) (13: 0.648) (14: 0.333) 
	 9: (0: 0.103) (1: 0.010) (2: 0.017) (3: 0.001) (4: 0.006) (5: 0.012) (6: 0.003) (7: 0.006) (8: 0.022) (9: 0.808) (10: 0.354) (11: 0.005) (12: 0.008) (13: 0.023) (14: 0.008) 
	 10: (0: 0.047) (1: 0.002) (2: 0.001) (3: 0.001) (4: 0.001) (5: 0.002) (6: 0.008) (7: 0.000) (8: 0.001) (9: 0.592) (10: 0.388) (11: 0.006) (12: 0.001) (13: 0.001) (14: 0.002) 
	 11: (0: 0.056) (1: 0.001) (2: 0.001) (3: 0.000) (4: 0.000) (5: 0.011) (6: 0.370) (7: 0.001) (8: 0.076) (9: 0.006) (10: 0.004) (11: 0.859) (12: 0.001) (13: 0.088) (14: 0.012) 
	 12: (0: 0.001) (1: 0.001) (2: 0.001) (3: 0.020) (4: 0.440) (5: 0.022) (6: 0.000) (7: 0.000) (8: 0.000) (9: 0.013) (10: 0.001) (11: 0.000) (12: 0.885) (13: 0.001) (14: 0.022) 
	 13: (0: 0.209) (1: 0.169) (2: 0.397) (3: 0.000) (4: 0.001) (5: 0.423) (6: 0.055) (7: 0.125) (8: 0.664) (9: 0.025) (10: 0.001) (11: 0.081) (12: 0.001) (13: 0.695) (14: 0.481) 
	 14: (0: 0.153) (1: 0.241) (2: 0.353) (3: 0.002) (4: 0.012) (5: 0.939) (6: 0.006) (7: 0.090) (8: 0.420) (9: 0.009) (10: 0.001) (11: 0.014) (12: 0.021) (13: 0.471) (14: 1.284) 
-- Between x, z ~ p(x|z)p(z) --
	 MI(z, z) per dimension: 
	 0: (1: 0.060) (2: 0.150) (3: 0.001) (4: 0.001) (5: 0.122) (6: 0.034) (7: 0.050) (8: 0.247) (9: 0.085) (10: 0.031) (11: 0.053) (12: 0.001) (13: 0.284) (14: 0.144) 
	 1: (2: 0.150) (3: 0.000) (4: 0.000) (5: 0.209) (6: 0.003) (7: 0.059) (8: 0.159) (9: 0.009) (10: 0.002) (11: 0.002) (12: 0.001) (13: 0.188) (14: 0.247) 
	 2: (3: 0.001) (4: 0.001) (5: 0.271) (6: 0.001) (7: 0.197) (8: 0.427) (9: 0.012) (10: 0.001) (11: 0.000) (12: 0.000) (13: 0.479) (14: 0.333) 
	 3: (4: 0.029) (5: 0.001) (6: 0.001) (7: 0.000) (8: 0.001) (9: 0.002) (10: 0.001) (11: 0.001) (12: 0.022) (13: 0.001) (14: 0.001) 
	 4: (5: 0.008) (6: 0.000) (7: 0.000) (8: 0.000) (9: 0.023) (10: 0.001) (11: 0.000) (12: 0.432) (13: 0.001) (14: 0.009) 
	 5: (6: 0.003) (7: 0.079) (8: 0.300) (9: 0.008) (10: 0.001) (11: 0.009) (12: 0.014) (13: 0.379) (14: 0.975) 
	 6: (7: 0.001) (8: 0.040) (9: 0.004) (10: 0.010) (11: 0.380) (12: 0.001) (13: 0.050) (14: 0.005) 
	 7: (8: 0.104) (9: 0.003) (10: 0.001) (11: 0.001) (12: 0.001) (13: 0.116) (14: 0.087) 
	 8: (9: 0.014) (10: 0.001) (11: 0.079) (12: 0.001) (13: 0.976) (14: 0.363) 
	 9: (10: 0.381) (11: 0.005) (12: 0.014) (13: 0.018) (14: 0.008) 
	 10: (11: 0.003) (12: 0.001) (13: 0.001) (14: 0.001) 
	 11: (12: 0.001) (13: 0.099) (14: 0.008) 
	 12: (13: 0.001) (14: 0.019) 
	 13: (14: 0.443) 
	 14: 
	 MI(z, x) per dimension: 
	 0: (0: 0.210) (1: 0.037) (2: 0.016) (3: 0.108) (4: 0.026) (5: 0.048) (6: 0.038) (7: 0.032) (8: 0.128) (9: 0.012) (10: 0.001) (11: 0.021) (12: 0.131) (13: 0.001) (14: 0.109) (15: 0.018) (16: 0.001) (17: 0.001) (18: 0.030) (19: 0.087) (20: 0.033) (21: 0.055) (22: 0.120) (23: 0.001) (24: 0.033) (25: 0.001) (26: 0.025) (27: 0.033) (28: 0.001) 
	 1: (0: 0.125) (1: 0.001) (2: 0.002) (3: 0.199) (4: 0.028) (5: 0.069) (6: 0.002) (7: 0.001) (8: 0.226) (9: 0.001) (10: 0.000) (11: 0.002) (12: 0.013) (13: 0.001) (14: 0.172) (15: 0.002) (16: 0.001) (17: 0.002) (18: 0.001) (19: 0.121) (20: 0.005) (21: 0.004) (22: 0.205) (23: 0.001) (24: 0.001) (25: 0.001) (26: 0.020) (27: 0.002) (28: 0.001) 
	 2: (0: 0.316) (1: 0.001) (2: 0.003) (3: 0.271) (4: 0.097) (5: 0.092) (6: 0.001) (7: 0.001) (8: 0.286) (9: 0.001) (10: 0.001) (11: 0.001) (12: 0.022) (13: 0.001) (14: 0.243) (15: 0.001) (16: 0.001) (17: 0.001) (18: 0.001) (19: 0.669) (20: 0.005) (21: 0.023) (22: 0.222) (23: 0.000) (24: 0.001) (25: 0.000) (26: 0.099) (27: 0.000) (28: 0.002) 
	 3: (0: 0.001) (1: 0.001) (2: 0.001) (3: 0.001) (4: 0.001) (5: 0.001) (6: 0.001) (7: 0.001) (8: 0.001) (9: 0.000) (10: 0.493) (11: 0.000) (12: 0.002) (13: 0.017) (14: 0.001) (15: 0.001) (16: 0.015) (17: 0.018) (18: 0.001) (19: 0.000) (20: 0.013) (21: 0.001) (22: 0.001) (23: 0.026) (24: 0.001) (25: 0.594) (26: 0.000) (27: 0.001) (28: 0.001) 
	 4: (0: 0.000) (1: -0.000) (2: 0.003) (3: 0.010) (4: 0.000) (5: 0.005) (6: 0.001) (7: 0.001) (8: 0.011) (9: 0.001) (10: 0.024) (11: 0.001) (12: 0.019) (13: 0.359) (14: 0.006) (15: 0.000) (16: 0.369) (17: 0.476) (18: 0.000) (19: 0.000) (20: 0.281) (21: 0.000) (22: 0.012) (23: 0.663) (24: 0.000) (25: 0.021) (26: 0.000) (27: 0.000) (28: 0.001) 
	 5: (0: 0.223) (1: 0.007) (2: 0.001) (3: 0.649) (4: 0.038) (5: 0.193) (6: 0.008) (7: 0.005) (8: 0.789) (9: 0.002) (10: 0.000) (11: 0.002) (12: 0.016) (13: 0.014) (14: 0.926) (15: 0.001) (16: 0.011) (17: 0.011) (18: 0.007) (19: 0.180) (20: 0.019) (21: 0.025) (22: 0.725) (23: 0.006) (24: 0.006) (25: 0.001) (26: 0.037) (27: 0.008) (28: 0.001) 
	 6: (0: 0.036) (1: 0.195) (2: 0.001) (3: 0.003) (4: 0.000) (5: 0.002) (6: 0.201) (7: 0.196) (8: 0.005) (9: 0.057) (10: 0.001) (11: 0.693) (12: 0.007) (13: 0.001) (14: 0.004) (15: 0.006) (16: 0.001) (17: 0.000) (18: 0.187) (19: 0.007) (20: 0.001) (21: 0.628) (22: 0.006) (23: 0.001) (24: 0.322) (25: 0.001) (26: 0.001) (27: 0.196) (28: 0.001) 
	 7: (0: 0.088) (1: 0.000) (2: 0.002) (3: 0.076) (4: 0.341) (5: 0.029) (6: 0.001) (7: 0.000) (8: 0.085) (9: 0.000) (10: 0.000) (11: 0.001) (12: 0.006) (13: 0.001) (14: 0.072) (15: 0.000) (16: 0.001) (17: 0.000) (18: 0.001) (19: 0.383) (20: 0.002) (21: 0.070) (22: 0.025) (23: 0.000) (24: 0.000) (25: 0.000) (26: 0.341) (27: 0.000) (28: 0.003) 
	 8: (0: 0.817) (1: 0.046) (2: 0.005) (3: 0.294) (4: 0.048) (5: 0.106) (6: 0.050) (7: 0.049) (8: 0.325) (9: 0.021) (10: 0.000) (11: 0.032) (12: 0.033) (13: 0.001) (14: 0.251) (15: 0.000) (16: 0.000) (17: 0.001) (18: 0.049) (19: 0.207) (20: 0.008) (21: 0.086) (22: 0.282) (23: 0.000) (24: 0.044) (25: 0.001) (26: 0.051) (27: 0.049) (28: 0.002) 
	 9: (0: 0.017) (1: 0.005) (2: 0.078) (3: 0.008) (4: 0.004) (5: 0.003) (6: 0.004) (7: 0.004) (8: 0.014) (9: 0.003) (10: 0.001) (11: 0.003) (12: 0.976) (13: 0.011) (14: 0.007) (15: 0.233) (16: 0.012) (17: 0.013) (18: 0.005) (19: 0.007) (20: 0.130) (21: 0.008) (22: 0.007) (23: 0.020) (24: 0.005) (25: 0.004) (26: 0.001) (27: 0.003) (28: 0.001) 
	 10: (0: 0.001) (1: 0.001) (2: 0.045) (3: 0.001) (4: 0.002) (5: 0.000) (6: 0.002) (7: 0.003) (8: 0.002) (9: 0.001) (10: 0.001) (11: 0.007) (12: 0.300) (13: 0.001) (14: 0.002) (15: 0.504) (16: 0.001) (17: 0.000) (18: 0.002) (19: 0.002) (20: 0.113) (21: 0.005) (22: 0.001) (23: 0.001) (24: 0.003) (25: 0.000) (26: 0.001) (27: 0.004) (28: 0.000) 
	 11: (0: 0.061) (1: 0.420) (2: 0.001) (3: 0.008) (4: 0.001) (5: 0.002) (6: 0.477) (7: 0.440) (8: 0.012) (9: 0.128) (10: 0.000) (11: 0.267) (12: 0.011) (13: 0.000) (14: 0.009) (15: 0.002) (16: 0.000) (17: 0.000) (18: 0.462) (19: 0.018) (20: 0.003) (21: 0.238) (22: 0.012) (23: 0.000) (24: 0.349) (25: 0.000) (26: 0.000) (27: 0.434) (28: 0.001) 
	 12: (0: 0.001) (1: 0.001) (2: 0.003) (3: 0.016) (4: 0.001) (5: 0.007) (6: 0.001) (7: 0.001) (8: 0.018) (9: 0.001) (10: 0.010) (11: 0.000) (12: 0.009) (13: 0.790) (14: 0.013) (15: 0.001) (16: 0.665) (17: 0.754) (18: 0.000) (19: 0.001) (20: 0.149) (21: 0.001) (22: 0.019) (23: 0.304) (24: 0.000) (25: 0.014) (26: 0.001) (27: 0.001) (28: 0.000) 
	 13: (0: 0.589) (1: 0.060) (2: 0.003) (3: 0.354) (4: 0.066) (5: 0.122) (6: 0.059) (7: 0.056) (8: 0.421) (9: 0.019) (10: 0.001) (11: 0.039) (12: 0.038) (13: 0.001) (14: 0.297) (15: 0.001) (16: 0.001) (17: 0.001) (18: 0.060) (19: 0.228) (20: 0.009) (21: 0.097) (22: 0.337) (23: 0.001) (24: 0.052) (25: 0.001) (26: 0.050) (27: 0.058) (28: 0.002) 
	 14: (0: 0.276) (1: 0.006) (2: 0.003) (3: 0.844) (4: 0.046) (5: 0.218) (6: 0.008) (7: 0.008) (8: 1.088) (9: 0.002) (10: 0.001) (11: 0.003) (12: 0.016) (13: 0.016) (14: 0.678) (15: 0.001) (16: 0.014) (17: 0.012) (18: 0.008) (19: 0.199) (20: 0.022) (21: 0.027) (22: 0.964) (23: 0.006) (24: 0.007) (25: 0.001) (26: 0.042) (27: 0.007) (28: 0.002) 
