{
  "activation": "lipmish",
  "batch_size": 120,
  "bn": "arithmetic-circuit2",
  "coeff": 0.99,
  "decoder_hidden_dims": [
    100
  ],
  "ex_name": "siren_vae",
  "flow_hidden_dims": [
    100
  ],
  "legend": [
    "SIReN-VAE$_faith$",
    "SIReN-VAE$_fc$"
  ],
  "lr": 0.001,
  "model_path": "arithmetic-circuit2_faithful_lipmish_5_[100]_[100]",
  "n_power_iterations": 5,
  "normalize": false,
  "num_epochs": 600,
  "num_flow_steps": 5,
  "num_train_batches": 16,
  "num_train_samples": 1920,
  "num_val_batches": 25,
  "num_val_samples": 3000,
  "path": "./experiment_logs/siren_vae/arithmetic-circuit2/faithful_lipmish_5_[100]_[100]_128g",
  "patience": 20,
  "run": 1,
  "seed": 0,
  "structure": "faithful",
  "sub_folder": "faithful_lipmish_5_[100]_[100]_128g",
  "ylims": [
    [
      9,
      14
    ],
    [
      9,
      14
    ]
  ]
}