{
  "activation": "lipmish",
  "batch_size": 100,
  "bn": "mehra-real",
  "checkpoint_n": 10,
  "coeff": 0.99,
  "decoder_hidden_dims": [
    100
  ],
  "double": true,
  "dreg": false,
  "ex_name": "siren_vae_wu",
  "flow_hidden_dims": [
    100
  ],
  "iw": false,
  "k": 1,
  "legend": [
    "SIReN-VAE$_faith$",
    "SIReN-VAE$_fc$"
  ],
  "load_from_checkpoint": false,
  "lr": 0.01,
  "model_path": "arithmetic-circuit2_faithful_lipmish_5_[100]_[100]",
  "n_power_iterations": 5,
  "num_epochs": 500,
  "num_flow_steps": 5,
  "num_train_batches": 100,
  "num_train_samples": 10000,
  "num_val_batches": 50,
  "num_val_samples": 5000,
  "path": "./experiment_logs/siren_vae_wu/mehra-real/faithful_lipmish_5_[100]_[100]_100N_all",
  "patience": 20,
  "run": 1,
  "save_checkpoints": false,
  "seed": 0,
  "structure": "faithful",
  "sub_folder": "faithful_lipmish_5_[100]_[100]_100N_all",
  "wu": true,
  "wu_N": 100,
  "wu_all": true,
  "ylims": [
    [
      9,
      14
    ],
    [
      9,
      14
    ]
  ]
}