{
  "batch_size": 107,
  "bn": "arth150-synth",
  "checkpoint_n": 10,
  "condition_sigma": true,
  "decoder_hidden_dims": [
    200
  ],
  "dreg": false,
  "encoder_hidden_dims": [
    200
  ],
  "ex_name": "vanilla_vae",
  "iw": false,
  "k": 1,
  "load_from_checkpoint": false,
  "lr": 0.001,
  "normalize": false,
  "num_epochs": 1200,
  "num_train_batches": 2,
  "num_train_samples": 214,
  "num_val_batches": 40,
  "num_val_samples": 4280,
  "path": "./experiment_logs/vanilla_vae/arth150-synth/[200]_[200]_2g",
  "patience": 20,
  "plotting_range": null,
  "run": 1,
  "save_checkpoints": false,
  "seed": 10,
  "sub_folder": "[200]_[200]_2g"
}