{
  "test": {
    "steps": [
      0,
      0
    ],
    "timestamps": [
      "2022-10-01T06:51:54.976885",
      "2022-10-01T07:53:39.382088"
    ],
    "values": [
      1.1938241765659452,
      1.18327234552229
    ]
  },
  "train": {
    "steps": [
      0,
      1,
      2,
      3,
      4,
      5,
      6,
      7,
      8,
      9,
      10,
      11,
      12,
      13,
      14,
      15,
      16,
      17,
      18,
      19,
      20,
      21,
      22,
      23,
      24,
      25,
      26,
      27,
      28,
      29,
      30,
      31,
      32,
      33,
      34,
      35,
      36,
      37,
      38,
      39,
      40,
      41,
      42,
      43,
      44,
      45,
      46,
      47,
      48,
      49,
      50,
      51,
      52,
      53,
      54,
      55,
      56,
      57,
      58,
      59,
      60,
      61,
      62,
      63,
      64,
      65,
      66,
      67,
      68,
      69,
      70,
      71,
      72,
      73,
      74,
      75,
      76,
      77,
      78,
      79,
      80,
      81,
      82,
      83,
      84,
      85,
      86,
      87,
      88,
      89,
      90,
      91,
      92,
      93,
      94,
      95,
      96,
      97,
      98,
      99,
      100,
      101,
      102,
      103,
      104,
      105,
      106,
      107,
      108,
      109,
      110,
      111,
      112,
      113,
      114,
      115,
      116,
      117,
      118,
      119,
      120,
      121,
      122,
      123,
      124,
      125,
      126,
      127,
      128,
      129,
      130,
      131,
      132,
      133,
      134,
      135,
      136,
      137,
      138,
      139,
      140,
      141,
      142,
      143,
      144,
      145,
      146,
      147,
      148,
      149,
      150,
      151,
      152,
      153,
      154,
      155,
      156,
      157,
      158,
      159,
      160,
      161,
      162,
      163,
      164,
      165,
      166,
      167,
      168,
      169,
      170,
      171,
      172,
      173,
      174,
      175,
      176,
      177,
      178,
      179,
      180,
      181,
      182,
      183,
      184,
      185,
      186,
      187,
      188,
      189,
      190,
      191,
      192,
      193,
      194,
      195,
      196,
      197,
      198,
      199,
      200,
      201,
      202,
      203,
      204,
      205,
      206,
      207,
      208,
      209,
      210,
      211,
      212,
      213,
      214,
      215,
      216,
      217,
      218,
      219,
      220,
      221,
      222,
      223,
      224,
      225,
      226,
      227,
      228,
      229,
      230,
      231,
      232,
      233,
      234,
      235,
      236,
      237,
      238,
      239,
      240,
      241,
      242,
      243,
      244,
      245,
      246,
      247,
      248,
      249,
      250,
      251,
      252,
      253,
      254,
      255,
      256,
      257,
      258,
      259,
      260,
      261,
      262,
      263,
      264,
      265,
      266,
      267,
      268,
      269,
      270,
      271,
      272,
      273,
      274,
      275,
      276,
      277,
      278,
      279,
      280,
      281,
      282,
      283,
      284,
      285,
      286,
      287,
      288,
      289,
      290,
      291,
      292,
      293,
      294,
      295,
      296,
      297,
      298,
      299,
      0,
      1,
      2,
      3,
      4,
      5,
      6,
      7,
      8,
      9,
      10,
      11,
      12,
      13,
      14,
      15,
      16,
      17,
      18,
      19,
      20,
      21,
      22,
      23,
      24,
      25,
      26,
      27,
      28,
      29,
      30,
      31,
      32,
      33,
      34,
      35,
      36,
      37,
      38,
      39,
      40,
      41,
      42,
      43,
      44,
      45,
      46,
      47,
      48,
      49,
      50,
      51,
      52,
      53,
      54,
      55,
      56,
      57,
      58,
      59,
      60,
      61,
      62,
      63,
      64,
      65,
      66,
      67,
      68,
      69,
      70,
      71,
      72,
      73,
      74,
      75,
      76,
      77,
      78,
      79,
      80,
      81,
      82,
      83,
      84,
      85,
      86,
      87,
      88,
      89,
      90,
      91,
      92,
      93,
      94,
      95,
      96,
      97,
      98,
      99
    ],
    "timestamps": [
      "2022-10-01T06:13:16.567539",
      "2022-10-01T06:13:24.250939",
      "2022-10-01T06:13:31.864645",
      "2022-10-01T06:13:39.859145",
      "2022-10-01T06:13:47.395455",
      "2022-10-01T06:13:55.036310",
      "2022-10-01T06:14:02.624600",
      "2022-10-01T06:14:10.294334",
      "2022-10-01T06:14:17.833787",
      "2022-10-01T06:14:25.441980",
      "2022-10-01T06:14:33.321345",
      "2022-10-01T06:14:40.867575",
      "2022-10-01T06:14:48.478817",
      "2022-10-01T06:14:56.156283",
      "2022-10-01T06:15:03.850265",
      "2022-10-01T06:15:11.472647",
      "2022-10-01T06:15:19.136090",
      "2022-10-01T06:15:26.682517",
      "2022-10-01T06:15:34.343144",
      "2022-10-01T06:15:41.984600",
      "2022-10-01T06:15:49.686742",
      "2022-10-01T06:15:57.231697",
      "2022-10-01T06:16:04.976121",
      "2022-10-01T06:16:12.762898",
      "2022-10-01T06:16:20.711430",
      "2022-10-01T06:16:28.393371",
      "2022-10-01T06:16:36.166998",
      "2022-10-01T06:16:43.967330",
      "2022-10-01T06:16:51.725590",
      "2022-10-01T06:16:59.422109",
      "2022-10-01T06:17:07.083332",
      "2022-10-01T06:17:14.731952",
      "2022-10-01T06:17:22.362981",
      "2022-10-01T06:17:30.000447",
      "2022-10-01T06:17:37.548965",
      "2022-10-01T06:17:45.260487",
      "2022-10-01T06:17:52.975753",
      "2022-10-01T06:18:00.607969",
      "2022-10-01T06:18:08.168818",
      "2022-10-01T06:18:15.839584",
      "2022-10-01T06:18:23.513768",
      "2022-10-01T06:18:31.193301",
      "2022-10-01T06:18:38.744396",
      "2022-10-01T06:18:46.375630",
      "2022-10-01T06:18:54.032439",
      "2022-10-01T06:19:01.691809",
      "2022-10-01T06:19:09.303007",
      "2022-10-01T06:19:16.887887",
      "2022-10-01T06:19:24.505471",
      "2022-10-01T06:19:32.136121",
      "2022-10-01T06:19:39.873319",
      "2022-10-01T06:19:47.469543",
      "2022-10-01T06:19:55.057849",
      "2022-10-01T06:20:02.688800",
      "2022-10-01T06:20:10.319731",
      "2022-10-01T06:20:17.969353",
      "2022-10-01T06:20:25.673350",
      "2022-10-01T06:20:33.362759",
      "2022-10-01T06:20:41.030475",
      "2022-10-01T06:20:48.559088",
      "2022-10-01T06:20:56.258791",
      "2022-10-01T06:21:03.889105",
      "2022-10-01T06:21:11.589621",
      "2022-10-01T06:21:19.163603",
      "2022-10-01T06:21:26.803058",
      "2022-10-01T06:21:34.561358",
      "2022-10-01T06:21:42.181793",
      "2022-10-01T06:21:49.847991",
      "2022-10-01T06:21:57.434762",
      "2022-10-01T06:22:05.089120",
      "2022-10-01T06:22:12.899669",
      "2022-10-01T06:22:20.530446",
      "2022-10-01T06:22:28.057798",
      "2022-10-01T06:22:35.637868",
      "2022-10-01T06:22:43.258913",
      "2022-10-01T06:22:50.852646",
      "2022-10-01T06:22:58.400169",
      "2022-10-01T06:23:06.032833",
      "2022-10-01T06:23:13.768656",
      "2022-10-01T06:23:21.356175",
      "2022-10-01T06:23:29.018706",
      "2022-10-01T06:23:36.676191",
      "2022-10-01T06:23:44.344257",
      "2022-10-01T06:23:52.034627",
      "2022-10-01T06:23:59.697065",
      "2022-10-01T06:24:07.250227",
      "2022-10-01T06:24:14.896327",
      "2022-10-01T06:24:22.569315",
      "2022-10-01T06:24:30.264031",
      "2022-10-01T06:24:37.861679",
      "2022-10-01T06:24:45.524851",
      "2022-10-01T06:24:53.196971",
      "2022-10-01T06:25:00.897886",
      "2022-10-01T06:25:08.445560",
      "2022-10-01T06:25:16.134690",
      "2022-10-01T06:25:23.822673",
      "2022-10-01T06:25:31.464648",
      "2022-10-01T06:25:39.017114",
      "2022-10-01T06:25:46.611018",
      "2022-10-01T06:25:54.263088",
      "2022-10-01T06:26:02.026271",
      "2022-10-01T06:26:09.682395",
      "2022-10-01T06:26:17.256262",
      "2022-10-01T06:26:24.957955",
      "2022-10-01T06:26:32.717940",
      "2022-10-01T06:26:40.512756",
      "2022-10-01T06:26:48.160458",
      "2022-10-01T06:26:55.817968",
      "2022-10-01T06:27:03.511734",
      "2022-10-01T06:27:11.242738",
      "2022-10-01T06:27:18.834656",
      "2022-10-01T06:27:26.589106",
      "2022-10-01T06:27:34.302861",
      "2022-10-01T06:27:41.991881",
      "2022-10-01T06:27:49.696630",
      "2022-10-01T06:27:57.328050",
      "2022-10-01T06:28:05.063214",
      "2022-10-01T06:28:12.778805",
      "2022-10-01T06:28:20.501401",
      "2022-10-01T06:28:28.142363",
      "2022-10-01T06:28:35.887880",
      "2022-10-01T06:28:43.624182",
      "2022-10-01T06:28:51.379986",
      "2022-10-01T06:28:59.061680",
      "2022-10-01T06:29:06.744816",
      "2022-10-01T06:29:14.490496",
      "2022-10-01T06:29:22.213416",
      "2022-10-01T06:29:30.020123",
      "2022-10-01T06:29:37.674197",
      "2022-10-01T06:29:45.380058",
      "2022-10-01T06:29:53.097929",
      "2022-10-01T06:30:00.722311",
      "2022-10-01T06:30:08.224096",
      "2022-10-01T06:30:15.805935",
      "2022-10-01T06:30:23.427865",
      "2022-10-01T06:30:31.072448",
      "2022-10-01T06:30:38.609516",
      "2022-10-01T06:30:46.171269",
      "2022-10-01T06:30:53.904311",
      "2022-10-01T06:31:01.649216",
      "2022-10-01T06:31:09.425045",
      "2022-10-01T06:31:17.016293",
      "2022-10-01T06:31:24.614100",
      "2022-10-01T06:31:32.227323",
      "2022-10-01T06:31:39.889969",
      "2022-10-01T06:31:47.388540",
      "2022-10-01T06:31:55.010710",
      "2022-10-01T06:32:02.583728",
      "2022-10-01T06:32:10.223176",
      "2022-10-01T06:32:17.705577",
      "2022-10-01T06:32:25.311612",
      "2022-10-01T06:32:32.944326",
      "2022-10-01T06:32:40.517087",
      "2022-10-01T06:32:47.989682",
      "2022-10-01T06:32:55.564573",
      "2022-10-01T06:33:03.211723",
      "2022-10-01T06:33:10.870035",
      "2022-10-01T06:33:18.501416",
      "2022-10-01T06:33:26.121623",
      "2022-10-01T06:33:33.708448",
      "2022-10-01T06:33:41.642120",
      "2022-10-01T06:33:49.308931",
      "2022-10-01T06:33:56.982253",
      "2022-10-01T06:34:04.667104",
      "2022-10-01T06:34:12.473380",
      "2022-10-01T06:34:20.132988",
      "2022-10-01T06:34:27.668941",
      "2022-10-01T06:34:35.290794",
      "2022-10-01T06:34:43.115856",
      "2022-10-01T06:34:50.736154",
      "2022-10-01T06:34:58.324513",
      "2022-10-01T06:35:05.981923",
      "2022-10-01T06:35:13.579095",
      "2022-10-01T06:35:21.203435",
      "2022-10-01T06:35:28.686968",
      "2022-10-01T06:35:36.394342",
      "2022-10-01T06:35:44.014370",
      "2022-10-01T06:35:51.594285",
      "2022-10-01T06:35:59.210948",
      "2022-10-01T06:36:06.898375",
      "2022-10-01T06:36:14.532267",
      "2022-10-01T06:36:22.221155",
      "2022-10-01T06:36:29.772339",
      "2022-10-01T06:36:37.254438",
      "2022-10-01T06:36:44.831309",
      "2022-10-01T06:36:52.387216",
      "2022-10-01T06:37:00.012599",
      "2022-10-01T06:37:07.571075",
      "2022-10-01T06:37:15.151975",
      "2022-10-01T06:37:22.942673",
      "2022-10-01T06:37:30.669335",
      "2022-10-01T06:37:38.284341",
      "2022-10-01T06:37:45.890902",
      "2022-10-01T06:37:53.569351",
      "2022-10-01T06:38:01.153776",
      "2022-10-01T06:38:08.679101",
      "2022-10-01T06:38:16.248546",
      "2022-10-01T06:38:23.814210",
      "2022-10-01T06:38:31.377043",
      "2022-10-01T06:38:38.864627",
      "2022-10-01T06:38:46.491028",
      "2022-10-01T06:38:54.038371",
      "2022-10-01T06:39:01.699212",
      "2022-10-01T06:39:09.570665",
      "2022-10-01T06:39:17.384575",
      "2022-10-01T06:39:25.325551",
      "2022-10-01T06:39:33.146057",
      "2022-10-01T06:39:40.808647",
      "2022-10-01T06:39:48.556411",
      "2022-10-01T06:39:56.618264",
      "2022-10-01T06:40:04.417671",
      "2022-10-01T06:40:12.207157",
      "2022-10-01T06:40:21.567236",
      "2022-10-01T06:40:29.207991",
      "2022-10-01T06:40:37.586472",
      "2022-10-01T06:40:46.026782",
      "2022-10-01T06:40:54.524369",
      "2022-10-01T06:41:02.779763",
      "2022-10-01T06:41:11.153255",
      "2022-10-01T06:41:19.508315",
      "2022-10-01T06:41:28.302585",
      "2022-10-01T06:41:36.347519",
      "2022-10-01T06:41:44.111000",
      "2022-10-01T06:41:52.636476",
      "2022-10-01T06:42:00.587421",
      "2022-10-01T06:42:08.345998",
      "2022-10-01T06:42:16.139798",
      "2022-10-01T06:42:24.007279",
      "2022-10-01T06:42:31.662474",
      "2022-10-01T06:42:39.190289",
      "2022-10-01T06:42:47.121339",
      "2022-10-01T06:42:54.962155",
      "2022-10-01T06:43:02.718138",
      "2022-10-01T06:43:10.441734",
      "2022-10-01T06:43:18.291560",
      "2022-10-01T06:43:26.331576",
      "2022-10-01T06:43:34.221407",
      "2022-10-01T06:43:42.106835",
      "2022-10-01T06:43:49.787881",
      "2022-10-01T06:43:57.508971",
      "2022-10-01T06:44:05.169564",
      "2022-10-01T06:44:12.890520",
      "2022-10-01T06:44:20.589662",
      "2022-10-01T06:44:28.306437",
      "2022-10-01T06:44:36.002972",
      "2022-10-01T06:44:43.615017",
      "2022-10-01T06:44:51.365234",
      "2022-10-01T06:44:59.048632",
      "2022-10-01T06:45:06.770040",
      "2022-10-01T06:45:14.307487",
      "2022-10-01T06:45:21.991707",
      "2022-10-01T06:45:29.860794",
      "2022-10-01T06:45:37.588116",
      "2022-10-01T06:45:45.562467",
      "2022-10-01T06:45:53.252359",
      "2022-10-01T06:46:01.079780",
      "2022-10-01T06:46:08.827842",
      "2022-10-01T06:46:16.629012",
      "2022-10-01T06:46:24.442609",
      "2022-10-01T06:46:32.462841",
      "2022-10-01T06:46:40.140451",
      "2022-10-01T06:46:47.812453",
      "2022-10-01T06:46:55.414300",
      "2022-10-01T06:47:03.414961",
      "2022-10-01T06:47:11.162552",
      "2022-10-01T06:47:18.777761",
      "2022-10-01T06:47:26.408721",
      "2022-10-01T06:47:34.322023",
      "2022-10-01T06:47:42.127288",
      "2022-10-01T06:47:50.123454",
      "2022-10-01T06:47:57.899474",
      "2022-10-01T06:48:05.763716",
      "2022-10-01T06:48:14.084433",
      "2022-10-01T06:48:23.235260",
      "2022-10-01T06:48:33.187351",
      "2022-10-01T06:48:41.574610",
      "2022-10-01T06:48:49.520060",
      "2022-10-01T06:48:57.131370",
      "2022-10-01T06:49:05.288495",
      "2022-10-01T06:49:13.683547",
      "2022-10-01T06:49:21.767460",
      "2022-10-01T06:49:29.666452",
      "2022-10-01T06:49:38.117418",
      "2022-10-01T06:49:46.197912",
      "2022-10-01T06:49:54.370358",
      "2022-10-01T06:50:02.184976",
      "2022-10-01T06:50:10.291501",
      "2022-10-01T06:50:18.156675",
      "2022-10-01T06:50:26.029657",
      "2022-10-01T06:50:33.664727",
      "2022-10-01T06:50:41.738534",
      "2022-10-01T06:50:49.539035",
      "2022-10-01T06:50:57.765315",
      "2022-10-01T06:51:06.324554",
      "2022-10-01T06:51:14.754649",
      "2022-10-01T06:51:22.543027",
      "2022-10-01T06:51:30.118953",
      "2022-10-01T06:51:37.783399",
      "2022-10-01T06:51:45.617478",
      "2022-10-01T06:51:53.183768",
      "2022-10-01T07:38:40.193490",
      "2022-10-01T07:38:49.295699",
      "2022-10-01T07:38:57.800332",
      "2022-10-01T07:39:06.866265",
      "2022-10-01T07:39:16.107027",
      "2022-10-01T07:39:25.514798",
      "2022-10-01T07:39:35.363470",
      "2022-10-01T07:39:44.234259",
      "2022-10-01T07:39:53.610812",
      "2022-10-01T07:40:03.051806",
      "2022-10-01T07:40:12.721736",
      "2022-10-01T07:40:21.657470",
      "2022-10-01T07:40:31.442167",
      "2022-10-01T07:40:39.981413",
      "2022-10-01T07:40:49.288098",
      "2022-10-01T07:40:58.154771",
      "2022-10-01T07:41:06.792698",
      "2022-10-01T07:41:15.702511",
      "2022-10-01T07:41:24.729960",
      "2022-10-01T07:41:33.540714",
      "2022-10-01T07:41:42.333973",
      "2022-10-01T07:41:51.024213",
      "2022-10-01T07:41:59.891002",
      "2022-10-01T07:42:08.579869",
      "2022-10-01T07:42:17.232786",
      "2022-10-01T07:42:26.080382",
      "2022-10-01T07:42:34.451397",
      "2022-10-01T07:42:42.635955",
      "2022-10-01T07:42:54.078364",
      "2022-10-01T07:43:03.314083",
      "2022-10-01T07:43:12.265853",
      "2022-10-01T07:43:22.110281",
      "2022-10-01T07:43:30.851283",
      "2022-10-01T07:43:41.038772",
      "2022-10-01T07:43:51.980750",
      "2022-10-01T07:44:03.201811",
      "2022-10-01T07:44:11.873323",
      "2022-10-01T07:44:21.581708",
      "2022-10-01T07:44:30.464156",
      "2022-10-01T07:44:39.372142",
      "2022-10-01T07:44:48.086624",
      "2022-10-01T07:44:56.630435",
      "2022-10-01T07:45:05.246364",
      "2022-10-01T07:45:13.646700",
      "2022-10-01T07:45:22.525210",
      "2022-10-01T07:45:31.350951",
      "2022-10-01T07:45:39.900814",
      "2022-10-01T07:45:48.487605",
      "2022-10-01T07:45:59.191786",
      "2022-10-01T07:46:08.113343",
      "2022-10-01T07:46:17.423308",
      "2022-10-01T07:46:26.747585",
      "2022-10-01T07:46:35.990913",
      "2022-10-01T07:46:44.716010",
      "2022-10-01T07:46:53.519369",
      "2022-10-01T07:47:02.283023",
      "2022-10-01T07:47:11.005074",
      "2022-10-01T07:47:19.556905",
      "2022-10-01T07:47:28.275613",
      "2022-10-01T07:47:36.989100",
      "2022-10-01T07:47:45.811630",
      "2022-10-01T07:47:54.969474",
      "2022-10-01T07:48:04.971766",
      "2022-10-01T07:48:13.621406",
      "2022-10-01T07:48:22.342747",
      "2022-10-01T07:48:30.995064",
      "2022-10-01T07:48:39.453803",
      "2022-10-01T07:48:48.630462",
      "2022-10-01T07:48:57.188738",
      "2022-10-01T07:49:05.941243",
      "2022-10-01T07:49:14.869947",
      "2022-10-01T07:49:23.777463",
      "2022-10-01T07:49:32.406068",
      "2022-10-01T07:49:41.023916",
      "2022-10-01T07:49:49.717630",
      "2022-10-01T07:49:58.543608",
      "2022-10-01T07:50:07.711689",
      "2022-10-01T07:50:17.642994",
      "2022-10-01T07:50:26.672480",
      "2022-10-01T07:50:35.493657",
      "2022-10-01T07:50:45.596054",
      "2022-10-01T07:50:54.298175",
      "2022-10-01T07:51:03.311937",
      "2022-10-01T07:51:12.046539",
      "2022-10-01T07:51:20.846233",
      "2022-10-01T07:51:29.494403",
      "2022-10-01T07:51:38.932337",
      "2022-10-01T07:51:47.809351",
      "2022-10-01T07:51:57.112903",
      "2022-10-01T07:52:06.330387",
      "2022-10-01T07:52:15.277966",
      "2022-10-01T07:52:24.907009",
      "2022-10-01T07:52:33.765342",
      "2022-10-01T07:52:42.311845",
      "2022-10-01T07:52:50.922856",
      "2022-10-01T07:52:59.520067",
      "2022-10-01T07:53:09.021553",
      "2022-10-01T07:53:18.633596",
      "2022-10-01T07:53:27.941416",
      "2022-10-01T07:53:36.972030"
    ],
    "values": [
      15.758841688080501,
      6.97717672766655,
      4.912191162585953,
      4.304352499691582,
      4.182622563553201,
      3.62957786244689,
      3.114221293721613,
      3.1778223061701887,
      3.0839785400383635,
      2.7498258537413136,
      2.807850714737687,
      2.5996077636696846,
      2.936192827492852,
      2.940150566119828,
      2.452240956269625,
      2.527864732438677,
      2.772024470120775,
      2.6329943500555943,
      2.389419956802613,
      2.3032893293363244,
      2.2740961858810214,
      2.609915800857795,
      2.320456749485287,
      2.372707474589353,
      2.1367238701227054,
      2.4604795282032335,
      2.4168552508915715,
      2.1901758642255755,
      2.12141483465504,
      2.1971595646643176,
      2.1177249574457844,
      2.1380076726625417,
      2.0854625378288225,
      2.0465573546189937,
      2.0631100280926433,
      2.2106701136307563,
      2.1154747468114894,
      2.163422243416305,
      2.095032848796105,
      2.1535244565961364,
      2.0077731928822904,
      2.028815088948432,
      1.9342787029146793,
      2.106986788806795,
      2.0320843795735173,
      2.0063734861580507,
      1.9380220908620904,
      1.8474312649126,
      2.06361942335504,
      1.9238498783756333,
      1.943608658574834,
      1.8188409107552366,
      1.9335061275254761,
      2.2639110251775274,
      2.1038529316784866,
      2.039339393587292,
      1.9103193838020787,
      1.9008081624248976,
      1.8434799792511316,
      1.8036833586629748,
      1.893844830838159,
      1.805706317526432,
      1.8207237920685264,
      1.833632292737242,
      1.826164546949688,
      1.8306107397647469,
      2.043796777291436,
      1.8757294203048849,
      1.8335026690893763,
      1.9775124496173897,
      1.8414588165845327,
      1.8696701053881863,
      2.082297519440871,
      1.904087811367133,
      1.7709056352736547,
      1.7867734799228123,
      1.8339585793414992,
      1.7675842671305972,
      1.8905671584443642,
      1.8017201299531351,
      1.8426109907091757,
      1.899211669064683,
      1.8225100419338167,
      1.8175400798473698,
      1.838316658146824,
      1.836670098866656,
      1.7660495731155144,
      1.8820741788341477,
      1.7133119155498213,
      1.7436041048598279,
      1.8520197231559072,
      1.956023908477032,
      1.807489976437973,
      1.7732582673724806,
      1.8975461700838514,
      1.808836192635735,
      1.769054217328471,
      1.7621741785161231,
      1.7499114445012283,
      1.6492724042477682,
      1.7211431208746542,
      1.7759673376397322,
      1.7125551905162393,
      1.8291989935497412,
      1.72388290083425,
      1.86327988916707,
      1.7843177646788189,
      1.7278096123908002,
      1.814052648859999,
      1.7271383213809246,
      1.6561194642188974,
      1.7523776293411055,
      1.6730888123064194,
      1.7536170238481303,
      1.797176514577317,
      1.7960806262581128,
      1.732847225874789,
      1.7843963366994475,
      1.78036458601278,
      1.7063684201270906,
      1.7547882331198048,
      1.3607669663431203,
      1.3207896548052958,
      1.3128809166881539,
      1.315266045302448,
      1.3175251009854938,
      1.301767619133551,
      1.3061061703374965,
      1.3078950034601988,
      1.3051111469481234,
      1.308573313493692,
      1.2981402476634745,
      1.2927073799683548,
      1.2958832742629773,
      1.2902685694920322,
      1.3101598902224034,
      1.2977230999859515,
      1.3019513875422544,
      1.29068538913603,
      1.3053136711631885,
      1.3063345928766135,
      1.2938428919645242,
      1.2970418139891593,
      1.2916615846473407,
      1.2921749424117144,
      1.2872034078248689,
      1.3089597615870616,
      1.277627868345062,
      1.2873839830216687,
      1.2892972647970211,
      1.2775564989701627,
      1.291115654902955,
      1.2937117982291355,
      1.2925118240159525,
      1.2935650921759216,
      1.27494791732136,
      1.287257943084326,
      1.28647745231993,
      1.2843137555997712,
      1.3137875834390393,
      1.2758244711620197,
      1.271571969371215,
      1.2863332362039244,
      1.28352757484269,
      1.2636692423392357,
      1.2942913172768482,
      1.2783578834174598,
      1.2852887173171377,
      1.263243386016308,
      1.2763230859217065,
      1.2734847731092331,
      1.2884010132949726,
      1.2814180534090338,
      1.2658008057128285,
      1.2734531200779022,
      1.259102919252128,
      1.274793973503987,
      1.2791736198159154,
      1.2632150753380575,
      1.2697758798538348,
      1.2684917111907044,
      1.266874221879388,
      1.2520764986099993,
      1.2659181016050602,
      1.2812047765352452,
      1.2512233512789075,
      1.2685257948928086,
      1.2610015658148288,
      1.2492144596500054,
      1.2760663427237124,
      1.272992499080173,
      1.2533794053935479,
      1.2756237678418971,
      1.251539605785698,
      1.255787189771183,
      1.2560766640261904,
      1.2765764269104258,
      1.2483712800197677,
      1.2524530357952892,
      1.2719329571909754,
      1.2621107978570778,
      1.2564253973187711,
      1.2687410694174086,
      1.247754776322298,
      1.2743416698011396,
      1.2608369462497986,
      1.2539765342167177,
      1.242885018200293,
      1.2525994497541533,
      1.251392848138288,
      1.2534582993615329,
      1.2575514793709506,
      1.2497030859341884,
      1.2372848079604926,
      1.2659465528854188,
      1.2458255677048866,
      1.2505609386025898,
      1.256548864970306,
      1.2541607865545026,
      1.2486999811377653,
      1.2567290521917167,
      1.2492337737655437,
      1.2371739317165469,
      1.249611812299293,
      1.2648297433087001,
      1.2510433853338465,
      1.2384815471319297,
      1.2491968074970239,
      1.238733567344668,
      1.2476277794436972,
      1.2382356241809986,
      1.2511742742435288,
      1.2410548738760183,
      1.2464105325493842,
      1.2430305549098561,
      1.190674806715584,
      1.1847517667962972,
      1.1862932558019876,
      1.1844960350177134,
      1.1849523881951454,
      1.1850891598718665,
      1.1848407645701386,
      1.1853619245688827,
      1.1849504859596878,
      1.18446356734474,
      1.1848957093802976,
      1.1880684407126711,
      1.1838136418239933,
      1.1860553246687604,
      1.1860889649130275,
      1.187403318994792,
      1.185991433134915,
      1.1858872138676786,
      1.1878177707379312,
      1.1833648810098787,
      1.1840189098647835,
      1.18479992936373,
      1.1832064746251134,
      1.1883265604230904,
      1.183866478030869,
      1.1866764529887108,
      1.1864355612233324,
      1.1904055081255716,
      1.1851342735190749,
      1.1833092459559735,
      1.184867085677226,
      1.1869023963720335,
      1.1860566945645188,
      1.1843922876568778,
      1.185676667051369,
      1.1867668253127617,
      1.1848540223445243,
      1.183403504117928,
      1.184197805862176,
      1.185248748579195,
      1.1846923390579278,
      1.1817848961383361,
      1.1862287619537402,
      1.185619572439745,
      1.185106707842619,
      1.1834875050469031,
      1.1859544195054845,
      1.186889106961331,
      1.1838295480597614,
      1.1856429322815023,
      1.1850649170318512,
      1.1831830326540216,
      1.1838157453674025,
      1.188804861452845,
      1.1819653731307012,
      1.1851630828463628,
      1.1840122493427991,
      1.1824596904897562,
      1.1851116925662613,
      1.1811777282278415,
      1.185402112900273,
      1.1847290263538386,
      1.1842576100627709,
      1.1819471888200166,
      1.185274963239869,
      1.1808002495657461,
      1.1819520102933117,
      1.1831954288027482,
      1.1834543988936042,
      1.184589928929863,
      1.1826109468718264,
      1.1833282082738217,
      1.1813905788792156,
      1.179820552588696,
      1.1800588836330115,
      1.18082003895039,
      1.1832585127690107,
      1.1828203557518508,
      1.181239557685347,
      1.187187913391381,
      1.1802055411314931,
      1.1839579170346324,
      1.182818802129656,
      1.1834845467408015,
      1.1824453402059305,
      1.1804308410716622,
      1.1820000419273484,
      1.1829887448718124,
      1.1818371376494012,
      1.181688351509243,
      1.1817443588064878,
      1.1799281348890067,
      1.1790789860694624,
      1.180978341685575,
      1.1791962710167903,
      1.1800612885632542,
      1.180862047958251,
      1.1816607371387569,
      1.1825272693912874,
      1.1842347860607068,
      1.18001038755993,
      1.181639117944157,
      1.1796299530747438,
      1.1829497619972031,
      1.1813013689563439,
      1.1815618561840582,
      1.184284698283651,
      1.1793140020772446,
      1.1811269806606852,
      1.178856585356276,
      1.1782238346800507,
      1.1802182249692614,
      1.1796740701346444,
      1.1794661938912712,
      1.180803582276919,
      1.1783847282836228,
      1.1815319968468083,
      1.1819558925826867,
      1.1867847306945825,
      1.177305514719722,
      1.1828414630634585,
      1.1794516607605021,
      1.1843151941937202,
      1.1804067422946212,
      1.1799748931751837,
      1.1809505987766646,
      1.1805722837513968,
      1.1796668519907387,
      1.1792695121162948,
      1.178817561844403,
      1.1761470714838822,
      1.1775284195031746,
      1.1787158648761369,
      1.1775702411210276,
      1.1787774974216425,
      1.177359363314874,
      1.1790155221025251,
      1.1846134372463308,
      1.1789119765954859,
      1.1781904676066208,
      1.175895031990594,
      1.1751276530135204,
      1.175999460892328,
      1.176187056174656,
      1.1813495224909243,
      1.1811199185871275,
      1.1766268218370075,
      1.1838999693559693,
      1.1794727751071599,
      1.177328703383493,
      1.1757981607925745,
      1.1784545069357755,
      1.180642571430023,
      1.1754075308779237,
      1.1799403494074001,
      1.1763745692565228,
      1.1799889554023215,
      1.1771290561411498,
      1.174752952851649,
      1.1773706348503294,
      1.173850995995742,
      1.178533288023661,
      1.17759598808973,
      1.1759712937467262,
      1.174676282772756
    ]
  },
  "val": {
    "steps": [
      0,
      1,
      2,
      3,
      4,
      5,
      6,
      7,
      8,
      9,
      10,
      11,
      12,
      13,
      14,
      15,
      16,
      17,
      18,
      19,
      20,
      21,
      22,
      23,
      24,
      25,
      26,
      27,
      28,
      29,
      30,
      31,
      32,
      33,
      34,
      35,
      36,
      37,
      38,
      39,
      40,
      41,
      42,
      43,
      44,
      45,
      46,
      47,
      48,
      49,
      50,
      51,
      52,
      53,
      54,
      55,
      56,
      57,
      58,
      59,
      60,
      61,
      62,
      63,
      64,
      65,
      66,
      67,
      68,
      69,
      70,
      71,
      72,
      73,
      74,
      75,
      76,
      77,
      78,
      79,
      80,
      81,
      82,
      83,
      84,
      85,
      86,
      87,
      88,
      89,
      90,
      91,
      92,
      93,
      94,
      95,
      96,
      97,
      98,
      99,
      100,
      101,
      102,
      103,
      104,
      105,
      106,
      107,
      108,
      109,
      110,
      111,
      112,
      113,
      114,
      115,
      116,
      117,
      118,
      119,
      120,
      121,
      122,
      123,
      124,
      125,
      126,
      127,
      128,
      129,
      130,
      131,
      132,
      133,
      134,
      135,
      136,
      137,
      138,
      139,
      140,
      141,
      142,
      143,
      144,
      145,
      146,
      147,
      148,
      149,
      150,
      151,
      152,
      153,
      154,
      155,
      156,
      157,
      158,
      159,
      160,
      161,
      162,
      163,
      164,
      165,
      166,
      167,
      168,
      169,
      170,
      171,
      172,
      173,
      174,
      175,
      176,
      177,
      178,
      179,
      180,
      181,
      182,
      183,
      184,
      185,
      186,
      187,
      188,
      189,
      190,
      191,
      192,
      193,
      194,
      195,
      196,
      197,
      198,
      199,
      200,
      201,
      202,
      203,
      204,
      205,
      206,
      207,
      208,
      209,
      210,
      211,
      212,
      213,
      214,
      215,
      216,
      217,
      218,
      219,
      220,
      221,
      222,
      223,
      224,
      225,
      226,
      227,
      228,
      229,
      230,
      231,
      232,
      233,
      234,
      235,
      236,
      237,
      238,
      239,
      240,
      241,
      242,
      243,
      244,
      245,
      246,
      247,
      248,
      249,
      250,
      251,
      252,
      253,
      254,
      255,
      256,
      257,
      258,
      259,
      260,
      261,
      262,
      263,
      264,
      265,
      266,
      267,
      268,
      269,
      270,
      271,
      272,
      273,
      274,
      275,
      276,
      277,
      278,
      279,
      280,
      281,
      282,
      283,
      284,
      285,
      286,
      287,
      288,
      289,
      290,
      291,
      292,
      293,
      294,
      295,
      296,
      297,
      298,
      299,
      0,
      1,
      2,
      3,
      4,
      5,
      6,
      7,
      8,
      9,
      10,
      11,
      12,
      13,
      14,
      15,
      16,
      17,
      18,
      19,
      20,
      21,
      22,
      23,
      24,
      25,
      26,
      27,
      28,
      29,
      30,
      31,
      32,
      33,
      34,
      35,
      36,
      37,
      38,
      39,
      40,
      41,
      42,
      43,
      44,
      45,
      46,
      47,
      48,
      49,
      50,
      51,
      52,
      53,
      54,
      55,
      56,
      57,
      58,
      59,
      60,
      61,
      62,
      63,
      64,
      65,
      66,
      67,
      68,
      69,
      70,
      71,
      72,
      73,
      74,
      75,
      76,
      77,
      78,
      79,
      80,
      81,
      82,
      83,
      84,
      85,
      86,
      87,
      88,
      89,
      90,
      91,
      92,
      93,
      94,
      95,
      96,
      97,
      98,
      99
    ],
    "timestamps": [
      "2022-10-01T06:13:17.411681",
      "2022-10-01T06:13:25.094835",
      "2022-10-01T06:13:32.711879",
      "2022-10-01T06:13:40.704014",
      "2022-10-01T06:13:48.245869",
      "2022-10-01T06:13:55.885192",
      "2022-10-01T06:14:03.473698",
      "2022-10-01T06:14:11.138765",
      "2022-10-01T06:14:18.676218",
      "2022-10-01T06:14:26.287189",
      "2022-10-01T06:14:34.170499",
      "2022-10-01T06:14:41.708772",
      "2022-10-01T06:14:49.438572",
      "2022-10-01T06:14:57.009555",
      "2022-10-01T06:15:04.733590",
      "2022-10-01T06:15:12.318952",
      "2022-10-01T06:15:20.015601",
      "2022-10-01T06:15:27.526036",
      "2022-10-01T06:15:35.190025",
      "2022-10-01T06:15:42.832406",
      "2022-10-01T06:15:50.542116",
      "2022-10-01T06:15:58.100611",
      "2022-10-01T06:16:05.833158",
      "2022-10-01T06:16:13.619587",
      "2022-10-01T06:16:21.576488",
      "2022-10-01T06:16:29.389758",
      "2022-10-01T06:16:37.054654",
      "2022-10-01T06:16:44.823097",
      "2022-10-01T06:16:52.577918",
      "2022-10-01T06:17:00.279827",
      "2022-10-01T06:17:07.934725",
      "2022-10-01T06:17:15.597156",
      "2022-10-01T06:17:23.208989",
      "2022-10-01T06:17:30.847412",
      "2022-10-01T06:17:38.399381",
      "2022-10-01T06:17:46.111327",
      "2022-10-01T06:17:53.825043",
      "2022-10-01T06:18:01.455683",
      "2022-10-01T06:18:09.064807",
      "2022-10-01T06:18:16.692522",
      "2022-10-01T06:18:24.361057",
      "2022-10-01T06:18:32.042470",
      "2022-10-01T06:18:39.654809",
      "2022-10-01T06:18:47.224201",
      "2022-10-01T06:18:54.882643",
      "2022-10-01T06:19:02.541591",
      "2022-10-01T06:19:10.171572",
      "2022-10-01T06:19:17.737052",
      "2022-10-01T06:19:25.349465",
      "2022-10-01T06:19:32.980610",
      "2022-10-01T06:19:40.723040",
      "2022-10-01T06:19:48.315063",
      "2022-10-01T06:19:55.900622",
      "2022-10-01T06:20:03.531608",
      "2022-10-01T06:20:11.160067",
      "2022-10-01T06:20:18.812916",
      "2022-10-01T06:20:26.511954",
      "2022-10-01T06:20:34.206197",
      "2022-10-01T06:20:41.877446",
      "2022-10-01T06:20:49.463085",
      "2022-10-01T06:20:57.103611",
      "2022-10-01T06:21:04.731820",
      "2022-10-01T06:21:12.431582",
      "2022-10-01T06:21:20.067309",
      "2022-10-01T06:21:27.653118",
      "2022-10-01T06:21:35.406855",
      "2022-10-01T06:21:43.052136",
      "2022-10-01T06:21:50.688416",
      "2022-10-01T06:21:58.307556",
      "2022-10-01T06:22:05.938076",
      "2022-10-01T06:22:13.750934",
      "2022-10-01T06:22:21.378357",
      "2022-10-01T06:22:28.905292",
      "2022-10-01T06:22:36.481543",
      "2022-10-01T06:22:44.101276",
      "2022-10-01T06:22:51.687623",
      "2022-10-01T06:22:59.319087",
      "2022-10-01T06:23:06.894712",
      "2022-10-01T06:23:14.612125",
      "2022-10-01T06:23:22.198711",
      "2022-10-01T06:23:29.951306",
      "2022-10-01T06:23:37.522995",
      "2022-10-01T06:23:45.191584",
      "2022-10-01T06:23:52.877153",
      "2022-10-01T06:24:00.546565",
      "2022-10-01T06:24:08.101374",
      "2022-10-01T06:24:15.742437",
      "2022-10-01T06:24:23.420934",
      "2022-10-01T06:24:31.111935",
      "2022-10-01T06:24:38.708844",
      "2022-10-01T06:24:46.371249",
      "2022-10-01T06:24:54.045708",
      "2022-10-01T06:25:01.742646",
      "2022-10-01T06:25:09.404737",
      "2022-10-01T06:25:16.978745",
      "2022-10-01T06:25:24.663639",
      "2022-10-01T06:25:32.304936",
      "2022-10-01T06:25:39.920802",
      "2022-10-01T06:25:47.457462",
      "2022-10-01T06:25:55.109568",
      "2022-10-01T06:26:02.880191",
      "2022-10-01T06:26:10.531929",
      "2022-10-01T06:26:18.114090",
      "2022-10-01T06:26:25.813552",
      "2022-10-01T06:26:33.573289",
      "2022-10-01T06:26:41.366547",
      "2022-10-01T06:26:49.020215",
      "2022-10-01T06:26:56.665545",
      "2022-10-01T06:27:04.348803",
      "2022-10-01T06:27:12.067200",
      "2022-10-01T06:27:19.711217",
      "2022-10-01T06:27:27.435483",
      "2022-10-01T06:27:35.141933",
      "2022-10-01T06:27:42.854009",
      "2022-10-01T06:27:50.556000",
      "2022-10-01T06:27:58.186584",
      "2022-10-01T06:28:05.902424",
      "2022-10-01T06:28:13.644606",
      "2022-10-01T06:28:21.359048",
      "2022-10-01T06:28:28.994182",
      "2022-10-01T06:28:36.741937",
      "2022-10-01T06:28:44.483749",
      "2022-10-01T06:28:52.241482",
      "2022-10-01T06:28:59.959454",
      "2022-10-01T06:29:07.598624",
      "2022-10-01T06:29:15.347711",
      "2022-10-01T06:29:23.072237",
      "2022-10-01T06:29:30.879833",
      "2022-10-01T06:29:38.533493",
      "2022-10-01T06:29:46.237573",
      "2022-10-01T06:29:53.957561",
      "2022-10-01T06:30:01.565957",
      "2022-10-01T06:30:09.069002",
      "2022-10-01T06:30:16.645619",
      "2022-10-01T06:30:24.269178",
      "2022-10-01T06:30:31.916557",
      "2022-10-01T06:30:39.496644",
      "2022-10-01T06:30:47.014410",
      "2022-10-01T06:30:54.759272",
      "2022-10-01T06:31:02.505710",
      "2022-10-01T06:31:10.343967",
      "2022-10-01T06:31:17.855151",
      "2022-10-01T06:31:25.452487",
      "2022-10-01T06:31:33.072767",
      "2022-10-01T06:31:40.735415",
      "2022-10-01T06:31:48.232502",
      "2022-10-01T06:31:55.849041",
      "2022-10-01T06:32:03.429680",
      "2022-10-01T06:32:11.066932",
      "2022-10-01T06:32:18.543686",
      "2022-10-01T06:32:26.151435",
      "2022-10-01T06:32:33.786824",
      "2022-10-01T06:32:41.359216",
      "2022-10-01T06:32:48.833125",
      "2022-10-01T06:32:56.404977",
      "2022-10-01T06:33:04.054640",
      "2022-10-01T06:33:11.727548",
      "2022-10-01T06:33:19.389920",
      "2022-10-01T06:33:26.968759",
      "2022-10-01T06:33:34.545699",
      "2022-10-01T06:33:42.479462",
      "2022-10-01T06:33:50.250440",
      "2022-10-01T06:33:57.821617",
      "2022-10-01T06:34:05.523629",
      "2022-10-01T06:34:13.321358",
      "2022-10-01T06:34:20.976263",
      "2022-10-01T06:34:28.516913",
      "2022-10-01T06:34:36.129887",
      "2022-10-01T06:34:43.951214",
      "2022-10-01T06:34:51.574976",
      "2022-10-01T06:34:59.162730",
      "2022-10-01T06:35:06.823796",
      "2022-10-01T06:35:14.419869",
      "2022-10-01T06:35:22.041889",
      "2022-10-01T06:35:29.562444",
      "2022-10-01T06:35:37.218493",
      "2022-10-01T06:35:44.858814",
      "2022-10-01T06:35:52.432897",
      "2022-10-01T06:36:00.233093",
      "2022-10-01T06:36:07.739969",
      "2022-10-01T06:36:15.389984",
      "2022-10-01T06:36:23.057223",
      "2022-10-01T06:36:30.625693",
      "2022-10-01T06:36:38.093236",
      "2022-10-01T06:36:45.669289",
      "2022-10-01T06:36:53.227798",
      "2022-10-01T06:37:00.905858",
      "2022-10-01T06:37:08.414034",
      "2022-10-01T06:37:15.987100",
      "2022-10-01T06:37:23.818493",
      "2022-10-01T06:37:31.651981",
      "2022-10-01T06:37:39.124549",
      "2022-10-01T06:37:46.730307",
      "2022-10-01T06:37:54.405791",
      "2022-10-01T06:38:02.029383",
      "2022-10-01T06:38:09.590897",
      "2022-10-01T06:38:17.086350",
      "2022-10-01T06:38:24.648125",
      "2022-10-01T06:38:32.216507",
      "2022-10-01T06:38:39.758595",
      "2022-10-01T06:38:47.333559",
      "2022-10-01T06:38:54.879200",
      "2022-10-01T06:39:02.555175",
      "2022-10-01T06:39:10.480364",
      "2022-10-01T06:39:18.232471",
      "2022-10-01T06:39:26.187251",
      "2022-10-01T06:39:33.995568",
      "2022-10-01T06:39:41.651218",
      "2022-10-01T06:39:49.407798",
      "2022-10-01T06:39:57.463845",
      "2022-10-01T06:40:05.276633",
      "2022-10-01T06:40:13.068016",
      "2022-10-01T06:40:22.420790",
      "2022-10-01T06:40:30.136807",
      "2022-10-01T06:40:38.549015",
      "2022-10-01T06:40:46.942963",
      "2022-10-01T06:40:55.428512",
      "2022-10-01T06:41:03.670432",
      "2022-10-01T06:41:12.103615",
      "2022-10-01T06:41:20.477646",
      "2022-10-01T06:41:29.219453",
      "2022-10-01T06:41:37.191617",
      "2022-10-01T06:41:44.988338",
      "2022-10-01T06:41:53.566155",
      "2022-10-01T06:42:01.429272",
      "2022-10-01T06:42:09.219625",
      "2022-10-01T06:42:17.009050",
      "2022-10-01T06:42:24.847644",
      "2022-10-01T06:42:32.505667",
      "2022-10-01T06:42:40.151722",
      "2022-10-01T06:42:47.972238",
      "2022-10-01T06:42:55.817202",
      "2022-10-01T06:43:03.576908",
      "2022-10-01T06:43:11.301114",
      "2022-10-01T06:43:19.175888",
      "2022-10-01T06:43:27.198449",
      "2022-10-01T06:43:35.068497",
      "2022-10-01T06:43:42.970151",
      "2022-10-01T06:43:50.733436",
      "2022-10-01T06:43:58.360692",
      "2022-10-01T06:44:06.023584",
      "2022-10-01T06:44:13.734179",
      "2022-10-01T06:44:21.430015",
      "2022-10-01T06:44:29.176071",
      "2022-10-01T06:44:36.852200",
      "2022-10-01T06:44:44.529538",
      "2022-10-01T06:44:52.203105",
      "2022-10-01T06:44:59.914025",
      "2022-10-01T06:45:07.610929",
      "2022-10-01T06:45:15.155705",
      "2022-10-01T06:45:22.845158",
      "2022-10-01T06:45:30.725172",
      "2022-10-01T06:45:38.456770",
      "2022-10-01T06:45:46.418582",
      "2022-10-01T06:45:54.111143",
      "2022-10-01T06:46:01.937596",
      "2022-10-01T06:46:09.721135",
      "2022-10-01T06:46:17.503249",
      "2022-10-01T06:46:25.291195",
      "2022-10-01T06:46:33.328589",
      "2022-10-01T06:46:41.004923",
      "2022-10-01T06:46:48.673173",
      "2022-10-01T06:46:56.271335",
      "2022-10-01T06:47:04.327822",
      "2022-10-01T06:47:12.003183",
      "2022-10-01T06:47:19.660907",
      "2022-10-01T06:47:27.252374",
      "2022-10-01T06:47:35.186385",
      "2022-10-01T06:47:43.009740",
      "2022-10-01T06:47:51.018379",
      "2022-10-01T06:47:58.749733",
      "2022-10-01T06:48:06.638815",
      "2022-10-01T06:48:14.988187",
      "2022-10-01T06:48:24.430270",
      "2022-10-01T06:48:34.337874",
      "2022-10-01T06:48:42.526273",
      "2022-10-01T06:48:50.367342",
      "2022-10-01T06:48:57.980346",
      "2022-10-01T06:49:06.167530",
      "2022-10-01T06:49:14.541090",
      "2022-10-01T06:49:22.646236",
      "2022-10-01T06:49:30.557643",
      "2022-10-01T06:49:39.035357",
      "2022-10-01T06:49:47.048378",
      "2022-10-01T06:49:55.300137",
      "2022-10-01T06:50:03.037102",
      "2022-10-01T06:50:11.142237",
      "2022-10-01T06:50:19.016011",
      "2022-10-01T06:50:26.876226",
      "2022-10-01T06:50:34.571978",
      "2022-10-01T06:50:42.619625",
      "2022-10-01T06:50:50.426248",
      "2022-10-01T06:50:58.914821",
      "2022-10-01T06:51:07.294516",
      "2022-10-01T06:51:15.649863",
      "2022-10-01T06:51:23.404050",
      "2022-10-01T06:51:30.962802",
      "2022-10-01T06:51:38.669396",
      "2022-10-01T06:51:46.468685",
      "2022-10-01T06:51:54.047829",
      "2022-10-01T07:38:41.109887",
      "2022-10-01T07:38:50.209074",
      "2022-10-01T07:38:58.783126",
      "2022-10-01T07:39:07.785195",
      "2022-10-01T07:39:17.301207",
      "2022-10-01T07:39:26.453856",
      "2022-10-01T07:39:36.308230",
      "2022-10-01T07:39:45.158455",
      "2022-10-01T07:39:54.669050",
      "2022-10-01T07:40:04.179486",
      "2022-10-01T07:40:13.633612",
      "2022-10-01T07:40:22.871516",
      "2022-10-01T07:40:32.362136",
      "2022-10-01T07:40:41.221458",
      "2022-10-01T07:40:50.241661",
      "2022-10-01T07:40:59.100392",
      "2022-10-01T07:41:07.884851",
      "2022-10-01T07:41:16.632667",
      "2022-10-01T07:41:25.668229",
      "2022-10-01T07:41:34.502546",
      "2022-10-01T07:41:43.258423",
      "2022-10-01T07:41:51.948766",
      "2022-10-01T07:42:00.852099",
      "2022-10-01T07:42:09.501302",
      "2022-10-01T07:42:18.201376",
      "2022-10-01T07:42:26.990151",
      "2022-10-01T07:42:35.345957",
      "2022-10-01T07:42:43.815650",
      "2022-10-01T07:42:55.608704",
      "2022-10-01T07:43:04.259843",
      "2022-10-01T07:43:13.254040",
      "2022-10-01T07:43:23.039063",
      "2022-10-01T07:43:32.068896",
      "2022-10-01T07:43:42.033897",
      "2022-10-01T07:43:53.455311",
      "2022-10-01T07:44:04.107982",
      "2022-10-01T07:44:12.809840",
      "2022-10-01T07:44:22.503130",
      "2022-10-01T07:44:31.685083",
      "2022-10-01T07:44:40.357894",
      "2022-10-01T07:44:49.019860",
      "2022-10-01T07:44:57.549807",
      "2022-10-01T07:45:06.163138",
      "2022-10-01T07:45:14.617926",
      "2022-10-01T07:45:23.521470",
      "2022-10-01T07:45:32.283965",
      "2022-10-01T07:45:40.904107",
      "2022-10-01T07:45:49.610673",
      "2022-10-01T07:46:00.278154",
      "2022-10-01T07:46:09.160658",
      "2022-10-01T07:46:18.652006",
      "2022-10-01T07:46:27.958359",
      "2022-10-01T07:46:36.912257",
      "2022-10-01T07:46:45.645398",
      "2022-10-01T07:46:54.452571",
      "2022-10-01T07:47:03.208244",
      "2022-10-01T07:47:11.932304",
      "2022-10-01T07:47:20.566985",
      "2022-10-01T07:47:29.215431",
      "2022-10-01T07:47:37.966723",
      "2022-10-01T07:47:46.725819",
      "2022-10-01T07:47:56.434055",
      "2022-10-01T07:48:05.923309",
      "2022-10-01T07:48:14.537947",
      "2022-10-01T07:48:23.304554",
      "2022-10-01T07:48:31.916826",
      "2022-10-01T07:48:40.625550",
      "2022-10-01T07:48:49.547279",
      "2022-10-01T07:48:58.138084",
      "2022-10-01T07:49:06.940270",
      "2022-10-01T07:49:15.785719",
      "2022-10-01T07:49:24.701232",
      "2022-10-01T07:49:33.333541",
      "2022-10-01T07:49:42.018156",
      "2022-10-01T07:49:50.747767",
      "2022-10-01T07:49:59.840950",
      "2022-10-01T07:50:08.654974",
      "2022-10-01T07:50:18.853202",
      "2022-10-01T07:50:27.598276",
      "2022-10-01T07:50:36.416058",
      "2022-10-01T07:50:46.521933",
      "2022-10-01T07:50:55.432337",
      "2022-10-01T07:51:04.246757",
      "2022-10-01T07:51:12.978586",
      "2022-10-01T07:51:21.761804",
      "2022-10-01T07:51:30.455328",
      "2022-10-01T07:51:39.873831",
      "2022-10-01T07:51:48.793971",
      "2022-10-01T07:51:58.296083",
      "2022-10-01T07:52:07.327003",
      "2022-10-01T07:52:16.389085",
      "2022-10-01T07:52:25.866267",
      "2022-10-01T07:52:34.677416",
      "2022-10-01T07:52:43.229191",
      "2022-10-01T07:52:51.843116",
      "2022-10-01T07:53:00.651239",
      "2022-10-01T07:53:09.958378",
      "2022-10-01T07:53:19.861557",
      "2022-10-01T07:53:28.917162",
      "2022-10-01T07:53:38.180592"
    ],
    "values": [
      6.795311505629014,
      5.0966511586885135,
      4.309899776450141,
      3.7697175122662387,
      6.480444094765627,
      4.196562756920681,
      3.2357766430555164,
      5.8146285241937745,
      2.6515972336049556,
      2.9061027771161347,
      2.394916563090128,
      2.3015612931663973,
      3.5617505375096523,
      2.3511065967560576,
      2.129287856448169,
      2.248632144644455,
      3.427344166813786,
      2.0552329121046666,
      2.151953490348424,
      2.367509560756399,
      2.1283913596339405,
      2.3686580229282233,
      2.182215248538554,
      2.1897637033916557,
      1.9851659857570412,
      2.4517313306527435,
      2.0440822211968537,
      2.0712822337496037,
      1.8793307855601484,
      2.440859667257841,
      2.1311078504423686,
      1.8945532801649736,
      1.9389120419351342,
      2.3073937241383273,
      1.8652386708808208,
      2.374641060419383,
      2.082832780632007,
      2.1113597000991873,
      2.0402298012933544,
      2.2500500038180347,
      1.8241176515030595,
      1.786586855976119,
      2.261923823786917,
      1.9753974216182812,
      2.653873212720207,
      1.8949671571548086,
      1.8854513983632273,
      1.711481773949959,
      1.9264661160283045,
      1.8757933120071686,
      1.967698188246211,
      1.7040650928935144,
      1.8480552526918204,
      1.9760802244331015,
      1.6672428696902026,
      1.9293676127717534,
      1.6641583817542547,
      1.7079560379852277,
      1.7427814627790956,
      1.8813422679966434,
      1.7376104789129143,
      1.8160002115896061,
      1.6576032894160706,
      1.7267481049492819,
      1.7363639721031712,
      1.6098126974586016,
      2.3426030948919623,
      1.6336102169387365,
      1.8132829745232815,
      1.8324534006631137,
      2.0858889382131705,
      1.747554974807973,
      2.0524394594370943,
      1.6452006676492974,
      1.737174607363312,
      1.7693255504546548,
      1.933956184269003,
      1.91222744962774,
      1.6424825234538085,
      1.91742848884987,
      1.6714930339024676,
      1.8582029522059869,
      1.7207769560504174,
      1.9325664368653053,
      1.803726894681376,
      1.9965632811110638,
      1.5945109117898062,
      1.7190735217507478,
      1.5477343711958844,
      1.6994443152785126,
      1.9365387427890672,
      1.5508476131121385,
      1.8061133515149754,
      1.7975121829257201,
      1.6038625200856012,
      1.805976668240654,
      2.069111799828583,
      1.6402496332052638,
      1.7257589121407195,
      1.6721958734041886,
      1.5512044698073368,
      1.725933876432397,
      1.502246797601764,
      1.7921395981905937,
      1.6203299054901839,
      2.8240018038474837,
      1.860287622005825,
      1.566331477985453,
      2.1098190833786363,
      1.6072629682482409,
      1.7781027662181628,
      1.666992749916136,
      1.6825934074730413,
      2.1537253326255112,
      1.6021570912756606,
      1.7222307647017656,
      1.7326865256757262,
      1.552966508464332,
      1.581915833971172,
      1.5813189160058607,
      1.7048946260630509,
      1.4182036758862173,
      1.3998499908073927,
      1.3955266290693589,
      1.3786431591774972,
      1.3824211216525009,
      1.3944458645762747,
      1.3908008432174341,
      1.3788599187618993,
      1.377143855242914,
      1.371578770448909,
      1.3672103367856712,
      1.3676119310950845,
      1.3772349724553519,
      1.38518839446127,
      1.360541369571034,
      1.3752718718863612,
      1.3559737821679811,
      1.356566642553993,
      1.4206660904602213,
      1.3925381640099372,
      1.3553347876923212,
      1.3534620163700848,
      1.3954421762121416,
      1.3479798557801559,
      1.4129626130074373,
      1.4415784824413986,
      1.359434651028148,
      1.4158022494433218,
      1.3882946755699483,
      1.3488377354112309,
      1.3579832298442167,
      1.3446387689809145,
      1.3728667681222344,
      1.3518135019681108,
      1.339985631740387,
      1.3461045831542204,
      1.43599702243572,
      1.3697522968879512,
      1.3734249925465616,
      1.3462259423929643,
      1.3297038063353066,
      1.3662829449874412,
      1.31181053550699,
      1.3575319265642778,
      1.3633485975836468,
      1.3205373002485294,
      1.3520578904035798,
      1.3497809221284982,
      1.3282767454837603,
      1.3584120168978635,
      1.337798599448734,
      1.3320487186453533,
      1.34652088615602,
      1.4269354830604335,
      1.3362696774293823,
      1.3699540828177703,
      1.3870239398439426,
      1.3620101938068547,
      1.3299772496871711,
      1.3066767410057512,
      1.393701647786743,
      1.3390671342619127,
      1.324476775783645,
      1.3295939139388608,
      1.3240503227433187,
      1.3172985559868868,
      1.3289914551123942,
      1.3199673602868518,
      1.344494559118043,
      1.3473316185585935,
      1.3104965263337314,
      1.3737488902040962,
      1.3251014941222528,
      1.3426971580894747,
      1.3397678896169691,
      1.3119357731826495,
      1.321836701655222,
      1.35553790375264,
      1.3501550044032555,
      1.3117673906828657,
      1.3565627805299476,
      1.3598026035391237,
      1.3122392880052594,
      1.3139352333399232,
      1.303738251508756,
      1.3498354778875885,
      1.396596815286275,
      1.3145740063866003,
      1.3267670481689708,
      1.3053952531701671,
      1.313155699807727,
      1.2882275480675913,
      1.2956171908091523,
      1.304184343786381,
      1.3085191008818615,
      1.3231143636125156,
      1.3471568255501936,
      1.3149017145600308,
      1.3297811579927075,
      1.3229419899967383,
      1.311388912853535,
      1.3030057639221626,
      1.4463701744832422,
      1.3113806634259426,
      1.3009009083378322,
      1.2909273866780884,
      1.3040988331974923,
      1.2917078934955386,
      1.3148714687686962,
      1.3325523379734807,
      1.3671298146380395,
      1.3702510282989522,
      1.3006564119538815,
      1.3138065768707705,
      1.2701832753741789,
      1.268193801090971,
      1.2714561561263151,
      1.2678090116665661,
      1.271833947007544,
      1.2726726622863753,
      1.2744123753593128,
      1.26858621423507,
      1.2723454614242526,
      1.266835977325216,
      1.272894410817227,
      1.2687733945535353,
      1.2715085660479373,
      1.2720268823675658,
      1.2712754575227434,
      1.2696419112269839,
      1.269186952823563,
      1.2719770843176788,
      1.2705192016158307,
      1.2664419056094165,
      1.2692317335724832,
      1.2672605021874406,
      1.27265949640148,
      1.2688957754187402,
      1.2725371308201996,
      1.267384051335446,
      1.2679884993669943,
      1.2653123033590032,
      1.2736133722973675,
      1.2669685570317648,
      1.2797046087756312,
      1.2728092696577382,
      1.2641194936784903,
      1.2687209380246143,
      1.2743368053937403,
      1.2662408670278607,
      1.266169879903697,
      1.2698594916960197,
      1.2640315001255535,
      1.2665936393367032,
      1.265047588689818,
      1.2656696010978659,
      1.2656012404688712,
      1.2669820761591377,
      1.2667717506796599,
      1.2623257743958929,
      1.274731383696101,
      1.2721770399508983,
      1.2650696863385675,
      1.268095465018998,
      1.2702571479674953,
      1.2679216776835969,
      1.2672129221134745,
      1.285094509720007,
      1.2678489203137797,
      1.2667313958479918,
      1.2653128345843703,
      1.2683597383483047,
      1.2704893453147705,
      1.263284415224939,
      1.2757913002142758,
      1.2768682489049048,
      1.2709531626638912,
      1.2730849304244702,
      1.272757467434746,
      1.2698218686822702,
      1.2666482562160517,
      1.2660505950275673,
      1.2696764788705543,
      1.2644499676887206,
      1.2646943432861206,
      1.280955929905615,
      1.262674065808548,
      1.2675032099399737,
      1.2650770070595743,
      1.2647880546950596,
      1.2632588405556218,
      1.2601767674987159,
      1.2835317300796416,
      1.2636664918091303,
      1.2627438781278126,
      1.2727121330719904,
      1.264422686747136,
      1.280655968156989,
      1.2620213592413871,
      1.2718836923041072,
      1.2637563876262567,
      1.2733901491469906,
      1.2633335438210134,
      1.260098987803463,
      1.265404391697279,
      1.2691233621452152,
      1.2663547791107976,
      1.2664665191062774,
      1.2648102957949598,
      1.2643665669566202,
      1.2636184147488252,
      1.2678112668390837,
      1.2587131459431966,
      1.259686351287475,
      1.2740097796888927,
      1.2643814544673844,
      1.2607791799725707,
      1.258758443044237,
      1.2612783244616452,
      1.263128923721755,
      1.2635803674227313,
      1.26566894301693,
      1.2606562139561135,
      1.2639715400240872,
      1.2662446293271605,
      1.2624487719174344,
      1.2683115732044437,
      1.2625334084858566,
      1.263900510025957,
      1.2618130012030573,
      1.2709328956210366,
      1.2628527892997727,
      1.2586491897855385,
      1.2670001525939247,
      1.2594766049520012,
      1.268196824285647,
      1.2767220939902513,
      1.2630618371409703,
      1.263661954993023,
      1.2727607499219102,
      1.2824384358385037,
      1.2594040045084334,
      1.2608532298063633,
      1.2671354824910532,
      1.2587818971361557,
      1.2584020920979122,
      1.2625682334278787,
      1.2681256627424573,
      1.2609335325334752,
      1.2589685022822803,
      1.2639180343548153,
      1.2609024503873087,
      1.25656272724243,
      1.2661401779297856,
      1.2604797690846177,
      1.2594568011316283,
      1.2589880817772223,
      1.2569160874142695,
      1.2599170503939916,
      1.262678878211981,
      1.2569863147583795,
      1.2652424596993084,
      1.264435300466216,
      1.260433568685963,
      1.256412264199163,
      1.2559617910957153,
      1.2604708759182945,
      1.257075191749436,
      1.2674015468505468,
      1.262840663520828,
      1.2672827913372662,
      1.2556381780828043,
      1.2757353778891234,
      1.2687398256662266,
      1.2647291654512876,
      1.2602110027259448,
      1.2626632176181516,
      1.2612041322552259,
      1.2617328510106303
    ]
  }
}