{
  "test": {
    "steps": [
      0
    ],
    "timestamps": [
      "2022-08-30T12:36:22.973999"
    ],
    "values": [
      4.183194281245766
    ]
  },
  "train": {
    "steps": [
      0,
      1,
      2,
      3,
      4,
      5,
      6,
      7,
      8,
      9,
      10,
      11,
      12,
      13,
      14,
      15,
      16,
      17,
      18,
      19,
      20,
      21,
      22,
      23,
      24,
      25,
      26,
      27,
      28,
      29,
      30,
      31,
      32,
      33,
      34,
      35,
      36,
      37,
      38,
      39,
      40,
      41,
      42,
      43,
      44,
      45,
      46,
      47,
      48,
      49,
      50,
      51,
      52,
      53,
      54,
      55,
      56,
      57,
      58,
      59,
      60,
      61,
      62,
      63,
      64,
      65,
      66,
      67,
      68,
      69,
      70,
      71,
      72,
      73,
      74,
      75,
      76,
      77,
      78,
      79,
      80,
      81,
      82,
      83,
      84,
      85,
      86,
      87,
      88,
      89,
      90,
      91,
      92,
      93,
      94,
      95,
      96,
      97,
      98,
      99,
      100,
      101,
      102,
      103,
      104,
      105,
      106,
      107,
      108,
      109,
      110,
      111,
      112,
      113,
      114,
      115,
      116,
      117,
      118,
      119,
      120,
      121,
      122,
      123,
      124,
      125,
      126,
      127,
      128,
      129,
      130,
      131,
      132,
      133,
      134,
      135,
      136,
      137,
      138,
      139,
      140,
      141,
      142,
      143,
      144,
      145,
      146,
      147,
      148,
      149,
      150,
      151,
      152,
      153,
      154,
      155,
      156,
      157,
      158,
      159,
      160,
      161,
      162,
      163,
      164,
      165,
      166,
      167,
      168,
      169,
      170,
      171,
      172,
      173,
      174,
      175,
      176,
      177,
      178,
      179,
      180,
      181,
      182,
      183,
      184,
      185,
      186,
      187,
      188,
      189,
      190,
      191,
      192,
      193,
      194,
      195,
      196,
      197,
      198,
      199,
      200,
      201,
      202,
      203,
      204,
      205,
      206,
      207,
      208,
      209,
      210,
      211,
      212,
      213,
      214,
      215,
      216,
      217,
      218,
      219,
      220,
      221,
      222,
      223,
      224,
      225,
      226,
      227,
      228,
      229,
      230,
      231,
      232,
      233,
      234,
      235,
      236,
      237,
      238,
      239,
      240,
      241,
      242,
      243,
      244,
      245,
      246,
      247,
      248,
      249,
      250,
      251,
      252,
      253,
      254,
      255,
      256,
      257,
      258,
      259,
      260,
      261,
      262,
      263,
      264,
      265,
      266,
      267,
      268,
      269,
      270,
      271,
      272,
      273,
      274,
      275,
      276,
      277,
      278,
      279,
      280,
      281,
      282,
      283,
      284,
      285,
      286,
      287,
      288,
      289,
      290,
      291,
      292,
      293,
      294,
      295,
      296,
      297,
      298,
      299,
      300,
      301,
      302,
      303,
      304,
      305,
      306,
      307,
      308,
      309,
      310,
      311,
      312,
      313,
      314,
      315,
      316,
      317,
      318,
      319,
      320,
      321,
      322,
      323,
      324,
      325,
      326,
      327,
      328,
      329,
      330,
      331,
      332,
      333,
      334,
      335,
      336,
      337,
      338,
      339,
      340,
      341,
      342,
      343,
      344,
      345,
      346,
      347,
      348,
      349,
      350,
      351,
      352,
      353,
      354,
      355,
      356,
      357,
      358,
      359,
      360,
      361,
      362,
      363,
      364,
      365,
      366,
      367,
      368,
      369,
      370,
      371,
      372,
      373,
      374,
      375,
      376,
      377,
      378,
      379,
      380,
      381,
      382,
      383,
      384,
      385,
      386,
      387,
      388,
      389,
      390,
      391,
      392,
      393,
      394,
      395,
      396,
      397,
      398,
      399
    ],
    "timestamps": [
      "2022-08-30T12:16:28.193677",
      "2022-08-30T12:16:31.662404",
      "2022-08-30T12:16:34.533677",
      "2022-08-30T12:16:37.371436",
      "2022-08-30T12:16:40.167400",
      "2022-08-30T12:16:43.039400",
      "2022-08-30T12:16:45.872228",
      "2022-08-30T12:16:48.749931",
      "2022-08-30T12:16:52.000777",
      "2022-08-30T12:16:55.070711",
      "2022-08-30T12:16:58.129498",
      "2022-08-30T12:17:01.076880",
      "2022-08-30T12:17:04.099881",
      "2022-08-30T12:17:07.240543",
      "2022-08-30T12:17:10.075827",
      "2022-08-30T12:17:12.890696",
      "2022-08-30T12:17:16.022409",
      "2022-08-30T12:17:18.853418",
      "2022-08-30T12:17:21.842900",
      "2022-08-30T12:17:24.791140",
      "2022-08-30T12:17:27.730675",
      "2022-08-30T12:17:30.633006",
      "2022-08-30T12:17:33.526457",
      "2022-08-30T12:17:36.414865",
      "2022-08-30T12:17:39.528424",
      "2022-08-30T12:17:42.434489",
      "2022-08-30T12:17:45.359251",
      "2022-08-30T12:17:48.247912",
      "2022-08-30T12:17:51.164477",
      "2022-08-30T12:17:54.029529",
      "2022-08-30T12:17:56.918260",
      "2022-08-30T12:17:59.796786",
      "2022-08-30T12:18:02.686083",
      "2022-08-30T12:18:05.567990",
      "2022-08-30T12:18:08.430458",
      "2022-08-30T12:18:11.316743",
      "2022-08-30T12:18:14.197322",
      "2022-08-30T12:18:17.074667",
      "2022-08-30T12:18:19.946675",
      "2022-08-30T12:18:22.832890",
      "2022-08-30T12:18:25.701480",
      "2022-08-30T12:18:28.534942",
      "2022-08-30T12:18:31.466181",
      "2022-08-30T12:18:34.308264",
      "2022-08-30T12:18:37.267359",
      "2022-08-30T12:18:40.338019",
      "2022-08-30T12:18:43.550780",
      "2022-08-30T12:18:46.647688",
      "2022-08-30T12:18:49.526110",
      "2022-08-30T12:18:52.727510",
      "2022-08-30T12:18:56.681733",
      "2022-08-30T12:18:59.988907",
      "2022-08-30T12:19:03.408719",
      "2022-08-30T12:19:06.624404",
      "2022-08-30T12:19:10.561122",
      "2022-08-30T12:19:13.728745",
      "2022-08-30T12:19:16.929372",
      "2022-08-30T12:19:19.888613",
      "2022-08-30T12:19:22.828649",
      "2022-08-30T12:19:25.739873",
      "2022-08-30T12:19:28.609521",
      "2022-08-30T12:19:31.596894",
      "2022-08-30T12:19:34.923721",
      "2022-08-30T12:19:38.047773",
      "2022-08-30T12:19:40.911872",
      "2022-08-30T12:19:43.787270",
      "2022-08-30T12:19:46.642004",
      "2022-08-30T12:19:49.631087",
      "2022-08-30T12:19:52.489671",
      "2022-08-30T12:19:55.347491",
      "2022-08-30T12:19:58.251703",
      "2022-08-30T12:20:01.249515",
      "2022-08-30T12:20:04.122474",
      "2022-08-30T12:20:06.970428",
      "2022-08-30T12:20:09.834995",
      "2022-08-30T12:20:12.728834",
      "2022-08-30T12:20:15.618087",
      "2022-08-30T12:20:18.470835",
      "2022-08-30T12:20:21.335576",
      "2022-08-30T12:20:24.473182",
      "2022-08-30T12:20:27.468546",
      "2022-08-30T12:20:30.571668",
      "2022-08-30T12:20:33.397017",
      "2022-08-30T12:20:36.932661",
      "2022-08-30T12:20:39.817154",
      "2022-08-30T12:20:42.678471",
      "2022-08-30T12:20:45.570673",
      "2022-08-30T12:20:48.417592",
      "2022-08-30T12:20:51.294952",
      "2022-08-30T12:20:54.145768",
      "2022-08-30T12:20:56.986486",
      "2022-08-30T12:20:59.832171",
      "2022-08-30T12:21:03.000933",
      "2022-08-30T12:21:06.000735",
      "2022-08-30T12:21:09.419326",
      "2022-08-30T12:21:12.913062",
      "2022-08-30T12:21:16.722546",
      "2022-08-30T12:21:25.303344",
      "2022-08-30T12:21:30.299280",
      "2022-08-30T12:21:33.251342",
      "2022-08-30T12:21:36.417002",
      "2022-08-30T12:21:39.426945",
      "2022-08-30T12:21:42.434370",
      "2022-08-30T12:21:45.617803",
      "2022-08-30T12:21:48.666010",
      "2022-08-30T12:21:51.539164",
      "2022-08-30T12:21:54.460032",
      "2022-08-30T12:21:57.621103",
      "2022-08-30T12:22:00.643921",
      "2022-08-30T12:22:03.583286",
      "2022-08-30T12:22:06.521734",
      "2022-08-30T12:22:09.445149",
      "2022-08-30T12:22:12.496155",
      "2022-08-30T12:22:15.425796",
      "2022-08-30T12:22:18.313182",
      "2022-08-30T12:22:21.197635",
      "2022-08-30T12:22:24.238249",
      "2022-08-30T12:22:27.210910",
      "2022-08-30T12:22:30.173157",
      "2022-08-30T12:22:33.009064",
      "2022-08-30T12:22:35.982554",
      "2022-08-30T12:22:38.957151",
      "2022-08-30T12:22:41.807499",
      "2022-08-30T12:22:44.638339",
      "2022-08-30T12:22:47.520234",
      "2022-08-30T12:22:50.469516",
      "2022-08-30T12:22:53.289616",
      "2022-08-30T12:22:56.215988",
      "2022-08-30T12:22:59.262431",
      "2022-08-30T12:23:02.156793",
      "2022-08-30T12:23:05.017293",
      "2022-08-30T12:23:08.072037",
      "2022-08-30T12:23:10.965199",
      "2022-08-30T12:23:15.339576",
      "2022-08-30T12:23:19.323227",
      "2022-08-30T12:23:22.806148",
      "2022-08-30T12:23:26.422557",
      "2022-08-30T12:23:30.024247",
      "2022-08-30T12:23:33.830887",
      "2022-08-30T12:23:37.108855",
      "2022-08-30T12:23:40.326930",
      "2022-08-30T12:23:43.483672",
      "2022-08-30T12:23:46.514412",
      "2022-08-30T12:23:49.626146",
      "2022-08-30T12:23:52.590529",
      "2022-08-30T12:23:55.535167",
      "2022-08-30T12:23:58.602331",
      "2022-08-30T12:24:01.626214",
      "2022-08-30T12:24:04.638183",
      "2022-08-30T12:24:07.968688",
      "2022-08-30T12:24:10.958265",
      "2022-08-30T12:24:13.911824",
      "2022-08-30T12:24:16.981783",
      "2022-08-30T12:24:19.963168",
      "2022-08-30T12:24:22.926259",
      "2022-08-30T12:24:26.144712",
      "2022-08-30T12:24:28.980682",
      "2022-08-30T12:24:31.884816",
      "2022-08-30T12:24:35.006650",
      "2022-08-30T12:24:38.141346",
      "2022-08-30T12:24:41.250937",
      "2022-08-30T12:24:44.142698",
      "2022-08-30T12:24:47.127463",
      "2022-08-30T12:24:49.981844",
      "2022-08-30T12:24:52.808170",
      "2022-08-30T12:24:55.850299",
      "2022-08-30T12:24:58.901256",
      "2022-08-30T12:25:01.789392",
      "2022-08-30T12:25:04.693365",
      "2022-08-30T12:25:07.819940",
      "2022-08-30T12:25:10.715873",
      "2022-08-30T12:25:13.657354",
      "2022-08-30T12:25:16.702931",
      "2022-08-30T12:25:19.555491",
      "2022-08-30T12:25:22.412828",
      "2022-08-30T12:25:25.296741",
      "2022-08-30T12:25:28.300267",
      "2022-08-30T12:25:31.131039",
      "2022-08-30T12:25:33.948545",
      "2022-08-30T12:25:37.021232",
      "2022-08-30T12:25:39.868258",
      "2022-08-30T12:25:42.855965",
      "2022-08-30T12:25:45.770004",
      "2022-08-30T12:25:48.715608",
      "2022-08-30T12:25:51.673111",
      "2022-08-30T12:25:54.540655",
      "2022-08-30T12:25:57.687516",
      "2022-08-30T12:26:00.510511",
      "2022-08-30T12:26:03.325244",
      "2022-08-30T12:26:06.399591",
      "2022-08-30T12:26:09.295068",
      "2022-08-30T12:26:12.860521",
      "2022-08-30T12:26:15.777963",
      "2022-08-30T12:26:18.669955",
      "2022-08-30T12:26:21.468694",
      "2022-08-30T12:26:24.290921",
      "2022-08-30T12:26:27.385119",
      "2022-08-30T12:26:30.232436",
      "2022-08-30T12:26:33.045495",
      "2022-08-30T12:26:36.162771",
      "2022-08-30T12:26:39.066587",
      "2022-08-30T12:26:42.074132",
      "2022-08-30T12:26:44.955300",
      "2022-08-30T12:26:48.047058",
      "2022-08-30T12:26:50.885760",
      "2022-08-30T12:26:53.721929",
      "2022-08-30T12:26:56.735012",
      "2022-08-30T12:26:59.565373",
      "2022-08-30T12:27:02.412863",
      "2022-08-30T12:27:05.313179",
      "2022-08-30T12:27:08.362975",
      "2022-08-30T12:27:11.811612",
      "2022-08-30T12:27:14.675226",
      "2022-08-30T12:27:17.656211",
      "2022-08-30T12:27:20.498753",
      "2022-08-30T12:27:23.327264",
      "2022-08-30T12:27:26.390160",
      "2022-08-30T12:27:29.233724",
      "2022-08-30T12:27:32.060480",
      "2022-08-30T12:27:35.012500",
      "2022-08-30T12:27:37.988856",
      "2022-08-30T12:27:40.971811",
      "2022-08-30T12:27:43.910933",
      "2022-08-30T12:27:46.964571",
      "2022-08-30T12:27:49.827994",
      "2022-08-30T12:27:52.681760",
      "2022-08-30T12:27:55.624217",
      "2022-08-30T12:27:58.564063",
      "2022-08-30T12:28:01.372457",
      "2022-08-30T12:28:04.206258",
      "2022-08-30T12:28:07.715758",
      "2022-08-30T12:28:10.551040",
      "2022-08-30T12:28:13.369933",
      "2022-08-30T12:28:16.842372",
      "2022-08-30T12:28:19.655664",
      "2022-08-30T12:28:22.452692",
      "2022-08-30T12:28:25.345094",
      "2022-08-30T12:28:28.366942",
      "2022-08-30T12:28:31.210746",
      "2022-08-30T12:28:34.026897",
      "2022-08-30T12:28:37.041204",
      "2022-08-30T12:28:39.895100",
      "2022-08-30T12:28:42.694795",
      "2022-08-30T12:28:45.574511",
      "2022-08-30T12:28:48.476530",
      "2022-08-30T12:28:51.293873",
      "2022-08-30T12:28:54.108101",
      "2022-08-30T12:28:57.100238",
      "2022-08-30T12:28:59.921030",
      "2022-08-30T12:29:02.732678",
      "2022-08-30T12:29:05.622453",
      "2022-08-30T12:29:08.529605",
      "2022-08-30T12:29:11.355255",
      "2022-08-30T12:29:14.182279",
      "2022-08-30T12:29:17.189675",
      "2022-08-30T12:29:20.018887",
      "2022-08-30T12:29:22.823818",
      "2022-08-30T12:29:25.832062",
      "2022-08-30T12:29:28.796516",
      "2022-08-30T12:29:31.590877",
      "2022-08-30T12:29:34.883902",
      "2022-08-30T12:29:37.709611",
      "2022-08-30T12:29:40.828155",
      "2022-08-30T12:29:43.916151",
      "2022-08-30T12:29:46.959723",
      "2022-08-30T12:29:49.875507",
      "2022-08-30T12:29:52.680299",
      "2022-08-30T12:29:55.649536",
      "2022-08-30T12:29:58.601776",
      "2022-08-30T12:30:01.419311",
      "2022-08-30T12:30:04.683474",
      "2022-08-30T12:30:07.513825",
      "2022-08-30T12:30:10.523476",
      "2022-08-30T12:30:13.363929",
      "2022-08-30T12:30:16.387854",
      "2022-08-30T12:30:19.262404",
      "2022-08-30T12:30:22.163845",
      "2022-08-30T12:30:25.020680",
      "2022-08-30T12:30:27.964717",
      "2022-08-30T12:30:30.872236",
      "2022-08-30T12:30:33.904000",
      "2022-08-30T12:30:36.720692",
      "2022-08-30T12:30:39.779684",
      "2022-08-30T12:30:42.610395",
      "2022-08-30T12:30:45.539883",
      "2022-08-30T12:30:48.477188",
      "2022-08-30T12:30:51.343857",
      "2022-08-30T12:30:54.297221",
      "2022-08-30T12:30:57.253048",
      "2022-08-30T12:31:00.092060",
      "2022-08-30T12:31:03.130479",
      "2022-08-30T12:31:05.962448",
      "2022-08-30T12:31:09.396530",
      "2022-08-30T12:31:12.202368",
      "2022-08-30T12:31:15.043295",
      "2022-08-30T12:31:17.971766",
      "2022-08-30T12:31:20.777608",
      "2022-08-30T12:31:23.580715",
      "2022-08-30T12:31:26.759528",
      "2022-08-30T12:31:29.597485",
      "2022-08-30T12:31:32.557455",
      "2022-08-30T12:31:35.447762",
      "2022-08-30T12:31:38.437288",
      "2022-08-30T12:31:41.252780",
      "2022-08-30T12:31:44.067823",
      "2022-08-30T12:31:47.080291",
      "2022-08-30T12:31:49.930880",
      "2022-08-30T12:31:52.735162",
      "2022-08-30T12:31:55.644823",
      "2022-08-30T12:31:58.544602",
      "2022-08-30T12:32:01.499885",
      "2022-08-30T12:32:04.331348",
      "2022-08-30T12:32:07.339823",
      "2022-08-30T12:32:10.169624",
      "2022-08-30T12:32:12.975704",
      "2022-08-30T12:32:15.885655",
      "2022-08-30T12:32:18.786640",
      "2022-08-30T12:32:21.604083",
      "2022-08-30T12:32:24.437043",
      "2022-08-30T12:32:27.437262",
      "2022-08-30T12:32:30.277667",
      "2022-08-30T12:32:33.229068",
      "2022-08-30T12:32:36.161661",
      "2022-08-30T12:32:39.099777",
      "2022-08-30T12:32:41.950208",
      "2022-08-30T12:32:44.813970",
      "2022-08-30T12:32:47.826112",
      "2022-08-30T12:32:50.692220",
      "2022-08-30T12:32:53.544883",
      "2022-08-30T12:32:56.591597",
      "2022-08-30T12:32:59.469565",
      "2022-08-30T12:33:02.500186",
      "2022-08-30T12:33:05.370370",
      "2022-08-30T12:33:08.377782",
      "2022-08-30T12:33:11.229902",
      "2022-08-30T12:33:14.096560",
      "2022-08-30T12:33:17.131970",
      "2022-08-30T12:33:19.991960",
      "2022-08-30T12:33:22.853997",
      "2022-08-30T12:33:26.180865",
      "2022-08-30T12:33:29.256494",
      "2022-08-30T12:33:32.722213",
      "2022-08-30T12:33:35.621500",
      "2022-08-30T12:33:38.870122",
      "2022-08-30T12:33:41.705753",
      "2022-08-30T12:33:44.564877",
      "2022-08-30T12:33:47.555968",
      "2022-08-30T12:33:50.389506",
      "2022-08-30T12:33:53.257017",
      "2022-08-30T12:33:56.367883",
      "2022-08-30T12:33:59.196137",
      "2022-08-30T12:34:02.307886",
      "2022-08-30T12:34:05.120352",
      "2022-08-30T12:34:08.093248",
      "2022-08-30T12:34:10.968379",
      "2022-08-30T12:34:13.776900",
      "2022-08-30T12:34:16.770593",
      "2022-08-30T12:34:19.585407",
      "2022-08-30T12:34:22.477578",
      "2022-08-30T12:34:25.432676",
      "2022-08-30T12:34:28.432787",
      "2022-08-30T12:34:31.390227",
      "2022-08-30T12:34:34.305423",
      "2022-08-30T12:34:37.317804",
      "2022-08-30T12:34:40.173547",
      "2022-08-30T12:34:43.030822",
      "2022-08-30T12:34:45.977051",
      "2022-08-30T12:34:48.906010",
      "2022-08-30T12:34:51.782579",
      "2022-08-30T12:34:54.660250",
      "2022-08-30T12:34:58.190892",
      "2022-08-30T12:35:01.002860",
      "2022-08-30T12:35:03.819919",
      "2022-08-30T12:35:06.795031",
      "2022-08-30T12:35:09.682231",
      "2022-08-30T12:35:12.504834",
      "2022-08-30T12:35:15.423558",
      "2022-08-30T12:35:18.392016",
      "2022-08-30T12:35:21.206297",
      "2022-08-30T12:35:24.035121",
      "2022-08-30T12:35:27.555475",
      "2022-08-30T12:35:30.413330",
      "2022-08-30T12:35:33.218946",
      "2022-08-30T12:35:36.161675",
      "2022-08-30T12:35:39.031462",
      "2022-08-30T12:35:41.834225",
      "2022-08-30T12:35:44.662755",
      "2022-08-30T12:35:47.674604",
      "2022-08-30T12:35:50.482337",
      "2022-08-30T12:35:53.298137",
      "2022-08-30T12:35:56.271346",
      "2022-08-30T12:35:59.150271",
      "2022-08-30T12:36:01.978201",
      "2022-08-30T12:36:04.816055",
      "2022-08-30T12:36:07.810308",
      "2022-08-30T12:36:10.655307",
      "2022-08-30T12:36:13.469468",
      "2022-08-30T12:36:16.571220",
      "2022-08-30T12:36:19.399425",
      "2022-08-30T12:36:22.217166"
    ],
    "values": [
      739.5901195944799,
      34.21149886157211,
      17.99423144246042,
      14.902129635012693,
      14.452071903610994,
      13.247333761482015,
      16.763234631886544,
      11.620702928940013,
      13.573265649306423,
      11.911780878121291,
      10.383656795285082,
      10.55913099006126,
      12.798794129186513,
      11.297869608885987,
      10.554223926998887,
      11.795184242766155,
      10.307592582123727,
      8.96341595984881,
      9.024926900664745,
      9.016657833291474,
      8.868765582995591,
      11.83325989625714,
      14.491546007651861,
      8.303269133815643,
      8.081141105293563,
      8.897744578152942,
      10.591895370182986,
      11.393457098247588,
      7.969511283911723,
      8.011866415608846,
      7.333581434959611,
      9.030549966857444,
      8.257412556746837,
      9.112078584681939,
      7.341037949752394,
      7.491337695273253,
      7.879334004466745,
      8.322507778171845,
      7.4779233888021075,
      7.884824933663192,
      7.767231914235574,
      6.8699999222067705,
      6.827086171412459,
      7.6144715859762515,
      10.350931458669077,
      7.772199790196681,
      7.404310933647329,
      8.085540549188043,
      7.486076013291348,
      7.455776835914564,
      7.053242677307822,
      8.245774625798676,
      8.988702197739604,
      7.300607226911728,
      12.275335455617064,
      6.732811949242019,
      7.261140576524676,
      6.29757121844229,
      6.6519988736027535,
      6.544609000728409,
      6.690701799902708,
      6.2316819546070565,
      7.55134841551384,
      6.437669065499133,
      8.252488698833272,
      5.802009748811721,
      5.71886925575127,
      6.518041059310868,
      5.8175349664107925,
      5.725759206055622,
      6.26234807427085,
      6.050015188212826,
      7.421025343332361,
      7.01165762235123,
      6.899810217337003,
      6.665401145103305,
      5.661877209375775,
      6.291735496094739,
      5.9965914785325705,
      5.551137924756941,
      5.872052179288554,
      6.422552629537477,
      5.777624189512587,
      6.636929397793843,
      5.545980900694612,
      6.270905860795639,
      10.698655349884996,
      6.882657659516845,
      7.237743045215247,
      5.819005606216507,
      5.314337602560462,
      5.60661380426593,
      5.5573067581998625,
      5.175929589220204,
      5.758432215277569,
      5.417924504054106,
      5.878062894546489,
      6.422671569371479,
      5.163903252647585,
      5.359272682889134,
      9.056048325937128,
      6.048925619845309,
      5.980016028559223,
      5.322322055957447,
      6.190907593783569,
      5.271677702281114,
      5.364805128614109,
      5.212003250503642,
      5.389302596341424,
      6.32011363142454,
      5.446566878527563,
      5.366786166633522,
      5.24174734448615,
      5.0246211307216795,
      5.510493088112021,
      5.583132593388373,
      6.0285110822190155,
      6.249505023628879,
      5.183716516882011,
      6.1331361780686855,
      7.313689001105204,
      5.491925326650699,
      4.939834417679885,
      4.891508042880205,
      5.421871481006407,
      5.62528947768769,
      5.312740149904939,
      5.276701942997254,
      5.007202614007938,
      5.293393865427732,
      5.033505085050965,
      5.250079685547526,
      4.959964156002554,
      5.152691681048912,
      5.6274469371268925,
      5.812445349258204,
      5.287775508427025,
      5.24723766926248,
      5.544437227173522,
      4.893125450626749,
      5.463508095336084,
      5.136399270653998,
      5.111292246509728,
      5.460831372249102,
      4.9563396007992955,
      4.572897865714214,
      4.391527520135537,
      4.39685415594412,
      4.425186567588583,
      4.413064472754624,
      4.425632458199527,
      4.411724958306538,
      4.402584699486883,
      4.427738960788739,
      4.396159135521877,
      4.402424555224858,
      4.438512754378434,
      4.421563954858796,
      4.40132136094169,
      4.422829424060553,
      4.414906542485712,
      4.3939732124104856,
      4.414276702397356,
      4.396314237232439,
      4.403312519906427,
      4.418266230708861,
      4.448201617557236,
      4.3826011273131025,
      4.419402166403375,
      4.427028086365186,
      4.416407961101419,
      4.4040696881612345,
      4.428730927717399,
      4.412015442940621,
      4.4148434116179756,
      4.429370967580613,
      4.404524652721718,
      4.433153459626761,
      4.441509312187186,
      4.418425164212289,
      4.420646550785795,
      4.409827598678415,
      4.3940068751521,
      4.403571038535109,
      4.402609670076049,
      4.404731584797998,
      4.442749317422935,
      4.367633979247934,
      4.388904632459309,
      4.397786721682277,
      4.35339295402765,
      4.38503423451107,
      4.4238613183079565,
      4.388085455822056,
      4.38282850154857,
      4.352635740373574,
      4.4110528976254,
      4.377663174823796,
      4.363496858229708,
      4.363278918853339,
      4.390845333146462,
      4.339097545834935,
      4.3670788230393125,
      4.372830657824525,
      4.407266132389151,
      4.382796497112658,
      4.349378662361347,
      4.374791433822722,
      4.354611212524239,
      4.3526695528174315,
      4.40683756635088,
      4.373448278680882,
      4.342990049250721,
      4.33062818344861,
      4.391591802584635,
      4.342382851955568,
      4.347879616178343,
      4.345030461943028,
      4.356314957478955,
      4.437630566806047,
      4.340673680395366,
      4.36678077197984,
      4.328494431795681,
      4.3550477581652,
      4.326893350553635,
      4.381966576475758,
      4.3569984231115395,
      4.370959472149513,
      4.339372464939203,
      4.326818521014907,
      4.337302536961874,
      4.325628753260904,
      4.315754172716541,
      4.374508799528772,
      4.3669049352957385,
      4.315445329460259,
      4.346641432752507,
      4.323171931392185,
      4.348543391733926,
      4.31558037641597,
      4.334006968230277,
      4.4091237873289035,
      4.320995263922055,
      4.312133478274498,
      4.377413932277272,
      4.3809240427610145,
      4.362164212001794,
      4.319356380378552,
      4.3261164898921916,
      4.316209975260922,
      4.344118991616806,
      4.325654147578609,
      4.311911701462507,
      4.356696342345676,
      4.347390826471573,
      4.303977609084722,
      4.3512496272586905,
      4.318411253829975,
      4.30936236206585,
      4.282217619498662,
      4.308897995994272,
      4.315153520289193,
      4.275595614371947,
      4.337388380528767,
      4.322170276027979,
      4.314281896660678,
      4.322234731469197,
      4.300526576906879,
      4.351826822792736,
      4.33469246502564,
      4.389779174554517,
      4.321180899084379,
      4.31182805277838,
      4.319069026972756,
      4.3139616085094685,
      4.315734444589828,
      4.381163182159876,
      4.344281389448764,
      4.316861647351677,
      4.2866933719098,
      4.30205458493791,
      4.265680387243052,
      4.31149182952139,
      4.300549861681699,
      4.283810539545485,
      4.270730478473067,
      4.297331256294287,
      4.314029778877575,
      4.258112573766487,
      4.28344622579563,
      4.279395470351676,
      4.273340348340867,
      4.385794831162047,
      4.310939400726347,
      4.255522379048663,
      4.284256650866284,
      4.3039940355900805,
      4.321378948678044,
      4.306511092656279,
      4.294179699982924,
      4.302790917485172,
      4.260063885076186,
      4.287580072837747,
      4.330313166005756,
      4.316676167661329,
      4.3774110939575115,
      4.2900056357471055,
      4.2499587914729,
      4.2685037277319955,
      4.2784219971180075,
      4.300708539233565,
      4.302882686387932,
      4.267054038577193,
      4.264926390018069,
      4.284304702088094,
      4.265773537825967,
      4.281736868228754,
      4.250189158612614,
      4.274675602765556,
      4.268149613103358,
      4.243773661044415,
      4.2534810890802905,
      4.25788635364348,
      4.264754550941,
      4.3383324499818645,
      4.305212081923641,
      4.249896173147091,
      4.25353760846595,
      4.311401669400669,
      4.285164068221098,
      4.282004801094512,
      4.284402370329566,
      4.29058028980052,
      4.248544941362581,
      4.291729541655972,
      4.281728740980827,
      4.285245682579595,
      4.272163462551749,
      4.265757472075513,
      4.252518704725395,
      4.263052563534271,
      4.263731173394999,
      4.201443999933079,
      4.216999204214691,
      4.216920173949607,
      4.188679011843151,
      4.199172060326774,
      4.199844263516513,
      4.1914561549600835,
      4.20768926675499,
      4.191355792318506,
      4.186726546942696,
      4.191829727079932,
      4.198439118377595,
      4.1946034244941455,
      4.1909815038806055,
      4.178594788447271,
      4.1930621781334345,
      4.168288498407024,
      4.1659330098164915,
      4.176801792910828,
      4.206162879379549,
      4.181015131836752,
      4.186698629519544,
      4.188295763398605,
      4.2015745721230084,
      4.17873559932548,
      4.2272754579028335,
      4.192794338345144,
      4.178971877031954,
      4.188444540390085,
      4.194728227662274,
      4.191519363233476,
      4.184631777665467,
      4.174151029199375,
      4.195415735984921,
      4.185352461819793,
      4.184851864982869,
      4.181911025362736,
      4.187208201789842,
      4.188948412180338,
      4.169466675774583,
      4.179644693518861,
      4.17825770268046,
      4.170826533744725,
      4.168603663661716,
      4.183045613537769,
      4.169829502571723,
      4.171434060498561,
      4.175703924409373,
      4.185976579888021,
      4.191780553267146,
      4.172359767104446,
      4.163773474541827,
      4.185936237301192,
      4.1574084576564845,
      4.189080332008322,
      4.1840552164362315,
      4.1755697392044775,
      4.170633930450801
    ]
  },
  "val": {
    "steps": [
      0,
      1,
      2,
      3,
      4,
      5,
      6,
      7,
      8,
      9,
      10,
      11,
      12,
      13,
      14,
      15,
      16,
      17,
      18,
      19,
      20,
      21,
      22,
      23,
      24,
      25,
      26,
      27,
      28,
      29,
      30,
      31,
      32,
      33,
      34,
      35,
      36,
      37,
      38,
      39,
      40,
      41,
      42,
      43,
      44,
      45,
      46,
      47,
      48,
      49,
      50,
      51,
      52,
      53,
      54,
      55,
      56,
      57,
      58,
      59,
      60,
      61,
      62,
      63,
      64,
      65,
      66,
      67,
      68,
      69,
      70,
      71,
      72,
      73,
      74,
      75,
      76,
      77,
      78,
      79,
      80,
      81,
      82,
      83,
      84,
      85,
      86,
      87,
      88,
      89,
      90,
      91,
      92,
      93,
      94,
      95,
      96,
      97,
      98,
      99,
      100,
      101,
      102,
      103,
      104,
      105,
      106,
      107,
      108,
      109,
      110,
      111,
      112,
      113,
      114,
      115,
      116,
      117,
      118,
      119,
      120,
      121,
      122,
      123,
      124,
      125,
      126,
      127,
      128,
      129,
      130,
      131,
      132,
      133,
      134,
      135,
      136,
      137,
      138,
      139,
      140,
      141,
      142,
      143,
      144,
      145,
      146,
      147,
      148,
      149,
      150,
      151,
      152,
      153,
      154,
      155,
      156,
      157,
      158,
      159,
      160,
      161,
      162,
      163,
      164,
      165,
      166,
      167,
      168,
      169,
      170,
      171,
      172,
      173,
      174,
      175,
      176,
      177,
      178,
      179,
      180,
      181,
      182,
      183,
      184,
      185,
      186,
      187,
      188,
      189,
      190,
      191,
      192,
      193,
      194,
      195,
      196,
      197,
      198,
      199,
      200,
      201,
      202,
      203,
      204,
      205,
      206,
      207,
      208,
      209,
      210,
      211,
      212,
      213,
      214,
      215,
      216,
      217,
      218,
      219,
      220,
      221,
      222,
      223,
      224,
      225,
      226,
      227,
      228,
      229,
      230,
      231,
      232,
      233,
      234,
      235,
      236,
      237,
      238,
      239,
      240,
      241,
      242,
      243,
      244,
      245,
      246,
      247,
      248,
      249,
      250,
      251,
      252,
      253,
      254,
      255,
      256,
      257,
      258,
      259,
      260,
      261,
      262,
      263,
      264,
      265,
      266,
      267,
      268,
      269,
      270,
      271,
      272,
      273,
      274,
      275,
      276,
      277,
      278,
      279,
      280,
      281,
      282,
      283,
      284,
      285,
      286,
      287,
      288,
      289,
      290,
      291,
      292,
      293,
      294,
      295,
      296,
      297,
      298,
      299,
      300,
      301,
      302,
      303,
      304,
      305,
      306,
      307,
      308,
      309,
      310,
      311,
      312,
      313,
      314,
      315,
      316,
      317,
      318,
      319,
      320,
      321,
      322,
      323,
      324,
      325,
      326,
      327,
      328,
      329,
      330,
      331,
      332,
      333,
      334,
      335,
      336,
      337,
      338,
      339,
      340,
      341,
      342,
      343,
      344,
      345,
      346,
      347,
      348,
      349,
      350,
      351,
      352,
      353,
      354,
      355,
      356,
      357,
      358,
      359,
      360,
      361,
      362,
      363,
      364,
      365,
      366,
      367,
      368,
      369,
      370,
      371,
      372,
      373,
      374,
      375,
      376,
      377,
      378,
      379,
      380,
      381,
      382,
      383,
      384,
      385,
      386,
      387,
      388,
      389,
      390,
      391,
      392,
      393,
      394,
      395,
      396,
      397,
      398,
      399
    ],
    "timestamps": [
      "2022-08-30T12:16:28.821866",
      "2022-08-30T12:16:32.041616",
      "2022-08-30T12:16:34.901000",
      "2022-08-30T12:16:37.737898",
      "2022-08-30T12:16:40.530332",
      "2022-08-30T12:16:43.409486",
      "2022-08-30T12:16:46.242878",
      "2022-08-30T12:16:49.127222",
      "2022-08-30T12:16:52.394247",
      "2022-08-30T12:16:55.483591",
      "2022-08-30T12:16:58.499261",
      "2022-08-30T12:17:01.448672",
      "2022-08-30T12:17:04.494665",
      "2022-08-30T12:17:07.613136",
      "2022-08-30T12:17:10.442419",
      "2022-08-30T12:17:13.257876",
      "2022-08-30T12:17:16.393975",
      "2022-08-30T12:17:19.221990",
      "2022-08-30T12:17:22.216171",
      "2022-08-30T12:17:25.171988",
      "2022-08-30T12:17:28.108361",
      "2022-08-30T12:17:31.006633",
      "2022-08-30T12:17:33.898972",
      "2022-08-30T12:17:36.794316",
      "2022-08-30T12:17:39.913627",
      "2022-08-30T12:17:42.806323",
      "2022-08-30T12:17:45.731563",
      "2022-08-30T12:17:48.620107",
      "2022-08-30T12:17:51.544127",
      "2022-08-30T12:17:54.419591",
      "2022-08-30T12:17:57.291193",
      "2022-08-30T12:18:00.176843",
      "2022-08-30T12:18:03.057443",
      "2022-08-30T12:18:05.936931",
      "2022-08-30T12:18:08.813557",
      "2022-08-30T12:18:11.688687",
      "2022-08-30T12:18:14.579335",
      "2022-08-30T12:18:17.442916",
      "2022-08-30T12:18:20.321054",
      "2022-08-30T12:18:23.205263",
      "2022-08-30T12:18:26.069881",
      "2022-08-30T12:18:28.904745",
      "2022-08-30T12:18:31.842364",
      "2022-08-30T12:18:34.678706",
      "2022-08-30T12:18:37.639809",
      "2022-08-30T12:18:40.741669",
      "2022-08-30T12:18:43.922700",
      "2022-08-30T12:18:47.020952",
      "2022-08-30T12:18:49.898076",
      "2022-08-30T12:18:53.174642",
      "2022-08-30T12:18:57.110494",
      "2022-08-30T12:19:00.533134",
      "2022-08-30T12:19:03.786305",
      "2022-08-30T12:19:06.996737",
      "2022-08-30T12:19:11.149372",
      "2022-08-30T12:19:14.106902",
      "2022-08-30T12:19:17.320157",
      "2022-08-30T12:19:20.263795",
      "2022-08-30T12:19:23.202233",
      "2022-08-30T12:19:26.108866",
      "2022-08-30T12:19:28.983747",
      "2022-08-30T12:19:32.098395",
      "2022-08-30T12:19:35.289029",
      "2022-08-30T12:19:38.428310",
      "2022-08-30T12:19:41.279755",
      "2022-08-30T12:19:44.156197",
      "2022-08-30T12:19:47.009810",
      "2022-08-30T12:19:50.010186",
      "2022-08-30T12:19:52.858325",
      "2022-08-30T12:19:55.728410",
      "2022-08-30T12:19:58.645319",
      "2022-08-30T12:20:01.632869",
      "2022-08-30T12:20:04.490000",
      "2022-08-30T12:20:07.337356",
      "2022-08-30T12:20:10.207268",
      "2022-08-30T12:20:13.123514",
      "2022-08-30T12:20:15.986269",
      "2022-08-30T12:20:18.840619",
      "2022-08-30T12:20:21.705454",
      "2022-08-30T12:20:24.927762",
      "2022-08-30T12:20:27.841307",
      "2022-08-30T12:20:30.938799",
      "2022-08-30T12:20:33.766608",
      "2022-08-30T12:20:37.302168",
      "2022-08-30T12:20:40.191622",
      "2022-08-30T12:20:43.046589",
      "2022-08-30T12:20:45.962368",
      "2022-08-30T12:20:48.786872",
      "2022-08-30T12:20:51.660766",
      "2022-08-30T12:20:54.515660",
      "2022-08-30T12:20:57.350179",
      "2022-08-30T12:21:00.271739",
      "2022-08-30T12:21:03.370121",
      "2022-08-30T12:21:06.390396",
      "2022-08-30T12:21:09.840876",
      "2022-08-30T12:21:13.382777",
      "2022-08-30T12:21:17.627845",
      "2022-08-30T12:21:26.867601",
      "2022-08-30T12:21:30.669157",
      "2022-08-30T12:21:33.677916",
      "2022-08-30T12:21:36.812265",
      "2022-08-30T12:21:39.808159",
      "2022-08-30T12:21:42.825185",
      "2022-08-30T12:21:46.087932",
      "2022-08-30T12:21:49.038185",
      "2022-08-30T12:21:51.913441",
      "2022-08-30T12:21:54.920974",
      "2022-08-30T12:21:58.019750",
      "2022-08-30T12:22:01.030214",
      "2022-08-30T12:22:03.959822",
      "2022-08-30T12:22:06.894326",
      "2022-08-30T12:22:09.819453",
      "2022-08-30T12:22:12.874002",
      "2022-08-30T12:22:15.800544",
      "2022-08-30T12:22:18.689292",
      "2022-08-30T12:22:21.569472",
      "2022-08-30T12:22:24.626510",
      "2022-08-30T12:22:27.611915",
      "2022-08-30T12:22:30.556766",
      "2022-08-30T12:22:33.375289",
      "2022-08-30T12:22:36.350340",
      "2022-08-30T12:22:39.325331",
      "2022-08-30T12:22:42.168390",
      "2022-08-30T12:22:45.004956",
      "2022-08-30T12:22:47.892013",
      "2022-08-30T12:22:50.834826",
      "2022-08-30T12:22:53.660347",
      "2022-08-30T12:22:56.592151",
      "2022-08-30T12:22:59.639582",
      "2022-08-30T12:23:02.524605",
      "2022-08-30T12:23:05.383163",
      "2022-08-30T12:23:08.451012",
      "2022-08-30T12:23:11.341562",
      "2022-08-30T12:23:16.017850",
      "2022-08-30T12:23:19.731277",
      "2022-08-30T12:23:23.257577",
      "2022-08-30T12:23:26.872801",
      "2022-08-30T12:23:30.528702",
      "2022-08-30T12:23:34.244083",
      "2022-08-30T12:23:37.610355",
      "2022-08-30T12:23:40.708299",
      "2022-08-30T12:23:43.917746",
      "2022-08-30T12:23:46.890877",
      "2022-08-30T12:23:50.071664",
      "2022-08-30T12:23:52.974539",
      "2022-08-30T12:23:55.904718",
      "2022-08-30T12:23:59.007996",
      "2022-08-30T12:24:01.999640",
      "2022-08-30T12:24:05.137303",
      "2022-08-30T12:24:08.339730",
      "2022-08-30T12:24:11.379457",
      "2022-08-30T12:24:14.282792",
      "2022-08-30T12:24:17.359882",
      "2022-08-30T12:24:20.344533",
      "2022-08-30T12:24:23.297395",
      "2022-08-30T12:24:26.513699",
      "2022-08-30T12:24:29.349326",
      "2022-08-30T12:24:32.281542",
      "2022-08-30T12:24:35.418293",
      "2022-08-30T12:24:38.522578",
      "2022-08-30T12:24:41.670243",
      "2022-08-30T12:24:44.508209",
      "2022-08-30T12:24:47.493794",
      "2022-08-30T12:24:50.345981",
      "2022-08-30T12:24:53.189065",
      "2022-08-30T12:24:56.257079",
      "2022-08-30T12:24:59.278427",
      "2022-08-30T12:25:02.163699",
      "2022-08-30T12:25:05.109116",
      "2022-08-30T12:25:08.187809",
      "2022-08-30T12:25:11.107765",
      "2022-08-30T12:25:14.026014",
      "2022-08-30T12:25:17.095958",
      "2022-08-30T12:25:19.924089",
      "2022-08-30T12:25:22.780191",
      "2022-08-30T12:25:25.686947",
      "2022-08-30T12:25:28.665516",
      "2022-08-30T12:25:31.496076",
      "2022-08-30T12:25:34.323633",
      "2022-08-30T12:25:37.387608",
      "2022-08-30T12:25:40.265399",
      "2022-08-30T12:25:43.227536",
      "2022-08-30T12:25:46.165417",
      "2022-08-30T12:25:49.124081",
      "2022-08-30T12:25:52.060918",
      "2022-08-30T12:25:54.943780",
      "2022-08-30T12:25:58.060232",
      "2022-08-30T12:26:00.878327",
      "2022-08-30T12:26:03.696422",
      "2022-08-30T12:26:06.793067",
      "2022-08-30T12:26:09.659609",
      "2022-08-30T12:26:13.230788",
      "2022-08-30T12:26:16.172047",
      "2022-08-30T12:26:19.029865",
      "2022-08-30T12:26:21.837100",
      "2022-08-30T12:26:24.665386",
      "2022-08-30T12:26:27.752935",
      "2022-08-30T12:26:30.598855",
      "2022-08-30T12:26:33.408193",
      "2022-08-30T12:26:36.539808",
      "2022-08-30T12:26:39.433240",
      "2022-08-30T12:26:42.441033",
      "2022-08-30T12:26:45.339711",
      "2022-08-30T12:26:48.411900",
      "2022-08-30T12:26:51.256700",
      "2022-08-30T12:26:54.103295",
      "2022-08-30T12:26:57.116472",
      "2022-08-30T12:26:59.933054",
      "2022-08-30T12:27:02.778229",
      "2022-08-30T12:27:05.759905",
      "2022-08-30T12:27:08.733243",
      "2022-08-30T12:27:12.185439",
      "2022-08-30T12:27:15.044734",
      "2022-08-30T12:27:18.033247",
      "2022-08-30T12:27:20.867674",
      "2022-08-30T12:27:23.727277",
      "2022-08-30T12:27:26.763055",
      "2022-08-30T12:27:29.599712",
      "2022-08-30T12:27:32.429950",
      "2022-08-30T12:27:35.396689",
      "2022-08-30T12:27:38.359701",
      "2022-08-30T12:27:41.396858",
      "2022-08-30T12:27:44.282023",
      "2022-08-30T12:27:47.330204",
      "2022-08-30T12:27:50.198365",
      "2022-08-30T12:27:53.060101",
      "2022-08-30T12:27:56.072767",
      "2022-08-30T12:27:58.932959",
      "2022-08-30T12:28:01.737166",
      "2022-08-30T12:28:04.572742",
      "2022-08-30T12:28:08.102500",
      "2022-08-30T12:28:10.920198",
      "2022-08-30T12:28:13.742251",
      "2022-08-30T12:28:17.199447",
      "2022-08-30T12:28:20.021165",
      "2022-08-30T12:28:22.818509",
      "2022-08-30T12:28:25.749670",
      "2022-08-30T12:28:28.732892",
      "2022-08-30T12:28:31.573494",
      "2022-08-30T12:28:34.409507",
      "2022-08-30T12:28:37.418362",
      "2022-08-30T12:28:40.260293",
      "2022-08-30T12:28:43.061534",
      "2022-08-30T12:28:45.962999",
      "2022-08-30T12:28:48.846609",
      "2022-08-30T12:28:51.658018",
      "2022-08-30T12:28:54.478350",
      "2022-08-30T12:28:57.467054",
      "2022-08-30T12:29:00.286385",
      "2022-08-30T12:29:03.099363",
      "2022-08-30T12:29:06.011514",
      "2022-08-30T12:29:08.897526",
      "2022-08-30T12:29:11.722464",
      "2022-08-30T12:29:14.553266",
      "2022-08-30T12:29:17.555418",
      "2022-08-30T12:29:20.390665",
      "2022-08-30T12:29:23.191520",
      "2022-08-30T12:29:26.269608",
      "2022-08-30T12:29:29.162750",
      "2022-08-30T12:29:31.959463",
      "2022-08-30T12:29:35.251339",
      "2022-08-30T12:29:38.092257",
      "2022-08-30T12:29:41.204664",
      "2022-08-30T12:29:44.336169",
      "2022-08-30T12:29:47.325011",
      "2022-08-30T12:29:50.240768",
      "2022-08-30T12:29:53.054469",
      "2022-08-30T12:29:56.051853",
      "2022-08-30T12:29:58.974642",
      "2022-08-30T12:30:01.785484",
      "2022-08-30T12:30:05.052589",
      "2022-08-30T12:30:07.883504",
      "2022-08-30T12:30:10.894026",
      "2022-08-30T12:30:13.737843",
      "2022-08-30T12:30:16.765265",
      "2022-08-30T12:30:19.631805",
      "2022-08-30T12:30:22.530537",
      "2022-08-30T12:30:25.415392",
      "2022-08-30T12:30:28.331434",
      "2022-08-30T12:30:31.241021",
      "2022-08-30T12:30:34.272956",
      "2022-08-30T12:30:37.085940",
      "2022-08-30T12:30:40.149375",
      "2022-08-30T12:30:42.984290",
      "2022-08-30T12:30:45.964327",
      "2022-08-30T12:30:48.849504",
      "2022-08-30T12:30:51.715969",
      "2022-08-30T12:30:54.658723",
      "2022-08-30T12:30:57.619705",
      "2022-08-30T12:31:00.456891",
      "2022-08-30T12:31:03.501513",
      "2022-08-30T12:31:06.327721",
      "2022-08-30T12:31:09.763432",
      "2022-08-30T12:31:12.567704",
      "2022-08-30T12:31:15.427720",
      "2022-08-30T12:31:18.339152",
      "2022-08-30T12:31:21.143071",
      "2022-08-30T12:31:23.954729",
      "2022-08-30T12:31:27.124070",
      "2022-08-30T12:31:29.965475",
      "2022-08-30T12:31:33.000684",
      "2022-08-30T12:31:35.815079",
      "2022-08-30T12:31:38.803875",
      "2022-08-30T12:31:41.617592",
      "2022-08-30T12:31:44.436102",
      "2022-08-30T12:31:47.446990",
      "2022-08-30T12:31:50.297842",
      "2022-08-30T12:31:53.102672",
      "2022-08-30T12:31:56.040914",
      "2022-08-30T12:31:58.909709",
      "2022-08-30T12:32:01.876878",
      "2022-08-30T12:32:04.696856",
      "2022-08-30T12:32:07.706612",
      "2022-08-30T12:32:10.534447",
      "2022-08-30T12:32:13.341878",
      "2022-08-30T12:32:16.309287",
      "2022-08-30T12:32:19.153181",
      "2022-08-30T12:32:21.966408",
      "2022-08-30T12:32:24.804589",
      "2022-08-30T12:32:27.804467",
      "2022-08-30T12:32:30.666006",
      "2022-08-30T12:32:33.594827",
      "2022-08-30T12:32:36.555403",
      "2022-08-30T12:32:39.470511",
      "2022-08-30T12:32:42.322290",
      "2022-08-30T12:32:45.208389",
      "2022-08-30T12:32:48.201248",
      "2022-08-30T12:32:51.063055",
      "2022-08-30T12:32:53.919194",
      "2022-08-30T12:32:56.963985",
      "2022-08-30T12:32:59.841761",
      "2022-08-30T12:33:02.872612",
      "2022-08-30T12:33:05.768663",
      "2022-08-30T12:33:08.748435",
      "2022-08-30T12:33:11.600278",
      "2022-08-30T12:33:14.467386",
      "2022-08-30T12:33:17.502933",
      "2022-08-30T12:33:20.375996",
      "2022-08-30T12:33:23.227314",
      "2022-08-30T12:33:26.742300",
      "2022-08-30T12:33:29.626742",
      "2022-08-30T12:33:33.118951",
      "2022-08-30T12:33:36.202939",
      "2022-08-30T12:33:39.237603",
      "2022-08-30T12:33:42.112520",
      "2022-08-30T12:33:44.939637",
      "2022-08-30T12:33:47.928279",
      "2022-08-30T12:33:50.755583",
      "2022-08-30T12:33:53.621934",
      "2022-08-30T12:33:56.737684",
      "2022-08-30T12:33:59.561443",
      "2022-08-30T12:34:02.671461",
      "2022-08-30T12:34:05.497754",
      "2022-08-30T12:34:08.459741",
      "2022-08-30T12:34:11.335108",
      "2022-08-30T12:34:14.149962",
      "2022-08-30T12:34:17.136993",
      "2022-08-30T12:34:19.969637",
      "2022-08-30T12:34:22.851749",
      "2022-08-30T12:34:25.829221",
      "2022-08-30T12:34:28.803496",
      "2022-08-30T12:34:31.808431",
      "2022-08-30T12:34:34.676922",
      "2022-08-30T12:34:37.689534",
      "2022-08-30T12:34:40.546200",
      "2022-08-30T12:34:43.403758",
      "2022-08-30T12:34:46.404580",
      "2022-08-30T12:34:49.294107",
      "2022-08-30T12:34:52.152615",
      "2022-08-30T12:34:55.054474",
      "2022-08-30T12:34:58.557157",
      "2022-08-30T12:35:01.369717",
      "2022-08-30T12:35:04.194318",
      "2022-08-30T12:35:07.160897",
      "2022-08-30T12:35:10.047573",
      "2022-08-30T12:35:12.871317",
      "2022-08-30T12:35:15.826189",
      "2022-08-30T12:35:18.759095",
      "2022-08-30T12:35:21.574107",
      "2022-08-30T12:35:24.401020",
      "2022-08-30T12:35:27.925073",
      "2022-08-30T12:35:30.779944",
      "2022-08-30T12:35:33.618624",
      "2022-08-30T12:35:36.576820",
      "2022-08-30T12:35:39.397144",
      "2022-08-30T12:35:42.202894",
      "2022-08-30T12:35:45.039995",
      "2022-08-30T12:35:48.040612",
      "2022-08-30T12:35:50.848967",
      "2022-08-30T12:35:53.668670",
      "2022-08-30T12:35:56.686840",
      "2022-08-30T12:35:59.516782",
      "2022-08-30T12:36:02.344729",
      "2022-08-30T12:36:05.222878",
      "2022-08-30T12:36:08.208385",
      "2022-08-30T12:36:11.022501",
      "2022-08-30T12:36:13.834528",
      "2022-08-30T12:36:16.942070",
      "2022-08-30T12:36:19.765995",
      "2022-08-30T12:36:22.585381"
    ],
    "values": [
      40.159269347437345,
      17.192253092358747,
      12.393189805302205,
      21.38908514770844,
      12.198355570261308,
      21.945562393761655,
      9.876169886938643,
      11.767402561743436,
      9.519216249864504,
      9.958657014029429,
      8.554998758922347,
      8.295446490694786,
      9.14893080199845,
      8.616900740862597,
      9.047593648823543,
      10.852393824721043,
      9.170554039740955,
      11.339677880537135,
      11.254112432408393,
      7.8212496228102335,
      7.519284211870147,
      9.562607601271397,
      7.564956147744006,
      7.154536777434813,
      7.062107802692835,
      7.310029220321278,
      10.701187991430338,
      7.2689608382246895,
      10.333471916190883,
      6.962697196276534,
      7.678405922075875,
      7.418664383445914,
      12.997660206633977,
      6.574601649353869,
      6.46670166178004,
      7.039077495049002,
      7.485856595733927,
      7.765800780880276,
      6.216123191286414,
      7.58022163871403,
      7.371217521201622,
      6.831221379554827,
      6.7354123983157335,
      8.625412346139354,
      6.595440332987231,
      7.652107753242709,
      6.882802724940177,
      6.233792308345681,
      6.257573401480101,
      7.7950440255836,
      6.947697531309087,
      14.369444969444707,
      7.555710124832478,
      8.679229603617923,
      5.947116063287444,
      10.144320032118317,
      6.303883955087972,
      5.927845992884467,
      6.25317636165333,
      5.619909772868303,
      5.908603763137412,
      9.25252132505782,
      6.388363145050342,
      8.954277191314748,
      5.66737221980381,
      5.332478529569184,
      5.493133845840563,
      6.024461138051203,
      5.451040761138934,
      5.733360622498358,
      5.151545467171497,
      6.570631213234179,
      5.657002460626478,
      8.743625785802271,
      11.618047936678597,
      6.4366298534045265,
      5.317965179417372,
      5.3542947063876545,
      5.315818591432332,
      5.451745030726919,
      5.664126553619385,
      5.936933302081756,
      5.470567815809658,
      6.28405800856329,
      5.152704445470839,
      6.987059782099708,
      7.462264866723682,
      6.649980270967647,
      5.388767043937935,
      5.527817324039433,
      4.916370709546353,
      5.69010797456504,
      5.693039294798599,
      5.29184553116063,
      7.03636829534108,
      5.156329153212256,
      6.085562922327052,
      5.300194582786014,
      5.073247145641712,
      6.930108542667525,
      5.175418202447221,
      4.803179798224648,
      6.155035857707071,
      5.484005932079177,
      4.924466888740539,
      5.149408805709315,
      4.928028873627239,
      5.368613907652199,
      4.866483346385624,
      6.365420107845195,
      7.72758447259279,
      5.1207866868613685,
      4.838272143729798,
      5.414532801915232,
      4.9180651389529615,
      5.279599161506418,
      4.8877552912467515,
      4.927833495545076,
      4.9140082219550845,
      6.5730836062856755,
      4.936412824535776,
      5.005115687160366,
      4.9409936471732605,
      4.796328430854809,
      6.211510858280068,
      5.325746255807156,
      5.604795573077065,
      4.851566820512028,
      5.904431115829643,
      5.449526765616904,
      4.6893900667353705,
      5.255881082209071,
      4.628557818622737,
      5.674179977253948,
      6.7793515006369285,
      5.390940134549744,
      4.856253485970261,
      6.064856215741322,
      4.814776274741535,
      5.3385496903020115,
      4.993010347809288,
      5.099043867923012,
      5.039984081248899,
      7.075629319961721,
      4.8393890224593346,
      4.456283648103665,
      4.433173293613389,
      4.45576030817636,
      4.473766933345039,
      4.444010278412203,
      4.4934458434682645,
      4.423838511355114,
      4.406836376982457,
      4.427608873945178,
      4.457224838283989,
      4.503215717750828,
      4.548178537032666,
      4.400278877134086,
      4.406012358048056,
      4.440649840897205,
      4.472435512468784,
      4.463489467422306,
      4.428414714510132,
      4.43671971001068,
      4.423263297359378,
      4.640474039463909,
      4.434192021094961,
      4.553422458289723,
      4.483841121385271,
      4.431657836702296,
      4.437088893808321,
      4.474522733990403,
      4.545477495069236,
      4.479815289258753,
      4.430061352991778,
      4.54534109761839,
      4.41234922695211,
      4.453107093343619,
      4.491576655627828,
      4.399240264149704,
      4.520413730366962,
      4.419558649426209,
      4.5603967098551665,
      4.4713977716879985,
      4.4337411874676596,
      4.455071743609663,
      4.379059219989135,
      4.402882941880055,
      4.425926176173199,
      4.371291406760683,
      4.378824251972861,
      4.333646782365096,
      4.552192460073539,
      4.4257712718229385,
      4.433748881309525,
      4.393362338196211,
      4.379874816807516,
      4.3979570757177955,
      4.431514000609773,
      4.396448799749221,
      4.422721774184698,
      4.414638143074459,
      4.357070943225004,
      4.478629387671692,
      4.320079774319408,
      4.469396696631237,
      4.350509102937637,
      4.39603077979198,
      4.379550381621822,
      4.412670175852283,
      4.362650837231387,
      4.414586051720811,
      4.382708517958073,
      4.469729150055306,
      4.3817007845648,
      4.357055993275595,
      4.3230614804110115,
      4.327341006843353,
      4.480514939640911,
      4.429670601948126,
      4.369501631315754,
      4.436658353427558,
      4.321832531877217,
      4.4030895067954665,
      4.450744669794862,
      4.419525708341975,
      4.3877553954719835,
      4.342306698302348,
      4.342120990128977,
      4.423480513220032,
      4.351471234824451,
      4.306832430658532,
      4.360101346027164,
      4.316711786855461,
      4.334677659043044,
      4.331505175529967,
      4.2717227029797495,
      4.371593152004707,
      4.557205371820805,
      4.32309040592517,
      4.299031594116953,
      4.319773767870967,
      4.299924606685294,
      4.41316996591084,
      4.656138184167942,
      4.30322150948001,
      4.307182522235432,
      4.412431202207949,
      4.319230457419493,
      4.3201686859442505,
      4.353952796259489,
      4.280059805126729,
      4.278553119604613,
      4.390899534619004,
      4.311694715246179,
      4.286382056892895,
      4.328677662622156,
      4.277426803750015,
      4.346507275545072,
      4.287759143468576,
      4.279156289960246,
      4.311068956222862,
      4.3859467624923605,
      4.311636010153292,
      4.315268675148913,
      4.336385657435268,
      4.415669641196541,
      4.349982864153376,
      4.429188962728723,
      4.319202883624045,
      4.453836432195744,
      4.466145043164249,
      4.381459243371321,
      4.298924440516144,
      4.266737124366668,
      4.231252469334995,
      4.459648420802119,
      4.38087917042615,
      4.331678449865451,
      4.242756847176543,
      4.315235360247321,
      4.292327301770544,
      4.2994714990511085,
      4.2731255086268565,
      4.270086949487543,
      4.280004414637472,
      4.3582178754774725,
      4.381513786423991,
      4.389686070378139,
      4.264094021241875,
      4.2793107431472155,
      4.270505591782981,
      4.545896740308271,
      4.279401422026917,
      4.305794097807119,
      4.48319559687992,
      4.280288250198903,
      4.367272224225068,
      4.363323163851696,
      4.315613942237029,
      4.267032777004258,
      4.2695955925056825,
      4.282623187498623,
      4.360514774436079,
      4.53585798926058,
      4.286104348883483,
      4.270102526474194,
      4.234279391234025,
      4.2980770744052,
      4.325585530933379,
      4.250478969107929,
      4.245953856280571,
      4.30146007194756,
      4.325585187164507,
      4.213714480165234,
      4.283920170539164,
      4.402945460905858,
      4.323973355567498,
      4.199323075599459,
      4.4362614725829195,
      4.26081868383678,
      4.25442358392745,
      4.2871670889531535,
      4.3523344621027,
      4.280068523419868,
      4.248646649039401,
      4.308306003079138,
      4.236589855041466,
      4.318039638798883,
      4.339605113133111,
      4.300294379241162,
      4.275058967710242,
      4.232034929847112,
      4.231936081442685,
      4.299763199418913,
      4.261412984596796,
      4.281235473282236,
      4.245012695203337,
      4.285493245689946,
      4.333717062687605,
      4.369268015628672,
      4.240632354346362,
      4.2627239352963615,
      4.252042379349436,
      4.232622499925012,
      4.229648561019577,
      4.207826483234565,
      4.230983461576412,
      4.211047077019234,
      4.2576607868831875,
      4.207451772925672,
      4.180816090847365,
      4.202695607986705,
      4.188116166950832,
      4.218027118454786,
      4.196038552248309,
      4.1921051380401115,
      4.181865742091977,
      4.232967597945324,
      4.193026392885372,
      4.206863719088685,
      4.202419166588703,
      4.2155468348006755,
      4.215257829327074,
      4.232834508492515,
      4.2211447655305925,
      4.211179702166723,
      4.192907870019461,
      4.188296341786327,
      4.193494710266861,
      4.191200641510367,
      4.182019137469068,
      4.204485969420757,
      4.223244308183138,
      4.227265634500446,
      4.207393749193164,
      4.2072649723892654,
      4.202350087443522,
      4.200143709985072,
      4.24011084536919,
      4.215639836664935,
      4.183515591124366,
      4.205447538739125,
      4.189683205341286,
      4.190079585163571,
      4.206094629487155,
      4.207929332654313,
      4.211451599941825,
      4.19164470525927,
      4.315853835510504,
      4.18924170020179,
      4.184600493033365,
      4.206532843976879,
      4.181145046532393,
      4.195315930109292,
      4.206988358451734,
      4.192428104203203,
      4.21201190942578,
      4.196709612322635,
      4.1721875415401035
    ]
  }
}