INFO - siren_vae - Running command 'run'
INFO - siren_vae - Started run with ID "3"
[ENCODED STRUCTURE] Using faithful BN structure.
  0%|          | 0/200 [00:00<?, ?it/s]Train -ELBO: 68.86643, Val -ELBO: 58.46424:   0%|          | 1/200 [00:05<18:51,  5.68s/it]Train -ELBO: 51.27330, Val -ELBO: 47.11764:   1%|          | 2/200 [00:11<18:08,  5.50s/it]Train -ELBO: 44.08205, Val -ELBO: 42.01409:   2%|▏         | 3/200 [00:16<17:48,  5.43s/it]Train -ELBO: 40.49500, Val -ELBO: 39.67633:   2%|▏         | 4/200 [00:21<17:41,  5.42s/it]Train -ELBO: 39.10960, Val -ELBO: 38.97435:   2%|▎         | 5/200 [00:27<17:28,  5.38s/it]Train -ELBO: 38.57441, Val -ELBO: 38.55857:   3%|▎         | 6/200 [00:32<17:22,  5.37s/it]Train -ELBO: 38.21686, Val -ELBO: 38.21018:   4%|▎         | 7/200 [00:37<17:13,  5.35s/it]Train -ELBO: 37.89550, Val -ELBO: 37.92206:   4%|▍         | 8/200 [00:43<17:09,  5.36s/it]Train -ELBO: 37.63963, Val -ELBO: 37.71667:   4%|▍         | 9/200 [00:48<17:02,  5.35s/it]Train -ELBO: 37.41570, Val -ELBO: 37.47886:   5%|▌         | 10/200 [00:53<17:02,  5.38s/it]Train -ELBO: 37.25983, Val -ELBO: 37.35964:   6%|▌         | 11/200 [00:59<16:56,  5.38s/it]Train -ELBO: 37.10560, Val -ELBO: 37.25789:   6%|▌         | 12/200 [01:04<16:50,  5.37s/it]Train -ELBO: 37.00979, Val -ELBO: 37.12057:   6%|▋         | 13/200 [01:10<16:43,  5.37s/it]Train -ELBO: 36.91714, Val -ELBO: 37.03281:   7%|▋         | 14/200 [01:15<16:37,  5.36s/it]Train -ELBO: 36.86033, Val -ELBO: 36.96328:   8%|▊         | 15/200 [01:20<16:32,  5.36s/it]Train -ELBO: 36.79988, Val -ELBO: 36.94463:   8%|▊         | 16/200 [01:26<16:25,  5.35s/it]Train -ELBO: 36.76176, Val -ELBO: 36.88309:   8%|▊         | 17/200 [01:31<16:20,  5.36s/it]Train -ELBO: 36.72558, Val -ELBO: 36.86210:   9%|▉         | 18/200 [01:36<16:12,  5.34s/it]Train -ELBO: 36.69379, Val -ELBO: 36.82359:  10%|▉         | 19/200 [01:42<16:08,  5.35s/it]Train -ELBO: 36.66414, Val -ELBO: 36.79152:  10%|█         | 20/200 [01:47<16:02,  5.35s/it]Train -ELBO: 36.63511, Val -ELBO: 36.77720:  10%|█         | 21/200 [01:52<16:00,  5.37s/it]Train -ELBO: 36.58778, Val -ELBO: 36.70517:  11%|█         | 22/200 [01:58<15:52,  5.35s/it]Train -ELBO: 36.51980, Val -ELBO: 36.63766:  12%|█▏        | 23/200 [02:03<15:48,  5.36s/it]Train -ELBO: 36.42533, Val -ELBO: 36.48899:  12%|█▏        | 24/200 [02:08<15:41,  5.35s/it]Train -ELBO: 36.31723, Val -ELBO: 36.41916:  12%|█▎        | 25/200 [02:14<15:37,  5.35s/it]Train -ELBO: 36.26809, Val -ELBO: 36.38547:  13%|█▎        | 26/200 [02:19<15:30,  5.35s/it]Train -ELBO: 36.21598, Val -ELBO: 36.34318:  14%|█▎        | 27/200 [02:24<15:27,  5.36s/it]Train -ELBO: 36.18580, Val -ELBO: 36.28707:  14%|█▍        | 28/200 [02:30<15:22,  5.36s/it]Train -ELBO: 36.15953, Val -ELBO: 36.24117:  14%|█▍        | 29/200 [02:35<15:14,  5.35s/it]Train -ELBO: 36.10542, Val -ELBO: 36.21786:  15%|█▌        | 30/200 [02:41<15:11,  5.36s/it]Train -ELBO: 36.06695, Val -ELBO: 36.16910:  16%|█▌        | 31/200 [02:46<15:08,  5.38s/it]Train -ELBO: 36.01247, Val -ELBO: 36.09476:  16%|█▌        | 32/200 [02:51<15:05,  5.39s/it]Train -ELBO: 35.95597, Val -ELBO: 36.08330:  16%|█▋        | 33/200 [02:57<14:57,  5.37s/it]Train -ELBO: 35.92617, Val -ELBO: 36.04825:  17%|█▋        | 34/200 [03:02<14:51,  5.37s/it]Train -ELBO: 35.91437, Val -ELBO: 36.02370:  18%|█▊        | 35/200 [03:07<14:44,  5.36s/it]Train -ELBO: 35.90000, Val -ELBO: 36.03932:  18%|█▊        | 36/200 [03:13<14:40,  5.37s/it]Train -ELBO: 35.89243, Val -ELBO: 36.01089:  18%|█▊        | 37/200 [03:18<14:32,  5.36s/it]Train -ELBO: 35.88268, Val -ELBO: 35.97828:  19%|█▉        | 38/200 [03:24<14:28,  5.36s/it]Train -ELBO: 35.86797, Val -ELBO: 35.98887:  20%|█▉        | 39/200 [03:29<14:21,  5.35s/it]Train -ELBO: 35.85634, Val -ELBO: 35.95113:  20%|██        | 40/200 [03:34<14:18,  5.36s/it]Train -ELBO: 35.86101, Val -ELBO: 35.97423:  20%|██        | 41/200 [03:40<14:15,  5.38s/it]Train -ELBO: 35.85419, Val -ELBO: 35.97359:  21%|██        | 42/200 [03:45<14:09,  5.37s/it]Train -ELBO: 35.84166, Val -ELBO: 35.96121:  22%|██▏       | 43/200 [03:50<14:04,  5.38s/it]Train -ELBO: 35.83923, Val -ELBO: 35.99694:  22%|██▏       | 44/200 [03:56<13:57,  5.37s/it]Train -ELBO: 35.83689, Val -ELBO: 35.96015:  22%|██▎       | 45/200 [04:01<13:52,  5.37s/it]Train -ELBO: 35.83063, Val -ELBO: 35.96826:  23%|██▎       | 46/200 [04:06<13:45,  5.36s/it]Train -ELBO: 35.81663, Val -ELBO: 35.93497:  24%|██▎       | 47/200 [04:12<13:40,  5.37s/it]Train -ELBO: 35.81928, Val -ELBO: 35.93801:  24%|██▍       | 48/200 [04:17<13:34,  5.36s/it]Train -ELBO: 35.81392, Val -ELBO: 35.93605:  24%|██▍       | 49/200 [04:23<13:31,  5.37s/it]Train -ELBO: 35.81344, Val -ELBO: 35.91503:  25%|██▌       | 50/200 [04:28<13:25,  5.37s/it]Train -ELBO: 35.79906, Val -ELBO: 35.90292:  26%|██▌       | 51/200 [04:33<13:20,  5.37s/it]Train -ELBO: 35.79848, Val -ELBO: 35.90027:  26%|██▌       | 52/200 [04:39<13:13,  5.36s/it]Train -ELBO: 35.78149, Val -ELBO: 35.90269:  26%|██▋       | 53/200 [04:44<13:08,  5.36s/it]Train -ELBO: 35.78766, Val -ELBO: 35.91020:  27%|██▋       | 54/200 [04:49<13:03,  5.36s/it]Train -ELBO: 35.77699, Val -ELBO: 35.90670:  28%|██▊       | 55/200 [04:55<12:57,  5.36s/it]Train -ELBO: 35.76742, Val -ELBO: 35.88538:  28%|██▊       | 56/200 [05:00<12:52,  5.36s/it]Train -ELBO: 35.74549, Val -ELBO: 35.85588:  28%|██▊       | 57/200 [05:05<12:45,  5.35s/it]Train -ELBO: 35.72245, Val -ELBO: 35.80558:  29%|██▉       | 58/200 [05:11<12:41,  5.36s/it]Train -ELBO: 35.68116, Val -ELBO: 35.76341:  30%|██▉       | 59/200 [05:16<12:34,  5.35s/it]Train -ELBO: 35.61414, Val -ELBO: 35.70709:  30%|███       | 60/200 [05:22<12:31,  5.37s/it]Train -ELBO: 35.52685, Val -ELBO: 35.62078:  30%|███       | 61/200 [05:27<12:27,  5.38s/it]Train -ELBO: 35.40432, Val -ELBO: 35.46835:  31%|███       | 62/200 [05:32<12:22,  5.38s/it]Train -ELBO: 35.33037, Val -ELBO: 35.45705:  32%|███▏      | 63/200 [05:38<12:15,  5.37s/it]Train -ELBO: 35.27623, Val -ELBO: 35.36087:  32%|███▏      | 64/200 [05:43<12:10,  5.37s/it]Train -ELBO: 35.25321, Val -ELBO: 35.37957:  32%|███▎      | 65/200 [05:48<12:03,  5.36s/it]Train -ELBO: 35.23106, Val -ELBO: 35.35265:  33%|███▎      | 66/200 [05:54<11:58,  5.36s/it]Train -ELBO: 35.21585, Val -ELBO: 35.31403:  34%|███▎      | 67/200 [05:59<11:52,  5.36s/it]Train -ELBO: 35.19968, Val -ELBO: 35.26469:  34%|███▍      | 68/200 [06:04<11:47,  5.36s/it]Train -ELBO: 35.18549, Val -ELBO: 35.30005:  34%|███▍      | 69/200 [06:10<11:42,  5.36s/it]Train -ELBO: 35.18172, Val -ELBO: 35.30163:  35%|███▌      | 70/200 [06:15<11:36,  5.36s/it]Train -ELBO: 35.17063, Val -ELBO: 35.29587:  36%|███▌      | 71/200 [06:21<11:32,  5.36s/it]Train -ELBO: 35.15816, Val -ELBO: 35.28407:  36%|███▌      | 72/200 [06:26<11:27,  5.37s/it]Train -ELBO: 35.15984, Val -ELBO: 35.24921:  36%|███▋      | 73/200 [06:31<11:24,  5.39s/it]Train -ELBO: 35.15895, Val -ELBO: 35.27368:  37%|███▋      | 74/200 [06:37<11:16,  5.37s/it]Train -ELBO: 35.15489, Val -ELBO: 35.23903:  38%|███▊      | 75/200 [06:42<11:11,  5.37s/it]Train -ELBO: 35.14750, Val -ELBO: 35.21075:  38%|███▊      | 76/200 [06:47<11:04,  5.36s/it]Train -ELBO: 35.14372, Val -ELBO: 35.25130:  38%|███▊      | 77/200 [06:53<11:00,  5.37s/it]Train -ELBO: 35.14566, Val -ELBO: 35.28380:  39%|███▉      | 78/200 [06:58<10:53,  5.36s/it]Train -ELBO: 35.13348, Val -ELBO: 35.27294:  40%|███▉      | 79/200 [07:04<10:50,  5.38s/it]Train -ELBO: 35.13562, Val -ELBO: 35.25136:  40%|████      | 80/200 [07:09<10:44,  5.37s/it]Train -ELBO: 35.13330, Val -ELBO: 35.23800:  40%|████      | 81/200 [07:14<10:39,  5.37s/it]Train -ELBO: 35.13079, Val -ELBO: 35.24046:  41%|████      | 82/200 [07:20<10:33,  5.37s/it]Train -ELBO: 35.13265, Val -ELBO: 35.21447:  42%|████▏     | 83/200 [07:25<10:27,  5.36s/it]Train -ELBO: 35.12659, Val -ELBO: 35.23127:  42%|████▏     | 84/200 [07:30<10:24,  5.39s/it]Train -ELBO: 35.12309, Val -ELBO: 35.22780:  42%|████▎     | 85/200 [07:36<10:17,  5.37s/it]Train -ELBO: 35.12812, Val -ELBO: 35.25329:  43%|████▎     | 86/200 [07:41<10:11,  5.37s/it]Train -ELBO: 35.12561, Val -ELBO: 35.22327:  44%|████▎     | 87/200 [07:46<10:05,  5.36s/it]Train -ELBO: 35.11719, Val -ELBO: 35.24834:  44%|████▍     | 88/200 [07:52<10:00,  5.36s/it]Train -ELBO: 35.12539, Val -ELBO: 35.23185:  44%|████▍     | 89/200 [07:57<09:54,  5.35s/it]Train -ELBO: 35.12363, Val -ELBO: 35.23808:  45%|████▌     | 90/200 [08:03<09:50,  5.37s/it]Train -ELBO: 35.12031, Val -ELBO: 35.22967:  46%|████▌     | 91/200 [08:08<09:45,  5.37s/it]Train -ELBO: 35.12768, Val -ELBO: 35.22313:  46%|████▌     | 92/200 [08:13<09:41,  5.39s/it]Train -ELBO: 35.12719, Val -ELBO: 35.23419:  46%|████▋     | 93/200 [08:19<09:34,  5.37s/it]Train -ELBO: 35.11368, Val -ELBO: 35.22887:  47%|████▋     | 94/200 [08:24<09:29,  5.37s/it]Train -ELBO: 35.11255, Val -ELBO: 35.21897:  48%|████▊     | 95/200 [08:30<09:25,  5.38s/it]Train -ELBO: 35.10737, Val -ELBO: 35.19154:  48%|████▊     | 96/200 [08:35<09:18,  5.37s/it]Train -ELBO: 35.10245, Val -ELBO: 35.21095:  48%|████▊     | 97/200 [08:40<09:13,  5.38s/it]Train -ELBO: 35.12432, Val -ELBO: 35.23700:  49%|████▉     | 98/200 [08:46<09:06,  5.36s/it]Train -ELBO: 35.12081, Val -ELBO: 35.21833:  50%|████▉     | 99/200 [08:51<09:03,  5.38s/it]Train -ELBO: 35.11124, Val -ELBO: 35.21436:  50%|█████     | 100/200 [08:56<08:56,  5.37s/it]Train -ELBO: 35.11649, Val -ELBO: 35.21771:  50%|█████     | 101/200 [09:02<08:51,  5.37s/it]Train -ELBO: 35.11520, Val -ELBO: 35.21160:  51%|█████     | 102/200 [09:07<08:47,  5.38s/it]Train -ELBO: 35.10677, Val -ELBO: 35.23801:  52%|█████▏    | 103/200 [09:13<08:42,  5.39s/it]Train -ELBO: 35.11606, Val -ELBO: 35.22378:  52%|█████▏    | 104/200 [09:18<08:36,  5.38s/it]Train -ELBO: 35.10802, Val -ELBO: 35.21170:  52%|█████▎    | 105/200 [09:23<08:30,  5.37s/it]Train -ELBO: 35.11047, Val -ELBO: 35.19061:  53%|█████▎    | 106/200 [09:29<08:23,  5.36s/it]Train -ELBO: 35.11276, Val -ELBO: 35.18696:  54%|█████▎    | 107/200 [09:34<08:19,  5.38s/it]Train -ELBO: 35.11050, Val -ELBO: 35.19770:  54%|█████▍    | 108/200 [09:39<08:14,  5.38s/it]Train -ELBO: 35.10479, Val -ELBO: 35.21771:  55%|█████▍    | 109/200 [09:45<08:09,  5.38s/it]Train -ELBO: 35.10659, Val -ELBO: 35.27198:  55%|█████▌    | 110/200 [09:50<08:04,  5.38s/it]Train -ELBO: 35.11488, Val -ELBO: 35.23102:  56%|█████▌    | 111/200 [09:56<07:59,  5.38s/it]Train -ELBO: 35.10770, Val -ELBO: 35.21220:  56%|█████▌    | 112/200 [10:01<07:53,  5.38s/it]Train -ELBO: 35.10222, Val -ELBO: 35.19819:  56%|█████▋    | 113/200 [10:06<07:47,  5.37s/it]Train -ELBO: 35.10242, Val -ELBO: 35.24046:  57%|█████▋    | 114/200 [10:12<07:41,  5.37s/it]Train -ELBO: 35.10932, Val -ELBO: 35.22225:  57%|█████▊    | 115/200 [10:17<07:35,  5.36s/it]Train -ELBO: 35.09741, Val -ELBO: 35.25365:  58%|█████▊    | 116/200 [10:22<07:30,  5.36s/it]Train -ELBO: 35.10350, Val -ELBO: 35.21257:  58%|█████▊    | 117/200 [10:28<07:24,  5.35s/it]Train -ELBO: 35.10241, Val -ELBO: 35.23469:  59%|█████▉    | 118/200 [10:33<07:19,  5.36s/it]Train -ELBO: 35.11306, Val -ELBO: 35.22656:  60%|█████▉    | 119/200 [10:38<07:13,  5.35s/it]Train -ELBO: 35.09297, Val -ELBO: 35.20854:  60%|██████    | 120/200 [10:44<07:09,  5.37s/it]Train -ELBO: 35.10355, Val -ELBO: 35.21649:  60%|██████    | 121/200 [10:49<07:05,  5.39s/it]Train -ELBO: 35.09261, Val -ELBO: 35.18902:  61%|██████    | 122/200 [10:55<07:00,  5.39s/it]Train -ELBO: 35.09966, Val -ELBO: 35.22604:  62%|██████▏   | 123/200 [11:00<06:54,  5.38s/it]Train -ELBO: 35.09906, Val -ELBO: 35.22744:  62%|██████▏   | 124/200 [11:05<06:48,  5.37s/it]Train -ELBO: 35.08994, Val -ELBO: 35.19247:  62%|██████▎   | 125/200 [11:11<06:43,  5.38s/it]Train -ELBO: 35.10328, Val -ELBO: 35.22023:  63%|██████▎   | 126/200 [11:16<06:36,  5.36s/it]Train -ELBO: 35.09053, Val -ELBO: 35.20375:  64%|██████▎   | 127/200 [11:21<06:32,  5.37s/it]Train -ELBO: 35.10162, Val -ELBO: 35.20735:  64%|██████▍   | 128/200 [11:27<06:25,  5.36s/it]Train -ELBO: 35.09477, Val -ELBO: 35.21400:  64%|██████▍   | 129/200 [11:32<06:21,  5.37s/it]Train -ELBO: 35.09362, Val -ELBO: 35.20044:  65%|██████▌   | 130/200 [11:37<06:15,  5.37s/it]Train -ELBO: 35.09216, Val -ELBO: 35.20799:  66%|██████▌   | 131/200 [11:43<06:10,  5.37s/it]Train -ELBO: 35.10658, Val -ELBO: 35.18770:  66%|██████▌   | 132/200 [11:48<06:04,  5.36s/it]Train -ELBO: 35.08900, Val -ELBO: 35.23028:  66%|██████▋   | 133/200 [11:54<05:59,  5.37s/it]Train -ELBO: 35.09506, Val -ELBO: 35.21189:  67%|██████▋   | 134/200 [11:59<05:53,  5.35s/it]Train -ELBO: 35.09845, Val -ELBO: 35.20120:  68%|██████▊   | 135/200 [12:04<05:48,  5.36s/it]Train -ELBO: 35.10055, Val -ELBO: 35.20604:  68%|██████▊   | 136/200 [12:10<05:42,  5.36s/it]Train -ELBO: 35.09582, Val -ELBO: 35.23876:  68%|██████▊   | 137/200 [12:15<05:37,  5.35s/it]Train -ELBO: 35.09352, Val -ELBO: 35.21467:  69%|██████▉   | 138/200 [12:20<05:32,  5.36s/it]Train -ELBO: 35.09196, Val -ELBO: 35.22486:  70%|██████▉   | 139/200 [12:26<05:26,  5.35s/it]Train -ELBO: 35.09221, Val -ELBO: 35.20182:  70%|███████   | 140/200 [12:31<05:21,  5.36s/it]Train -ELBO: 35.10018, Val -ELBO: 35.19990:  70%|███████   | 141/200 [12:36<05:17,  5.38s/it]Train -ELBO: 35.09963, Val -ELBO: 35.20088:  71%|███████   | 142/200 [12:42<05:11,  5.38s/it]Train -ELBO: 35.09235, Val -ELBO: 35.22435:  72%|███████▏  | 143/200 [12:47<05:05,  5.36s/it]Train -ELBO: 35.09613, Val -ELBO: 35.22169:  72%|███████▏  | 144/200 [12:53<05:00,  5.37s/it]Train -ELBO: 35.09041, Val -ELBO: 35.23678:  72%|███████▎  | 145/200 [12:58<04:54,  5.36s/it]Train -ELBO: 35.09940, Val -ELBO: 35.20817:  73%|███████▎  | 146/200 [13:03<04:49,  5.36s/it]Train -ELBO: 35.09037, Val -ELBO: 35.22424:  74%|███████▎  | 147/200 [13:09<04:43,  5.36s/it]Train -ELBO: 35.09430, Val -ELBO: 35.19248:  74%|███████▍  | 148/200 [13:14<04:38,  5.36s/it]Train -ELBO: 35.08561, Val -ELBO: 35.21389:  74%|███████▍  | 149/200 [13:19<04:33,  5.36s/it]Train -ELBO: 35.10515, Val -ELBO: 35.22860:  75%|███████▌  | 150/200 [13:25<04:28,  5.36s/it]Train -ELBO: 35.09549, Val -ELBO: 35.20287:  76%|███████▌  | 151/200 [13:30<04:23,  5.37s/it]Train -ELBO: 35.09458, Val -ELBO: 35.21671:  76%|███████▌  | 152/200 [13:35<04:17,  5.37s/it]Train -ELBO: 35.08802, Val -ELBO: 35.20349:  76%|███████▋  | 153/200 [13:41<04:12,  5.37s/it]Epoch   154: reducing learning rate of group 0 to 1.0000e-04.
Train -ELBO: 35.09267, Val -ELBO: 35.18372:  77%|███████▋  | 154/200 [13:46<04:06,  5.36s/it]Train -ELBO: 35.03016, Val -ELBO: 35.14452:  78%|███████▊  | 155/200 [13:52<04:01,  5.37s/it]Train -ELBO: 35.01653, Val -ELBO: 35.14096:  78%|███████▊  | 156/200 [13:57<03:55,  5.36s/it]Train -ELBO: 35.01973, Val -ELBO: 35.14404:  78%|███████▊  | 157/200 [14:02<03:50,  5.36s/it]Train -ELBO: 35.01413, Val -ELBO: 35.13772:  79%|███████▉  | 158/200 [14:08<03:44,  5.36s/it]Train -ELBO: 35.01585, Val -ELBO: 35.14441:  80%|███████▉  | 159/200 [14:13<03:40,  5.38s/it]Train -ELBO: 35.01251, Val -ELBO: 35.14404:  80%|████████  | 160/200 [14:18<03:34,  5.37s/it]Train -ELBO: 35.01413, Val -ELBO: 35.13199:  80%|████████  | 161/200 [14:24<03:29,  5.37s/it]Train -ELBO: 35.01457, Val -ELBO: 35.13330:  81%|████████  | 162/200 [14:29<03:23,  5.36s/it]Train -ELBO: 35.01267, Val -ELBO: 35.13594:  82%|████████▏ | 163/200 [14:35<03:18,  5.37s/it]Train -ELBO: 35.01575, Val -ELBO: 35.13301:  82%|████████▏ | 164/200 [14:40<03:13,  5.37s/it]Train -ELBO: 35.01168, Val -ELBO: 35.14035:  82%|████████▎ | 165/200 [14:45<03:07,  5.36s/it]Train -ELBO: 35.01431, Val -ELBO: 35.13555:  83%|████████▎ | 166/200 [14:51<03:02,  5.37s/it]Train -ELBO: 35.01551, Val -ELBO: 35.14229:  84%|████████▎ | 167/200 [14:56<02:56,  5.36s/it]Train -ELBO: 35.01229, Val -ELBO: 35.13131:  84%|████████▍ | 168/200 [15:01<02:51,  5.37s/it]Train -ELBO: 35.01270, Val -ELBO: 35.13376:  84%|████████▍ | 169/200 [15:07<02:45,  5.35s/it]Train -ELBO: 35.01013, Val -ELBO: 35.13838:  85%|████████▌ | 170/200 [15:12<02:41,  5.38s/it]Train -ELBO: 35.01317, Val -ELBO: 35.13566:  86%|████████▌ | 171/200 [15:17<02:36,  5.39s/it]Train -ELBO: 35.01329, Val -ELBO: 35.13513:  86%|████████▌ | 172/200 [15:23<02:30,  5.38s/it]Train -ELBO: 35.01214, Val -ELBO: 35.13574:  86%|████████▋ | 173/200 [15:28<02:24,  5.37s/it]Train -ELBO: 35.01327, Val -ELBO: 35.14588:  87%|████████▋ | 174/200 [15:34<02:19,  5.37s/it]Train -ELBO: 35.01548, Val -ELBO: 35.14242:  88%|████████▊ | 175/200 [15:39<02:14,  5.37s/it]Train -ELBO: 35.01304, Val -ELBO: 35.14069:  88%|████████▊ | 176/200 [15:44<02:08,  5.37s/it]Train -ELBO: 35.01074, Val -ELBO: 35.14212:  88%|████████▊ | 177/200 [15:50<02:03,  5.37s/it]Train -ELBO: 35.01372, Val -ELBO: 35.13589:  89%|████████▉ | 178/200 [15:55<01:58,  5.37s/it]Train -ELBO: 35.01115, Val -ELBO: 35.13631:  90%|████████▉ | 179/200 [16:00<01:52,  5.37s/it]Train -ELBO: 35.01496, Val -ELBO: 35.13973:  90%|█████████ | 180/200 [16:06<01:47,  5.37s/it]Epoch   181: reducing learning rate of group 0 to 1.0000e-05.
Train -ELBO: 35.01481, Val -ELBO: 35.13515:  90%|█████████ | 181/200 [16:11<01:42,  5.38s/it]Train -ELBO: 35.00717, Val -ELBO: 35.13254:  91%|█████████ | 182/200 [16:17<01:36,  5.38s/it]Train -ELBO: 35.00547, Val -ELBO: 35.13255:  92%|█████████▏| 183/200 [16:22<01:31,  5.38s/it]Train -ELBO: 35.00743, Val -ELBO: 35.13054:  92%|█████████▏| 184/200 [16:27<01:25,  5.36s/it]Train -ELBO: 35.00741, Val -ELBO: 35.13306:  92%|█████████▎| 185/200 [16:33<01:20,  5.38s/it]Train -ELBO: 35.00394, Val -ELBO: 35.13311:  93%|█████████▎| 186/200 [16:38<01:15,  5.36s/it]Train -ELBO: 35.00559, Val -ELBO: 35.13371:  94%|█████████▎| 187/200 [16:43<01:09,  5.36s/it]Train -ELBO: 35.00318, Val -ELBO: 35.12936:  94%|█████████▍| 188/200 [16:49<01:04,  5.35s/it]Train -ELBO: 35.00591, Val -ELBO: 35.12699:  94%|█████████▍| 189/200 [16:54<00:58,  5.36s/it]Train -ELBO: 35.00282, Val -ELBO: 35.12993:  95%|█████████▌| 190/200 [16:59<00:53,  5.36s/it]Train -ELBO: 35.00317, Val -ELBO: 35.13614:  96%|█████████▌| 191/200 [17:05<00:48,  5.39s/it]Train -ELBO: 35.00494, Val -ELBO: 35.12982:  96%|█████████▌| 192/200 [17:10<00:43,  5.40s/it]Train -ELBO: 35.00373, Val -ELBO: 35.13647:  96%|█████████▋| 193/200 [17:16<00:37,  5.38s/it]Train -ELBO: 35.00235, Val -ELBO: 35.12950:  97%|█████████▋| 194/200 [17:21<00:32,  5.38s/it]Train -ELBO: 35.00835, Val -ELBO: 35.13044:  98%|█████████▊| 195/200 [17:26<00:26,  5.37s/it]Train -ELBO: 35.00261, Val -ELBO: 35.12893:  98%|█████████▊| 196/200 [17:32<00:21,  5.37s/it]Train -ELBO: 35.00267, Val -ELBO: 35.12739:  98%|█████████▊| 197/200 [17:37<00:16,  5.36s/it]Train -ELBO: 35.00206, Val -ELBO: 35.13455:  99%|█████████▉| 198/200 [17:42<00:10,  5.36s/it]Train -ELBO: 35.00243, Val -ELBO: 35.12868: 100%|█████████▉| 199/200 [17:48<00:05,  5.36s/it]Train -ELBO: 35.00408, Val -ELBO: 35.12994: 100%|██████████| 200/200 [17:53<00:00,  5.38s/it]Train -ELBO: 35.00408, Val -ELBO: 35.12994: 100%|██████████| 200/200 [17:53<00:00,  5.37s/it]
