INFO - residual_nf - Running command 'run'
INFO - residual_nf - Started run with ID "5"
[CONFIG] {'bn': 'mehra-real', 'structure': 'faithful', 'coeff': 0.99, 'n_power_iterations': 5, 'num_blocks': 10, 'hidden_dims': [100], 'activation': 'lipswish', 'grad_in_forward': True, 'batch_size': 100, 'num_train_samples': 10000, 'num_val_samples': 5000, 'num_epochs': 300, 'num_train_batches': 100, 'num_val_batches': 50, 'lr': 0.01, 'seed': 4, 'patience': 20, 'double': True, 'run': 1, 'checkpoint_n': 10, 'load_from_checkpoint': False, 'ex_name': 'residual_nf_density_estimation', 'sub_folder': 'faithful_99_lipswish_10_[100]', 'path': './experiment_logs/residual_nf_density_estimation/mehra-real/faithful_99_lipswish_10_[100]', 'bt_config': {'depth': 5, 'seed': 4}}
[DEVICE] cpu
[LOADING DATA] Mehra
[ENCODED STRUCTURE] Using faithful BN structure.
  0%|          | 0/300 [00:00<?, ?it/s]Train NLL: 12.160, Val NLL: 11.764:   0%|          | 1/300 [00:01<08:54,  1.79s/it]Train NLL: 11.685, Val NLL: 11.655:   1%|          | 2/300 [00:04<10:11,  2.05s/it]Train NLL: 11.560, Val NLL: 11.468:   1%|          | 3/300 [00:06<10:25,  2.10s/it]Train NLL: 11.429, Val NLL: 11.458:   1%|▏         | 4/300 [00:08<09:49,  1.99s/it]Train NLL: 11.376, Val NLL: 11.360:   2%|▏         | 5/300 [00:09<09:14,  1.88s/it]Train NLL: 11.337, Val NLL: 11.366:   2%|▏         | 6/300 [00:11<09:07,  1.86s/it]Train NLL: 11.277, Val NLL: 11.341:   2%|▏         | 7/300 [00:13<09:13,  1.89s/it]Train NLL: 11.265, Val NLL: 11.339:   3%|▎         | 8/300 [00:15<08:53,  1.83s/it]Train NLL: 11.233, Val NLL: 11.333:   3%|▎         | 9/300 [00:17<09:14,  1.90s/it]Train NLL: 11.178, Val NLL: 11.293:   3%|▎         | 10/300 [00:19<09:36,  1.99s/it]Train NLL: 11.176, Val NLL: 11.290:   4%|▎         | 11/300 [00:21<09:17,  1.93s/it]Train NLL: 11.200, Val NLL: 11.331:   4%|▍         | 12/300 [00:23<09:23,  1.96s/it]Train NLL: 11.165, Val NLL: 11.248:   4%|▍         | 13/300 [00:25<09:20,  1.95s/it]Train NLL: 11.140, Val NLL: 11.234:   5%|▍         | 14/300 [00:27<09:24,  1.97s/it]Train NLL: 11.141, Val NLL: 11.219:   5%|▌         | 15/300 [00:29<10:07,  2.13s/it]Train NLL: 11.138, Val NLL: 11.296:   5%|▌         | 16/300 [00:31<09:27,  2.00s/it]Train NLL: 11.162, Val NLL: 11.226:   6%|▌         | 17/300 [00:33<09:26,  2.00s/it]Train NLL: 11.135, Val NLL: 11.206:   6%|▌         | 18/300 [00:35<09:18,  1.98s/it]Train NLL: 11.127, Val NLL: 11.227:   6%|▋         | 19/300 [00:37<09:03,  1.94s/it]Train NLL: 11.114, Val NLL: 11.239:   7%|▋         | 20/300 [00:38<08:53,  1.91s/it]Train NLL: 11.112, Val NLL: 11.203:   7%|▋         | 21/300 [00:40<08:49,  1.90s/it]Train NLL: 11.102, Val NLL: 11.195:   7%|▋         | 22/300 [00:42<08:44,  1.89s/it]Train NLL: 11.099, Val NLL: 11.206:   8%|▊         | 23/300 [00:44<09:04,  1.97s/it]Train NLL: 11.104, Val NLL: 11.186:   8%|▊         | 24/300 [00:46<09:14,  2.01s/it]Train NLL: 11.095, Val NLL: 11.196:   8%|▊         | 25/300 [00:49<09:17,  2.03s/it]Train NLL: 11.071, Val NLL: 11.193:   9%|▊         | 26/300 [00:50<08:50,  1.94s/it]Train NLL: 11.082, Val NLL: 11.199:   9%|▉         | 27/300 [00:52<08:38,  1.90s/it]Train NLL: 11.067, Val NLL: 11.186:   9%|▉         | 28/300 [00:54<08:45,  1.93s/it]Train NLL: 11.073, Val NLL: 11.168:  10%|▉         | 29/300 [00:56<08:25,  1.87s/it]Train NLL: 11.081, Val NLL: 11.183:  10%|█         | 30/300 [00:57<08:08,  1.81s/it]Train NLL: 11.076, Val NLL: 11.173:  10%|█         | 31/300 [00:59<08:07,  1.81s/it]Train NLL: 11.082, Val NLL: 11.174:  11%|█         | 32/300 [01:01<08:29,  1.90s/it]Train NLL: 11.041, Val NLL: 11.175:  11%|█         | 33/300 [01:03<08:17,  1.86s/it]Train NLL: 11.044, Val NLL: 11.180:  11%|█▏        | 34/300 [01:05<08:39,  1.95s/it]Train NLL: 11.045, Val NLL: 11.181:  12%|█▏        | 35/300 [01:07<08:30,  1.93s/it]Train NLL: 11.065, Val NLL: 11.183:  12%|█▏        | 36/300 [01:09<08:15,  1.88s/it]Train NLL: 11.060, Val NLL: 11.197:  12%|█▏        | 37/300 [01:11<07:55,  1.81s/it]Train NLL: 11.051, Val NLL: 11.220:  13%|█▎        | 38/300 [01:12<07:40,  1.76s/it]Train NLL: 11.052, Val NLL: 11.134:  13%|█▎        | 39/300 [01:14<07:38,  1.76s/it]Train NLL: 11.038, Val NLL: 11.117:  13%|█▎        | 40/300 [01:16<08:04,  1.86s/it]Train NLL: 11.021, Val NLL: 11.134:  14%|█▎        | 41/300 [01:18<08:35,  1.99s/it]Train NLL: 11.034, Val NLL: 11.182:  14%|█▍        | 42/300 [01:21<09:00,  2.09s/it]Train NLL: 11.038, Val NLL: 11.160:  14%|█▍        | 43/300 [01:23<09:02,  2.11s/it]Train NLL: 11.027, Val NLL: 11.180:  15%|█▍        | 44/300 [01:25<08:27,  1.98s/it]Train NLL: 11.050, Val NLL: 11.191:  15%|█▌        | 45/300 [01:26<08:17,  1.95s/it]Train NLL: 11.017, Val NLL: 11.123:  15%|█▌        | 46/300 [01:28<08:00,  1.89s/it]Train NLL: 11.016, Val NLL: 11.123:  16%|█▌        | 47/300 [01:31<08:31,  2.02s/it]Train NLL: 11.012, Val NLL: 11.155:  16%|█▌        | 48/300 [01:32<08:10,  1.95s/it]Train NLL: 11.045, Val NLL: 11.154:  16%|█▋        | 49/300 [01:34<07:53,  1.89s/it]Train NLL: 11.005, Val NLL: 11.104:  17%|█▋        | 50/300 [01:36<07:40,  1.84s/it]Train NLL: 11.011, Val NLL: 11.135:  17%|█▋        | 51/300 [01:38<07:32,  1.82s/it]Train NLL: 11.037, Val NLL: 11.136:  17%|█▋        | 52/300 [01:39<07:27,  1.81s/it]Train NLL: 11.012, Val NLL: 11.106:  18%|█▊        | 53/300 [01:42<08:02,  1.95s/it]Train NLL: 10.991, Val NLL: 11.106:  18%|█▊        | 54/300 [01:44<08:01,  1.96s/it]Train NLL: 11.003, Val NLL: 11.207:  18%|█▊        | 55/300 [01:45<07:47,  1.91s/it]Train NLL: 11.010, Val NLL: 11.113:  19%|█▊        | 56/300 [01:47<07:46,  1.91s/it]Train NLL: 11.001, Val NLL: 11.251:  19%|█▉        | 57/300 [01:49<07:27,  1.84s/it]Train NLL: 11.009, Val NLL: 11.108:  19%|█▉        | 58/300 [01:51<07:14,  1.79s/it]Train NLL: 11.012, Val NLL: 11.143:  20%|█▉        | 59/300 [01:53<07:33,  1.88s/it]Train NLL: 10.990, Val NLL: 11.115:  20%|██        | 60/300 [01:55<08:20,  2.08s/it]Train NLL: 10.996, Val NLL: 11.171:  20%|██        | 61/300 [01:57<07:50,  1.97s/it]Train NLL: 11.004, Val NLL: 11.117:  21%|██        | 62/300 [01:59<07:27,  1.88s/it]Train NLL: 11.004, Val NLL: 11.137:  21%|██        | 63/300 [02:00<07:18,  1.85s/it]Train NLL: 11.016, Val NLL: 11.118:  21%|██▏       | 64/300 [02:02<07:19,  1.86s/it]Train NLL: 10.972, Val NLL: 11.126:  22%|██▏       | 65/300 [02:04<07:20,  1.87s/it]Train NLL: 11.028, Val NLL: 11.130:  22%|██▏       | 66/300 [02:06<07:10,  1.84s/it]Train NLL: 10.995, Val NLL: 11.132:  22%|██▏       | 67/300 [02:08<07:32,  1.94s/it]Train NLL: 11.010, Val NLL: 11.159:  23%|██▎       | 68/300 [02:10<07:24,  1.91s/it]Train NLL: 10.982, Val NLL: 11.106:  23%|██▎       | 69/300 [02:12<07:23,  1.92s/it]Train NLL: 10.980, Val NLL: 11.150:  23%|██▎       | 70/300 [02:14<07:12,  1.88s/it]Train NLL: 10.999, Val NLL: 11.114:  24%|██▎       | 71/300 [02:16<07:02,  1.84s/it]Train NLL: 10.980, Val NLL: 11.162:  24%|██▍       | 72/300 [02:17<06:52,  1.81s/it]Train NLL: 10.993, Val NLL: 11.098:  24%|██▍       | 73/300 [02:19<06:59,  1.85s/it]Train NLL: 10.977, Val NLL: 11.085:  25%|██▍       | 74/300 [02:21<07:20,  1.95s/it]Train NLL: 10.990, Val NLL: 11.096:  25%|██▌       | 75/300 [02:23<07:05,  1.89s/it]Train NLL: 11.007, Val NLL: 11.150:  25%|██▌       | 76/300 [02:25<07:12,  1.93s/it]Train NLL: 10.988, Val NLL: 11.138:  26%|██▌       | 77/300 [02:27<06:59,  1.88s/it]Train NLL: 10.996, Val NLL: 11.128:  26%|██▌       | 78/300 [02:29<06:50,  1.85s/it]Train NLL: 10.994, Val NLL: 11.129:  26%|██▋       | 79/300 [02:30<06:44,  1.83s/it]Train NLL: 10.997, Val NLL: 11.093:  27%|██▋       | 80/300 [02:33<07:09,  1.95s/it]Train NLL: 10.983, Val NLL: 11.119:  27%|██▋       | 81/300 [02:35<07:19,  2.01s/it]Train NLL: 10.985, Val NLL: 11.095:  27%|██▋       | 82/300 [02:37<07:10,  1.98s/it]Train NLL: 10.971, Val NLL: 11.093:  28%|██▊       | 83/300 [02:39<06:59,  1.93s/it]Train NLL: 10.963, Val NLL: 11.091:  28%|██▊       | 84/300 [02:41<07:19,  2.03s/it]Train NLL: 10.966, Val NLL: 11.101:  28%|██▊       | 85/300 [02:43<06:59,  1.95s/it]Train NLL: 10.978, Val NLL: 11.166:  29%|██▊       | 86/300 [02:45<07:04,  1.98s/it]Train NLL: 10.984, Val NLL: 11.156:  29%|██▉       | 87/300 [02:47<06:52,  1.94s/it]Train NLL: 10.979, Val NLL: 11.132:  29%|██▉       | 88/300 [02:49<07:12,  2.04s/it]Train NLL: 10.969, Val NLL: 11.092:  30%|██▉       | 89/300 [02:51<07:07,  2.03s/it]Train NLL: 10.969, Val NLL: 11.114:  30%|███       | 90/300 [02:53<07:14,  2.07s/it]Train NLL: 10.988, Val NLL: 11.107:  30%|███       | 91/300 [02:55<07:21,  2.11s/it]Train NLL: 10.983, Val NLL: 11.149:  31%|███       | 92/300 [02:57<07:13,  2.09s/it]Train NLL: 10.989, Val NLL: 11.106:  31%|███       | 93/300 [02:59<07:01,  2.04s/it]Train NLL: 10.964, Val NLL: 11.124:  31%|███▏      | 94/300 [03:01<07:12,  2.10s/it]Train NLL: 10.969, Val NLL: 11.109:  32%|███▏      | 95/300 [03:03<07:06,  2.08s/it]Train NLL: 10.962, Val NLL: 11.088:  32%|███▏      | 96/300 [03:05<06:59,  2.06s/it]Train NLL: 10.953, Val NLL: 11.072:  32%|███▏      | 97/300 [03:07<06:48,  2.01s/it]Train NLL: 10.961, Val NLL: 11.114:  33%|███▎      | 98/300 [03:10<07:23,  2.20s/it]Train NLL: 10.975, Val NLL: 11.080:  33%|███▎      | 99/300 [03:12<07:26,  2.22s/it]Train NLL: 10.960, Val NLL: 11.089:  33%|███▎      | 100/300 [03:15<07:31,  2.26s/it]Train NLL: 10.957, Val NLL: 11.078:  34%|███▎      | 101/300 [03:17<07:28,  2.25s/it]Train NLL: 10.975, Val NLL: 11.086:  34%|███▍      | 102/300 [03:19<07:15,  2.20s/it]Train NLL: 10.966, Val NLL: 11.087:  34%|███▍      | 103/300 [03:22<07:43,  2.35s/it]Train NLL: 10.961, Val NLL: 11.068:  35%|███▍      | 104/300 [03:24<07:24,  2.27s/it]Train NLL: 10.955, Val NLL: 11.129:  35%|███▌      | 105/300 [03:26<07:13,  2.22s/it]Train NLL: 10.955, Val NLL: 11.081:  35%|███▌      | 106/300 [03:28<06:57,  2.15s/it]Train NLL: 10.967, Val NLL: 11.126:  36%|███▌      | 107/300 [03:30<06:48,  2.12s/it]Train NLL: 10.964, Val NLL: 11.090:  36%|███▌      | 108/300 [03:32<06:38,  2.07s/it]Train NLL: 10.945, Val NLL: 11.089:  36%|███▋      | 109/300 [03:34<06:36,  2.08s/it]Train NLL: 10.967, Val NLL: 11.150:  37%|███▋      | 110/300 [03:37<07:19,  2.32s/it]Train NLL: 10.950, Val NLL: 11.104:  37%|███▋      | 111/300 [03:39<06:52,  2.18s/it]Train NLL: 10.962, Val NLL: 11.110:  37%|███▋      | 112/300 [03:41<06:43,  2.14s/it]Train NLL: 10.966, Val NLL: 11.108:  38%|███▊      | 113/300 [03:43<06:31,  2.09s/it]Train NLL: 10.947, Val NLL: 11.097:  38%|███▊      | 114/300 [03:45<06:28,  2.09s/it]Train NLL: 10.969, Val NLL: 11.127:  38%|███▊      | 115/300 [03:47<06:18,  2.05s/it]Train NLL: 10.955, Val NLL: 11.122:  39%|███▊      | 116/300 [03:49<06:20,  2.07s/it]Train NLL: 10.975, Val NLL: 11.121:  39%|███▉      | 117/300 [03:51<06:36,  2.17s/it]Train NLL: 10.947, Val NLL: 11.126:  39%|███▉      | 118/300 [03:53<06:35,  2.18s/it]Train NLL: 10.936, Val NLL: 11.050:  40%|███▉      | 119/300 [03:55<06:14,  2.07s/it]Train NLL: 10.939, Val NLL: 11.088:  40%|████      | 120/300 [03:57<06:07,  2.04s/it]Train NLL: 10.950, Val NLL: 11.144:  40%|████      | 121/300 [03:59<06:20,  2.13s/it]Train NLL: 10.955, Val NLL: 11.110:  41%|████      | 122/300 [04:02<06:15,  2.11s/it]Train NLL: 10.949, Val NLL: 11.111:  41%|████      | 123/300 [04:03<05:57,  2.02s/it]Train NLL: 10.961, Val NLL: 11.074:  41%|████▏     | 124/300 [04:05<05:59,  2.04s/it]Train NLL: 10.941, Val NLL: 11.100:  42%|████▏     | 125/300 [04:07<05:52,  2.01s/it]Train NLL: 10.949, Val NLL: 11.075:  42%|████▏     | 126/300 [04:09<05:32,  1.91s/it]Train NLL: 10.950, Val NLL: 11.108:  42%|████▏     | 127/300 [04:11<05:21,  1.86s/it]Train NLL: 10.968, Val NLL: 11.123:  43%|████▎     | 128/300 [04:13<05:28,  1.91s/it]Train NLL: 10.959, Val NLL: 11.087:  43%|████▎     | 129/300 [04:15<05:35,  1.96s/it]Train NLL: 10.948, Val NLL: 11.090:  43%|████▎     | 130/300 [04:17<05:24,  1.91s/it]Train NLL: 10.949, Val NLL: 11.121:  44%|████▎     | 131/300 [04:18<05:16,  1.87s/it]Train NLL: 10.941, Val NLL: 11.082:  44%|████▍     | 132/300 [04:20<05:15,  1.88s/it]Train NLL: 10.945, Val NLL: 11.072:  44%|████▍     | 133/300 [04:22<05:14,  1.89s/it]Train NLL: 10.951, Val NLL: 11.091:  45%|████▍     | 134/300 [04:24<05:06,  1.85s/it]Train NLL: 10.928, Val NLL: 11.067:  45%|████▌     | 135/300 [04:26<05:08,  1.87s/it]Train NLL: 10.983, Val NLL: 11.094:  45%|████▌     | 136/300 [04:28<05:04,  1.85s/it]Train NLL: 10.940, Val NLL: 11.101:  46%|████▌     | 137/300 [04:30<04:59,  1.84s/it]Train NLL: 10.947, Val NLL: 11.075:  46%|████▌     | 138/300 [04:31<04:57,  1.84s/it]Train NLL: 10.951, Val NLL: 11.128:  46%|████▋     | 139/300 [04:34<05:16,  1.97s/it]Train NLL: 10.959, Val NLL: 11.076:  47%|████▋     | 140/300 [04:36<05:44,  2.15s/it]Train NLL: 10.936, Val NLL: 11.117:  47%|████▋     | 141/300 [04:39<05:48,  2.19s/it]Train NLL: 10.945, Val NLL: 11.104:  47%|████▋     | 142/300 [04:40<05:28,  2.08s/it]Train NLL: 10.948, Val NLL: 11.096:  48%|████▊     | 143/300 [04:42<05:16,  2.01s/it]Train NLL: 10.956, Val NLL: 11.108:  48%|████▊     | 144/300 [04:45<05:26,  2.09s/it]Train NLL: 10.936, Val NLL: 11.068:  48%|████▊     | 145/300 [04:46<05:13,  2.02s/it]Train NLL: 10.962, Val NLL: 11.093:  49%|████▊     | 146/300 [04:48<05:08,  2.01s/it]Train NLL: 10.930, Val NLL: 11.072:  49%|████▉     | 147/300 [04:51<05:16,  2.07s/it]Train NLL: 10.941, Val NLL: 11.113:  49%|████▉     | 148/300 [04:53<05:16,  2.08s/it]Train NLL: 10.959, Val NLL: 11.072:  50%|████▉     | 149/300 [04:55<05:11,  2.07s/it]Train NLL: 10.935, Val NLL: 11.105:  50%|█████     | 150/300 [04:57<05:03,  2.02s/it]Train NLL: 10.945, Val NLL: 11.084:  50%|█████     | 151/300 [04:59<05:10,  2.08s/it]Train NLL: 10.940, Val NLL: 11.115:  51%|█████     | 152/300 [05:01<05:10,  2.10s/it]Train NLL: 10.955, Val NLL: 11.087:  51%|█████     | 153/300 [05:03<05:09,  2.11s/it]Train NLL: 10.929, Val NLL: 11.111:  51%|█████▏    | 154/300 [05:05<04:54,  2.02s/it]Train NLL: 10.933, Val NLL: 11.120:  52%|█████▏    | 155/300 [05:07<04:59,  2.06s/it]Epoch   156: reducing learning rate of group 0 to 1.0000e-03.
Train NLL: 10.958, Val NLL: 11.085:  52%|█████▏    | 156/300 [05:09<05:00,  2.08s/it]Train NLL: 10.887, Val NLL: 11.048:  52%|█████▏    | 157/300 [05:11<04:55,  2.06s/it]Train NLL: 10.868, Val NLL: 11.042:  53%|█████▎    | 158/300 [05:13<04:38,  1.96s/it]Train NLL: 10.866, Val NLL: 11.041:  53%|█████▎    | 159/300 [05:15<04:33,  1.94s/it]Train NLL: 10.865, Val NLL: 11.045:  53%|█████▎    | 160/300 [05:17<04:37,  1.98s/it]Train NLL: 10.863, Val NLL: 11.039:  54%|█████▎    | 161/300 [05:19<04:32,  1.96s/it]Train NLL: 10.865, Val NLL: 11.045:  54%|█████▍    | 162/300 [05:21<04:23,  1.91s/it]Train NLL: 10.862, Val NLL: 11.042:  54%|█████▍    | 163/300 [05:23<04:43,  2.07s/it]Train NLL: 10.864, Val NLL: 11.036:  55%|█████▍    | 164/300 [05:25<04:42,  2.08s/it]Train NLL: 10.863, Val NLL: 11.040:  55%|█████▌    | 165/300 [05:27<04:32,  2.02s/it]Train NLL: 10.859, Val NLL: 11.035:  55%|█████▌    | 166/300 [05:29<04:31,  2.03s/it]Train NLL: 10.860, Val NLL: 11.045:  56%|█████▌    | 167/300 [05:31<04:35,  2.07s/it]Train NLL: 10.864, Val NLL: 11.035:  56%|█████▌    | 168/300 [05:33<04:36,  2.09s/it]Train NLL: 10.861, Val NLL: 11.038:  56%|█████▋    | 169/300 [05:35<04:22,  2.00s/it]Train NLL: 10.860, Val NLL: 11.033:  57%|█████▋    | 170/300 [05:37<04:09,  1.92s/it]Train NLL: 10.859, Val NLL: 11.038:  57%|█████▋    | 171/300 [05:39<04:19,  2.01s/it]Train NLL: 10.862, Val NLL: 11.032:  57%|█████▋    | 172/300 [05:41<04:26,  2.08s/it]Train NLL: 10.859, Val NLL: 11.035:  58%|█████▊    | 173/300 [05:43<04:21,  2.06s/it]Train NLL: 10.858, Val NLL: 11.039:  58%|█████▊    | 174/300 [05:45<04:05,  1.95s/it]Train NLL: 10.859, Val NLL: 11.034:  58%|█████▊    | 175/300 [05:47<04:01,  1.93s/it]Train NLL: 10.860, Val NLL: 11.038:  59%|█████▊    | 176/300 [05:49<03:59,  1.93s/it]Train NLL: 10.859, Val NLL: 11.043:  59%|█████▉    | 177/300 [05:51<03:58,  1.94s/it]Train NLL: 10.862, Val NLL: 11.037:  59%|█████▉    | 178/300 [05:53<03:58,  1.95s/it]Train NLL: 10.861, Val NLL: 11.037:  60%|█████▉    | 179/300 [05:55<04:05,  2.03s/it]Train NLL: 10.857, Val NLL: 11.035:  60%|██████    | 180/300 [05:57<04:10,  2.08s/it]Train NLL: 10.857, Val NLL: 11.039:  60%|██████    | 181/300 [05:59<03:54,  1.97s/it]Train NLL: 10.857, Val NLL: 11.034:  61%|██████    | 182/300 [06:01<03:57,  2.01s/it]Train NLL: 10.858, Val NLL: 11.040:  61%|██████    | 183/300 [06:03<03:55,  2.01s/it]Train NLL: 10.857, Val NLL: 11.039:  61%|██████▏   | 184/300 [06:05<03:55,  2.03s/it]Train NLL: 10.859, Val NLL: 11.033:  62%|██████▏   | 185/300 [06:07<03:52,  2.02s/it]Train NLL: 10.859, Val NLL: 11.032:  62%|██████▏   | 186/300 [06:09<03:59,  2.10s/it]Train NLL: 10.859, Val NLL: 11.033:  62%|██████▏   | 187/300 [06:12<04:03,  2.15s/it]Train NLL: 10.858, Val NLL: 11.037:  63%|██████▎   | 188/300 [06:14<03:59,  2.14s/it]Train NLL: 10.861, Val NLL: 11.050:  63%|██████▎   | 189/300 [06:17<04:18,  2.33s/it]Train NLL: 10.858, Val NLL: 11.034:  63%|██████▎   | 190/300 [06:19<04:18,  2.35s/it]Train NLL: 10.859, Val NLL: 11.043:  64%|██████▎   | 191/300 [06:21<04:09,  2.29s/it]Train NLL: 10.858, Val NLL: 11.033:  64%|██████▍   | 192/300 [06:23<03:57,  2.19s/it]Train NLL: 10.858, Val NLL: 11.039:  64%|██████▍   | 193/300 [06:25<03:47,  2.12s/it]Train NLL: 10.855, Val NLL: 11.039:  65%|██████▍   | 194/300 [06:27<03:44,  2.12s/it]Train NLL: 10.859, Val NLL: 11.034:  65%|██████▌   | 195/300 [06:29<03:40,  2.10s/it]Train NLL: 10.857, Val NLL: 11.033:  65%|██████▌   | 196/300 [06:31<03:28,  2.01s/it]Train NLL: 10.856, Val NLL: 11.037:  66%|██████▌   | 197/300 [06:33<03:14,  1.89s/it]Train NLL: 10.857, Val NLL: 11.039:  66%|██████▌   | 198/300 [06:34<03:06,  1.83s/it]Train NLL: 10.855, Val NLL: 11.043:  66%|██████▋   | 199/300 [06:36<03:03,  1.82s/it]Train NLL: 10.855, Val NLL: 11.035:  67%|██████▋   | 200/300 [06:38<03:03,  1.84s/it]Train NLL: 10.854, Val NLL: 11.034:  67%|██████▋   | 201/300 [06:40<03:01,  1.83s/it]Train NLL: 10.857, Val NLL: 11.036:  67%|██████▋   | 202/300 [06:42<03:06,  1.90s/it]Train NLL: 10.856, Val NLL: 11.034:  68%|██████▊   | 203/300 [06:44<03:02,  1.88s/it]Train NLL: 10.856, Val NLL: 11.041:  68%|██████▊   | 204/300 [06:46<02:57,  1.85s/it]Train NLL: 10.855, Val NLL: 11.036:  68%|██████▊   | 205/300 [06:48<03:02,  1.92s/it]Train NLL: 10.857, Val NLL: 11.040:  69%|██████▊   | 206/300 [06:49<02:55,  1.87s/it]Train NLL: 10.856, Val NLL: 11.046:  69%|██████▉   | 207/300 [06:51<02:56,  1.90s/it]Train NLL: 10.859, Val NLL: 11.039:  69%|██████▉   | 208/300 [06:53<02:54,  1.89s/it]Train NLL: 10.856, Val NLL: 11.033:  70%|██████▉   | 209/300 [06:55<02:50,  1.87s/it]Train NLL: 10.854, Val NLL: 11.040:  70%|███████   | 210/300 [06:57<02:49,  1.88s/it]Train NLL: 10.855, Val NLL: 11.044:  70%|███████   | 211/300 [06:59<02:51,  1.93s/it]Train NLL: 10.855, Val NLL: 11.038:  71%|███████   | 212/300 [07:01<02:45,  1.88s/it]Train NLL: 10.855, Val NLL: 11.032:  71%|███████   | 213/300 [07:03<02:51,  1.98s/it]Train NLL: 10.855, Val NLL: 11.030:  71%|███████▏  | 214/300 [07:05<02:50,  1.99s/it]Train NLL: 10.855, Val NLL: 11.032:  72%|███████▏  | 215/300 [07:07<02:49,  1.99s/it]Train NLL: 10.855, Val NLL: 11.037:  72%|███████▏  | 216/300 [07:09<02:49,  2.01s/it]Train NLL: 10.853, Val NLL: 11.039:  72%|███████▏  | 217/300 [07:11<02:42,  1.96s/it]Train NLL: 10.858, Val NLL: 11.041:  73%|███████▎  | 218/300 [07:13<02:38,  1.94s/it]Train NLL: 10.858, Val NLL: 11.037:  73%|███████▎  | 219/300 [07:15<02:36,  1.93s/it]Train NLL: 10.858, Val NLL: 11.038:  73%|███████▎  | 220/300 [07:16<02:28,  1.85s/it]Train NLL: 10.853, Val NLL: 11.041:  74%|███████▎  | 221/300 [07:18<02:27,  1.86s/it]Epoch   222: reducing learning rate of group 0 to 1.0000e-04.
Train NLL: 10.853, Val NLL: 11.039:  74%|███████▍  | 222/300 [07:20<02:27,  1.89s/it]Train NLL: 10.847, Val NLL: 11.033:  74%|███████▍  | 223/300 [07:22<02:32,  1.99s/it]Train NLL: 10.845, Val NLL: 11.032:  75%|███████▍  | 224/300 [07:25<02:39,  2.10s/it]Train NLL: 10.844, Val NLL: 11.032:  75%|███████▌  | 225/300 [07:27<02:37,  2.10s/it]Train NLL: 10.844, Val NLL: 11.033:  75%|███████▌  | 226/300 [07:29<02:29,  2.02s/it]Train NLL: 10.844, Val NLL: 11.032:  76%|███████▌  | 227/300 [07:31<02:23,  1.97s/it]Train NLL: 10.844, Val NLL: 11.032:  76%|███████▌  | 228/300 [07:32<02:20,  1.96s/it]Train NLL: 10.844, Val NLL: 11.032:  76%|███████▋  | 229/300 [07:34<02:20,  1.97s/it]Train NLL: 10.844, Val NLL: 11.032:  77%|███████▋  | 230/300 [07:37<02:19,  2.00s/it]Train NLL: 10.844, Val NLL: 11.032:  77%|███████▋  | 231/300 [07:38<02:15,  1.97s/it]Train NLL: 10.843, Val NLL: 11.032:  77%|███████▋  | 232/300 [07:40<02:12,  1.95s/it]Train NLL: 10.844, Val NLL: 11.031:  78%|███████▊  | 233/300 [07:42<02:05,  1.87s/it]Train NLL: 10.843, Val NLL: 11.032:  78%|███████▊  | 234/300 [07:44<02:00,  1.83s/it]Train NLL: 10.844, Val NLL: 11.032:  78%|███████▊  | 235/300 [07:46<02:00,  1.85s/it]Train NLL: 10.844, Val NLL: 11.032:  79%|███████▊  | 236/300 [07:48<02:04,  1.94s/it]Train NLL: 10.843, Val NLL: 11.032:  79%|███████▉  | 237/300 [07:50<02:03,  1.95s/it]Train NLL: 10.844, Val NLL: 11.032:  79%|███████▉  | 238/300 [07:52<01:57,  1.89s/it]Train NLL: 10.844, Val NLL: 11.032:  80%|███████▉  | 239/300 [07:53<01:52,  1.84s/it]Train NLL: 10.844, Val NLL: 11.031:  80%|████████  | 240/300 [07:55<01:48,  1.80s/it]Train NLL: 10.843, Val NLL: 11.032:  80%|████████  | 241/300 [07:57<01:49,  1.85s/it]Train NLL: 10.844, Val NLL: 11.032:  81%|████████  | 242/300 [07:59<01:51,  1.92s/it]Train NLL: 10.843, Val NLL: 11.032:  81%|████████  | 243/300 [08:01<01:49,  1.91s/it]Train NLL: 10.843, Val NLL: 11.031:  81%|████████▏ | 244/300 [08:03<01:43,  1.85s/it]Train NLL: 10.843, Val NLL: 11.032:  82%|████████▏ | 245/300 [08:05<01:45,  1.91s/it]Train NLL: 10.844, Val NLL: 11.032:  82%|████████▏ | 246/300 [08:07<01:48,  2.01s/it]Train NLL: 10.843, Val NLL: 11.032:  82%|████████▏ | 247/300 [08:09<01:41,  1.91s/it]Train NLL: 10.843, Val NLL: 11.032:  83%|████████▎ | 248/300 [08:10<01:35,  1.84s/it]Train NLL: 10.843, Val NLL: 11.032:  83%|████████▎ | 249/300 [08:12<01:38,  1.93s/it]Train NLL: 10.843, Val NLL: 11.032:  83%|████████▎ | 250/300 [08:15<01:43,  2.07s/it]Train NLL: 10.843, Val NLL: 11.032:  84%|████████▎ | 251/300 [08:17<01:43,  2.11s/it]Train NLL: 10.843, Val NLL: 11.032:  84%|████████▍ | 252/300 [08:19<01:44,  2.18s/it]Epoch   253: reducing learning rate of group 0 to 1.0000e-05.
Train NLL: 10.843, Val NLL: 11.032:  84%|████████▍ | 253/300 [08:21<01:39,  2.11s/it]Train NLL: 10.842, Val NLL: 11.032:  85%|████████▍ | 254/300 [08:23<01:33,  2.03s/it]Train NLL: 10.842, Val NLL: 11.032:  85%|████████▌ | 255/300 [08:25<01:26,  1.92s/it]Train NLL: 10.842, Val NLL: 11.032:  85%|████████▌ | 256/300 [08:26<01:20,  1.84s/it]Train NLL: 10.842, Val NLL: 11.032:  86%|████████▌ | 257/300 [08:28<01:18,  1.83s/it]Train NLL: 10.842, Val NLL: 11.032:  86%|████████▌ | 258/300 [08:30<01:20,  1.92s/it]Train NLL: 10.842, Val NLL: 11.032:  86%|████████▋ | 259/300 [08:32<01:15,  1.85s/it]Train NLL: 10.842, Val NLL: 11.032:  87%|████████▋ | 260/300 [08:34<01:11,  1.80s/it]Train NLL: 10.842, Val NLL: 11.032:  87%|████████▋ | 261/300 [08:36<01:14,  1.91s/it]Train NLL: 10.842, Val NLL: 11.032:  87%|████████▋ | 262/300 [08:38<01:14,  1.97s/it]Train NLL: 10.842, Val NLL: 11.032:  88%|████████▊ | 263/300 [08:40<01:10,  1.91s/it]Train NLL: 10.842, Val NLL: 11.032:  88%|████████▊ | 264/300 [08:42<01:07,  1.87s/it]Train NLL: 10.842, Val NLL: 11.032:  88%|████████▊ | 265/300 [08:44<01:07,  1.92s/it]Train NLL: 10.842, Val NLL: 11.032:  89%|████████▊ | 266/300 [08:46<01:05,  1.93s/it]Train NLL: 10.842, Val NLL: 11.032:  89%|████████▉ | 267/300 [08:47<01:01,  1.88s/it]Train NLL: 10.842, Val NLL: 11.032:  89%|████████▉ | 268/300 [08:49<00:58,  1.82s/it]Train NLL: 10.842, Val NLL: 11.032:  90%|████████▉ | 269/300 [08:51<00:56,  1.83s/it]Train NLL: 10.842, Val NLL: 11.032:  90%|█████████ | 270/300 [08:53<00:54,  1.83s/it]Train NLL: 10.842, Val NLL: 11.032:  90%|█████████ | 271/300 [08:55<00:56,  1.95s/it]Train NLL: 10.842, Val NLL: 11.032:  91%|█████████ | 272/300 [08:57<00:55,  1.97s/it]Train NLL: 10.842, Val NLL: 11.032:  91%|█████████ | 273/300 [08:59<00:55,  2.06s/it]Train NLL: 10.842, Val NLL: 11.032:  91%|█████████▏| 274/300 [09:01<00:54,  2.09s/it]Epoch   275: reducing learning rate of group 0 to 1.0000e-06.
Train NLL: 10.842, Val NLL: 11.032:  92%|█████████▏| 275/300 [09:03<00:49,  1.96s/it]Train NLL: 10.842, Val NLL: 11.032:  92%|█████████▏| 276/300 [09:05<00:44,  1.87s/it]Train NLL: 10.842, Val NLL: 11.032:  92%|█████████▏| 277/300 [09:06<00:41,  1.80s/it]Train NLL: 10.842, Val NLL: 11.032:  93%|█████████▎| 278/300 [09:08<00:41,  1.87s/it]Train NLL: 10.842, Val NLL: 11.032:  93%|█████████▎| 279/300 [09:11<00:41,  1.99s/it]Train NLL: 10.842, Val NLL: 11.032:  93%|█████████▎| 280/300 [09:12<00:38,  1.90s/it]Train NLL: 10.842, Val NLL: 11.032:  94%|█████████▎| 281/300 [09:14<00:36,  1.91s/it]Train NLL: 10.842, Val NLL: 11.032:  94%|█████████▍| 282/300 [09:16<00:35,  1.96s/it]Train NLL: 10.842, Val NLL: 11.032:  94%|█████████▍| 283/300 [09:18<00:33,  1.96s/it]Train NLL: 10.842, Val NLL: 11.032:  95%|█████████▍| 284/300 [09:20<00:32,  2.00s/it]Train NLL: 10.842, Val NLL: 11.032:  95%|█████████▌| 285/300 [09:23<00:31,  2.10s/it]Train NLL: 10.842, Val NLL: 11.032:  95%|█████████▌| 286/300 [09:25<00:29,  2.12s/it]Train NLL: 10.842, Val NLL: 11.032:  96%|█████████▌| 287/300 [09:27<00:27,  2.13s/it]Train NLL: 10.842, Val NLL: 11.032:  96%|█████████▌| 288/300 [09:29<00:24,  2.03s/it]Train NLL: 10.842, Val NLL: 11.032:  96%|█████████▋| 289/300 [09:31<00:23,  2.11s/it]Train NLL: 10.842, Val NLL: 11.032:  97%|█████████▋| 290/300 [09:33<00:21,  2.17s/it]Train NLL: 10.842, Val NLL: 11.032:  97%|█████████▋| 291/300 [09:35<00:18,  2.09s/it]Train NLL: 10.842, Val NLL: 11.032:  97%|█████████▋| 292/300 [09:37<00:16,  2.02s/it]Train NLL: 10.842, Val NLL: 11.032:  98%|█████████▊| 293/300 [09:39<00:14,  2.04s/it]Train NLL: 10.842, Val NLL: 11.032:  98%|█████████▊| 294/300 [09:41<00:12,  2.02s/it]Train NLL: 10.842, Val NLL: 11.032:  98%|█████████▊| 295/300 [09:43<00:09,  1.96s/it]Train NLL: 10.842, Val NLL: 11.032:  99%|█████████▊| 296/300 [09:45<00:07,  1.87s/it]Train NLL: 10.842, Val NLL: 11.032:  99%|█████████▉| 297/300 [09:47<00:05,  1.94s/it]Train NLL: 10.842, Val NLL: 11.032:  99%|█████████▉| 298/300 [09:49<00:03,  1.96s/it]Train NLL: 10.842, Val NLL: 11.032: 100%|█████████▉| 299/300 [09:51<00:01,  1.90s/it]Train NLL: 10.842, Val NLL: 11.032: 100%|██████████| 300/300 [09:53<00:00,  1.94s/it]Train NLL: 10.842, Val NLL: 11.032: 100%|██████████| 300/300 [09:53<00:00,  1.98s/it]
INFO - residual_nf - Completed after 0:09:53
