INFO - siren_vae - Running command 'run'
INFO - siren_vae - Started run with ID "6"
[LOADING DATA] MEHRA
[ENCODED STRUCTURE] Updating BN structure to be fully-connected.
[MODEL TYPE] IW-SIReN-VAE (k=8)
[LOADING FROM CHECKPOINT] Start epoch: 300
  0%|          | 0/100 [00:00<?, ?it/s]Train -ELBO: 6.97744, Val -ELBO: 7.12550:   1%|          | 1/100 [00:08<13:40,  8.29s/it]Train -ELBO: 6.97614, Val -ELBO: 7.14328:   2%|▏         | 2/100 [00:15<12:42,  7.78s/it]Train -ELBO: 6.97225, Val -ELBO: 7.16107:   3%|▎         | 3/100 [00:23<12:16,  7.60s/it]Train -ELBO: 6.96772, Val -ELBO: 7.15374:   4%|▍         | 4/100 [00:30<12:03,  7.54s/it]Train -ELBO: 6.97506, Val -ELBO: 7.15504:   5%|▌         | 5/100 [00:37<11:50,  7.48s/it]Train -ELBO: 6.97996, Val -ELBO: 7.15428:   6%|▌         | 6/100 [00:45<11:39,  7.45s/it]Train -ELBO: 6.97363, Val -ELBO: 7.14858:   7%|▋         | 7/100 [00:52<11:30,  7.43s/it]Train -ELBO: 6.98567, Val -ELBO: 7.15436:   8%|▊         | 8/100 [01:00<11:23,  7.42s/it]Train -ELBO: 6.97113, Val -ELBO: 7.13851:   9%|▉         | 9/100 [01:07<11:13,  7.40s/it]Train -ELBO: 6.98008, Val -ELBO: 7.14336:  10%|█         | 10/100 [01:14<11:05,  7.40s/it]Train -ELBO: 6.97091, Val -ELBO: 7.15141:  11%|█         | 11/100 [01:22<11:00,  7.42s/it]Train -ELBO: 6.97471, Val -ELBO: 7.13683:  12%|█▏        | 12/100 [01:29<10:52,  7.41s/it]Train -ELBO: 6.96422, Val -ELBO: 7.15111:  13%|█▎        | 13/100 [01:37<10:43,  7.39s/it]Epoch   314: reducing learning rate of group 0 to 1.0000e-05.
Train -ELBO: 6.97344, Val -ELBO: 7.15848:  14%|█▍        | 14/100 [01:44<10:36,  7.40s/it]Train -ELBO: 6.96292, Val -ELBO: 7.14725:  15%|█▌        | 15/100 [01:51<10:28,  7.39s/it]Train -ELBO: 6.97210, Val -ELBO: 7.12768:  16%|█▌        | 16/100 [01:59<10:20,  7.38s/it]Train -ELBO: 6.97034, Val -ELBO: 7.14689:  17%|█▋        | 17/100 [02:06<10:13,  7.39s/it]Train -ELBO: 6.95768, Val -ELBO: 7.13218:  18%|█▊        | 18/100 [02:13<10:05,  7.38s/it]Train -ELBO: 6.96888, Val -ELBO: 7.16574:  19%|█▉        | 19/100 [02:21<09:58,  7.38s/it]Train -ELBO: 6.98204, Val -ELBO: 7.14619:  20%|██        | 20/100 [02:28<09:50,  7.38s/it]Train -ELBO: 6.96811, Val -ELBO: 7.13012:  21%|██        | 21/100 [02:36<09:43,  7.38s/it]Train -ELBO: 6.97195, Val -ELBO: 7.15790:  22%|██▏       | 22/100 [02:43<09:36,  7.39s/it]Train -ELBO: 6.96847, Val -ELBO: 7.13868:  23%|██▎       | 23/100 [02:50<09:29,  7.40s/it]Train -ELBO: 6.97659, Val -ELBO: 7.13824:  24%|██▍       | 24/100 [02:58<09:21,  7.39s/it]Train -ELBO: 6.97036, Val -ELBO: 7.15056:  25%|██▌       | 25/100 [03:05<09:13,  7.39s/it]Train -ELBO: 6.97110, Val -ELBO: 7.12821:  26%|██▌       | 26/100 [03:13<09:06,  7.39s/it]Train -ELBO: 6.96926, Val -ELBO: 7.14111:  27%|██▋       | 27/100 [03:20<09:00,  7.40s/it]Train -ELBO: 6.98041, Val -ELBO: 7.15462:  28%|██▊       | 28/100 [03:27<08:51,  7.39s/it]Train -ELBO: 6.96322, Val -ELBO: 7.12567:  29%|██▉       | 29/100 [03:35<08:43,  7.38s/it]Train -ELBO: 6.96623, Val -ELBO: 7.14389:  30%|███       | 30/100 [03:42<08:37,  7.39s/it]Train -ELBO: 6.96871, Val -ELBO: 7.12134:  31%|███       | 31/100 [03:50<08:31,  7.41s/it]Train -ELBO: 6.97677, Val -ELBO: 7.14898:  32%|███▏      | 32/100 [03:57<08:22,  7.39s/it]Train -ELBO: 6.96997, Val -ELBO: 7.13892:  33%|███▎      | 33/100 [04:04<08:15,  7.39s/it]Train -ELBO: 6.97288, Val -ELBO: 7.12548:  34%|███▍      | 34/100 [04:12<08:08,  7.40s/it]Train -ELBO: 6.97228, Val -ELBO: 7.11607:  35%|███▌      | 35/100 [04:19<08:00,  7.40s/it]Train -ELBO: 6.97320, Val -ELBO: 7.14536:  36%|███▌      | 36/100 [04:27<07:52,  7.39s/it]Train -ELBO: 6.96365, Val -ELBO: 7.15730:  37%|███▋      | 37/100 [04:34<07:45,  7.39s/it]Train -ELBO: 6.97093, Val -ELBO: 7.15411:  38%|███▊      | 38/100 [04:41<07:38,  7.40s/it]Epoch   339: reducing learning rate of group 0 to 1.0000e-06.
Train -ELBO: 6.97702, Val -ELBO: 7.11631:  39%|███▉      | 39/100 [04:49<07:32,  7.41s/it]Train -ELBO: 6.96501, Val -ELBO: 7.14489:  40%|████      | 40/100 [04:56<07:23,  7.39s/it]Train -ELBO: 6.96911, Val -ELBO: 7.15842:  41%|████      | 41/100 [05:03<07:16,  7.39s/it]Train -ELBO: 6.96590, Val -ELBO: 7.14271:  42%|████▏     | 42/100 [05:11<07:09,  7.40s/it]Train -ELBO: 6.96164, Val -ELBO: 7.15528:  43%|████▎     | 43/100 [05:18<07:00,  7.38s/it]Train -ELBO: 6.96445, Val -ELBO: 7.15028:  44%|████▍     | 44/100 [05:26<06:53,  7.39s/it]Train -ELBO: 6.97733, Val -ELBO: 7.13703:  45%|████▌     | 45/100 [05:33<06:46,  7.39s/it]Train -ELBO: 6.96685, Val -ELBO: 7.14909:  46%|████▌     | 46/100 [05:40<06:39,  7.40s/it]Train -ELBO: 6.96866, Val -ELBO: 7.13341:  47%|████▋     | 47/100 [05:48<06:31,  7.39s/it]Train -ELBO: 6.96385, Val -ELBO: 7.16013:  48%|████▊     | 48/100 [05:55<06:24,  7.39s/it]Train -ELBO: 6.96966, Val -ELBO: 7.17116:  49%|████▉     | 49/100 [06:03<06:17,  7.40s/it]Train -ELBO: 6.97726, Val -ELBO: 7.12788:  50%|█████     | 50/100 [06:10<06:09,  7.40s/it]Train -ELBO: 6.96725, Val -ELBO: 7.14454:  51%|█████     | 51/100 [06:17<06:02,  7.39s/it]Train -ELBO: 6.96901, Val -ELBO: 7.12963:  52%|█████▏    | 52/100 [06:25<05:58,  7.47s/it]Train -ELBO: 6.95637, Val -ELBO: 7.12491:  53%|█████▎    | 53/100 [06:33<05:56,  7.58s/it]Train -ELBO: 6.96440, Val -ELBO: 7.13504:  54%|█████▍    | 54/100 [06:40<05:45,  7.52s/it]Train -ELBO: 6.96605, Val -ELBO: 7.15374:  55%|█████▌    | 55/100 [06:48<05:39,  7.55s/it]Train -ELBO: 6.96213, Val -ELBO: 7.13355:  56%|█████▌    | 56/100 [06:55<05:29,  7.50s/it]Train -ELBO: 6.96805, Val -ELBO: 7.13719:  57%|█████▋    | 57/100 [07:03<05:21,  7.47s/it]Train -ELBO: 6.96823, Val -ELBO: 7.13991:  58%|█████▊    | 58/100 [07:10<05:12,  7.44s/it]Train -ELBO: 6.97088, Val -ELBO: 7.14273:  59%|█████▉    | 59/100 [07:17<05:03,  7.41s/it]Train -ELBO: 6.97703, Val -ELBO: 7.17295:  60%|██████    | 60/100 [07:25<04:56,  7.42s/it]Train -ELBO: 6.97730, Val -ELBO: 7.14364:  61%|██████    | 61/100 [07:32<04:49,  7.42s/it]Train -ELBO: 6.96575, Val -ELBO: 7.12332:  62%|██████▏   | 62/100 [07:40<04:41,  7.42s/it]Train -ELBO: 6.96716, Val -ELBO: 7.14197:  63%|██████▎   | 63/100 [07:47<04:37,  7.50s/it]Train -ELBO: 6.97107, Val -ELBO: 7.14665:  64%|██████▍   | 64/100 [07:55<04:35,  7.66s/it]Train -ELBO: 6.97229, Val -ELBO: 7.12814:  65%|██████▌   | 65/100 [08:03<04:32,  7.77s/it]Train -ELBO: 6.96712, Val -ELBO: 7.12060:  66%|██████▌   | 66/100 [08:11<04:26,  7.85s/it]Train -ELBO: 6.96704, Val -ELBO: 7.12191:  67%|██████▋   | 67/100 [08:20<04:26,  8.07s/it]Train -ELBO: 6.95978, Val -ELBO: 7.12849:  68%|██████▊   | 68/100 [08:29<04:23,  8.24s/it]Train -ELBO: 6.96777, Val -ELBO: 7.12380:  69%|██████▉   | 69/100 [08:36<04:10,  8.09s/it]Train -ELBO: 6.96033, Val -ELBO: 7.15461:  70%|███████   | 70/100 [08:44<03:57,  7.91s/it]