INFO - maf_vae - Running command 'run'
INFO - maf_vae - Started run with ID "2"
  0%|          | 0/200 [00:00<?, ?it/s]Train -ELBO: 68.616, Val -ELBO: 66.441:   4%|▎         | 7/200 [00:01<00:27,  6.95it/s]Train -ELBO: 55.150, Val -ELBO: 54.410:   9%|▉         | 18/200 [00:02<00:20,  9.00it/s]Train -ELBO: 50.772, Val -ELBO: 50.516:  14%|█▍        | 29/200 [00:03<00:17,  9.78it/s]Train -ELBO: 48.269, Val -ELBO: 48.218:  20%|██        | 40/200 [00:04<00:15, 10.12it/s]Train -ELBO: 46.977, Val -ELBO: 46.872:  26%|██▌       | 51/200 [00:05<00:14, 10.33it/s]Train -ELBO: 46.014, Val -ELBO: 46.074:  31%|███       | 62/200 [00:06<00:13, 10.46it/s]Train -ELBO: 45.579, Val -ELBO: 45.407:  36%|███▋      | 73/200 [00:07<00:12, 10.54it/s]Train -ELBO: 44.579, Val -ELBO: 44.873:  42%|████▏     | 84/200 [00:08<00:10, 10.59it/s]Train -ELBO: 43.646, Val -ELBO: 44.295:  48%|████▊     | 95/200 [00:09<00:09, 10.61it/s]Train -ELBO: 43.273, Val -ELBO: 43.702:  53%|█████▎    | 106/200 [00:10<00:08, 10.64it/s]Train -ELBO: 42.032, Val -ELBO: 43.101:  58%|█████▊    | 117/200 [00:11<00:07, 10.64it/s]Train -ELBO: 40.963, Val -ELBO: 42.433:  64%|██████▍   | 128/200 [00:12<00:06, 10.66it/s]Train -ELBO: 40.424, Val -ELBO: 41.847:  70%|██████▉   | 139/200 [00:13<00:05, 10.67it/s]Train -ELBO: 39.655, Val -ELBO: 41.202:  75%|███████▌  | 150/200 [00:14<00:04, 10.66it/s]Train -ELBO: 38.524, Val -ELBO: 40.903:  80%|████████  | 161/200 [00:15<00:03, 10.66it/s]Train -ELBO: 38.053, Val -ELBO: 40.379:  86%|████████▌ | 172/200 [00:16<00:02, 10.66it/s]Train -ELBO: 38.232, Val -ELBO: 40.202:  92%|█████████▏| 183/200 [00:17<00:01, 10.66it/s]Train -ELBO: 37.228, Val -ELBO: 40.099:  97%|█████████▋| 194/200 [00:18<00:00, 10.66it/s]Train -ELBO: 37.276, Val -ELBO: 39.946: 100%|██████████| 200/200 [00:19<00:00, 10.46it/s]
