{
  "batch_size": 100,
  "bn": "protein",
  "bt_config": {
    "depth": 5,
    "seed": 4
  },
  "checkpoint_n": 10,
  "cond_size": 10,
  "conditioner_type": "dag",
  "double": false,
  "ex_name": "discrete_nf_density_estimation",
  "hidden_dims": [
    85
  ],
  "int_net_final_activation": "elu",
  "int_net_hidden": [
    100
  ],
  "load_from_checkpoint": false,
  "lr": 0.001,
  "mono_num_steps": 15,
  "mono_solver": "CC",
  "normalizer_type": "affine",
  "num_epochs": 200,
  "num_flow_steps": 4,
  "num_train_batches": 100,
  "num_train_samples": 10000,
  "num_val_batches": 50,
  "num_val_samples": 5000,
  "path": "./experiment_logs/discrete_nf_density_estimation/protein/dag_affine_4_[85]",
  "patience": 5,
  "run": 1,
  "seed": 0,
  "sub_folder": "dag_affine_4_[85]"
}