INFO - residual_nf - Running command 'run'
INFO - residual_nf - Started run with ID "2"
[CONFIG] {'bn': 'ecoli70-alt', 'structure': 'faithful', 'coeff': 0.99, 'n_power_iterations': 5, 'num_blocks': 1, 'hidden_dims': [100], 'activation': 'lipmish', 'grad_in_forward': False, 'batch_size': 100, 'num_train_samples': 10000, 'num_val_samples': 5000, 'num_epochs': 400, 'num_train_batches': 100, 'num_val_batches': 50, 'lr': 0.01, 'seed': 1, 'patience': 20, 'ex_name': 'residual_nf_density_estimation', 'sub_folder': 'faithful_99_lipmish_1_[100]', 'path': './experiment_logs/residual_nf_density_estimation/ecoli70-alt/faithful_99_lipmish_1_[100]', 'bt_config': {'depth': 5, 'seed': 4}}
[ENCODED STRUCTURE] Using faithful BN structure.
  0%|          | 0/400 [00:00<?, ?it/s]Train NLL: 59.609, Val NLL: 57.139:   0%|          | 2/400 [00:01<05:06,  1.30it/s]Train NLL: 56.426, Val NLL: 55.969:   1%|          | 4/400 [00:02<04:25,  1.49it/s]Train NLL: 55.746, Val NLL: 55.574:   2%|▏         | 6/400 [00:03<04:13,  1.56it/s]Train NLL: 55.206, Val NLL: 54.918:   2%|▏         | 8/400 [00:05<04:09,  1.57it/s]Train NLL: 54.890, Val NLL: 55.069:   2%|▎         | 10/400 [00:06<04:05,  1.59it/s]Train NLL: 54.705, Val NLL: 55.403:   3%|▎         | 12/400 [00:07<04:03,  1.59it/s]Train NLL: 54.675, Val NLL: 54.577:   4%|▎         | 14/400 [00:08<04:00,  1.61it/s]Train NLL: 54.482, Val NLL: 54.299:   4%|▍         | 16/400 [00:10<03:52,  1.65it/s]Train NLL: 54.644, Val NLL: 54.362:   4%|▍         | 18/400 [00:11<03:47,  1.68it/s]Train NLL: 54.443, Val NLL: 54.805:   5%|▌         | 20/400 [00:12<03:46,  1.68it/s]Train NLL: 54.392, Val NLL: 53.862:   6%|▌         | 22/400 [00:13<03:46,  1.67it/s]Train NLL: 54.192, Val NLL: 54.353:   6%|▌         | 24/400 [00:14<03:43,  1.68it/s]Train NLL: 54.376, Val NLL: 54.363:   6%|▋         | 26/400 [00:15<03:41,  1.69it/s]Train NLL: 54.311, Val NLL: 53.902:   7%|▋         | 28/400 [00:17<03:39,  1.70it/s]Train NLL: 54.248, Val NLL: 54.566:   8%|▊         | 30/400 [00:18<03:35,  1.71it/s]Train NLL: 54.215, Val NLL: 54.396:   8%|▊         | 32/400 [00:19<03:33,  1.72it/s]Train NLL: 54.186, Val NLL: 54.156:   8%|▊         | 34/400 [00:20<03:32,  1.72it/s]Train NLL: 54.208, Val NLL: 53.822:   9%|▉         | 36/400 [00:21<03:31,  1.72it/s]Train NLL: 53.958, Val NLL: 54.078:  10%|▉         | 38/400 [00:22<03:29,  1.73it/s]Train NLL: 54.035, Val NLL: 54.045:  10%|█         | 40/400 [00:24<03:27,  1.74it/s]Train NLL: 53.985, Val NLL: 53.421:  10%|█         | 42/400 [00:25<03:25,  1.74it/s]Train NLL: 54.171, Val NLL: 54.068:  11%|█         | 44/400 [00:26<03:24,  1.74it/s]Train NLL: 54.041, Val NLL: 53.914:  12%|█▏        | 46/400 [00:27<03:22,  1.75it/s]Train NLL: 53.912, Val NLL: 54.000:  12%|█▏        | 48/400 [00:28<03:21,  1.74it/s]Train NLL: 53.877, Val NLL: 53.458:  12%|█▎        | 50/400 [00:29<03:21,  1.74it/s]Train NLL: 54.033, Val NLL: 53.726:  13%|█▎        | 52/400 [00:30<03:20,  1.74it/s]Train NLL: 53.981, Val NLL: 53.714:  14%|█▎        | 54/400 [00:32<03:18,  1.74it/s]Train NLL: 53.938, Val NLL: 54.149:  14%|█▍        | 56/400 [00:33<03:17,  1.74it/s]Train NLL: 53.945, Val NLL: 53.772:  14%|█▍        | 58/400 [00:34<03:17,  1.73it/s]Train NLL: 53.893, Val NLL: 53.690:  15%|█▌        | 60/400 [00:35<03:15,  1.74it/s]Train NLL: 53.848, Val NLL: 53.772:  16%|█▌        | 62/400 [00:36<03:15,  1.73it/s]Train NLL: 53.809, Val NLL: 53.725:  16%|█▌        | 64/400 [00:37<03:13,  1.74it/s]Train NLL: 53.822, Val NLL: 54.294:  16%|█▋        | 66/400 [00:39<03:16,  1.70it/s]Train NLL: 53.893, Val NLL: 53.867:  17%|█▋        | 68/400 [00:40<03:18,  1.67it/s]Train NLL: 53.806, Val NLL: 53.853:  18%|█▊        | 70/400 [00:41<03:18,  1.66it/s]Train NLL: 53.812, Val NLL: 53.836:  18%|█▊        | 72/400 [00:42<03:14,  1.69it/s]Train NLL: 53.692, Val NLL: 53.282:  18%|█▊        | 74/400 [00:43<03:11,  1.71it/s]Train NLL: 53.846, Val NLL: 53.936:  19%|█▉        | 76/400 [00:44<03:08,  1.72it/s]Train NLL: 53.872, Val NLL: 53.688:  20%|█▉        | 78/400 [00:46<03:06,  1.73it/s]Train NLL: 53.836, Val NLL: 53.746:  20%|██        | 80/400 [00:47<03:04,  1.74it/s]Train NLL: 53.817, Val NLL: 53.903:  20%|██        | 82/400 [00:48<03:03,  1.73it/s]Train NLL: 53.691, Val NLL: 53.415:  21%|██        | 84/400 [00:49<03:07,  1.69it/s]Train NLL: 53.705, Val NLL: 54.058:  22%|██▏       | 86/400 [00:50<03:07,  1.68it/s]Train NLL: 53.807, Val NLL: 53.463:  22%|██▏       | 88/400 [00:52<03:05,  1.69it/s]Train NLL: 53.756, Val NLL: 53.927:  22%|██▎       | 90/400 [00:53<03:01,  1.70it/s]Train NLL: 53.818, Val NLL: 53.721:  23%|██▎       | 92/400 [00:54<02:59,  1.71it/s]Train NLL: 53.694, Val NLL: 54.026:  24%|██▎       | 94/400 [00:55<02:58,  1.72it/s]Train NLL: 53.682, Val NLL: 53.349:  24%|██▍       | 96/400 [00:56<02:56,  1.72it/s]Train NLL: 53.691, Val NLL: 53.669:  24%|██▍       | 98/400 [00:57<02:54,  1.73it/s]Train NLL: 53.612, Val NLL: 54.010:  25%|██▌       | 100/400 [00:58<02:54,  1.72it/s]Train NLL: 53.617, Val NLL: 53.778:  26%|██▌       | 102/400 [01:00<02:54,  1.70it/s]Train NLL: 53.673, Val NLL: 53.330:  26%|██▌       | 104/400 [01:01<02:54,  1.69it/s]Train NLL: 53.645, Val NLL: 53.304:  26%|██▋       | 106/400 [01:02<02:53,  1.70it/s]Train NLL: 53.535, Val NLL: 53.350:  27%|██▋       | 108/400 [01:03<02:53,  1.68it/s]Train NLL: 53.628, Val NLL: 53.500:  28%|██▊       | 110/400 [01:04<02:53,  1.68it/s]Train NLL: 53.711, Val NLL: 53.485:  28%|██▊       | 112/400 [01:06<02:51,  1.67it/s]Train NLL: 53.590, Val NLL: 53.561:  28%|██▊       | 114/400 [01:07<02:52,  1.66it/s]Train NLL: 53.656, Val NLL: 53.648:  29%|██▉       | 116/400 [01:08<02:55,  1.62it/s]Train NLL: 53.632, Val NLL: 53.662:  30%|██▉       | 118/400 [01:09<02:54,  1.61it/s]Train NLL: 53.595, Val NLL: 53.676:  30%|███       | 120/400 [01:11<02:51,  1.63it/s]Train NLL: 53.525, Val NLL: 53.646:  30%|███       | 122/400 [01:12<02:51,  1.62it/s]Train NLL: 53.597, Val NLL: 53.564:  31%|███       | 124/400 [01:13<02:51,  1.61it/s]Train NLL: 53.572, Val NLL: 53.642:  32%|███▏      | 126/400 [01:14<02:49,  1.61it/s]Train NLL: 53.612, Val NLL: 53.671:  32%|███▏      | 128/400 [01:16<02:47,  1.62it/s]Train NLL: 53.624, Val NLL: 53.552:  32%|███▎      | 130/400 [01:17<02:45,  1.63it/s]Train NLL: 53.547, Val NLL: 53.471:  33%|███▎      | 132/400 [01:18<02:43,  1.64it/s]Train NLL: 53.474, Val NLL: 53.508:  34%|███▎      | 134/400 [01:19<02:39,  1.67it/s]Train NLL: 53.613, Val NLL: 53.581:  34%|███▍      | 136/400 [01:20<02:38,  1.67it/s]Train NLL: 53.591, Val NLL: 53.513:  34%|███▍      | 138/400 [01:22<02:36,  1.68it/s]Train NLL: 53.499, Val NLL: 53.213:  35%|███▌      | 140/400 [01:23<02:34,  1.68it/s]Train NLL: 53.516, Val NLL: 53.328:  36%|███▌      | 142/400 [01:24<02:32,  1.69it/s]Train NLL: 53.426, Val NLL: 53.604:  36%|███▌      | 144/400 [01:25<02:32,  1.68it/s]Train NLL: 53.523, Val NLL: 53.398:  36%|███▋      | 146/400 [01:26<02:31,  1.68it/s]Train NLL: 53.585, Val NLL: 53.423:  37%|███▋      | 148/400 [01:27<02:30,  1.68it/s]Train NLL: 53.516, Val NLL: 53.413:  38%|███▊      | 150/400 [01:29<02:27,  1.70it/s]Train NLL: 53.501, Val NLL: 53.226:  38%|███▊      | 152/400 [01:30<02:24,  1.71it/s]Train NLL: 53.579, Val NLL: 53.561:  38%|███▊      | 154/400 [01:31<02:22,  1.72it/s]Train NLL: 53.512, Val NLL: 53.569:  39%|███▉      | 156/400 [01:32<02:21,  1.73it/s]Train NLL: 53.433, Val NLL: 53.712:  40%|███▉      | 158/400 [01:33<02:22,  1.70it/s]Train NLL: 53.526, Val NLL: 53.191:  40%|████      | 160/400 [01:34<02:20,  1.71it/s]Train NLL: 53.539, Val NLL: 53.515:  40%|████      | 162/400 [01:36<02:18,  1.72it/s]Train NLL: 53.467, Val NLL: 53.251:  41%|████      | 164/400 [01:37<02:20,  1.68it/s]Train NLL: 53.401, Val NLL: 53.349:  42%|████▏     | 166/400 [01:38<02:20,  1.66it/s]Train NLL: 53.529, Val NLL: 53.501:  42%|████▏     | 168/400 [01:39<02:23,  1.62it/s]Train NLL: 53.391, Val NLL: 53.291:  42%|████▎     | 170/400 [01:41<02:20,  1.63it/s]Train NLL: 53.445, Val NLL: 53.621:  43%|████▎     | 172/400 [01:42<02:18,  1.64it/s]Train NLL: 53.440, Val NLL: 53.569:  44%|████▎     | 174/400 [01:43<02:15,  1.67it/s]Train NLL: 53.509, Val NLL: 53.224:  44%|████▍     | 176/400 [01:44<02:12,  1.69it/s]Train NLL: 53.463, Val NLL: 53.196:  44%|████▍     | 178/400 [01:45<02:09,  1.71it/s]Train NLL: 53.498, Val NLL: 53.367:  45%|████▌     | 180/400 [01:46<02:07,  1.72it/s]Train NLL: 53.499, Val NLL: 53.486:  46%|████▌     | 182/400 [01:47<02:05,  1.73it/s]Train NLL: 53.414, Val NLL: 53.318:  46%|████▌     | 184/400 [01:49<02:04,  1.73it/s]Epoch   186: reducing learning rate of group 0 to 1.0000e-03.
Train NLL: 53.468, Val NLL: 53.622:  46%|████▋     | 186/400 [01:50<02:03,  1.74it/s]Train NLL: 53.136, Val NLL: 53.055:  47%|████▋     | 188/400 [01:51<02:02,  1.73it/s]Train NLL: 53.024, Val NLL: 52.878:  48%|████▊     | 190/400 [01:52<02:00,  1.74it/s]Train NLL: 52.992, Val NLL: 52.886:  48%|████▊     | 192/400 [01:53<01:59,  1.74it/s]Train NLL: 52.991, Val NLL: 52.894:  48%|████▊     | 194/400 [01:54<01:57,  1.75it/s]Train NLL: 53.010, Val NLL: 52.981:  49%|████▉     | 196/400 [01:56<01:56,  1.75it/s]Train NLL: 53.018, Val NLL: 52.919:  50%|████▉     | 198/400 [01:57<01:55,  1.75it/s]Train NLL: 53.015, Val NLL: 52.969:  50%|█████     | 200/400 [01:58<01:54,  1.74it/s]Train NLL: 53.019, Val NLL: 52.974:  50%|█████     | 202/400 [01:59<01:55,  1.72it/s]Train NLL: 52.997, Val NLL: 52.860:  51%|█████     | 204/400 [02:00<01:57,  1.66it/s]Train NLL: 53.011, Val NLL: 53.004:  52%|█████▏    | 206/400 [02:02<02:00,  1.62it/s]Train NLL: 53.005, Val NLL: 52.955:  52%|█████▏    | 208/400 [02:03<01:59,  1.60it/s]Train NLL: 52.995, Val NLL: 52.822:  52%|█████▎    | 210/400 [02:04<02:00,  1.58it/s]Train NLL: 53.013, Val NLL: 52.975:  53%|█████▎    | 212/400 [02:05<01:57,  1.59it/s]Train NLL: 52.969, Val NLL: 52.993:  54%|█████▎    | 214/400 [02:07<01:56,  1.60it/s]Train NLL: 53.000, Val NLL: 52.966:  54%|█████▍    | 216/400 [02:08<01:52,  1.63it/s]Train NLL: 52.997, Val NLL: 52.861:  55%|█████▍    | 218/400 [02:09<01:50,  1.65it/s]Train NLL: 53.014, Val NLL: 52.937:  55%|█████▌    | 220/400 [02:10<01:47,  1.67it/s]Train NLL: 53.001, Val NLL: 52.923:  56%|█████▌    | 222/400 [02:11<01:46,  1.67it/s]Train NLL: 53.046, Val NLL: 52.957:  56%|█████▌    | 224/400 [02:13<01:47,  1.64it/s]Train NLL: 53.009, Val NLL: 52.877:  56%|█████▋    | 226/400 [02:14<01:45,  1.64it/s]Train NLL: 53.023, Val NLL: 52.853:  57%|█████▋    | 228/400 [02:15<01:42,  1.68it/s]Train NLL: 52.986, Val NLL: 52.974:  57%|█████▊    | 230/400 [02:16<01:40,  1.70it/s]Train NLL: 52.990, Val NLL: 52.978:  58%|█████▊    | 232/400 [02:17<01:38,  1.70it/s]Train NLL: 53.005, Val NLL: 53.033:  58%|█████▊    | 234/400 [02:18<01:37,  1.71it/s]Epoch   235: reducing learning rate of group 0 to 1.0000e-04.
Train NLL: 53.044, Val NLL: 52.961:  59%|█████▉    | 236/400 [02:20<01:36,  1.71it/s]Train NLL: 52.997, Val NLL: 52.937:  60%|█████▉    | 238/400 [02:21<01:35,  1.70it/s]Train NLL: 52.962, Val NLL: 52.879:  60%|██████    | 240/400 [02:22<01:34,  1.70it/s]Train NLL: 52.932, Val NLL: 52.858:  60%|██████    | 242/400 [02:23<01:32,  1.72it/s]Train NLL: 52.960, Val NLL: 52.910:  61%|██████    | 244/400 [02:24<01:30,  1.73it/s]Train NLL: 52.932, Val NLL: 52.858:  62%|██████▏   | 246/400 [02:25<01:28,  1.73it/s]Train NLL: 52.959, Val NLL: 52.879:  62%|██████▏   | 248/400 [02:27<01:27,  1.73it/s]Train NLL: 52.930, Val NLL: 52.874:  62%|██████▎   | 250/400 [02:28<01:26,  1.74it/s]Train NLL: 52.944, Val NLL: 52.913:  63%|██████▎   | 252/400 [02:29<01:25,  1.73it/s]Train NLL: 52.937, Val NLL: 52.881:  64%|██████▎   | 254/400 [02:30<01:24,  1.73it/s]Train NLL: 52.944, Val NLL: 52.895:  64%|██████▍   | 256/400 [02:31<01:22,  1.74it/s]Train NLL: 52.941, Val NLL: 52.906:  64%|██████▍   | 258/400 [02:32<01:22,  1.73it/s]Train NLL: 52.935, Val NLL: 52.868:  65%|██████▌   | 260/400 [02:34<01:22,  1.69it/s]Train NLL: 52.942, Val NLL: 52.876:  66%|██████▌   | 262/400 [02:35<01:22,  1.68it/s]Epoch   263: reducing learning rate of group 0 to 1.0000e-05.
Train NLL: 52.980, Val NLL: 52.921:  66%|██████▌   | 264/400 [02:36<01:21,  1.67it/s]Train NLL: 52.963, Val NLL: 52.896:  66%|██████▋   | 266/400 [02:37<01:19,  1.69it/s]Train NLL: 52.962, Val NLL: 52.900:  67%|██████▋   | 268/400 [02:38<01:17,  1.71it/s]Train NLL: 52.955, Val NLL: 52.889:  68%|██████▊   | 270/400 [02:39<01:15,  1.72it/s]Train NLL: 52.943, Val NLL: 52.878:  68%|██████▊   | 272/400 [02:41<01:13,  1.73it/s]Train NLL: 52.944, Val NLL: 52.885:  68%|██████▊   | 274/400 [02:42<01:12,  1.73it/s]Train NLL: 52.946, Val NLL: 52.880:  69%|██████▉   | 276/400 [02:43<01:13,  1.70it/s]Train NLL: 52.935, Val NLL: 52.870:  70%|██████▉   | 278/400 [02:44<01:12,  1.69it/s]Train NLL: 52.940, Val NLL: 52.880:  70%|███████   | 280/400 [02:45<01:11,  1.68it/s]Train NLL: 52.940, Val NLL: 52.876:  70%|███████   | 282/400 [02:47<01:09,  1.69it/s]Epoch   284: reducing learning rate of group 0 to 1.0000e-06.
Train NLL: 52.939, Val NLL: 52.879:  71%|███████   | 284/400 [02:48<01:08,  1.70it/s]Train NLL: 52.948, Val NLL: 52.886:  72%|███████▏  | 286/400 [02:49<01:07,  1.69it/s]Train NLL: 52.948, Val NLL: 52.885:  72%|███████▏  | 288/400 [02:50<01:05,  1.71it/s]Train NLL: 52.946, Val NLL: 52.883:  72%|███████▎  | 290/400 [02:51<01:03,  1.72it/s]Train NLL: 52.944, Val NLL: 52.882:  73%|███████▎  | 292/400 [02:52<01:02,  1.73it/s]Train NLL: 52.944, Val NLL: 52.882:  74%|███████▎  | 294/400 [02:53<01:01,  1.73it/s]Train NLL: 52.943, Val NLL: 52.880:  74%|███████▍  | 296/400 [02:55<00:59,  1.74it/s]Train NLL: 52.941, Val NLL: 52.878:  74%|███████▍  | 298/400 [02:56<00:58,  1.74it/s]Train NLL: 52.940, Val NLL: 52.877:  75%|███████▌  | 300/400 [02:57<00:57,  1.74it/s]Train NLL: 52.941, Val NLL: 52.878:  76%|███████▌  | 302/400 [02:58<00:56,  1.75it/s]Train NLL: 52.942, Val NLL: 52.879:  76%|███████▌  | 304/400 [02:59<00:54,  1.75it/s]Train NLL: 52.942, Val NLL: 52.880:  76%|███████▋  | 306/400 [03:00<00:53,  1.75it/s]Train NLL: 52.942, Val NLL: 52.879:  77%|███████▋  | 308/400 [03:02<00:52,  1.75it/s]Train NLL: 52.941, Val NLL: 52.879:  78%|███████▊  | 310/400 [03:03<00:51,  1.74it/s]Train NLL: 52.941, Val NLL: 52.878:  78%|███████▊  | 312/400 [03:04<00:50,  1.75it/s]Train NLL: 52.939, Val NLL: 52.877:  78%|███████▊  | 314/400 [03:05<00:49,  1.75it/s]Train NLL: 52.938, Val NLL: 52.876:  79%|███████▉  | 316/400 [03:06<00:48,  1.75it/s]Train NLL: 52.937, Val NLL: 52.875:  80%|███████▉  | 318/400 [03:07<00:47,  1.74it/s]Train NLL: 52.937, Val NLL: 52.875:  80%|████████  | 320/400 [03:08<00:45,  1.74it/s]Train NLL: 52.938, Val NLL: 52.876:  80%|████████  | 322/400 [03:10<00:44,  1.74it/s]Train NLL: 52.939, Val NLL: 52.876:  81%|████████  | 324/400 [03:11<00:43,  1.75it/s]Train NLL: 52.939, Val NLL: 52.876:  82%|████████▏ | 326/400 [03:12<00:42,  1.75it/s]Train NLL: 52.938, Val NLL: 52.875:  82%|████████▏ | 328/400 [03:13<00:41,  1.75it/s]Train NLL: 52.938, Val NLL: 52.875:  82%|████████▎ | 330/400 [03:14<00:40,  1.75it/s]Train NLL: 52.938, Val NLL: 52.876:  83%|████████▎ | 332/400 [03:15<00:38,  1.75it/s]Train NLL: 52.938, Val NLL: 52.876:  84%|████████▎ | 334/400 [03:16<00:37,  1.74it/s]Train NLL: 52.938, Val NLL: 52.875:  84%|████████▍ | 336/400 [03:18<00:36,  1.74it/s]Train NLL: 52.938, Val NLL: 52.875:  84%|████████▍ | 338/400 [03:19<00:35,  1.74it/s]Train NLL: 52.938, Val NLL: 52.876:  85%|████████▌ | 340/400 [03:20<00:34,  1.74it/s]Train NLL: 52.938, Val NLL: 52.876:  86%|████████▌ | 342/400 [03:21<00:33,  1.74it/s]Train NLL: 52.938, Val NLL: 52.875:  86%|████████▌ | 344/400 [03:22<00:32,  1.75it/s]Train NLL: 52.937, Val NLL: 52.874:  86%|████████▋ | 346/400 [03:23<00:30,  1.75it/s]Train NLL: 52.937, Val NLL: 52.875:  87%|████████▋ | 348/400 [03:24<00:29,  1.74it/s]Train NLL: 52.939, Val NLL: 52.877:  88%|████████▊ | 350/400 [03:26<00:28,  1.74it/s]Train NLL: 52.941, Val NLL: 52.879:  88%|████████▊ | 352/400 [03:27<00:27,  1.75it/s]Train NLL: 52.941, Val NLL: 52.879:  88%|████████▊ | 354/400 [03:28<00:26,  1.75it/s]Train NLL: 52.941, Val NLL: 52.878:  89%|████████▉ | 356/400 [03:29<00:25,  1.75it/s]Train NLL: 52.939, Val NLL: 52.877:  90%|████████▉ | 358/400 [03:30<00:24,  1.75it/s]Train NLL: 52.938, Val NLL: 52.876:  90%|█████████ | 360/400 [03:31<00:22,  1.75it/s]Train NLL: 52.938, Val NLL: 52.876:  90%|█████████ | 362/400 [03:32<00:21,  1.75it/s]Train NLL: 52.939, Val NLL: 52.876:  91%|█████████ | 364/400 [03:34<00:20,  1.75it/s]Train NLL: 52.939, Val NLL: 52.877:  92%|█████████▏| 366/400 [03:35<00:19,  1.75it/s]Train NLL: 52.940, Val NLL: 52.877:  92%|█████████▏| 368/400 [03:36<00:18,  1.75it/s]Train NLL: 52.939, Val NLL: 52.876:  92%|█████████▎| 370/400 [03:37<00:17,  1.75it/s]Train NLL: 52.939, Val NLL: 52.876:  93%|█████████▎| 372/400 [03:38<00:16,  1.74it/s]Train NLL: 52.938, Val NLL: 52.876:  94%|█████████▎| 374/400 [03:39<00:14,  1.75it/s]Train NLL: 52.938, Val NLL: 52.876:  94%|█████████▍| 376/400 [03:40<00:13,  1.75it/s]Train NLL: 52.938, Val NLL: 52.876:  94%|█████████▍| 378/400 [03:42<00:12,  1.74it/s]Train NLL: 52.938, Val NLL: 52.875:  95%|█████████▌| 380/400 [03:43<00:11,  1.74it/s]Train NLL: 52.937, Val NLL: 52.874:  96%|█████████▌| 382/400 [03:44<00:10,  1.75it/s]Train NLL: 52.936, Val NLL: 52.874:  96%|█████████▌| 384/400 [03:45<00:09,  1.75it/s]Train NLL: 52.938, Val NLL: 52.876:  96%|█████████▋| 386/400 [03:46<00:08,  1.75it/s]Train NLL: 52.940, Val NLL: 52.878:  97%|█████████▋| 388/400 [03:47<00:06,  1.75it/s]Train NLL: 52.940, Val NLL: 52.877:  98%|█████████▊| 390/400 [03:48<00:05,  1.75it/s]Train NLL: 52.938, Val NLL: 52.876:  98%|█████████▊| 392/400 [03:50<00:04,  1.75it/s]Train NLL: 52.938, Val NLL: 52.875:  98%|█████████▊| 394/400 [03:51<00:03,  1.75it/s]Train NLL: 52.938, Val NLL: 52.875:  99%|█████████▉| 396/400 [03:52<00:02,  1.75it/s]Train NLL: 52.938, Val NLL: 52.875: 100%|█████████▉| 398/400 [03:53<00:01,  1.75it/s]Train NLL: 52.938, Val NLL: 52.876: 100%|██████████| 400/400 [03:54<00:00,  1.75it/s]Train NLL: 52.938, Val NLL: 52.876: 100%|██████████| 400/400 [03:54<00:00,  1.70it/s]
