INFO - siren_vae - Running command 'run'
INFO - siren_vae - Started run with ID "6"
[ENCODED STRUCTURE] Using faithful BN structure.
  0%|          | 0/600 [00:00<?, ?it/s]Train -ELBO: 17.443, Val -ELBO: 16.941:   0%|          | 1/600 [00:01<14:48,  1.48s/it]Train -ELBO: 16.553, Val -ELBO: 16.155:   0%|          | 2/600 [00:02<12:46,  1.28s/it]Train -ELBO: 15.800, Val -ELBO: 15.477:   0%|          | 3/600 [00:03<12:02,  1.21s/it]Train -ELBO: 15.220, Val -ELBO: 15.062:   1%|          | 4/600 [00:04<11:40,  1.18s/it]Train -ELBO: 14.992, Val -ELBO: 14.822:   1%|          | 5/600 [00:05<11:28,  1.16s/it]Train -ELBO: 14.766, Val -ELBO: 14.613:   1%|          | 6/600 [00:07<11:27,  1.16s/it]Train -ELBO: 14.516, Val -ELBO: 14.328:   1%|          | 7/600 [00:08<11:20,  1.15s/it]Train -ELBO: 14.208, Val -ELBO: 14.037:   1%|▏         | 8/600 [00:09<11:15,  1.14s/it]Train -ELBO: 13.934, Val -ELBO: 13.797:   2%|▏         | 9/600 [00:10<11:14,  1.14s/it]Train -ELBO: 13.677, Val -ELBO: 13.548:   2%|▏         | 10/600 [00:11<11:10,  1.14s/it]Train -ELBO: 13.474, Val -ELBO: 13.318:   2%|▏         | 11/600 [00:12<11:09,  1.14s/it]Train -ELBO: 13.203, Val -ELBO: 13.082:   2%|▏         | 12/600 [00:13<11:05,  1.13s/it]Train -ELBO: 12.951, Val -ELBO: 12.855:   2%|▏         | 13/600 [00:15<11:03,  1.13s/it]Train -ELBO: 12.743, Val -ELBO: 12.667:   2%|▏         | 14/600 [00:16<11:01,  1.13s/it]Train -ELBO: 12.503, Val -ELBO: 12.433:   2%|▎         | 15/600 [00:17<11:02,  1.13s/it]Train -ELBO: 12.335, Val -ELBO: 12.258:   3%|▎         | 16/600 [00:18<11:01,  1.13s/it]Train -ELBO: 12.095, Val -ELBO: 12.030:   3%|▎         | 17/600 [00:19<11:00,  1.13s/it]Train -ELBO: 11.973, Val -ELBO: 11.923:   3%|▎         | 18/600 [00:20<10:58,  1.13s/it]Train -ELBO: 11.827, Val -ELBO: 11.803:   3%|▎         | 19/600 [00:21<11:10,  1.15s/it]Train -ELBO: 11.736, Val -ELBO: 11.706:   3%|▎         | 20/600 [00:23<11:20,  1.17s/it]Train -ELBO: 11.637, Val -ELBO: 11.661:   4%|▎         | 21/600 [00:24<11:25,  1.18s/it]Train -ELBO: 11.579, Val -ELBO: 11.567:   4%|▎         | 22/600 [00:25<11:14,  1.17s/it]Train -ELBO: 11.502, Val -ELBO: 11.519:   4%|▍         | 23/600 [00:26<11:06,  1.16s/it]Train -ELBO: 11.470, Val -ELBO: 11.538:   4%|▍         | 24/600 [00:27<11:04,  1.15s/it]Train -ELBO: 11.509, Val -ELBO: 11.384:   4%|▍         | 25/600 [00:28<11:09,  1.16s/it]Train -ELBO: 11.354, Val -ELBO: 11.360:   4%|▍         | 26/600 [00:30<11:15,  1.18s/it]Train -ELBO: 11.303, Val -ELBO: 11.320:   4%|▍         | 27/600 [00:31<11:09,  1.17s/it]Train -ELBO: 11.259, Val -ELBO: 11.280:   5%|▍         | 28/600 [00:32<11:13,  1.18s/it]Train -ELBO: 11.181, Val -ELBO: 11.199:   5%|▍         | 29/600 [00:33<11:25,  1.20s/it]Train -ELBO: 11.153, Val -ELBO: 11.196:   5%|▌         | 30/600 [00:35<11:31,  1.21s/it]Train -ELBO: 11.147, Val -ELBO: 11.113:   5%|▌         | 31/600 [00:36<11:42,  1.24s/it]Train -ELBO: 11.073, Val -ELBO: 11.139:   5%|▌         | 32/600 [00:37<11:58,  1.27s/it]Train -ELBO: 11.071, Val -ELBO: 11.074:   6%|▌         | 33/600 [00:38<11:47,  1.25s/it]Train -ELBO: 11.044, Val -ELBO: 11.070:   6%|▌         | 34/600 [00:39<11:28,  1.22s/it]Train -ELBO: 11.020, Val -ELBO: 11.045:   6%|▌         | 35/600 [00:41<11:19,  1.20s/it]Train -ELBO: 11.019, Val -ELBO: 11.030:   6%|▌         | 36/600 [00:42<11:10,  1.19s/it]Train -ELBO: 11.012, Val -ELBO: 11.029:   6%|▌         | 37/600 [00:43<11:09,  1.19s/it]Train -ELBO: 10.988, Val -ELBO: 10.996:   6%|▋         | 38/600 [00:44<11:02,  1.18s/it]Train -ELBO: 10.970, Val -ELBO: 10.999:   6%|▋         | 39/600 [00:45<11:02,  1.18s/it]Train -ELBO: 10.934, Val -ELBO: 10.954:   7%|▋         | 40/600 [00:47<11:01,  1.18s/it]Train -ELBO: 10.948, Val -ELBO: 10.946:   7%|▋         | 41/600 [00:48<10:56,  1.17s/it]Train -ELBO: 10.941, Val -ELBO: 10.973:   7%|▋         | 42/600 [00:49<10:59,  1.18s/it]Train -ELBO: 10.905, Val -ELBO: 10.943:   7%|▋         | 43/600 [00:50<10:48,  1.16s/it]Train -ELBO: 10.899, Val -ELBO: 10.945:   7%|▋         | 44/600 [00:51<10:41,  1.15s/it]Train -ELBO: 10.903, Val -ELBO: 10.943:   8%|▊         | 45/600 [00:52<10:34,  1.14s/it]Train -ELBO: 10.893, Val -ELBO: 10.902:   8%|▊         | 46/600 [00:53<10:37,  1.15s/it]Train -ELBO: 10.893, Val -ELBO: 10.916:   8%|▊         | 47/600 [00:55<10:35,  1.15s/it]Train -ELBO: 10.880, Val -ELBO: 10.885:   8%|▊         | 48/600 [00:56<10:34,  1.15s/it]Train -ELBO: 10.873, Val -ELBO: 10.894:   8%|▊         | 49/600 [00:57<10:30,  1.14s/it]Train -ELBO: 10.848, Val -ELBO: 10.878:   8%|▊         | 50/600 [00:58<10:28,  1.14s/it]Train -ELBO: 10.869, Val -ELBO: 10.878:   8%|▊         | 51/600 [00:59<10:23,  1.14s/it]Train -ELBO: 10.844, Val -ELBO: 10.882:   9%|▊         | 52/600 [01:00<10:19,  1.13s/it]Train -ELBO: 10.826, Val -ELBO: 10.853:   9%|▉         | 53/600 [01:01<10:23,  1.14s/it]Train -ELBO: 10.845, Val -ELBO: 10.854:   9%|▉         | 54/600 [01:03<10:21,  1.14s/it]Train -ELBO: 10.820, Val -ELBO: 10.862:   9%|▉         | 55/600 [01:04<10:19,  1.14s/it]Train -ELBO: 10.829, Val -ELBO: 10.876:   9%|▉         | 56/600 [01:05<10:21,  1.14s/it]Train -ELBO: 10.795, Val -ELBO: 10.820:  10%|▉         | 57/600 [01:06<10:25,  1.15s/it]Train -ELBO: 10.806, Val -ELBO: 10.825:  10%|▉         | 58/600 [01:07<10:24,  1.15s/it]Train -ELBO: 10.826, Val -ELBO: 10.831:  10%|▉         | 59/600 [01:08<10:18,  1.14s/it]Train -ELBO: 10.808, Val -ELBO: 10.860:  10%|█         | 60/600 [01:09<10:13,  1.14s/it]Train -ELBO: 10.815, Val -ELBO: 10.838:  10%|█         | 61/600 [01:11<10:11,  1.13s/it]Train -ELBO: 10.798, Val -ELBO: 10.796:  10%|█         | 62/600 [01:12<10:08,  1.13s/it]Train -ELBO: 10.789, Val -ELBO: 10.814:  10%|█         | 63/600 [01:13<10:06,  1.13s/it]Train -ELBO: 10.787, Val -ELBO: 10.820:  11%|█         | 64/600 [01:14<10:03,  1.13s/it]Train -ELBO: 10.759, Val -ELBO: 10.790:  11%|█         | 65/600 [01:15<10:01,  1.12s/it]Train -ELBO: 10.761, Val -ELBO: 10.801:  11%|█         | 66/600 [01:16<10:00,  1.12s/it]Train -ELBO: 10.788, Val -ELBO: 10.788:  11%|█         | 67/600 [01:17<09:58,  1.12s/it]Train -ELBO: 10.776, Val -ELBO: 10.796:  11%|█▏        | 68/600 [01:18<09:57,  1.12s/it]Train -ELBO: 10.783, Val -ELBO: 10.803:  12%|█▏        | 69/600 [01:19<09:56,  1.12s/it]Train -ELBO: 10.755, Val -ELBO: 10.773:  12%|█▏        | 70/600 [01:21<09:55,  1.12s/it]Train -ELBO: 10.757, Val -ELBO: 10.807:  12%|█▏        | 71/600 [01:22<09:54,  1.12s/it]Train -ELBO: 10.762, Val -ELBO: 10.765:  12%|█▏        | 72/600 [01:23<10:01,  1.14s/it]Train -ELBO: 10.744, Val -ELBO: 10.783:  12%|█▏        | 73/600 [01:24<09:58,  1.13s/it]Train -ELBO: 10.762, Val -ELBO: 10.778:  12%|█▏        | 74/600 [01:25<10:00,  1.14s/it]Train -ELBO: 10.738, Val -ELBO: 10.777:  12%|█▎        | 75/600 [01:26<09:56,  1.14s/it]Train -ELBO: 10.728, Val -ELBO: 10.756:  13%|█▎        | 76/600 [01:27<09:53,  1.13s/it]Train -ELBO: 10.713, Val -ELBO: 10.759:  13%|█▎        | 77/600 [01:29<09:51,  1.13s/it]Train -ELBO: 10.704, Val -ELBO: 10.717:  13%|█▎        | 78/600 [01:30<09:49,  1.13s/it]Train -ELBO: 10.688, Val -ELBO: 10.731:  13%|█▎        | 79/600 [01:31<09:47,  1.13s/it]Train -ELBO: 10.673, Val -ELBO: 10.721:  13%|█▎        | 80/600 [01:32<09:45,  1.13s/it]Train -ELBO: 10.670, Val -ELBO: 10.686:  14%|█▎        | 81/600 [01:33<09:44,  1.13s/it]Train -ELBO: 10.680, Val -ELBO: 10.681:  14%|█▎        | 82/600 [01:34<09:43,  1.13s/it]Train -ELBO: 10.654, Val -ELBO: 10.698:  14%|█▍        | 83/600 [01:35<09:41,  1.13s/it]Train -ELBO: 10.616, Val -ELBO: 10.636:  14%|█▍        | 84/600 [01:36<09:41,  1.13s/it]Train -ELBO: 10.611, Val -ELBO: 10.619:  14%|█▍        | 85/600 [01:38<09:40,  1.13s/it]Train -ELBO: 10.580, Val -ELBO: 10.604:  14%|█▍        | 86/600 [01:39<09:40,  1.13s/it]Train -ELBO: 10.588, Val -ELBO: 10.605:  14%|█▍        | 87/600 [01:40<09:38,  1.13s/it]Train -ELBO: 10.562, Val -ELBO: 10.594:  15%|█▍        | 88/600 [01:41<09:36,  1.13s/it]Train -ELBO: 10.527, Val -ELBO: 10.617:  15%|█▍        | 89/600 [01:42<09:35,  1.13s/it]Train -ELBO: 10.569, Val -ELBO: 10.531:  15%|█▌        | 90/600 [01:43<09:35,  1.13s/it]Train -ELBO: 10.516, Val -ELBO: 10.556:  15%|█▌        | 91/600 [01:44<09:32,  1.13s/it]Train -ELBO: 10.517, Val -ELBO: 10.535:  15%|█▌        | 92/600 [01:45<09:36,  1.13s/it]Train -ELBO: 10.477, Val -ELBO: 10.508:  16%|█▌        | 93/600 [01:47<09:33,  1.13s/it]Train -ELBO: 10.477, Val -ELBO: 10.484:  16%|█▌        | 94/600 [01:48<09:30,  1.13s/it]Train -ELBO: 10.477, Val -ELBO: 10.527:  16%|█▌        | 95/600 [01:49<09:33,  1.13s/it]Train -ELBO: 10.461, Val -ELBO: 10.518:  16%|█▌        | 96/600 [01:50<09:29,  1.13s/it]Train -ELBO: 10.461, Val -ELBO: 10.489:  16%|█▌        | 97/600 [01:51<09:29,  1.13s/it]Train -ELBO: 10.447, Val -ELBO: 10.479:  16%|█▋        | 98/600 [01:52<09:27,  1.13s/it]Train -ELBO: 10.452, Val -ELBO: 10.450:  16%|█▋        | 99/600 [01:53<09:30,  1.14s/it]Train -ELBO: 10.446, Val -ELBO: 10.470:  17%|█▋        | 100/600 [01:55<09:26,  1.13s/it]Train -ELBO: 10.418, Val -ELBO: 10.454:  17%|█▋        | 101/600 [01:56<09:25,  1.13s/it]Train -ELBO: 10.400, Val -ELBO: 10.441:  17%|█▋        | 102/600 [01:57<09:22,  1.13s/it]Train -ELBO: 10.381, Val -ELBO: 10.425:  17%|█▋        | 103/600 [01:58<09:26,  1.14s/it]Train -ELBO: 10.399, Val -ELBO: 10.465:  17%|█▋        | 104/600 [01:59<09:27,  1.14s/it]Train -ELBO: 10.385, Val -ELBO: 10.406:  18%|█▊        | 105/600 [02:00<09:23,  1.14s/it]Train -ELBO: 10.359, Val -ELBO: 10.456:  18%|█▊        | 106/600 [02:01<09:24,  1.14s/it]Train -ELBO: 10.375, Val -ELBO: 10.385:  18%|█▊        | 107/600 [02:03<09:26,  1.15s/it]Train -ELBO: 10.364, Val -ELBO: 10.376:  18%|█▊        | 108/600 [02:04<09:25,  1.15s/it]Train -ELBO: 10.379, Val -ELBO: 10.389:  18%|█▊        | 109/600 [02:05<09:36,  1.17s/it]Train -ELBO: 10.374, Val -ELBO: 10.387:  18%|█▊        | 110/600 [02:06<09:41,  1.19s/it]Train -ELBO: 10.339, Val -ELBO: 10.369:  18%|█▊        | 111/600 [02:07<09:41,  1.19s/it]Train -ELBO: 10.318, Val -ELBO: 10.354:  19%|█▊        | 112/600 [02:09<09:40,  1.19s/it]Train -ELBO: 10.311, Val -ELBO: 10.342:  19%|█▉        | 113/600 [02:10<09:36,  1.18s/it]Train -ELBO: 10.323, Val -ELBO: 10.373:  19%|█▉        | 114/600 [02:11<09:34,  1.18s/it]Train -ELBO: 10.324, Val -ELBO: 10.346:  19%|█▉        | 115/600 [02:12<09:35,  1.19s/it]Train -ELBO: 10.341, Val -ELBO: 10.344:  19%|█▉        | 116/600 [02:13<09:29,  1.18s/it]Train -ELBO: 10.300, Val -ELBO: 10.325:  20%|█▉        | 117/600 [02:14<09:34,  1.19s/it]Train -ELBO: 10.286, Val -ELBO: 10.324:  20%|█▉        | 118/600 [02:16<09:47,  1.22s/it]Train -ELBO: 10.293, Val -ELBO: 10.331:  20%|█▉        | 119/600 [02:17<09:40,  1.21s/it]Train -ELBO: 10.301, Val -ELBO: 10.327:  20%|██        | 120/600 [02:18<09:32,  1.19s/it]Train -ELBO: 10.293, Val -ELBO: 10.337:  20%|██        | 121/600 [02:19<09:22,  1.17s/it]Train -ELBO: 10.295, Val -ELBO: 10.310:  20%|██        | 122/600 [02:20<09:14,  1.16s/it]Train -ELBO: 10.307, Val -ELBO: 10.332:  20%|██        | 123/600 [02:21<09:08,  1.15s/it]Train -ELBO: 10.284, Val -ELBO: 10.294:  21%|██        | 124/600 [02:23<09:05,  1.15s/it]Train -ELBO: 10.261, Val -ELBO: 10.321:  21%|██        | 125/600 [02:24<09:01,  1.14s/it]Train -ELBO: 10.275, Val -ELBO: 10.309:  21%|██        | 126/600 [02:25<08:58,  1.14s/it]Train -ELBO: 10.260, Val -ELBO: 10.311:  21%|██        | 127/600 [02:26<08:57,  1.14s/it]Train -ELBO: 10.264, Val -ELBO: 10.312:  21%|██▏       | 128/600 [02:27<08:54,  1.13s/it]Train -ELBO: 10.263, Val -ELBO: 10.279:  22%|██▏       | 129/600 [02:28<08:51,  1.13s/it]Train -ELBO: 10.273, Val -ELBO: 10.347:  22%|██▏       | 130/600 [02:29<08:49,  1.13s/it]Train -ELBO: 10.274, Val -ELBO: 10.273:  22%|██▏       | 131/600 [02:31<08:55,  1.14s/it]Train -ELBO: 10.259, Val -ELBO: 10.277:  22%|██▏       | 132/600 [02:32<09:05,  1.17s/it]Train -ELBO: 10.247, Val -ELBO: 10.271:  22%|██▏       | 133/600 [02:33<09:19,  1.20s/it]Train -ELBO: 10.244, Val -ELBO: 10.303:  22%|██▏       | 134/600 [02:34<09:13,  1.19s/it]Train -ELBO: 10.266, Val -ELBO: 10.273:  22%|██▎       | 135/600 [02:35<09:16,  1.20s/it]Train -ELBO: 10.252, Val -ELBO: 10.271:  23%|██▎       | 136/600 [02:37<09:05,  1.18s/it]Train -ELBO: 10.250, Val -ELBO: 10.303:  23%|██▎       | 137/600 [02:38<08:56,  1.16s/it]Train -ELBO: 10.235, Val -ELBO: 10.272:  23%|██▎       | 138/600 [02:39<08:51,  1.15s/it]Train -ELBO: 10.234, Val -ELBO: 10.268:  23%|██▎       | 139/600 [02:40<08:46,  1.14s/it]Train -ELBO: 10.225, Val -ELBO: 10.249:  23%|██▎       | 140/600 [02:41<08:43,  1.14s/it]Train -ELBO: 10.244, Val -ELBO: 10.275:  24%|██▎       | 141/600 [02:42<08:40,  1.13s/it]Train -ELBO: 10.226, Val -ELBO: 10.253:  24%|██▎       | 142/600 [02:43<08:37,  1.13s/it]Train -ELBO: 10.210, Val -ELBO: 10.269:  24%|██▍       | 143/600 [02:44<08:35,  1.13s/it]Train -ELBO: 10.214, Val -ELBO: 10.289:  24%|██▍       | 144/600 [02:46<08:34,  1.13s/it]Train -ELBO: 10.216, Val -ELBO: 10.242:  24%|██▍       | 145/600 [02:47<08:32,  1.13s/it]Train -ELBO: 10.222, Val -ELBO: 10.273:  24%|██▍       | 146/600 [02:48<08:30,  1.13s/it]Train -ELBO: 10.221, Val -ELBO: 10.254:  24%|██▍       | 147/600 [02:49<08:32,  1.13s/it]Train -ELBO: 10.214, Val -ELBO: 10.243:  25%|██▍       | 148/600 [02:50<08:32,  1.13s/it]Train -ELBO: 10.196, Val -ELBO: 10.238:  25%|██▍       | 149/600 [02:51<08:37,  1.15s/it]Train -ELBO: 10.217, Val -ELBO: 10.238:  25%|██▌       | 150/600 [02:52<08:38,  1.15s/it]Train -ELBO: 10.212, Val -ELBO: 10.242:  25%|██▌       | 151/600 [02:54<08:36,  1.15s/it]Train -ELBO: 10.222, Val -ELBO: 10.225:  25%|██▌       | 152/600 [02:55<08:44,  1.17s/it]Train -ELBO: 10.203, Val -ELBO: 10.255:  26%|██▌       | 153/600 [02:56<08:38,  1.16s/it]Train -ELBO: 10.204, Val -ELBO: 10.238:  26%|██▌       | 154/600 [02:57<08:34,  1.15s/it]Train -ELBO: 10.205, Val -ELBO: 10.244:  26%|██▌       | 155/600 [02:58<08:29,  1.15s/it]Train -ELBO: 10.219, Val -ELBO: 10.235:  26%|██▌       | 156/600 [02:59<08:25,  1.14s/it]Train -ELBO: 10.184, Val -ELBO: 10.220:  26%|██▌       | 157/600 [03:00<08:23,  1.14s/it]Train -ELBO: 10.182, Val -ELBO: 10.223:  26%|██▋       | 158/600 [03:02<08:21,  1.13s/it]Train -ELBO: 10.194, Val -ELBO: 10.256:  26%|██▋       | 159/600 [03:03<08:23,  1.14s/it]Train -ELBO: 10.231, Val -ELBO: 10.225:  27%|██▋       | 160/600 [03:04<08:35,  1.17s/it]Train -ELBO: 10.191, Val -ELBO: 10.239:  27%|██▋       | 161/600 [03:05<08:40,  1.19s/it]Train -ELBO: 10.229, Val -ELBO: 10.232:  27%|██▋       | 162/600 [03:06<08:35,  1.18s/it]Train -ELBO: 10.202, Val -ELBO: 10.250:  27%|██▋       | 163/600 [03:07<08:28,  1.16s/it]Train -ELBO: 10.182, Val -ELBO: 10.238:  27%|██▋       | 164/600 [03:09<08:25,  1.16s/it]Train -ELBO: 10.191, Val -ELBO: 10.242:  28%|██▊       | 165/600 [03:10<08:24,  1.16s/it]Train -ELBO: 10.205, Val -ELBO: 10.238:  28%|██▊       | 166/600 [03:11<08:19,  1.15s/it]Train -ELBO: 10.203, Val -ELBO: 10.216:  28%|██▊       | 167/600 [03:12<08:16,  1.15s/it]Train -ELBO: 10.187, Val -ELBO: 10.214:  28%|██▊       | 168/600 [03:13<08:12,  1.14s/it]Train -ELBO: 10.180, Val -ELBO: 10.220:  28%|██▊       | 169/600 [03:14<08:10,  1.14s/it]Train -ELBO: 10.170, Val -ELBO: 10.255:  28%|██▊       | 170/600 [03:15<08:07,  1.13s/it]Train -ELBO: 10.212, Val -ELBO: 10.230:  28%|██▊       | 171/600 [03:17<08:05,  1.13s/it]Train -ELBO: 10.185, Val -ELBO: 10.223:  29%|██▊       | 172/600 [03:18<08:03,  1.13s/it]Train -ELBO: 10.179, Val -ELBO: 10.217:  29%|██▉       | 173/600 [03:19<08:01,  1.13s/it]Train -ELBO: 10.200, Val -ELBO: 10.224:  29%|██▉       | 174/600 [03:20<08:03,  1.14s/it]Train -ELBO: 10.182, Val -ELBO: 10.236:  29%|██▉       | 175/600 [03:21<08:01,  1.13s/it]Train -ELBO: 10.174, Val -ELBO: 10.225:  29%|██▉       | 176/600 [03:22<07:59,  1.13s/it]Train -ELBO: 10.178, Val -ELBO: 10.197:  30%|██▉       | 177/600 [03:23<07:57,  1.13s/it]Train -ELBO: 10.179, Val -ELBO: 10.218:  30%|██▉       | 178/600 [03:24<07:55,  1.13s/it]Train -ELBO: 10.176, Val -ELBO: 10.202:  30%|██▉       | 179/600 [03:26<07:54,  1.13s/it]Train -ELBO: 10.170, Val -ELBO: 10.205:  30%|███       | 180/600 [03:27<07:52,  1.13s/it]Train -ELBO: 10.179, Val -ELBO: 10.199:  30%|███       | 181/600 [03:28<07:51,  1.13s/it]Train -ELBO: 10.159, Val -ELBO: 10.223:  30%|███       | 182/600 [03:29<07:50,  1.13s/it]Train -ELBO: 10.178, Val -ELBO: 10.273:  30%|███       | 183/600 [03:30<07:53,  1.14s/it]Train -ELBO: 10.175, Val -ELBO: 10.188:  31%|███       | 184/600 [03:31<07:51,  1.13s/it]Train -ELBO: 10.162, Val -ELBO: 10.175:  31%|███       | 185/600 [03:32<07:48,  1.13s/it]Train -ELBO: 10.184, Val -ELBO: 10.224:  31%|███       | 186/600 [03:33<07:47,  1.13s/it]Train -ELBO: 10.168, Val -ELBO: 10.193:  31%|███       | 187/600 [03:35<07:46,  1.13s/it]Train -ELBO: 10.173, Val -ELBO: 10.192:  31%|███▏      | 188/600 [03:36<07:44,  1.13s/it]Train -ELBO: 10.170, Val -ELBO: 10.227:  32%|███▏      | 189/600 [03:37<07:42,  1.13s/it]Train -ELBO: 10.172, Val -ELBO: 10.233:  32%|███▏      | 190/600 [03:38<07:42,  1.13s/it]Train -ELBO: 10.201, Val -ELBO: 10.215:  32%|███▏      | 191/600 [03:39<07:43,  1.13s/it]Train -ELBO: 10.168, Val -ELBO: 10.190:  32%|███▏      | 192/600 [03:40<07:43,  1.14s/it]Train -ELBO: 10.173, Val -ELBO: 10.175:  32%|███▏      | 193/600 [03:41<07:41,  1.13s/it]Train -ELBO: 10.158, Val -ELBO: 10.189:  32%|███▏      | 194/600 [03:43<07:39,  1.13s/it]Train -ELBO: 10.163, Val -ELBO: 10.189:  32%|███▎      | 195/600 [03:44<07:37,  1.13s/it]Train -ELBO: 10.155, Val -ELBO: 10.195:  33%|███▎      | 196/600 [03:45<07:35,  1.13s/it]Train -ELBO: 10.147, Val -ELBO: 10.174:  33%|███▎      | 197/600 [03:46<07:34,  1.13s/it]Train -ELBO: 10.155, Val -ELBO: 10.184:  33%|███▎      | 198/600 [03:47<07:32,  1.13s/it]Train -ELBO: 10.145, Val -ELBO: 10.188:  33%|███▎      | 199/600 [03:48<07:31,  1.13s/it]Train -ELBO: 10.159, Val -ELBO: 10.188:  33%|███▎      | 200/600 [03:49<07:32,  1.13s/it]Train -ELBO: 10.171, Val -ELBO: 10.175:  34%|███▎      | 201/600 [03:50<07:34,  1.14s/it]Train -ELBO: 10.157, Val -ELBO: 10.189:  34%|███▎      | 202/600 [03:52<07:31,  1.13s/it]Train -ELBO: 10.156, Val -ELBO: 10.194:  34%|███▍      | 203/600 [03:53<07:28,  1.13s/it]Train -ELBO: 10.149, Val -ELBO: 10.206:  34%|███▍      | 204/600 [03:54<07:26,  1.13s/it]Train -ELBO: 10.154, Val -ELBO: 10.167:  34%|███▍      | 205/600 [03:55<07:25,  1.13s/it]Train -ELBO: 10.142, Val -ELBO: 10.180:  34%|███▍      | 206/600 [03:56<07:23,  1.13s/it]Train -ELBO: 10.153, Val -ELBO: 10.192:  34%|███▍      | 207/600 [03:57<07:22,  1.13s/it]Train -ELBO: 10.162, Val -ELBO: 10.176:  35%|███▍      | 208/600 [03:58<07:21,  1.13s/it]Train -ELBO: 10.139, Val -ELBO: 10.177:  35%|███▍      | 209/600 [03:59<07:21,  1.13s/it]Train -ELBO: 10.142, Val -ELBO: 10.182:  35%|███▌      | 210/600 [04:01<07:24,  1.14s/it]Train -ELBO: 10.151, Val -ELBO: 10.211:  35%|███▌      | 211/600 [04:02<07:22,  1.14s/it]Train -ELBO: 10.144, Val -ELBO: 10.191:  35%|███▌      | 212/600 [04:03<07:20,  1.13s/it]Train -ELBO: 10.156, Val -ELBO: 10.174:  36%|███▌      | 213/600 [04:04<07:18,  1.13s/it]Train -ELBO: 10.148, Val -ELBO: 10.178:  36%|███▌      | 214/600 [04:05<07:16,  1.13s/it]Train -ELBO: 10.145, Val -ELBO: 10.178:  36%|███▌      | 215/600 [04:06<07:14,  1.13s/it]Train -ELBO: 10.151, Val -ELBO: 10.153:  36%|███▌      | 216/600 [04:07<07:13,  1.13s/it]Train -ELBO: 10.146, Val -ELBO: 10.170:  36%|███▌      | 217/600 [04:09<07:11,  1.13s/it]Train -ELBO: 10.137, Val -ELBO: 10.182:  36%|███▋      | 218/600 [04:10<07:13,  1.13s/it]Train -ELBO: 10.156, Val -ELBO: 10.162:  36%|███▋      | 219/600 [04:11<07:13,  1.14s/it]Train -ELBO: 10.154, Val -ELBO: 10.191:  37%|███▋      | 220/600 [04:12<07:12,  1.14s/it]Train -ELBO: 10.169, Val -ELBO: 10.205:  37%|███▋      | 221/600 [04:13<07:09,  1.13s/it]Train -ELBO: 10.165, Val -ELBO: 10.197:  37%|███▋      | 222/600 [04:14<07:07,  1.13s/it]Train -ELBO: 10.128, Val -ELBO: 10.177:  37%|███▋      | 223/600 [04:15<07:05,  1.13s/it]Train -ELBO: 10.161, Val -ELBO: 10.229:  37%|███▋      | 224/600 [04:16<07:03,  1.13s/it]Train -ELBO: 10.177, Val -ELBO: 10.171:  38%|███▊      | 225/600 [04:18<07:02,  1.13s/it]Train -ELBO: 10.137, Val -ELBO: 10.156:  38%|███▊      | 226/600 [04:19<07:01,  1.13s/it]Train -ELBO: 10.118, Val -ELBO: 10.167:  38%|███▊      | 227/600 [04:20<07:02,  1.13s/it]Train -ELBO: 10.139, Val -ELBO: 10.191:  38%|███▊      | 228/600 [04:21<07:00,  1.13s/it]Train -ELBO: 10.153, Val -ELBO: 10.192:  38%|███▊      | 229/600 [04:22<07:01,  1.13s/it]Train -ELBO: 10.137, Val -ELBO: 10.141:  38%|███▊      | 230/600 [04:23<07:00,  1.14s/it]Train -ELBO: 10.137, Val -ELBO: 10.157:  38%|███▊      | 231/600 [04:24<06:58,  1.13s/it]Train -ELBO: 10.127, Val -ELBO: 10.163:  39%|███▊      | 232/600 [04:26<06:56,  1.13s/it]Train -ELBO: 10.123, Val -ELBO: 10.157:  39%|███▉      | 233/600 [04:27<06:54,  1.13s/it]Train -ELBO: 10.148, Val -ELBO: 10.155:  39%|███▉      | 234/600 [04:28<06:52,  1.13s/it]Train -ELBO: 10.139, Val -ELBO: 10.168:  39%|███▉      | 235/600 [04:29<06:52,  1.13s/it]Train -ELBO: 10.136, Val -ELBO: 10.171:  39%|███▉      | 236/600 [04:30<06:57,  1.15s/it]Train -ELBO: 10.135, Val -ELBO: 10.168:  40%|███▉      | 237/600 [04:31<06:54,  1.14s/it]Train -ELBO: 10.154, Val -ELBO: 10.159:  40%|███▉      | 238/600 [04:32<06:51,  1.14s/it]Train -ELBO: 10.126, Val -ELBO: 10.165:  40%|███▉      | 239/600 [04:33<06:49,  1.13s/it]Train -ELBO: 10.122, Val -ELBO: 10.178:  40%|████      | 240/600 [04:35<06:48,  1.14s/it]Train -ELBO: 10.140, Val -ELBO: 10.207:  40%|████      | 241/600 [04:36<06:47,  1.13s/it]Train -ELBO: 10.127, Val -ELBO: 10.161:  40%|████      | 242/600 [04:37<06:45,  1.13s/it]Train -ELBO: 10.140, Val -ELBO: 10.155:  40%|████      | 243/600 [04:38<06:43,  1.13s/it]Train -ELBO: 10.117, Val -ELBO: 10.185:  41%|████      | 244/600 [04:39<06:42,  1.13s/it]Train -ELBO: 10.133, Val -ELBO: 10.154:  41%|████      | 245/600 [04:40<06:45,  1.14s/it]Train -ELBO: 10.149, Val -ELBO: 10.185:  41%|████      | 246/600 [04:41<06:42,  1.14s/it]Train -ELBO: 10.128, Val -ELBO: 10.179:  41%|████      | 247/600 [04:43<06:40,  1.13s/it]Epoch   248: reducing learning rate of group 0 to 1.0000e-04.
Train -ELBO: 10.120, Val -ELBO: 10.180:  41%|████▏     | 248/600 [04:44<06:37,  1.13s/it]Train -ELBO: 10.104, Val -ELBO: 10.137:  42%|████▏     | 249/600 [04:45<06:36,  1.13s/it]Train -ELBO: 10.090, Val -ELBO: 10.126:  42%|████▏     | 250/600 [04:46<06:34,  1.13s/it]Train -ELBO: 10.086, Val -ELBO: 10.136:  42%|████▏     | 251/600 [04:47<06:33,  1.13s/it]Train -ELBO: 10.088, Val -ELBO: 10.126:  42%|████▏     | 252/600 [04:48<06:32,  1.13s/it]Train -ELBO: 10.082, Val -ELBO: 10.132:  42%|████▏     | 253/600 [04:49<06:31,  1.13s/it]Train -ELBO: 10.079, Val -ELBO: 10.134:  42%|████▏     | 254/600 [04:50<06:32,  1.13s/it]Train -ELBO: 10.098, Val -ELBO: 10.118:  42%|████▎     | 255/600 [04:52<06:31,  1.14s/it]Train -ELBO: 10.081, Val -ELBO: 10.120:  43%|████▎     | 256/600 [04:53<06:29,  1.13s/it]Train -ELBO: 10.081, Val -ELBO: 10.133:  43%|████▎     | 257/600 [04:54<06:27,  1.13s/it]Train -ELBO: 10.090, Val -ELBO: 10.129:  43%|████▎     | 258/600 [04:55<06:25,  1.13s/it]Train -ELBO: 10.077, Val -ELBO: 10.131:  43%|████▎     | 259/600 [04:56<06:24,  1.13s/it]Train -ELBO: 10.099, Val -ELBO: 10.128:  43%|████▎     | 260/600 [04:57<06:23,  1.13s/it]Train -ELBO: 10.068, Val -ELBO: 10.126:  44%|████▎     | 261/600 [04:58<06:23,  1.13s/it]Train -ELBO: 10.082, Val -ELBO: 10.126:  44%|████▎     | 262/600 [04:59<06:23,  1.13s/it]Train -ELBO: 10.091, Val -ELBO: 10.123:  44%|████▍     | 263/600 [05:01<06:22,  1.13s/it]Train -ELBO: 10.090, Val -ELBO: 10.134:  44%|████▍     | 264/600 [05:02<06:21,  1.14s/it]Train -ELBO: 10.083, Val -ELBO: 10.121:  44%|████▍     | 265/600 [05:03<06:19,  1.13s/it]Train -ELBO: 10.083, Val -ELBO: 10.127:  44%|████▍     | 266/600 [05:04<06:18,  1.13s/it]Train -ELBO: 10.073, Val -ELBO: 10.138:  44%|████▍     | 267/600 [05:05<06:17,  1.13s/it]Train -ELBO: 10.089, Val -ELBO: 10.138:  45%|████▍     | 268/600 [05:06<06:15,  1.13s/it]Train -ELBO: 10.070, Val -ELBO: 10.120:  45%|████▍     | 269/600 [05:07<06:13,  1.13s/it]Train -ELBO: 10.074, Val -ELBO: 10.125:  45%|████▌     | 270/600 [05:09<06:12,  1.13s/it]Train -ELBO: 10.084, Val -ELBO: 10.132:  45%|████▌     | 271/600 [05:10<06:14,  1.14s/it]Train -ELBO: 10.083, Val -ELBO: 10.123:  45%|████▌     | 272/600 [05:11<06:12,  1.13s/it]Train -ELBO: 10.085, Val -ELBO: 10.136:  46%|████▌     | 273/600 [05:12<06:09,  1.13s/it]Train -ELBO: 10.072, Val -ELBO: 10.126:  46%|████▌     | 274/600 [05:13<06:08,  1.13s/it]Train -ELBO: 10.075, Val -ELBO: 10.120:  46%|████▌     | 275/600 [05:14<06:06,  1.13s/it]Train -ELBO: 10.084, Val -ELBO: 10.126:  46%|████▌     | 276/600 [05:15<06:04,  1.13s/it]Train -ELBO: 10.082, Val -ELBO: 10.122:  46%|████▌     | 277/600 [05:16<06:03,  1.13s/it]Train -ELBO: 10.075, Val -ELBO: 10.128:  46%|████▋     | 278/600 [05:18<06:02,  1.13s/it]Train -ELBO: 10.083, Val -ELBO: 10.127:  46%|████▋     | 279/600 [05:19<06:02,  1.13s/it]Train -ELBO: 10.090, Val -ELBO: 10.125:  47%|████▋     | 280/600 [05:20<06:02,  1.13s/it]Train -ELBO: 10.080, Val -ELBO: 10.116:  47%|████▋     | 281/600 [05:21<06:02,  1.14s/it]Epoch   282: reducing learning rate of group 0 to 1.0000e-05.
Train -ELBO: 10.077, Val -ELBO: 10.128:  47%|████▋     | 282/600 [05:22<06:00,  1.13s/it]Train -ELBO: 10.093, Val -ELBO: 10.120:  47%|████▋     | 283/600 [05:23<05:59,  1.13s/it]Train -ELBO: 10.077, Val -ELBO: 10.115:  47%|████▋     | 284/600 [05:24<05:56,  1.13s/it]Train -ELBO: 10.080, Val -ELBO: 10.120:  48%|████▊     | 285/600 [05:25<05:55,  1.13s/it]Train -ELBO: 10.072, Val -ELBO: 10.128:  48%|████▊     | 286/600 [05:27<05:54,  1.13s/it]Train -ELBO: 10.069, Val -ELBO: 10.128:  48%|████▊     | 287/600 [05:28<05:52,  1.13s/it]Train -ELBO: 10.077, Val -ELBO: 10.120:  48%|████▊     | 288/600 [05:29<05:52,  1.13s/it]Train -ELBO: 10.088, Val -ELBO: 10.117:  48%|████▊     | 289/600 [05:30<05:54,  1.14s/it]Train -ELBO: 10.078, Val -ELBO: 10.135:  48%|████▊     | 290/600 [05:31<05:52,  1.14s/it]Train -ELBO: 10.066, Val -ELBO: 10.131:  48%|████▊     | 291/600 [05:32<05:50,  1.14s/it]Train -ELBO: 10.073, Val -ELBO: 10.116:  49%|████▊     | 292/600 [05:33<05:48,  1.13s/it]Train -ELBO: 10.081, Val -ELBO: 10.116:  49%|████▉     | 293/600 [05:35<05:48,  1.14s/it]Train -ELBO: 10.079, Val -ELBO: 10.123:  49%|████▉     | 294/600 [05:36<05:46,  1.13s/it]Train -ELBO: 10.075, Val -ELBO: 10.127:  49%|████▉     | 295/600 [05:37<05:45,  1.13s/it]Train -ELBO: 10.093, Val -ELBO: 10.121:  49%|████▉     | 296/600 [05:38<05:43,  1.13s/it]Train -ELBO: 10.078, Val -ELBO: 10.116:  50%|████▉     | 297/600 [05:39<05:42,  1.13s/it]Train -ELBO: 10.064, Val -ELBO: 10.118:  50%|████▉     | 298/600 [05:40<05:44,  1.14s/it]Train -ELBO: 10.079, Val -ELBO: 10.122:  50%|████▉     | 299/600 [05:41<05:42,  1.14s/it]Train -ELBO: 10.079, Val -ELBO: 10.123:  50%|█████     | 300/600 [05:43<05:39,  1.13s/it]Train -ELBO: 10.074, Val -ELBO: 10.134:  50%|█████     | 301/600 [05:44<05:38,  1.13s/it]Train -ELBO: 10.080, Val -ELBO: 10.126:  50%|█████     | 302/600 [05:45<05:36,  1.13s/it]Train -ELBO: 10.078, Val -ELBO: 10.121:  50%|█████     | 303/600 [05:46<05:34,  1.13s/it]Train -ELBO: 10.081, Val -ELBO: 10.124:  51%|█████     | 304/600 [05:47<05:33,  1.13s/it]Train -ELBO: 10.078, Val -ELBO: 10.131:  51%|█████     | 305/600 [05:48<05:33,  1.13s/it]Train -ELBO: 10.084, Val -ELBO: 10.125:  51%|█████     | 306/600 [05:49<05:36,  1.15s/it]Train -ELBO: 10.078, Val -ELBO: 10.125:  51%|█████     | 307/600 [05:50<05:36,  1.15s/it]Train -ELBO: 10.072, Val -ELBO: 10.122:  51%|█████▏    | 308/600 [05:52<05:33,  1.14s/it]Train -ELBO: 10.078, Val -ELBO: 10.127:  52%|█████▏    | 309/600 [05:53<05:30,  1.14s/it]Train -ELBO: 10.084, Val -ELBO: 10.119:  52%|█████▏    | 310/600 [05:54<05:28,  1.13s/it]Train -ELBO: 10.080, Val -ELBO: 10.121:  52%|█████▏    | 311/600 [05:55<05:26,  1.13s/it]Train -ELBO: 10.076, Val -ELBO: 10.116:  52%|█████▏    | 312/600 [05:56<05:26,  1.13s/it]Train -ELBO: 10.078, Val -ELBO: 10.130:  52%|█████▏    | 313/600 [05:57<05:25,  1.13s/it]Train -ELBO: 10.082, Val -ELBO: 10.121:  52%|█████▏    | 314/600 [05:58<05:24,  1.13s/it]Train -ELBO: 10.077, Val -ELBO: 10.123:  52%|█████▎    | 315/600 [06:00<05:24,  1.14s/it]Train -ELBO: 10.073, Val -ELBO: 10.119:  53%|█████▎    | 316/600 [06:01<05:23,  1.14s/it]Train -ELBO: 10.082, Val -ELBO: 10.112:  53%|█████▎    | 317/600 [06:02<05:20,  1.13s/it]Train -ELBO: 10.080, Val -ELBO: 10.123:  53%|█████▎    | 318/600 [06:03<05:19,  1.13s/it]Epoch   319: reducing learning rate of group 0 to 1.0000e-06.
Train -ELBO: 10.078, Val -ELBO: 10.122:  53%|█████▎    | 319/600 [06:04<05:18,  1.13s/it]Train -ELBO: 10.077, Val -ELBO: 10.118:  53%|█████▎    | 320/600 [06:05<05:16,  1.13s/it]Train -ELBO: 10.087, Val -ELBO: 10.129:  54%|█████▎    | 321/600 [06:06<05:15,  1.13s/it]Train -ELBO: 10.078, Val -ELBO: 10.119:  54%|█████▎    | 322/600 [06:07<05:13,  1.13s/it]Train -ELBO: 10.080, Val -ELBO: 10.125:  54%|█████▍    | 323/600 [06:09<05:13,  1.13s/it]Train -ELBO: 10.067, Val -ELBO: 10.126:  54%|█████▍    | 324/600 [06:10<05:14,  1.14s/it]Train -ELBO: 10.087, Val -ELBO: 10.129:  54%|█████▍    | 325/600 [06:11<05:12,  1.14s/it]Train -ELBO: 10.072, Val -ELBO: 10.117:  54%|█████▍    | 326/600 [06:12<05:10,  1.13s/it]Train -ELBO: 10.078, Val -ELBO: 10.119:  55%|█████▍    | 327/600 [06:13<05:08,  1.13s/it]Train -ELBO: 10.072, Val -ELBO: 10.121:  55%|█████▍    | 328/600 [06:14<05:06,  1.13s/it]Train -ELBO: 10.066, Val -ELBO: 10.126:  55%|█████▍    | 329/600 [06:15<05:05,  1.13s/it]Train -ELBO: 10.066, Val -ELBO: 10.135:  55%|█████▌    | 330/600 [06:17<05:04,  1.13s/it]Train -ELBO: 10.072, Val -ELBO: 10.126:  55%|█████▌    | 331/600 [06:18<05:03,  1.13s/it]Train -ELBO: 10.075, Val -ELBO: 10.118:  55%|█████▌    | 332/600 [06:19<05:03,  1.13s/it]Train -ELBO: 10.069, Val -ELBO: 10.119:  56%|█████▌    | 333/600 [06:20<05:04,  1.14s/it]Train -ELBO: 10.074, Val -ELBO: 10.122:  56%|█████▌    | 334/600 [06:21<05:02,  1.14s/it]Train -ELBO: 10.086, Val -ELBO: 10.119:  56%|█████▌    | 335/600 [06:22<05:00,  1.13s/it]Train -ELBO: 10.073, Val -ELBO: 10.117:  56%|█████▌    | 336/600 [06:23<04:59,  1.13s/it]Train -ELBO: 10.081, Val -ELBO: 10.122:  56%|█████▌    | 337/600 [06:24<04:58,  1.14s/it]Train -ELBO: 10.064, Val -ELBO: 10.122:  56%|█████▋    | 338/600 [06:26<04:57,  1.14s/it]Train -ELBO: 10.079, Val -ELBO: 10.117:  56%|█████▋    | 339/600 [06:27<04:55,  1.13s/it]Train -ELBO: 10.079, Val -ELBO: 10.122:  57%|█████▋    | 340/600 [06:28<04:53,  1.13s/it]Train -ELBO: 10.094, Val -ELBO: 10.128:  57%|█████▋    | 341/600 [06:29<04:52,  1.13s/it]Train -ELBO: 10.079, Val -ELBO: 10.114:  57%|█████▋    | 342/600 [06:30<04:57,  1.15s/it]Train -ELBO: 10.075, Val -ELBO: 10.117:  57%|█████▋    | 343/600 [06:31<04:54,  1.15s/it]Train -ELBO: 10.067, Val -ELBO: 10.119:  57%|█████▋    | 344/600 [06:32<04:52,  1.14s/it]Train -ELBO: 10.071, Val -ELBO: 10.120:  57%|█████▊    | 345/600 [06:34<04:50,  1.14s/it]Train -ELBO: 10.076, Val -ELBO: 10.116:  58%|█████▊    | 346/600 [06:35<04:47,  1.13s/it]Train -ELBO: 10.076, Val -ELBO: 10.121:  58%|█████▊    | 347/600 [06:36<04:46,  1.13s/it]Train -ELBO: 10.076, Val -ELBO: 10.124:  58%|█████▊    | 348/600 [06:37<04:45,  1.13s/it]Train -ELBO: 10.071, Val -ELBO: 10.130:  58%|█████▊    | 349/600 [06:38<04:43,  1.13s/it]Train -ELBO: 10.064, Val -ELBO: 10.113:  58%|█████▊    | 350/600 [06:39<04:43,  1.13s/it]Train -ELBO: 10.073, Val -ELBO: 10.142:  58%|█████▊    | 351/600 [06:40<04:42,  1.14s/it]Train -ELBO: 10.058, Val -ELBO: 10.123:  59%|█████▊    | 352/600 [06:42<04:40,  1.13s/it]Train -ELBO: 10.073, Val -ELBO: 10.130:  59%|█████▉    | 353/600 [06:43<04:39,  1.13s/it]Train -ELBO: 10.093, Val -ELBO: 10.117:  59%|█████▉    | 354/600 [06:44<04:37,  1.13s/it]Train -ELBO: 10.080, Val -ELBO: 10.130:  59%|█████▉    | 355/600 [06:45<04:36,  1.13s/it]Train -ELBO: 10.084, Val -ELBO: 10.115:  59%|█████▉    | 356/600 [06:46<04:35,  1.13s/it]Train -ELBO: 10.075, Val -ELBO: 10.123:  60%|█████▉    | 357/600 [06:47<04:33,  1.13s/it]Train -ELBO: 10.074, Val -ELBO: 10.123:  60%|█████▉    | 358/600 [06:48<04:32,  1.13s/it]Train -ELBO: 10.077, Val -ELBO: 10.115:  60%|█████▉    | 359/600 [06:49<04:32,  1.13s/it]Train -ELBO: 10.086, Val -ELBO: 10.122:  60%|██████    | 360/600 [06:51<04:32,  1.14s/it]Train -ELBO: 10.074, Val -ELBO: 10.118:  60%|██████    | 361/600 [06:52<04:30,  1.13s/it]Train -ELBO: 10.066, Val -ELBO: 10.124:  60%|██████    | 362/600 [06:53<04:28,  1.13s/it]Train -ELBO: 10.078, Val -ELBO: 10.130:  60%|██████    | 363/600 [06:54<04:27,  1.13s/it]Train -ELBO: 10.084, Val -ELBO: 10.115:  61%|██████    | 364/600 [06:55<04:25,  1.13s/it]Train -ELBO: 10.075, Val -ELBO: 10.134:  61%|██████    | 365/600 [06:56<04:25,  1.13s/it]Train -ELBO: 10.081, Val -ELBO: 10.109:  61%|██████    | 366/600 [06:57<04:24,  1.13s/it]Train -ELBO: 10.066, Val -ELBO: 10.121:  61%|██████    | 367/600 [06:58<04:22,  1.13s/it]Train -ELBO: 10.072, Val -ELBO: 10.120:  61%|██████▏   | 368/600 [07:00<04:22,  1.13s/it]Train -ELBO: 10.069, Val -ELBO: 10.133:  62%|██████▏   | 369/600 [07:01<04:23,  1.14s/it]Train -ELBO: 10.077, Val -ELBO: 10.127:  62%|██████▏   | 370/600 [07:02<04:21,  1.14s/it]Train -ELBO: 10.079, Val -ELBO: 10.122:  62%|██████▏   | 371/600 [07:03<04:20,  1.14s/it]Train -ELBO: 10.073, Val -ELBO: 10.125:  62%|██████▏   | 372/600 [07:04<04:18,  1.13s/it]Train -ELBO: 10.066, Val -ELBO: 10.120:  62%|██████▏   | 373/600 [07:05<04:16,  1.13s/it]Train -ELBO: 10.079, Val -ELBO: 10.113:  62%|██████▏   | 374/600 [07:06<04:15,  1.13s/it]Train -ELBO: 10.081, Val -ELBO: 10.129:  62%|██████▎   | 375/600 [07:08<04:15,  1.13s/it]Train -ELBO: 10.074, Val -ELBO: 10.120:  63%|██████▎   | 376/600 [07:09<04:13,  1.13s/it]Train -ELBO: 10.068, Val -ELBO: 10.129:  63%|██████▎   | 377/600 [07:10<04:14,  1.14s/it]Train -ELBO: 10.070, Val -ELBO: 10.117:  63%|██████▎   | 378/600 [07:11<04:12,  1.14s/it]Train -ELBO: 10.080, Val -ELBO: 10.121:  63%|██████▎   | 379/600 [07:12<04:10,  1.13s/it]Train -ELBO: 10.090, Val -ELBO: 10.122:  63%|██████▎   | 380/600 [07:13<04:09,  1.13s/it]Train -ELBO: 10.093, Val -ELBO: 10.118:  64%|██████▎   | 381/600 [07:14<04:07,  1.13s/it]Train -ELBO: 10.069, Val -ELBO: 10.125:  64%|██████▎   | 382/600 [07:15<04:05,  1.13s/it]Train -ELBO: 10.069, Val -ELBO: 10.122:  64%|██████▍   | 383/600 [07:17<04:05,  1.13s/it]Train -ELBO: 10.081, Val -ELBO: 10.127:  64%|██████▍   | 384/600 [07:18<04:03,  1.13s/it]Train -ELBO: 10.067, Val -ELBO: 10.123:  64%|██████▍   | 385/600 [07:19<04:02,  1.13s/it]Train -ELBO: 10.075, Val -ELBO: 10.125:  64%|██████▍   | 386/600 [07:20<04:02,  1.13s/it]Train -ELBO: 10.084, Val -ELBO: 10.127:  64%|██████▍   | 387/600 [07:21<04:00,  1.13s/it]Train -ELBO: 10.088, Val -ELBO: 10.118:  65%|██████▍   | 388/600 [07:22<03:59,  1.13s/it]Train -ELBO: 10.083, Val -ELBO: 10.127:  65%|██████▍   | 389/600 [07:23<03:57,  1.13s/it]Train -ELBO: 10.070, Val -ELBO: 10.107:  65%|██████▌   | 390/600 [07:24<03:56,  1.13s/it]Train -ELBO: 10.075, Val -ELBO: 10.115:  65%|██████▌   | 391/600 [07:26<03:55,  1.13s/it]Train -ELBO: 10.079, Val -ELBO: 10.127:  65%|██████▌   | 392/600 [07:27<03:54,  1.13s/it]Train -ELBO: 10.077, Val -ELBO: 10.117:  66%|██████▌   | 393/600 [07:28<03:52,  1.13s/it]Train -ELBO: 10.085, Val -ELBO: 10.126:  66%|██████▌   | 394/600 [07:29<03:52,  1.13s/it]Train -ELBO: 10.080, Val -ELBO: 10.130:  66%|██████▌   | 395/600 [07:30<03:54,  1.14s/it]Train -ELBO: 10.088, Val -ELBO: 10.130:  66%|██████▌   | 396/600 [07:31<03:52,  1.14s/it]Train -ELBO: 10.066, Val -ELBO: 10.116:  66%|██████▌   | 397/600 [07:32<03:50,  1.13s/it]Train -ELBO: 10.077, Val -ELBO: 10.121:  66%|██████▋   | 398/600 [07:34<03:48,  1.13s/it]Train -ELBO: 10.081, Val -ELBO: 10.124:  66%|██████▋   | 399/600 [07:35<03:47,  1.13s/it]Train -ELBO: 10.073, Val -ELBO: 10.128:  67%|██████▋   | 400/600 [07:36<03:45,  1.13s/it]Train -ELBO: 10.081, Val -ELBO: 10.119:  67%|██████▋   | 401/600 [07:37<03:44,  1.13s/it]Train -ELBO: 10.077, Val -ELBO: 10.127:  67%|██████▋   | 402/600 [07:38<03:43,  1.13s/it]Train -ELBO: 10.068, Val -ELBO: 10.120:  67%|██████▋   | 403/600 [07:39<03:42,  1.13s/it]Train -ELBO: 10.062, Val -ELBO: 10.118:  67%|██████▋   | 404/600 [07:40<03:43,  1.14s/it]Train -ELBO: 10.071, Val -ELBO: 10.121:  68%|██████▊   | 405/600 [07:41<03:41,  1.14s/it]Train -ELBO: 10.079, Val -ELBO: 10.125:  68%|██████▊   | 406/600 [07:43<03:39,  1.13s/it]Train -ELBO: 10.074, Val -ELBO: 10.126:  68%|██████▊   | 407/600 [07:44<03:37,  1.13s/it]Train -ELBO: 10.070, Val -ELBO: 10.126:  68%|██████▊   | 408/600 [07:45<03:36,  1.13s/it]Train -ELBO: 10.071, Val -ELBO: 10.128:  68%|██████▊   | 409/600 [07:46<03:35,  1.13s/it]Train -ELBO: 10.078, Val -ELBO: 10.126:  68%|██████▊   | 410/600 [07:47<03:34,  1.13s/it]Train -ELBO: 10.082, Val -ELBO: 10.126:  68%|██████▊   | 411/600 [07:48<03:33,  1.13s/it]Train -ELBO: 10.081, Val -ELBO: 10.121:  69%|██████▊   | 412/600 [07:49<03:32,  1.13s/it]Train -ELBO: 10.082, Val -ELBO: 10.134:  69%|██████▉   | 413/600 [07:50<03:32,  1.14s/it]Train -ELBO: 10.093, Val -ELBO: 10.122:  69%|██████▉   | 414/600 [07:52<03:30,  1.13s/it]Train -ELBO: 10.077, Val -ELBO: 10.116:  69%|██████▉   | 415/600 [07:53<03:29,  1.13s/it]Train -ELBO: 10.071, Val -ELBO: 10.121:  69%|██████▉   | 416/600 [07:54<03:27,  1.13s/it]Train -ELBO: 10.080, Val -ELBO: 10.114:  70%|██████▉   | 417/600 [07:55<03:26,  1.13s/it]Train -ELBO: 10.074, Val -ELBO: 10.118:  70%|██████▉   | 418/600 [07:56<03:25,  1.13s/it]Train -ELBO: 10.075, Val -ELBO: 10.132:  70%|██████▉   | 419/600 [07:57<03:23,  1.13s/it]Train -ELBO: 10.075, Val -ELBO: 10.109:  70%|███████   | 420/600 [07:58<03:22,  1.13s/it]Train -ELBO: 10.084, Val -ELBO: 10.122:  70%|███████   | 421/600 [08:00<03:22,  1.13s/it]Train -ELBO: 10.082, Val -ELBO: 10.127:  70%|███████   | 422/600 [08:01<03:21,  1.13s/it]Train -ELBO: 10.080, Val -ELBO: 10.122:  70%|███████   | 423/600 [08:02<03:20,  1.13s/it]Train -ELBO: 10.069, Val -ELBO: 10.128:  71%|███████   | 424/600 [08:03<03:19,  1.13s/it]Train -ELBO: 10.080, Val -ELBO: 10.120:  71%|███████   | 425/600 [08:04<03:17,  1.13s/it]Train -ELBO: 10.075, Val -ELBO: 10.122:  71%|███████   | 426/600 [08:05<03:16,  1.13s/it]Train -ELBO: 10.070, Val -ELBO: 10.127:  71%|███████   | 427/600 [08:06<03:14,  1.13s/it]Train -ELBO: 10.077, Val -ELBO: 10.124:  71%|███████▏  | 428/600 [08:07<03:13,  1.13s/it]Train -ELBO: 10.079, Val -ELBO: 10.122:  72%|███████▏  | 429/600 [08:09<03:12,  1.13s/it]Train -ELBO: 10.078, Val -ELBO: 10.129:  72%|███████▏  | 430/600 [08:10<03:12,  1.13s/it]Train -ELBO: 10.066, Val -ELBO: 10.127:  72%|███████▏  | 431/600 [08:11<03:11,  1.13s/it]Train -ELBO: 10.086, Val -ELBO: 10.125:  72%|███████▏  | 432/600 [08:12<03:09,  1.13s/it]Train -ELBO: 10.075, Val -ELBO: 10.122:  72%|███████▏  | 433/600 [08:13<03:08,  1.13s/it]Train -ELBO: 10.063, Val -ELBO: 10.113:  72%|███████▏  | 434/600 [08:14<03:07,  1.13s/it]Train -ELBO: 10.080, Val -ELBO: 10.119:  72%|███████▎  | 435/600 [08:15<03:06,  1.13s/it]Train -ELBO: 10.081, Val -ELBO: 10.126:  73%|███████▎  | 436/600 [08:16<03:04,  1.13s/it]Train -ELBO: 10.082, Val -ELBO: 10.122:  73%|███████▎  | 437/600 [08:18<03:03,  1.13s/it]Train -ELBO: 10.071, Val -ELBO: 10.123:  73%|███████▎  | 438/600 [08:19<03:02,  1.13s/it]Train -ELBO: 10.076, Val -ELBO: 10.114:  73%|███████▎  | 439/600 [08:20<03:02,  1.13s/it]Train -ELBO: 10.077, Val -ELBO: 10.120:  73%|███████▎  | 440/600 [08:21<03:01,  1.13s/it]Train -ELBO: 10.078, Val -ELBO: 10.122:  74%|███████▎  | 441/600 [08:22<03:00,  1.13s/it]Train -ELBO: 10.080, Val -ELBO: 10.129:  74%|███████▎  | 442/600 [08:23<02:58,  1.13s/it]Train -ELBO: 10.063, Val -ELBO: 10.120:  74%|███████▍  | 443/600 [08:24<02:57,  1.13s/it]Train -ELBO: 10.082, Val -ELBO: 10.122:  74%|███████▍  | 444/600 [08:26<02:56,  1.13s/it]Train -ELBO: 10.074, Val -ELBO: 10.124:  74%|███████▍  | 445/600 [08:27<02:55,  1.13s/it]Train -ELBO: 10.080, Val -ELBO: 10.123:  74%|███████▍  | 446/600 [08:28<02:54,  1.13s/it]Train -ELBO: 10.082, Val -ELBO: 10.120:  74%|███████▍  | 447/600 [08:29<02:52,  1.13s/it]Train -ELBO: 10.071, Val -ELBO: 10.127:  75%|███████▍  | 448/600 [08:30<02:52,  1.14s/it]Train -ELBO: 10.076, Val -ELBO: 10.116:  75%|███████▍  | 449/600 [08:31<02:51,  1.14s/it]Train -ELBO: 10.063, Val -ELBO: 10.123:  75%|███████▌  | 450/600 [08:32<02:50,  1.13s/it]Train -ELBO: 10.078, Val -ELBO: 10.129:  75%|███████▌  | 451/600 [08:33<02:48,  1.13s/it]Train -ELBO: 10.064, Val -ELBO: 10.128:  75%|███████▌  | 452/600 [08:35<02:47,  1.13s/it]Train -ELBO: 10.067, Val -ELBO: 10.130:  76%|███████▌  | 453/600 [08:36<02:47,  1.14s/it]Train -ELBO: 10.079, Val -ELBO: 10.126:  76%|███████▌  | 454/600 [08:37<02:45,  1.13s/it]Train -ELBO: 10.070, Val -ELBO: 10.120:  76%|███████▌  | 455/600 [08:38<02:43,  1.13s/it]Train -ELBO: 10.075, Val -ELBO: 10.113:  76%|███████▌  | 456/600 [08:39<02:42,  1.13s/it]Train -ELBO: 10.077, Val -ELBO: 10.127:  76%|███████▌  | 457/600 [08:40<02:43,  1.14s/it]Train -ELBO: 10.076, Val -ELBO: 10.125:  76%|███████▋  | 458/600 [08:41<02:41,  1.14s/it]Train -ELBO: 10.071, Val -ELBO: 10.127:  76%|███████▋  | 459/600 [08:43<02:39,  1.13s/it]Train -ELBO: 10.086, Val -ELBO: 10.124:  77%|███████▋  | 460/600 [08:44<02:38,  1.13s/it]Train -ELBO: 10.079, Val -ELBO: 10.118:  77%|███████▋  | 461/600 [08:45<02:36,  1.13s/it]Train -ELBO: 10.074, Val -ELBO: 10.117:  77%|███████▋  | 462/600 [08:46<02:35,  1.13s/it]Train -ELBO: 10.085, Val -ELBO: 10.124:  77%|███████▋  | 463/600 [08:47<02:34,  1.13s/it]Train -ELBO: 10.071, Val -ELBO: 10.128:  77%|███████▋  | 464/600 [08:48<02:33,  1.13s/it]Train -ELBO: 10.077, Val -ELBO: 10.121:  78%|███████▊  | 465/600 [08:49<02:32,  1.13s/it]Train -ELBO: 10.067, Val -ELBO: 10.126:  78%|███████▊  | 466/600 [08:50<02:32,  1.14s/it]Train -ELBO: 10.084, Val -ELBO: 10.119:  78%|███████▊  | 467/600 [08:52<02:30,  1.13s/it]Train -ELBO: 10.087, Val -ELBO: 10.125:  78%|███████▊  | 468/600 [08:53<02:29,  1.13s/it]Train -ELBO: 10.070, Val -ELBO: 10.124:  78%|███████▊  | 469/600 [08:54<02:27,  1.13s/it]Train -ELBO: 10.073, Val -ELBO: 10.123:  78%|███████▊  | 470/600 [08:55<02:26,  1.13s/it]Train -ELBO: 10.083, Val -ELBO: 10.127:  78%|███████▊  | 471/600 [08:56<02:25,  1.13s/it]Train -ELBO: 10.075, Val -ELBO: 10.123:  79%|███████▊  | 472/600 [08:57<02:24,  1.13s/it]Train -ELBO: 10.075, Val -ELBO: 10.125:  79%|███████▉  | 473/600 [08:58<02:23,  1.13s/it]Train -ELBO: 10.069, Val -ELBO: 10.114:  79%|███████▉  | 474/600 [08:59<02:22,  1.13s/it]Train -ELBO: 10.079, Val -ELBO: 10.121:  79%|███████▉  | 475/600 [09:01<02:23,  1.15s/it]Train -ELBO: 10.087, Val -ELBO: 10.132:  79%|███████▉  | 476/600 [09:02<02:21,  1.14s/it]Train -ELBO: 10.069, Val -ELBO: 10.117:  80%|███████▉  | 477/600 [09:03<02:19,  1.14s/it]Train -ELBO: 10.073, Val -ELBO: 10.124:  80%|███████▉  | 478/600 [09:04<02:18,  1.13s/it]Train -ELBO: 10.073, Val -ELBO: 10.116:  80%|███████▉  | 479/600 [09:05<02:16,  1.13s/it]Train -ELBO: 10.070, Val -ELBO: 10.121:  80%|████████  | 480/600 [09:06<02:15,  1.13s/it]Train -ELBO: 10.082, Val -ELBO: 10.115:  80%|████████  | 481/600 [09:07<02:17,  1.15s/it]Train -ELBO: 10.061, Val -ELBO: 10.129:  80%|████████  | 482/600 [09:09<02:19,  1.19s/it]Train -ELBO: 10.073, Val -ELBO: 10.113:  80%|████████  | 483/600 [09:10<02:18,  1.18s/it]Train -ELBO: 10.084, Val -ELBO: 10.108:  81%|████████  | 484/600 [09:11<02:15,  1.17s/it]Train -ELBO: 10.074, Val -ELBO: 10.123:  81%|████████  | 485/600 [09:12<02:12,  1.15s/it]Train -ELBO: 10.088, Val -ELBO: 10.128:  81%|████████  | 486/600 [09:13<02:12,  1.16s/it]Train -ELBO: 10.064, Val -ELBO: 10.115:  81%|████████  | 487/600 [09:15<02:10,  1.16s/it]Train -ELBO: 10.067, Val -ELBO: 10.110:  81%|████████▏ | 488/600 [09:16<02:10,  1.17s/it]Train -ELBO: 10.071, Val -ELBO: 10.131:  82%|████████▏ | 489/600 [09:17<02:10,  1.18s/it]Train -ELBO: 10.074, Val -ELBO: 10.112:  82%|████████▏ | 490/600 [09:18<02:09,  1.17s/it]Train -ELBO: 10.083, Val -ELBO: 10.116:  82%|████████▏ | 491/600 [09:19<02:12,  1.22s/it]Train -ELBO: 10.084, Val -ELBO: 10.118:  82%|████████▏ | 492/600 [09:21<02:14,  1.24s/it]Train -ELBO: 10.069, Val -ELBO: 10.113:  82%|████████▏ | 493/600 [09:22<02:11,  1.23s/it]Train -ELBO: 10.064, Val -ELBO: 10.123:  82%|████████▏ | 494/600 [09:23<02:08,  1.21s/it]Train -ELBO: 10.083, Val -ELBO: 10.119:  82%|████████▎ | 495/600 [09:24<02:08,  1.23s/it]Train -ELBO: 10.087, Val -ELBO: 10.117:  83%|████████▎ | 496/600 [09:26<02:07,  1.22s/it]Train -ELBO: 10.084, Val -ELBO: 10.124:  83%|████████▎ | 497/600 [09:27<02:06,  1.23s/it]Train -ELBO: 10.068, Val -ELBO: 10.118:  83%|████████▎ | 498/600 [09:28<02:03,  1.21s/it]Train -ELBO: 10.072, Val -ELBO: 10.134:  83%|████████▎ | 499/600 [09:29<02:02,  1.21s/it]Train -ELBO: 10.082, Val -ELBO: 10.115:  83%|████████▎ | 500/600 [09:30<02:00,  1.21s/it]Train -ELBO: 10.065, Val -ELBO: 10.122:  84%|████████▎ | 501/600 [09:31<01:57,  1.19s/it]Train -ELBO: 10.068, Val -ELBO: 10.128:  84%|████████▎ | 502/600 [09:33<01:55,  1.18s/it]Train -ELBO: 10.079, Val -ELBO: 10.127:  84%|████████▍ | 503/600 [09:34<01:55,  1.19s/it]Train -ELBO: 10.073, Val -ELBO: 10.108:  84%|████████▍ | 504/600 [09:35<01:55,  1.20s/it]Train -ELBO: 10.068, Val -ELBO: 10.123:  84%|████████▍ | 505/600 [09:36<01:52,  1.18s/it]Train -ELBO: 10.086, Val -ELBO: 10.120:  84%|████████▍ | 506/600 [09:37<01:50,  1.18s/it]Train -ELBO: 10.069, Val -ELBO: 10.121:  84%|████████▍ | 507/600 [09:39<01:48,  1.17s/it]Train -ELBO: 10.069, Val -ELBO: 10.119:  85%|████████▍ | 508/600 [09:40<01:49,  1.19s/it]Train -ELBO: 10.074, Val -ELBO: 10.117:  85%|████████▍ | 509/600 [09:41<01:47,  1.18s/it]Train -ELBO: 10.071, Val -ELBO: 10.117:  85%|████████▌ | 510/600 [09:42<01:47,  1.19s/it]Train -ELBO: 10.074, Val -ELBO: 10.121:  85%|████████▌ | 511/600 [09:43<01:44,  1.18s/it]Train -ELBO: 10.067, Val -ELBO: 10.132:  85%|████████▌ | 512/600 [09:44<01:43,  1.18s/it]Train -ELBO: 10.077, Val -ELBO: 10.118:  86%|████████▌ | 513/600 [09:46<01:41,  1.16s/it]Train -ELBO: 10.081, Val -ELBO: 10.114:  86%|████████▌ | 514/600 [09:47<01:40,  1.16s/it]Train -ELBO: 10.082, Val -ELBO: 10.115:  86%|████████▌ | 515/600 [09:48<01:40,  1.18s/it]Train -ELBO: 10.077, Val -ELBO: 10.124:  86%|████████▌ | 516/600 [09:49<01:39,  1.18s/it]Train -ELBO: 10.072, Val -ELBO: 10.114:  86%|████████▌ | 517/600 [09:50<01:39,  1.20s/it]Train -ELBO: 10.066, Val -ELBO: 10.127:  86%|████████▋ | 518/600 [09:52<01:37,  1.19s/it]Train -ELBO: 10.083, Val -ELBO: 10.119:  86%|████████▋ | 519/600 [09:53<01:36,  1.19s/it]Train -ELBO: 10.061, Val -ELBO: 10.118:  87%|████████▋ | 520/600 [09:54<01:34,  1.18s/it]Train -ELBO: 10.088, Val -ELBO: 10.123:  87%|████████▋ | 521/600 [09:55<01:31,  1.16s/it]Train -ELBO: 10.081, Val -ELBO: 10.119:  87%|████████▋ | 522/600 [09:56<01:31,  1.18s/it]Train -ELBO: 10.069, Val -ELBO: 10.118:  87%|████████▋ | 523/600 [09:57<01:30,  1.18s/it]Train -ELBO: 10.068, Val -ELBO: 10.120:  87%|████████▋ | 524/600 [09:59<01:28,  1.17s/it]Train -ELBO: 10.079, Val -ELBO: 10.121:  88%|████████▊ | 525/600 [10:00<01:27,  1.16s/it]Train -ELBO: 10.076, Val -ELBO: 10.127:  88%|████████▊ | 526/600 [10:01<01:25,  1.16s/it]Train -ELBO: 10.082, Val -ELBO: 10.132:  88%|████████▊ | 527/600 [10:02<01:24,  1.16s/it]Train -ELBO: 10.064, Val -ELBO: 10.122:  88%|████████▊ | 528/600 [10:03<01:23,  1.15s/it]Train -ELBO: 10.072, Val -ELBO: 10.122:  88%|████████▊ | 529/600 [10:04<01:21,  1.15s/it]Train -ELBO: 10.069, Val -ELBO: 10.122:  88%|████████▊ | 530/600 [10:06<01:21,  1.17s/it]Train -ELBO: 10.074, Val -ELBO: 10.127:  88%|████████▊ | 531/600 [10:07<01:21,  1.18s/it]Train -ELBO: 10.078, Val -ELBO: 10.115:  89%|████████▊ | 532/600 [10:08<01:19,  1.16s/it]Train -ELBO: 10.076, Val -ELBO: 10.116:  89%|████████▉ | 533/600 [10:09<01:17,  1.16s/it]Train -ELBO: 10.086, Val -ELBO: 10.126:  89%|████████▉ | 534/600 [10:10<01:17,  1.18s/it]Train -ELBO: 10.069, Val -ELBO: 10.127:  89%|████████▉ | 535/600 [10:11<01:16,  1.17s/it]Train -ELBO: 10.082, Val -ELBO: 10.121:  89%|████████▉ | 536/600 [10:13<01:14,  1.17s/it]Train -ELBO: 10.083, Val -ELBO: 10.113:  90%|████████▉ | 537/600 [10:14<01:13,  1.16s/it]Train -ELBO: 10.070, Val -ELBO: 10.135:  90%|████████▉ | 538/600 [10:15<01:11,  1.16s/it]Train -ELBO: 10.089, Val -ELBO: 10.132:  90%|████████▉ | 539/600 [10:16<01:11,  1.17s/it]Train -ELBO: 10.074, Val -ELBO: 10.130:  90%|█████████ | 540/600 [10:17<01:10,  1.18s/it]Train -ELBO: 10.068, Val -ELBO: 10.118:  90%|█████████ | 541/600 [10:18<01:09,  1.18s/it]Train -ELBO: 10.077, Val -ELBO: 10.131:  90%|█████████ | 542/600 [10:20<01:10,  1.21s/it]Train -ELBO: 10.087, Val -ELBO: 10.128:  90%|█████████ | 543/600 [10:21<01:09,  1.23s/it]Train -ELBO: 10.083, Val -ELBO: 10.122:  91%|█████████ | 544/600 [10:22<01:08,  1.23s/it]Train -ELBO: 10.061, Val -ELBO: 10.119:  91%|█████████ | 545/600 [10:23<01:08,  1.24s/it]Train -ELBO: 10.079, Val -ELBO: 10.121:  91%|█████████ | 546/600 [10:25<01:07,  1.24s/it]Train -ELBO: 10.076, Val -ELBO: 10.123:  91%|█████████ | 547/600 [10:26<01:05,  1.23s/it]Train -ELBO: 10.083, Val -ELBO: 10.125:  91%|█████████▏| 548/600 [10:27<01:02,  1.21s/it]Train -ELBO: 10.081, Val -ELBO: 10.123:  92%|█████████▏| 549/600 [10:28<01:00,  1.19s/it]Train -ELBO: 10.067, Val -ELBO: 10.126:  92%|█████████▏| 550/600 [10:29<01:00,  1.20s/it]Train -ELBO: 10.076, Val -ELBO: 10.120:  92%|█████████▏| 551/600 [10:31<00:59,  1.22s/it]Train -ELBO: 10.096, Val -ELBO: 10.110:  92%|█████████▏| 552/600 [10:32<00:59,  1.25s/it]Train -ELBO: 10.073, Val -ELBO: 10.122:  92%|█████████▏| 553/600 [10:33<00:58,  1.24s/it]Train -ELBO: 10.065, Val -ELBO: 10.119:  92%|█████████▏| 554/600 [10:34<00:56,  1.23s/it]Train -ELBO: 10.074, Val -ELBO: 10.119:  92%|█████████▎| 555/600 [10:36<00:55,  1.23s/it]Train -ELBO: 10.074, Val -ELBO: 10.119:  93%|█████████▎| 556/600 [10:37<00:53,  1.21s/it]Train -ELBO: 10.077, Val -ELBO: 10.134:  93%|█████████▎| 557/600 [10:38<00:51,  1.20s/it]Train -ELBO: 10.071, Val -ELBO: 10.126:  93%|█████████▎| 558/600 [10:39<00:51,  1.22s/it]Train -ELBO: 10.082, Val -ELBO: 10.114:  93%|█████████▎| 559/600 [10:40<00:49,  1.21s/it]Train -ELBO: 10.072, Val -ELBO: 10.123:  93%|█████████▎| 560/600 [10:42<00:47,  1.19s/it]Train -ELBO: 10.089, Val -ELBO: 10.112:  94%|█████████▎| 561/600 [10:43<00:46,  1.19s/it]Train -ELBO: 10.072, Val -ELBO: 10.118:  94%|█████████▎| 562/600 [10:44<00:45,  1.19s/it]Train -ELBO: 10.071, Val -ELBO: 10.121:  94%|█████████▍| 563/600 [10:45<00:44,  1.20s/it]Train -ELBO: 10.079, Val -ELBO: 10.137:  94%|█████████▍| 564/600 [10:46<00:42,  1.19s/it]Train -ELBO: 10.065, Val -ELBO: 10.128:  94%|█████████▍| 565/600 [10:48<00:41,  1.19s/it]Train -ELBO: 10.075, Val -ELBO: 10.111:  94%|█████████▍| 566/600 [10:49<00:40,  1.20s/it]Train -ELBO: 10.074, Val -ELBO: 10.122:  94%|█████████▍| 567/600 [10:50<00:39,  1.20s/it]Train -ELBO: 10.092, Val -ELBO: 10.121:  95%|█████████▍| 568/600 [10:51<00:38,  1.21s/it]Train -ELBO: 10.075, Val -ELBO: 10.127:  95%|█████████▍| 569/600 [10:52<00:36,  1.19s/it]Train -ELBO: 10.077, Val -ELBO: 10.125:  95%|█████████▌| 570/600 [10:54<00:35,  1.17s/it]Train -ELBO: 10.093, Val -ELBO: 10.120:  95%|█████████▌| 571/600 [10:55<00:33,  1.15s/it]Train -ELBO: 10.075, Val -ELBO: 10.124:  95%|█████████▌| 572/600 [10:56<00:32,  1.15s/it]Train -ELBO: 10.075, Val -ELBO: 10.116:  96%|█████████▌| 573/600 [10:57<00:30,  1.14s/it]Train -ELBO: 10.080, Val -ELBO: 10.126:  96%|█████████▌| 574/600 [10:58<00:30,  1.18s/it]Train -ELBO: 10.076, Val -ELBO: 10.113:  96%|█████████▌| 575/600 [10:59<00:29,  1.18s/it]Train -ELBO: 10.074, Val -ELBO: 10.123:  96%|█████████▌| 576/600 [11:00<00:28,  1.17s/it]Train -ELBO: 10.079, Val -ELBO: 10.125:  96%|█████████▌| 577/600 [11:02<00:26,  1.16s/it]Train -ELBO: 10.079, Val -ELBO: 10.117:  96%|█████████▋| 578/600 [11:03<00:25,  1.15s/it]Train -ELBO: 10.067, Val -ELBO: 10.128:  96%|█████████▋| 579/600 [11:04<00:24,  1.15s/it]Train -ELBO: 10.072, Val -ELBO: 10.129:  97%|█████████▋| 580/600 [11:05<00:22,  1.15s/it]Train -ELBO: 10.073, Val -ELBO: 10.123:  97%|█████████▋| 581/600 [11:06<00:21,  1.14s/it]Train -ELBO: 10.063, Val -ELBO: 10.118:  97%|█████████▋| 582/600 [11:07<00:20,  1.14s/it]Train -ELBO: 10.082, Val -ELBO: 10.119:  97%|█████████▋| 583/600 [11:08<00:19,  1.15s/it]Train -ELBO: 10.069, Val -ELBO: 10.127:  97%|█████████▋| 584/600 [11:10<00:18,  1.15s/it]Train -ELBO: 10.067, Val -ELBO: 10.112:  98%|█████████▊| 585/600 [11:11<00:17,  1.14s/it]Train -ELBO: 10.070, Val -ELBO: 10.124:  98%|█████████▊| 586/600 [11:12<00:15,  1.14s/it]Train -ELBO: 10.065, Val -ELBO: 10.116:  98%|█████████▊| 587/600 [11:13<00:14,  1.13s/it]Train -ELBO: 10.075, Val -ELBO: 10.106:  98%|█████████▊| 588/600 [11:14<00:13,  1.13s/it]Train -ELBO: 10.061, Val -ELBO: 10.123:  98%|█████████▊| 589/600 [11:15<00:12,  1.13s/it]Train -ELBO: 10.065, Val -ELBO: 10.125:  98%|█████████▊| 590/600 [11:16<00:11,  1.13s/it]Train -ELBO: 10.079, Val -ELBO: 10.129:  98%|█████████▊| 591/600 [11:18<00:10,  1.13s/it]Train -ELBO: 10.073, Val -ELBO: 10.124:  99%|█████████▊| 592/600 [11:19<00:09,  1.14s/it]Train -ELBO: 10.073, Val -ELBO: 10.123:  99%|█████████▉| 593/600 [11:20<00:08,  1.17s/it]Train -ELBO: 10.074, Val -ELBO: 10.123:  99%|█████████▉| 594/600 [11:21<00:06,  1.16s/it]Train -ELBO: 10.079, Val -ELBO: 10.125:  99%|█████████▉| 595/600 [11:22<00:05,  1.18s/it]Train -ELBO: 10.074, Val -ELBO: 10.119:  99%|█████████▉| 596/600 [11:24<00:04,  1.20s/it]Train -ELBO: 10.073, Val -ELBO: 10.125: 100%|█████████▉| 597/600 [11:25<00:03,  1.21s/it]Train -ELBO: 10.081, Val -ELBO: 10.119: 100%|█████████▉| 598/600 [11:26<00:02,  1.20s/it]Train -ELBO: 10.074, Val -ELBO: 10.122: 100%|█████████▉| 599/600 [11:27<00:01,  1.18s/it]Train -ELBO: 10.069, Val -ELBO: 10.133: 100%|██████████| 600/600 [11:28<00:00,  1.16s/it]Train -ELBO: 10.069, Val -ELBO: 10.133: 100%|██████████| 600/600 [11:28<00:00,  1.15s/it]
INFO - siren_vae - Completed after 0:11:30
