{
  "memory.usage": {
    "steps": [
      0,
      1,
      2,
      3,
      4,
      5,
      6,
      7,
      8,
      9,
      10,
      11,
      12,
      13,
      14,
      15,
      16,
      17,
      18,
      19,
      20,
      21,
      22,
      23,
      24,
      25,
      26,
      27,
      28,
      29,
      30,
      31,
      32,
      33,
      34,
      35,
      36,
      37,
      38,
      39,
      40,
      41,
      42,
      43,
      44,
      45,
      46,
      47,
      48,
      49,
      50,
      51,
      52,
      53,
      54,
      55,
      56,
      57,
      58,
      59,
      60,
      61,
      62,
      63,
      64,
      65,
      66,
      67,
      68,
      69,
      70,
      71,
      72,
      73,
      74,
      75,
      76,
      77,
      78,
      79,
      80,
      81,
      82,
      83,
      84,
      85,
      86,
      87,
      88,
      89,
      90,
      91,
      92,
      93,
      94,
      95,
      96,
      97,
      98,
      99,
      100,
      101,
      102,
      103,
      104,
      105,
      106,
      107,
      108,
      109,
      110,
      111,
      112,
      113,
      114,
      115,
      116,
      117,
      118,
      119,
      120,
      121,
      122,
      123,
      124,
      125,
      126,
      127,
      128,
      129,
      130,
      131,
      132,
      133,
      134,
      135,
      136,
      137,
      138,
      139,
      140,
      141,
      142,
      143,
      144,
      145,
      146,
      147,
      148,
      149,
      150,
      151,
      152,
      153,
      154,
      155,
      156,
      157,
      158,
      159,
      160,
      161,
      162,
      163,
      164,
      165,
      166,
      167,
      168,
      169,
      170,
      171,
      172,
      173,
      174,
      175,
      176,
      177,
      178,
      179,
      180,
      181,
      182,
      183,
      184,
      185,
      186,
      187,
      188,
      189,
      190,
      191,
      192,
      193,
      194,
      195,
      196,
      197,
      198,
      199
    ],
    "timestamps": [
      "2022-11-05T20:44:03.214319",
      "2022-11-05T20:44:06.102184",
      "2022-11-05T20:44:08.948206",
      "2022-11-05T20:44:11.768694",
      "2022-11-05T20:44:14.596313",
      "2022-11-05T20:44:17.460023",
      "2022-11-05T20:44:20.300950",
      "2022-11-05T20:44:23.150846",
      "2022-11-05T20:44:25.970625",
      "2022-11-05T20:44:28.840690",
      "2022-11-05T20:44:31.653663",
      "2022-11-05T20:44:34.502827",
      "2022-11-05T20:44:37.320528",
      "2022-11-05T20:44:40.169071",
      "2022-11-05T20:44:42.973774",
      "2022-11-05T20:44:45.832066",
      "2022-11-05T20:44:48.667304",
      "2022-11-05T20:44:51.523742",
      "2022-11-05T20:44:54.336815",
      "2022-11-05T20:44:57.193324",
      "2022-11-05T20:45:00.028434",
      "2022-11-05T20:45:03.005758",
      "2022-11-05T20:45:05.850566",
      "2022-11-05T20:45:08.696632",
      "2022-11-05T20:45:11.514875",
      "2022-11-05T20:45:14.371048",
      "2022-11-05T20:45:17.187373",
      "2022-11-05T20:45:20.038085",
      "2022-11-05T20:45:22.868214",
      "2022-11-05T20:45:25.714916",
      "2022-11-05T20:45:28.587904",
      "2022-11-05T20:45:31.438470",
      "2022-11-05T20:45:34.266622",
      "2022-11-05T20:45:37.121375",
      "2022-11-05T20:45:39.950012",
      "2022-11-05T20:45:42.825897",
      "2022-11-05T20:45:45.645173",
      "2022-11-05T20:45:48.500397",
      "2022-11-05T20:45:51.320973",
      "2022-11-05T20:45:54.179067",
      "2022-11-05T20:45:57.008326",
      "2022-11-05T20:45:59.839971",
      "2022-11-05T20:46:02.644355",
      "2022-11-05T20:46:05.531147",
      "2022-11-05T20:46:08.333150",
      "2022-11-05T20:46:11.176841",
      "2022-11-05T20:46:13.986714",
      "2022-11-05T20:46:16.844915",
      "2022-11-05T20:46:19.662689",
      "2022-11-05T20:46:22.519199",
      "2022-11-05T20:46:25.343100",
      "2022-11-05T20:46:28.201306",
      "2022-11-05T20:46:31.018589",
      "2022-11-05T20:46:33.879061",
      "2022-11-05T20:46:36.715367",
      "2022-11-05T20:46:39.552696",
      "2022-11-05T20:46:42.386319",
      "2022-11-05T20:46:45.243728",
      "2022-11-05T20:46:48.043450",
      "2022-11-05T20:46:50.913963",
      "2022-11-05T20:46:53.730734",
      "2022-11-05T20:46:56.586357",
      "2022-11-05T20:46:59.420107",
      "2022-11-05T20:47:02.248116",
      "2022-11-05T20:47:05.053217",
      "2022-11-05T20:47:07.911720",
      "2022-11-05T20:47:10.731750",
      "2022-11-05T20:47:13.611921",
      "2022-11-05T20:47:16.436069",
      "2022-11-05T20:47:19.296329",
      "2022-11-05T20:47:22.147477",
      "2022-11-05T20:47:25.027213",
      "2022-11-05T20:47:27.861500",
      "2022-11-05T20:47:30.719452",
      "2022-11-05T20:47:33.635349",
      "2022-11-05T20:47:36.484517",
      "2022-11-05T20:47:39.342266",
      "2022-11-05T20:47:42.155300",
      "2022-11-05T20:47:44.969131",
      "2022-11-05T20:47:47.823399",
      "2022-11-05T20:47:50.684789",
      "2022-11-05T20:47:53.538335",
      "2022-11-05T20:47:56.351561",
      "2022-11-05T20:47:59.194716",
      "2022-11-05T20:48:02.015736",
      "2022-11-05T20:48:04.862456",
      "2022-11-05T20:48:07.691936",
      "2022-11-05T20:48:10.547708",
      "2022-11-05T20:48:13.384412",
      "2022-11-05T20:48:16.221148",
      "2022-11-05T20:48:19.076958",
      "2022-11-05T20:48:21.936189",
      "2022-11-05T20:48:24.766489",
      "2022-11-05T20:48:27.640893",
      "2022-11-05T20:48:30.447292",
      "2022-11-05T20:48:33.293249",
      "2022-11-05T20:48:36.082242",
      "2022-11-05T20:48:38.926569",
      "2022-11-05T20:48:41.714353",
      "2022-11-05T20:48:44.602235",
      "2022-11-05T20:48:47.463023",
      "2022-11-05T20:48:50.371327",
      "2022-11-05T20:48:53.214570",
      "2022-11-05T20:48:56.072652",
      "2022-11-05T20:48:58.940633",
      "2022-11-05T20:49:01.761487",
      "2022-11-05T20:49:04.594748",
      "2022-11-05T20:49:07.590246",
      "2022-11-05T20:49:10.569404",
      "2022-11-05T20:49:13.508111",
      "2022-11-05T20:49:16.349631",
      "2022-11-05T20:49:19.246356",
      "2022-11-05T20:49:22.072097",
      "2022-11-05T20:49:24.942517",
      "2022-11-05T20:49:27.772944",
      "2022-11-05T20:49:30.640828",
      "2022-11-05T20:49:33.489510",
      "2022-11-05T20:49:36.349323",
      "2022-11-05T20:49:39.293642",
      "2022-11-05T20:49:42.219202",
      "2022-11-05T20:49:45.075009",
      "2022-11-05T20:49:47.942008",
      "2022-11-05T20:49:50.775926",
      "2022-11-05T20:49:53.666938",
      "2022-11-05T20:49:56.553878",
      "2022-11-05T20:49:59.410962",
      "2022-11-05T20:50:02.362422",
      "2022-11-05T20:50:05.222779",
      "2022-11-05T20:50:07.980777",
      "2022-11-05T20:50:10.526080",
      "2022-11-05T20:50:13.053011",
      "2022-11-05T20:50:16.242376",
      "2022-11-05T20:50:21.330169",
      "2022-11-05T20:50:23.862565",
      "2022-11-05T20:50:26.507080",
      "2022-11-05T20:50:29.091148",
      "2022-11-05T20:50:31.746286",
      "2022-11-05T20:50:34.322944",
      "2022-11-05T20:50:37.034017",
      "2022-11-05T20:50:39.811326",
      "2022-11-05T20:50:42.478059",
      "2022-11-05T20:50:46.692268",
      "2022-11-05T20:50:49.364221",
      "2022-11-05T20:50:51.985669",
      "2022-11-05T20:50:54.563870",
      "2022-11-05T20:50:57.305896",
      "2022-11-05T20:50:59.920656",
      "2022-11-05T20:51:02.536957",
      "2022-11-05T20:51:05.171331",
      "2022-11-05T20:51:07.978917",
      "2022-11-05T20:51:11.835508",
      "2022-11-05T20:51:15.963023",
      "2022-11-05T20:51:18.601743",
      "2022-11-05T20:51:21.290063",
      "2022-11-05T20:51:23.947992",
      "2022-11-05T20:51:26.553673",
      "2022-11-05T20:51:29.196806",
      "2022-11-05T20:51:31.862770",
      "2022-11-05T20:51:34.433108",
      "2022-11-05T20:51:37.049221",
      "2022-11-05T20:51:39.661142",
      "2022-11-05T20:51:42.292058",
      "2022-11-05T20:51:44.898623",
      "2022-11-05T20:51:47.481513",
      "2022-11-05T20:51:50.056513",
      "2022-11-05T20:51:53.378456",
      "2022-11-05T20:51:56.074635",
      "2022-11-05T20:51:59.961446",
      "2022-11-05T20:52:03.276138",
      "2022-11-05T20:52:06.079137",
      "2022-11-05T20:52:08.848944",
      "2022-11-05T20:52:11.689214",
      "2022-11-05T20:52:14.503445",
      "2022-11-05T20:52:17.413095",
      "2022-11-05T20:52:21.035449",
      "2022-11-05T20:52:23.969753",
      "2022-11-05T20:52:26.798166",
      "2022-11-05T20:52:30.677919",
      "2022-11-05T20:52:33.575546",
      "2022-11-05T20:52:36.462463",
      "2022-11-05T20:52:39.353564",
      "2022-11-05T20:52:43.967379",
      "2022-11-05T20:52:46.825912",
      "2022-11-05T20:52:49.661491",
      "2022-11-05T20:52:52.492696",
      "2022-11-05T20:52:55.306676",
      "2022-11-05T20:52:58.117008",
      "2022-11-05T20:53:00.923149",
      "2022-11-05T20:53:03.698173",
      "2022-11-05T20:53:06.507162",
      "2022-11-05T20:53:09.310103",
      "2022-11-05T20:53:12.052807",
      "2022-11-05T20:53:14.857806",
      "2022-11-05T20:53:17.681231",
      "2022-11-05T20:53:20.502161",
      "2022-11-05T20:53:23.258083",
      "2022-11-05T20:53:26.069068",
      "2022-11-05T20:53:30.569872",
      "2022-11-05T20:53:33.346606",
      "2022-11-05T20:53:36.212363"
    ],
    "values": [
      4.439552,
      4.442624,
      4.442624,
      4.442624,
      4.442624,
      4.442624,
      4.442624,
      4.442624,
      4.442624,
      4.442624,
      4.442624,
      4.442624,
      4.442624,
      4.442624,
      4.442624,
      4.442624,
      4.442624,
      4.442624,
      4.442624,
      4.442624,
      4.442624,
      4.442624,
      4.442624,
      4.442624,
      4.442624,
      4.442624,
      4.442624,
      4.442624,
      4.442624,
      4.442624,
      4.442624,
      4.442624,
      4.442624,
      4.442624,
      4.442624,
      4.442624,
      4.442624,
      4.442624,
      4.442624,
      4.442624,
      4.442624,
      4.442624,
      4.442624,
      4.442624,
      4.442624,
      4.442624,
      4.442624,
      4.442624,
      4.442624,
      4.442624,
      4.442624,
      4.442624,
      4.442624,
      4.442624,
      4.442624,
      4.442624,
      4.442624,
      4.442624,
      4.442624,
      4.442624,
      4.442624,
      4.442624,
      4.442624,
      4.442624,
      4.442624,
      4.442624,
      4.442624,
      4.442624,
      4.442624,
      4.442624,
      4.442624,
      4.442624,
      4.442624,
      4.442624,
      4.442624,
      4.442624,
      4.442624,
      4.442624,
      4.442624,
      4.442624,
      4.442624,
      4.442624,
      4.442624,
      4.442624,
      4.442624,
      4.442624,
      4.442624,
      4.442624,
      4.442624,
      4.442624,
      4.442624,
      4.442624,
      4.442624,
      4.442624,
      4.442624,
      4.442624,
      4.442624,
      4.442624,
      4.442624,
      4.442624,
      4.442624,
      4.442624,
      4.442624,
      4.442624,
      4.442624,
      4.442624,
      4.442624,
      4.442624,
      4.442624,
      4.442624,
      4.442624,
      4.442624,
      4.442624,
      4.442624,
      4.442624,
      4.442624,
      4.442624,
      4.442624,
      4.442624,
      4.442624,
      4.442624,
      4.442624,
      4.442624,
      4.442624,
      4.442624,
      4.442624,
      4.442624,
      4.442624,
      4.442624,
      4.442624,
      4.442624,
      4.442624,
      4.442624,
      4.442624,
      4.442624,
      4.442624,
      4.442624,
      4.442624,
      4.442624,
      4.442624,
      4.442624,
      4.442624,
      4.442624,
      4.442624,
      4.442624,
      4.442624,
      4.442624,
      4.442624,
      4.442624,
      4.442624,
      4.442624,
      4.442624,
      4.442624,
      4.442624,
      4.442624,
      4.442624,
      4.442624,
      4.442624,
      4.442624,
      4.442624,
      4.442624,
      4.442624,
      4.442624,
      4.442624,
      4.442624,
      4.442624,
      4.442624,
      4.442624,
      4.442624,
      4.442624,
      4.442624,
      4.442624,
      4.442624,
      4.442624,
      4.442624,
      4.442624,
      4.442624,
      4.442624,
      4.442624,
      4.442624,
      4.442624,
      4.442624,
      4.442624,
      4.442624,
      4.442624,
      4.442624,
      4.442624,
      4.442624,
      4.442624,
      4.442624,
      4.442624,
      4.442624,
      4.442624,
      4.442624,
      4.442624,
      4.442624,
      4.442624,
      4.442624,
      4.442624,
      4.442624
    ]
  },
  "test": {
    "steps": [
      0
    ],
    "timestamps": [
      "2022-11-05T20:53:36.875924"
    ],
    "values": [
      8.644443740844727
    ]
  },
  "train": {
    "steps": [
      0,
      1,
      2,
      3,
      4,
      5,
      6,
      7,
      8,
      9,
      10,
      11,
      12,
      13,
      14,
      15,
      16,
      17,
      18,
      19,
      20,
      21,
      22,
      23,
      24,
      25,
      26,
      27,
      28,
      29,
      30,
      31,
      32,
      33,
      34,
      35,
      36,
      37,
      38,
      39,
      40,
      41,
      42,
      43,
      44,
      45,
      46,
      47,
      48,
      49,
      50,
      51,
      52,
      53,
      54,
      55,
      56,
      57,
      58,
      59,
      60,
      61,
      62,
      63,
      64,
      65,
      66,
      67,
      68,
      69,
      70,
      71,
      72,
      73,
      74,
      75,
      76,
      77,
      78,
      79,
      80,
      81,
      82,
      83,
      84,
      85,
      86,
      87,
      88,
      89,
      90,
      91,
      92,
      93,
      94,
      95,
      96,
      97,
      98,
      99,
      100,
      101,
      102,
      103,
      104,
      105,
      106,
      107,
      108,
      109,
      110,
      111,
      112,
      113,
      114,
      115,
      116,
      117,
      118,
      119,
      120,
      121,
      122,
      123,
      124,
      125,
      126,
      127,
      128,
      129,
      130,
      131,
      132,
      133,
      134,
      135,
      136,
      137,
      138,
      139,
      140,
      141,
      142,
      143,
      144,
      145,
      146,
      147,
      148,
      149,
      150,
      151,
      152,
      153,
      154,
      155,
      156,
      157,
      158,
      159,
      160,
      161,
      162,
      163,
      164,
      165,
      166,
      167,
      168,
      169,
      170,
      171,
      172,
      173,
      174,
      175,
      176,
      177,
      178,
      179,
      180,
      181,
      182,
      183,
      184,
      185,
      186,
      187,
      188,
      189,
      190,
      191,
      192,
      193,
      194,
      195,
      196,
      197,
      198,
      199
    ],
    "timestamps": [
      "2022-11-05T20:44:03.214159",
      "2022-11-05T20:44:06.102065",
      "2022-11-05T20:44:08.948059",
      "2022-11-05T20:44:11.768577",
      "2022-11-05T20:44:14.596190",
      "2022-11-05T20:44:17.459905",
      "2022-11-05T20:44:20.300830",
      "2022-11-05T20:44:23.150727",
      "2022-11-05T20:44:25.970509",
      "2022-11-05T20:44:28.840564",
      "2022-11-05T20:44:31.653535",
      "2022-11-05T20:44:34.502702",
      "2022-11-05T20:44:37.320405",
      "2022-11-05T20:44:40.168944",
      "2022-11-05T20:44:42.973652",
      "2022-11-05T20:44:45.831947",
      "2022-11-05T20:44:48.667176",
      "2022-11-05T20:44:51.523607",
      "2022-11-05T20:44:54.336686",
      "2022-11-05T20:44:57.193208",
      "2022-11-05T20:45:00.028303",
      "2022-11-05T20:45:03.005629",
      "2022-11-05T20:45:05.850433",
      "2022-11-05T20:45:08.696496",
      "2022-11-05T20:45:11.514741",
      "2022-11-05T20:45:14.370925",
      "2022-11-05T20:45:17.187244",
      "2022-11-05T20:45:20.037963",
      "2022-11-05T20:45:22.868093",
      "2022-11-05T20:45:25.714788",
      "2022-11-05T20:45:28.587741",
      "2022-11-05T20:45:31.438348",
      "2022-11-05T20:45:34.266497",
      "2022-11-05T20:45:37.121252",
      "2022-11-05T20:45:39.949888",
      "2022-11-05T20:45:42.825771",
      "2022-11-05T20:45:45.645051",
      "2022-11-05T20:45:48.500256",
      "2022-11-05T20:45:51.320811",
      "2022-11-05T20:45:54.178940",
      "2022-11-05T20:45:57.008194",
      "2022-11-05T20:45:59.839848",
      "2022-11-05T20:46:02.644234",
      "2022-11-05T20:46:05.531000",
      "2022-11-05T20:46:08.333011",
      "2022-11-05T20:46:11.176713",
      "2022-11-05T20:46:13.986581",
      "2022-11-05T20:46:16.844768",
      "2022-11-05T20:46:19.662566",
      "2022-11-05T20:46:22.519063",
      "2022-11-05T20:46:25.342966",
      "2022-11-05T20:46:28.201178",
      "2022-11-05T20:46:31.018439",
      "2022-11-05T20:46:33.878937",
      "2022-11-05T20:46:36.715241",
      "2022-11-05T20:46:39.552574",
      "2022-11-05T20:46:42.386195",
      "2022-11-05T20:46:45.243600",
      "2022-11-05T20:46:48.043325",
      "2022-11-05T20:46:50.913841",
      "2022-11-05T20:46:53.730603",
      "2022-11-05T20:46:56.586230",
      "2022-11-05T20:46:59.419978",
      "2022-11-05T20:47:02.247990",
      "2022-11-05T20:47:05.053096",
      "2022-11-05T20:47:07.911587",
      "2022-11-05T20:47:10.731622",
      "2022-11-05T20:47:13.611790",
      "2022-11-05T20:47:16.435942",
      "2022-11-05T20:47:19.296200",
      "2022-11-05T20:47:22.147344",
      "2022-11-05T20:47:25.027064",
      "2022-11-05T20:47:27.861349",
      "2022-11-05T20:47:30.719255",
      "2022-11-05T20:47:33.635183",
      "2022-11-05T20:47:36.484395",
      "2022-11-05T20:47:39.342138",
      "2022-11-05T20:47:42.155176",
      "2022-11-05T20:47:44.969001",
      "2022-11-05T20:47:47.823272",
      "2022-11-05T20:47:50.684660",
      "2022-11-05T20:47:53.538207",
      "2022-11-05T20:47:56.351431",
      "2022-11-05T20:47:59.194586",
      "2022-11-05T20:48:02.015614",
      "2022-11-05T20:48:04.862319",
      "2022-11-05T20:48:07.691810",
      "2022-11-05T20:48:10.547563",
      "2022-11-05T20:48:13.384287",
      "2022-11-05T20:48:16.221017",
      "2022-11-05T20:48:19.076829",
      "2022-11-05T20:48:21.936065",
      "2022-11-05T20:48:24.766371",
      "2022-11-05T20:48:27.640769",
      "2022-11-05T20:48:30.447163",
      "2022-11-05T20:48:33.293120",
      "2022-11-05T20:48:36.082108",
      "2022-11-05T20:48:38.926439",
      "2022-11-05T20:48:41.714226",
      "2022-11-05T20:48:44.602102",
      "2022-11-05T20:48:47.462885",
      "2022-11-05T20:48:50.371189",
      "2022-11-05T20:48:53.214427",
      "2022-11-05T20:48:56.072519",
      "2022-11-05T20:48:58.940503",
      "2022-11-05T20:49:01.761345",
      "2022-11-05T20:49:04.594625",
      "2022-11-05T20:49:07.590122",
      "2022-11-05T20:49:10.569256",
      "2022-11-05T20:49:13.507998",
      "2022-11-05T20:49:16.349507",
      "2022-11-05T20:49:19.246232",
      "2022-11-05T20:49:22.071966",
      "2022-11-05T20:49:24.942392",
      "2022-11-05T20:49:27.772813",
      "2022-11-05T20:49:30.640701",
      "2022-11-05T20:49:33.489366",
      "2022-11-05T20:49:36.349201",
      "2022-11-05T20:49:39.293498",
      "2022-11-05T20:49:42.219074",
      "2022-11-05T20:49:45.074878",
      "2022-11-05T20:49:47.941878",
      "2022-11-05T20:49:50.775800",
      "2022-11-05T20:49:53.666803",
      "2022-11-05T20:49:56.553754",
      "2022-11-05T20:49:59.410837",
      "2022-11-05T20:50:02.362297",
      "2022-11-05T20:50:05.222649",
      "2022-11-05T20:50:07.980613",
      "2022-11-05T20:50:10.525963",
      "2022-11-05T20:50:13.052859",
      "2022-11-05T20:50:16.242112",
      "2022-11-05T20:50:21.330038",
      "2022-11-05T20:50:23.862439",
      "2022-11-05T20:50:26.506956",
      "2022-11-05T20:50:29.091008",
      "2022-11-05T20:50:31.746161",
      "2022-11-05T20:50:34.322816",
      "2022-11-05T20:50:37.033882",
      "2022-11-05T20:50:39.811199",
      "2022-11-05T20:50:42.477933",
      "2022-11-05T20:50:46.692129",
      "2022-11-05T20:50:49.364090",
      "2022-11-05T20:50:51.985545",
      "2022-11-05T20:50:54.563742",
      "2022-11-05T20:50:57.305770",
      "2022-11-05T20:50:59.920532",
      "2022-11-05T20:51:02.536825",
      "2022-11-05T20:51:05.171178",
      "2022-11-05T20:51:07.978763",
      "2022-11-05T20:51:11.835357",
      "2022-11-05T20:51:15.962898",
      "2022-11-05T20:51:18.601620",
      "2022-11-05T20:51:21.289930",
      "2022-11-05T20:51:23.947863",
      "2022-11-05T20:51:26.553549",
      "2022-11-05T20:51:29.196657",
      "2022-11-05T20:51:31.862646",
      "2022-11-05T20:51:34.432979",
      "2022-11-05T20:51:37.049092",
      "2022-11-05T20:51:39.661004",
      "2022-11-05T20:51:42.291933",
      "2022-11-05T20:51:44.898491",
      "2022-11-05T20:51:47.481387",
      "2022-11-05T20:51:50.056391",
      "2022-11-05T20:51:53.378330",
      "2022-11-05T20:51:56.074495",
      "2022-11-05T20:51:59.961177",
      "2022-11-05T20:52:03.276012",
      "2022-11-05T20:52:06.079024",
      "2022-11-05T20:52:08.848818",
      "2022-11-05T20:52:11.689097",
      "2022-11-05T20:52:14.503315",
      "2022-11-05T20:52:17.412972",
      "2022-11-05T20:52:21.035297",
      "2022-11-05T20:52:23.969619",
      "2022-11-05T20:52:26.798050",
      "2022-11-05T20:52:30.677736",
      "2022-11-05T20:52:33.575427",
      "2022-11-05T20:52:36.462348",
      "2022-11-05T20:52:39.353425",
      "2022-11-05T20:52:43.967263",
      "2022-11-05T20:52:46.825785",
      "2022-11-05T20:52:49.661358",
      "2022-11-05T20:52:52.492572",
      "2022-11-05T20:52:55.306559",
      "2022-11-05T20:52:58.116888",
      "2022-11-05T20:53:00.923033",
      "2022-11-05T20:53:03.698056",
      "2022-11-05T20:53:06.507044",
      "2022-11-05T20:53:09.309982",
      "2022-11-05T20:53:12.052680",
      "2022-11-05T20:53:14.857678",
      "2022-11-05T20:53:17.681110",
      "2022-11-05T20:53:20.502047",
      "2022-11-05T20:53:23.257952",
      "2022-11-05T20:53:26.068951",
      "2022-11-05T20:53:30.569729",
      "2022-11-05T20:53:33.346494",
      "2022-11-05T20:53:36.212251"
    ],
    "values": [
      9.9228817653656,
      9.222100896835327,
      8.975873937606812,
      8.871087379455567,
      8.81443917274475,
      8.788058519363403,
      8.749359617233276,
      8.726276407241821,
      8.712743940353393,
      8.697670507431031,
      8.699406337738036,
      8.680198907852173,
      8.67577003479004,
      8.66974531173706,
      8.657527151107788,
      8.6597425365448,
      8.659763975143433,
      8.644978923797607,
      8.649175176620483,
      8.639708318710326,
      8.639688596725463,
      8.638201303482056,
      8.636801443099976,
      8.634771013259888,
      8.641962032318116,
      8.628029680252075,
      8.62483738899231,
      8.622455215454101,
      8.622253637313843,
      8.62182354927063,
      8.615633630752564,
      8.618551321029663,
      8.615344305038452,
      8.61819338798523,
      8.61581943511963,
      8.60932183265686,
      8.605325040817261,
      8.608508491516114,
      8.611185941696167,
      8.609747533798219,
      8.603700742721557,
      8.61504096031189,
      8.604001512527466,
      8.606975936889649,
      8.602600002288819,
      8.604344511032105,
      8.602358016967774,
      8.609807815551758,
      8.60171941757202,
      8.601538181304932,
      8.599873962402343,
      8.602488946914672,
      8.599166688919068,
      8.595074834823608,
      8.60054967880249,
      8.592014503479003,
      8.592412099838256,
      8.592584705352783,
      8.591613206863403,
      8.594577732086181,
      8.587627840042114,
      8.600096492767333,
      8.595139541625976,
      8.589593954086304,
      8.595932846069337,
      8.592494850158692,
      8.58815673828125,
      8.588102178573608,
      8.58668978691101,
      8.588719310760498,
      8.589997482299804,
      8.587535848617554,
      8.59199914932251,
      8.58988959312439,
      8.587664470672607,
      8.593050775527955,
      8.590514039993286,
      8.591360492706299,
      8.594400177001953,
      8.588587350845337,
      8.566526498794556,
      8.561054430007935,
      8.559603462219238,
      8.560313768386841,
      8.559699497222901,
      8.559680442810059,
      8.559889736175537,
      8.559498472213745,
      8.559694375991821,
      8.559731187820434,
      8.559598274230957,
      8.560510869026183,
      8.55886001586914,
      8.559037113189698,
      8.55596788406372,
      8.555735521316528,
      8.55568723678589,
      8.555607795715332,
      8.555591115951538,
      8.555645656585693,
      8.555609130859375,
      8.555607376098633,
      8.555559015274047,
      8.555532970428466,
      8.555588703155518,
      8.555514726638794,
      8.55517170906067,
      8.555164747238159,
      8.555134801864623,
      8.555116910934448,
      8.555102214813232,
      8.5551136302948,
      8.555102186203003,
      8.555090036392212,
      8.555094680786134,
      8.555084276199342,
      8.555090541839599,
      8.555085639953614,
      8.555090050697327,
      8.555081119537354,
      8.555096969604492,
      8.555103607177735,
      8.555101156234741,
      8.555091037750245,
      8.55508279800415,
      8.555095653533936,
      8.555082969665527,
      8.555104513168335,
      8.555079545974731,
      8.555076236724853,
      8.55509108543396,
      8.555094318389893,
      8.555099840164184,
      8.55508502960205,
      8.555075635910034,
      8.555073776245116,
      8.55507851600647,
      8.55507664680481,
      8.555066995620727,
      8.555071506500244,
      8.555063095092773,
      8.555077867507935,
      8.555083932876586,
      8.555069723129272,
      8.555066804885865,
      8.555060510635377,
      8.555075130462647,
      8.555060663223266,
      8.555085515975952,
      8.555074582099914,
      8.555075998306274,
      8.555063314437866,
      8.555056686401366,
      8.555061168670655,
      8.555065422058105,
      8.55505784034729,
      8.555061445236205,
      8.555042810440064,
      8.555043306350708,
      8.555049800872803,
      8.555041408538818,
      8.555061798095704,
      8.555042600631714,
      8.555056743621826,
      8.5550408744812,
      8.555054750442505,
      8.555046014785766,
      8.55505605697632,
      8.555058221817017,
      8.555035943984985,
      8.555032815933227,
      8.555033950805663,
      8.55505124092102,
      8.55504511833191,
      8.555055017471313,
      8.555032873153687,
      8.555032567977905,
      8.555019836425782,
      8.55504581451416,
      8.555032415390015,
      8.555041027069091,
      8.555031013488769,
      8.555004243850709,
      8.555028295516967,
      8.55502724647522,
      8.555017318725586,
      8.555017957687378,
      8.55502124786377,
      8.555020275115966,
      8.55501865386963,
      8.555027856826783,
      8.55501181602478,
      8.555014576911926,
      8.5550022315979,
      8.55501473426819,
      8.5550249004364,
      8.554998598098756,
      8.55501841545105,
      8.555021886825562,
      8.554997549057006
    ]
  },
  "val": {
    "steps": [
      0,
      1,
      2,
      3,
      4,
      5,
      6,
      7,
      8,
      9,
      10,
      11,
      12,
      13,
      14,
      15,
      16,
      17,
      18,
      19,
      20,
      21,
      22,
      23,
      24,
      25,
      26,
      27,
      28,
      29,
      30,
      31,
      32,
      33,
      34,
      35,
      36,
      37,
      38,
      39,
      40,
      41,
      42,
      43,
      44,
      45,
      46,
      47,
      48,
      49,
      50,
      51,
      52,
      53,
      54,
      55,
      56,
      57,
      58,
      59,
      60,
      61,
      62,
      63,
      64,
      65,
      66,
      67,
      68,
      69,
      70,
      71,
      72,
      73,
      74,
      75,
      76,
      77,
      78,
      79,
      80,
      81,
      82,
      83,
      84,
      85,
      86,
      87,
      88,
      89,
      90,
      91,
      92,
      93,
      94,
      95,
      96,
      97,
      98,
      99,
      100,
      101,
      102,
      103,
      104,
      105,
      106,
      107,
      108,
      109,
      110,
      111,
      112,
      113,
      114,
      115,
      116,
      117,
      118,
      119,
      120,
      121,
      122,
      123,
      124,
      125,
      126,
      127,
      128,
      129,
      130,
      131,
      132,
      133,
      134,
      135,
      136,
      137,
      138,
      139,
      140,
      141,
      142,
      143,
      144,
      145,
      146,
      147,
      148,
      149,
      150,
      151,
      152,
      153,
      154,
      155,
      156,
      157,
      158,
      159,
      160,
      161,
      162,
      163,
      164,
      165,
      166,
      167,
      168,
      169,
      170,
      171,
      172,
      173,
      174,
      175,
      176,
      177,
      178,
      179,
      180,
      181,
      182,
      183,
      184,
      185,
      186,
      187,
      188,
      189,
      190,
      191,
      192,
      193,
      194,
      195,
      196,
      197,
      198,
      199
    ],
    "timestamps": [
      "2022-11-05T20:44:03.600623",
      "2022-11-05T20:44:06.431422",
      "2022-11-05T20:44:09.273421",
      "2022-11-05T20:44:12.096422",
      "2022-11-05T20:44:14.923449",
      "2022-11-05T20:44:17.778480",
      "2022-11-05T20:44:20.618291",
      "2022-11-05T20:44:23.464885",
      "2022-11-05T20:44:26.306251",
      "2022-11-05T20:44:29.162330",
      "2022-11-05T20:44:31.972927",
      "2022-11-05T20:44:34.824989",
      "2022-11-05T20:44:37.638764",
      "2022-11-05T20:44:40.482622",
      "2022-11-05T20:44:43.294333",
      "2022-11-05T20:44:46.139783",
      "2022-11-05T20:44:49.006482",
      "2022-11-05T20:44:51.834960",
      "2022-11-05T20:44:54.658539",
      "2022-11-05T20:44:57.508193",
      "2022-11-05T20:45:00.378301",
      "2022-11-05T20:45:03.330513",
      "2022-11-05T20:45:06.164826",
      "2022-11-05T20:45:09.008803",
      "2022-11-05T20:45:11.831891",
      "2022-11-05T20:45:14.687698",
      "2022-11-05T20:45:17.500034",
      "2022-11-05T20:45:20.367511",
      "2022-11-05T20:45:23.198803",
      "2022-11-05T20:45:26.038101",
      "2022-11-05T20:45:28.932815",
      "2022-11-05T20:45:31.765329",
      "2022-11-05T20:45:34.588198",
      "2022-11-05T20:45:37.449556",
      "2022-11-05T20:45:40.271187",
      "2022-11-05T20:45:43.148156",
      "2022-11-05T20:45:45.962725",
      "2022-11-05T20:45:48.824879",
      "2022-11-05T20:45:51.636880",
      "2022-11-05T20:45:54.498130",
      "2022-11-05T20:45:57.319695",
      "2022-11-05T20:46:00.149249",
      "2022-11-05T20:46:02.955278",
      "2022-11-05T20:46:05.845695",
      "2022-11-05T20:46:08.652229",
      "2022-11-05T20:46:11.491399",
      "2022-11-05T20:46:14.303185",
      "2022-11-05T20:46:17.163488",
      "2022-11-05T20:46:19.993174",
      "2022-11-05T20:46:22.835161",
      "2022-11-05T20:46:25.662003",
      "2022-11-05T20:46:28.510383",
      "2022-11-05T20:46:31.342801",
      "2022-11-05T20:46:34.201893",
      "2022-11-05T20:46:37.039024",
      "2022-11-05T20:46:39.879558",
      "2022-11-05T20:46:42.704093",
      "2022-11-05T20:46:45.564141",
      "2022-11-05T20:46:48.368903",
      "2022-11-05T20:46:51.227685",
      "2022-11-05T20:46:54.050872",
      "2022-11-05T20:46:56.897713",
      "2022-11-05T20:46:59.758346",
      "2022-11-05T20:47:02.569157",
      "2022-11-05T20:47:05.367436",
      "2022-11-05T20:47:08.227872",
      "2022-11-05T20:47:11.048637",
      "2022-11-05T20:47:13.935491",
      "2022-11-05T20:47:16.758991",
      "2022-11-05T20:47:19.618790",
      "2022-11-05T20:47:22.486890",
      "2022-11-05T20:47:25.354349",
      "2022-11-05T20:47:28.196994",
      "2022-11-05T20:47:31.084222",
      "2022-11-05T20:47:33.963356",
      "2022-11-05T20:47:36.804642",
      "2022-11-05T20:47:39.652030",
      "2022-11-05T20:47:42.465953",
      "2022-11-05T20:47:45.281911",
      "2022-11-05T20:47:48.134135",
      "2022-11-05T20:47:50.994669",
      "2022-11-05T20:47:53.858214",
      "2022-11-05T20:47:56.663797",
      "2022-11-05T20:47:59.511863",
      "2022-11-05T20:48:02.336014",
      "2022-11-05T20:48:05.180704",
      "2022-11-05T20:48:08.021280",
      "2022-11-05T20:48:10.871655",
      "2022-11-05T20:48:13.720748",
      "2022-11-05T20:48:16.536659",
      "2022-11-05T20:48:19.397394",
      "2022-11-05T20:48:22.267965",
      "2022-11-05T20:48:25.094474",
      "2022-11-05T20:48:27.967733",
      "2022-11-05T20:48:30.764988",
      "2022-11-05T20:48:33.604237",
      "2022-11-05T20:48:36.392120",
      "2022-11-05T20:48:39.232630",
      "2022-11-05T20:48:42.036572",
      "2022-11-05T20:48:44.923903",
      "2022-11-05T20:48:47.796122",
      "2022-11-05T20:48:50.684430",
      "2022-11-05T20:48:53.536068",
      "2022-11-05T20:48:56.393096",
      "2022-11-05T20:48:59.258957",
      "2022-11-05T20:49:02.086198",
      "2022-11-05T20:49:04.911085",
      "2022-11-05T20:49:07.932253",
      "2022-11-05T20:49:10.918320",
      "2022-11-05T20:49:13.820980",
      "2022-11-05T20:49:16.664348",
      "2022-11-05T20:49:19.558630",
      "2022-11-05T20:49:22.413174",
      "2022-11-05T20:49:25.260115",
      "2022-11-05T20:49:28.110991",
      "2022-11-05T20:49:30.958186",
      "2022-11-05T20:49:33.839529",
      "2022-11-05T20:49:36.674498",
      "2022-11-05T20:49:39.620541",
      "2022-11-05T20:49:42.551619",
      "2022-11-05T20:49:45.409108",
      "2022-11-05T20:49:48.273060",
      "2022-11-05T20:49:51.105771",
      "2022-11-05T20:49:53.995663",
      "2022-11-05T20:49:56.892766",
      "2022-11-05T20:49:59.745848",
      "2022-11-05T20:50:02.687658",
      "2022-11-05T20:50:05.555087",
      "2022-11-05T20:50:08.252328",
      "2022-11-05T20:50:10.785027",
      "2022-11-05T20:50:13.373842",
      "2022-11-05T20:50:17.913942",
      "2022-11-05T20:50:21.591762",
      "2022-11-05T20:50:24.132373",
      "2022-11-05T20:50:26.767051",
      "2022-11-05T20:50:29.356963",
      "2022-11-05T20:50:32.012202",
      "2022-11-05T20:50:34.587767",
      "2022-11-05T20:50:37.305767",
      "2022-11-05T20:50:40.085203",
      "2022-11-05T20:50:42.759230",
      "2022-11-05T20:50:46.967515",
      "2022-11-05T20:50:49.640344",
      "2022-11-05T20:50:52.250498",
      "2022-11-05T20:50:54.826694",
      "2022-11-05T20:50:57.571793",
      "2022-11-05T20:51:00.213644",
      "2022-11-05T20:51:02.805718",
      "2022-11-05T20:51:05.486496",
      "2022-11-05T20:51:08.335840",
      "2022-11-05T20:51:12.294721",
      "2022-11-05T20:51:16.227602",
      "2022-11-05T20:51:18.865921",
      "2022-11-05T20:51:21.556722",
      "2022-11-05T20:51:24.216894",
      "2022-11-05T20:51:26.819351",
      "2022-11-05T20:51:29.472714",
      "2022-11-05T20:51:32.121780",
      "2022-11-05T20:51:34.694266",
      "2022-11-05T20:51:37.312005",
      "2022-11-05T20:51:39.931332",
      "2022-11-05T20:51:42.555916",
      "2022-11-05T20:51:45.165109",
      "2022-11-05T20:51:47.740986",
      "2022-11-05T20:51:50.322458",
      "2022-11-05T20:51:53.637283",
      "2022-11-05T20:51:56.436924",
      "2022-11-05T20:52:00.564370",
      "2022-11-05T20:52:03.601521",
      "2022-11-05T20:52:06.399524",
      "2022-11-05T20:52:09.195069",
      "2022-11-05T20:52:12.022541",
      "2022-11-05T20:52:14.852942",
      "2022-11-05T20:52:17.732472",
      "2022-11-05T20:52:21.383328",
      "2022-11-05T20:52:24.315319",
      "2022-11-05T20:52:27.122989",
      "2022-11-05T20:52:31.075526",
      "2022-11-05T20:52:33.906406",
      "2022-11-05T20:52:36.800187",
      "2022-11-05T20:52:39.680022",
      "2022-11-05T20:52:44.295819",
      "2022-11-05T20:52:47.167054",
      "2022-11-05T20:52:49.987128",
      "2022-11-05T20:52:52.817941",
      "2022-11-05T20:52:55.635650",
      "2022-11-05T20:52:58.451362",
      "2022-11-05T20:53:01.233090",
      "2022-11-05T20:53:04.030927",
      "2022-11-05T20:53:06.833492",
      "2022-11-05T20:53:09.635640",
      "2022-11-05T20:53:12.383140",
      "2022-11-05T20:53:15.187445",
      "2022-11-05T20:53:18.006064",
      "2022-11-05T20:53:20.815210",
      "2022-11-05T20:53:23.585093",
      "2022-11-05T20:53:26.396032",
      "2022-11-05T20:53:30.908518",
      "2022-11-05T20:53:33.670871",
      "2022-11-05T20:53:36.539437"
    ],
    "values": [
      9.470271492004395,
      9.090943565368653,
      8.915271606445312,
      8.862122974395753,
      8.81593360900879,
      8.76752212524414,
      8.74865665435791,
      8.754292984008789,
      8.73107744216919,
      8.72283447265625,
      8.70887269973755,
      8.703898220062255,
      8.712835063934326,
      8.70270902633667,
      8.692953052520751,
      8.680181922912597,
      8.68637939453125,
      8.685530853271484,
      8.67908966064453,
      8.67881820678711,
      8.666680793762207,
      8.687456016540528,
      8.677601146697999,
      8.678671417236329,
      8.70768569946289,
      8.665143699645997,
      8.69306833267212,
      8.702995567321777,
      8.668758697509766,
      8.669377536773682,
      8.65996181488037,
      8.676659984588623,
      8.653525619506835,
      8.668814010620117,
      8.653364143371583,
      8.663262748718262,
      8.651491966247558,
      8.649645252227783,
      8.66910364151001,
      8.654849185943604,
      8.679315700531006,
      8.661070499420166,
      8.66785556793213,
      8.651171188354493,
      8.655017108917237,
      8.660436000823974,
      8.664311275482177,
      8.65803731918335,
      8.650510540008545,
      8.652512741088866,
      8.650916061401368,
      8.642988014221192,
      8.664044380187988,
      8.658662643432617,
      8.649861049652099,
      8.648742656707764,
      8.642908401489258,
      8.644595394134521,
      8.653611698150634,
      8.640524196624757,
      8.647006282806396,
      8.666883316040039,
      8.6700590133667,
      8.643486251831055,
      8.652961540222169,
      8.63938425064087,
      8.639187240600586,
      8.641606998443603,
      8.63837396621704,
      8.66627893447876,
      8.66401653289795,
      8.668279857635499,
      8.654348449707031,
      8.658993473052979,
      8.65812421798706,
      8.64877182006836,
      8.63587558746338,
      8.647042846679687,
      8.64645486831665,
      8.64392463684082,
      8.627736110687255,
      8.628666610717774,
      8.628294715881347,
      8.627580261230468,
      8.626951065063476,
      8.627810554504395,
      8.629264488220215,
      8.628157825469971,
      8.62792444229126,
      8.627905693054199,
      8.630027313232421,
      8.628611125946044,
      8.628425827026367,
      8.628549385070801,
      8.627384014129639,
      8.627781066894531,
      8.628003063201904,
      8.628135356903076,
      8.628035640716552,
      8.628023242950439,
      8.628211879730225,
      8.627886104583741,
      8.628077011108399,
      8.627979545593261,
      8.628088512420653,
      8.628330268859862,
      8.628278732299805,
      8.628228092193604,
      8.62818229675293,
      8.628147563934327,
      8.628103294372558,
      8.628094959259034,
      8.628064212799073,
      8.628077125549316,
      8.628062343597412,
      8.628051109313965,
      8.6280788230896,
      8.628060760498046,
      8.628053131103515,
      8.628052253723144,
      8.62804386138916,
      8.628052520751954,
      8.628052845001221,
      8.62806526184082,
      8.628062610626221,
      8.628070240020753,
      8.628072242736817,
      8.62806188583374,
      8.628083591461182,
      8.628082427978516,
      8.628054389953613,
      8.628078594207764,
      8.6280859375,
      8.62811206817627,
      8.628071594238282,
      8.628100261688232,
      8.628086128234862,
      8.628100414276123,
      8.628110198974609,
      8.628113613128662,
      8.628102321624755,
      8.628104763031006,
      8.628101902008057,
      8.628132381439208,
      8.628150463104248,
      8.628114547729492,
      8.628089561462403,
      8.628129844665528,
      8.628138961791992,
      8.628110237121582,
      8.628121376037598,
      8.628139171600342,
      8.628136806488037,
      8.628118419647217,
      8.628108501434326,
      8.6281174659729,
      8.628143501281738,
      8.628138961791992,
      8.628103675842285,
      8.628125076293946,
      8.628119812011718,
      8.628140659332276,
      8.628115501403808,
      8.628144302368163,
      8.628142147064208,
      8.628118209838867,
      8.62814645767212,
      8.628116493225098,
      8.62811960220337,
      8.628125896453858,
      8.628118267059326,
      8.628100051879883,
      8.628130760192871,
      8.628112449645997,
      8.628124084472656,
      8.628113117218017,
      8.6281231880188,
      8.628103332519531,
      8.628138961791992,
      8.628088836669923,
      8.628100051879883,
      8.628122444152831,
      8.628118991851807,
      8.628167171478271,
      8.628143939971924,
      8.62812084197998,
      8.628128890991212,
      8.628124389648438,
      8.628115558624268,
      8.628103427886963,
      8.628124923706055,
      8.628153457641602,
      8.628127002716065,
      8.628120632171631,
      8.628150234222412,
      8.628136863708496,
      8.62813507080078,
      8.628129329681396,
      8.628128681182861,
      8.6281156539917
    ]
  }
}