{
  "memory.usage": {
    "steps": [
      0,
      1,
      2,
      3,
      4,
      5,
      6,
      7,
      8,
      9,
      10,
      11,
      12,
      13,
      14,
      15,
      16,
      17,
      18,
      19,
      20,
      21,
      22,
      23,
      24,
      25,
      26,
      27,
      28,
      29,
      30,
      31,
      32,
      33,
      34,
      35,
      36,
      37,
      38,
      39,
      40
    ],
    "timestamps": [
      "2022-12-14T23:35:21.106837",
      "2022-12-14T23:35:28.327318",
      "2022-12-14T23:35:36.526976",
      "2022-12-14T23:35:44.795664",
      "2022-12-14T23:35:52.793843",
      "2022-12-14T23:36:00.824122",
      "2022-12-14T23:36:09.230881",
      "2022-12-14T23:36:17.281435",
      "2022-12-14T23:36:25.317014",
      "2022-12-14T23:36:33.341164",
      "2022-12-14T23:36:41.450660",
      "2022-12-14T23:36:49.883091",
      "2022-12-14T23:36:58.284648",
      "2022-12-14T23:37:06.445870",
      "2022-12-14T23:37:14.650789",
      "2022-12-14T23:37:23.103803",
      "2022-12-14T23:37:31.137281",
      "2022-12-14T23:37:39.227768",
      "2022-12-14T23:37:47.410651",
      "2022-12-14T23:37:55.619178",
      "2022-12-14T23:38:03.863030",
      "2022-12-14T23:38:12.246056",
      "2022-12-14T23:38:20.472781",
      "2022-12-14T23:38:28.830638",
      "2022-12-14T23:38:37.156791",
      "2022-12-14T23:38:45.377123",
      "2022-12-14T23:38:53.590451",
      "2022-12-14T23:39:02.010626",
      "2022-12-14T23:39:10.287697",
      "2022-12-14T23:39:18.586986",
      "2022-12-14T23:39:27.183157",
      "2022-12-14T23:39:35.623168",
      "2022-12-14T23:39:43.980360",
      "2022-12-14T23:39:52.433586",
      "2022-12-14T23:40:00.558040",
      "2022-12-14T23:40:08.697380",
      "2022-12-14T23:40:16.913828",
      "2022-12-14T23:40:25.098289",
      "2022-12-14T23:40:33.217829",
      "2022-12-14T23:40:41.306467",
      "2022-12-14T23:40:49.497486"
    ],
    "values": [
      6.399488,
      6.8736,
      6.8736,
      6.8736,
      6.8736,
      6.8736,
      6.8736,
      6.8736,
      6.8736,
      6.8736,
      6.8736,
      6.8736,
      6.8736,
      6.8736,
      6.8736,
      6.8736,
      6.8736,
      6.8736,
      6.8736,
      6.8736,
      6.8736,
      6.8736,
      6.8736,
      6.8736,
      6.8736,
      6.8736,
      6.8736,
      6.8736,
      6.8736,
      6.8736,
      6.8736,
      6.8736,
      6.8736,
      6.8736,
      6.8736,
      6.8736,
      6.8736,
      6.8736,
      6.8736,
      6.8736,
      6.8736
    ]
  },
  "train": {
    "steps": [
      0,
      1,
      2,
      3,
      4,
      5,
      6,
      7,
      8,
      9,
      10,
      11,
      12,
      13,
      14,
      15,
      16,
      17,
      18,
      19,
      20,
      21,
      22,
      23,
      24,
      25,
      26,
      27,
      28,
      29,
      30,
      31,
      32,
      33,
      34,
      35,
      36,
      37,
      38,
      39,
      40,
      41,
      42,
      43,
      44,
      45,
      46,
      47,
      48,
      49,
      50,
      51,
      52,
      53,
      54,
      55,
      56,
      57,
      58,
      59,
      60,
      61,
      62,
      63,
      64,
      65,
      66,
      67,
      68,
      69,
      70,
      71,
      72,
      73,
      74,
      75,
      76,
      77,
      78,
      79,
      80,
      81,
      82,
      83,
      84,
      85,
      86,
      87,
      88,
      89,
      90,
      91,
      92,
      93,
      94,
      95,
      96,
      97,
      98,
      99,
      100,
      101,
      102,
      103,
      104,
      105,
      106,
      107,
      108,
      109,
      110,
      111,
      112,
      113,
      114,
      115,
      116,
      117,
      118,
      119,
      120,
      121,
      122,
      123,
      124,
      125,
      126,
      127,
      128,
      129,
      130,
      131,
      132,
      133,
      134,
      135,
      136,
      137,
      138,
      139,
      140,
      141,
      142,
      143,
      144,
      145,
      146,
      147,
      148,
      149,
      150,
      151,
      152,
      153,
      154,
      155,
      156,
      157,
      158,
      159,
      160,
      161,
      162,
      163,
      164,
      165,
      166,
      167,
      168,
      169,
      170,
      171,
      172,
      173,
      174,
      175,
      176,
      177,
      178,
      179,
      180,
      181,
      182,
      183,
      184,
      185,
      186,
      187,
      188,
      189,
      190,
      191,
      192,
      193,
      194,
      195,
      196,
      197,
      198,
      199,
      200,
      201,
      202,
      203,
      204,
      205,
      206,
      207,
      208,
      209,
      210,
      211,
      212,
      213,
      214,
      215,
      216,
      217,
      218,
      219,
      220,
      221,
      222,
      223,
      224,
      225,
      226,
      227,
      228,
      229,
      230,
      231,
      232,
      233,
      234,
      235,
      236,
      237,
      238,
      239,
      240,
      241,
      242,
      243,
      244,
      245,
      246,
      247,
      248,
      249,
      250,
      251,
      252,
      253,
      254,
      255,
      256,
      257,
      258,
      259,
      260,
      261,
      262,
      263,
      264,
      265,
      266,
      267,
      268,
      269,
      270,
      271,
      272,
      273,
      274,
      275,
      276,
      277,
      278,
      279,
      280,
      281,
      282,
      283,
      284,
      285,
      286,
      287,
      288,
      289,
      290,
      291,
      292,
      293,
      294,
      295,
      296,
      297,
      298,
      299,
      300,
      301,
      302,
      303,
      304,
      305,
      306,
      307,
      308,
      309,
      310,
      311,
      312,
      313,
      314,
      315,
      316,
      317,
      318,
      319,
      320,
      321,
      322,
      323,
      324,
      325,
      326,
      327,
      328,
      329,
      330,
      331,
      332,
      333,
      334,
      335,
      336,
      337,
      338,
      339,
      340,
      341,
      342,
      343,
      344,
      345,
      346,
      347,
      348,
      349,
      350,
      351,
      352,
      353,
      354,
      355,
      356,
      357,
      358,
      359,
      360,
      361,
      362,
      363,
      364,
      365,
      366,
      367,
      368,
      369,
      370,
      371,
      372,
      373,
      374,
      375,
      376,
      377,
      378,
      379,
      380,
      381,
      382,
      383,
      384,
      385,
      386,
      387,
      388,
      389,
      390,
      391,
      392,
      393,
      394,
      395,
      396,
      397,
      398,
      399
    ],
    "timestamps": [
      "2022-12-14T23:35:21.106702",
      "2022-12-14T23:35:21.903095",
      "2022-12-14T23:35:22.697393",
      "2022-12-14T23:35:23.521606",
      "2022-12-14T23:35:24.340531",
      "2022-12-14T23:35:25.140527",
      "2022-12-14T23:35:25.934212",
      "2022-12-14T23:35:26.735622",
      "2022-12-14T23:35:27.530675",
      "2022-12-14T23:35:28.327201",
      "2022-12-14T23:35:29.192847",
      "2022-12-14T23:35:29.992577",
      "2022-12-14T23:35:30.837465",
      "2022-12-14T23:35:31.689284",
      "2022-12-14T23:35:32.533976",
      "2022-12-14T23:35:33.336300",
      "2022-12-14T23:35:34.131369",
      "2022-12-14T23:35:34.931070",
      "2022-12-14T23:35:35.727259",
      "2022-12-14T23:35:36.526852",
      "2022-12-14T23:35:37.339096",
      "2022-12-14T23:35:38.141621",
      "2022-12-14T23:35:38.958867",
      "2022-12-14T23:35:39.833800",
      "2022-12-14T23:35:40.704115",
      "2022-12-14T23:35:41.588124",
      "2022-12-14T23:35:42.384025",
      "2022-12-14T23:35:43.201263",
      "2022-12-14T23:35:43.995684",
      "2022-12-14T23:35:44.795540",
      "2022-12-14T23:35:45.608845",
      "2022-12-14T23:35:46.408357",
      "2022-12-14T23:35:47.207006",
      "2022-12-14T23:35:48.002876",
      "2022-12-14T23:35:48.798915",
      "2022-12-14T23:35:49.600622",
      "2022-12-14T23:35:50.395986",
      "2022-12-14T23:35:51.194600",
      "2022-12-14T23:35:51.991465",
      "2022-12-14T23:35:52.793717",
      "2022-12-14T23:35:53.610900",
      "2022-12-14T23:35:54.423441",
      "2022-12-14T23:35:55.229367",
      "2022-12-14T23:35:56.028133",
      "2022-12-14T23:35:56.827001",
      "2022-12-14T23:35:57.626438",
      "2022-12-14T23:35:58.426705",
      "2022-12-14T23:35:59.227185",
      "2022-12-14T23:36:00.024209",
      "2022-12-14T23:36:00.823995",
      "2022-12-14T23:36:01.662050",
      "2022-12-14T23:36:02.510716",
      "2022-12-14T23:36:03.376288",
      "2022-12-14T23:36:04.234860",
      "2022-12-14T23:36:05.064393",
      "2022-12-14T23:36:05.903944",
      "2022-12-14T23:36:06.722969",
      "2022-12-14T23:36:07.557300",
      "2022-12-14T23:36:08.395294",
      "2022-12-14T23:36:09.230757",
      "2022-12-14T23:36:10.071686",
      "2022-12-14T23:36:10.878314",
      "2022-12-14T23:36:11.679358",
      "2022-12-14T23:36:12.482978",
      "2022-12-14T23:36:13.283130",
      "2022-12-14T23:36:14.085740",
      "2022-12-14T23:36:14.884214",
      "2022-12-14T23:36:15.683470",
      "2022-12-14T23:36:16.482866",
      "2022-12-14T23:36:17.281309",
      "2022-12-14T23:36:18.097746",
      "2022-12-14T23:36:18.900738",
      "2022-12-14T23:36:19.697783",
      "2022-12-14T23:36:20.508916",
      "2022-12-14T23:36:21.317351",
      "2022-12-14T23:36:22.123646",
      "2022-12-14T23:36:22.919042",
      "2022-12-14T23:36:23.718377",
      "2022-12-14T23:36:24.518383",
      "2022-12-14T23:36:25.316812",
      "2022-12-14T23:36:26.131345",
      "2022-12-14T23:36:26.930895",
      "2022-12-14T23:36:27.730468",
      "2022-12-14T23:36:28.533698",
      "2022-12-14T23:36:29.334463",
      "2022-12-14T23:36:30.135448",
      "2022-12-14T23:36:30.935093",
      "2022-12-14T23:36:31.738187",
      "2022-12-14T23:36:32.538992",
      "2022-12-14T23:36:33.341041",
      "2022-12-14T23:36:34.156075",
      "2022-12-14T23:36:34.966099",
      "2022-12-14T23:36:35.766311",
      "2022-12-14T23:36:36.586731",
      "2022-12-14T23:36:37.406283",
      "2022-12-14T23:36:38.257860",
      "2022-12-14T23:36:39.054950",
      "2022-12-14T23:36:39.856511",
      "2022-12-14T23:36:40.652169",
      "2022-12-14T23:36:41.450533",
      "2022-12-14T23:36:42.274893",
      "2022-12-14T23:36:43.129612",
      "2022-12-14T23:36:43.978138",
      "2022-12-14T23:36:44.806810",
      "2022-12-14T23:36:45.653340",
      "2022-12-14T23:36:46.486921",
      "2022-12-14T23:36:47.339896",
      "2022-12-14T23:36:48.174371",
      "2022-12-14T23:36:49.019235",
      "2022-12-14T23:36:49.882953",
      "2022-12-14T23:36:50.747713",
      "2022-12-14T23:36:51.585188",
      "2022-12-14T23:36:52.423051",
      "2022-12-14T23:36:53.272232",
      "2022-12-14T23:36:54.124630",
      "2022-12-14T23:36:54.971233",
      "2022-12-14T23:36:55.795939",
      "2022-12-14T23:36:56.652129",
      "2022-12-14T23:36:57.469375",
      "2022-12-14T23:36:58.284442",
      "2022-12-14T23:36:59.103793",
      "2022-12-14T23:36:59.945745",
      "2022-12-14T23:37:00.773263",
      "2022-12-14T23:37:01.598846",
      "2022-12-14T23:37:02.433219",
      "2022-12-14T23:37:03.243653",
      "2022-12-14T23:37:04.042479",
      "2022-12-14T23:37:04.846725",
      "2022-12-14T23:37:05.643877",
      "2022-12-14T23:37:06.445744",
      "2022-12-14T23:37:07.259490",
      "2022-12-14T23:37:08.058087",
      "2022-12-14T23:37:08.858649",
      "2022-12-14T23:37:09.660114",
      "2022-12-14T23:37:10.460733",
      "2022-12-14T23:37:11.278793",
      "2022-12-14T23:37:12.111773",
      "2022-12-14T23:37:12.961445",
      "2022-12-14T23:37:13.811794",
      "2022-12-14T23:37:14.650654",
      "2022-12-14T23:37:15.501756",
      "2022-12-14T23:37:16.306088",
      "2022-12-14T23:37:17.127394",
      "2022-12-14T23:37:18.008117",
      "2022-12-14T23:37:18.833608",
      "2022-12-14T23:37:19.683756",
      "2022-12-14T23:37:20.537357",
      "2022-12-14T23:37:21.387763",
      "2022-12-14T23:37:22.252552",
      "2022-12-14T23:37:23.103675",
      "2022-12-14T23:37:23.938678",
      "2022-12-14T23:37:24.747404",
      "2022-12-14T23:37:25.545876",
      "2022-12-14T23:37:26.344752",
      "2022-12-14T23:37:27.138255",
      "2022-12-14T23:37:27.940453",
      "2022-12-14T23:37:28.739754",
      "2022-12-14T23:37:29.541927",
      "2022-12-14T23:37:30.341009",
      "2022-12-14T23:37:31.137078",
      "2022-12-14T23:37:31.949522",
      "2022-12-14T23:37:32.751924",
      "2022-12-14T23:37:33.549488",
      "2022-12-14T23:37:34.359396",
      "2022-12-14T23:37:35.159656",
      "2022-12-14T23:37:35.960932",
      "2022-12-14T23:37:36.766521",
      "2022-12-14T23:37:37.569446",
      "2022-12-14T23:37:38.404135",
      "2022-12-14T23:37:39.227639",
      "2022-12-14T23:37:40.052340",
      "2022-12-14T23:37:40.863082",
      "2022-12-14T23:37:41.731931",
      "2022-12-14T23:37:42.578063",
      "2022-12-14T23:37:43.400674",
      "2022-12-14T23:37:44.198449",
      "2022-12-14T23:37:44.995004",
      "2022-12-14T23:37:45.795395",
      "2022-12-14T23:37:46.591890",
      "2022-12-14T23:37:47.410443",
      "2022-12-14T23:37:48.227231",
      "2022-12-14T23:37:49.046912",
      "2022-12-14T23:37:49.845436",
      "2022-12-14T23:37:50.661258",
      "2022-12-14T23:37:51.461644",
      "2022-12-14T23:37:52.284235",
      "2022-12-14T23:37:53.093292",
      "2022-12-14T23:37:53.960285",
      "2022-12-14T23:37:54.801002",
      "2022-12-14T23:37:55.619029",
      "2022-12-14T23:37:56.455628",
      "2022-12-14T23:37:57.297218",
      "2022-12-14T23:37:58.125241",
      "2022-12-14T23:37:58.986229",
      "2022-12-14T23:37:59.791063",
      "2022-12-14T23:38:00.610026",
      "2022-12-14T23:38:01.423418",
      "2022-12-14T23:38:02.224916",
      "2022-12-14T23:38:03.064681",
      "2022-12-14T23:38:03.862807",
      "2022-12-14T23:38:04.686474",
      "2022-12-14T23:38:05.507279",
      "2022-12-14T23:38:06.316630",
      "2022-12-14T23:38:07.188993",
      "2022-12-14T23:38:08.066072",
      "2022-12-14T23:38:08.920067",
      "2022-12-14T23:38:09.761655",
      "2022-12-14T23:38:10.581344",
      "2022-12-14T23:38:11.424518",
      "2022-12-14T23:38:12.245932",
      "2022-12-14T23:38:13.080615",
      "2022-12-14T23:38:13.903520",
      "2022-12-14T23:38:14.726461",
      "2022-12-14T23:38:15.548213",
      "2022-12-14T23:38:16.368783",
      "2022-12-14T23:38:17.191420",
      "2022-12-14T23:38:18.013314",
      "2022-12-14T23:38:18.832548",
      "2022-12-14T23:38:19.652593",
      "2022-12-14T23:38:20.472568",
      "2022-12-14T23:38:21.329142",
      "2022-12-14T23:38:22.151489",
      "2022-12-14T23:38:22.982079",
      "2022-12-14T23:38:23.815444",
      "2022-12-14T23:38:24.647975",
      "2022-12-14T23:38:25.470569",
      "2022-12-14T23:38:26.290171",
      "2022-12-14T23:38:27.138720",
      "2022-12-14T23:38:28.009369",
      "2022-12-14T23:38:28.830428",
      "2022-12-14T23:38:29.679265",
      "2022-12-14T23:38:30.551223",
      "2022-12-14T23:38:31.378884",
      "2022-12-14T23:38:32.204207",
      "2022-12-14T23:38:33.047299",
      "2022-12-14T23:38:33.874543",
      "2022-12-14T23:38:34.691638",
      "2022-12-14T23:38:35.514920",
      "2022-12-14T23:38:36.333661",
      "2022-12-14T23:38:37.156657",
      "2022-12-14T23:38:37.991359",
      "2022-12-14T23:38:38.820508",
      "2022-12-14T23:38:39.647033",
      "2022-12-14T23:38:40.466807",
      "2022-12-14T23:38:41.281366",
      "2022-12-14T23:38:42.102247",
      "2022-12-14T23:38:42.918933",
      "2022-12-14T23:38:43.737876",
      "2022-12-14T23:38:44.555876",
      "2022-12-14T23:38:45.376908",
      "2022-12-14T23:38:46.209119",
      "2022-12-14T23:38:47.028380",
      "2022-12-14T23:38:47.849392",
      "2022-12-14T23:38:48.669047",
      "2022-12-14T23:38:49.491755",
      "2022-12-14T23:38:50.312767",
      "2022-12-14T23:38:51.129809",
      "2022-12-14T23:38:51.952148",
      "2022-12-14T23:38:52.770890",
      "2022-12-14T23:38:53.590329",
      "2022-12-14T23:38:54.421325",
      "2022-12-14T23:38:55.249307",
      "2022-12-14T23:38:56.073758",
      "2022-12-14T23:38:56.896090",
      "2022-12-14T23:38:57.751710",
      "2022-12-14T23:38:58.633032",
      "2022-12-14T23:38:59.472884",
      "2022-12-14T23:39:00.301904",
      "2022-12-14T23:39:01.179832",
      "2022-12-14T23:39:02.010495",
      "2022-12-14T23:39:02.850211",
      "2022-12-14T23:39:03.681107",
      "2022-12-14T23:39:04.504248",
      "2022-12-14T23:39:05.333982",
      "2022-12-14T23:39:06.159344",
      "2022-12-14T23:39:06.988424",
      "2022-12-14T23:39:07.816731",
      "2022-12-14T23:39:08.643003",
      "2022-12-14T23:39:09.466512",
      "2022-12-14T23:39:10.287488",
      "2022-12-14T23:39:11.124376",
      "2022-12-14T23:39:11.953768",
      "2022-12-14T23:39:12.780572",
      "2022-12-14T23:39:13.607582",
      "2022-12-14T23:39:14.434653",
      "2022-12-14T23:39:15.275464",
      "2022-12-14T23:39:16.105022",
      "2022-12-14T23:39:16.935847",
      "2022-12-14T23:39:17.761522",
      "2022-12-14T23:39:18.586857",
      "2022-12-14T23:39:19.433055",
      "2022-12-14T23:39:20.260162",
      "2022-12-14T23:39:21.081930",
      "2022-12-14T23:39:21.910223",
      "2022-12-14T23:39:22.734148",
      "2022-12-14T23:39:23.565987",
      "2022-12-14T23:39:24.537536",
      "2022-12-14T23:39:25.384677",
      "2022-12-14T23:39:26.203671",
      "2022-12-14T23:39:27.182941",
      "2022-12-14T23:39:28.108610",
      "2022-12-14T23:39:28.935316",
      "2022-12-14T23:39:29.768653",
      "2022-12-14T23:39:30.578201",
      "2022-12-14T23:39:31.382522",
      "2022-12-14T23:39:32.193141",
      "2022-12-14T23:39:32.997267",
      "2022-12-14T23:39:33.897339",
      "2022-12-14T23:39:34.735530",
      "2022-12-14T23:39:35.623039",
      "2022-12-14T23:39:36.489897",
      "2022-12-14T23:39:37.342094",
      "2022-12-14T23:39:38.169645",
      "2022-12-14T23:39:39.027461",
      "2022-12-14T23:39:39.847161",
      "2022-12-14T23:39:40.672901",
      "2022-12-14T23:39:41.493065",
      "2022-12-14T23:39:42.338277",
      "2022-12-14T23:39:43.156339",
      "2022-12-14T23:39:43.980150",
      "2022-12-14T23:39:44.820293",
      "2022-12-14T23:39:45.641955",
      "2022-12-14T23:39:46.460669",
      "2022-12-14T23:39:47.291101",
      "2022-12-14T23:39:48.158285",
      "2022-12-14T23:39:49.027754",
      "2022-12-14T23:39:49.965564",
      "2022-12-14T23:39:50.778656",
      "2022-12-14T23:39:51.597115",
      "2022-12-14T23:39:52.433352",
      "2022-12-14T23:39:53.271872",
      "2022-12-14T23:39:54.109352",
      "2022-12-14T23:39:54.949497",
      "2022-12-14T23:39:55.750520",
      "2022-12-14T23:39:56.548762",
      "2022-12-14T23:39:57.350800",
      "2022-12-14T23:39:58.150163",
      "2022-12-14T23:39:58.951356",
      "2022-12-14T23:39:59.755296",
      "2022-12-14T23:40:00.557917",
      "2022-12-14T23:40:01.369600",
      "2022-12-14T23:40:02.169324",
      "2022-12-14T23:40:02.968278",
      "2022-12-14T23:40:03.794864",
      "2022-12-14T23:40:04.665268",
      "2022-12-14T23:40:05.475305",
      "2022-12-14T23:40:06.282879",
      "2022-12-14T23:40:07.084713",
      "2022-12-14T23:40:07.894340",
      "2022-12-14T23:40:08.697133",
      "2022-12-14T23:40:09.519403",
      "2022-12-14T23:40:10.331073",
      "2022-12-14T23:40:11.185906",
      "2022-12-14T23:40:12.046087",
      "2022-12-14T23:40:12.860591",
      "2022-12-14T23:40:13.675900",
      "2022-12-14T23:40:14.497261",
      "2022-12-14T23:40:15.304668",
      "2022-12-14T23:40:16.106202",
      "2022-12-14T23:40:16.913704",
      "2022-12-14T23:40:17.821314",
      "2022-12-14T23:40:18.643118",
      "2022-12-14T23:40:19.483817",
      "2022-12-14T23:40:20.286968",
      "2022-12-14T23:40:21.082191",
      "2022-12-14T23:40:21.887658",
      "2022-12-14T23:40:22.691296",
      "2022-12-14T23:40:23.492612",
      "2022-12-14T23:40:24.293328",
      "2022-12-14T23:40:25.098067",
      "2022-12-14T23:40:25.910581",
      "2022-12-14T23:40:26.715305",
      "2022-12-14T23:40:27.518764",
      "2022-12-14T23:40:28.331463",
      "2022-12-14T23:40:29.157509",
      "2022-12-14T23:40:30.001692",
      "2022-12-14T23:40:30.803360",
      "2022-12-14T23:40:31.619293",
      "2022-12-14T23:40:32.415963",
      "2022-12-14T23:40:33.217705",
      "2022-12-14T23:40:34.034784",
      "2022-12-14T23:40:34.836707",
      "2022-12-14T23:40:35.636898",
      "2022-12-14T23:40:36.439518",
      "2022-12-14T23:40:37.260409",
      "2022-12-14T23:40:38.067961",
      "2022-12-14T23:40:38.898923",
      "2022-12-14T23:40:39.704470",
      "2022-12-14T23:40:40.503003",
      "2022-12-14T23:40:41.306266",
      "2022-12-14T23:40:42.118201",
      "2022-12-14T23:40:42.917144",
      "2022-12-14T23:40:43.716180",
      "2022-12-14T23:40:44.521080",
      "2022-12-14T23:40:45.342456",
      "2022-12-14T23:40:46.155716",
      "2022-12-14T23:40:46.959339",
      "2022-12-14T23:40:47.804012",
      "2022-12-14T23:40:48.626953",
      "2022-12-14T23:40:49.497351"
    ],
    "values": [
      20.47312296801621,
      19.62699649841306,
      19.31119372860429,
      19.36255596462899,
      19.26715109671364,
      19.136501803564784,
      18.99932187235445,
      18.772091022426405,
      18.8868087466139,
      18.786009622861126,
      18.312599375822032,
      18.587575379802445,
      18.250708492881206,
      18.239732517744724,
      18.12700609419418,
      18.17876297847498,
      18.141682379425234,
      18.216278813990343,
      17.995182891082724,
      18.012233631076302,
      17.66711233482431,
      17.84047108853565,
      17.592678864118117,
      17.538761009546057,
      17.647661887065123,
      17.48047211043076,
      17.422015763338905,
      17.300557839460165,
      17.456653416714918,
      17.13626811519601,
      17.048852628520578,
      17.076247002954844,
      17.01299964785661,
      17.097084225964025,
      16.798346486923204,
      16.73957923957761,
      16.933686250082907,
      16.778586293551317,
      16.69564839808145,
      16.61315616269453,
      16.766105092541228,
      16.87959990117281,
      16.468162047275865,
      16.43463413941755,
      16.328449349575294,
      16.43267493225526,
      16.26229296869529,
      16.43059689046824,
      16.396822776662372,
      16.349666322258503,
      16.58277108755256,
      16.158491732464295,
      16.169471282218023,
      16.207965582659437,
      16.379212864763367,
      15.901626191740329,
      15.988350201577571,
      15.863938561055631,
      15.757518148394208,
      16.021300521846072,
      15.937465446304202,
      15.892816032866346,
      15.691662144708127,
      15.811943853430153,
      15.742347910143764,
      15.840317414775955,
      15.593158446062182,
      15.454419492146906,
      15.559362578679425,
      15.487102221921146,
      15.302616023614753,
      15.385995342362609,
      15.207701374444726,
      15.228386182944043,
      15.205848313872586,
      15.215946736855884,
      15.133663840690712,
      15.182538861208567,
      15.017284915115424,
      15.005470317437194,
      15.301372282317057,
      15.24060267238619,
      15.039914294297622,
      14.853619174862809,
      15.068051533006734,
      14.99650819764957,
      14.716379823170163,
      14.820961956331132,
      14.695203811698033,
      14.969660222038405,
      14.918053635086157,
      14.614052006221655,
      15.109467161307306,
      14.642255574069592,
      14.95653880295014,
      14.699633450869833,
      14.529685566381016,
      14.598485419379331,
      14.458662261455007,
      14.554991656902564,
      14.459020962218574,
      14.068333657444255,
      14.45676533462607,
      14.383513188062121,
      14.441690454242627,
      14.10430428749151,
      14.44249169036783,
      14.298146180057897,
      14.1886341344085,
      14.439871333418838,
      14.064743372076727,
      14.314124163858336,
      13.972414596919831,
      14.38442932843166,
      13.883629856059319,
      14.029805062532967,
      13.717746152627972,
      14.0130759620397,
      14.041588345921195,
      14.136092896133714,
      14.034615084729714,
      13.714140743157012,
      14.017727039845703,
      13.988420366611315,
      14.136516157139912,
      13.778775280880385,
      13.828244106465965,
      13.785781303377213,
      13.728817490314551,
      13.701484187064652,
      14.10649112801193,
      13.784759574846301,
      13.778033913023753,
      14.028006096910978,
      13.613231812978396,
      13.59472774825,
      13.553483478209209,
      13.759737651834897,
      13.492750981594371,
      13.767681680726135,
      14.101505726639855,
      13.384067336433874,
      13.607792301960101,
      13.295021378542295,
      13.469515779481927,
      13.937845081180086,
      13.419515362497881,
      13.338546479572535,
      13.478987950117812,
      13.237844801636413,
      13.382951368921923,
      13.199967462532761,
      13.552103078168308,
      13.403949635566251,
      13.426055250735033,
      13.265475470909115,
      13.366147796166022,
      13.385674165743376,
      13.331258235638817,
      13.137923209629589,
      13.40251089366346,
      13.288600207983587,
      13.332957469153294,
      13.235770355572228,
      13.059469036286776,
      13.217927095132808,
      13.764094019901284,
      13.323098954339093,
      13.618366760045015,
      13.21597968871284,
      13.045521295339508,
      13.473401364147175,
      12.865570728503055,
      13.265794479916709,
      13.680140732889894,
      13.29641951459525,
      13.158514496358698,
      13.303266861120944,
      13.174891347877193,
      12.886161665551322,
      12.957280743632355,
      13.115651013258278,
      13.302942222246111,
      13.300295771973168,
      13.43335168262507,
      13.160243871778396,
      13.173052277678464,
      13.028293307870252,
      13.043942163228545,
      13.03716352158439,
      13.386699100356495,
      12.95674465464811,
      12.90980689675989,
      13.513392050262851,
      13.09445960267071,
      13.799670155273622,
      13.005217715845175,
      13.39183166470656,
      13.048562437258665,
      12.93071176761894,
      13.21955590289079,
      12.893236116840468,
      13.208256142356575,
      13.305902910541331,
      13.026772060928353,
      13.14762372636468,
      13.14122335372753,
      13.000506596065314,
      12.932902425146478,
      13.274042024518579,
      13.187789611542229,
      13.16628778811972,
      13.823002401774268,
      13.256597755565712,
      12.916336479122496,
      13.284688191329401,
      13.094468474844216,
      13.003855179672291,
      12.997341943791438,
      13.265311500052212,
      12.969827236611955,
      13.323871050322735,
      13.005594894925025,
      13.238881993521632,
      13.408436126480362,
      13.32225648940512,
      13.106156181008911,
      13.363335636905147,
      13.181710127632508,
      13.115930363881658,
      12.925540734674518,
      13.244237537990607,
      13.094526909679265,
      12.739367974847152,
      13.014363965569775,
      12.977863890391475,
      13.213151714621722,
      13.098198658510753,
      13.153356498640388,
      13.298958808614152,
      13.563255621678133,
      13.091806749730562,
      13.224405739492958,
      13.26566195089146,
      13.080921429585517,
      13.330189868500272,
      13.15834425705741,
      13.006459519901163,
      13.166119639365554,
      13.043697704859659,
      13.408514381697083,
      12.963481617786487,
      13.363610568293435,
      12.967322109497161,
      12.921624240059844,
      13.500308195897283,
      13.23707468120109,
      13.453616645606116,
      13.07934248935017,
      12.824562927116778,
      12.764096866505282,
      12.948558188012143,
      13.217049222920817,
      13.230729999183847,
      13.358467443132787,
      13.095271187938708,
      12.995939851319134,
      13.034988486329707,
      13.114912714124586,
      13.228568969660474,
      13.168046857092838,
      13.113005563218778,
      12.800548425414036,
      13.085315145579536,
      12.973351032329301,
      12.832463444596733,
      13.19386118393647,
      13.087634132659543,
      13.008728434599348,
      13.081998147436911,
      13.306149766824413,
      13.568303541423116,
      13.199269332240178,
      13.065603507819878,
      13.019771320714563,
      13.011001125111932,
      13.362039477701307,
      13.096674804221317,
      13.024480705211362,
      13.324952141728748,
      12.99381508645768,
      12.774294580361932,
      13.352043832816257,
      13.089940303702459,
      13.399261455323469,
      12.960689529057126,
      13.350014015968295,
      13.047449540003484,
      13.265216679949052,
      13.017980082662273,
      13.017898835673149,
      13.07254015966754,
      12.906848848975848,
      13.36940980021595,
      13.249142395653562,
      12.89954426047955,
      13.132393024073632,
      12.968148805190093,
      13.035501513344885,
      12.982204883847594,
      12.896387009768027,
      13.466426931436047,
      13.134239144239533,
      13.18980644523482,
      13.074155759927164,
      13.03302031863249,
      13.192567839258594,
      12.917601226202374,
      13.178156296838608,
      12.951698567729062,
      13.251420822908374,
      13.090410384671744,
      13.081740168606283,
      13.121621459506585,
      13.14910069191118,
      13.290659136398313,
      13.041443445985173,
      12.98290687097417,
      12.828844268917939,
      13.107350968636354,
      12.921904949042393,
      12.928447274899622,
      13.243578480657307,
      13.142019857523614,
      13.32442430476412,
      13.099214406126945,
      13.222421578210993,
      13.13826387969085,
      12.906222976046445,
      13.08337291759381,
      12.95649306836774,
      13.333415465642593,
      13.470401708062184,
      13.201200088095291,
      13.403162292707316,
      13.031402661405979,
      13.032258728640663,
      13.032675198906263,
      13.046496521240158,
      12.84254470503852,
      12.752785860393193,
      13.156852480155885,
      13.006749404691707,
      13.314425248956377,
      12.93511973174074,
      13.189712366553366,
      13.204560949170611,
      12.929822714118993,
      13.457137526951199,
      13.372265239965547,
      13.522154056831464,
      12.856341978308027,
      13.208957114986168,
      13.156859747014977,
      12.994031713205395,
      12.928594298746868,
      12.893059705144827,
      13.474841213690402,
      13.22885636702944,
      13.205367894668026,
      13.173577712399704,
      13.151224992091056,
      13.067026931225746,
      13.23405789027635,
      13.170679923707795,
      13.49303523693017,
      13.2095540411212,
      13.023424590728386,
      13.052134695338118,
      13.43327056278531,
      13.139505568942756,
      13.208418348322924,
      12.938442656802946,
      13.5737801319951,
      12.973940177939257,
      13.131998037395059,
      13.188864176605799,
      13.02262826966109,
      13.052630096044375,
      13.296457556782313,
      13.144731006657793,
      13.458580219271363,
      13.118817761091952,
      13.26624609340236,
      13.07982395007032,
      12.987745186245226,
      12.87117779752536,
      13.321529438583875,
      13.237447750818918,
      13.039038439470408
    ]
  },
  "val": {
    "steps": [
      0,
      1,
      2,
      3,
      4,
      5,
      6,
      7,
      8,
      9,
      10,
      11,
      12,
      13,
      14,
      15,
      16,
      17,
      18,
      19,
      20,
      21,
      22,
      23,
      24,
      25,
      26,
      27,
      28,
      29,
      30,
      31,
      32,
      33,
      34,
      35,
      36,
      37,
      38,
      39,
      40,
      41,
      42,
      43,
      44,
      45,
      46,
      47,
      48,
      49,
      50,
      51,
      52,
      53,
      54,
      55,
      56,
      57,
      58,
      59,
      60,
      61,
      62,
      63,
      64,
      65,
      66,
      67,
      68,
      69,
      70,
      71,
      72,
      73,
      74,
      75,
      76,
      77,
      78,
      79,
      80,
      81,
      82,
      83,
      84,
      85,
      86,
      87,
      88,
      89,
      90,
      91,
      92,
      93,
      94,
      95,
      96,
      97,
      98,
      99,
      100,
      101,
      102,
      103,
      104,
      105,
      106,
      107,
      108,
      109,
      110,
      111,
      112,
      113,
      114,
      115,
      116,
      117,
      118,
      119,
      120,
      121,
      122,
      123,
      124,
      125,
      126,
      127,
      128,
      129,
      130,
      131,
      132,
      133,
      134,
      135,
      136,
      137,
      138,
      139,
      140,
      141,
      142,
      143,
      144,
      145,
      146,
      147,
      148,
      149,
      150,
      151,
      152,
      153,
      154,
      155,
      156,
      157,
      158,
      159,
      160,
      161,
      162,
      163,
      164,
      165,
      166,
      167,
      168,
      169,
      170,
      171,
      172,
      173,
      174,
      175,
      176,
      177,
      178,
      179,
      180,
      181,
      182,
      183,
      184,
      185,
      186,
      187,
      188,
      189,
      190,
      191,
      192,
      193,
      194,
      195,
      196,
      197,
      198,
      199,
      200,
      201,
      202,
      203,
      204,
      205,
      206,
      207,
      208,
      209,
      210,
      211,
      212,
      213,
      214,
      215,
      216,
      217,
      218,
      219,
      220,
      221,
      222,
      223,
      224,
      225,
      226,
      227,
      228,
      229,
      230,
      231,
      232,
      233,
      234,
      235,
      236,
      237,
      238,
      239,
      240,
      241,
      242,
      243,
      244,
      245,
      246,
      247,
      248,
      249,
      250,
      251,
      252,
      253,
      254,
      255,
      256,
      257,
      258,
      259,
      260,
      261,
      262,
      263,
      264,
      265,
      266,
      267,
      268,
      269,
      270,
      271,
      272,
      273,
      274,
      275,
      276,
      277,
      278,
      279,
      280,
      281,
      282,
      283,
      284,
      285,
      286,
      287,
      288,
      289,
      290,
      291,
      292,
      293,
      294,
      295,
      296,
      297,
      298,
      299,
      300,
      301,
      302,
      303,
      304,
      305,
      306,
      307,
      308,
      309,
      310,
      311,
      312,
      313,
      314,
      315,
      316,
      317,
      318,
      319,
      320,
      321,
      322,
      323,
      324,
      325,
      326,
      327,
      328,
      329,
      330,
      331,
      332,
      333,
      334,
      335,
      336,
      337,
      338,
      339,
      340,
      341,
      342,
      343,
      344,
      345,
      346,
      347,
      348,
      349,
      350,
      351,
      352,
      353,
      354,
      355,
      356,
      357,
      358,
      359,
      360,
      361,
      362,
      363,
      364,
      365,
      366,
      367,
      368,
      369,
      370,
      371,
      372,
      373,
      374,
      375,
      376,
      377,
      378,
      379,
      380,
      381,
      382,
      383,
      384,
      385,
      386,
      387,
      388,
      389,
      390,
      391,
      392,
      393,
      394,
      395,
      396,
      397,
      398,
      399
    ],
    "timestamps": [
      "2022-12-14T23:35:21.869113",
      "2022-12-14T23:35:22.667276",
      "2022-12-14T23:35:23.488079",
      "2022-12-14T23:35:24.310445",
      "2022-12-14T23:35:25.107609",
      "2022-12-14T23:35:25.904050",
      "2022-12-14T23:35:26.702535",
      "2022-12-14T23:35:27.499117",
      "2022-12-14T23:35:28.294209",
      "2022-12-14T23:35:29.093661",
      "2022-12-14T23:35:29.959290",
      "2022-12-14T23:35:30.807352",
      "2022-12-14T23:35:31.656489",
      "2022-12-14T23:35:32.500199",
      "2022-12-14T23:35:33.302868",
      "2022-12-14T23:35:34.100923",
      "2022-12-14T23:35:34.897783",
      "2022-12-14T23:35:35.697024",
      "2022-12-14T23:35:36.492505",
      "2022-12-14T23:35:37.292745",
      "2022-12-14T23:35:38.108438",
      "2022-12-14T23:35:38.928348",
      "2022-12-14T23:35:39.797659",
      "2022-12-14T23:35:40.670245",
      "2022-12-14T23:35:41.555477",
      "2022-12-14T23:35:42.353848",
      "2022-12-14T23:35:43.168763",
      "2022-12-14T23:35:43.965572",
      "2022-12-14T23:35:44.762163",
      "2022-12-14T23:35:45.562712",
      "2022-12-14T23:35:46.375261",
      "2022-12-14T23:35:47.177003",
      "2022-12-14T23:35:47.970518",
      "2022-12-14T23:35:48.768936",
      "2022-12-14T23:35:49.567557",
      "2022-12-14T23:35:50.365985",
      "2022-12-14T23:35:51.161585",
      "2022-12-14T23:35:51.961397",
      "2022-12-14T23:35:52.760037",
      "2022-12-14T23:35:53.563953",
      "2022-12-14T23:35:54.389824",
      "2022-12-14T23:35:55.199282",
      "2022-12-14T23:35:55.995122",
      "2022-12-14T23:35:56.796979",
      "2022-12-14T23:35:57.593340",
      "2022-12-14T23:35:58.396658",
      "2022-12-14T23:35:59.194362",
      "2022-12-14T23:35:59.993592",
      "2022-12-14T23:36:00.791277",
      "2022-12-14T23:36:01.615696",
      "2022-12-14T23:36:02.477049",
      "2022-12-14T23:36:03.338631",
      "2022-12-14T23:36:04.197462",
      "2022-12-14T23:36:05.034220",
      "2022-12-14T23:36:05.869742",
      "2022-12-14T23:36:06.692738",
      "2022-12-14T23:36:07.515762",
      "2022-12-14T23:36:08.363392",
      "2022-12-14T23:36:09.197327",
      "2022-12-14T23:36:10.025400",
      "2022-12-14T23:36:10.844409",
      "2022-12-14T23:36:11.649278",
      "2022-12-14T23:36:12.449255",
      "2022-12-14T23:36:13.253057",
      "2022-12-14T23:36:14.053071",
      "2022-12-14T23:36:14.854153",
      "2022-12-14T23:36:15.649834",
      "2022-12-14T23:36:16.452686",
      "2022-12-14T23:36:17.247825",
      "2022-12-14T23:36:18.051901",
      "2022-12-14T23:36:18.867361",
      "2022-12-14T23:36:19.667568",
      "2022-12-14T23:36:20.473176",
      "2022-12-14T23:36:21.285842",
      "2022-12-14T23:36:22.090623",
      "2022-12-14T23:36:22.889088",
      "2022-12-14T23:36:23.685965",
      "2022-12-14T23:36:24.488285",
      "2022-12-14T23:36:25.284054",
      "2022-12-14T23:36:26.085387",
      "2022-12-14T23:36:26.898121",
      "2022-12-14T23:36:27.699886",
      "2022-12-14T23:36:28.500424",
      "2022-12-14T23:36:29.304414",
      "2022-12-14T23:36:30.102705",
      "2022-12-14T23:36:30.904924",
      "2022-12-14T23:36:31.704775",
      "2022-12-14T23:36:32.508255",
      "2022-12-14T23:36:33.307678",
      "2022-12-14T23:36:34.110107",
      "2022-12-14T23:36:34.931189",
      "2022-12-14T23:36:35.736054",
      "2022-12-14T23:36:36.553172",
      "2022-12-14T23:36:37.372875",
      "2022-12-14T23:36:38.223630",
      "2022-12-14T23:36:39.024910",
      "2022-12-14T23:36:39.823385",
      "2022-12-14T23:36:40.621981",
      "2022-12-14T23:36:41.417403",
      "2022-12-14T23:36:42.228526",
      "2022-12-14T23:36:43.095897",
      "2022-12-14T23:36:43.945406",
      "2022-12-14T23:36:44.772256",
      "2022-12-14T23:36:45.621209",
      "2022-12-14T23:36:46.451268",
      "2022-12-14T23:36:47.309736",
      "2022-12-14T23:36:48.138530",
      "2022-12-14T23:36:48.985204",
      "2022-12-14T23:36:49.845099",
      "2022-12-14T23:36:50.700138",
      "2022-12-14T23:36:51.552294",
      "2022-12-14T23:36:52.389503",
      "2022-12-14T23:36:53.237047",
      "2022-12-14T23:36:54.090664",
      "2022-12-14T23:36:54.937534",
      "2022-12-14T23:36:55.765797",
      "2022-12-14T23:36:56.619143",
      "2022-12-14T23:36:57.437275",
      "2022-12-14T23:36:58.249410",
      "2022-12-14T23:36:59.057918",
      "2022-12-14T23:36:59.912962",
      "2022-12-14T23:37:00.743070",
      "2022-12-14T23:37:01.565381",
      "2022-12-14T23:37:02.398328",
      "2022-12-14T23:37:03.207391",
      "2022-12-14T23:37:04.010350",
      "2022-12-14T23:37:04.813193",
      "2022-12-14T23:37:05.613753",
      "2022-12-14T23:37:06.410368",
      "2022-12-14T23:37:07.213118",
      "2022-12-14T23:37:08.024984",
      "2022-12-14T23:37:08.828139",
      "2022-12-14T23:37:09.627030",
      "2022-12-14T23:37:10.430722",
      "2022-12-14T23:37:11.234976",
      "2022-12-14T23:37:12.077589",
      "2022-12-14T23:37:12.928440",
      "2022-12-14T23:37:13.779854",
      "2022-12-14T23:37:14.617209",
      "2022-12-14T23:37:15.455783",
      "2022-12-14T23:37:16.273040",
      "2022-12-14T23:37:17.095303",
      "2022-12-14T23:37:17.972652",
      "2022-12-14T23:37:18.800702",
      "2022-12-14T23:37:19.650111",
      "2022-12-14T23:37:20.505159",
      "2022-12-14T23:37:21.351359",
      "2022-12-14T23:37:22.220119",
      "2022-12-14T23:37:23.066453",
      "2022-12-14T23:37:23.892657",
      "2022-12-14T23:37:24.713765",
      "2022-12-14T23:37:25.515841",
      "2022-12-14T23:37:26.311877",
      "2022-12-14T23:37:27.108186",
      "2022-12-14T23:37:27.907259",
      "2022-12-14T23:37:28.707825",
      "2022-12-14T23:37:29.509087",
      "2022-12-14T23:37:30.310981",
      "2022-12-14T23:37:31.104310",
      "2022-12-14T23:37:31.902951",
      "2022-12-14T23:37:32.719003",
      "2022-12-14T23:37:33.519267",
      "2022-12-14T23:37:34.325779",
      "2022-12-14T23:37:35.128891",
      "2022-12-14T23:37:35.928065",
      "2022-12-14T23:37:36.736564",
      "2022-12-14T23:37:37.536371",
      "2022-12-14T23:37:38.373613",
      "2022-12-14T23:37:39.194478",
      "2022-12-14T23:37:40.006378",
      "2022-12-14T23:37:40.827262",
      "2022-12-14T23:37:41.698555",
      "2022-12-14T23:37:42.544853",
      "2022-12-14T23:37:43.370704",
      "2022-12-14T23:37:44.165697",
      "2022-12-14T23:37:44.963845",
      "2022-12-14T23:37:45.761079",
      "2022-12-14T23:37:46.561855",
      "2022-12-14T23:37:47.376200",
      "2022-12-14T23:37:48.177065",
      "2022-12-14T23:37:49.013954",
      "2022-12-14T23:37:49.815271",
      "2022-12-14T23:37:50.627877",
      "2022-12-14T23:37:51.431127",
      "2022-12-14T23:37:52.247881",
      "2022-12-14T23:37:53.063089",
      "2022-12-14T23:37:53.922959",
      "2022-12-14T23:37:54.768292",
      "2022-12-14T23:37:55.578454",
      "2022-12-14T23:37:56.408158",
      "2022-12-14T23:37:57.263833",
      "2022-12-14T23:37:58.092203",
      "2022-12-14T23:37:58.952886",
      "2022-12-14T23:37:59.755903",
      "2022-12-14T23:38:00.575031",
      "2022-12-14T23:38:01.392731",
      "2022-12-14T23:38:02.191514",
      "2022-12-14T23:38:03.034632",
      "2022-12-14T23:38:03.829500",
      "2022-12-14T23:38:04.638547",
      "2022-12-14T23:38:05.470991",
      "2022-12-14T23:38:06.285532",
      "2022-12-14T23:38:07.154232",
      "2022-12-14T23:38:08.033232",
      "2022-12-14T23:38:08.884719",
      "2022-12-14T23:38:09.730022",
      "2022-12-14T23:38:10.547120",
      "2022-12-14T23:38:11.392055",
      "2022-12-14T23:38:12.212595",
      "2022-12-14T23:38:13.032734",
      "2022-12-14T23:38:13.869876",
      "2022-12-14T23:38:14.694484",
      "2022-12-14T23:38:15.515380",
      "2022-12-14T23:38:16.336991",
      "2022-12-14T23:38:17.155278",
      "2022-12-14T23:38:17.981965",
      "2022-12-14T23:38:18.799172",
      "2022-12-14T23:38:19.622282",
      "2022-12-14T23:38:20.438774",
      "2022-12-14T23:38:21.281548",
      "2022-12-14T23:38:22.117689",
      "2022-12-14T23:38:22.949951",
      "2022-12-14T23:38:23.782249",
      "2022-12-14T23:38:24.617617",
      "2022-12-14T23:38:25.435760",
      "2022-12-14T23:38:26.259303",
      "2022-12-14T23:38:27.100010",
      "2022-12-14T23:38:27.978348",
      "2022-12-14T23:38:28.796645",
      "2022-12-14T23:38:29.628802",
      "2022-12-14T23:38:30.517936",
      "2022-12-14T23:38:31.346607",
      "2022-12-14T23:38:32.170733",
      "2022-12-14T23:38:33.012997",
      "2022-12-14T23:38:33.840245",
      "2022-12-14T23:38:34.661001",
      "2022-12-14T23:38:35.481920",
      "2022-12-14T23:38:36.302421",
      "2022-12-14T23:38:37.122247",
      "2022-12-14T23:38:37.944567",
      "2022-12-14T23:38:38.786133",
      "2022-12-14T23:38:39.616723",
      "2022-12-14T23:38:40.432815",
      "2022-12-14T23:38:41.249921",
      "2022-12-14T23:38:42.068861",
      "2022-12-14T23:38:42.888049",
      "2022-12-14T23:38:43.704290",
      "2022-12-14T23:38:44.525146",
      "2022-12-14T23:38:45.342332",
      "2022-12-14T23:38:46.162040",
      "2022-12-14T23:38:46.994296",
      "2022-12-14T23:38:47.819079",
      "2022-12-14T23:38:48.634629",
      "2022-12-14T23:38:49.461133",
      "2022-12-14T23:38:50.276924",
      "2022-12-14T23:38:51.098205",
      "2022-12-14T23:38:51.917900",
      "2022-12-14T23:38:52.739402",
      "2022-12-14T23:38:53.555871",
      "2022-12-14T23:38:54.374002",
      "2022-12-14T23:38:55.214550",
      "2022-12-14T23:38:56.039242",
      "2022-12-14T23:38:56.862969",
      "2022-12-14T23:38:57.720643",
      "2022-12-14T23:38:58.595961",
      "2022-12-14T23:38:59.440940",
      "2022-12-14T23:39:00.267970",
      "2022-12-14T23:39:01.146498",
      "2022-12-14T23:39:01.975625",
      "2022-12-14T23:39:02.802718",
      "2022-12-14T23:39:03.646481",
      "2022-12-14T23:39:04.473352",
      "2022-12-14T23:39:05.298961",
      "2022-12-14T23:39:06.128065",
      "2022-12-14T23:39:06.955083",
      "2022-12-14T23:39:07.783736",
      "2022-12-14T23:39:08.607076",
      "2022-12-14T23:39:09.434992",
      "2022-12-14T23:39:10.253849",
      "2022-12-14T23:39:11.075247",
      "2022-12-14T23:39:11.919567",
      "2022-12-14T23:39:12.748485",
      "2022-12-14T23:39:13.573346",
      "2022-12-14T23:39:14.403436",
      "2022-12-14T23:39:15.229975",
      "2022-12-14T23:39:16.074163",
      "2022-12-14T23:39:16.901954",
      "2022-12-14T23:39:17.731042",
      "2022-12-14T23:39:18.552355",
      "2022-12-14T23:39:19.384930",
      "2022-12-14T23:39:20.226175",
      "2022-12-14T23:39:21.050871",
      "2022-12-14T23:39:21.876249",
      "2022-12-14T23:39:22.702505",
      "2022-12-14T23:39:23.531152",
      "2022-12-14T23:39:24.506697",
      "2022-12-14T23:39:25.348987",
      "2022-12-14T23:39:26.169990",
      "2022-12-14T23:39:27.147619",
      "2022-12-14T23:39:28.057194",
      "2022-12-14T23:39:28.900478",
      "2022-12-14T23:39:29.737865",
      "2022-12-14T23:39:30.543728",
      "2022-12-14T23:39:31.352118",
      "2022-12-14T23:39:32.158864",
      "2022-12-14T23:39:32.966993",
      "2022-12-14T23:39:33.862999",
      "2022-12-14T23:39:34.704107",
      "2022-12-14T23:39:35.587690",
      "2022-12-14T23:39:36.437789",
      "2022-12-14T23:39:37.305303",
      "2022-12-14T23:39:38.137921",
      "2022-12-14T23:39:38.993030",
      "2022-12-14T23:39:39.817036",
      "2022-12-14T23:39:40.638844",
      "2022-12-14T23:39:41.462755",
      "2022-12-14T23:39:42.304294",
      "2022-12-14T23:39:43.125055",
      "2022-12-14T23:39:43.945349",
      "2022-12-14T23:39:44.771948",
      "2022-12-14T23:39:45.608354",
      "2022-12-14T23:39:46.429664",
      "2022-12-14T23:39:47.254260",
      "2022-12-14T23:39:48.127591",
      "2022-12-14T23:39:48.991314",
      "2022-12-14T23:39:49.897427",
      "2022-12-14T23:39:50.744094",
      "2022-12-14T23:39:51.567062",
      "2022-12-14T23:39:52.399635",
      "2022-12-14T23:39:53.223582",
      "2022-12-14T23:39:54.075781",
      "2022-12-14T23:39:54.917308",
      "2022-12-14T23:39:55.716411",
      "2022-12-14T23:39:56.518742",
      "2022-12-14T23:39:57.317243",
      "2022-12-14T23:39:58.120074",
      "2022-12-14T23:39:58.918105",
      "2022-12-14T23:39:59.723785",
      "2022-12-14T23:40:00.523867",
      "2022-12-14T23:40:01.323531",
      "2022-12-14T23:40:02.136518",
      "2022-12-14T23:40:02.938251",
      "2022-12-14T23:40:03.758397",
      "2022-12-14T23:40:04.634858",
      "2022-12-14T23:40:05.442761",
      "2022-12-14T23:40:06.249429",
      "2022-12-14T23:40:07.051086",
      "2022-12-14T23:40:07.864152",
      "2022-12-14T23:40:08.663320",
      "2022-12-14T23:40:09.470281",
      "2022-12-14T23:40:10.297342",
      "2022-12-14T23:40:11.155580",
      "2022-12-14T23:40:12.012894",
      "2022-12-14T23:40:12.829971",
      "2022-12-14T23:40:13.643440",
      "2022-12-14T23:40:14.466906",
      "2022-12-14T23:40:15.270415",
      "2022-12-14T23:40:16.075901",
      "2022-12-14T23:40:16.879658",
      "2022-12-14T23:40:17.768797",
      "2022-12-14T23:40:18.608126",
      "2022-12-14T23:40:19.452612",
      "2022-12-14T23:40:20.253533",
      "2022-12-14T23:40:21.052023",
      "2022-12-14T23:40:21.853679",
      "2022-12-14T23:40:22.660979",
      "2022-12-14T23:40:23.460064",
      "2022-12-14T23:40:24.262967",
      "2022-12-14T23:40:25.063315",
      "2022-12-14T23:40:25.864640",
      "2022-12-14T23:40:26.681622",
      "2022-12-14T23:40:27.488209",
      "2022-12-14T23:40:28.297875",
      "2022-12-14T23:40:29.124678",
      "2022-12-14T23:40:29.967936",
      "2022-12-14T23:40:30.773231",
      "2022-12-14T23:40:31.586244",
      "2022-12-14T23:40:32.385870",
      "2022-12-14T23:40:33.183581",
      "2022-12-14T23:40:33.987197",
      "2022-12-14T23:40:34.803899",
      "2022-12-14T23:40:35.606838",
      "2022-12-14T23:40:36.405923",
      "2022-12-14T23:40:37.230091",
      "2022-12-14T23:40:38.034511",
      "2022-12-14T23:40:38.868613",
      "2022-12-14T23:40:39.670236",
      "2022-12-14T23:40:40.472364",
      "2022-12-14T23:40:41.273479",
      "2022-12-14T23:40:42.072195",
      "2022-12-14T23:40:42.883801",
      "2022-12-14T23:40:43.686059",
      "2022-12-14T23:40:44.485487",
      "2022-12-14T23:40:45.311991",
      "2022-12-14T23:40:46.120911",
      "2022-12-14T23:40:46.928952",
      "2022-12-14T23:40:47.769974",
      "2022-12-14T23:40:48.595134",
      "2022-12-14T23:40:49.461427",
      "2022-12-14T23:40:50.309566"
    ],
    "values": [
      18.459368387390622,
      18.37390882394569,
      18.277730706321435,
      18.192729196985553,
      18.09840906827506,
      18.04154330135908,
      17.9673957455686,
      17.8801298307599,
      17.837311029152886,
      17.77568968170553,
      17.701937903651757,
      17.64668485909288,
      17.575647150074627,
      17.54353471705901,
      17.47410052784643,
      17.42620245117981,
      17.367172672156133,
      17.31581273592597,
      17.281147682343896,
      17.24134900797952,
      17.1892704903993,
      17.145250337192987,
      17.10713211649855,
      17.05830535529519,
      17.03454563160816,
      16.971809889261777,
      16.947057096057435,
      16.897965161736977,
      16.879857246645855,
      16.841867550299508,
      16.79780414964278,
      16.779678056254234,
      16.742391914930117,
      16.712100370294646,
      16.6879649921125,
      16.637316061074642,
      16.604190835854155,
      16.58310394986832,
      16.552341344780917,
      16.511128077313558,
      16.49841713644377,
      16.46870214949571,
      16.441189053645832,
      16.414605925203098,
      16.382413516305405,
      16.39553696896144,
      16.340323111589576,
      16.33236566379835,
      16.297986568033636,
      16.28435825732413,
      16.25038848211628,
      16.23519869645673,
      16.204222415918416,
      16.197964675767142,
      16.17709730265201,
      16.15972610008397,
      16.129806185732885,
      16.123264846525277,
      16.117191726720367,
      16.09334238747773,
      16.086355232738992,
      16.08563778206424,
      16.078687529472724,
      16.03686854046808,
      16.04694082071544,
      15.98150624666225,
      16.01093820619213,
      15.99570104765329,
      15.973782176572938,
      15.935456156382537,
      15.94319225798663,
      15.941892259578383,
      15.912824856186106,
      15.902634659437199,
      15.91416577074933,
      15.942883404673369,
      15.92457038027405,
      15.932151745898366,
      15.94295605247179,
      15.915539452346815,
      15.94630327507436,
      15.9408024800144,
      15.912275998911117,
      15.93559434253747,
      15.880125266589294,
      15.880842980355016,
      15.867872329528925,
      15.857802745936626,
      15.864604753235376,
      15.867592734595817,
      15.904632200772545,
      15.83682271301948,
      15.834225904463192,
      15.824912651615309,
      15.846662425897897,
      15.86295645570212,
      15.887054506497181,
      15.812101003688714,
      15.787595660916317,
      15.851103694276,
      15.816439159271113,
      15.812037566742271,
      15.870567961742086,
      15.857556679155469,
      15.828200322274242,
      15.964443243189237,
      15.947927670462565,
      15.90713215345745,
      15.9496759905705,
      15.962691337956048,
      15.97804822425258,
      15.917610878168897,
      15.945647952868432,
      15.949131740877647,
      15.983394833664024,
      16.06469432972036,
      16.063071917461308,
      16.10859875835465,
      16.152867948771508,
      16.03618160380644,
      16.096996502593694,
      16.089823832233684,
      16.092847294451317,
      16.143906911957686,
      16.215095600111418,
      16.18573610431772,
      16.20633562829096,
      16.152749719679026,
      16.285798186670196,
      16.286734123828033,
      16.301435746471995,
      16.296129531820743,
      16.353448921807548,
      16.276329591975855,
      16.38479169809775,
      16.399493291809225,
      16.456118235667937,
      16.390375511286038,
      16.46586610921879,
      16.37510538052452,
      16.358072901086988,
      16.381144385769204,
      16.401066489609363,
      16.465152902505523,
      16.424213030686587,
      16.567515181649046,
      16.42849076544607,
      16.52225597291886,
      16.515521106089786,
      16.552882336424165,
      16.622272369735086,
      16.619015731524982,
      16.63683286143816,
      16.59949519265017,
      16.650206221179186,
      16.783340187912206,
      16.807612763280922,
      16.857088077477943,
      16.980521432024343,
      16.91271608701092,
      17.012835762639398,
      16.916821219551416,
      16.963537507720897,
      17.001787847449442,
      17.00250504947661,
      17.056467630542244,
      16.986451169264388,
      16.91250902709769,
      17.07544886560462,
      17.0818176812121,
      16.93610094242048,
      16.899621544391508,
      16.906482914260952,
      17.055299952994446,
      17.005950424387905,
      16.977010259453706,
      16.934543265417762,
      16.941074663952847,
      17.037223168436523,
      16.841334314376347,
      17.120239815165395,
      16.92917888585957,
      16.938945864937097,
      16.859098268956807,
      16.922020139118406,
      17.08550345228904,
      17.004221969648178,
      17.01897550361615,
      16.976360414682965,
      17.068680990683735,
      17.095971036648805,
      17.090571124357403,
      17.16832999579834,
      17.097789206765494,
      17.101921178964968,
      17.153713657656596,
      17.050584632284583,
      17.16132186950884,
      17.148079070784824,
      17.127087637184236,
      17.013110160261192,
      17.072054015577848,
      17.12006723087554,
      17.105309626268056,
      17.192692451232993,
      17.127502779917762,
      17.070182708444012,
      17.136992563394084,
      17.17435476659021,
      17.19371650116937,
      17.10166367717342,
      17.054197443221994,
      17.034969725143625,
      17.12813141351778,
      17.036741134873274,
      17.202464420553902,
      17.15172138341656,
      17.15689059466693,
      17.09610463379356,
      17.079795537386694,
      17.07019223473621,
      17.110917011059517,
      17.119936585808276,
      17.015033432569425,
      17.142902737914678,
      17.042541536723885,
      17.0574771651559,
      17.098544588326916,
      17.077002871190494,
      17.066527418291745,
      17.03735038491688,
      17.04305240610536,
      17.006486831042324,
      17.107063055125558,
      17.11172384322211,
      17.087466306309967,
      17.065712303556925,
      17.065718677808164,
      17.045199969240493,
      16.988291809039946,
      17.162553536448602,
      17.07700087770182,
      17.08130929636293,
      17.140526211547005,
      17.073300970912356,
      17.08238104938981,
      17.02990692423693,
      17.16165310861326,
      17.12842690075219,
      17.08197331093796,
      17.118715422948547,
      17.110951163809393,
      17.19525150292525,
      17.066727147153177,
      17.12688670339101,
      17.115118387318518,
      17.06472147177447,
      17.127814444652625,
      17.06596538777917,
      17.094385968536443,
      17.078377667246357,
      17.136282688132898,
      17.08724336733391,
      17.14190440447797,
      17.1034258143856,
      17.077107195204725,
      17.15013111089589,
      17.193703685663476,
      17.107693422952128,
      17.153539461019122,
      17.102978259477304,
      17.052388213323255,
      17.089485334314958,
      17.17307308251648,
      17.049016112007518,
      17.086933523310723,
      17.111690526384233,
      17.138983664401493,
      17.050598961567065,
      17.054692320748387,
      17.073247641674683,
      17.107466269680767,
      17.123302260094807,
      17.08213816472057,
      17.106151267050254,
      17.09218111826859,
      17.044573131310266,
      17.114046757861676,
      17.046592224077767,
      17.168639547626054,
      17.054563875370015,
      17.03544885828711,
      17.08795008647658,
      17.08024387743113,
      17.077149043139382,
      17.134822399036103,
      17.119431261584953,
      17.02876233476889,
      17.06523672004638,
      17.10700873636593,
      17.139902400105097,
      17.10825736645911,
      17.005091629621656,
      17.007432626951182,
      17.13288802270152,
      17.205626673506853,
      17.043204712030782,
      17.22801640011745,
      17.08882603009322,
      17.154604039240393,
      17.063136677657212,
      17.077688460426117,
      17.133045623692237,
      17.157251707891252,
      17.110302064602728,
      17.118816285335157,
      17.133300681406933,
      17.105016964974116,
      17.113678385946375,
      17.021732214768523,
      17.073422018231113,
      17.152924651752723,
      17.115428940534514,
      17.22401455848009,
      17.08740639069337,
      17.092489519761287,
      17.024967737213775,
      17.122007724287126,
      17.118809279595038,
      17.10024447699001,
      17.07812390639882,
      17.02370099373121,
      17.137033440023735,
      17.05267671823106,
      17.052039087789776,
      17.112696511378136,
      17.06465079148734,
      17.074434805402856,
      17.01956391799125,
      17.114683028476907,
      17.029131667381996,
      17.112105335882983,
      17.126072716672866,
      17.04506733304369,
      17.06208528210853,
      17.08741654965115,
      17.128253081882146,
      17.06350016267876,
      17.10737580093835,
      17.102154463162325,
      17.066031755465705,
      16.996027132089846,
      17.123872353580833,
      17.095991319635008,
      17.039251135166847,
      17.121491260594834,
      17.04891800209008,
      17.068209693709488,
      17.125870212720258,
      17.025023391973644,
      17.117798137596516,
      17.04732935500166,
      17.07054550510748,
      17.065304011332756,
      17.115423481927994,
      17.051821571247093,
      17.131119958855685,
      17.065701737612923,
      17.112232070773103,
      17.03575221905187,
      17.11625614813499,
      17.107959590975756,
      17.157268266139432,
      17.02306963114428,
      17.126754987580455,
      17.086040578240283,
      17.22466502079869,
      17.074866277277057,
      17.083220817914786,
      17.068704530886134,
      17.01482024058603,
      17.167464378831056,
      17.088212502067496,
      17.098739772450664,
      17.123588739133957,
      17.089810741666984,
      17.086825146028307,
      17.12407367920631,
      17.130504770283018,
      17.11103703273441,
      17.067979994002794,
      17.028344582699834,
      17.127767515309856,
      17.083633711485067,
      17.083243587949145,
      17.14899836627105,
      17.11390985717973,
      17.0530941401367,
      17.101508335382764,
      17.059819391953077
    ]
  }
}