{
  "test": {
    "steps": [
      0
    ],
    "timestamps": [
      "2022-07-04T23:46:16.988623"
    ],
    "values": [
      8.722082175977624
    ]
  },
  "train": {
    "steps": [
      0,
      1,
      2,
      3,
      4,
      5,
      6,
      7,
      8,
      9,
      10,
      11,
      12,
      13,
      14,
      15,
      16,
      17,
      18,
      19,
      20,
      21,
      22,
      23,
      24,
      25,
      26,
      27,
      28,
      29,
      30,
      31,
      32,
      33,
      34,
      35,
      36,
      37,
      38,
      39,
      40,
      41,
      42,
      43,
      44,
      45,
      46,
      47,
      48,
      49,
      50,
      51,
      52,
      53,
      54,
      55,
      56,
      57,
      58,
      59,
      60,
      61,
      62,
      63,
      64,
      65,
      66,
      67,
      68,
      69,
      70,
      71,
      72,
      73,
      74,
      75,
      76,
      77,
      78,
      79,
      80,
      81,
      82,
      83,
      84,
      85,
      86,
      87,
      88,
      89,
      90,
      91,
      92,
      93,
      94,
      95,
      96,
      97,
      98,
      99,
      100,
      101,
      102,
      103,
      104,
      105,
      106,
      107,
      108,
      109,
      110,
      111,
      112,
      113,
      114,
      115,
      116,
      117,
      118,
      119,
      120,
      121,
      122,
      123,
      124,
      125,
      126,
      127,
      128,
      129,
      130,
      131,
      132,
      133,
      134,
      135,
      136,
      137,
      138,
      139,
      140,
      141,
      142,
      143,
      144,
      145,
      146,
      147,
      148,
      149,
      150,
      151,
      152,
      153,
      154,
      155,
      156,
      157,
      158,
      159,
      160,
      161,
      162,
      163,
      164,
      165,
      166,
      167,
      168,
      169,
      170,
      171,
      172,
      173,
      174,
      175,
      176,
      177,
      178,
      179,
      180,
      181,
      182,
      183,
      184,
      185,
      186,
      187,
      188,
      189,
      190,
      191,
      192,
      193,
      194,
      195,
      196,
      197,
      198,
      199,
      200,
      201,
      202,
      203,
      204,
      205,
      206,
      207,
      208,
      209,
      210,
      211,
      212,
      213,
      214,
      215,
      216,
      217,
      218,
      219,
      220,
      221,
      222,
      223,
      224,
      225,
      226,
      227,
      228,
      229,
      230,
      231,
      232,
      233,
      234,
      235,
      236,
      237,
      238,
      239,
      240,
      241,
      242,
      243,
      244,
      245,
      246,
      247,
      248,
      249,
      250,
      251,
      252,
      253,
      254,
      255,
      256,
      257,
      258,
      259,
      260,
      261,
      262,
      263,
      264,
      265,
      266,
      267,
      268,
      269,
      270,
      271,
      272,
      273,
      274,
      275,
      276,
      277,
      278,
      279,
      280,
      281,
      282,
      283,
      284,
      285,
      286,
      287,
      288,
      289,
      290,
      291,
      292,
      293,
      294,
      295,
      296,
      297,
      298,
      299,
      300,
      301,
      302,
      303,
      304,
      305,
      306,
      307,
      308,
      309,
      310,
      311,
      312,
      313,
      314,
      315,
      316,
      317,
      318,
      319,
      320,
      321,
      322,
      323,
      324,
      325,
      326,
      327,
      328,
      329,
      330,
      331,
      332,
      333,
      334,
      335,
      336,
      337,
      338,
      339,
      340,
      341,
      342,
      343,
      344,
      345,
      346,
      347,
      348,
      349,
      350,
      351,
      352,
      353,
      354,
      355,
      356,
      357,
      358,
      359,
      360,
      361,
      362,
      363,
      364,
      365,
      366,
      367,
      368,
      369,
      370,
      371,
      372,
      373,
      374,
      375,
      376,
      377,
      378,
      379,
      380,
      381,
      382,
      383,
      384,
      385,
      386,
      387,
      388,
      389,
      390,
      391,
      392,
      393,
      394,
      395,
      396,
      397,
      398,
      399
    ],
    "timestamps": [
      "2022-07-04T23:34:51.067272",
      "2022-07-04T23:34:53.878058",
      "2022-07-04T23:34:55.436034",
      "2022-07-04T23:34:57.068290",
      "2022-07-04T23:34:58.803623",
      "2022-07-04T23:35:00.513095",
      "2022-07-04T23:35:02.113185",
      "2022-07-04T23:35:03.708638",
      "2022-07-04T23:35:05.351212",
      "2022-07-04T23:35:06.943970",
      "2022-07-04T23:35:08.575460",
      "2022-07-04T23:35:10.179206",
      "2022-07-04T23:35:11.783276",
      "2022-07-04T23:35:13.406751",
      "2022-07-04T23:35:15.012332",
      "2022-07-04T23:35:16.556999",
      "2022-07-04T23:35:18.141223",
      "2022-07-04T23:35:19.725391",
      "2022-07-04T23:35:21.291394",
      "2022-07-04T23:35:22.868603",
      "2022-07-04T23:35:24.464026",
      "2022-07-04T23:35:26.051615",
      "2022-07-04T23:35:27.664513",
      "2022-07-04T23:35:29.325605",
      "2022-07-04T23:35:30.986464",
      "2022-07-04T23:35:32.531451",
      "2022-07-04T23:35:34.186775",
      "2022-07-04T23:35:35.789427",
      "2022-07-04T23:35:37.391861",
      "2022-07-04T23:35:38.997319",
      "2022-07-04T23:35:40.547842",
      "2022-07-04T23:35:42.093071",
      "2022-07-04T23:35:43.729965",
      "2022-07-04T23:35:45.313745",
      "2022-07-04T23:35:46.926049",
      "2022-07-04T23:35:48.712040",
      "2022-07-04T23:35:50.679319",
      "2022-07-04T23:35:52.285898",
      "2022-07-04T23:35:53.914637",
      "2022-07-04T23:35:55.521729",
      "2022-07-04T23:35:57.122143",
      "2022-07-04T23:35:58.751929",
      "2022-07-04T23:36:00.368465",
      "2022-07-04T23:36:01.915437",
      "2022-07-04T23:36:03.566425",
      "2022-07-04T23:36:05.121173",
      "2022-07-04T23:36:06.670209",
      "2022-07-04T23:36:08.283083",
      "2022-07-04T23:36:09.836460",
      "2022-07-04T23:36:11.413968",
      "2022-07-04T23:36:13.033092",
      "2022-07-04T23:36:14.585457",
      "2022-07-04T23:36:16.165457",
      "2022-07-04T23:36:17.751523",
      "2022-07-04T23:36:19.298121",
      "2022-07-04T23:36:20.978343",
      "2022-07-04T23:36:22.516360",
      "2022-07-04T23:36:24.172875",
      "2022-07-04T23:36:25.836359",
      "2022-07-04T23:36:27.448127",
      "2022-07-04T23:36:29.072438",
      "2022-07-04T23:36:30.703043",
      "2022-07-04T23:36:32.300172",
      "2022-07-04T23:36:33.964848",
      "2022-07-04T23:36:35.621113",
      "2022-07-04T23:36:37.234498",
      "2022-07-04T23:36:38.872420",
      "2022-07-04T23:36:40.476099",
      "2022-07-04T23:36:42.088302",
      "2022-07-04T23:36:43.756575",
      "2022-07-04T23:36:45.378513",
      "2022-07-04T23:36:47.006043",
      "2022-07-04T23:36:48.671850",
      "2022-07-04T23:36:50.303333",
      "2022-07-04T23:36:51.929760",
      "2022-07-04T23:36:53.584295",
      "2022-07-04T23:36:55.269470",
      "2022-07-04T23:36:56.900888",
      "2022-07-04T23:36:58.538426",
      "2022-07-04T23:37:00.163091",
      "2022-07-04T23:37:01.764718",
      "2022-07-04T23:37:03.314598",
      "2022-07-04T23:37:04.949615",
      "2022-07-04T23:37:06.506377",
      "2022-07-04T23:37:08.209680",
      "2022-07-04T23:37:10.263785",
      "2022-07-04T23:37:12.311406",
      "2022-07-04T23:37:14.340427",
      "2022-07-04T23:37:16.106770",
      "2022-07-04T23:37:18.087992",
      "2022-07-04T23:37:19.827726",
      "2022-07-04T23:37:21.764099",
      "2022-07-04T23:37:23.488601",
      "2022-07-04T23:37:25.052183",
      "2022-07-04T23:37:26.611808",
      "2022-07-04T23:37:28.407024",
      "2022-07-04T23:37:30.115472",
      "2022-07-04T23:37:31.941076",
      "2022-07-04T23:37:33.993696",
      "2022-07-04T23:37:36.006638",
      "2022-07-04T23:37:38.016862",
      "2022-07-04T23:37:39.825009",
      "2022-07-04T23:37:41.423548",
      "2022-07-04T23:37:43.035330",
      "2022-07-04T23:37:44.651310",
      "2022-07-04T23:37:46.253547",
      "2022-07-04T23:37:47.856061",
      "2022-07-04T23:37:49.590524",
      "2022-07-04T23:37:51.356548",
      "2022-07-04T23:37:53.294508",
      "2022-07-04T23:37:55.074793",
      "2022-07-04T23:37:57.042112",
      "2022-07-04T23:37:58.801069",
      "2022-07-04T23:38:00.706605",
      "2022-07-04T23:38:02.708343",
      "2022-07-04T23:38:04.776244",
      "2022-07-04T23:38:06.814572",
      "2022-07-04T23:38:08.570127",
      "2022-07-04T23:38:10.170617",
      "2022-07-04T23:38:11.844458",
      "2022-07-04T23:38:13.451007",
      "2022-07-04T23:38:15.055858",
      "2022-07-04T23:38:16.739754",
      "2022-07-04T23:38:18.343786",
      "2022-07-04T23:38:20.195354",
      "2022-07-04T23:38:22.145903",
      "2022-07-04T23:38:24.013734",
      "2022-07-04T23:38:25.927031",
      "2022-07-04T23:38:27.827761",
      "2022-07-04T23:38:29.373623",
      "2022-07-04T23:38:31.207884",
      "2022-07-04T23:38:33.236847",
      "2022-07-04T23:38:35.250403",
      "2022-07-04T23:38:37.267929",
      "2022-07-04T23:38:39.384208",
      "2022-07-04T23:38:41.429234",
      "2022-07-04T23:38:43.506874",
      "2022-07-04T23:38:45.557307",
      "2022-07-04T23:38:47.610183",
      "2022-07-04T23:38:49.689292",
      "2022-07-04T23:38:51.743157",
      "2022-07-04T23:38:53.815139",
      "2022-07-04T23:38:55.897143",
      "2022-07-04T23:38:57.505750",
      "2022-07-04T23:38:59.144984",
      "2022-07-04T23:39:00.691781",
      "2022-07-04T23:39:02.243374",
      "2022-07-04T23:39:03.827684",
      "2022-07-04T23:39:05.426652",
      "2022-07-04T23:39:07.118410",
      "2022-07-04T23:39:08.794659",
      "2022-07-04T23:39:10.626557",
      "2022-07-04T23:39:12.519716",
      "2022-07-04T23:39:14.175913",
      "2022-07-04T23:39:15.791350",
      "2022-07-04T23:39:17.716359",
      "2022-07-04T23:39:19.459882",
      "2022-07-04T23:39:21.231552",
      "2022-07-04T23:39:22.778214",
      "2022-07-04T23:39:24.386239",
      "2022-07-04T23:39:26.100646",
      "2022-07-04T23:39:28.057039",
      "2022-07-04T23:39:29.707383",
      "2022-07-04T23:39:31.368094",
      "2022-07-04T23:39:33.396141",
      "2022-07-04T23:39:35.420005",
      "2022-07-04T23:39:36.994953",
      "2022-07-04T23:39:38.579202",
      "2022-07-04T23:39:40.126701",
      "2022-07-04T23:39:41.797446",
      "2022-07-04T23:39:43.437503",
      "2022-07-04T23:39:45.459275",
      "2022-07-04T23:39:47.474263",
      "2022-07-04T23:39:49.501933",
      "2022-07-04T23:39:51.316595",
      "2022-07-04T23:39:53.373845",
      "2022-07-04T23:39:55.394213",
      "2022-07-04T23:39:57.417943",
      "2022-07-04T23:39:59.465060",
      "2022-07-04T23:40:01.734614",
      "2022-07-04T23:40:03.778095",
      "2022-07-04T23:40:05.326973",
      "2022-07-04T23:40:07.030691",
      "2022-07-04T23:40:08.692973",
      "2022-07-04T23:40:10.367528",
      "2022-07-04T23:40:11.979554",
      "2022-07-04T23:40:13.646268",
      "2022-07-04T23:40:15.264677",
      "2022-07-04T23:40:16.821650",
      "2022-07-04T23:40:18.389958",
      "2022-07-04T23:40:19.962928",
      "2022-07-04T23:40:21.515701",
      "2022-07-04T23:40:23.069599",
      "2022-07-04T23:40:24.701081",
      "2022-07-04T23:40:26.256362",
      "2022-07-04T23:40:27.815867",
      "2022-07-04T23:40:29.403930",
      "2022-07-04T23:40:30.965527",
      "2022-07-04T23:40:32.522553",
      "2022-07-04T23:40:34.206183",
      "2022-07-04T23:40:35.963502",
      "2022-07-04T23:40:37.503115",
      "2022-07-04T23:40:39.253400",
      "2022-07-04T23:40:40.820770",
      "2022-07-04T23:40:42.385729",
      "2022-07-04T23:40:43.963706",
      "2022-07-04T23:40:45.530617",
      "2022-07-04T23:40:47.097350",
      "2022-07-04T23:40:48.731967",
      "2022-07-04T23:40:50.299983",
      "2022-07-04T23:40:51.862077",
      "2022-07-04T23:40:53.482404",
      "2022-07-04T23:40:55.050980",
      "2022-07-04T23:40:56.623633",
      "2022-07-04T23:40:58.236253",
      "2022-07-04T23:40:59.807869",
      "2022-07-04T23:41:01.377725",
      "2022-07-04T23:41:02.986036",
      "2022-07-04T23:41:04.572572",
      "2022-07-04T23:41:06.126568",
      "2022-07-04T23:41:07.688167",
      "2022-07-04T23:41:09.390721",
      "2022-07-04T23:41:11.010909",
      "2022-07-04T23:41:12.626368",
      "2022-07-04T23:41:14.326002",
      "2022-07-04T23:41:15.940547",
      "2022-07-04T23:41:17.817654",
      "2022-07-04T23:41:19.504169",
      "2022-07-04T23:41:21.524007",
      "2022-07-04T23:41:23.487475",
      "2022-07-04T23:41:25.184000",
      "2022-07-04T23:41:26.781519",
      "2022-07-04T23:41:28.419006",
      "2022-07-04T23:41:30.074633",
      "2022-07-04T23:41:31.664026",
      "2022-07-04T23:41:33.225971",
      "2022-07-04T23:41:34.841809",
      "2022-07-04T23:41:36.450347",
      "2022-07-04T23:41:38.034746",
      "2022-07-04T23:41:39.614860",
      "2022-07-04T23:41:41.205665",
      "2022-07-04T23:41:42.854800",
      "2022-07-04T23:41:44.502980",
      "2022-07-04T23:41:46.061276",
      "2022-07-04T23:41:47.632676",
      "2022-07-04T23:41:49.254820",
      "2022-07-04T23:41:50.817758",
      "2022-07-04T23:41:52.374151",
      "2022-07-04T23:41:53.938304",
      "2022-07-04T23:41:55.497472",
      "2022-07-04T23:41:57.052713",
      "2022-07-04T23:41:58.652838",
      "2022-07-04T23:42:00.211752",
      "2022-07-04T23:42:01.771948",
      "2022-07-04T23:42:03.415436",
      "2022-07-04T23:42:05.247896",
      "2022-07-04T23:42:06.921969",
      "2022-07-04T23:42:08.587307",
      "2022-07-04T23:42:10.486513",
      "2022-07-04T23:42:12.157170",
      "2022-07-04T23:42:13.751732",
      "2022-07-04T23:42:15.296415",
      "2022-07-04T23:42:16.850799",
      "2022-07-04T23:42:18.647569",
      "2022-07-04T23:42:20.489564",
      "2022-07-04T23:42:22.316458",
      "2022-07-04T23:42:24.215517",
      "2022-07-04T23:42:26.119498",
      "2022-07-04T23:42:28.148130",
      "2022-07-04T23:42:30.184853",
      "2022-07-04T23:42:32.205582",
      "2022-07-04T23:42:34.291700",
      "2022-07-04T23:42:36.312470",
      "2022-07-04T23:42:38.278518",
      "2022-07-04T23:42:39.939097",
      "2022-07-04T23:42:41.482147",
      "2022-07-04T23:42:43.024260",
      "2022-07-04T23:42:44.636767",
      "2022-07-04T23:42:46.178333",
      "2022-07-04T23:42:47.769885",
      "2022-07-04T23:42:49.381750",
      "2022-07-04T23:42:50.999858",
      "2022-07-04T23:42:52.618389",
      "2022-07-04T23:42:54.366578",
      "2022-07-04T23:42:56.033401",
      "2022-07-04T23:42:57.660763",
      "2022-07-04T23:42:59.562884",
      "2022-07-04T23:43:01.629694",
      "2022-07-04T23:43:03.692451",
      "2022-07-04T23:43:05.730580",
      "2022-07-04T23:43:07.787632",
      "2022-07-04T23:43:09.820846",
      "2022-07-04T23:43:11.856592",
      "2022-07-04T23:43:13.874620",
      "2022-07-04T23:43:15.481959",
      "2022-07-04T23:43:17.095502",
      "2022-07-04T23:43:18.767664",
      "2022-07-04T23:43:20.372455",
      "2022-07-04T23:43:21.970487",
      "2022-07-04T23:43:23.717053",
      "2022-07-04T23:43:25.319011",
      "2022-07-04T23:43:26.926622",
      "2022-07-04T23:43:28.599653",
      "2022-07-04T23:43:30.225847",
      "2022-07-04T23:43:31.947827",
      "2022-07-04T23:43:33.867032",
      "2022-07-04T23:43:35.429582",
      "2022-07-04T23:43:36.978341",
      "2022-07-04T23:43:38.595932",
      "2022-07-04T23:43:40.191954",
      "2022-07-04T23:43:41.993027",
      "2022-07-04T23:43:43.886654",
      "2022-07-04T23:43:45.793782",
      "2022-07-04T23:43:47.722396",
      "2022-07-04T23:43:49.610024",
      "2022-07-04T23:43:51.211645",
      "2022-07-04T23:43:52.816358",
      "2022-07-04T23:43:54.483667",
      "2022-07-04T23:43:56.100378",
      "2022-07-04T23:43:57.868706",
      "2022-07-04T23:43:59.840066",
      "2022-07-04T23:44:01.830378",
      "2022-07-04T23:44:03.782968",
      "2022-07-04T23:44:05.637117",
      "2022-07-04T23:44:07.211600",
      "2022-07-04T23:44:08.943846",
      "2022-07-04T23:44:10.573545",
      "2022-07-04T23:44:12.390948",
      "2022-07-04T23:44:14.135037",
      "2022-07-04T23:44:15.708175",
      "2022-07-04T23:44:17.255155",
      "2022-07-04T23:44:19.008314",
      "2022-07-04T23:44:20.566124",
      "2022-07-04T23:44:22.120778",
      "2022-07-04T23:44:23.727325",
      "2022-07-04T23:44:25.281993",
      "2022-07-04T23:44:26.876073",
      "2022-07-04T23:44:28.715110",
      "2022-07-04T23:44:30.262269",
      "2022-07-04T23:44:31.810506",
      "2022-07-04T23:44:33.390387",
      "2022-07-04T23:44:34.942735",
      "2022-07-04T23:44:36.493409",
      "2022-07-04T23:44:38.115076",
      "2022-07-04T23:44:39.676554",
      "2022-07-04T23:44:41.223390",
      "2022-07-04T23:44:42.994064",
      "2022-07-04T23:44:45.049279",
      "2022-07-04T23:44:47.100326",
      "2022-07-04T23:44:49.205461",
      "2022-07-04T23:44:51.278548",
      "2022-07-04T23:44:53.344150",
      "2022-07-04T23:44:55.421392",
      "2022-07-04T23:44:57.485474",
      "2022-07-04T23:44:59.567945",
      "2022-07-04T23:45:01.615002",
      "2022-07-04T23:45:03.639884",
      "2022-07-04T23:45:05.675352",
      "2022-07-04T23:45:07.692711",
      "2022-07-04T23:45:09.482104",
      "2022-07-04T23:45:11.030515",
      "2022-07-04T23:45:12.916653",
      "2022-07-04T23:45:14.567908",
      "2022-07-04T23:45:16.219135",
      "2022-07-04T23:45:18.059717",
      "2022-07-04T23:45:19.867197",
      "2022-07-04T23:45:21.846791",
      "2022-07-04T23:45:23.758194",
      "2022-07-04T23:45:25.590676",
      "2022-07-04T23:45:27.525775",
      "2022-07-04T23:45:29.392041",
      "2022-07-04T23:45:31.328806",
      "2022-07-04T23:45:33.214155",
      "2022-07-04T23:45:34.779489",
      "2022-07-04T23:45:36.327838",
      "2022-07-04T23:45:37.909464",
      "2022-07-04T23:45:39.463463",
      "2022-07-04T23:45:41.013542",
      "2022-07-04T23:45:42.560728",
      "2022-07-04T23:45:44.248825",
      "2022-07-04T23:45:45.800041",
      "2022-07-04T23:45:47.381193",
      "2022-07-04T23:45:49.004529",
      "2022-07-04T23:45:50.584588",
      "2022-07-04T23:45:52.126360",
      "2022-07-04T23:45:53.713588",
      "2022-07-04T23:45:55.291666",
      "2022-07-04T23:45:56.869566",
      "2022-07-04T23:45:58.678713",
      "2022-07-04T23:46:00.452235",
      "2022-07-04T23:46:02.011616",
      "2022-07-04T23:46:03.617679",
      "2022-07-04T23:46:05.217206",
      "2022-07-04T23:46:06.803472",
      "2022-07-04T23:46:08.425145",
      "2022-07-04T23:46:10.078178",
      "2022-07-04T23:46:11.690126",
      "2022-07-04T23:46:13.298121",
      "2022-07-04T23:46:14.939743",
      "2022-07-04T23:46:16.554341"
    ],
    "values": [
      9.866123737717773,
      9.25979625005375,
      8.96263618241838,
      8.874188716422072,
      8.827103463891182,
      8.815132491828756,
      8.802044206261877,
      8.799973769297953,
      8.782703340025883,
      8.780280096449438,
      8.764904097756638,
      8.762193806277304,
      8.772618833959005,
      8.760309223934524,
      8.754073212311521,
      8.757280647153358,
      8.751667550707218,
      8.748733609733005,
      8.740959632974349,
      8.742995700211294,
      8.74155332114218,
      8.73925625903912,
      8.739858278275232,
      8.735167107664942,
      8.73777185834843,
      8.728171214140785,
      8.728596413748042,
      8.730996802085683,
      8.728276070834825,
      8.738366161568731,
      8.720635792140826,
      8.725467777849582,
      8.73053981410391,
      8.725971007878316,
      8.727074526065298,
      8.720513360991683,
      8.725664572609753,
      8.718813520451425,
      8.71807991464025,
      8.719199942935859,
      8.723951838870434,
      8.718739624364632,
      8.718502660503997,
      8.717330454914025,
      8.722783783777558,
      8.72337346699056,
      8.71735684643432,
      8.723676170893455,
      8.71692603916337,
      8.712547932350065,
      8.716947377639348,
      8.719943737558081,
      8.718348503780389,
      8.713332929243174,
      8.717807024570051,
      8.724162653147038,
      8.711585161664443,
      8.714910475562183,
      8.717125818841602,
      8.708164064110996,
      8.71712547335577,
      8.712065952620266,
      8.708940632820548,
      8.716240103222555,
      8.70999405868475,
      8.715544441700604,
      8.709386579433152,
      8.714348827276494,
      8.711453698567675,
      8.711344499360266,
      8.71542332186433,
      8.70935375606267,
      8.71209869626669,
      8.71724278539186,
      8.708952294779861,
      8.709603288487477,
      8.705429785091496,
      8.70575248343772,
      8.710236131546429,
      8.702603654036695,
      8.703754333587323,
      8.706645562307704,
      8.709756890109272,
      8.70447959027697,
      8.706206703177674,
      8.703912019545415,
      8.70962570616102,
      8.707113666684164,
      8.710705238670311,
      8.703160986218244,
      8.707279568946435,
      8.709068509547246,
      8.706968833121467,
      8.709021687929337,
      8.709880465927093,
      8.705182529232665,
      8.702760721529724,
      8.702557407035037,
      8.706303007767081,
      8.699284293628505,
      8.713068562172644,
      8.70639838868675,
      8.707225533295325,
      8.70916457413053,
      8.713914439539085,
      8.706552812746708,
      8.706521932272313,
      8.703360422105913,
      8.708882246036731,
      8.70267267071428,
      8.701051775623498,
      8.711272953859384,
      8.702418164467712,
      8.700342392819644,
      8.707399081275975,
      8.702597254001844,
      8.701078779768146,
      8.705409309115737,
      8.71056847625691,
      8.705804983052921,
      8.714929970944775,
      8.681490108602278,
      8.67253734128509,
      8.67045339062909,
      8.672686964674323,
      8.669342217592906,
      8.669851423808822,
      8.669124635791492,
      8.671008772212113,
      8.668826596303308,
      8.668389373385816,
      8.66934703399487,
      8.669707420325278,
      8.670072907762155,
      8.669838535969435,
      8.66883628613995,
      8.668988045463731,
      8.6693306328149,
      8.668852460694119,
      8.669616269847667,
      8.669367066660541,
      8.670346827648913,
      8.669963499442911,
      8.668886361857824,
      8.6697274209195,
      8.668861405255257,
      8.669259061040595,
      8.670519908041243,
      8.669272728639376,
      8.67052909965339,
      8.668881315859885,
      8.669632453768092,
      8.667553882899487,
      8.665737325652367,
      8.665712451868341,
      8.665218398142459,
      8.665420719450568,
      8.664990459836552,
      8.66464365252405,
      8.664698153858435,
      8.66490440791573,
      8.66475898719998,
      8.664739457927443,
      8.664699332468617,
      8.664579557223844,
      8.664704897442034,
      8.664378983871153,
      8.664465720052453,
      8.664720341487032,
      8.664354121757066,
      8.664381525859206,
      8.66485476505726,
      8.66457708008117,
      8.66460333224361,
      8.664359606569537,
      8.66472174659555,
      8.66439992271154,
      8.664880740219818,
      8.664645626437288,
      8.664278980766598,
      8.664430417773794,
      8.66473084081882,
      8.66462893510706,
      8.664626792637856,
      8.664633286719953,
      8.664454201384036,
      8.664282594539621,
      8.664185174722364,
      8.66412416597386,
      8.66402503900733,
      8.663965621083664,
      8.663974429997785,
      8.6638884201202,
      8.66389852219006,
      8.664114264238506,
      8.664271075855167,
      8.664279936949516,
      8.664212672319039,
      8.664160663527623,
      8.664088389349649,
      8.664016370741077,
      8.663965775510668,
      8.6640318072305,
      8.664084401314739,
      8.664087940750422,
      8.664088470283705,
      8.66409646026974,
      8.664124131190228,
      8.664121824643535,
      8.66411189065532,
      8.664104066718359,
      8.66409694939777,
      8.664089603499487,
      8.66408461740907,
      8.664078106649844,
      8.664075363868383,
      8.664070002831808,
      8.66406791181838,
      8.664068668733089,
      8.66407296041915,
      8.664096586314345,
      8.664125164258063,
      8.664133364414477,
      8.664129696831738,
      8.66412553296361,
      8.664116957989727,
      8.664109126670164,
      8.664099511885308,
      8.66409006350274,
      8.664081153834829,
      8.664072244512989,
      8.664061843864063,
      8.664052636612052,
      8.664045576843444,
      8.664037756389526,
      8.664030812760275,
      8.664024622915031,
      8.664017010229834,
      8.664008574111882,
      8.663999432442466,
      8.66399151811885,
      8.66398450248837,
      8.663978202852832,
      8.663974128256521,
      8.663973526162318,
      8.663975582241779,
      8.663981320678596,
      8.663989869373884,
      8.663994161210915,
      8.663990584070328,
      8.663988003782162,
      8.663984073508635,
      8.66397916793563,
      8.663974575533434,
      8.66397145461933,
      8.663968233333513,
      8.66396505440498,
      8.663962436335606,
      8.663959839677288,
      8.663959232253617,
      8.663958039983436,
      8.663958409403012,
      8.66395965188242,
      8.663958219149157,
      8.663962648599302,
      8.664002240733266,
      8.66402031300503,
      8.66402073937108,
      8.664014662139044,
      8.664008593611477,
      8.664003836121195,
      8.663998880154546,
      8.663998722585768,
      8.663995364710804,
      8.663993133013985,
      8.663989574585306,
      8.663983214439414,
      8.663978302257807,
      8.663974704576482,
      8.663972947982783,
      8.663973736011325,
      8.663973745033775,
      8.66397194242879,
      8.663967784679173,
      8.663962221781565,
      8.663955461863166,
      8.663949513715458,
      8.663946981473286,
      8.663947450191776,
      8.663953243598495,
      8.663960481191305,
      8.663965445950735,
      8.663965647843606,
      8.663966668661418,
      8.663963862451789,
      8.663961858383946,
      8.663958498285874,
      8.663956506524261,
      8.663956325091227,
      8.663954917566338,
      8.66395412494658,
      8.663951407244518,
      8.663945702706627,
      8.66393932475993,
      8.663935603759592,
      8.663935171041398,
      8.663936100599438,
      8.663935682826322,
      8.66393320595579,
      8.66393194802823,
      8.663934679071073,
      8.66393823954054,
      8.663945595713827,
      8.663952903540814,
      8.663956990540354,
      8.663958038989128,
      8.663959607463088,
      8.663960824946479,
      8.66396082255124,
      8.663963293104226,
      8.663971266125909,
      8.663983766762765,
      8.663996824307189,
      8.664000507897452,
      8.664000444470846,
      8.663997053383925,
      8.66399045470851,
      8.663983127282268,
      8.663978140382806,
      8.663970278937718,
      8.663964311375068,
      8.66395828633416,
      8.663954648103172,
      8.663950579597667,
      8.663947112150852,
      8.663947120226759,
      8.66394662278873,
      8.663944608602206,
      8.663942296702599,
      8.663940787461629,
      8.663936812600598,
      8.663932209650275,
      8.663928538228262,
      8.663924345670624,
      8.663917539009933,
      8.663913164953298,
      8.663907253193283,
      8.66390258369951,
      8.663898925352276,
      8.66389283507859,
      8.66388963462457,
      8.663889174512112,
      8.663888522005951,
      8.663891685468803,
      8.663899655999597,
      8.663906937663972,
      8.663912983842291,
      8.663918534196108,
      8.663923013435529,
      8.66392770988781,
      8.663928152885536,
      8.66393079456074,
      8.663931789411826,
      8.663927496424721,
      8.663924371919068,
      8.663921853137568,
      8.663921301118734,
      8.663919834752617,
      8.663921522139603,
      8.66392365301729,
      8.663936032671232,
      8.663949033282897,
      8.663965201607947,
      8.663969434290276,
      8.663967529795874,
      8.663965757255745,
      8.663973754702166,
      8.663992927777313,
      8.664001762216348,
      8.663997124201977,
      8.66399131933007,
      8.663984149983857,
      8.663976705700001,
      8.66396960033874,
      8.663964336473773,
      8.663961901841242,
      8.663959191078243,
      8.663958874033323,
      8.663958083731401,
      8.66396047924224,
      8.663961053640026,
      8.663964707063805,
      8.663963747558286,
      8.663965958315936,
      8.663966667038634,
      8.663966870522096,
      8.663963753474578,
      8.66395899883719,
      8.66395303451241,
      8.663946225660311
    ]
  },
  "val": {
    "steps": [
      0,
      1,
      2,
      3,
      4,
      5,
      6,
      7,
      8,
      9,
      10,
      11,
      12,
      13,
      14,
      15,
      16,
      17,
      18,
      19,
      20,
      21,
      22,
      23,
      24,
      25,
      26,
      27,
      28,
      29,
      30,
      31,
      32,
      33,
      34,
      35,
      36,
      37,
      38,
      39,
      40,
      41,
      42,
      43,
      44,
      45,
      46,
      47,
      48,
      49,
      50,
      51,
      52,
      53,
      54,
      55,
      56,
      57,
      58,
      59,
      60,
      61,
      62,
      63,
      64,
      65,
      66,
      67,
      68,
      69,
      70,
      71,
      72,
      73,
      74,
      75,
      76,
      77,
      78,
      79,
      80,
      81,
      82,
      83,
      84,
      85,
      86,
      87,
      88,
      89,
      90,
      91,
      92,
      93,
      94,
      95,
      96,
      97,
      98,
      99,
      100,
      101,
      102,
      103,
      104,
      105,
      106,
      107,
      108,
      109,
      110,
      111,
      112,
      113,
      114,
      115,
      116,
      117,
      118,
      119,
      120,
      121,
      122,
      123,
      124,
      125,
      126,
      127,
      128,
      129,
      130,
      131,
      132,
      133,
      134,
      135,
      136,
      137,
      138,
      139,
      140,
      141,
      142,
      143,
      144,
      145,
      146,
      147,
      148,
      149,
      150,
      151,
      152,
      153,
      154,
      155,
      156,
      157,
      158,
      159,
      160,
      161,
      162,
      163,
      164,
      165,
      166,
      167,
      168,
      169,
      170,
      171,
      172,
      173,
      174,
      175,
      176,
      177,
      178,
      179,
      180,
      181,
      182,
      183,
      184,
      185,
      186,
      187,
      188,
      189,
      190,
      191,
      192,
      193,
      194,
      195,
      196,
      197,
      198,
      199,
      200,
      201,
      202,
      203,
      204,
      205,
      206,
      207,
      208,
      209,
      210,
      211,
      212,
      213,
      214,
      215,
      216,
      217,
      218,
      219,
      220,
      221,
      222,
      223,
      224,
      225,
      226,
      227,
      228,
      229,
      230,
      231,
      232,
      233,
      234,
      235,
      236,
      237,
      238,
      239,
      240,
      241,
      242,
      243,
      244,
      245,
      246,
      247,
      248,
      249,
      250,
      251,
      252,
      253,
      254,
      255,
      256,
      257,
      258,
      259,
      260,
      261,
      262,
      263,
      264,
      265,
      266,
      267,
      268,
      269,
      270,
      271,
      272,
      273,
      274,
      275,
      276,
      277,
      278,
      279,
      280,
      281,
      282,
      283,
      284,
      285,
      286,
      287,
      288,
      289,
      290,
      291,
      292,
      293,
      294,
      295,
      296,
      297,
      298,
      299,
      300,
      301,
      302,
      303,
      304,
      305,
      306,
      307,
      308,
      309,
      310,
      311,
      312,
      313,
      314,
      315,
      316,
      317,
      318,
      319,
      320,
      321,
      322,
      323,
      324,
      325,
      326,
      327,
      328,
      329,
      330,
      331,
      332,
      333,
      334,
      335,
      336,
      337,
      338,
      339,
      340,
      341,
      342,
      343,
      344,
      345,
      346,
      347,
      348,
      349,
      350,
      351,
      352,
      353,
      354,
      355,
      356,
      357,
      358,
      359,
      360,
      361,
      362,
      363,
      364,
      365,
      366,
      367,
      368,
      369,
      370,
      371,
      372,
      373,
      374,
      375,
      376,
      377,
      378,
      379,
      380,
      381,
      382,
      383,
      384,
      385,
      386,
      387,
      388,
      389,
      390,
      391,
      392,
      393,
      394,
      395,
      396,
      397,
      398,
      399
    ],
    "timestamps": [
      "2022-07-04T23:34:51.311842",
      "2022-07-04T23:34:54.088988",
      "2022-07-04T23:34:55.649741",
      "2022-07-04T23:34:57.340919",
      "2022-07-04T23:34:59.024192",
      "2022-07-04T23:35:00.729410",
      "2022-07-04T23:35:02.338365",
      "2022-07-04T23:35:03.927050",
      "2022-07-04T23:35:05.563464",
      "2022-07-04T23:35:07.158966",
      "2022-07-04T23:35:08.789391",
      "2022-07-04T23:35:10.390196",
      "2022-07-04T23:35:11.995936",
      "2022-07-04T23:35:13.644526",
      "2022-07-04T23:35:15.221006",
      "2022-07-04T23:35:16.768613",
      "2022-07-04T23:35:18.352610",
      "2022-07-04T23:35:19.939433",
      "2022-07-04T23:35:21.501315",
      "2022-07-04T23:35:23.099623",
      "2022-07-04T23:35:24.677310",
      "2022-07-04T23:35:26.260526",
      "2022-07-04T23:35:27.908787",
      "2022-07-04T23:35:29.539223",
      "2022-07-04T23:35:31.192880",
      "2022-07-04T23:35:32.743813",
      "2022-07-04T23:35:34.396953",
      "2022-07-04T23:35:35.999548",
      "2022-07-04T23:35:37.607444",
      "2022-07-04T23:35:39.208774",
      "2022-07-04T23:35:40.755762",
      "2022-07-04T23:35:42.301510",
      "2022-07-04T23:35:43.944799",
      "2022-07-04T23:35:45.528333",
      "2022-07-04T23:35:47.138249",
      "2022-07-04T23:35:48.982942",
      "2022-07-04T23:35:50.885857",
      "2022-07-04T23:35:52.497396",
      "2022-07-04T23:35:54.129517",
      "2022-07-04T23:35:55.734066",
      "2022-07-04T23:35:57.336843",
      "2022-07-04T23:35:58.997845",
      "2022-07-04T23:36:00.577377",
      "2022-07-04T23:36:02.123947",
      "2022-07-04T23:36:03.779942",
      "2022-07-04T23:36:05.329694",
      "2022-07-04T23:36:06.881744",
      "2022-07-04T23:36:08.491867",
      "2022-07-04T23:36:10.045581",
      "2022-07-04T23:36:11.624465",
      "2022-07-04T23:36:13.242726",
      "2022-07-04T23:36:14.794913",
      "2022-07-04T23:36:16.374306",
      "2022-07-04T23:36:17.959244",
      "2022-07-04T23:36:19.509667",
      "2022-07-04T23:36:21.182618",
      "2022-07-04T23:36:22.757720",
      "2022-07-04T23:36:24.381510",
      "2022-07-04T23:36:26.043897",
      "2022-07-04T23:36:27.662413",
      "2022-07-04T23:36:29.315379",
      "2022-07-04T23:36:30.915681",
      "2022-07-04T23:36:32.515229",
      "2022-07-04T23:36:34.182674",
      "2022-07-04T23:36:35.831209",
      "2022-07-04T23:36:37.444427",
      "2022-07-04T23:36:39.084883",
      "2022-07-04T23:36:40.687805",
      "2022-07-04T23:36:42.303294",
      "2022-07-04T23:36:43.968179",
      "2022-07-04T23:36:45.594545",
      "2022-07-04T23:36:47.217934",
      "2022-07-04T23:36:48.887907",
      "2022-07-04T23:36:50.517588",
      "2022-07-04T23:36:52.144464",
      "2022-07-04T23:36:53.849633",
      "2022-07-04T23:36:55.483694",
      "2022-07-04T23:36:57.115106",
      "2022-07-04T23:36:58.806561",
      "2022-07-04T23:37:00.372699",
      "2022-07-04T23:37:01.972347",
      "2022-07-04T23:37:03.523497",
      "2022-07-04T23:37:05.161809",
      "2022-07-04T23:37:06.716336",
      "2022-07-04T23:37:08.476465",
      "2022-07-04T23:37:10.535034",
      "2022-07-04T23:37:12.578571",
      "2022-07-04T23:37:14.612278",
      "2022-07-04T23:37:16.317557",
      "2022-07-04T23:37:18.300024",
      "2022-07-04T23:37:20.129344",
      "2022-07-04T23:37:21.969884",
      "2022-07-04T23:37:23.700358",
      "2022-07-04T23:37:25.262175",
      "2022-07-04T23:37:26.821076",
      "2022-07-04T23:37:28.613311",
      "2022-07-04T23:37:30.321442",
      "2022-07-04T23:37:32.206582",
      "2022-07-04T23:37:34.259237",
      "2022-07-04T23:37:36.276622",
      "2022-07-04T23:37:38.350956",
      "2022-07-04T23:37:40.036740",
      "2022-07-04T23:37:41.635002",
      "2022-07-04T23:37:43.258017",
      "2022-07-04T23:37:44.861505",
      "2022-07-04T23:37:46.464177",
      "2022-07-04T23:37:48.075591",
      "2022-07-04T23:37:49.830112",
      "2022-07-04T23:37:51.647363",
      "2022-07-04T23:37:53.519306",
      "2022-07-04T23:37:55.423075",
      "2022-07-04T23:37:57.285529",
      "2022-07-04T23:37:59.069739",
      "2022-07-04T23:38:00.922325",
      "2022-07-04T23:38:02.976778",
      "2022-07-04T23:38:05.060668",
      "2022-07-04T23:38:07.082026",
      "2022-07-04T23:38:08.786884",
      "2022-07-04T23:38:10.379889",
      "2022-07-04T23:38:12.065822",
      "2022-07-04T23:38:13.672895",
      "2022-07-04T23:38:15.264035",
      "2022-07-04T23:38:16.953703",
      "2022-07-04T23:38:18.560085",
      "2022-07-04T23:38:20.505982",
      "2022-07-04T23:38:22.353854",
      "2022-07-04T23:38:24.321170",
      "2022-07-04T23:38:26.165114",
      "2022-07-04T23:38:28.031164",
      "2022-07-04T23:38:29.620710",
      "2022-07-04T23:38:31.470352",
      "2022-07-04T23:38:33.503445",
      "2022-07-04T23:38:35.518358",
      "2022-07-04T23:38:37.540417",
      "2022-07-04T23:38:39.650926",
      "2022-07-04T23:38:41.696625",
      "2022-07-04T23:38:43.778323",
      "2022-07-04T23:38:45.828457",
      "2022-07-04T23:38:47.889910",
      "2022-07-04T23:38:49.958461",
      "2022-07-04T23:38:52.011184",
      "2022-07-04T23:38:54.085558",
      "2022-07-04T23:38:56.149856",
      "2022-07-04T23:38:57.719170",
      "2022-07-04T23:38:59.354019",
      "2022-07-04T23:39:00.903717",
      "2022-07-04T23:39:02.452687",
      "2022-07-04T23:39:04.035712",
      "2022-07-04T23:39:05.732180",
      "2022-07-04T23:39:07.330477",
      "2022-07-04T23:39:09.012442",
      "2022-07-04T23:39:10.836600",
      "2022-07-04T23:39:12.787601",
      "2022-07-04T23:39:14.387542",
      "2022-07-04T23:39:16.003061",
      "2022-07-04T23:39:18.000523",
      "2022-07-04T23:39:19.720475",
      "2022-07-04T23:39:21.440216",
      "2022-07-04T23:39:22.986579",
      "2022-07-04T23:39:24.605268",
      "2022-07-04T23:39:26.410040",
      "2022-07-04T23:39:28.261751",
      "2022-07-04T23:39:29.912298",
      "2022-07-04T23:39:31.636853",
      "2022-07-04T23:39:33.663416",
      "2022-07-04T23:39:35.653682",
      "2022-07-04T23:39:37.203854",
      "2022-07-04T23:39:38.787330",
      "2022-07-04T23:39:40.335959",
      "2022-07-04T23:39:41.998693",
      "2022-07-04T23:39:43.702212",
      "2022-07-04T23:39:45.726374",
      "2022-07-04T23:39:47.759141",
      "2022-07-04T23:39:49.711464",
      "2022-07-04T23:39:51.599919",
      "2022-07-04T23:39:53.643255",
      "2022-07-04T23:39:55.661993",
      "2022-07-04T23:39:57.690532",
      "2022-07-04T23:39:59.748341",
      "2022-07-04T23:40:02.001946",
      "2022-07-04T23:40:03.987801",
      "2022-07-04T23:40:05.534958",
      "2022-07-04T23:40:07.235776",
      "2022-07-04T23:40:08.938190",
      "2022-07-04T23:40:10.579009",
      "2022-07-04T23:40:12.194264",
      "2022-07-04T23:40:13.880296",
      "2022-07-04T23:40:15.473602",
      "2022-07-04T23:40:17.030299",
      "2022-07-04T23:40:18.610510",
      "2022-07-04T23:40:20.172205",
      "2022-07-04T23:40:21.725543",
      "2022-07-04T23:40:23.282170",
      "2022-07-04T23:40:24.909552",
      "2022-07-04T23:40:26.467002",
      "2022-07-04T23:40:28.024815",
      "2022-07-04T23:40:29.615329",
      "2022-07-04T23:40:31.175215",
      "2022-07-04T23:40:32.732565",
      "2022-07-04T23:40:34.465042",
      "2022-07-04T23:40:36.167313",
      "2022-07-04T23:40:37.758760",
      "2022-07-04T23:40:39.464144",
      "2022-07-04T23:40:41.032981",
      "2022-07-04T23:40:42.595720",
      "2022-07-04T23:40:44.175936",
      "2022-07-04T23:40:45.741788",
      "2022-07-04T23:40:47.319566",
      "2022-07-04T23:40:48.941224",
      "2022-07-04T23:40:50.508613",
      "2022-07-04T23:40:52.074386",
      "2022-07-04T23:40:53.695855",
      "2022-07-04T23:40:55.264255",
      "2022-07-04T23:40:56.834939",
      "2022-07-04T23:40:58.449197",
      "2022-07-04T23:41:00.017835",
      "2022-07-04T23:41:01.587591",
      "2022-07-04T23:41:03.212641",
      "2022-07-04T23:41:04.781133",
      "2022-07-04T23:41:06.336026",
      "2022-07-04T23:41:07.915995",
      "2022-07-04T23:41:09.602986",
      "2022-07-04T23:41:11.221829",
      "2022-07-04T23:41:12.841886",
      "2022-07-04T23:41:14.544178",
      "2022-07-04T23:41:16.149813",
      "2022-07-04T23:41:18.061066",
      "2022-07-04T23:41:19.765425",
      "2022-07-04T23:41:21.793287",
      "2022-07-04T23:41:23.710207",
      "2022-07-04T23:41:25.390586",
      "2022-07-04T23:41:26.989054",
      "2022-07-04T23:41:28.701222",
      "2022-07-04T23:41:30.283511",
      "2022-07-04T23:41:31.872836",
      "2022-07-04T23:41:33.434524",
      "2022-07-04T23:41:35.055226",
      "2022-07-04T23:41:36.660885",
      "2022-07-04T23:41:38.243694",
      "2022-07-04T23:41:39.823429",
      "2022-07-04T23:41:41.474825",
      "2022-07-04T23:41:43.064281",
      "2022-07-04T23:41:44.713099",
      "2022-07-04T23:41:46.272320",
      "2022-07-04T23:41:47.847634",
      "2022-07-04T23:41:49.469360",
      "2022-07-04T23:41:51.027244",
      "2022-07-04T23:41:52.586985",
      "2022-07-04T23:41:54.148918",
      "2022-07-04T23:41:55.706627",
      "2022-07-04T23:41:57.266773",
      "2022-07-04T23:41:58.861646",
      "2022-07-04T23:42:00.422176",
      "2022-07-04T23:42:01.982630",
      "2022-07-04T23:42:03.636227",
      "2022-07-04T23:42:05.556916",
      "2022-07-04T23:42:07.131518",
      "2022-07-04T23:42:08.896118",
      "2022-07-04T23:42:10.694205",
      "2022-07-04T23:42:12.365819",
      "2022-07-04T23:42:13.960420",
      "2022-07-04T23:42:15.508884",
      "2022-07-04T23:42:17.059420",
      "2022-07-04T23:42:18.856505",
      "2022-07-04T23:42:20.782893",
      "2022-07-04T23:42:22.524516",
      "2022-07-04T23:42:24.481762",
      "2022-07-04T23:42:26.388477",
      "2022-07-04T23:42:28.424998",
      "2022-07-04T23:42:30.454681",
      "2022-07-04T23:42:32.473442",
      "2022-07-04T23:42:34.558125",
      "2022-07-04T23:42:36.582841",
      "2022-07-04T23:42:38.538327",
      "2022-07-04T23:42:40.147919",
      "2022-07-04T23:42:41.691158",
      "2022-07-04T23:42:43.236541",
      "2022-07-04T23:42:44.843443",
      "2022-07-04T23:42:46.392228",
      "2022-07-04T23:42:47.978296",
      "2022-07-04T23:42:49.596898",
      "2022-07-04T23:42:51.214944",
      "2022-07-04T23:42:52.829595",
      "2022-07-04T23:42:54.579933",
      "2022-07-04T23:42:56.248815",
      "2022-07-04T23:42:57.877304",
      "2022-07-04T23:42:59.835532",
      "2022-07-04T23:43:01.898970",
      "2022-07-04T23:43:03.962799",
      "2022-07-04T23:43:05.999895",
      "2022-07-04T23:43:08.057506",
      "2022-07-04T23:43:10.091004",
      "2022-07-04T23:43:12.124731",
      "2022-07-04T23:43:14.084232",
      "2022-07-04T23:43:15.693639",
      "2022-07-04T23:43:17.307232",
      "2022-07-04T23:43:18.980925",
      "2022-07-04T23:43:20.585831",
      "2022-07-04T23:43:22.186454",
      "2022-07-04T23:43:23.931733",
      "2022-07-04T23:43:25.532193",
      "2022-07-04T23:43:27.137094",
      "2022-07-04T23:43:28.811070",
      "2022-07-04T23:43:30.437347",
      "2022-07-04T23:43:32.252707",
      "2022-07-04T23:43:34.089133",
      "2022-07-04T23:43:35.638261",
      "2022-07-04T23:43:37.186922",
      "2022-07-04T23:43:38.808786",
      "2022-07-04T23:43:40.402680",
      "2022-07-04T23:43:42.209778",
      "2022-07-04T23:43:44.196621",
      "2022-07-04T23:43:46.001537",
      "2022-07-04T23:43:47.993174",
      "2022-07-04T23:43:49.818020",
      "2022-07-04T23:43:51.422750",
      "2022-07-04T23:43:53.026964",
      "2022-07-04T23:43:54.699782",
      "2022-07-04T23:43:56.318827",
      "2022-07-04T23:43:58.178784",
      "2022-07-04T23:44:00.068312",
      "2022-07-04T23:44:02.037082",
      "2022-07-04T23:44:04.074156",
      "2022-07-04T23:44:05.858403",
      "2022-07-04T23:44:07.503725",
      "2022-07-04T23:44:09.175445",
      "2022-07-04T23:44:10.778877",
      "2022-07-04T23:44:12.596268",
      "2022-07-04T23:44:14.348028",
      "2022-07-04T23:44:15.916900",
      "2022-07-04T23:44:17.484061",
      "2022-07-04T23:44:19.218673",
      "2022-07-04T23:44:20.776002",
      "2022-07-04T23:44:22.333156",
      "2022-07-04T23:44:23.936565",
      "2022-07-04T23:44:25.490500",
      "2022-07-04T23:44:27.183723",
      "2022-07-04T23:44:28.923065",
      "2022-07-04T23:44:30.473776",
      "2022-07-04T23:44:32.018676",
      "2022-07-04T23:44:33.600192",
      "2022-07-04T23:44:35.151707",
      "2022-07-04T23:44:36.701945",
      "2022-07-04T23:44:38.331186",
      "2022-07-04T23:44:39.885130",
      "2022-07-04T23:44:41.432489",
      "2022-07-04T23:44:43.271159",
      "2022-07-04T23:44:45.320605",
      "2022-07-04T23:44:47.368262",
      "2022-07-04T23:44:49.473413",
      "2022-07-04T23:44:51.547867",
      "2022-07-04T23:44:53.621659",
      "2022-07-04T23:44:55.689874",
      "2022-07-04T23:44:57.753605",
      "2022-07-04T23:44:59.836860",
      "2022-07-04T23:45:01.884448",
      "2022-07-04T23:45:03.919061",
      "2022-07-04T23:45:05.941015",
      "2022-07-04T23:45:08.002946",
      "2022-07-04T23:45:09.694278",
      "2022-07-04T23:45:11.271513",
      "2022-07-04T23:45:13.130910",
      "2022-07-04T23:45:14.781333",
      "2022-07-04T23:45:16.527220",
      "2022-07-04T23:45:18.272615",
      "2022-07-04T23:45:20.135706",
      "2022-07-04T23:45:22.055412",
      "2022-07-04T23:45:24.036636",
      "2022-07-04T23:45:25.804054",
      "2022-07-04T23:45:27.821108",
      "2022-07-04T23:45:29.705718",
      "2022-07-04T23:45:31.537128",
      "2022-07-04T23:45:33.420880",
      "2022-07-04T23:45:34.988807",
      "2022-07-04T23:45:36.536503",
      "2022-07-04T23:45:38.120596",
      "2022-07-04T23:45:39.674783",
      "2022-07-04T23:45:41.222812",
      "2022-07-04T23:45:42.771493",
      "2022-07-04T23:45:44.457154",
      "2022-07-04T23:45:46.008671",
      "2022-07-04T23:45:47.592601",
      "2022-07-04T23:45:49.239428",
      "2022-07-04T23:45:50.792494",
      "2022-07-04T23:45:52.337792",
      "2022-07-04T23:45:53.921470",
      "2022-07-04T23:45:55.499058",
      "2022-07-04T23:45:57.087157",
      "2022-07-04T23:45:58.951004",
      "2022-07-04T23:46:00.665235",
      "2022-07-04T23:46:02.222371",
      "2022-07-04T23:46:03.851208",
      "2022-07-04T23:46:05.434117",
      "2022-07-04T23:46:07.014760",
      "2022-07-04T23:46:08.660888",
      "2022-07-04T23:46:10.289970",
      "2022-07-04T23:46:11.903590",
      "2022-07-04T23:46:13.512633",
      "2022-07-04T23:46:15.155405",
      "2022-07-04T23:46:16.769855"
    ],
    "values": [
      9.609558317965117,
      9.04518252426232,
      8.904425868745738,
      8.859249640253086,
      8.810357529914699,
      8.801836434871882,
      8.780032809309525,
      8.789268344991251,
      8.769336442595044,
      8.775953105720872,
      8.770181806335673,
      8.778544494864635,
      8.745946645418266,
      8.790011888068811,
      8.777347659062453,
      8.751349997211591,
      8.755368822335761,
      8.733743574381254,
      8.782914411495707,
      8.797622395003927,
      8.746548589500646,
      8.74938745336409,
      8.756524925196132,
      8.735130103745115,
      8.730828514780393,
      8.751323570172888,
      8.740259487274795,
      8.767885786869137,
      8.73278090292937,
      8.729560374329463,
      8.75418374836263,
      8.755393449873239,
      8.727535235971537,
      8.736143009692459,
      8.725030913860548,
      8.744543440858125,
      8.761874111403495,
      8.728202428804787,
      8.744641321844021,
      8.750009675110823,
      8.741913820896118,
      8.720555309080227,
      8.73577815729666,
      8.733511300591864,
      8.740196023782131,
      8.721481535645424,
      8.730768341050249,
      8.746905168736237,
      8.745853595232285,
      8.741510484302804,
      8.73614059760313,
      8.760237617671576,
      8.71742426574102,
      8.726528991362859,
      8.735328782602844,
      8.725908749898116,
      8.715820651672587,
      8.733411219542441,
      8.743760420115882,
      8.728515587789081,
      8.745096801226795,
      8.71559560962904,
      8.731186288090047,
      8.73836977639424,
      8.727531902269254,
      8.72308673032025,
      8.725575150263696,
      8.737273442373624,
      8.72393604264621,
      8.72360567334438,
      8.733875867949992,
      8.725716947266768,
      8.726275387998536,
      8.735357101736778,
      8.7394803642995,
      8.708093256689954,
      8.724871054375807,
      8.731341491580219,
      8.716276331414742,
      8.725682404717903,
      8.745256146552146,
      8.72336497190505,
      8.728937848692953,
      8.71400764187588,
      8.732968578391876,
      8.747575221115714,
      8.727951075367152,
      8.727286775367785,
      8.724433441217553,
      8.735478109200425,
      8.71661890160235,
      8.711878355461852,
      8.744984243190768,
      8.728960716249926,
      8.715239527311136,
      8.719636365863805,
      8.726322539394545,
      8.730230512903882,
      8.710921245130788,
      8.719829107258121,
      8.713587275539279,
      8.73714807091105,
      8.737171073961193,
      8.718315629952038,
      8.725239059929548,
      8.715289193318442,
      8.709576730821736,
      8.712977467791497,
      8.726131149037698,
      8.710763655646378,
      8.715143588948907,
      8.728822627017685,
      8.727595168559015,
      8.733667072304966,
      8.721974715164482,
      8.715219622606343,
      8.721059168900007,
      8.742038902371638,
      8.718198008438774,
      8.721947899945834,
      8.729254101489927,
      8.699951976582978,
      8.6929697473261,
      8.692401642092248,
      8.694272815311452,
      8.694512519275174,
      8.693388241289854,
      8.69197765649542,
      8.692844571541738,
      8.694218573091678,
      8.693004602643684,
      8.693323614332044,
      8.693449427014544,
      8.693413419158677,
      8.691035005330226,
      8.693388659713769,
      8.692377224102069,
      8.69280671271352,
      8.692909897608738,
      8.694356915874199,
      8.693158076662433,
      8.693714751065128,
      8.694212376587004,
      8.691316703191683,
      8.694603448689904,
      8.694691180964348,
      8.692643873974363,
      8.693285619569949,
      8.69228231698057,
      8.696638915035248,
      8.693448785610634,
      8.692167644931212,
      8.691973931059982,
      8.691329345967382,
      8.691087365598591,
      8.691303423512428,
      8.690968004151388,
      8.690686943907927,
      8.690903828959975,
      8.690868468103135,
      8.69090881773003,
      8.690738109964208,
      8.691007453480283,
      8.690940585109782,
      8.690734081903342,
      8.690636167382284,
      8.690532240947453,
      8.691172120270215,
      8.69070179051645,
      8.690101494132232,
      8.691006696680276,
      8.690924418640908,
      8.69067318767403,
      8.690596913768449,
      8.690608616601128,
      8.690651405722889,
      8.690628069765822,
      8.690592696042135,
      8.690529610574156,
      8.690752308238398,
      8.691318005913585,
      8.691273085199503,
      8.691187293377748,
      8.691323784048999,
      8.691173363725488,
      8.690993566111262,
      8.69087080698816,
      8.69080753487401,
      8.690708529556208,
      8.690587431616615,
      8.690629061332592,
      8.69059901832107,
      8.690528194957997,
      8.690674596452757,
      8.690888669627974,
      8.690923036916425,
      8.690859895233267,
      8.690809278724098,
      8.690787896920908,
      8.690747313252702,
      8.690706797667914,
      8.690751155106797,
      8.690809139108802,
      8.6908259021588,
      8.690827635759302,
      8.690833947531711,
      8.690858051318992,
      8.690869640597898,
      8.690863761133693,
      8.690856623803919,
      8.69085093680431,
      8.69084765626068,
      8.69084265535185,
      8.690838907553244,
      8.690836649396834,
      8.69083507196189,
      8.690842200119054,
      8.690843769557839,
      8.690846701706462,
      8.690860182426135,
      8.69087987683232,
      8.69089432841684,
      8.6908966457642,
      8.690888623885524,
      8.690882968417544,
      8.690874195714759,
      8.690867374311818,
      8.690860622874164,
      8.690850218969878,
      8.69084106968979,
      8.690835971926973,
      8.690824858986998,
      8.690815206900556,
      8.690807695450518,
      8.690802232493837,
      8.690792915695233,
      8.690785463971112,
      8.69077912732387,
      8.690773680191649,
      8.69076411280675,
      8.690753076281732,
      8.690745264464615,
      8.690739862860873,
      8.690735498710291,
      8.690735400420309,
      8.69074287926897,
      8.690749004443678,
      8.690754107618607,
      8.690755781836964,
      8.690753273487196,
      8.690749292134694,
      8.69074580468559,
      8.690742756608214,
      8.690738469204712,
      8.690738669157245,
      8.690735672858992,
      8.690735189338591,
      8.69073296731328,
      8.69073673192876,
      8.690733209756559,
      8.6907353413395,
      8.690735932424406,
      8.69073767304927,
      8.690741112943952,
      8.690758922149922,
      8.69079724596056,
      8.690807276491531,
      8.69080532767476,
      8.690801683123848,
      8.690797818975504,
      8.690798930180732,
      8.690799822370758,
      8.690802727977072,
      8.690802459436332,
      8.690801589691398,
      8.690795669970237,
      8.690795236070857,
      8.690789112044783,
      8.690788743569996,
      8.690785831469505,
      8.69078698246807,
      8.690784846860804,
      8.6907767411868,
      8.690769626591374,
      8.690761794108136,
      8.690753264132418,
      8.690750314987099,
      8.69074442316192,
      8.690745642957571,
      8.690747535838645,
      8.690746431223673,
      8.690750793702968,
      8.690749610533302,
      8.690747916158719,
      8.69074725321571,
      8.690746351788045,
      8.690741086394196,
      8.690744816195888,
      8.690749798948444,
      8.690747469995673,
      8.690745954701562,
      8.690745743361225,
      8.690735825350858,
      8.6907283605388,
      8.69072485442416,
      8.69072251729866,
      8.69071911421201,
      8.690718026331458,
      8.690713793135986,
      8.69071308476268,
      8.690716160952107,
      8.69072429269319,
      8.690730654806757,
      8.690735095590988,
      8.690740499505432,
      8.690745123160388,
      8.690747922478657,
      8.690750060862783,
      8.690755015057267,
      8.690759707948025,
      8.69076898649248,
      8.690776484517277,
      8.69078741495953,
      8.690789983907786,
      8.69078799272971,
      8.690786800785842,
      8.690779198333994,
      8.690776301536607,
      8.690770150901319,
      8.690768254130097,
      8.690764879399289,
      8.690761047970907,
      8.690761473488264,
      8.690758370534063,
      8.690757631756655,
      8.690757937800411,
      8.690757217457753,
      8.690759132244077,
      8.690758120960512,
      8.690754166938827,
      8.690752151409788,
      8.690751098461071,
      8.690744829717941,
      8.690742284053352,
      8.690738968492044,
      8.690734873887775,
      8.69072976278201,
      8.690727375788322,
      8.690725104914092,
      8.690720146281771,
      8.690719342963542,
      8.690719468437681,
      8.690721703480207,
      8.690725736023904,
      8.690732791111369,
      8.690736360941735,
      8.690747497913648,
      8.69074739975051,
      8.690745767828464,
      8.690746610468814,
      8.690745087731116,
      8.690743687491269,
      8.69073855112923,
      8.690737856569656,
      8.690731211549645,
      8.690730143735733,
      8.690726489597111,
      8.690728348669753,
      8.69072993460213,
      8.690732938210315,
      8.69074881393786,
      8.690770536515593,
      8.690781717552788,
      8.690782005652085,
      8.690780461133043,
      8.690777844157987,
      8.69078793055873,
      8.690793698377583,
      8.6907923500065,
      8.690783609569468,
      8.690776881448736,
      8.690773326303699,
      8.69076699148622,
      8.690758239412178,
      8.690754535499778,
      8.690750887752653,
      8.690746458569128,
      8.690746927647035,
      8.690745062498424,
      8.690741878992483,
      8.690743941984621,
      8.690745044627572,
      8.690743382012691,
      8.690742102987768,
      8.690742578289063,
      8.690745676014885,
      8.690742994556333,
      8.69073781577358,
      8.690734176053981,
      8.69072588420663
    ]
  }
}