{
  "train.elbo": {
    "steps": [
      0,
      1,
      2,
      3,
      4,
      5,
      6,
      7,
      8,
      9,
      10,
      11,
      12,
      13,
      14,
      15,
      16,
      17,
      18,
      19,
      20,
      21,
      22,
      23,
      24,
      25,
      26,
      27,
      28,
      29,
      30,
      31,
      32,
      33,
      34,
      35,
      36,
      37,
      38,
      39,
      40,
      41,
      42,
      43,
      44,
      45,
      46,
      47,
      48,
      49,
      50,
      51,
      52,
      53,
      54,
      55,
      56,
      57,
      58,
      59,
      60,
      61,
      62,
      63,
      64,
      65,
      66,
      67,
      68,
      69,
      70,
      71,
      72,
      73,
      74,
      75,
      76,
      77,
      78,
      79,
      80,
      81,
      82,
      83,
      84,
      85,
      86,
      87,
      88,
      89,
      90,
      91,
      92,
      93,
      94,
      95,
      96,
      97,
      98,
      99,
      100,
      101,
      102,
      103,
      104,
      105,
      106,
      107,
      108,
      109,
      110,
      111,
      112,
      113,
      114,
      115,
      116,
      117,
      118,
      119,
      120,
      121,
      122,
      123,
      124,
      125,
      126,
      127,
      128,
      129,
      130,
      131,
      132,
      133,
      134,
      135,
      136,
      137,
      138,
      139,
      140,
      141,
      142,
      143,
      144,
      145,
      146,
      147,
      148,
      149,
      150,
      151,
      152,
      153,
      154,
      155,
      156,
      157,
      158,
      159,
      160,
      161,
      162,
      163,
      164,
      165,
      166,
      167,
      168,
      169,
      170,
      171,
      172,
      173,
      174,
      175,
      176,
      177,
      178,
      179,
      180,
      181,
      182,
      183,
      184,
      185,
      186,
      187,
      188,
      189,
      190,
      191,
      192,
      193,
      194,
      195,
      196,
      197,
      198,
      199,
      200,
      201,
      202,
      203,
      204,
      205,
      206,
      207,
      208,
      209,
      210,
      211,
      212,
      213,
      214,
      215,
      216,
      217,
      218,
      219,
      220,
      221,
      222,
      223,
      224,
      225,
      226,
      227,
      228,
      229,
      230,
      231,
      232,
      233,
      234,
      235,
      236,
      237,
      238,
      239,
      240,
      241,
      242,
      243,
      244,
      245,
      246,
      247,
      248,
      249,
      250,
      251,
      252,
      253,
      254,
      255,
      256,
      257,
      258,
      259,
      260,
      261,
      262,
      263,
      264,
      265,
      266,
      267,
      268,
      269,
      270,
      271,
      272,
      273,
      274,
      275,
      276,
      277,
      278,
      279,
      280,
      281,
      282,
      283,
      284,
      285,
      286,
      287,
      288,
      289,
      290,
      291,
      292,
      293,
      294,
      295,
      296,
      297,
      298,
      299,
      300,
      301,
      302,
      303,
      304,
      305,
      306,
      307,
      308,
      309,
      310,
      311,
      312,
      313,
      314,
      315,
      316,
      317,
      318,
      319,
      320,
      321,
      322,
      323,
      324,
      325,
      326,
      327,
      328,
      329,
      330,
      331,
      332,
      333,
      334,
      335,
      336,
      337,
      338,
      339,
      340,
      341,
      342,
      343,
      344,
      345,
      346,
      347,
      348,
      349,
      350,
      351,
      352,
      353,
      354,
      355,
      356,
      357,
      358,
      359,
      360,
      361,
      362,
      363,
      364,
      365,
      366,
      367,
      368,
      369,
      370,
      371,
      372,
      373,
      374,
      375,
      376,
      377,
      378,
      379,
      380,
      381,
      382,
      383,
      384,
      385,
      386,
      387,
      388,
      389,
      390,
      391,
      392,
      393,
      394,
      395,
      396,
      397,
      398,
      399,
      400,
      401,
      402,
      403,
      404,
      405,
      406,
      407,
      408,
      409,
      410,
      411,
      412,
      413,
      414,
      415
    ],
    "timestamps": [
      "2022-11-10T07:23:43.775505",
      "2022-11-10T07:24:01.419493",
      "2022-11-10T07:24:18.838839",
      "2022-11-10T07:24:36.598677",
      "2022-11-10T07:24:54.441190",
      "2022-11-10T07:25:12.071021",
      "2022-11-10T07:25:29.677943",
      "2022-11-10T07:25:47.536536",
      "2022-11-10T07:26:04.996898",
      "2022-11-10T07:26:22.431346",
      "2022-11-10T07:26:39.793116",
      "2022-11-10T07:26:57.183046",
      "2022-11-10T07:27:14.603961",
      "2022-11-10T07:27:31.979332",
      "2022-11-10T07:27:49.328248",
      "2022-11-10T07:28:06.707595",
      "2022-11-10T07:28:24.135637",
      "2022-11-10T07:28:41.468491",
      "2022-11-10T07:28:58.770823",
      "2022-11-10T07:29:16.013943",
      "2022-11-10T07:29:33.306898",
      "2022-11-10T07:29:50.507787",
      "2022-11-10T07:30:07.677977",
      "2022-11-10T07:30:24.880648",
      "2022-11-10T07:30:42.129605",
      "2022-11-10T07:30:59.415784",
      "2022-11-10T07:31:16.922603",
      "2022-11-10T07:31:34.137483",
      "2022-11-10T07:31:51.407049",
      "2022-11-10T07:32:08.663894",
      "2022-11-10T07:32:25.837503",
      "2022-11-10T07:32:43.381551",
      "2022-11-10T07:33:00.632549",
      "2022-11-10T07:33:17.898290",
      "2022-11-10T07:33:35.161952",
      "2022-11-10T07:33:52.569065",
      "2022-11-10T07:34:10.220258",
      "2022-11-10T07:34:27.781114",
      "2022-11-10T07:34:45.120351",
      "2022-11-10T07:35:02.468663",
      "2022-11-10T07:35:22.807238",
      "2022-11-10T07:35:42.944580",
      "2022-11-10T07:36:00.132323",
      "2022-11-10T07:36:18.142111",
      "2022-11-10T07:36:35.855953",
      "2022-11-10T07:36:53.578547",
      "2022-11-10T07:37:10.653888",
      "2022-11-10T07:37:28.018798",
      "2022-11-10T07:37:45.875281",
      "2022-11-10T07:38:03.655198",
      "2022-11-10T07:38:20.665360",
      "2022-11-10T07:38:38.072378",
      "2022-11-10T07:38:55.789537",
      "2022-11-10T07:39:13.301970",
      "2022-11-10T07:39:30.361522",
      "2022-11-10T07:39:48.831833",
      "2022-11-10T07:40:06.263447",
      "2022-11-10T07:40:23.888966",
      "2022-11-10T07:40:41.344441",
      "2022-11-10T07:40:58.386933",
      "2022-11-10T07:41:15.460384",
      "2022-11-10T07:41:32.531520",
      "2022-11-10T07:41:49.422785",
      "2022-11-10T07:42:06.857785",
      "2022-11-10T07:42:25.182870",
      "2022-11-10T07:42:43.093784",
      "2022-11-10T07:43:00.804300",
      "2022-11-10T07:43:18.481572",
      "2022-11-10T07:43:35.970399",
      "2022-11-10T07:43:53.675302",
      "2022-11-10T07:44:11.425822",
      "2022-11-10T07:44:28.794494",
      "2022-11-10T07:44:46.478223",
      "2022-11-10T07:45:03.972238",
      "2022-11-10T07:45:22.945210",
      "2022-11-10T07:45:41.030513",
      "2022-11-10T07:45:58.781842",
      "2022-11-10T07:46:16.743494",
      "2022-11-10T07:46:34.655725",
      "2022-11-10T07:46:52.441101",
      "2022-11-10T07:47:10.099568",
      "2022-11-10T07:47:27.183001",
      "2022-11-10T07:47:44.210020",
      "2022-11-10T07:48:01.274443",
      "2022-11-10T07:48:18.973002",
      "2022-11-10T07:48:36.925397",
      "2022-11-10T07:48:54.416683",
      "2022-11-10T07:49:11.522188",
      "2022-11-10T07:49:28.950368",
      "2022-11-10T07:49:46.351367",
      "2022-11-10T07:50:04.834476",
      "2022-11-10T07:50:25.675156",
      "2022-11-10T07:50:44.000055",
      "2022-11-10T07:51:01.039092",
      "2022-11-10T07:51:18.021906",
      "2022-11-10T07:51:34.914353",
      "2022-11-10T07:51:51.874980",
      "2022-11-10T07:52:08.852744",
      "2022-11-10T07:52:25.720721",
      "2022-11-10T07:52:42.779875",
      "2022-11-10T07:52:59.898596",
      "2022-11-10T07:53:16.960940",
      "2022-11-10T07:53:34.060490",
      "2022-11-10T07:53:51.127063",
      "2022-11-10T07:54:08.180111",
      "2022-11-10T07:54:25.210912",
      "2022-11-10T07:54:42.256368",
      "2022-11-10T07:54:59.300683",
      "2022-11-10T07:55:16.349846",
      "2022-11-10T07:55:33.314024",
      "2022-11-10T07:55:50.336866",
      "2022-11-10T07:56:07.440017",
      "2022-11-10T07:56:24.917834",
      "2022-11-10T07:56:41.984494",
      "2022-11-10T07:56:58.886776",
      "2022-11-10T07:57:16.192505",
      "2022-11-10T07:57:34.249304",
      "2022-11-10T07:57:52.167732",
      "2022-11-10T07:58:09.160348",
      "2022-11-10T07:58:26.893154",
      "2022-11-10T07:58:44.488035",
      "2022-11-10T07:59:01.466157",
      "2022-11-10T07:59:18.426007",
      "2022-11-10T07:59:35.468120",
      "2022-11-10T07:59:52.548866",
      "2022-11-10T08:00:10.030021",
      "2022-11-10T08:00:27.316707",
      "2022-11-10T08:00:45.245819",
      "2022-11-10T08:01:03.340234",
      "2022-11-10T08:01:21.176498",
      "2022-11-10T08:01:38.833104",
      "2022-11-10T08:01:56.214370",
      "2022-11-10T08:02:13.879679",
      "2022-11-10T08:02:31.515406",
      "2022-11-10T08:02:48.913936",
      "2022-11-10T08:03:06.325702",
      "2022-11-10T08:03:24.071593",
      "2022-11-10T08:03:41.756104",
      "2022-11-10T08:03:58.833891",
      "2022-11-10T08:04:15.863047",
      "2022-11-10T08:04:32.923732",
      "2022-11-10T08:04:50.069294",
      "2022-11-10T08:05:07.509279",
      "2022-11-10T08:05:25.041904",
      "2022-11-10T08:05:42.561933",
      "2022-11-10T08:05:59.845112",
      "2022-11-10T08:06:17.062811",
      "2022-11-10T08:06:34.441042",
      "2022-11-10T08:06:52.258771",
      "2022-11-10T08:07:09.817967",
      "2022-11-10T08:07:26.804915",
      "2022-11-10T08:07:43.794483",
      "2022-11-10T08:08:00.772333",
      "2022-11-10T08:08:17.867717",
      "2022-11-10T08:08:34.973894",
      "2022-11-10T08:08:52.027608",
      "2022-11-10T08:09:09.569374",
      "2022-11-10T08:09:26.537081",
      "2022-11-10T08:09:44.446837",
      "2022-11-10T08:10:02.465285",
      "2022-11-10T08:10:20.301775",
      "2022-11-10T08:10:40.235913",
      "2022-11-10T08:10:57.696564",
      "2022-11-10T08:11:15.473457",
      "2022-11-10T08:11:33.999610",
      "2022-11-10T08:11:50.820287",
      "2022-11-10T08:12:07.163646",
      "2022-11-10T08:12:23.500616",
      "2022-11-10T08:12:39.862773",
      "2022-11-10T08:12:56.192735",
      "2022-11-10T08:13:12.496139",
      "2022-11-10T08:13:28.823871",
      "2022-11-10T08:13:45.159779",
      "2022-11-10T08:14:01.496711",
      "2022-11-10T08:14:17.845314",
      "2022-11-10T08:14:34.133707",
      "2022-11-10T08:14:50.498639",
      "2022-11-10T08:15:06.767086",
      "2022-11-10T08:15:23.091316",
      "2022-11-10T08:15:39.411600",
      "2022-11-10T08:15:55.722288",
      "2022-11-10T08:16:12.036102",
      "2022-11-10T08:16:28.375968",
      "2022-11-10T08:16:44.695547",
      "2022-11-10T08:17:01.006982",
      "2022-11-10T08:17:17.338184",
      "2022-11-10T08:17:33.631732",
      "2022-11-10T08:17:49.954040",
      "2022-11-10T08:18:06.261015",
      "2022-11-10T08:18:22.620422",
      "2022-11-10T08:18:38.944630",
      "2022-11-10T08:18:55.317173",
      "2022-11-10T08:19:11.635038",
      "2022-11-10T08:19:28.107396",
      "2022-11-10T08:19:44.424240",
      "2022-11-10T08:20:00.759632",
      "2022-11-10T08:20:17.103066",
      "2022-11-10T08:20:33.451557",
      "2022-11-10T08:20:49.776873",
      "2022-11-10T08:21:06.137767",
      "2022-11-10T08:21:22.432625",
      "2022-11-10T08:21:38.801998",
      "2022-11-10T08:21:55.124108",
      "2022-11-10T08:22:11.424817",
      "2022-11-10T08:22:27.730385",
      "2022-11-10T08:22:44.030895",
      "2022-11-10T08:23:00.337116",
      "2022-11-10T08:23:16.691626",
      "2022-11-10T08:23:33.034853",
      "2022-11-10T08:23:49.382152",
      "2022-11-10T08:24:05.720516",
      "2022-11-10T08:24:22.032400",
      "2022-11-10T08:24:38.356095",
      "2022-11-10T08:24:54.672990",
      "2022-11-10T08:25:11.026649",
      "2022-11-10T08:25:27.369290",
      "2022-11-10T08:25:43.737034",
      "2022-11-10T08:26:01.110358",
      "2022-11-10T08:26:18.881886",
      "2022-11-10T08:26:36.417558",
      "2022-11-10T08:26:54.232079",
      "2022-11-10T08:27:11.802231",
      "2022-11-10T08:27:29.591167",
      "2022-11-10T08:27:47.384620",
      "2022-11-10T08:28:05.334149",
      "2022-11-10T08:28:23.266888",
      "2022-11-10T08:28:40.498617",
      "2022-11-10T08:28:57.493178",
      "2022-11-10T08:29:14.498145",
      "2022-11-10T08:29:32.151879",
      "2022-11-10T08:29:50.131642",
      "2022-11-10T08:30:08.226747",
      "2022-11-10T08:30:25.441519",
      "2022-11-10T08:30:43.089178",
      "2022-11-10T08:31:01.717906",
      "2022-11-10T08:31:19.823896",
      "2022-11-10T08:31:36.878271",
      "2022-11-10T08:31:53.955553",
      "2022-11-10T08:32:11.070100",
      "2022-11-10T08:32:28.063832",
      "2022-11-10T08:32:45.814227",
      "2022-11-10T08:33:04.722816",
      "2022-11-10T08:33:23.334571",
      "2022-11-10T08:33:41.184447",
      "2022-11-10T08:33:58.257359",
      "2022-11-10T08:34:16.358051",
      "2022-11-10T08:34:33.481603",
      "2022-11-10T08:34:51.216950",
      "2022-11-10T08:35:08.638390",
      "2022-11-10T08:35:25.929902",
      "2022-11-10T08:35:43.652729",
      "2022-11-10T08:36:01.416634",
      "2022-11-10T08:36:18.831915",
      "2022-11-10T08:36:36.091715",
      "2022-11-10T08:36:53.214443",
      "2022-11-10T08:37:10.410989",
      "2022-11-10T08:37:27.961357",
      "2022-11-10T08:37:46.260562",
      "2022-11-10T08:38:04.528483",
      "2022-11-10T08:38:23.082528",
      "2022-11-10T08:38:40.250100",
      "2022-11-10T08:38:57.287832",
      "2022-11-10T08:39:14.421040",
      "2022-11-10T08:39:32.111770",
      "2022-11-10T08:39:49.290821",
      "2022-11-10T08:40:06.557752",
      "2022-11-10T08:40:24.683724",
      "2022-11-10T08:40:42.721241",
      "2022-11-10T08:40:59.940470",
      "2022-11-10T08:41:17.516713",
      "2022-11-10T08:41:34.731936",
      "2022-11-10T08:41:51.820504",
      "2022-11-10T08:42:08.820538",
      "2022-11-10T08:42:25.835214",
      "2022-11-10T08:42:42.767687",
      "2022-11-10T08:42:59.733134",
      "2022-11-10T08:43:16.697414",
      "2022-11-10T08:43:33.632861",
      "2022-11-10T08:43:50.601107",
      "2022-11-10T08:44:07.590012",
      "2022-11-10T08:44:24.549237",
      "2022-11-10T08:44:41.637895",
      "2022-11-10T08:44:58.682490",
      "2022-11-10T08:45:15.788443",
      "2022-11-10T08:45:32.905039",
      "2022-11-10T08:45:50.073257",
      "2022-11-10T08:46:07.091673",
      "2022-11-10T08:46:24.360848",
      "2022-11-10T08:46:41.822148",
      "2022-11-10T08:46:58.886835",
      "2022-11-10T08:47:15.901592",
      "2022-11-10T08:47:32.995400",
      "2022-11-10T08:47:50.099157",
      "2022-11-10T08:48:07.210051",
      "2022-11-10T08:48:24.237022",
      "2022-11-10T08:48:41.403298",
      "2022-11-10T08:48:58.423419",
      "2022-11-10T08:49:15.375310",
      "2022-11-10T08:49:32.387107",
      "2022-11-10T08:49:49.307210",
      "2022-11-10T08:50:06.227119",
      "2022-11-10T08:50:23.161264",
      "2022-11-10T08:50:40.152980",
      "2022-11-10T08:50:57.256464",
      "2022-11-10T08:51:14.196041",
      "2022-11-10T08:51:31.170067",
      "2022-11-10T08:51:48.273881",
      "2022-11-10T08:52:05.443013",
      "2022-11-10T08:52:22.576217",
      "2022-11-10T08:52:39.713888",
      "2022-11-10T08:52:56.820441",
      "2022-11-10T08:53:13.806606",
      "2022-11-10T08:53:30.788441",
      "2022-11-10T08:53:47.682461",
      "2022-11-10T08:54:04.704186",
      "2022-11-10T08:54:21.739189",
      "2022-11-10T08:54:38.885432",
      "2022-11-10T08:54:56.421591",
      "2022-11-10T08:55:13.864472",
      "2022-11-10T08:55:31.564552",
      "2022-11-10T08:55:49.441599",
      "2022-11-10T08:56:06.818622",
      "2022-11-10T08:56:24.656811",
      "2022-11-10T08:56:42.198454",
      "2022-11-10T08:56:59.444958",
      "2022-11-10T08:57:16.476363",
      "2022-11-10T08:57:33.477725",
      "2022-11-10T08:57:51.058464",
      "2022-11-10T08:58:08.490693",
      "2022-11-10T08:58:25.666567",
      "2022-11-10T08:58:43.673918",
      "2022-11-10T08:59:01.136858",
      "2022-11-10T08:59:18.181885",
      "2022-11-10T08:59:35.292025",
      "2022-11-10T08:59:52.316612",
      "2022-11-10T09:00:09.418979",
      "2022-11-10T09:00:27.439531",
      "2022-11-10T09:00:45.941827",
      "2022-11-10T09:01:04.001581",
      "2022-11-10T09:01:21.502578",
      "2022-11-10T09:01:39.298762",
      "2022-11-10T09:01:56.672583",
      "2022-11-10T09:02:13.977132",
      "2022-11-10T09:02:31.204439",
      "2022-11-10T09:02:48.306975",
      "2022-11-10T09:03:05.545337",
      "2022-11-10T09:03:22.745854",
      "2022-11-10T09:03:40.042390",
      "2022-11-10T09:03:57.124380",
      "2022-11-10T09:04:14.444143",
      "2022-11-10T09:04:31.729853",
      "2022-11-10T09:04:48.971225",
      "2022-11-10T09:05:06.323169",
      "2022-11-10T09:05:24.107102",
      "2022-11-10T09:05:41.611433",
      "2022-11-10T09:05:58.961397",
      "2022-11-10T09:06:16.159891",
      "2022-11-10T09:06:33.433507",
      "2022-11-10T09:06:50.568159",
      "2022-11-10T09:07:07.784378",
      "2022-11-10T09:07:25.018925",
      "2022-11-10T09:07:42.238509",
      "2022-11-10T09:07:59.372510",
      "2022-11-10T09:08:16.467373",
      "2022-11-10T09:08:33.818195",
      "2022-11-10T09:08:51.096956",
      "2022-11-10T09:09:08.338992",
      "2022-11-10T09:09:25.510597",
      "2022-11-10T09:09:43.134032",
      "2022-11-10T09:10:00.261796",
      "2022-11-10T09:10:17.327663",
      "2022-11-10T09:10:34.424152",
      "2022-11-10T09:10:51.880614",
      "2022-11-10T09:11:09.367244",
      "2022-11-10T09:11:27.239162",
      "2022-11-10T09:11:44.586627",
      "2022-11-10T09:12:01.696816",
      "2022-11-10T09:12:19.032955",
      "2022-11-10T09:12:36.338887",
      "2022-11-10T09:12:53.460468",
      "2022-11-10T09:13:10.706485",
      "2022-11-10T09:13:27.945342",
      "2022-11-10T09:13:45.216027",
      "2022-11-10T09:14:02.706648",
      "2022-11-10T09:14:20.246337",
      "2022-11-10T09:14:37.333111",
      "2022-11-10T09:14:54.449795",
      "2022-11-10T09:15:11.797561",
      "2022-11-10T09:15:29.239617",
      "2022-11-10T09:15:46.685609",
      "2022-11-10T09:16:03.910333",
      "2022-11-10T09:16:21.080192",
      "2022-11-10T09:16:38.322009",
      "2022-11-10T09:16:55.445541",
      "2022-11-10T09:17:12.461555",
      "2022-11-10T09:17:29.669711",
      "2022-11-10T09:17:46.697490",
      "2022-11-10T09:18:03.823939",
      "2022-11-10T09:18:21.097569",
      "2022-11-10T09:18:38.329183",
      "2022-11-10T09:18:55.447434",
      "2022-11-10T09:19:12.429983",
      "2022-11-10T09:19:29.376161",
      "2022-11-10T09:19:46.444686",
      "2022-11-10T09:20:03.529989",
      "2022-11-10T09:20:20.724414",
      "2022-11-10T09:20:37.876615",
      "2022-11-10T09:20:55.095952",
      "2022-11-10T09:21:12.535437",
      "2022-11-10T09:21:29.914900",
      "2022-11-10T09:21:47.507762",
      "2022-11-10T09:22:05.061387",
      "2022-11-10T09:22:23.592234",
      "2022-11-10T09:22:40.853072",
      "2022-11-10T09:22:57.951152",
      "2022-11-10T09:23:15.954063"
    ],
    "values": [
      216.09402014160156,
      142.13066897583008,
      111.48171420288087,
      97.66282911682129,
      91.97888772583008,
      89.00589163208008,
      87.26824200439454,
      86.09102758789062,
      85.14511618041992,
      84.30738255310058,
      83.61046485900879,
      83.18056320190429,
      82.53270907592774,
      82.11725837707519,
      81.72639735412598,
      81.39708055114747,
      81.03406941223145,
      80.71766854858399,
      80.44996456909179,
      80.1694089050293,
      79.89832141113281,
      79.67459796142577,
      79.50033834838867,
      79.16237963867188,
      79.09920436096192,
      78.8716527557373,
      78.71975849914551,
      78.48982409667968,
      78.34034954833984,
      78.2119575805664,
      78.02872244262696,
      77.86819088745118,
      77.75618479919433,
      77.63898937988282,
      77.51406211853028,
      77.40576301574707,
      77.28380944824218,
      77.18579792785644,
      77.0404256286621,
      76.91677514648437,
      76.8479811553955,
      76.71789958190918,
      76.6282134399414,
      76.54714445495605,
      76.43784432983398,
      76.43828747558594,
      76.28207286071778,
      76.19724354553223,
      76.10560481262208,
      76.07772039794922,
      75.91871655273438,
      75.89203366088867,
      75.7770827331543,
      75.71850473022461,
      75.6586446685791,
      75.6199859008789,
      75.48899473571777,
      75.45667590332032,
      75.39182830810547,
      75.32016618347168,
      75.29117100524903,
      75.17779840087891,
      75.12681826782226,
      75.10067893981933,
      74.9892113647461,
      74.96537240600586,
      74.92395672607422,
      74.81188578796387,
      74.79102894592285,
      74.75703059387207,
      74.69842492675781,
      74.61548222351074,
      74.56401417541504,
      74.59367640686035,
      74.4568591003418,
      74.45261973571778,
      74.42778692626953,
      74.36590226745605,
      74.32200192260743,
      74.22036415100098,
      74.21892788696289,
      74.22689929199218,
      74.1295927734375,
      74.05877799987793,
      74.10241697692871,
      74.00006774902344,
      73.93742665100098,
      73.92128257751465,
      73.8092661895752,
      73.88507713317871,
      73.82927095031738,
      73.78069441223144,
      73.77991148376465,
      73.70089064025879,
      73.68835452270508,
      73.60313473510742,
      73.61957160949707,
      73.58145361328125,
      73.53535145568847,
      73.45836141967773,
      73.46434281921387,
      73.42563966369629,
      73.3866118927002,
      73.34821965026856,
      73.35959201049805,
      73.33998571777343,
      73.25706541442871,
      73.2167465057373,
      73.26523950195312,
      73.17576992797852,
      73.14809942626952,
      73.08340408325195,
      73.08493782043458,
      73.05709123229981,
      73.00526791381836,
      73.02291107177734,
      73.00504008483887,
      72.95697251892089,
      72.9268139038086,
      72.90692456054687,
      72.88130847167969,
      72.84379258728028,
      72.83230857849121,
      72.82269131469727,
      72.76020660400391,
      72.74975210571289,
      72.7340577545166,
      72.71853964233398,
      72.67052088928223,
      72.6679168548584,
      72.61705435180664,
      72.58788497924805,
      72.57575692749023,
      72.60250286865234,
      72.45885258483887,
      72.48035961914063,
      72.48321852111816,
      72.4580675048828,
      72.43248330688476,
      72.40428968811035,
      72.3986637878418,
      72.36087037658692,
      72.34796647644043,
      72.3156388244629,
      72.32456794738769,
      72.29050093078614,
      72.3178394165039,
      72.24179580688477,
      72.23254249572754,
      72.22026551818848,
      72.18818502807618,
      72.14838536071777,
      72.17477424621582,
      72.09572894287109,
      72.15098175048828,
      72.11898086547852,
      72.06337982177735,
      72.09157255554199,
      72.03619171142579,
      72.04417924499512,
      71.97745530700684,
      71.96736581420899,
      71.94993713378906,
      71.92710671997071,
      71.96106045532227,
      71.8976432800293,
      71.91883905029297,
      71.89001086425782,
      71.8797060699463,
      71.81949603271484,
      71.83665701293945,
      71.84364712524415,
      71.7773524017334,
      71.78100704956054,
      71.759634765625,
      71.76877149963379,
      71.70673391723633,
      71.7294407196045,
      71.71600495910644,
      71.69345150756835,
      71.64622080993652,
      71.663836227417,
      71.62447236633301,
      71.59893309020995,
      71.61432504272462,
      71.61340452575683,
      71.58553324890137,
      71.55401846313477,
      71.55362353515625,
      71.51621844482422,
      71.51378433227539,
      71.51781954956054,
      71.4619270324707,
      71.469833984375,
      71.44354248046875,
      71.45156576538086,
      71.3852664489746,
      71.42159648132325,
      71.37585475158691,
      71.39549882507325,
      71.36493528747559,
      71.368021484375,
      71.36651454162597,
      71.32258129882813,
      71.30729876708985,
      71.28536126708984,
      71.29468151855468,
      71.28050860595702,
      71.29576959228515,
      71.25274737548828,
      71.21501895141601,
      71.21854777526856,
      71.22915100097656,
      71.21619512939454,
      71.24572187805175,
      71.17162573242187,
      71.14041073608398,
      71.13070112609863,
      71.1435724029541,
      71.17942337036133,
      71.11829640197755,
      71.11388955688477,
      71.08677783203125,
      71.06065084838868,
      71.0787042541504,
      71.08431004333497,
      71.03845697021484,
      71.03572998046874,
      71.03969081115723,
      70.98627258300782,
      71.02293074035644,
      70.97550015258788,
      70.97316525268555,
      70.94655665588378,
      70.95306481933594,
      70.9881767425537,
      70.89943460083008,
      70.90371701049804,
      70.87299375152588,
      70.9180087738037,
      70.86011311340332,
      70.89775695800782,
      70.86290007019043,
      70.87424118041992,
      70.86282119750976,
      70.80293008422852,
      70.80262837219239,
      70.79554977416993,
      70.8284351348877,
      70.78215608215332,
      70.77520475769043,
      70.76596119689941,
      70.79268533325195,
      70.75851904296874,
      70.75775352478027,
      70.71988055419922,
      70.67923069763184,
      70.7422460784912,
      70.71791368103027,
      70.71607220458985,
      70.68810803222657,
      70.66077235412598,
      70.6531544189453,
      70.66310713195801,
      70.6678745727539,
      70.62033183288574,
      70.63166764831543,
      70.58499827575683,
      70.60730378723144,
      70.61881846618653,
      70.60661824035644,
      70.60396459960937,
      70.6180362701416,
      70.58878239440918,
      70.52838890075684,
      70.57657754516602,
      70.54070930480957,
      70.51159202575684,
      70.49422283935547,
      70.53681465148925,
      70.48853735351562,
      70.4934595489502,
      70.48729790496826,
      70.46519488525391,
      70.50971394348144,
      70.4791501159668,
      70.49530577087403,
      70.42859867858887,
      70.4166124420166,
      69.43802111816406,
      69.1371951828003,
      69.02385346221924,
      68.93940924072265,
      68.89295726776123,
      68.86746564483643,
      68.84747077178955,
      68.81517401885986,
      68.79461476135253,
      68.75097135162353,
      68.73881396484374,
      68.7326681137085,
      68.71716835021972,
      68.70713844299317,
      68.70075957489014,
      68.67441298675537,
      68.64231106567382,
      68.62831623077392,
      68.64327797698975,
      68.63328796386719,
      68.62455038452148,
      68.60575469207764,
      68.59389266204833,
      68.58600090789795,
      68.6042523651123,
      68.59359528350831,
      68.54841049957275,
      68.54964305114746,
      68.55374559020996,
      68.55769464874268,
      68.55943065643311,
      68.54909408569335,
      68.54759246063233,
      68.53722436523438,
      68.52189721679687,
      68.50705694580078,
      68.5293469543457,
      68.4872526397705,
      68.51691900634765,
      68.48192658996582,
      68.48475036621093,
      68.48579064941406,
      68.46134175109863,
      68.49642048645019,
      68.45703308868408,
      68.4670651550293,
      68.46272798156738,
      68.51535370635986,
      68.44388486480713,
      68.47964505004883,
      68.48490200805664,
      68.4303395614624,
      68.43169928741455,
      68.45449173736573,
      68.46980366516114,
      68.41162564086915,
      68.42602935028076,
      68.45342403411865,
      68.40848676300048,
      68.42934163665771,
      68.41866716003418,
      68.42506665039062,
      68.41417725372314,
      68.40074494934082,
      68.40926561737061,
      68.28635645294189,
      68.28150626373291,
      68.26478504943847,
      68.25897235107422,
      68.26694924926758,
      68.26629154968262,
      68.25975559997559,
      68.2495626525879,
      68.25493838500977,
      68.24271776580811,
      68.24285720825195,
      68.23211644744873,
      68.23724710083007,
      68.21687884521485,
      68.21532569122314,
      68.2227766342163,
      68.2323954925537,
      68.2365908126831,
      68.21631533050537,
      68.23909132385253,
      68.24612841033935,
      68.2176495666504,
      68.2351792526245,
      68.22012081146241,
      68.22855059814454,
      68.20205340576172,
      68.21353002929688,
      68.19473159027099,
      68.21346443939208,
      68.20821939849853,
      68.20677268981933,
      68.2271548614502,
      68.19673541259766,
      68.20078126525878,
      68.210615234375,
      68.21128238677979,
      68.19678681182862,
      68.21758386993409,
      68.1916643295288,
      68.20927893829345,
      68.19100578308105,
      68.22224430847167,
      68.21750093078613,
      68.20707876586914,
      68.20581954956054,
      68.18157186889648,
      68.19605600738525,
      68.20386432647705,
      68.21652348327636,
      68.21985166931152,
      68.22005583953857,
      68.21058389282227,
      68.20807452392579,
      68.21107834625244,
      68.22094669342042,
      68.21012132263184,
      68.20822789001465,
      68.2152907409668,
      68.19512917327881,
      68.19776457214356,
      68.19117504119873,
      68.2063081588745
    ]
  },
  "val.elbo": {
    "steps": [
      0,
      1,
      2,
      3,
      4,
      5,
      6,
      7,
      8,
      9,
      10,
      11,
      12,
      13,
      14,
      15,
      16,
      17,
      18,
      19,
      20,
      21,
      22,
      23,
      24,
      25,
      26,
      27,
      28,
      29,
      30,
      31,
      32,
      33,
      34,
      35,
      36,
      37,
      38,
      39,
      40,
      41,
      42,
      43,
      44,
      45,
      46,
      47,
      48,
      49,
      50,
      51,
      52,
      53,
      54,
      55,
      56,
      57,
      58,
      59,
      60,
      61,
      62,
      63,
      64,
      65,
      66,
      67,
      68,
      69,
      70,
      71,
      72,
      73,
      74,
      75,
      76,
      77,
      78,
      79,
      80,
      81,
      82,
      83,
      84,
      85,
      86,
      87,
      88,
      89,
      90,
      91,
      92,
      93,
      94,
      95,
      96,
      97,
      98,
      99,
      100,
      101,
      102,
      103,
      104,
      105,
      106,
      107,
      108,
      109,
      110,
      111,
      112,
      113,
      114,
      115,
      116,
      117,
      118,
      119,
      120,
      121,
      122,
      123,
      124,
      125,
      126,
      127,
      128,
      129,
      130,
      131,
      132,
      133,
      134,
      135,
      136,
      137,
      138,
      139,
      140,
      141,
      142,
      143,
      144,
      145,
      146,
      147,
      148,
      149,
      150,
      151,
      152,
      153,
      154,
      155,
      156,
      157,
      158,
      159,
      160,
      161,
      162,
      163,
      164,
      165,
      166,
      167,
      168,
      169,
      170,
      171,
      172,
      173,
      174,
      175,
      176,
      177,
      178,
      179,
      180,
      181,
      182,
      183,
      184,
      185,
      186,
      187,
      188,
      189,
      190,
      191,
      192,
      193,
      194,
      195,
      196,
      197,
      198,
      199,
      200,
      201,
      202,
      203,
      204,
      205,
      206,
      207,
      208,
      209,
      210,
      211,
      212,
      213,
      214,
      215,
      216,
      217,
      218,
      219,
      220,
      221,
      222,
      223,
      224,
      225,
      226,
      227,
      228,
      229,
      230,
      231,
      232,
      233,
      234,
      235,
      236,
      237,
      238,
      239,
      240,
      241,
      242,
      243,
      244,
      245,
      246,
      247,
      248,
      249,
      250,
      251,
      252,
      253,
      254,
      255,
      256,
      257,
      258,
      259,
      260,
      261,
      262,
      263,
      264,
      265,
      266,
      267,
      268,
      269,
      270,
      271,
      272,
      273,
      274,
      275,
      276,
      277,
      278,
      279,
      280,
      281,
      282,
      283,
      284,
      285,
      286,
      287,
      288,
      289,
      290,
      291,
      292,
      293,
      294,
      295,
      296,
      297,
      298,
      299,
      300,
      301,
      302,
      303,
      304,
      305,
      306,
      307,
      308,
      309,
      310,
      311,
      312,
      313,
      314,
      315,
      316,
      317,
      318,
      319,
      320,
      321,
      322,
      323,
      324,
      325,
      326,
      327,
      328,
      329,
      330,
      331,
      332,
      333,
      334,
      335,
      336,
      337,
      338,
      339,
      340,
      341,
      342,
      343,
      344,
      345,
      346,
      347,
      348,
      349,
      350,
      351,
      352,
      353,
      354,
      355,
      356,
      357,
      358,
      359,
      360,
      361,
      362,
      363,
      364,
      365,
      366,
      367,
      368,
      369,
      370,
      371,
      372,
      373,
      374,
      375,
      376,
      377,
      378,
      379,
      380,
      381,
      382,
      383,
      384,
      385,
      386,
      387,
      388,
      389,
      390,
      391,
      392,
      393,
      394,
      395,
      396,
      397,
      398,
      399,
      400,
      401,
      402,
      403,
      404,
      405,
      406,
      407,
      408,
      409,
      410,
      411,
      412,
      413,
      414
    ],
    "timestamps": [
      "2022-11-10T07:23:45.793043",
      "2022-11-10T07:24:03.258093",
      "2022-11-10T07:24:20.741420",
      "2022-11-10T07:24:38.478624",
      "2022-11-10T07:24:56.313150",
      "2022-11-10T07:25:13.954696",
      "2022-11-10T07:25:31.668205",
      "2022-11-10T07:25:49.472537",
      "2022-11-10T07:26:06.851106",
      "2022-11-10T07:26:24.286501",
      "2022-11-10T07:26:41.651148",
      "2022-11-10T07:26:59.073697",
      "2022-11-10T07:27:16.474650",
      "2022-11-10T07:27:33.840335",
      "2022-11-10T07:27:51.218186",
      "2022-11-10T07:28:08.552931",
      "2022-11-10T07:28:25.984299",
      "2022-11-10T07:28:43.308045",
      "2022-11-10T07:29:00.606594",
      "2022-11-10T07:29:17.883335",
      "2022-11-10T07:29:35.145966",
      "2022-11-10T07:29:52.343179",
      "2022-11-10T07:30:09.509279",
      "2022-11-10T07:30:26.715870",
      "2022-11-10T07:30:43.961155",
      "2022-11-10T07:31:01.254959",
      "2022-11-10T07:31:18.759478",
      "2022-11-10T07:31:35.977939",
      "2022-11-10T07:31:53.262101",
      "2022-11-10T07:32:10.552608",
      "2022-11-10T07:32:27.673220",
      "2022-11-10T07:32:45.249743",
      "2022-11-10T07:33:02.463745",
      "2022-11-10T07:33:19.757933",
      "2022-11-10T07:33:37.014613",
      "2022-11-10T07:33:54.473957",
      "2022-11-10T07:34:12.135907",
      "2022-11-10T07:34:29.657898",
      "2022-11-10T07:34:46.998752",
      "2022-11-10T07:35:04.299816",
      "2022-11-10T07:35:24.767676",
      "2022-11-10T07:35:44.793055",
      "2022-11-10T07:36:02.289117",
      "2022-11-10T07:36:19.968990",
      "2022-11-10T07:36:37.825946",
      "2022-11-10T07:36:55.397121",
      "2022-11-10T07:37:12.707813",
      "2022-11-10T07:37:29.909105",
      "2022-11-10T07:37:47.809214",
      "2022-11-10T07:38:05.490643",
      "2022-11-10T07:38:22.499135",
      "2022-11-10T07:38:40.053711",
      "2022-11-10T07:38:57.618082",
      "2022-11-10T07:39:15.127087",
      "2022-11-10T07:39:32.182800",
      "2022-11-10T07:39:50.830730",
      "2022-11-10T07:40:08.089764",
      "2022-11-10T07:40:25.748416",
      "2022-11-10T07:40:43.168465",
      "2022-11-10T07:41:00.203545",
      "2022-11-10T07:41:17.284027",
      "2022-11-10T07:41:34.358491",
      "2022-11-10T07:41:51.241773",
      "2022-11-10T07:42:08.777929",
      "2022-11-10T07:42:27.102339",
      "2022-11-10T07:42:44.950196",
      "2022-11-10T07:43:02.799691",
      "2022-11-10T07:43:20.443928",
      "2022-11-10T07:43:37.913200",
      "2022-11-10T07:43:55.531529",
      "2022-11-10T07:44:13.274113",
      "2022-11-10T07:44:30.600418",
      "2022-11-10T07:44:48.378100",
      "2022-11-10T07:45:05.981411",
      "2022-11-10T07:45:24.833423",
      "2022-11-10T07:45:42.952654",
      "2022-11-10T07:46:00.603758",
      "2022-11-10T07:46:18.624235",
      "2022-11-10T07:46:36.496184",
      "2022-11-10T07:46:54.340246",
      "2022-11-10T07:47:11.936247",
      "2022-11-10T07:47:29.008273",
      "2022-11-10T07:47:46.032460",
      "2022-11-10T07:48:03.125630",
      "2022-11-10T07:48:20.918320",
      "2022-11-10T07:48:38.782087",
      "2022-11-10T07:48:56.232253",
      "2022-11-10T07:49:13.339746",
      "2022-11-10T07:49:30.796936",
      "2022-11-10T07:49:48.307380",
      "2022-11-10T07:50:06.763500",
      "2022-11-10T07:50:27.640799",
      "2022-11-10T07:50:45.889850",
      "2022-11-10T07:51:02.864008",
      "2022-11-10T07:51:19.827299",
      "2022-11-10T07:51:36.726359",
      "2022-11-10T07:51:53.698363",
      "2022-11-10T07:52:10.664170",
      "2022-11-10T07:52:27.559589",
      "2022-11-10T07:52:44.610636",
      "2022-11-10T07:53:01.719563",
      "2022-11-10T07:53:18.787652",
      "2022-11-10T07:53:35.902983",
      "2022-11-10T07:53:52.938041",
      "2022-11-10T07:54:09.996426",
      "2022-11-10T07:54:27.036404",
      "2022-11-10T07:54:44.084598",
      "2022-11-10T07:55:01.118837",
      "2022-11-10T07:55:18.172024",
      "2022-11-10T07:55:35.144107",
      "2022-11-10T07:55:52.173024",
      "2022-11-10T07:56:09.261706",
      "2022-11-10T07:56:26.746646",
      "2022-11-10T07:56:43.801702",
      "2022-11-10T07:57:00.697305",
      "2022-11-10T07:57:18.266976",
      "2022-11-10T07:57:36.156089",
      "2022-11-10T07:57:53.979951",
      "2022-11-10T07:58:11.001548",
      "2022-11-10T07:58:28.793893",
      "2022-11-10T07:58:46.313266",
      "2022-11-10T07:59:03.282543",
      "2022-11-10T07:59:20.263120",
      "2022-11-10T07:59:37.295805",
      "2022-11-10T07:59:54.374534",
      "2022-11-10T08:00:11.879318",
      "2022-11-10T08:00:29.172282",
      "2022-11-10T08:00:47.212408",
      "2022-11-10T08:01:05.239865",
      "2022-11-10T08:01:23.113835",
      "2022-11-10T08:01:40.689063",
      "2022-11-10T08:01:58.074771",
      "2022-11-10T08:02:15.790924",
      "2022-11-10T08:02:33.366553",
      "2022-11-10T08:02:50.769535",
      "2022-11-10T08:03:08.181103",
      "2022-11-10T08:03:25.991295",
      "2022-11-10T08:03:43.580964",
      "2022-11-10T08:04:00.680163",
      "2022-11-10T08:04:17.685656",
      "2022-11-10T08:04:34.746185",
      "2022-11-10T08:04:51.952363",
      "2022-11-10T08:05:09.426687",
      "2022-11-10T08:05:26.932986",
      "2022-11-10T08:05:44.406846",
      "2022-11-10T08:06:01.673900",
      "2022-11-10T08:06:18.937419",
      "2022-11-10T08:06:36.314596",
      "2022-11-10T08:06:54.079978",
      "2022-11-10T08:07:11.632596",
      "2022-11-10T08:07:28.616721",
      "2022-11-10T08:07:45.594961",
      "2022-11-10T08:08:02.593500",
      "2022-11-10T08:08:19.685974",
      "2022-11-10T08:08:36.795560",
      "2022-11-10T08:08:53.854472",
      "2022-11-10T08:09:11.473355",
      "2022-11-10T08:09:28.500514",
      "2022-11-10T08:09:46.351546",
      "2022-11-10T08:10:04.390655",
      "2022-11-10T08:10:22.249974",
      "2022-11-10T08:10:42.130729",
      "2022-11-10T08:10:59.541386",
      "2022-11-10T08:11:17.364040",
      "2022-11-10T08:11:35.736000",
      "2022-11-10T08:11:52.564419",
      "2022-11-10T08:12:08.909643",
      "2022-11-10T08:12:25.242717",
      "2022-11-10T08:12:41.606148",
      "2022-11-10T08:12:57.940144",
      "2022-11-10T08:13:14.233128",
      "2022-11-10T08:13:30.567294",
      "2022-11-10T08:13:46.910104",
      "2022-11-10T08:14:03.241552",
      "2022-11-10T08:14:19.585168",
      "2022-11-10T08:14:35.882955",
      "2022-11-10T08:14:52.240674",
      "2022-11-10T08:15:08.511674",
      "2022-11-10T08:15:24.841155",
      "2022-11-10T08:15:41.156060",
      "2022-11-10T08:15:57.468305",
      "2022-11-10T08:16:13.781829",
      "2022-11-10T08:16:30.125134",
      "2022-11-10T08:16:46.449922",
      "2022-11-10T08:17:02.751483",
      "2022-11-10T08:17:19.079737",
      "2022-11-10T08:17:35.373695",
      "2022-11-10T08:17:51.696326",
      "2022-11-10T08:18:08.000722",
      "2022-11-10T08:18:24.368552",
      "2022-11-10T08:18:40.691036",
      "2022-11-10T08:18:57.065495",
      "2022-11-10T08:19:13.381924",
      "2022-11-10T08:19:29.856889",
      "2022-11-10T08:19:46.168022",
      "2022-11-10T08:20:02.507497",
      "2022-11-10T08:20:18.855271",
      "2022-11-10T08:20:35.199404",
      "2022-11-10T08:20:51.519296",
      "2022-11-10T08:21:07.881482",
      "2022-11-10T08:21:24.187256",
      "2022-11-10T08:21:40.551975",
      "2022-11-10T08:21:56.874902",
      "2022-11-10T08:22:13.169240",
      "2022-11-10T08:22:29.470797",
      "2022-11-10T08:22:45.784402",
      "2022-11-10T08:23:02.078742",
      "2022-11-10T08:23:18.431600",
      "2022-11-10T08:23:34.791040",
      "2022-11-10T08:23:51.131389",
      "2022-11-10T08:24:07.465930",
      "2022-11-10T08:24:23.776553",
      "2022-11-10T08:24:40.095983",
      "2022-11-10T08:24:56.427208",
      "2022-11-10T08:25:12.773624",
      "2022-11-10T08:25:29.112973",
      "2022-11-10T08:25:45.493555",
      "2022-11-10T08:26:03.232644",
      "2022-11-10T08:26:20.894294",
      "2022-11-10T08:26:38.356286",
      "2022-11-10T08:26:56.090053",
      "2022-11-10T08:27:13.653693",
      "2022-11-10T08:27:31.511123",
      "2022-11-10T08:27:49.260387",
      "2022-11-10T08:28:07.293002",
      "2022-11-10T08:28:25.099888",
      "2022-11-10T08:28:42.312197",
      "2022-11-10T08:28:59.320923",
      "2022-11-10T08:29:16.312698",
      "2022-11-10T08:29:34.058692",
      "2022-11-10T08:29:52.047755",
      "2022-11-10T08:30:10.037388",
      "2022-11-10T08:30:27.271494",
      "2022-11-10T08:30:44.979958",
      "2022-11-10T08:31:03.705425",
      "2022-11-10T08:31:21.640985",
      "2022-11-10T08:31:38.696877",
      "2022-11-10T08:31:55.784933",
      "2022-11-10T08:32:12.911713",
      "2022-11-10T08:32:30.146587",
      "2022-11-10T08:32:47.759515",
      "2022-11-10T08:33:06.752858",
      "2022-11-10T08:33:25.266273",
      "2022-11-10T08:33:43.009476",
      "2022-11-10T08:34:00.422940",
      "2022-11-10T08:34:18.206345",
      "2022-11-10T08:34:35.422312",
      "2022-11-10T08:34:53.023899",
      "2022-11-10T08:35:10.467655",
      "2022-11-10T08:35:27.796129",
      "2022-11-10T08:35:45.861642",
      "2022-11-10T08:36:03.279839",
      "2022-11-10T08:36:20.668568",
      "2022-11-10T08:36:37.965904",
      "2022-11-10T08:36:55.035417",
      "2022-11-10T08:37:12.222511",
      "2022-11-10T08:37:29.965518",
      "2022-11-10T08:37:48.238550",
      "2022-11-10T08:38:06.538233",
      "2022-11-10T08:38:24.939823",
      "2022-11-10T08:38:42.070508",
      "2022-11-10T08:38:59.097392",
      "2022-11-10T08:39:16.422623",
      "2022-11-10T08:39:33.915993",
      "2022-11-10T08:39:51.157702",
      "2022-11-10T08:40:08.434971",
      "2022-11-10T08:40:26.614549",
      "2022-11-10T08:40:44.588973",
      "2022-11-10T08:41:01.823050",
      "2022-11-10T08:41:19.387930",
      "2022-11-10T08:41:36.588480",
      "2022-11-10T08:41:53.657505",
      "2022-11-10T08:42:10.640568",
      "2022-11-10T08:42:27.657006",
      "2022-11-10T08:42:44.590673",
      "2022-11-10T08:43:01.552631",
      "2022-11-10T08:43:18.519453",
      "2022-11-10T08:43:35.459655",
      "2022-11-10T08:43:52.430905",
      "2022-11-10T08:44:09.407221",
      "2022-11-10T08:44:26.384533",
      "2022-11-10T08:44:43.471257",
      "2022-11-10T08:45:00.520487",
      "2022-11-10T08:45:17.630790",
      "2022-11-10T08:45:34.736425",
      "2022-11-10T08:45:51.936351",
      "2022-11-10T08:46:08.923926",
      "2022-11-10T08:46:26.271428",
      "2022-11-10T08:46:43.645384",
      "2022-11-10T08:47:00.712062",
      "2022-11-10T08:47:17.736943",
      "2022-11-10T08:47:34.831883",
      "2022-11-10T08:47:51.928939",
      "2022-11-10T08:48:09.042332",
      "2022-11-10T08:48:26.073055",
      "2022-11-10T08:48:43.227477",
      "2022-11-10T08:49:00.240870",
      "2022-11-10T08:49:17.228787",
      "2022-11-10T08:49:34.206044",
      "2022-11-10T08:49:51.119616",
      "2022-11-10T08:50:08.049635",
      "2022-11-10T08:50:24.985820",
      "2022-11-10T08:50:41.995288",
      "2022-11-10T08:50:59.091734",
      "2022-11-10T08:51:16.008779",
      "2022-11-10T08:51:33.006482",
      "2022-11-10T08:51:50.109129",
      "2022-11-10T08:52:07.285349",
      "2022-11-10T08:52:24.405996",
      "2022-11-10T08:52:41.544298",
      "2022-11-10T08:52:58.629598",
      "2022-11-10T08:53:15.628417",
      "2022-11-10T08:53:32.584953",
      "2022-11-10T08:53:49.483504",
      "2022-11-10T08:54:06.526809",
      "2022-11-10T08:54:23.580027",
      "2022-11-10T08:54:40.693996",
      "2022-11-10T08:54:58.299044",
      "2022-11-10T08:55:15.778131",
      "2022-11-10T08:55:33.415519",
      "2022-11-10T08:55:51.379513",
      "2022-11-10T08:56:08.646242",
      "2022-11-10T08:56:26.509485",
      "2022-11-10T08:56:44.020325",
      "2022-11-10T08:57:01.301727",
      "2022-11-10T08:57:18.290156",
      "2022-11-10T08:57:35.444897",
      "2022-11-10T08:57:52.868298",
      "2022-11-10T08:58:10.311741",
      "2022-11-10T08:58:27.554933",
      "2022-11-10T08:58:45.580190",
      "2022-11-10T08:59:02.963961",
      "2022-11-10T08:59:20.004215",
      "2022-11-10T08:59:37.125889",
      "2022-11-10T08:59:54.134006",
      "2022-11-10T09:00:11.248975",
      "2022-11-10T09:00:29.408518",
      "2022-11-10T09:00:47.918751",
      "2022-11-10T09:01:05.826472",
      "2022-11-10T09:01:23.481764",
      "2022-11-10T09:01:41.155675",
      "2022-11-10T09:01:58.532411",
      "2022-11-10T09:02:15.813153",
      "2022-11-10T09:02:33.049308",
      "2022-11-10T09:02:50.146599",
      "2022-11-10T09:03:07.400129",
      "2022-11-10T09:03:24.615018",
      "2022-11-10T09:03:41.881215",
      "2022-11-10T09:03:58.939578",
      "2022-11-10T09:04:16.277160",
      "2022-11-10T09:04:33.557793",
      "2022-11-10T09:04:50.836599",
      "2022-11-10T09:05:08.214833",
      "2022-11-10T09:05:25.996472",
      "2022-11-10T09:05:43.464250",
      "2022-11-10T09:06:00.809823",
      "2022-11-10T09:06:18.051178",
      "2022-11-10T09:06:35.289461",
      "2022-11-10T09:06:52.394008",
      "2022-11-10T09:07:09.627135",
      "2022-11-10T09:07:26.853771",
      "2022-11-10T09:07:44.153538",
      "2022-11-10T09:08:01.196591",
      "2022-11-10T09:08:18.311718",
      "2022-11-10T09:08:35.661669",
      "2022-11-10T09:08:52.938199",
      "2022-11-10T09:09:10.190425",
      "2022-11-10T09:09:27.376704",
      "2022-11-10T09:09:44.965231",
      "2022-11-10T09:10:02.078242",
      "2022-11-10T09:10:19.169866",
      "2022-11-10T09:10:36.248300",
      "2022-11-10T09:10:53.767982",
      "2022-11-10T09:11:11.220094",
      "2022-11-10T09:11:29.197543",
      "2022-11-10T09:11:46.407182",
      "2022-11-10T09:12:03.594555",
      "2022-11-10T09:12:20.900589",
      "2022-11-10T09:12:38.185509",
      "2022-11-10T09:12:55.285090",
      "2022-11-10T09:13:12.569866",
      "2022-11-10T09:13:29.802255",
      "2022-11-10T09:13:47.119911",
      "2022-11-10T09:14:04.545237",
      "2022-11-10T09:14:22.072355",
      "2022-11-10T09:14:39.171867",
      "2022-11-10T09:14:56.289267",
      "2022-11-10T09:15:13.640654",
      "2022-11-10T09:15:31.094651",
      "2022-11-10T09:15:48.552760",
      "2022-11-10T09:16:05.760577",
      "2022-11-10T09:16:22.901983",
      "2022-11-10T09:16:40.152214",
      "2022-11-10T09:16:57.268529",
      "2022-11-10T09:17:14.301002",
      "2022-11-10T09:17:31.491522",
      "2022-11-10T09:17:48.504053",
      "2022-11-10T09:18:05.745168",
      "2022-11-10T09:18:22.986967",
      "2022-11-10T09:18:40.144721",
      "2022-11-10T09:18:57.282305",
      "2022-11-10T09:19:14.239668",
      "2022-11-10T09:19:31.188527",
      "2022-11-10T09:19:48.326448",
      "2022-11-10T09:20:05.351770",
      "2022-11-10T09:20:22.605117",
      "2022-11-10T09:20:39.685163",
      "2022-11-10T09:20:57.100668",
      "2022-11-10T09:21:14.388167",
      "2022-11-10T09:21:31.768011",
      "2022-11-10T09:21:49.439186",
      "2022-11-10T09:22:07.034103",
      "2022-11-10T09:22:25.544877",
      "2022-11-10T09:22:42.674437",
      "2022-11-10T09:22:59.802490"
    ],
    "values": [
      164.6981365966797,
      123.7759474182129,
      102.78009895324708,
      94.74471099853515,
      91.18263420104981,
      88.91968856811523,
      87.206021194458,
      86.56394287109374,
      85.4159853363037,
      84.48015434265136,
      83.94170951843262,
      83.5047632598877,
      83.26109504699707,
      82.81740692138672,
      82.38416961669923,
      82.21567863464355,
      81.86031669616699,
      81.30291015625,
      81.00082092285156,
      80.99851989746094,
      80.67759956359863,
      80.50154960632324,
      80.49484703063965,
      80.14663368225098,
      79.77238021850586,
      79.63637420654297,
      79.36216186523437,
      79.74089790344239,
      79.13973304748535,
      79.17698921203613,
      78.8372289276123,
      78.95013366699219,
      78.7155567932129,
      78.68721801757812,
      78.61390090942383,
      78.49018020629883,
      78.2568862915039,
      78.22746284484863,
      78.12606819152832,
      78.0391731262207,
      77.94759651184081,
      78.04868919372558,
      77.82456024169922,
      77.70396705627441,
      77.61025672912598,
      77.74246711730957,
      77.23827018737794,
      77.43953979492187,
      77.51067771911622,
      77.20017974853516,
      77.25365600585937,
      77.01886917114258,
      77.24037727355957,
      77.19866432189941,
      76.91206817626953,
      76.99803932189941,
      77.01641830444336,
      76.59471298217774,
      76.52019775390625,
      76.73170043945312,
      76.6697038269043,
      76.6876001739502,
      76.39078254699707,
      76.60688247680665,
      76.42782768249512,
      76.37665794372559,
      76.27216110229492,
      76.56609489440918,
      76.1808203125,
      76.4396401977539,
      76.16948623657227,
      76.09800354003906,
      76.19554641723633,
      75.95133163452148,
      76.16393966674805,
      75.87986953735351,
      75.76801834106445,
      75.81128890991211,
      75.75938415527344,
      75.73461532592773,
      75.54415725708007,
      75.80018249511718,
      75.56178535461426,
      75.62947059631348,
      75.61127510070801,
      75.46878555297852,
      75.93499305725098,
      75.50213302612305,
      75.41621223449707,
      75.4541886138916,
      75.38517601013183,
      75.38154632568359,
      75.16116371154786,
      75.2743595123291,
      75.10003227233886,
      75.09977493286132,
      75.22153282165527,
      75.17361022949218,
      75.12552963256836,
      75.0593098449707,
      74.97678863525391,
      74.85282051086426,
      75.2040340423584,
      75.00037338256836,
      74.98602462768555,
      75.04582275390625,
      74.89107215881347,
      75.0391220855713,
      75.08533058166503,
      74.90363220214844,
      74.76181137084961,
      74.81433044433594,
      74.83775413513183,
      74.69755035400391,
      74.48045372009277,
      74.70728004455566,
      74.86095848083497,
      74.67144821166993,
      74.6259228515625,
      74.71847724914551,
      74.48268203735351,
      74.78575378417969,
      74.53972938537598,
      74.40022537231445,
      74.56419105529785,
      74.35199325561524,
      74.50688079833985,
      74.52130760192871,
      74.41944053649902,
      74.40782608032227,
      74.2544905090332,
      74.38204406738281,
      74.23934577941894,
      74.42091773986816,
      74.29642807006836,
      74.3134676361084,
      74.21714500427247,
      74.37676094055176,
      74.17686981201172,
      74.44144760131836,
      74.22043495178222,
      74.5334300994873,
      74.21274261474609,
      73.96694244384766,
      74.1236109161377,
      74.18116828918457,
      74.10370574951172,
      74.25777076721191,
      74.04651321411133,
      74.20952354431152,
      74.060679397583,
      74.031861038208,
      73.91079063415528,
      74.10355026245117,
      74.072314453125,
      74.0180103302002,
      73.97842269897461,
      73.89081268310547,
      74.1499178314209,
      73.90339881896972,
      73.86554550170898,
      73.86156578063965,
      73.7937222290039,
      73.81647430419922,
      73.8247444152832,
      73.72516159057618,
      74.06806533813477,
      73.68611022949219,
      73.68055740356445,
      73.66012733459473,
      73.68961051940919,
      73.81697509765625,
      73.70504844665527,
      73.84199806213378,
      73.83874145507812,
      73.66960624694825,
      73.81076438903808,
      73.81768692016601,
      73.55816261291504,
      73.75204071044922,
      73.52791984558105,
      73.4362419128418,
      73.46374008178711,
      73.54583030700684,
      73.52664527893066,
      73.56423362731934,
      73.51254989624023,
      73.54584846496581,
      73.4999845123291,
      73.47301979064942,
      73.62811935424804,
      73.39130187988282,
      73.42338493347168,
      73.41985832214355,
      73.5862760925293,
      73.36357048034668,
      73.55512107849121,
      73.46397987365722,
      73.49015159606934,
      73.67900901794434,
      73.32011581420899,
      73.46055625915527,
      73.421142578125,
      73.25636421203613,
      73.52540046691894,
      73.34174758911132,
      73.34666938781739,
      73.39980606079102,
      73.21655883789063,
      73.32395317077636,
      73.49190673828124,
      73.3086019897461,
      73.25681106567383,
      73.38044067382812,
      73.08518478393555,
      73.18885116577148,
      73.46507804870606,
      73.21553886413574,
      73.51430915832519,
      73.50158683776856,
      73.15357521057129,
      73.08764190673828,
      73.06754959106445,
      73.20813179016113,
      73.44095832824706,
      73.0125838470459,
      73.15408500671387,
      73.21917297363281,
      72.97376586914062,
      73.12926979064942,
      73.13958930969238,
      73.14974349975586,
      73.05841949462891,
      73.08519187927246,
      73.05143577575683,
      72.93155990600586,
      73.04273208618164,
      73.18113136291504,
      73.03912254333495,
      73.02639770507812,
      73.06898979187012,
      72.93414047241211,
      73.00294166564942,
      73.18726852416992,
      72.97264144897461,
      72.89101943969726,
      72.9393938446045,
      73.26575653076172,
      72.94251472473144,
      73.03632995605469,
      73.0168032836914,
      73.15917587280273,
      73.22254707336425,
      72.97953430175781,
      72.96246444702149,
      72.79779296875,
      72.98597770690918,
      73.00633911132813,
      72.99671241760254,
      72.9590707397461,
      72.82202224731445,
      72.76954360961913,
      72.92235321044922,
      72.94147262573242,
      72.85325820922851,
      72.98342559814454,
      72.80627265930175,
      72.66727653503418,
      72.66688171386718,
      72.82949684143067,
      72.82295021057129,
      72.89371307373047,
      72.76986198425293,
      72.80030082702636,
      72.867339553833,
      72.91218223571778,
      72.73140487670898,
      72.75438491821289,
      72.91455070495606,
      72.84174514770508,
      72.8861563873291,
      72.77660301208496,
      72.80381240844727,
      72.79987663269043,
      72.77893997192383,
      72.84889289855957,
      72.66434829711915,
      72.73990875244141,
      72.69433433532714,
      71.7327156829834,
      71.57563819885254,
      71.62419929504395,
      71.45293205261231,
      71.3841934967041,
      71.41925956726074,
      71.42374450683593,
      71.36845642089844,
      71.331254196167,
      71.38537811279296,
      71.35548675537109,
      71.339375,
      71.34798133850097,
      71.33831573486329,
      71.31967506408691,
      71.31099494934082,
      71.33399757385254,
      71.35333946228027,
      71.23768348693848,
      71.34446907043457,
      71.22942962646485,
      71.27965995788574,
      71.35013977050781,
      71.33937561035157,
      71.31664459228516,
      71.32556228637695,
      71.3094758605957,
      71.2016641998291,
      71.27188697814941,
      71.24580589294433,
      71.24006179809571,
      71.21484535217286,
      71.20139930725098,
      71.30420906066894,
      71.17772903442383,
      71.21318580627441,
      71.20009094238281,
      71.20113662719727,
      71.18066802978515,
      71.30434875488281,
      71.28022003173828,
      71.26725936889649,
      71.18223068237305,
      71.16067070007324,
      71.30997291564941,
      71.29862930297851,
      71.2176000213623,
      71.320493850708,
      71.20445869445801,
      71.18029815673827,
      71.2265705871582,
      71.20007949829102,
      71.26056221008301,
      71.24675361633301,
      71.16768600463867,
      71.25146789550782,
      71.16496826171876,
      71.18061340332031,
      71.21550643920898,
      71.1625431060791,
      71.16301132202149,
      71.21273178100586,
      71.21314575195312,
      71.20064544677734,
      71.20607864379883,
      71.15663612365722,
      71.09964965820312,
      71.09042991638184,
      71.16389533996582,
      71.11662673950195,
      71.00040672302246,
      71.03249984741211,
      71.0756997680664,
      71.15506622314453,
      71.11909149169922,
      71.13465705871582,
      71.10726783752442,
      71.11573593139649,
      71.00092933654786,
      71.04822463989258,
      71.08197158813476,
      71.10286941528321,
      71.04119857788086,
      71.0799600982666,
      71.08057929992675,
      71.12033241271973,
      71.11227569580078,
      71.04738967895508,
      71.07114883422851,
      71.07316612243652,
      71.0422144317627,
      71.12915985107422,
      70.9943832397461,
      71.05985992431641,
      71.09675796508789,
      71.04942123413086,
      71.06844581604004,
      71.07473083496093,
      71.01515411376953,
      71.04412361145019,
      71.02830017089843,
      71.06182441711425,
      71.00335952758789,
      70.99920600891113,
      71.10673202514648,
      71.03049209594727,
      71.04814361572265,
      71.08930061340332,
      71.04513038635254,
      71.04369613647461,
      71.0623550415039,
      70.99361259460449,
      71.0239518737793,
      71.15103652954102,
      71.01850219726562,
      71.04470787048339,
      71.0598755645752,
      70.97834602355957,
      71.05255607604981,
      71.09807891845703,
      71.08749649047851,
      71.0584780883789,
      71.05270797729492,
      71.0426969909668,
      71.09315994262695,
      71.03741157531738
    ]
  }
}