INFO - siren_vae - Running command 'run'
INFO - siren_vae - Started run with ID "6"
[LOADING DATA] MEHRA
[ENCODED STRUCTURE] Updating BN structure to be fully-connected.
[MODEL TYPE] IW-SIReN-VAE (k=32)
  0%|          | 0/400 [00:00<?, ?it/s]Train -ELBO: 10.11362, Val -ELBO: 10.16928:   0%|          | 1/400 [00:03<21:53,  3.29s/it]Train -ELBO: 9.94562, Val -ELBO: 10.12828:   0%|          | 2/400 [00:05<19:02,  2.87s/it] Train -ELBO: 9.90547, Val -ELBO: 10.10234:   1%|          | 3/400 [00:08<18:02,  2.73s/it]Train -ELBO: 9.84779, Val -ELBO: 10.08062:   1%|          | 4/400 [00:11<17:51,  2.71s/it]Train -ELBO: 9.76740, Val -ELBO: 10.06625:   1%|▏         | 5/400 [00:13<17:06,  2.60s/it]Train -ELBO: 9.71610, Val -ELBO: 10.05478:   2%|▏         | 6/400 [00:15<16:45,  2.55s/it]Train -ELBO: 9.71465, Val -ELBO: 10.05076:   2%|▏         | 7/400 [00:18<16:49,  2.57s/it]Train -ELBO: 9.68212, Val -ELBO: 10.05717:   2%|▏         | 8/400 [00:21<16:46,  2.57s/it]Train -ELBO: 9.66053, Val -ELBO: 10.06755:   2%|▏         | 9/400 [00:23<16:42,  2.56s/it]Train -ELBO: 9.65378, Val -ELBO: 10.06884:   2%|▎         | 10/400 [00:26<16:55,  2.60s/it]Train -ELBO: 9.54816, Val -ELBO: 10.08591:   3%|▎         | 11/400 [00:29<17:13,  2.66s/it]Train -ELBO: 9.55453, Val -ELBO: 10.10371:   3%|▎         | 12/400 [00:31<17:04,  2.64s/it]Train -ELBO: 9.54773, Val -ELBO: 10.11531:   3%|▎         | 13/400 [00:34<16:51,  2.61s/it]Train -ELBO: 9.54750, Val -ELBO: 10.12004:   4%|▎         | 14/400 [00:36<16:29,  2.56s/it]Train -ELBO: 9.44908, Val -ELBO: 10.13354:   4%|▍         | 15/400 [00:39<16:34,  2.58s/it]Train -ELBO: 9.46367, Val -ELBO: 10.15185:   4%|▍         | 16/400 [00:42<16:43,  2.61s/it]Train -ELBO: 9.44053, Val -ELBO: 10.14947:   4%|▍         | 17/400 [00:44<16:37,  2.61s/it]Train -ELBO: 9.45661, Val -ELBO: 10.16083:   4%|▍         | 18/400 [00:47<16:23,  2.57s/it]Train -ELBO: 9.37581, Val -ELBO: 10.15685:   5%|▍         | 19/400 [00:49<16:25,  2.59s/it]Train -ELBO: 9.35600, Val -ELBO: 10.16957:   5%|▌         | 20/400 [00:52<16:26,  2.60s/it]Train -ELBO: 9.36178, Val -ELBO: 10.17141:   5%|▌         | 21/400 [00:54<16:21,  2.59s/it]Train -ELBO: 9.41913, Val -ELBO: 10.16737:   6%|▌         | 22/400 [00:57<16:22,  2.60s/it]Train -ELBO: 9.29030, Val -ELBO: 10.16102:   6%|▌         | 23/400 [01:00<16:16,  2.59s/it]Train -ELBO: 9.31076, Val -ELBO: 10.15578:   6%|▌         | 24/400 [01:02<16:05,  2.57s/it]Train -ELBO: 9.39805, Val -ELBO: 10.14342:   6%|▋         | 25/400 [01:05<16:06,  2.58s/it]Train -ELBO: 9.29481, Val -ELBO: 10.12918:   6%|▋         | 26/400 [01:07<16:11,  2.60s/it]Train -ELBO: 9.35998, Val -ELBO: 10.14039:   7%|▋         | 27/400 [01:10<15:56,  2.57s/it]Epoch    28: reducing learning rate of group 0 to 1.0000e-04.
Train -ELBO: 9.36373, Val -ELBO: 10.10730:   7%|▋         | 28/400 [01:13<16:02,  2.59s/it]Train -ELBO: 9.25230, Val -ELBO: 10.10149:   7%|▋         | 29/400 [01:15<15:54,  2.57s/it]Train -ELBO: 9.22510, Val -ELBO: 10.10305:   8%|▊         | 30/400 [01:18<15:42,  2.55s/it]Train -ELBO: 9.16591, Val -ELBO: 10.11293:   8%|▊         | 31/400 [01:20<15:21,  2.50s/it]Train -ELBO: 9.19459, Val -ELBO: 10.10246:   8%|▊         | 32/400 [01:23<15:24,  2.51s/it]Train -ELBO: 9.18696, Val -ELBO: 10.09744:   8%|▊         | 33/400 [01:25<15:28,  2.53s/it]Train -ELBO: 9.18948, Val -ELBO: 10.09233:   8%|▊         | 34/400 [01:28<15:30,  2.54s/it]Train -ELBO: 9.15832, Val -ELBO: 10.09037:   9%|▉         | 35/400 [01:30<15:19,  2.52s/it]Train -ELBO: 9.22205, Val -ELBO: 10.08487:   9%|▉         | 36/400 [01:33<15:32,  2.56s/it]Train -ELBO: 9.15589, Val -ELBO: 10.09573:   9%|▉         | 37/400 [01:35<15:34,  2.57s/it]Train -ELBO: 9.16432, Val -ELBO: 10.07510:  10%|▉         | 38/400 [01:38<15:21,  2.55s/it]Train -ELBO: 9.20267, Val -ELBO: 10.08259:  10%|▉         | 39/400 [01:40<15:17,  2.54s/it]Train -ELBO: 9.11403, Val -ELBO: 10.07864:  10%|█         | 40/400 [01:43<15:27,  2.58s/it]Train -ELBO: 9.18521, Val -ELBO: 10.08415:  10%|█         | 41/400 [01:46<15:19,  2.56s/it]Train -ELBO: 9.11591, Val -ELBO: 10.08207:  10%|█         | 42/400 [01:48<15:18,  2.56s/it]Train -ELBO: 9.12018, Val -ELBO: 10.08626:  11%|█         | 43/400 [01:51<15:15,  2.56s/it]Train -ELBO: 9.19229, Val -ELBO: 10.07811:  11%|█         | 44/400 [01:53<15:25,  2.60s/it]Epoch    45: reducing learning rate of group 0 to 1.0000e-05.
Train -ELBO: 9.19824, Val -ELBO: 10.07267:  11%|█▏        | 45/400 [01:56<15:24,  2.61s/it]Train -ELBO: 9.16343, Val -ELBO: 10.07692:  12%|█▏        | 46/400 [01:59<15:15,  2.59s/it]Train -ELBO: 9.18886, Val -ELBO: 10.08989:  12%|█▏        | 47/400 [02:01<15:19,  2.60s/it]Train -ELBO: 9.09956, Val -ELBO: 10.06848:  12%|█▏        | 48/400 [02:04<15:10,  2.59s/it]Train -ELBO: 9.24269, Val -ELBO: 10.07423:  12%|█▏        | 49/400 [02:06<15:02,  2.57s/it]Train -ELBO: 9.09892, Val -ELBO: 10.09000:  12%|█▎        | 50/400 [02:09<14:50,  2.54s/it]Train -ELBO: 9.27778, Val -ELBO: 10.07975:  13%|█▎        | 51/400 [02:11<14:46,  2.54s/it]Train -ELBO: 9.15545, Val -ELBO: 10.05649:  13%|█▎        | 52/400 [02:14<14:48,  2.55s/it]Epoch    53: reducing learning rate of group 0 to 1.0000e-06.
Train -ELBO: 9.18681, Val -ELBO: 10.08134:  13%|█▎        | 53/400 [02:16<14:42,  2.54s/it]Train -ELBO: 9.22345, Val -ELBO: 10.08482:  14%|█▎        | 54/400 [02:19<14:41,  2.55s/it]Train -ELBO: 9.16344, Val -ELBO: 10.07226:  14%|█▍        | 55/400 [02:22<14:41,  2.55s/it]Train -ELBO: 9.22024, Val -ELBO: 10.07925:  14%|█▍        | 56/400 [02:24<14:55,  2.60s/it]Train -ELBO: 9.18262, Val -ELBO: 10.08468:  14%|█▍        | 57/400 [02:27<14:41,  2.57s/it]Train -ELBO: 9.15371, Val -ELBO: 10.08938:  14%|█▍        | 58/400 [02:29<14:40,  2.57s/it]Train -ELBO: 9.15222, Val -ELBO: 10.08310:  15%|█▍        | 59/400 [02:32<14:40,  2.58s/it]Train -ELBO: 9.23322, Val -ELBO: 10.08299:  15%|█▌        | 60/400 [02:35<14:40,  2.59s/it]Train -ELBO: 9.23260, Val -ELBO: 10.07857:  15%|█▌        | 61/400 [02:37<14:28,  2.56s/it]Train -ELBO: 9.13849, Val -ELBO: 10.07014:  16%|█▌        | 62/400 [02:40<14:22,  2.55s/it]Train -ELBO: 9.26476, Val -ELBO: 10.07920:  16%|█▌        | 63/400 [02:42<14:19,  2.55s/it]Train -ELBO: 9.09921, Val -ELBO: 10.09112:  16%|█▌        | 64/400 [02:45<14:27,  2.58s/it]Train -ELBO: 9.21020, Val -ELBO: 10.07556:  16%|█▋        | 65/400 [02:47<14:36,  2.62s/it]Train -ELBO: 9.11743, Val -ELBO: 10.07330:  16%|█▋        | 66/400 [02:50<14:43,  2.64s/it]Train -ELBO: 9.17135, Val -ELBO: 10.07817:  17%|█▋        | 67/400 [02:53<14:35,  2.63s/it]Train -ELBO: 9.16592, Val -ELBO: 10.07501:  17%|█▋        | 68/400 [02:55<14:33,  2.63s/it]Train -ELBO: 9.14574, Val -ELBO: 10.08141:  17%|█▋        | 69/400 [02:58<14:22,  2.61s/it]Train -ELBO: 9.13650, Val -ELBO: 10.09299:  18%|█▊        | 70/400 [03:01<14:23,  2.62s/it]Train -ELBO: 9.08424, Val -ELBO: 10.07432:  18%|█▊        | 71/400 [03:03<14:16,  2.60s/it]Train -ELBO: 9.14808, Val -ELBO: 10.08614:  18%|█▊        | 72/400 [03:06<14:13,  2.60s/it]Train -ELBO: 9.13334, Val -ELBO: 10.07125:  18%|█▊        | 73/400 [03:08<13:59,  2.57s/it]Train -ELBO: 9.11604, Val -ELBO: 10.08442:  18%|█▊        | 74/400 [03:11<13:57,  2.57s/it]Train -ELBO: 9.17514, Val -ELBO: 10.06196:  19%|█▉        | 75/400 [03:13<13:40,  2.53s/it]Train -ELBO: 9.17661, Val -ELBO: 10.07204:  19%|█▉        | 76/400 [03:16<13:38,  2.53s/it]Train -ELBO: 9.16703, Val -ELBO: 10.07820:  19%|█▉        | 77/400 [03:18<13:35,  2.53s/it]Train -ELBO: 9.23387, Val -ELBO: 10.07337:  20%|█▉        | 78/400 [03:21<13:25,  2.50s/it]Train -ELBO: 9.26760, Val -ELBO: 10.06588:  20%|█▉        | 79/400 [03:23<13:33,  2.53s/it]Train -ELBO: 9.14503, Val -ELBO: 10.06799:  20%|██        | 80/400 [03:26<13:26,  2.52s/it]Train -ELBO: 9.14157, Val -ELBO: 10.08957:  20%|██        | 81/400 [03:28<13:30,  2.54s/it]Train -ELBO: 9.18619, Val -ELBO: 10.08037:  20%|██        | 82/400 [03:31<13:29,  2.55s/it]Train -ELBO: 9.20675, Val -ELBO: 10.07115:  21%|██        | 83/400 [03:33<13:24,  2.54s/it]Train -ELBO: 9.18056, Val -ELBO: 10.07693:  21%|██        | 84/400 [03:36<13:30,  2.57s/it]Train -ELBO: 9.18149, Val -ELBO: 10.07152:  21%|██▏       | 85/400 [03:39<13:28,  2.57s/it]Train -ELBO: 9.19550, Val -ELBO: 10.06917:  22%|██▏       | 86/400 [03:41<13:25,  2.57s/it]Train -ELBO: 9.25331, Val -ELBO: 10.08323:  22%|██▏       | 87/400 [03:44<13:24,  2.57s/it]Train -ELBO: 9.04476, Val -ELBO: 10.07239:  22%|██▏       | 88/400 [03:46<13:24,  2.58s/it]Train -ELBO: 9.19441, Val -ELBO: 10.06877:  22%|██▏       | 89/400 [03:49<13:29,  2.60s/it]Train -ELBO: 9.21554, Val -ELBO: 10.07571:  22%|██▎       | 90/400 [03:52<13:14,  2.56s/it]Train -ELBO: 9.15229, Val -ELBO: 10.07123:  23%|██▎       | 91/400 [03:54<13:16,  2.58s/it]Train -ELBO: 9.08931, Val -ELBO: 10.07380:  23%|██▎       | 92/400 [03:57<13:21,  2.60s/it]Train -ELBO: 9.26568, Val -ELBO: 10.07074:  23%|██▎       | 93/400 [03:59<13:20,  2.61s/it]Train -ELBO: 9.11738, Val -ELBO: 10.08090:  24%|██▎       | 94/400 [04:02<13:11,  2.59s/it]Train -ELBO: 9.09441, Val -ELBO: 10.08913:  24%|██▍       | 95/400 [04:04<13:00,  2.56s/it]Train -ELBO: 9.15050, Val -ELBO: 10.08088:  24%|██▍       | 96/400 [04:07<12:59,  2.56s/it]Train -ELBO: 9.11012, Val -ELBO: 10.06801:  24%|██▍       | 97/400 [04:10<12:51,  2.55s/it]Train -ELBO: 9.14071, Val -ELBO: 10.07407:  24%|██▍       | 98/400 [04:12<12:39,  2.51s/it]Train -ELBO: 9.18320, Val -ELBO: 10.08121:  25%|██▍       | 99/400 [04:14<12:25,  2.48s/it]Train -ELBO: 9.16454, Val -ELBO: 10.08389:  25%|██▌       | 100/400 [04:17<12:22,  2.47s/it]Train -ELBO: 9.23192, Val -ELBO: 10.07764:  25%|██▌       | 101/400 [04:19<12:13,  2.45s/it]Train -ELBO: 9.21061, Val -ELBO: 10.07125:  26%|██▌       | 102/400 [04:22<12:10,  2.45s/it]Train -ELBO: 9.12373, Val -ELBO: 10.07224:  26%|██▌       | 103/400 [04:24<12:03,  2.44s/it]Train -ELBO: 9.13348, Val -ELBO: 10.07585:  26%|██▌       | 104/400 [04:27<12:07,  2.46s/it]Train -ELBO: 9.12856, Val -ELBO: 10.07252:  26%|██▋       | 105/400 [04:29<11:57,  2.43s/it]Train -ELBO: 9.09908, Val -ELBO: 10.07240:  26%|██▋       | 106/400 [04:31<12:01,  2.45s/it]Train -ELBO: 9.21662, Val -ELBO: 10.07530:  27%|██▋       | 107/400 [04:34<11:53,  2.43s/it]Train -ELBO: 9.18624, Val -ELBO: 10.08308:  27%|██▋       | 108/400 [04:36<11:58,  2.46s/it]