INFO - siren_vae - Running command 'run'
INFO - siren_vae - Started run with ID "8"
[ENCODED STRUCTURE] Updating BN structure to be fully-connected.
  0%|          | 0/600 [00:00<?, ?it/s]Train -ELBO: 2044.60732, Val -ELBO: 1386.05349:   0%|          | 1/600 [00:01<10:51,  1.09s/it]Train -ELBO: 850.97897, Val -ELBO: 621.54297:   0%|          | 3/600 [00:02<07:20,  1.35it/s]  Train -ELBO: 445.17117, Val -ELBO: 425.80953:   1%|          | 5/600 [00:03<06:42,  1.48it/s]Train -ELBO: 350.19039, Val -ELBO: 334.66747:   1%|          | 7/600 [00:04<06:26,  1.54it/s]Train -ELBO: 256.85425, Val -ELBO: 248.89509:   2%|▏         | 9/600 [00:06<06:18,  1.56it/s]Train -ELBO: 243.62179, Val -ELBO: 234.42063:   2%|▏         | 11/600 [00:07<06:17,  1.56it/s]Train -ELBO: 218.31117, Val -ELBO: 216.35776:   2%|▏         | 13/600 [00:08<06:12,  1.58it/s]Train -ELBO: 213.87910, Val -ELBO: 212.10843:   2%|▎         | 15/600 [00:09<06:09,  1.59it/s]Train -ELBO: 203.05842, Val -ELBO: 200.90746:   3%|▎         | 17/600 [00:11<06:05,  1.60it/s]Train -ELBO: 200.51403, Val -ELBO: 198.15332:   3%|▎         | 19/600 [00:12<06:01,  1.61it/s]Train -ELBO: 192.90037, Val -ELBO: 191.03405:   4%|▎         | 21/600 [00:13<06:02,  1.60it/s]Train -ELBO: 188.08953, Val -ELBO: 186.55627:   4%|▍         | 23/600 [00:14<06:01,  1.60it/s]Train -ELBO: 180.69701, Val -ELBO: 179.02877:   4%|▍         | 25/600 [00:16<05:58,  1.60it/s]Train -ELBO: 175.18682, Val -ELBO: 172.03881:   4%|▍         | 27/600 [00:17<05:56,  1.61it/s]Train -ELBO: 166.68449, Val -ELBO: 163.73839:   5%|▍         | 29/600 [00:18<05:54,  1.61it/s]Train -ELBO: 157.51758, Val -ELBO: 154.20163:   5%|▌         | 31/600 [00:19<05:57,  1.59it/s]Train -ELBO: 147.23002, Val -ELBO: 144.23644:   6%|▌         | 33/600 [00:21<05:54,  1.60it/s]Train -ELBO: 138.56638, Val -ELBO: 133.61206:   6%|▌         | 35/600 [00:22<05:51,  1.61it/s]Train -ELBO: 128.08118, Val -ELBO: 124.92517:   6%|▌         | 37/600 [00:23<05:49,  1.61it/s]Train -ELBO: 120.78964, Val -ELBO: 117.54726:   6%|▋         | 39/600 [00:24<05:47,  1.61it/s]Train -ELBO: 114.39443, Val -ELBO: 111.03245:   7%|▋         | 41/600 [00:25<05:48,  1.61it/s]Train -ELBO: 104.73875, Val -ELBO: 103.77933:   7%|▋         | 43/600 [00:27<05:47,  1.60it/s]Train -ELBO: 100.74053, Val -ELBO: 97.47158:   8%|▊         | 45/600 [00:28<05:45,  1.61it/s] Train -ELBO: 95.76634, Val -ELBO: 93.02990:   8%|▊         | 47/600 [00:29<05:43,  1.61it/s] Train -ELBO: 90.87425, Val -ELBO: 91.19634:   8%|▊         | 49/600 [00:30<05:41,  1.62it/s]Train -ELBO: 86.20033, Val -ELBO: 85.73228:   8%|▊         | 51/600 [00:32<05:43,  1.60it/s]Train -ELBO: 82.45878, Val -ELBO: 80.21454:   9%|▉         | 53/600 [00:33<05:41,  1.60it/s]Train -ELBO: 80.03636, Val -ELBO: 77.75863:   9%|▉         | 55/600 [00:34<05:39,  1.61it/s]Train -ELBO: 76.01644, Val -ELBO: 74.80147:  10%|▉         | 57/600 [00:35<05:36,  1.61it/s]Train -ELBO: 75.24783, Val -ELBO: 74.16141:  10%|▉         | 59/600 [00:37<05:34,  1.62it/s]Train -ELBO: 75.02887, Val -ELBO: 75.99227:  10%|█         | 61/600 [00:38<05:35,  1.61it/s]Train -ELBO: 72.26142, Val -ELBO: 71.35798:  10%|█         | 63/600 [00:39<05:35,  1.60it/s]Train -ELBO: 70.64262, Val -ELBO: 69.67774:  11%|█         | 65/600 [00:40<05:32,  1.61it/s]Train -ELBO: 67.89788, Val -ELBO: 66.21562:  11%|█         | 67/600 [00:42<05:30,  1.61it/s]Train -ELBO: 67.32445, Val -ELBO: 66.17745:  12%|█▏        | 69/600 [00:43<05:28,  1.62it/s]Train -ELBO: 64.64281, Val -ELBO: 64.11552:  12%|█▏        | 71/600 [00:44<05:29,  1.61it/s]Train -ELBO: 63.39384, Val -ELBO: 63.52458:  12%|█▏        | 73/600 [00:45<05:28,  1.60it/s]Train -ELBO: 61.85272, Val -ELBO: 62.56813:  12%|█▎        | 75/600 [00:47<05:26,  1.61it/s]Train -ELBO: 61.25469, Val -ELBO: 61.27726:  13%|█▎        | 77/600 [00:48<05:24,  1.61it/s]Train -ELBO: 60.88630, Val -ELBO: 61.16290:  13%|█▎        | 79/600 [00:49<05:22,  1.61it/s]Train -ELBO: 61.79284, Val -ELBO: 61.90014:  14%|█▎        | 81/600 [00:50<05:25,  1.59it/s]Train -ELBO: 60.60342, Val -ELBO: 59.89992:  14%|█▍        | 83/600 [00:52<05:22,  1.60it/s]Train -ELBO: 60.27505, Val -ELBO: 59.20419:  14%|█▍        | 85/600 [00:53<05:20,  1.61it/s]Train -ELBO: 57.87998, Val -ELBO: 57.93830:  14%|█▍        | 87/600 [00:54<05:18,  1.61it/s]Train -ELBO: 57.74690, Val -ELBO: 57.40332:  15%|█▍        | 89/600 [00:55<05:16,  1.61it/s]Train -ELBO: 56.03720, Val -ELBO: 56.73015:  15%|█▌        | 91/600 [00:57<05:17,  1.60it/s]Train -ELBO: 55.72269, Val -ELBO: 56.75641:  16%|█▌        | 93/600 [00:58<05:15,  1.61it/s]Train -ELBO: 56.36870, Val -ELBO: 55.75451:  16%|█▌        | 95/600 [00:59<05:15,  1.60it/s]Train -ELBO: 57.19545, Val -ELBO: 56.24574:  16%|█▌        | 97/600 [01:00<05:12,  1.61it/s]Train -ELBO: 56.28095, Val -ELBO: 55.55980:  16%|█▋        | 99/600 [01:02<05:10,  1.61it/s]Train -ELBO: 56.39073, Val -ELBO: 54.86514:  17%|█▋        | 101/600 [01:03<05:11,  1.60it/s]Train -ELBO: 53.34336, Val -ELBO: 53.83959:  17%|█▋        | 103/600 [01:04<05:11,  1.60it/s]Train -ELBO: 53.42018, Val -ELBO: 53.75552:  18%|█▊        | 105/600 [01:05<05:08,  1.60it/s]Train -ELBO: 56.95817, Val -ELBO: 54.73577:  18%|█▊        | 107/600 [01:07<05:06,  1.61it/s]Train -ELBO: 53.23370, Val -ELBO: 53.41167:  18%|█▊        | 109/600 [01:08<05:04,  1.61it/s]Train -ELBO: 53.51107, Val -ELBO: 53.21445:  18%|█▊        | 111/600 [01:09<05:06,  1.60it/s]Train -ELBO: 52.75858, Val -ELBO: 52.51297:  19%|█▉        | 113/600 [01:10<05:03,  1.60it/s]Train -ELBO: 52.63288, Val -ELBO: 52.01354:  19%|█▉        | 115/600 [01:12<05:01,  1.61it/s]Train -ELBO: 52.68928, Val -ELBO: 52.35146:  20%|█▉        | 117/600 [01:13<04:59,  1.61it/s]Train -ELBO: 52.31115, Val -ELBO: 51.60405:  20%|█▉        | 119/600 [01:14<04:58,  1.61it/s]Train -ELBO: 55.40585, Val -ELBO: 54.10758:  20%|██        | 121/600 [01:15<04:59,  1.60it/s]Train -ELBO: 52.95272, Val -ELBO: 52.97639:  20%|██        | 123/600 [01:17<04:58,  1.60it/s]Train -ELBO: 51.19979, Val -ELBO: 51.28739:  21%|██        | 125/600 [01:18<04:56,  1.60it/s]Train -ELBO: 51.47288, Val -ELBO: 51.15681:  21%|██        | 127/600 [01:19<04:54,  1.61it/s]Train -ELBO: 51.92117, Val -ELBO: 50.78257:  22%|██▏       | 129/600 [01:20<04:52,  1.61it/s]Train -ELBO: 52.48336, Val -ELBO: 50.98815:  22%|██▏       | 131/600 [01:22<04:55,  1.59it/s]Train -ELBO: 51.59211, Val -ELBO: 51.12642:  22%|██▏       | 133/600 [01:23<04:52,  1.60it/s]Train -ELBO: 51.35255, Val -ELBO: 50.64360:  22%|██▎       | 135/600 [01:24<04:50,  1.60it/s]Train -ELBO: 50.81363, Val -ELBO: 49.89707:  23%|██▎       | 137/600 [01:25<04:48,  1.61it/s]Train -ELBO: 51.60404, Val -ELBO: 50.52860:  23%|██▎       | 139/600 [01:27<04:46,  1.61it/s]Train -ELBO: 50.93629, Val -ELBO: 52.07837:  24%|██▎       | 141/600 [01:28<04:47,  1.60it/s]Train -ELBO: 52.84106, Val -ELBO: 51.58029:  24%|██▍       | 143/600 [01:29<04:46,  1.60it/s]Train -ELBO: 50.96674, Val -ELBO: 49.91720:  24%|██▍       | 145/600 [01:30<04:43,  1.60it/s]Train -ELBO: 50.38913, Val -ELBO: 50.06712:  24%|██▍       | 147/600 [01:32<04:41,  1.61it/s]Train -ELBO: 49.85329, Val -ELBO: 49.28442:  25%|██▍       | 149/600 [01:33<04:39,  1.61it/s]Train -ELBO: 49.42740, Val -ELBO: 48.99231:  25%|██▌       | 151/600 [01:34<04:40,  1.60it/s]Train -ELBO: 48.89630, Val -ELBO: 48.89019:  26%|██▌       | 153/600 [01:35<04:39,  1.60it/s]Train -ELBO: 49.10107, Val -ELBO: 48.79383:  26%|██▌       | 155/600 [01:37<04:37,  1.60it/s]Train -ELBO: 48.98786, Val -ELBO: 48.73254:  26%|██▌       | 157/600 [01:38<04:35,  1.61it/s]Train -ELBO: 48.48890, Val -ELBO: 48.52916:  26%|██▋       | 159/600 [01:39<04:33,  1.61it/s]Train -ELBO: 48.64020, Val -ELBO: 48.47542:  27%|██▋       | 161/600 [01:40<04:36,  1.59it/s]Train -ELBO: 48.60554, Val -ELBO: 48.34023:  27%|██▋       | 163/600 [01:42<04:33,  1.60it/s]Train -ELBO: 48.19462, Val -ELBO: 48.06550:  28%|██▊       | 165/600 [01:43<04:31,  1.60it/s]Train -ELBO: 49.82818, Val -ELBO: 48.64918:  28%|██▊       | 167/600 [01:44<04:29,  1.61it/s]Train -ELBO: 48.90722, Val -ELBO: 48.23503:  28%|██▊       | 169/600 [01:45<04:27,  1.61it/s]Train -ELBO: 48.51017, Val -ELBO: 47.93517:  28%|██▊       | 171/600 [01:46<04:28,  1.60it/s]Train -ELBO: 48.31914, Val -ELBO: 47.99709:  29%|██▉       | 173/600 [01:48<04:26,  1.60it/s]Train -ELBO: 48.21470, Val -ELBO: 47.72510:  29%|██▉       | 175/600 [01:49<04:25,  1.60it/s]Train -ELBO: 48.79898, Val -ELBO: 48.49499:  30%|██▉       | 177/600 [01:50<04:23,  1.60it/s]Train -ELBO: 48.54834, Val -ELBO: 48.23980:  30%|██▉       | 179/600 [01:51<04:21,  1.61it/s]Train -ELBO: 48.03444, Val -ELBO: 47.50132:  30%|███       | 181/600 [01:53<04:22,  1.60it/s]Train -ELBO: 47.82056, Val -ELBO: 47.45906:  30%|███       | 183/600 [01:54<04:22,  1.59it/s]Train -ELBO: 47.69416, Val -ELBO: 47.48680:  31%|███       | 185/600 [01:55<04:20,  1.59it/s]Train -ELBO: 47.32012, Val -ELBO: 47.15389:  31%|███       | 187/600 [01:57<04:18,  1.60it/s]Train -ELBO: 47.34847, Val -ELBO: 47.20231:  32%|███▏      | 189/600 [01:58<04:16,  1.60it/s]Train -ELBO: 46.95431, Val -ELBO: 47.12961:  32%|███▏      | 191/600 [01:59<04:17,  1.59it/s]Train -ELBO: 47.66410, Val -ELBO: 47.01704:  32%|███▏      | 193/600 [02:00<04:15,  1.60it/s]Train -ELBO: 47.67243, Val -ELBO: 47.35157:  32%|███▎      | 195/600 [02:02<04:12,  1.60it/s]Train -ELBO: 46.95831, Val -ELBO: 46.82102:  33%|███▎      | 197/600 [02:03<04:11,  1.61it/s]Train -ELBO: 47.06593, Val -ELBO: 46.79668:  33%|███▎      | 199/600 [02:04<04:09,  1.61it/s]Train -ELBO: 48.62998, Val -ELBO: 47.69544:  34%|███▎      | 201/600 [02:05<04:09,  1.60it/s]Train -ELBO: 47.41330, Val -ELBO: 46.82496:  34%|███▍      | 203/600 [02:07<04:09,  1.59it/s]Train -ELBO: 47.60891, Val -ELBO: 47.45323:  34%|███▍      | 205/600 [02:08<04:07,  1.60it/s]Train -ELBO: 48.12791, Val -ELBO: 48.01829:  34%|███▍      | 207/600 [02:09<04:04,  1.60it/s]Train -ELBO: 47.26989, Val -ELBO: 46.55328:  35%|███▍      | 209/600 [02:10<04:03,  1.61it/s]Train -ELBO: 47.31510, Val -ELBO: 47.04331:  35%|███▌      | 211/600 [02:12<04:04,  1.59it/s]Train -ELBO: 46.43113, Val -ELBO: 46.43978:  36%|███▌      | 213/600 [02:13<04:02,  1.60it/s]Train -ELBO: 46.42393, Val -ELBO: 46.71836:  36%|███▌      | 215/600 [02:14<04:00,  1.60it/s]Train -ELBO: 46.33005, Val -ELBO: 46.48548:  36%|███▌      | 217/600 [02:15<03:58,  1.61it/s]Train -ELBO: 46.28590, Val -ELBO: 46.28983:  36%|███▋      | 219/600 [02:16<03:56,  1.61it/s]Train -ELBO: 46.60286, Val -ELBO: 46.39176:  37%|███▋      | 221/600 [02:18<03:57,  1.60it/s]Train -ELBO: 46.53504, Val -ELBO: 46.27537:  37%|███▋      | 223/600 [02:19<03:56,  1.60it/s]Train -ELBO: 46.25087, Val -ELBO: 46.22538:  38%|███▊      | 225/600 [02:20<03:54,  1.60it/s]Train -ELBO: 46.95191, Val -ELBO: 46.52323:  38%|███▊      | 227/600 [02:21<03:52,  1.61it/s]Train -ELBO: 46.00929, Val -ELBO: 46.16383:  38%|███▊      | 229/600 [02:23<03:50,  1.61it/s]Train -ELBO: 46.30950, Val -ELBO: 46.17058:  38%|███▊      | 231/600 [02:24<03:50,  1.60it/s]Train -ELBO: 46.27392, Val -ELBO: 46.07776:  39%|███▉      | 233/600 [02:25<03:50,  1.59it/s]Train -ELBO: 46.46565, Val -ELBO: 46.35159:  39%|███▉      | 235/600 [02:26<03:48,  1.60it/s]Train -ELBO: 46.21099, Val -ELBO: 45.96064:  40%|███▉      | 237/600 [02:28<03:46,  1.60it/s]Train -ELBO: 45.95774, Val -ELBO: 45.98791:  40%|███▉      | 239/600 [02:29<03:44,  1.61it/s]Train -ELBO: 46.17849, Val -ELBO: 45.98678:  40%|████      | 241/600 [02:30<03:45,  1.59it/s]Train -ELBO: 46.10546, Val -ELBO: 45.98765:  40%|████      | 243/600 [02:31<03:43,  1.60it/s]Train -ELBO: 46.12896, Val -ELBO: 45.88363:  41%|████      | 245/600 [02:33<03:41,  1.60it/s]Train -ELBO: 47.42780, Val -ELBO: 46.02397:  41%|████      | 247/600 [02:34<03:39,  1.61it/s]Train -ELBO: 46.55070, Val -ELBO: 45.88389:  42%|████▏     | 249/600 [02:35<03:38,  1.61it/s]Train -ELBO: 45.49574, Val -ELBO: 45.72564:  42%|████▏     | 251/600 [02:36<03:38,  1.60it/s]Train -ELBO: 45.50884, Val -ELBO: 45.71786:  42%|████▏     | 253/600 [02:38<03:36,  1.60it/s]Train -ELBO: 45.66936, Val -ELBO: 45.51777:  42%|████▎     | 255/600 [02:39<03:35,  1.60it/s]Train -ELBO: 45.63799, Val -ELBO: 45.54962:  43%|████▎     | 257/600 [02:40<03:33,  1.60it/s]Train -ELBO: 45.95602, Val -ELBO: 45.54729:  43%|████▎     | 259/600 [02:41<03:32,  1.61it/s]Train -ELBO: 45.71672, Val -ELBO: 45.63870:  44%|████▎     | 261/600 [02:43<03:32,  1.60it/s]Train -ELBO: 45.41481, Val -ELBO: 45.41344:  44%|████▍     | 263/600 [02:44<03:31,  1.59it/s]Train -ELBO: 45.33487, Val -ELBO: 45.49430:  44%|████▍     | 265/600 [02:45<03:29,  1.60it/s]Train -ELBO: 46.12827, Val -ELBO: 45.51521:  44%|████▍     | 267/600 [02:46<03:27,  1.61it/s]Train -ELBO: 46.85350, Val -ELBO: 45.76523:  45%|████▍     | 269/600 [02:48<03:25,  1.61it/s]Train -ELBO: 47.87092, Val -ELBO: 46.29491:  45%|████▌     | 271/600 [02:49<03:27,  1.59it/s]Train -ELBO: 46.15037, Val -ELBO: 46.10658:  46%|████▌     | 273/600 [02:50<03:24,  1.60it/s]Train -ELBO: 46.29349, Val -ELBO: 45.28226:  46%|████▌     | 275/600 [02:51<03:22,  1.60it/s]Train -ELBO: 47.58882, Val -ELBO: 47.80870:  46%|████▌     | 277/600 [02:53<03:21,  1.61it/s]Train -ELBO: 46.08194, Val -ELBO: 45.88829:  46%|████▋     | 279/600 [02:54<03:19,  1.61it/s]Train -ELBO: 45.73592, Val -ELBO: 45.27496:  47%|████▋     | 281/600 [02:55<03:19,  1.60it/s]Train -ELBO: 46.28838, Val -ELBO: 46.10753:  47%|████▋     | 283/600 [02:56<03:19,  1.59it/s]Train -ELBO: 46.38466, Val -ELBO: 46.03630:  48%|████▊     | 285/600 [02:58<03:17,  1.60it/s]Epoch   286: reducing learning rate of group 0 to 1.0000e-04.
Train -ELBO: 46.90421, Val -ELBO: 46.48712:  48%|████▊     | 287/600 [02:59<03:15,  1.60it/s]Train -ELBO: 45.30919, Val -ELBO: 45.61799:  48%|████▊     | 289/600 [03:00<03:13,  1.61it/s]Train -ELBO: 45.22459, Val -ELBO: 44.93330:  48%|████▊     | 291/600 [03:01<03:14,  1.59it/s]Train -ELBO: 45.44863, Val -ELBO: 45.52898:  49%|████▉     | 293/600 [03:03<03:12,  1.60it/s]Train -ELBO: 44.96048, Val -ELBO: 45.00680:  49%|████▉     | 295/600 [03:04<03:10,  1.60it/s]Train -ELBO: 45.04904, Val -ELBO: 44.96005:  50%|████▉     | 297/600 [03:05<03:08,  1.61it/s]Train -ELBO: 45.02655, Val -ELBO: 45.13823:  50%|████▉     | 299/600 [03:06<03:06,  1.61it/s]Train -ELBO: 44.63713, Val -ELBO: 44.83490:  50%|█████     | 301/600 [03:08<03:06,  1.60it/s]Train -ELBO: 44.54985, Val -ELBO: 44.84551:  50%|█████     | 303/600 [03:09<03:06,  1.59it/s]Train -ELBO: 44.74329, Val -ELBO: 44.90071:  51%|█████     | 305/600 [03:10<03:04,  1.60it/s]Train -ELBO: 44.84799, Val -ELBO: 44.83547:  51%|█████     | 307/600 [03:11<03:02,  1.61it/s]Train -ELBO: 44.66476, Val -ELBO: 44.80985:  52%|█████▏    | 309/600 [03:13<03:00,  1.61it/s]Train -ELBO: 44.62151, Val -ELBO: 44.76407:  52%|█████▏    | 311/600 [03:14<03:00,  1.60it/s]Train -ELBO: 44.84606, Val -ELBO: 44.80708:  52%|█████▏    | 313/600 [03:15<02:59,  1.60it/s]Train -ELBO: 44.80777, Val -ELBO: 44.77308:  52%|█████▎    | 315/600 [03:16<02:57,  1.60it/s]Train -ELBO: 44.48819, Val -ELBO: 44.81824:  53%|█████▎    | 317/600 [03:18<02:56,  1.61it/s]Train -ELBO: 44.67392, Val -ELBO: 44.77232:  53%|█████▎    | 319/600 [03:19<02:54,  1.61it/s]Train -ELBO: 44.67105, Val -ELBO: 44.79507:  54%|█████▎    | 321/600 [03:20<02:55,  1.59it/s]Train -ELBO: 44.55442, Val -ELBO: 44.72969:  54%|█████▍    | 323/600 [03:21<02:53,  1.60it/s]Train -ELBO: 44.74213, Val -ELBO: 44.74934:  54%|█████▍    | 325/600 [03:23<02:51,  1.60it/s]Train -ELBO: 45.09017, Val -ELBO: 44.73965:  55%|█████▍    | 327/600 [03:24<02:49,  1.61it/s]Train -ELBO: 44.49899, Val -ELBO: 44.77615:  55%|█████▍    | 329/600 [03:25<02:48,  1.61it/s]Train -ELBO: 44.73528, Val -ELBO: 44.70461:  55%|█████▌    | 331/600 [03:26<02:48,  1.60it/s]Train -ELBO: 44.70208, Val -ELBO: 44.75226:  56%|█████▌    | 333/600 [03:28<02:47,  1.59it/s]Train -ELBO: 44.49084, Val -ELBO: 44.74640:  56%|█████▌    | 335/600 [03:29<02:45,  1.60it/s]Train -ELBO: 44.36155, Val -ELBO: 44.72895:  56%|█████▌    | 337/600 [03:30<02:43,  1.60it/s]Train -ELBO: 44.99095, Val -ELBO: 44.77650:  56%|█████▋    | 339/600 [03:31<02:42,  1.61it/s]Train -ELBO: 44.49843, Val -ELBO: 44.74102:  57%|█████▋    | 341/600 [03:33<02:41,  1.60it/s]Train -ELBO: 44.78057, Val -ELBO: 44.78803:  57%|█████▋    | 343/600 [03:34<02:40,  1.60it/s]Train -ELBO: 44.78747, Val -ELBO: 44.76261:  57%|█████▊    | 345/600 [03:35<02:39,  1.60it/s]Train -ELBO: 44.45028, Val -ELBO: 44.81593:  58%|█████▊    | 347/600 [03:36<02:37,  1.61it/s]Train -ELBO: 44.45387, Val -ELBO: 44.69445:  58%|█████▊    | 349/600 [03:38<02:35,  1.61it/s]Train -ELBO: 44.54590, Val -ELBO: 44.69377:  58%|█████▊    | 351/600 [03:39<02:36,  1.59it/s]Train -ELBO: 44.40564, Val -ELBO: 44.70826:  59%|█████▉    | 353/600 [03:40<02:34,  1.60it/s]Train -ELBO: 44.67277, Val -ELBO: 44.72144:  59%|█████▉    | 355/600 [03:41<02:32,  1.60it/s]Train -ELBO: 44.74159, Val -ELBO: 44.68080:  60%|█████▉    | 357/600 [03:43<02:31,  1.61it/s]Train -ELBO: 44.58341, Val -ELBO: 44.70141:  60%|█████▉    | 359/600 [03:44<02:29,  1.61it/s]Train -ELBO: 44.43368, Val -ELBO: 44.67095:  60%|██████    | 361/600 [03:45<02:29,  1.60it/s]Train -ELBO: 44.57442, Val -ELBO: 44.72130:  60%|██████    | 363/600 [03:46<02:28,  1.60it/s]Train -ELBO: 44.92761, Val -ELBO: 44.71683:  61%|██████    | 365/600 [03:48<02:26,  1.60it/s]Train -ELBO: 44.25778, Val -ELBO: 44.66396:  61%|██████    | 367/600 [03:49<02:25,  1.60it/s]Train -ELBO: 44.76074, Val -ELBO: 44.72022:  62%|██████▏   | 369/600 [03:50<02:23,  1.61it/s]Train -ELBO: 44.43018, Val -ELBO: 44.70504:  62%|██████▏   | 371/600 [03:51<02:23,  1.59it/s]Train -ELBO: 44.69696, Val -ELBO: 44.69399:  62%|██████▏   | 373/600 [03:53<02:22,  1.60it/s]Train -ELBO: 44.75853, Val -ELBO: 44.63996:  62%|██████▎   | 375/600 [03:54<02:20,  1.60it/s]Train -ELBO: 44.60214, Val -ELBO: 44.67200:  63%|██████▎   | 377/600 [03:55<02:18,  1.61it/s]Train -ELBO: 44.88410, Val -ELBO: 44.66480:  63%|██████▎   | 379/600 [03:56<02:17,  1.61it/s]Train -ELBO: 44.46698, Val -ELBO: 44.69279:  64%|██████▎   | 381/600 [03:58<02:16,  1.60it/s]Train -ELBO: 44.61358, Val -ELBO: 44.68017:  64%|██████▍   | 383/600 [03:59<02:15,  1.60it/s]Train -ELBO: 44.52911, Val -ELBO: 44.73100:  64%|██████▍   | 385/600 [04:00<02:14,  1.60it/s]Train -ELBO: 44.74964, Val -ELBO: 44.62733:  64%|██████▍   | 387/600 [04:01<02:12,  1.61it/s]Epoch   388: reducing learning rate of group 0 to 1.0000e-05.
Train -ELBO: 44.63970, Val -ELBO: 44.65088:  65%|██████▍   | 389/600 [04:03<02:11,  1.61it/s]Train -ELBO: 44.35041, Val -ELBO: 44.60835:  65%|██████▌   | 391/600 [04:04<02:10,  1.60it/s]Train -ELBO: 44.64349, Val -ELBO: 44.63208:  66%|██████▌   | 393/600 [04:05<02:09,  1.59it/s]Train -ELBO: 44.64363, Val -ELBO: 44.66325:  66%|██████▌   | 395/600 [04:06<02:08,  1.60it/s]Train -ELBO: 44.43961, Val -ELBO: 44.61494:  66%|██████▌   | 397/600 [04:08<02:06,  1.61it/s]Train -ELBO: 44.45280, Val -ELBO: 44.59756:  66%|██████▋   | 399/600 [04:09<02:04,  1.61it/s]Train -ELBO: 44.53430, Val -ELBO: 44.62190:  67%|██████▋   | 401/600 [04:10<02:05,  1.59it/s]Train -ELBO: 44.54732, Val -ELBO: 44.57486:  67%|██████▋   | 403/600 [04:11<02:03,  1.60it/s]Train -ELBO: 44.28167, Val -ELBO: 44.58184:  68%|██████▊   | 405/600 [04:13<02:01,  1.60it/s]Train -ELBO: 44.58221, Val -ELBO: 44.69130:  68%|██████▊   | 407/600 [04:14<02:00,  1.61it/s]Epoch   409: reducing learning rate of group 0 to 1.0000e-06.
Train -ELBO: 44.28633, Val -ELBO: 44.60080:  68%|██████▊   | 409/600 [04:15<01:58,  1.61it/s]Train -ELBO: 44.59345, Val -ELBO: 44.61983:  68%|██████▊   | 411/600 [04:16<01:58,  1.60it/s]Train -ELBO: 44.45496, Val -ELBO: 44.60056:  69%|██████▉   | 413/600 [04:18<01:57,  1.59it/s]Train -ELBO: 44.40094, Val -ELBO: 44.67364:  69%|██████▉   | 415/600 [04:19<01:55,  1.60it/s]Train -ELBO: 44.49599, Val -ELBO: 44.60038:  70%|██████▉   | 417/600 [04:20<01:53,  1.61it/s]Train -ELBO: 44.60531, Val -ELBO: 44.53465:  70%|██████▉   | 419/600 [04:21<01:52,  1.61it/s]Train -ELBO: 44.42282, Val -ELBO: 44.60841:  70%|███████   | 421/600 [04:23<01:51,  1.60it/s]Train -ELBO: 44.56792, Val -ELBO: 44.66560:  70%|███████   | 423/600 [04:24<01:50,  1.60it/s]Train -ELBO: 44.34890, Val -ELBO: 44.65079:  71%|███████   | 425/600 [04:25<01:49,  1.60it/s]Train -ELBO: 44.60781, Val -ELBO: 44.57556:  71%|███████   | 427/600 [04:26<01:47,  1.61it/s]Train -ELBO: 44.43782, Val -ELBO: 44.62410:  72%|███████▏  | 429/600 [04:28<01:46,  1.61it/s]Train -ELBO: 44.38441, Val -ELBO: 44.56586:  72%|███████▏  | 431/600 [04:29<01:46,  1.59it/s]Train -ELBO: 44.57079, Val -ELBO: 44.59963:  72%|███████▏  | 433/600 [04:30<01:44,  1.60it/s]Train -ELBO: 44.48202, Val -ELBO: 44.64805:  72%|███████▎  | 435/600 [04:31<01:42,  1.61it/s]Train -ELBO: 44.47081, Val -ELBO: 44.61229:  73%|███████▎  | 437/600 [04:33<01:41,  1.61it/s]Train -ELBO: 44.44238, Val -ELBO: 44.65474:  73%|███████▎  | 439/600 [04:34<01:39,  1.61it/s]Train -ELBO: 44.49543, Val -ELBO: 44.58782:  74%|███████▎  | 441/600 [04:35<01:39,  1.60it/s]Train -ELBO: 44.25531, Val -ELBO: 44.60784:  74%|███████▍  | 443/600 [04:36<01:38,  1.60it/s]Train -ELBO: 44.54738, Val -ELBO: 44.59295:  74%|███████▍  | 445/600 [04:38<01:36,  1.60it/s]Train -ELBO: 44.85764, Val -ELBO: 44.57830:  74%|███████▍  | 447/600 [04:39<01:35,  1.61it/s]Train -ELBO: 44.55692, Val -ELBO: 44.63321:  75%|███████▍  | 449/600 [04:40<01:33,  1.61it/s]Train -ELBO: 44.58251, Val -ELBO: 44.60491:  75%|███████▌  | 451/600 [04:41<01:33,  1.59it/s]Train -ELBO: 44.66835, Val -ELBO: 44.58507:  76%|███████▌  | 453/600 [04:43<01:31,  1.60it/s]Train -ELBO: 44.52361, Val -ELBO: 44.62166:  76%|███████▌  | 455/600 [04:44<01:30,  1.61it/s]Train -ELBO: 44.35700, Val -ELBO: 44.61567:  76%|███████▌  | 457/600 [04:45<01:28,  1.61it/s]Train -ELBO: 44.31209, Val -ELBO: 44.60113:  76%|███████▋  | 459/600 [04:46<01:27,  1.61it/s]Train -ELBO: 44.40099, Val -ELBO: 44.62497:  77%|███████▋  | 461/600 [04:48<01:26,  1.60it/s]Train -ELBO: 44.54273, Val -ELBO: 44.62046:  77%|███████▋  | 463/600 [04:49<01:25,  1.60it/s]Train -ELBO: 44.53997, Val -ELBO: 44.56946:  78%|███████▊  | 465/600 [04:50<01:24,  1.60it/s]Train -ELBO: 44.38308, Val -ELBO: 44.60745:  78%|███████▊  | 467/600 [04:51<01:22,  1.61it/s]Train -ELBO: 44.48424, Val -ELBO: 44.60841:  78%|███████▊  | 469/600 [04:53<01:21,  1.61it/s]Train -ELBO: 44.50253, Val -ELBO: 44.67835:  78%|███████▊  | 471/600 [04:54<01:20,  1.60it/s]Train -ELBO: 44.32867, Val -ELBO: 44.59638:  79%|███████▉  | 473/600 [04:55<01:19,  1.60it/s]Train -ELBO: 44.38909, Val -ELBO: 44.61876:  79%|███████▉  | 475/600 [04:56<01:18,  1.60it/s]Train -ELBO: 44.47737, Val -ELBO: 44.61608:  80%|███████▉  | 477/600 [04:58<01:16,  1.60it/s]Train -ELBO: 44.38396, Val -ELBO: 44.58179:  80%|███████▉  | 479/600 [04:59<01:15,  1.61it/s]Train -ELBO: 44.45960, Val -ELBO: 44.59092:  80%|████████  | 481/600 [05:00<01:14,  1.59it/s]Train -ELBO: 44.55490, Val -ELBO: 44.61466:  80%|████████  | 483/600 [05:01<01:13,  1.60it/s]Train -ELBO: 44.42582, Val -ELBO: 44.56796:  81%|████████  | 485/600 [05:03<01:11,  1.60it/s]Train -ELBO: 44.46060, Val -ELBO: 44.60644:  81%|████████  | 487/600 [05:04<01:10,  1.61it/s]Train -ELBO: 44.35442, Val -ELBO: 44.62264:  82%|████████▏ | 489/600 [05:05<01:09,  1.61it/s]Train -ELBO: 44.60098, Val -ELBO: 44.59537:  82%|████████▏ | 491/600 [05:06<01:08,  1.60it/s]Train -ELBO: 44.64737, Val -ELBO: 44.57483:  82%|████████▏ | 493/600 [05:08<01:07,  1.59it/s]Train -ELBO: 44.38362, Val -ELBO: 44.60118:  82%|████████▎ | 495/600 [05:09<01:05,  1.60it/s]Train -ELBO: 44.60609, Val -ELBO: 44.61635:  83%|████████▎ | 497/600 [05:10<01:04,  1.60it/s]Train -ELBO: 44.68927, Val -ELBO: 44.63399:  83%|████████▎ | 499/600 [05:11<01:02,  1.61it/s]Train -ELBO: 44.32317, Val -ELBO: 44.57442:  84%|████████▎ | 501/600 [05:13<01:02,  1.59it/s]Train -ELBO: 44.42048, Val -ELBO: 44.61464:  84%|████████▍ | 503/600 [05:14<01:00,  1.60it/s]Train -ELBO: 44.28060, Val -ELBO: 44.62849:  84%|████████▍ | 505/600 [05:15<00:59,  1.60it/s]Train -ELBO: 44.65289, Val -ELBO: 44.60861:  84%|████████▍ | 507/600 [05:16<00:57,  1.61it/s]Train -ELBO: 44.48785, Val -ELBO: 44.60404:  85%|████████▍ | 509/600 [05:18<00:56,  1.61it/s]Train -ELBO: 44.39583, Val -ELBO: 44.57866:  85%|████████▌ | 511/600 [05:19<00:55,  1.59it/s]Train -ELBO: 44.64116, Val -ELBO: 44.67459:  86%|████████▌ | 513/600 [05:20<00:54,  1.60it/s]Train -ELBO: 44.39034, Val -ELBO: 44.62893:  86%|████████▌ | 515/600 [05:21<00:52,  1.60it/s]Train -ELBO: 44.45656, Val -ELBO: 44.61936:  86%|████████▌ | 517/600 [05:23<00:51,  1.61it/s]Train -ELBO: 44.51867, Val -ELBO: 44.62819:  86%|████████▋ | 519/600 [05:24<00:50,  1.60it/s]Train -ELBO: 44.24029, Val -ELBO: 44.55199:  87%|████████▋ | 521/600 [05:25<00:49,  1.59it/s]Train -ELBO: 44.55664, Val -ELBO: 44.62505:  87%|████████▋ | 523/600 [05:26<00:48,  1.60it/s]Train -ELBO: 44.55281, Val -ELBO: 44.61811:  88%|████████▊ | 525/600 [05:28<00:46,  1.60it/s]Train -ELBO: 44.26953, Val -ELBO: 44.51894:  88%|████████▊ | 527/600 [05:29<00:45,  1.60it/s]Train -ELBO: 44.47473, Val -ELBO: 44.57384:  88%|████████▊ | 529/600 [05:30<00:44,  1.61it/s]Train -ELBO: 44.27569, Val -ELBO: 44.59243:  88%|████████▊ | 531/600 [05:31<00:43,  1.60it/s]Train -ELBO: 44.51809, Val -ELBO: 44.62452:  89%|████████▉ | 533/600 [05:33<00:41,  1.61it/s]Train -ELBO: 44.46535, Val -ELBO: 44.57144:  89%|████████▉ | 535/600 [05:34<00:40,  1.60it/s]Train -ELBO: 44.30956, Val -ELBO: 44.64156:  90%|████████▉ | 537/600 [05:35<00:39,  1.61it/s]Train -ELBO: 44.58527, Val -ELBO: 44.67124:  90%|████████▉ | 539/600 [05:36<00:37,  1.61it/s]Train -ELBO: 44.41931, Val -ELBO: 44.56648:  90%|█████████ | 541/600 [05:38<00:36,  1.60it/s]Train -ELBO: 44.59830, Val -ELBO: 44.65695:  90%|█████████ | 543/600 [05:39<00:35,  1.60it/s]Train -ELBO: 44.43459, Val -ELBO: 44.60667:  91%|█████████ | 545/600 [05:40<00:34,  1.60it/s]Train -ELBO: 44.44586, Val -ELBO: 44.67770:  91%|█████████ | 547/600 [05:41<00:33,  1.61it/s]Train -ELBO: 44.53935, Val -ELBO: 44.59526:  92%|█████████▏| 549/600 [05:42<00:31,  1.61it/s]Train -ELBO: 44.35067, Val -ELBO: 44.59198:  92%|█████████▏| 551/600 [05:44<00:30,  1.60it/s]Train -ELBO: 44.44951, Val -ELBO: 44.59546:  92%|█████████▏| 553/600 [05:45<00:29,  1.60it/s]Train -ELBO: 44.46308, Val -ELBO: 44.59768:  92%|█████████▎| 555/600 [05:46<00:28,  1.60it/s]Train -ELBO: 44.46917, Val -ELBO: 44.61520:  93%|█████████▎| 557/600 [05:47<00:26,  1.61it/s]Train -ELBO: 44.54423, Val -ELBO: 44.59007:  93%|█████████▎| 559/600 [05:49<00:25,  1.61it/s]Train -ELBO: 44.39802, Val -ELBO: 44.63154:  94%|█████████▎| 561/600 [05:50<00:24,  1.59it/s]Train -ELBO: 44.60427, Val -ELBO: 44.61655:  94%|█████████▍| 563/600 [05:51<00:23,  1.60it/s]Train -ELBO: 44.62114, Val -ELBO: 44.57448:  94%|█████████▍| 565/600 [05:53<00:21,  1.60it/s]Train -ELBO: 44.54903, Val -ELBO: 44.50871:  94%|█████████▍| 567/600 [05:54<00:20,  1.60it/s]Train -ELBO: 44.47553, Val -ELBO: 44.61207:  95%|█████████▍| 569/600 [05:55<00:19,  1.60it/s]Train -ELBO: 44.48936, Val -ELBO: 44.62732:  95%|█████████▌| 571/600 [05:56<00:18,  1.60it/s]Train -ELBO: 44.53363, Val -ELBO: 44.57996:  96%|█████████▌| 573/600 [05:58<00:16,  1.59it/s]Train -ELBO: 44.66977, Val -ELBO: 44.67267:  96%|█████████▌| 575/600 [05:59<00:15,  1.60it/s]Train -ELBO: 44.55749, Val -ELBO: 44.60484:  96%|█████████▌| 577/600 [06:00<00:14,  1.60it/s]Train -ELBO: 44.65218, Val -ELBO: 44.60922:  96%|█████████▋| 579/600 [06:01<00:13,  1.61it/s]Train -ELBO: 44.64056, Val -ELBO: 44.58878:  97%|█████████▋| 581/600 [06:03<00:11,  1.58it/s]Train -ELBO: 44.52473, Val -ELBO: 44.64415:  97%|█████████▋| 583/600 [06:04<00:10,  1.59it/s]Train -ELBO: 44.40845, Val -ELBO: 44.59554:  98%|█████████▊| 585/600 [06:05<00:09,  1.60it/s]Train -ELBO: 44.57862, Val -ELBO: 44.60714:  98%|█████████▊| 587/600 [06:06<00:08,  1.60it/s]Train -ELBO: 44.39420, Val -ELBO: 44.59184:  98%|█████████▊| 589/600 [06:08<00:06,  1.60it/s]Train -ELBO: 44.72247, Val -ELBO: 44.61545:  98%|█████████▊| 591/600 [06:09<00:05,  1.58it/s]Train -ELBO: 44.33897, Val -ELBO: 44.62062:  99%|█████████▉| 593/600 [06:10<00:04,  1.59it/s]Train -ELBO: 44.37915, Val -ELBO: 44.61840:  99%|█████████▉| 595/600 [06:11<00:03,  1.60it/s]Train -ELBO: 44.42378, Val -ELBO: 44.60984: 100%|█████████▉| 597/600 [06:13<00:01,  1.60it/s]Train -ELBO: 44.53460, Val -ELBO: 44.59230: 100%|█████████▉| 599/600 [06:14<00:00,  1.60it/s]Train -ELBO: 44.46930, Val -ELBO: 44.60549: 100%|██████████| 600/600 [06:14<00:00,  1.60it/s]
