INFO - siren_vae - Running command 'run'
INFO - siren_vae - Started run with ID "2"
[ENCODED STRUCTURE] Using faithful BN structure.
[MODEL TYPE] IW-SIReN-VAE (k=32)
  0%|          | 0/40 [00:00<?, ?it/s]Train -ELBO: 37.78145, Val -ELBO: 37.67655:   2%|▎         | 1/40 [03:13<2:05:30, 193.08s/it]Epoch    82: reducing learning rate of group 0 to 1.0000e-05.
Train -ELBO: 37.78292, Val -ELBO: 37.65872:   5%|▌         | 2/40 [06:24<2:01:46, 192.28s/it]Train -ELBO: 37.75700, Val -ELBO: 37.64117:   8%|▊         | 3/40 [09:36<1:58:24, 192.01s/it]Train -ELBO: 37.75035, Val -ELBO: 37.64271:  10%|█         | 4/40 [12:50<1:55:35, 192.64s/it]Train -ELBO: 37.74762, Val -ELBO: 37.63993:  12%|█▎        | 5/40 [16:01<1:52:10, 192.30s/it]Train -ELBO: 37.74295, Val -ELBO: 37.63501:  15%|█▌        | 6/40 [19:13<1:48:50, 192.06s/it]Train -ELBO: 37.74579, Val -ELBO: 37.64805:  18%|█▊        | 7/40 [22:25<1:45:39, 192.10s/it]Train -ELBO: 37.74840, Val -ELBO: 37.64129:  20%|██        | 8/40 [25:37<1:42:25, 192.05s/it]Train -ELBO: 37.74804, Val -ELBO: 37.62892:  22%|██▎       | 9/40 [28:49<1:39:10, 191.94s/it]Train -ELBO: 37.74864, Val -ELBO: 37.64117:  25%|██▌       | 10/40 [32:07<1:36:53, 193.77s/it]Train -ELBO: 37.74946, Val -ELBO: 37.63955:  28%|██▊       | 11/40 [35:25<1:34:17, 195.09s/it]Train -ELBO: 37.74734, Val -ELBO: 37.64083:  30%|███       | 12/40 [38:49<1:32:20, 197.89s/it]Train -ELBO: 37.74337, Val -ELBO: 37.64236:  32%|███▎      | 13/40 [42:09<1:29:18, 198.46s/it]Train -ELBO: 37.75050, Val -ELBO: 37.63734:  35%|███▌      | 14/40 [45:34<1:26:55, 200.59s/it]Train -ELBO: 37.75014, Val -ELBO: 37.63742:  38%|███▊      | 15/40 [49:10<1:25:30, 205.24s/it]Train -ELBO: 37.75033, Val -ELBO: 37.63741:  40%|████      | 16/40 [52:50<1:23:50, 209.62s/it]Epoch    97: reducing learning rate of group 0 to 1.0000e-06.
Train -ELBO: 37.74227, Val -ELBO: 37.63855:  42%|████▎     | 17/40 [56:28<1:21:21, 212.24s/it]Train -ELBO: 37.74936, Val -ELBO: 37.64213:  45%|████▌     | 18/40 [1:00:04<1:18:10, 213.19s/it]Train -ELBO: 37.74514, Val -ELBO: 37.64311:  48%|████▊     | 19/40 [1:03:42<1:15:07, 214.65s/it]Train -ELBO: 37.74340, Val -ELBO: 37.63815:  50%|█████     | 20/40 [1:07:14<1:11:15, 213.78s/it]Train -ELBO: 37.74579, Val -ELBO: 37.63897:  52%|█████▎    | 21/40 [1:10:45<1:07:27, 213.02s/it]Train -ELBO: 37.74454, Val -ELBO: 37.64128:  55%|█████▌    | 22/40 [1:14:19<1:04:00, 213.36s/it]