{
  "train": {
    "steps": [
      0,
      1,
      2,
      3,
      4,
      5,
      6,
      7,
      8,
      9,
      10,
      11,
      12,
      13,
      14,
      15,
      16,
      17,
      18,
      19,
      20,
      21,
      22,
      23,
      24,
      25,
      26,
      27,
      28,
      29,
      30,
      31,
      32,
      33,
      34,
      35,
      36,
      37,
      38,
      39,
      40,
      41,
      42,
      43,
      44,
      45,
      46,
      47,
      48,
      49,
      50,
      51,
      52,
      53,
      54,
      55,
      56,
      57,
      58,
      59,
      60,
      61,
      62,
      63,
      64,
      65,
      66,
      67,
      68,
      69,
      70,
      71,
      72,
      73,
      74,
      75,
      76,
      77,
      78,
      79,
      80,
      81,
      82,
      83,
      84,
      85,
      86,
      87,
      88,
      89,
      90,
      91,
      92,
      93,
      94,
      95,
      96,
      97,
      98,
      99,
      100,
      101,
      102,
      103,
      104,
      105,
      106,
      107,
      108,
      109,
      110,
      111,
      112,
      113,
      114,
      115,
      116,
      117,
      118,
      119,
      120,
      121,
      122,
      123,
      124,
      125,
      126,
      127,
      128,
      129,
      130,
      131,
      132,
      133,
      134,
      135,
      136,
      137,
      138,
      139,
      140,
      141,
      142,
      143,
      144,
      145,
      146,
      147,
      148,
      149,
      150,
      151,
      152,
      153,
      154,
      155,
      156,
      157,
      158,
      159,
      160,
      161,
      162,
      163,
      164,
      165,
      166,
      167,
      168,
      169,
      170,
      171,
      172,
      173,
      174,
      175,
      176,
      177,
      178,
      179,
      180,
      181,
      182,
      183,
      184,
      185,
      186,
      187,
      188,
      189,
      190,
      191,
      192,
      193,
      194,
      195,
      196,
      197,
      198,
      199,
      200,
      201,
      202,
      203,
      204,
      205,
      206,
      207,
      208,
      209,
      210,
      211,
      212,
      213,
      214,
      215,
      216,
      217,
      218,
      219,
      220,
      221,
      222,
      223,
      224,
      225,
      226,
      227,
      228,
      229,
      230,
      231,
      232,
      233,
      234,
      235,
      236,
      237,
      238,
      239,
      240,
      241,
      242,
      243,
      244,
      245,
      246,
      247,
      248,
      249,
      250,
      251,
      252,
      253,
      254,
      255,
      256,
      257,
      258,
      259,
      260,
      261,
      262,
      263,
      264,
      265,
      266,
      267,
      268,
      269,
      270,
      271,
      272,
      273,
      274,
      275,
      276,
      277,
      278,
      279,
      280,
      281,
      282,
      283,
      284,
      285,
      286,
      287,
      288,
      289,
      290,
      291,
      292,
      293,
      294,
      295,
      296,
      297,
      298,
      299
    ],
    "timestamps": [
      "2022-08-31T12:12:55.564609",
      "2022-08-31T12:12:55.849450",
      "2022-08-31T12:12:56.154006",
      "2022-08-31T12:12:56.535265",
      "2022-08-31T12:12:56.920150",
      "2022-08-31T12:12:57.271760",
      "2022-08-31T12:12:57.581557",
      "2022-08-31T12:12:57.860926",
      "2022-08-31T12:12:58.103440",
      "2022-08-31T12:12:58.352906",
      "2022-08-31T12:12:58.581919",
      "2022-08-31T12:12:58.813980",
      "2022-08-31T12:12:59.044593",
      "2022-08-31T12:12:59.275161",
      "2022-08-31T12:12:59.519015",
      "2022-08-31T12:12:59.746790",
      "2022-08-31T12:12:59.975242",
      "2022-08-31T12:13:00.204199",
      "2022-08-31T12:13:00.432294",
      "2022-08-31T12:13:00.664895",
      "2022-08-31T12:13:00.895487",
      "2022-08-31T12:13:01.133225",
      "2022-08-31T12:13:01.386118",
      "2022-08-31T12:13:01.616654",
      "2022-08-31T12:13:01.891887",
      "2022-08-31T12:13:02.163399",
      "2022-08-31T12:13:02.420544",
      "2022-08-31T12:13:02.675399",
      "2022-08-31T12:13:02.921591",
      "2022-08-31T12:13:03.181979",
      "2022-08-31T12:13:03.425159",
      "2022-08-31T12:13:03.677953",
      "2022-08-31T12:13:03.920548",
      "2022-08-31T12:13:04.148563",
      "2022-08-31T12:13:04.386570",
      "2022-08-31T12:13:04.629191",
      "2022-08-31T12:13:04.864604",
      "2022-08-31T12:13:05.099674",
      "2022-08-31T12:13:05.341987",
      "2022-08-31T12:13:05.590205",
      "2022-08-31T12:13:05.820705",
      "2022-08-31T12:13:06.049075",
      "2022-08-31T12:13:06.284063",
      "2022-08-31T12:13:06.512661",
      "2022-08-31T12:13:06.743288",
      "2022-08-31T12:13:06.974112",
      "2022-08-31T12:13:07.206825",
      "2022-08-31T12:13:07.448585",
      "2022-08-31T12:13:07.676471",
      "2022-08-31T12:13:07.907099",
      "2022-08-31T12:13:08.135371",
      "2022-08-31T12:13:08.369075",
      "2022-08-31T12:13:08.601809",
      "2022-08-31T12:13:08.834837",
      "2022-08-31T12:13:09.064549",
      "2022-08-31T12:13:09.296264",
      "2022-08-31T12:13:09.525266",
      "2022-08-31T12:13:09.763381",
      "2022-08-31T12:13:09.992071",
      "2022-08-31T12:13:10.221917",
      "2022-08-31T12:13:10.450309",
      "2022-08-31T12:13:10.678446",
      "2022-08-31T12:13:10.913174",
      "2022-08-31T12:13:11.141207",
      "2022-08-31T12:13:11.370589",
      "2022-08-31T12:13:11.608232",
      "2022-08-31T12:13:11.838874",
      "2022-08-31T12:13:12.090178",
      "2022-08-31T12:13:12.320815",
      "2022-08-31T12:13:12.549343",
      "2022-08-31T12:13:12.778666",
      "2022-08-31T12:13:13.007478",
      "2022-08-31T12:13:13.240663",
      "2022-08-31T12:13:13.471278",
      "2022-08-31T12:13:13.700417",
      "2022-08-31T12:13:13.936244",
      "2022-08-31T12:13:14.165333",
      "2022-08-31T12:13:14.408962",
      "2022-08-31T12:13:14.644575",
      "2022-08-31T12:13:14.880910",
      "2022-08-31T12:13:15.112580",
      "2022-08-31T12:13:15.359440",
      "2022-08-31T12:13:15.606241",
      "2022-08-31T12:13:15.838625",
      "2022-08-31T12:13:16.066754",
      "2022-08-31T12:13:16.299041",
      "2022-08-31T12:13:16.537095",
      "2022-08-31T12:13:16.776099",
      "2022-08-31T12:13:17.017077",
      "2022-08-31T12:13:17.246329",
      "2022-08-31T12:13:17.476326",
      "2022-08-31T12:13:17.717122",
      "2022-08-31T12:13:17.952301",
      "2022-08-31T12:13:18.183349",
      "2022-08-31T12:13:18.416980",
      "2022-08-31T12:13:18.648297",
      "2022-08-31T12:13:18.880201",
      "2022-08-31T12:13:19.116873",
      "2022-08-31T12:13:19.348437",
      "2022-08-31T12:13:19.587815",
      "2022-08-31T12:13:19.820118",
      "2022-08-31T12:13:20.051050",
      "2022-08-31T12:13:20.287594",
      "2022-08-31T12:13:20.516185",
      "2022-08-31T12:13:20.745764",
      "2022-08-31T12:13:20.978822",
      "2022-08-31T12:13:21.208853",
      "2022-08-31T12:13:21.442641",
      "2022-08-31T12:13:21.677072",
      "2022-08-31T12:13:21.913904",
      "2022-08-31T12:13:22.152399",
      "2022-08-31T12:13:22.389385",
      "2022-08-31T12:13:22.626291",
      "2022-08-31T12:13:22.864990",
      "2022-08-31T12:13:23.096815",
      "2022-08-31T12:13:23.329797",
      "2022-08-31T12:13:23.572638",
      "2022-08-31T12:13:23.809678",
      "2022-08-31T12:13:24.041817",
      "2022-08-31T12:13:24.285138",
      "2022-08-31T12:13:24.530885",
      "2022-08-31T12:13:24.773392",
      "2022-08-31T12:13:25.017702",
      "2022-08-31T12:13:25.251721",
      "2022-08-31T12:13:25.499054",
      "2022-08-31T12:13:25.729535",
      "2022-08-31T12:13:25.957810",
      "2022-08-31T12:13:26.188389",
      "2022-08-31T12:13:26.419730",
      "2022-08-31T12:13:26.648482",
      "2022-08-31T12:13:26.878549",
      "2022-08-31T12:13:27.107385",
      "2022-08-31T12:13:27.344729",
      "2022-08-31T12:13:27.573063",
      "2022-08-31T12:13:27.802711",
      "2022-08-31T12:13:28.030890",
      "2022-08-31T12:13:28.260865",
      "2022-08-31T12:13:28.492837",
      "2022-08-31T12:13:28.722151",
      "2022-08-31T12:13:28.950388",
      "2022-08-31T12:13:29.178553",
      "2022-08-31T12:13:29.409346",
      "2022-08-31T12:13:29.640890",
      "2022-08-31T12:13:29.871225",
      "2022-08-31T12:13:30.100039",
      "2022-08-31T12:13:30.329549",
      "2022-08-31T12:13:30.560262",
      "2022-08-31T12:13:30.794120",
      "2022-08-31T12:13:31.027744",
      "2022-08-31T12:13:31.270302",
      "2022-08-31T12:13:31.503412",
      "2022-08-31T12:13:31.740412",
      "2022-08-31T12:13:31.976022",
      "2022-08-31T12:13:32.215714",
      "2022-08-31T12:13:32.471292",
      "2022-08-31T12:13:32.710952",
      "2022-08-31T12:13:32.948456",
      "2022-08-31T12:13:33.181246",
      "2022-08-31T12:13:33.414375",
      "2022-08-31T12:13:33.647477",
      "2022-08-31T12:13:33.876487",
      "2022-08-31T12:13:34.106876",
      "2022-08-31T12:13:34.342231",
      "2022-08-31T12:13:34.580380",
      "2022-08-31T12:13:34.815314",
      "2022-08-31T12:13:35.050950",
      "2022-08-31T12:13:35.285091",
      "2022-08-31T12:13:35.547246",
      "2022-08-31T12:13:35.780745",
      "2022-08-31T12:13:36.012055",
      "2022-08-31T12:13:36.245791",
      "2022-08-31T12:13:36.476368",
      "2022-08-31T12:13:36.712096",
      "2022-08-31T12:13:36.943377",
      "2022-08-31T12:13:37.174113",
      "2022-08-31T12:13:37.404261",
      "2022-08-31T12:13:37.632672",
      "2022-08-31T12:13:37.863896",
      "2022-08-31T12:13:38.093095",
      "2022-08-31T12:13:38.325950",
      "2022-08-31T12:13:38.554270",
      "2022-08-31T12:13:38.783609",
      "2022-08-31T12:13:39.020259",
      "2022-08-31T12:13:39.250707",
      "2022-08-31T12:13:39.484785",
      "2022-08-31T12:13:39.714749",
      "2022-08-31T12:13:39.944436",
      "2022-08-31T12:13:40.178345",
      "2022-08-31T12:13:40.411675",
      "2022-08-31T12:13:40.642579",
      "2022-08-31T12:13:40.899291",
      "2022-08-31T12:13:41.151563",
      "2022-08-31T12:13:41.396662",
      "2022-08-31T12:13:41.654212",
      "2022-08-31T12:13:41.923132",
      "2022-08-31T12:13:42.168150",
      "2022-08-31T12:13:42.399600",
      "2022-08-31T12:13:42.634181",
      "2022-08-31T12:13:42.866318",
      "2022-08-31T12:13:43.112880",
      "2022-08-31T12:13:43.347794",
      "2022-08-31T12:13:43.601196",
      "2022-08-31T12:13:43.840653",
      "2022-08-31T12:13:44.077499",
      "2022-08-31T12:13:44.327808",
      "2022-08-31T12:13:44.562343",
      "2022-08-31T12:13:44.804141",
      "2022-08-31T12:13:45.037368",
      "2022-08-31T12:13:45.274294",
      "2022-08-31T12:13:45.551378",
      "2022-08-31T12:13:45.818554",
      "2022-08-31T12:13:46.053029",
      "2022-08-31T12:13:46.306873",
      "2022-08-31T12:13:46.550874",
      "2022-08-31T12:13:46.796259",
      "2022-08-31T12:13:47.061091",
      "2022-08-31T12:13:47.315858",
      "2022-08-31T12:13:47.561861",
      "2022-08-31T12:13:47.800208",
      "2022-08-31T12:13:48.029889",
      "2022-08-31T12:13:48.258874",
      "2022-08-31T12:13:48.490462",
      "2022-08-31T12:13:48.725259",
      "2022-08-31T12:13:48.954100",
      "2022-08-31T12:13:49.182518",
      "2022-08-31T12:13:49.410920",
      "2022-08-31T12:13:49.639060",
      "2022-08-31T12:13:49.874468",
      "2022-08-31T12:13:50.107278",
      "2022-08-31T12:13:50.338375",
      "2022-08-31T12:13:50.568512",
      "2022-08-31T12:13:50.805122",
      "2022-08-31T12:13:51.076665",
      "2022-08-31T12:13:51.370924",
      "2022-08-31T12:13:51.624715",
      "2022-08-31T12:13:51.884681",
      "2022-08-31T12:13:52.134403",
      "2022-08-31T12:13:52.367582",
      "2022-08-31T12:13:52.595563",
      "2022-08-31T12:13:52.824121",
      "2022-08-31T12:13:53.052461",
      "2022-08-31T12:13:53.280607",
      "2022-08-31T12:13:53.540327",
      "2022-08-31T12:13:53.771498",
      "2022-08-31T12:13:54.003214",
      "2022-08-31T12:13:54.242384",
      "2022-08-31T12:13:54.520721",
      "2022-08-31T12:13:54.769393",
      "2022-08-31T12:13:55.010062",
      "2022-08-31T12:13:55.242408",
      "2022-08-31T12:13:55.471991",
      "2022-08-31T12:13:55.701662",
      "2022-08-31T12:13:55.942255",
      "2022-08-31T12:13:56.183861",
      "2022-08-31T12:13:56.431792",
      "2022-08-31T12:13:56.670275",
      "2022-08-31T12:13:56.906522",
      "2022-08-31T12:13:57.146905",
      "2022-08-31T12:13:57.404547",
      "2022-08-31T12:13:57.679762",
      "2022-08-31T12:13:57.968268",
      "2022-08-31T12:13:58.224785",
      "2022-08-31T12:13:58.477780",
      "2022-08-31T12:13:58.760028",
      "2022-08-31T12:13:58.997483",
      "2022-08-31T12:13:59.226766",
      "2022-08-31T12:13:59.456016",
      "2022-08-31T12:13:59.693083",
      "2022-08-31T12:13:59.924200",
      "2022-08-31T12:14:00.156616",
      "2022-08-31T12:14:00.387852",
      "2022-08-31T12:14:00.619513",
      "2022-08-31T12:14:00.857309",
      "2022-08-31T12:14:01.088679",
      "2022-08-31T12:14:01.319437",
      "2022-08-31T12:14:01.549643",
      "2022-08-31T12:14:01.788231",
      "2022-08-31T12:14:02.024420",
      "2022-08-31T12:14:02.257804",
      "2022-08-31T12:14:02.488901",
      "2022-08-31T12:14:02.722043",
      "2022-08-31T12:14:02.959467",
      "2022-08-31T12:14:03.198397",
      "2022-08-31T12:14:03.433734",
      "2022-08-31T12:14:03.667692",
      "2022-08-31T12:14:03.920138",
      "2022-08-31T12:14:04.153061",
      "2022-08-31T12:14:04.387283",
      "2022-08-31T12:14:04.618008",
      "2022-08-31T12:14:04.848828",
      "2022-08-31T12:14:05.079623",
      "2022-08-31T12:14:05.320490",
      "2022-08-31T12:14:05.572066",
      "2022-08-31T12:14:05.853387",
      "2022-08-31T12:14:06.116252",
      "2022-08-31T12:14:06.353536",
      "2022-08-31T12:14:06.596020",
      "2022-08-31T12:14:06.868056",
      "2022-08-31T12:14:07.131117",
      "2022-08-31T12:14:07.372509"
    ],
    "values": [
      15.019869452820664,
      13.076731408701068,
      12.061652081182531,
      11.62541491167564,
      11.407448619874943,
      11.286624448019895,
      11.201874687544995,
      11.108629848815495,
      11.064392376084802,
      11.02854694213043,
      10.982766802631076,
      10.971321281430983,
      10.917078911991934,
      10.89867571244883,
      10.869543935484547,
      10.858789410533342,
      10.81604154093984,
      10.818904679060115,
      10.788432503800427,
      10.755110305732774,
      10.738805663882935,
      10.725390862786396,
      10.69570874059214,
      10.704763660471192,
      10.65703131618188,
      10.634524093117093,
      10.621557244514547,
      10.601551748197796,
      10.560281269101136,
      10.561628464815549,
      10.531028059232003,
      10.528468617497635,
      10.514987485223951,
      10.473694985166476,
      10.473565372320138,
      10.463341370553177,
      10.445023654925189,
      10.45842287677732,
      10.429050288017145,
      10.409742500602656,
      10.407373139931288,
      10.391878970770822,
      10.39379535981268,
      10.370358515464504,
      10.351876337200379,
      10.346155441758397,
      10.346833799030955,
      10.33184588734486,
      10.322841046926953,
      10.31421937898897,
      10.292497167791398,
      10.287235105609135,
      10.286696066371315,
      10.273075624641303,
      10.262825454910026,
      10.260133737358528,
      10.261461059365129,
      10.243785433875344,
      10.242388956721456,
      10.260558589737993,
      10.241931945194597,
      10.232905456424739,
      10.229099287597688,
      10.222200740529766,
      10.208561752163739,
      10.212838671865223,
      10.202168349098052,
      10.18588636598754,
      10.184469466536951,
      10.182861931344021,
      10.165659807452895,
      10.178338102191391,
      10.16184348345172,
      10.166887788119725,
      10.15308876950722,
      10.155426031737369,
      10.159222470491335,
      10.129296630721482,
      10.13922272000831,
      10.138944125167047,
      10.133044249189798,
      10.11295035686314,
      10.126396839037728,
      10.118193927372587,
      10.115096316305712,
      10.108919556321924,
      10.118019972307192,
      10.096462334262274,
      10.10437598100328,
      10.09922273105135,
      10.102418994037507,
      10.100113067186806,
      10.103900221727326,
      10.076524542081822,
      10.082742870401624,
      10.092004346723066,
      10.06657178272162,
      10.078357452264292,
      10.062581132369809,
      10.069412255920433,
      10.075179794250793,
      10.055303620004915,
      10.061239068799688,
      10.06762876199791,
      10.055934041680803,
      10.055937707852259,
      10.052098962103582,
      10.03238945755562,
      10.053447122389999,
      10.051588157989347,
      10.04051156324659,
      10.027625369666238,
      10.034050161716184,
      10.025698362452584,
      10.027166146915398,
      10.034200417903168,
      10.032421486880535,
      10.030635839106173,
      10.03589309607179,
      10.028388506826134,
      10.019940478016514,
      10.03598356251458,
      10.018942942134505,
      10.024868438723686,
      10.016105872261393,
      10.020004169586462,
      10.021466630573633,
      10.012174305365642,
      10.024096421807174,
      10.01231825546331,
      10.006497161583054,
      9.994749670580925,
      9.994726617114166,
      10.003397938574292,
      9.999025871657151,
      10.002282222767606,
      10.005131582495947,
      10.004503428424712,
      10.021305792609143,
      10.017626685845295,
      10.009246897975721,
      9.993681750106298,
      9.991297747824866,
      10.000163448907003,
      9.999464354134918,
      9.998468750935878,
      10.001536995781782,
      9.997234911031217,
      9.987475383429121,
      9.9840221960711,
      9.99038691851172,
      9.987958450610737,
      9.989830126132198,
      9.989297111610227,
      9.992869872399261,
      9.987525918993809,
      9.978157898174164,
      9.984122859459525,
      9.995157024401804,
      9.989558432444785,
      9.990629981228464,
      9.976230076159078,
      9.998238162821725,
      9.987886472467748,
      9.973821384911549,
      9.965751548264421,
      10.014948908812233,
      9.98893024299334,
      9.97025860996296,
      9.971410092132691,
      9.978019796908834,
      9.98441506385975,
      9.970736652458237,
      9.997954446333766,
      9.953998260213126,
      9.957354621311644,
      9.969675867142673,
      9.963281949272789,
      9.984917483762679,
      9.971132361750726,
      9.974435887167928,
      9.963063477881988,
      9.953103563747552,
      9.963775366983825,
      9.96429261110672,
      9.948422870388848,
      9.963056323801517,
      9.967464524528054,
      9.97748576412646,
      9.964020766017649,
      9.953694127257345,
      9.972816128363757,
      9.955582692556947,
      9.936027632063471,
      9.96289035095014,
      9.956229766956026,
      9.952282233182896,
      9.952232678216147,
      9.96718226878732,
      9.955885926421306,
      9.9674119085563,
      9.955901840245108,
      9.959821568375476,
      9.955785292713818,
      9.95176217545538,
      9.941850722631742,
      9.952233669437147,
      9.963103483440033,
      9.953848161479366,
      9.96032831168726,
      9.95395624963702,
      9.951682428256547,
      9.965141845429821,
      9.946398768888962,
      9.953303488111914,
      9.897698715768716,
      9.878328771338317,
      9.869246200645803,
      9.86081742681052,
      9.85730705339985,
      9.860318409292683,
      9.864759927652798,
      9.864433049651206,
      9.865938751715015,
      9.86730169057744,
      9.859048747541626,
      9.862671034587107,
      9.87304556811898,
      9.86825515719018,
      9.859829975428829,
      9.8571004279654,
      9.861975168270584,
      9.855510156726954,
      9.857468769434153,
      9.858118405687584,
      9.850144717095006,
      9.858311689924154,
      9.860131568129065,
      9.853327586235247,
      9.857082685434627,
      9.862730515261736,
      9.866522410693157,
      9.859067200988694,
      9.852782208212288,
      9.867913818882776,
      9.856605013159543,
      9.855494353802952,
      9.856567671509707,
      9.85570280485431,
      9.854456212870012,
      9.853950738550742,
      9.857040404632547,
      9.851364389848085,
      9.855316660903343,
      9.85187183503992,
      9.84605030684951,
      9.858137163782713,
      9.857341002609791,
      9.855714434457278,
      9.850220614309897,
      9.854909054808065,
      9.851722096851288,
      9.852493718054646,
      9.852388832678589,
      9.856326545358082,
      9.86147586844089,
      9.852898486209796,
      9.859750422570803,
      9.850090775519709,
      9.853406113315481,
      9.867031187607497,
      9.855429385728922,
      9.859067567081905,
      9.846606756672033,
      9.84876234774652,
      9.856674655502724,
      9.861674551752552,
      9.853802448644654,
      9.845962709892307,
      9.841490545641504,
      9.838286436880276,
      9.845364104532633,
      9.845625552994695,
      9.845815009076775,
      9.84497728726962,
      9.840142698642774,
      9.847460586374348,
      9.847703419228628,
      9.844834554737522,
      9.847157940690591,
      9.841710140611356,
      9.843267013716584,
      9.842441389587547,
      9.847964718738309,
      9.851714869264578,
      9.843005192827993,
      9.835925146851258,
      9.842367367137054,
      9.846953589895982,
      9.842442260271175
    ]
  },
  "val": {
    "steps": [
      0,
      1,
      2,
      3,
      4,
      5,
      6,
      7,
      8,
      9,
      10,
      11,
      12,
      13,
      14,
      15,
      16,
      17,
      18,
      19,
      20,
      21,
      22,
      23,
      24,
      25,
      26,
      27,
      28,
      29,
      30,
      31,
      32,
      33,
      34,
      35,
      36,
      37,
      38,
      39,
      40,
      41,
      42,
      43,
      44,
      45,
      46,
      47,
      48,
      49,
      50,
      51,
      52,
      53,
      54,
      55,
      56,
      57,
      58,
      59,
      60,
      61,
      62,
      63,
      64,
      65,
      66,
      67,
      68,
      69,
      70,
      71,
      72,
      73,
      74,
      75,
      76,
      77,
      78,
      79,
      80,
      81,
      82,
      83,
      84,
      85,
      86,
      87,
      88,
      89,
      90,
      91,
      92,
      93,
      94,
      95,
      96,
      97,
      98,
      99,
      100,
      101,
      102,
      103,
      104,
      105,
      106,
      107,
      108,
      109,
      110,
      111,
      112,
      113,
      114,
      115,
      116,
      117,
      118,
      119,
      120,
      121,
      122,
      123,
      124,
      125,
      126,
      127,
      128,
      129,
      130,
      131,
      132,
      133,
      134,
      135,
      136,
      137,
      138,
      139,
      140,
      141,
      142,
      143,
      144,
      145,
      146,
      147,
      148,
      149,
      150,
      151,
      152,
      153,
      154,
      155,
      156,
      157,
      158,
      159,
      160,
      161,
      162,
      163,
      164,
      165,
      166,
      167,
      168,
      169,
      170,
      171,
      172,
      173,
      174,
      175,
      176,
      177,
      178,
      179,
      180,
      181,
      182,
      183,
      184,
      185,
      186,
      187,
      188,
      189,
      190,
      191,
      192,
      193,
      194,
      195,
      196,
      197,
      198,
      199,
      200,
      201,
      202,
      203,
      204,
      205,
      206,
      207,
      208,
      209,
      210,
      211,
      212,
      213,
      214,
      215,
      216,
      217,
      218,
      219,
      220,
      221,
      222,
      223,
      224,
      225,
      226,
      227,
      228,
      229,
      230,
      231,
      232,
      233,
      234,
      235,
      236,
      237,
      238,
      239,
      240,
      241,
      242,
      243,
      244,
      245,
      246,
      247,
      248,
      249,
      250,
      251,
      252,
      253,
      254,
      255,
      256,
      257,
      258,
      259,
      260,
      261,
      262,
      263,
      264,
      265,
      266,
      267,
      268,
      269,
      270,
      271,
      272,
      273,
      274,
      275,
      276,
      277,
      278,
      279,
      280,
      281,
      282,
      283,
      284,
      285,
      286,
      287,
      288,
      289,
      290,
      291,
      292,
      293,
      294,
      295,
      296,
      297,
      298,
      299
    ],
    "timestamps": [
      "2022-08-31T12:12:55.611169",
      "2022-08-31T12:12:55.891207",
      "2022-08-31T12:12:56.204604",
      "2022-08-31T12:12:56.614583",
      "2022-08-31T12:12:56.968932",
      "2022-08-31T12:12:57.315880",
      "2022-08-31T12:12:57.628014",
      "2022-08-31T12:12:57.900603",
      "2022-08-31T12:12:58.142119",
      "2022-08-31T12:12:58.391059",
      "2022-08-31T12:12:58.620313",
      "2022-08-31T12:12:58.852103",
      "2022-08-31T12:12:59.082709",
      "2022-08-31T12:12:59.313279",
      "2022-08-31T12:12:59.557097",
      "2022-08-31T12:12:59.785026",
      "2022-08-31T12:13:00.014125",
      "2022-08-31T12:13:00.242189",
      "2022-08-31T12:13:00.470422",
      "2022-08-31T12:13:00.703003",
      "2022-08-31T12:13:00.933672",
      "2022-08-31T12:13:01.174860",
      "2022-08-31T12:13:01.424530",
      "2022-08-31T12:13:01.658346",
      "2022-08-31T12:13:01.937451",
      "2022-08-31T12:13:02.207173",
      "2022-08-31T12:13:02.463568",
      "2022-08-31T12:13:02.717599",
      "2022-08-31T12:13:02.964078",
      "2022-08-31T12:13:03.222366",
      "2022-08-31T12:13:03.463254",
      "2022-08-31T12:13:03.718287",
      "2022-08-31T12:13:03.958579",
      "2022-08-31T12:13:04.186791",
      "2022-08-31T12:13:04.430156",
      "2022-08-31T12:13:04.670304",
      "2022-08-31T12:13:04.903103",
      "2022-08-31T12:13:05.139165",
      "2022-08-31T12:13:05.396236",
      "2022-08-31T12:13:05.628616",
      "2022-08-31T12:13:05.858898",
      "2022-08-31T12:13:06.087208",
      "2022-08-31T12:13:06.322486",
      "2022-08-31T12:13:06.550981",
      "2022-08-31T12:13:06.781564",
      "2022-08-31T12:13:07.012766",
      "2022-08-31T12:13:07.246749",
      "2022-08-31T12:13:07.487375",
      "2022-08-31T12:13:07.716214",
      "2022-08-31T12:13:07.945189",
      "2022-08-31T12:13:08.173570",
      "2022-08-31T12:13:08.408048",
      "2022-08-31T12:13:08.640162",
      "2022-08-31T12:13:08.873012",
      "2022-08-31T12:13:09.102811",
      "2022-08-31T12:13:09.334994",
      "2022-08-31T12:13:09.563424",
      "2022-08-31T12:13:09.801504",
      "2022-08-31T12:13:10.030112",
      "2022-08-31T12:13:10.260207",
      "2022-08-31T12:13:10.488420",
      "2022-08-31T12:13:10.718897",
      "2022-08-31T12:13:10.951314",
      "2022-08-31T12:13:11.179288",
      "2022-08-31T12:13:11.408919",
      "2022-08-31T12:13:11.647029",
      "2022-08-31T12:13:11.877070",
      "2022-08-31T12:13:12.128231",
      "2022-08-31T12:13:12.358945",
      "2022-08-31T12:13:12.587412",
      "2022-08-31T12:13:12.816789",
      "2022-08-31T12:13:13.045565",
      "2022-08-31T12:13:13.280848",
      "2022-08-31T12:13:13.509400",
      "2022-08-31T12:13:13.740499",
      "2022-08-31T12:13:13.975343",
      "2022-08-31T12:13:14.204407",
      "2022-08-31T12:13:14.449520",
      "2022-08-31T12:13:14.686357",
      "2022-08-31T12:13:14.919554",
      "2022-08-31T12:13:15.150904",
      "2022-08-31T12:13:15.405833",
      "2022-08-31T12:13:15.644806",
      "2022-08-31T12:13:15.876908",
      "2022-08-31T12:13:16.106009",
      "2022-08-31T12:13:16.337729",
      "2022-08-31T12:13:16.575239",
      "2022-08-31T12:13:16.814382",
      "2022-08-31T12:13:17.055439",
      "2022-08-31T12:13:17.284587",
      "2022-08-31T12:13:17.514486",
      "2022-08-31T12:13:17.755666",
      "2022-08-31T12:13:17.990768",
      "2022-08-31T12:13:18.223727",
      "2022-08-31T12:13:18.455300",
      "2022-08-31T12:13:18.686617",
      "2022-08-31T12:13:18.918686",
      "2022-08-31T12:13:19.155134",
      "2022-08-31T12:13:19.387160",
      "2022-08-31T12:13:19.626216",
      "2022-08-31T12:13:19.858494",
      "2022-08-31T12:13:20.089253",
      "2022-08-31T12:13:20.326018",
      "2022-08-31T12:13:20.554398",
      "2022-08-31T12:13:20.784114",
      "2022-08-31T12:13:21.018105",
      "2022-08-31T12:13:21.248472",
      "2022-08-31T12:13:21.480886",
      "2022-08-31T12:13:21.717964",
      "2022-08-31T12:13:21.952359",
      "2022-08-31T12:13:22.190603",
      "2022-08-31T12:13:22.428376",
      "2022-08-31T12:13:22.665134",
      "2022-08-31T12:13:22.903113",
      "2022-08-31T12:13:23.135002",
      "2022-08-31T12:13:23.368143",
      "2022-08-31T12:13:23.611043",
      "2022-08-31T12:13:23.847933",
      "2022-08-31T12:13:24.080079",
      "2022-08-31T12:13:24.324066",
      "2022-08-31T12:13:24.573000",
      "2022-08-31T12:13:24.817784",
      "2022-08-31T12:13:25.056937",
      "2022-08-31T12:13:25.290124",
      "2022-08-31T12:13:25.537170",
      "2022-08-31T12:13:25.767760",
      "2022-08-31T12:13:25.995996",
      "2022-08-31T12:13:26.228573",
      "2022-08-31T12:13:26.457952",
      "2022-08-31T12:13:26.686685",
      "2022-08-31T12:13:26.916857",
      "2022-08-31T12:13:27.145855",
      "2022-08-31T12:13:27.382800",
      "2022-08-31T12:13:27.611133",
      "2022-08-31T12:13:27.840872",
      "2022-08-31T12:13:28.069082",
      "2022-08-31T12:13:28.299088",
      "2022-08-31T12:13:28.530987",
      "2022-08-31T12:13:28.760737",
      "2022-08-31T12:13:28.988583",
      "2022-08-31T12:13:29.218567",
      "2022-08-31T12:13:29.447475",
      "2022-08-31T12:13:29.679144",
      "2022-08-31T12:13:29.909513",
      "2022-08-31T12:13:30.138223",
      "2022-08-31T12:13:30.367771",
      "2022-08-31T12:13:30.598662",
      "2022-08-31T12:13:30.832704",
      "2022-08-31T12:13:31.066046",
      "2022-08-31T12:13:31.309711",
      "2022-08-31T12:13:31.541742",
      "2022-08-31T12:13:31.779331",
      "2022-08-31T12:13:32.015754",
      "2022-08-31T12:13:32.254388",
      "2022-08-31T12:13:32.510008",
      "2022-08-31T12:13:32.750114",
      "2022-08-31T12:13:32.986834",
      "2022-08-31T12:13:33.220954",
      "2022-08-31T12:13:33.453424",
      "2022-08-31T12:13:33.685739",
      "2022-08-31T12:13:33.914759",
      "2022-08-31T12:13:34.145092",
      "2022-08-31T12:13:34.384489",
      "2022-08-31T12:13:34.619458",
      "2022-08-31T12:13:34.853661",
      "2022-08-31T12:13:35.090220",
      "2022-08-31T12:13:35.324331",
      "2022-08-31T12:13:35.587368",
      "2022-08-31T12:13:35.819048",
      "2022-08-31T12:13:36.050412",
      "2022-08-31T12:13:36.284692",
      "2022-08-31T12:13:36.515410",
      "2022-08-31T12:13:36.751112",
      "2022-08-31T12:13:36.982982",
      "2022-08-31T12:13:37.213294",
      "2022-08-31T12:13:37.442480",
      "2022-08-31T12:13:37.670889",
      "2022-08-31T12:13:37.902070",
      "2022-08-31T12:13:38.131158",
      "2022-08-31T12:13:38.364100",
      "2022-08-31T12:13:38.592564",
      "2022-08-31T12:13:38.821867",
      "2022-08-31T12:13:39.058483",
      "2022-08-31T12:13:39.293851",
      "2022-08-31T12:13:39.523092",
      "2022-08-31T12:13:39.753793",
      "2022-08-31T12:13:39.982663",
      "2022-08-31T12:13:40.218087",
      "2022-08-31T12:13:40.450458",
      "2022-08-31T12:13:40.680916",
      "2022-08-31T12:13:40.945647",
      "2022-08-31T12:13:41.193263",
      "2022-08-31T12:13:41.438718",
      "2022-08-31T12:13:41.702896",
      "2022-08-31T12:13:41.967472",
      "2022-08-31T12:13:42.207073",
      "2022-08-31T12:13:42.438266",
      "2022-08-31T12:13:42.672765",
      "2022-08-31T12:13:42.908078",
      "2022-08-31T12:13:43.151135",
      "2022-08-31T12:13:43.386111",
      "2022-08-31T12:13:43.640124",
      "2022-08-31T12:13:43.882348",
      "2022-08-31T12:13:44.115806",
      "2022-08-31T12:13:44.366475",
      "2022-08-31T12:13:44.606025",
      "2022-08-31T12:13:44.843092",
      "2022-08-31T12:13:45.075614",
      "2022-08-31T12:13:45.314173",
      "2022-08-31T12:13:45.600722",
      "2022-08-31T12:13:45.858644",
      "2022-08-31T12:13:46.092969",
      "2022-08-31T12:13:46.345278",
      "2022-08-31T12:13:46.589535",
      "2022-08-31T12:13:46.839511",
      "2022-08-31T12:13:47.103943",
      "2022-08-31T12:13:47.359041",
      "2022-08-31T12:13:47.600134",
      "2022-08-31T12:13:47.838456",
      "2022-08-31T12:13:48.068093",
      "2022-08-31T12:13:48.296930",
      "2022-08-31T12:13:48.528702",
      "2022-08-31T12:13:48.763497",
      "2022-08-31T12:13:48.992327",
      "2022-08-31T12:13:49.220779",
      "2022-08-31T12:13:49.449047",
      "2022-08-31T12:13:49.677320",
      "2022-08-31T12:13:49.913310",
      "2022-08-31T12:13:50.145603",
      "2022-08-31T12:13:50.376959",
      "2022-08-31T12:13:50.606786",
      "2022-08-31T12:13:50.847592",
      "2022-08-31T12:13:51.118708",
      "2022-08-31T12:13:51.411864",
      "2022-08-31T12:13:51.666164",
      "2022-08-31T12:13:51.925247",
      "2022-08-31T12:13:52.172596",
      "2022-08-31T12:13:52.405817",
      "2022-08-31T12:13:52.634025",
      "2022-08-31T12:13:52.862218",
      "2022-08-31T12:13:53.090509",
      "2022-08-31T12:13:53.322244",
      "2022-08-31T12:13:53.578758",
      "2022-08-31T12:13:53.809844",
      "2022-08-31T12:13:54.042937",
      "2022-08-31T12:13:54.285680",
      "2022-08-31T12:13:54.561522",
      "2022-08-31T12:13:54.808981",
      "2022-08-31T12:13:55.049027",
      "2022-08-31T12:13:55.281204",
      "2022-08-31T12:13:55.510188",
      "2022-08-31T12:13:55.739859",
      "2022-08-31T12:13:55.982965",
      "2022-08-31T12:13:56.225529",
      "2022-08-31T12:13:56.473191",
      "2022-08-31T12:13:56.708633",
      "2022-08-31T12:13:56.947046",
      "2022-08-31T12:13:57.185270",
      "2022-08-31T12:13:57.445500",
      "2022-08-31T12:13:57.733737",
      "2022-08-31T12:13:58.011674",
      "2022-08-31T12:13:58.267891",
      "2022-08-31T12:13:58.520450",
      "2022-08-31T12:13:58.801121",
      "2022-08-31T12:13:59.035809",
      "2022-08-31T12:13:59.265084",
      "2022-08-31T12:13:59.494299",
      "2022-08-31T12:13:59.731924",
      "2022-08-31T12:13:59.962983",
      "2022-08-31T12:14:00.194927",
      "2022-08-31T12:14:00.426045",
      "2022-08-31T12:14:00.657810",
      "2022-08-31T12:14:00.895676",
      "2022-08-31T12:14:01.126996",
      "2022-08-31T12:14:01.357693",
      "2022-08-31T12:14:01.589468",
      "2022-08-31T12:14:01.826896",
      "2022-08-31T12:14:02.064104",
      "2022-08-31T12:14:02.295958",
      "2022-08-31T12:14:02.527140",
      "2022-08-31T12:14:02.760683",
      "2022-08-31T12:14:02.998104",
      "2022-08-31T12:14:03.237334",
      "2022-08-31T12:14:03.472655",
      "2022-08-31T12:14:03.707292",
      "2022-08-31T12:14:03.960380",
      "2022-08-31T12:14:04.191249",
      "2022-08-31T12:14:04.425516",
      "2022-08-31T12:14:04.656466",
      "2022-08-31T12:14:04.887035",
      "2022-08-31T12:14:05.117949",
      "2022-08-31T12:14:05.359563",
      "2022-08-31T12:14:05.617424",
      "2022-08-31T12:14:05.896499",
      "2022-08-31T12:14:06.159375",
      "2022-08-31T12:14:06.392015",
      "2022-08-31T12:14:06.634744",
      "2022-08-31T12:14:06.912923",
      "2022-08-31T12:14:07.169616",
      "2022-08-31T12:14:07.413739"
    ],
    "values": [
      13.774771485595634,
      12.374320103250238,
      11.664820888794795,
      11.405429585053687,
      11.249243360124987,
      11.162130502276039,
      11.147771715464376,
      11.017103784936872,
      10.970684903423273,
      10.940333266035447,
      10.892399443860345,
      10.893388312138729,
      10.83932374715482,
      10.821145965668869,
      10.792265294701815,
      10.77317013882322,
      10.743335633285273,
      10.733487532176072,
      10.676761555462495,
      10.776764934265964,
      10.662529432024263,
      10.658544125935205,
      10.648193875579214,
      10.587990100066913,
      10.608229375332066,
      10.563402319326297,
      10.529597115540717,
      10.514686664884264,
      10.521895095357511,
      10.487927527494875,
      10.563303798561686,
      10.453276261986005,
      10.397960176546219,
      10.432281029265411,
      10.365120172443302,
      10.394980488449434,
      10.416452599301488,
      10.35112281841385,
      10.337396850766288,
      10.363671837444537,
      10.322434486921143,
      10.310693024199816,
      10.32001931837348,
      10.28258565550394,
      10.2737447405973,
      10.264356770598129,
      10.268306186139633,
      10.251245659875378,
      10.250935720202158,
      10.288110773888468,
      10.246163068699293,
      10.22994638477425,
      10.213147564415358,
      10.200993976166153,
      10.195391509423548,
      10.179703848423886,
      10.180919705625595,
      10.178747166930389,
      10.160698783280328,
      10.144901032631653,
      10.144258558673306,
      10.144389856281677,
      10.142634891671003,
      10.121214835533864,
      10.146896022490038,
      10.150661142742143,
      10.149583693853415,
      10.118435137715286,
      10.15649512345505,
      10.124969365285814,
      10.114751015813939,
      10.086132787731046,
      10.102176457471721,
      10.148899567179148,
      10.09137896204814,
      10.06696201258501,
      10.0810867517739,
      10.051733900283018,
      10.096565826874661,
      10.062792160613917,
      10.06724834798862,
      10.08888696671052,
      10.046930796386984,
      10.047515741666585,
      10.06130905440299,
      10.04613615712733,
      10.020741573178533,
      10.059294001534399,
      10.045164867387363,
      10.036222914899396,
      10.03470792820116,
      10.05967368662963,
      10.04283691030186,
      10.014648697395097,
      9.998056561331758,
      9.999136308177496,
      10.005146087390312,
      9.997797117313372,
      10.011459175819711,
      10.023849279596694,
      9.985540887639138,
      9.979118148683943,
      10.01814871437471,
      10.004640992693972,
      10.010187416894492,
      9.986073036413417,
      9.998642770969628,
      9.983835891119373,
      9.992017865986604,
      9.974662212116362,
      9.997315252171934,
      9.992611820290861,
      9.977463028871993,
      9.965651644974004,
      9.992391332641668,
      9.954752384680042,
      9.957226380945299,
      9.94810714194321,
      9.944581593216645,
      9.983658268228165,
      9.95487416444602,
      9.947244482391906,
      9.931835038519118,
      9.956738249286529,
      9.953926195868087,
      9.983266060675263,
      9.957434994014317,
      9.945090390718315,
      9.969661601198816,
      9.94982782943491,
      9.938185443503606,
      9.955144320818116,
      9.933537476046673,
      9.939602573316636,
      9.910381583433988,
      9.940774962563033,
      9.932287339264647,
      9.933350042266213,
      10.09492373045232,
      9.942104991082672,
      9.967617980265928,
      9.942034923837914,
      9.941920395616249,
      9.93783216033844,
      9.966665293692198,
      9.917150899563044,
      9.94963203334729,
      9.930415849273814,
      9.900627123325307,
      9.917898801979431,
      9.914616349448243,
      9.915342719640542,
      9.913519334813792,
      9.95467365542871,
      9.927328587341048,
      9.902619921475477,
      9.926051941403978,
      9.942352733009669,
      9.935373977633562,
      9.922685540649997,
      9.902496228484864,
      9.948547423882065,
      9.93815841472473,
      9.899103320008747,
      9.921735127192637,
      9.940095541375118,
      9.908448305741171,
      9.90806987455166,
      9.903499098042863,
      9.921945545823583,
      9.884761863342794,
      9.96391153958756,
      9.895944788785757,
      9.89802010074498,
      9.890120283630294,
      9.92416201139133,
      9.894360690867568,
      9.932219778376696,
      9.926196799992397,
      9.92014215276503,
      9.900258882995223,
      9.889002300617404,
      9.893283577780137,
      9.864022081784517,
      9.927631595777214,
      9.93843627632146,
      9.961802897718904,
      9.92333591195145,
      9.898131784770772,
      9.921659941811168,
      9.917051018967443,
      9.93018394718397,
      9.8818470745485,
      9.894489790534951,
      9.919036118306165,
      9.925227545561077,
      9.890781899634256,
      9.892648977217636,
      9.905660461856227,
      9.88696805642144,
      9.886602132515467,
      9.886587141371406,
      9.90069487747241,
      9.894872681090584,
      9.875659485052456,
      9.917755160712105,
      9.875622772716754,
      9.929761735497552,
      9.87170860155475,
      9.891518715815273,
      9.891108121933186,
      9.889337700778773,
      9.879240445371435,
      9.908369462736003,
      9.947448684974557,
      9.836951926046833,
      9.8286584093507,
      9.808942654348972,
      9.821774494508492,
      9.809544282400466,
      9.814318300539773,
      9.813279242422507,
      9.82048349726086,
      9.817358666069946,
      9.824687410235395,
      9.820507786659,
      9.809329228817987,
      9.814668823819453,
      9.806443126792283,
      9.835970110463442,
      9.814558357282898,
      9.805047111486134,
      9.814472156076214,
      9.815890754084105,
      9.812595240361732,
      9.822481264172627,
      9.816987670281897,
      9.815627618860567,
      9.806891277106525,
      9.817516806782356,
      9.82410903812821,
      9.820671059321198,
      9.816577135037413,
      9.819409673706694,
      9.82427417586518,
      9.812467306244702,
      9.811906658611058,
      9.801581274995083,
      9.813466687192594,
      9.81406023802512,
      9.811213014857495,
      9.80813613043429,
      9.805483951563511,
      9.812047923361586,
      9.807707042126143,
      9.81941893302044,
      9.808694980250722,
      9.811715598834901,
      9.818350023735022,
      9.81348076569713,
      9.809418407579413,
      9.813555009875984,
      9.814985874388865,
      9.797839986846991,
      9.817751876785193,
      9.82121966004055,
      9.805478089439234,
      9.799234070792707,
      9.793290003089874,
      9.794957304164905,
      9.810229481635496,
      9.811621887923426,
      9.80473767227508,
      9.808732867809898,
      9.810601600943714,
      9.798639129597335,
      9.813124406999368,
      9.821199089058124,
      9.814128475547381,
      9.801970202383238,
      9.800182411807826,
      9.804951853234467,
      9.80092791251348,
      9.795535120476416,
      9.799706719991013,
      9.804807766322131,
      9.808679572329071,
      9.801212714665473,
      9.807001009702542,
      9.809419431788632,
      9.799281284381122,
      9.807047205721792,
      9.804350763980814,
      9.813891870346508,
      9.799773287479418,
      9.801223376269144,
      9.797579898543475,
      9.812959289750237,
      9.799138173002584,
      9.802904386401737
    ]
  }
}