{
  "test": {
    "steps": [
      0
    ],
    "timestamps": [
      "2022-07-08T18:48:16.551476"
    ],
    "values": [
      8.692390708005753
    ]
  },
  "train": {
    "steps": [
      0,
      1,
      2,
      3,
      4,
      5,
      6,
      7,
      8,
      9,
      10,
      11,
      12,
      13,
      14,
      15,
      16,
      17,
      18,
      19,
      20,
      21,
      22,
      23,
      24,
      25,
      26,
      27,
      28,
      29,
      30,
      31,
      32,
      33,
      34,
      35,
      36,
      37,
      38,
      39,
      40,
      41,
      42,
      43,
      44,
      45,
      46,
      47,
      48,
      49,
      50,
      51,
      52,
      53,
      54,
      55,
      56,
      57,
      58,
      59,
      60,
      61,
      62,
      63,
      64,
      65,
      66,
      67,
      68,
      69,
      70,
      71,
      72,
      73,
      74,
      75,
      76,
      77,
      78,
      79,
      80,
      81,
      82,
      83,
      84,
      85,
      86,
      87,
      88,
      89,
      90,
      91,
      92,
      93,
      94,
      95,
      96,
      97,
      98,
      99,
      100,
      101,
      102,
      103,
      104,
      105,
      106,
      107,
      108,
      109,
      110,
      111,
      112,
      113,
      114,
      115,
      116,
      117,
      118,
      119,
      120,
      121,
      122,
      123,
      124,
      125,
      126,
      127,
      128,
      129,
      130,
      131,
      132,
      133,
      134,
      135,
      136,
      137,
      138,
      139,
      140,
      141,
      142,
      143,
      144,
      145,
      146,
      147,
      148,
      149,
      150,
      151,
      152,
      153,
      154,
      155,
      156,
      157,
      158,
      159,
      160,
      161,
      162,
      163,
      164,
      165,
      166,
      167,
      168,
      169,
      170,
      171,
      172,
      173,
      174,
      175,
      176,
      177,
      178,
      179,
      180,
      181,
      182,
      183,
      184,
      185,
      186,
      187,
      188,
      189,
      190,
      191,
      192,
      193,
      194,
      195,
      196,
      197,
      198,
      199,
      200,
      201,
      202,
      203,
      204,
      205,
      206,
      207,
      208,
      209,
      210,
      211,
      212,
      213,
      214,
      215,
      216,
      217,
      218,
      219,
      220,
      221,
      222,
      223,
      224,
      225,
      226,
      227,
      228,
      229,
      230,
      231,
      232,
      233,
      234,
      235,
      236,
      237,
      238,
      239,
      240,
      241,
      242,
      243,
      244,
      245,
      246,
      247,
      248,
      249,
      250,
      251,
      252,
      253,
      254,
      255,
      256,
      257,
      258,
      259,
      260,
      261,
      262,
      263,
      264,
      265,
      266,
      267,
      268,
      269,
      270,
      271,
      272,
      273,
      274,
      275,
      276,
      277,
      278,
      279,
      280,
      281,
      282,
      283,
      284,
      285,
      286,
      287,
      288,
      289,
      290,
      291,
      292,
      293,
      294,
      295,
      296,
      297,
      298,
      299
    ],
    "timestamps": [
      "2022-07-08T18:39:27.544297",
      "2022-07-08T18:39:30.527708",
      "2022-07-08T18:39:32.428227",
      "2022-07-08T18:39:34.254049",
      "2022-07-08T18:39:36.136414",
      "2022-07-08T18:39:38.024507",
      "2022-07-08T18:39:39.883900",
      "2022-07-08T18:39:41.706613",
      "2022-07-08T18:39:43.609214",
      "2022-07-08T18:39:45.485054",
      "2022-07-08T18:39:47.726838",
      "2022-07-08T18:39:49.403962",
      "2022-07-08T18:39:51.088019",
      "2022-07-08T18:39:52.785701",
      "2022-07-08T18:39:54.568726",
      "2022-07-08T18:39:56.371289",
      "2022-07-08T18:39:58.214016",
      "2022-07-08T18:40:00.017544",
      "2022-07-08T18:40:01.797592",
      "2022-07-08T18:40:03.543006",
      "2022-07-08T18:40:05.302569",
      "2022-07-08T18:40:07.274389",
      "2022-07-08T18:40:08.986222",
      "2022-07-08T18:40:10.670241",
      "2022-07-08T18:40:12.349333",
      "2022-07-08T18:40:14.028713",
      "2022-07-08T18:40:15.824721",
      "2022-07-08T18:40:17.633824",
      "2022-07-08T18:40:19.405604",
      "2022-07-08T18:40:21.103767",
      "2022-07-08T18:40:22.784551",
      "2022-07-08T18:40:24.524312",
      "2022-07-08T18:40:26.435030",
      "2022-07-08T18:40:28.177917",
      "2022-07-08T18:40:29.848773",
      "2022-07-08T18:40:31.527015",
      "2022-07-08T18:40:33.242727",
      "2022-07-08T18:40:34.986138",
      "2022-07-08T18:40:36.806961",
      "2022-07-08T18:40:38.517760",
      "2022-07-08T18:40:40.191459",
      "2022-07-08T18:40:42.030289",
      "2022-07-08T18:40:43.709832",
      "2022-07-08T18:40:45.524392",
      "2022-07-08T18:40:47.354840",
      "2022-07-08T18:40:49.046837",
      "2022-07-08T18:40:50.729874",
      "2022-07-08T18:40:52.424456",
      "2022-07-08T18:40:54.120541",
      "2022-07-08T18:40:55.902372",
      "2022-07-08T18:40:57.677814",
      "2022-07-08T18:40:59.379644",
      "2022-07-08T18:41:01.071245",
      "2022-07-08T18:41:02.755850",
      "2022-07-08T18:41:04.448066",
      "2022-07-08T18:41:06.425322",
      "2022-07-08T18:41:08.119611",
      "2022-07-08T18:41:09.799912",
      "2022-07-08T18:41:11.486205",
      "2022-07-08T18:41:13.241967",
      "2022-07-08T18:41:14.959846",
      "2022-07-08T18:41:16.817274",
      "2022-07-08T18:41:18.516734",
      "2022-07-08T18:41:20.216507",
      "2022-07-08T18:41:21.935396",
      "2022-07-08T18:41:23.655868",
      "2022-07-08T18:41:25.451070",
      "2022-07-08T18:41:27.347277",
      "2022-07-08T18:41:29.027472",
      "2022-07-08T18:41:30.705665",
      "2022-07-08T18:41:32.373172",
      "2022-07-08T18:41:34.058493",
      "2022-07-08T18:41:36.059884",
      "2022-07-08T18:41:38.075054",
      "2022-07-08T18:41:39.757319",
      "2022-07-08T18:41:41.440418",
      "2022-07-08T18:41:43.120433",
      "2022-07-08T18:41:44.804051",
      "2022-07-08T18:41:46.725695",
      "2022-07-08T18:41:48.430167",
      "2022-07-08T18:41:50.105627",
      "2022-07-08T18:41:51.792613",
      "2022-07-08T18:41:53.545457",
      "2022-07-08T18:41:55.305216",
      "2022-07-08T18:41:57.119815",
      "2022-07-08T18:41:58.874169",
      "2022-07-08T18:42:00.593657",
      "2022-07-08T18:42:02.389101",
      "2022-07-08T18:42:04.125153",
      "2022-07-08T18:42:05.960771",
      "2022-07-08T18:42:07.769740",
      "2022-07-08T18:42:09.477426",
      "2022-07-08T18:42:11.184400",
      "2022-07-08T18:42:12.893269",
      "2022-07-08T18:42:14.633915",
      "2022-07-08T18:42:16.546808",
      "2022-07-08T18:42:18.295192",
      "2022-07-08T18:42:20.004429",
      "2022-07-08T18:42:21.712427",
      "2022-07-08T18:42:23.420129",
      "2022-07-08T18:42:25.125390",
      "2022-07-08T18:42:27.480667",
      "2022-07-08T18:42:29.193052",
      "2022-07-08T18:42:30.883893",
      "2022-07-08T18:42:32.578446",
      "2022-07-08T18:42:34.291142",
      "2022-07-08T18:42:36.117147",
      "2022-07-08T18:42:37.903880",
      "2022-07-08T18:42:39.613593",
      "2022-07-08T18:42:41.325062",
      "2022-07-08T18:42:43.034361",
      "2022-07-08T18:42:44.774339",
      "2022-07-08T18:42:46.635747",
      "2022-07-08T18:42:48.356559",
      "2022-07-08T18:42:50.059917",
      "2022-07-08T18:42:51.761359",
      "2022-07-08T18:42:53.466246",
      "2022-07-08T18:42:55.224849",
      "2022-07-08T18:42:57.116501",
      "2022-07-08T18:42:58.816505",
      "2022-07-08T18:43:00.532992",
      "2022-07-08T18:43:02.239271",
      "2022-07-08T18:43:03.948853",
      "2022-07-08T18:43:05.738870",
      "2022-07-08T18:43:07.545772",
      "2022-07-08T18:43:09.242877",
      "2022-07-08T18:43:10.933667",
      "2022-07-08T18:43:12.614942",
      "2022-07-08T18:43:14.321477",
      "2022-07-08T18:43:16.179450",
      "2022-07-08T18:43:17.959725",
      "2022-07-08T18:43:19.654813",
      "2022-07-08T18:43:21.343554",
      "2022-07-08T18:43:23.041120",
      "2022-07-08T18:43:24.757858",
      "2022-07-08T18:43:27.113643",
      "2022-07-08T18:43:28.820057",
      "2022-07-08T18:43:30.513832",
      "2022-07-08T18:43:32.208315",
      "2022-07-08T18:43:33.898904",
      "2022-07-08T18:43:35.728557",
      "2022-07-08T18:43:37.577597",
      "2022-07-08T18:43:39.289083",
      "2022-07-08T18:43:40.993169",
      "2022-07-08T18:43:42.703821",
      "2022-07-08T18:43:44.435698",
      "2022-07-08T18:43:46.276827",
      "2022-07-08T18:43:48.062673",
      "2022-07-08T18:43:49.818082",
      "2022-07-08T18:43:51.502660",
      "2022-07-08T18:43:53.210987",
      "2022-07-08T18:43:54.918520",
      "2022-07-08T18:43:56.794063",
      "2022-07-08T18:43:58.486890",
      "2022-07-08T18:44:00.169276",
      "2022-07-08T18:44:01.855412",
      "2022-07-08T18:44:03.538892",
      "2022-07-08T18:44:05.251146",
      "2022-07-08T18:44:07.111746",
      "2022-07-08T18:44:09.007304",
      "2022-07-08T18:44:10.726270",
      "2022-07-08T18:44:12.405934",
      "2022-07-08T18:44:14.087570",
      "2022-07-08T18:44:15.964339",
      "2022-07-08T18:44:17.842771",
      "2022-07-08T18:44:19.567919",
      "2022-07-08T18:44:21.290324",
      "2022-07-08T18:44:22.986916",
      "2022-07-08T18:44:24.719678",
      "2022-07-08T18:44:26.527755",
      "2022-07-08T18:44:28.253356",
      "2022-07-08T18:44:29.969425",
      "2022-07-08T18:44:31.651566",
      "2022-07-08T18:44:33.336738",
      "2022-07-08T18:44:35.045044",
      "2022-07-08T18:44:36.904574",
      "2022-07-08T18:44:38.641806",
      "2022-07-08T18:44:40.333160",
      "2022-07-08T18:44:42.049304",
      "2022-07-08T18:44:43.735021",
      "2022-07-08T18:44:45.526802",
      "2022-07-08T18:44:47.464223",
      "2022-07-08T18:44:49.178982",
      "2022-07-08T18:44:50.871445",
      "2022-07-08T18:44:52.593066",
      "2022-07-08T18:44:54.341212",
      "2022-07-08T18:44:56.143022",
      "2022-07-08T18:44:57.918435",
      "2022-07-08T18:44:59.634104",
      "2022-07-08T18:45:01.437693",
      "2022-07-08T18:45:03.259922",
      "2022-07-08T18:45:05.049937",
      "2022-07-08T18:45:06.921571",
      "2022-07-08T18:45:08.603635",
      "2022-07-08T18:45:10.275469",
      "2022-07-08T18:45:12.034263",
      "2022-07-08T18:45:13.771173",
      "2022-07-08T18:45:15.515426",
      "2022-07-08T18:45:17.328170",
      "2022-07-08T18:45:19.016889",
      "2022-07-08T18:45:20.710068",
      "2022-07-08T18:45:22.396927",
      "2022-07-08T18:45:24.079451",
      "2022-07-08T18:45:25.891806",
      "2022-07-08T18:45:27.717201",
      "2022-07-08T18:45:29.438208",
      "2022-07-08T18:45:31.110742",
      "2022-07-08T18:45:32.868649",
      "2022-07-08T18:45:34.724700",
      "2022-07-08T18:45:36.745896",
      "2022-07-08T18:45:38.663028",
      "2022-07-08T18:45:40.538272",
      "2022-07-08T18:45:42.559585",
      "2022-07-08T18:45:44.372703",
      "2022-07-08T18:45:46.315226",
      "2022-07-08T18:45:48.260346",
      "2022-07-08T18:45:49.993137",
      "2022-07-08T18:45:51.754334",
      "2022-07-08T18:45:53.561984",
      "2022-07-08T18:45:55.349174",
      "2022-07-08T18:45:57.404101",
      "2022-07-08T18:45:59.198805",
      "2022-07-08T18:46:00.909106",
      "2022-07-08T18:46:02.613258",
      "2022-07-08T18:46:04.332317",
      "2022-07-08T18:46:06.180037",
      "2022-07-08T18:46:07.984103",
      "2022-07-08T18:46:09.688209",
      "2022-07-08T18:46:11.405422",
      "2022-07-08T18:46:13.258014",
      "2022-07-08T18:46:15.604173",
      "2022-07-08T18:46:17.306614",
      "2022-07-08T18:46:19.066867",
      "2022-07-08T18:46:20.881001",
      "2022-07-08T18:46:22.587090",
      "2022-07-08T18:46:24.309620",
      "2022-07-08T18:46:26.203103",
      "2022-07-08T18:46:27.992044",
      "2022-07-08T18:46:29.703724",
      "2022-07-08T18:46:31.410568",
      "2022-07-08T18:46:33.121442",
      "2022-07-08T18:46:34.841586",
      "2022-07-08T18:46:36.686189",
      "2022-07-08T18:46:38.392862",
      "2022-07-08T18:46:40.072299",
      "2022-07-08T18:46:41.752883",
      "2022-07-08T18:46:43.438758",
      "2022-07-08T18:46:45.144916",
      "2022-07-08T18:46:47.027840",
      "2022-07-08T18:46:48.709991",
      "2022-07-08T18:46:50.393817",
      "2022-07-08T18:46:52.073762",
      "2022-07-08T18:46:53.753144",
      "2022-07-08T18:46:55.525675",
      "2022-07-08T18:46:57.381208",
      "2022-07-08T18:46:59.067988",
      "2022-07-08T18:47:00.747008",
      "2022-07-08T18:47:02.404990",
      "2022-07-08T18:47:04.063165",
      "2022-07-08T18:47:05.849188",
      "2022-07-08T18:47:07.643093",
      "2022-07-08T18:47:09.318338",
      "2022-07-08T18:47:10.994693",
      "2022-07-08T18:47:12.672227",
      "2022-07-08T18:47:14.354158",
      "2022-07-08T18:47:16.274232",
      "2022-07-08T18:47:18.049551",
      "2022-07-08T18:47:19.732225",
      "2022-07-08T18:47:21.413729",
      "2022-07-08T18:47:23.122514",
      "2022-07-08T18:47:24.896660",
      "2022-07-08T18:47:26.717145",
      "2022-07-08T18:47:28.431206",
      "2022-07-08T18:47:30.113320",
      "2022-07-08T18:47:31.792734",
      "2022-07-08T18:47:33.596728",
      "2022-07-08T18:47:35.514360",
      "2022-07-08T18:47:37.353901",
      "2022-07-08T18:47:39.041052",
      "2022-07-08T18:47:40.733398",
      "2022-07-08T18:47:42.408521",
      "2022-07-08T18:47:44.094984",
      "2022-07-08T18:47:45.861585",
      "2022-07-08T18:47:47.678641",
      "2022-07-08T18:47:49.367186",
      "2022-07-08T18:47:51.045394",
      "2022-07-08T18:47:52.774313",
      "2022-07-08T18:47:54.477825",
      "2022-07-08T18:47:56.309192",
      "2022-07-08T18:47:58.128100",
      "2022-07-08T18:47:59.816892",
      "2022-07-08T18:48:01.492857",
      "2022-07-08T18:48:03.176324",
      "2022-07-08T18:48:04.900682",
      "2022-07-08T18:48:06.967387",
      "2022-07-08T18:48:08.712648",
      "2022-07-08T18:48:10.510391",
      "2022-07-08T18:48:12.343059",
      "2022-07-08T18:48:14.206426",
      "2022-07-08T18:48:16.036023"
    ],
    "values": [
      9.933104482966227,
      9.734023663113256,
      9.424686839481273,
      9.201228663180476,
      9.14001179719301,
      9.09504678323249,
      9.056248775886015,
      9.03122141191537,
      8.990542273313018,
      8.981772461616707,
      8.959435624866451,
      8.965352259416855,
      8.942849233272096,
      8.912251901102968,
      8.91894732906618,
      8.917058923641555,
      8.897091420169057,
      8.892823794221988,
      8.883173890561272,
      8.894916382190816,
      8.877305027003326,
      8.877778592371746,
      8.869544664979328,
      8.887324928890505,
      8.858811970980174,
      8.855062893062595,
      8.860735648251698,
      8.841879174494123,
      8.846138999005738,
      8.83077525321247,
      8.832412084839541,
      8.821742627801592,
      8.83885637080655,
      8.809766950876417,
      8.809268963473336,
      8.800004657240246,
      8.801060109097525,
      8.792776519047578,
      8.794378363323936,
      8.791671157103185,
      8.801864166855372,
      8.782108200694651,
      8.775025158802528,
      8.792451365841002,
      8.797192250642945,
      8.787827401861952,
      8.780618332156696,
      8.78127066160698,
      8.769627973281933,
      8.77923541785774,
      8.775077884551493,
      8.775207700681607,
      8.771771745201159,
      8.786560114440055,
      8.771906583983176,
      8.770260997048315,
      8.767646713425993,
      8.769096224456137,
      8.771894741442624,
      8.761524276764156,
      8.776082476603557,
      8.760689588361963,
      8.771243871791533,
      8.77547165502402,
      8.763763983433126,
      8.765188674439818,
      8.761988244846547,
      8.76807343447961,
      8.757831903356857,
      8.760601790202733,
      8.758624430609466,
      8.753479225941634,
      8.762857582696258,
      8.772745107581517,
      8.760139118533305,
      8.761256616022662,
      8.758968480620466,
      8.758557181392753,
      8.764051727827928,
      8.756612581875165,
      8.763420594273004,
      8.755915062853493,
      8.755969719022042,
      8.746512968306698,
      8.746299690103319,
      8.755137159574591,
      8.748357962654246,
      8.756651011934174,
      8.748381000755119,
      8.743339627686986,
      8.760723045811945,
      8.751440347088039,
      8.743575432546209,
      8.74493497330346,
      8.764254510682994,
      8.752825161928392,
      8.748279690391149,
      8.747872724735881,
      8.741345111360234,
      8.741565917861557,
      8.749211756955857,
      8.74953830846667,
      8.753498765304121,
      8.745794543335666,
      8.746315903374821,
      8.737103747918752,
      8.733381458043809,
      8.750441919737986,
      8.745110988716437,
      8.744164350659808,
      8.739801129051779,
      8.743565733846838,
      8.737726038475188,
      8.736024702062506,
      8.739696039438584,
      8.740109569269158,
      8.73752821147609,
      8.741827509553712,
      8.73548086633073,
      8.740496106142023,
      8.740759437133436,
      8.735561587696166,
      8.74759287898227,
      8.734017124239566,
      8.738741649475937,
      8.754449630738186,
      8.742595573320415,
      8.742784246493807,
      8.69935095846809,
      8.693455797962763,
      8.692042003623127,
      8.691979060608274,
      8.691036331942877,
      8.691703649260614,
      8.690112182977693,
      8.69103153345186,
      8.689729754264722,
      8.690333751770474,
      8.69035718893596,
      8.689196943684191,
      8.689577629076618,
      8.690788303483368,
      8.690183371815808,
      8.690708243423222,
      8.69014511633421,
      8.688800269193788,
      8.690212268300119,
      8.690861857516717,
      8.691249099132607,
      8.689113666787808,
      8.689803776239977,
      8.69047287662194,
      8.689424076381416,
      8.6918049982167,
      8.689346703507965,
      8.68963580813792,
      8.6906991882575,
      8.689107947094744,
      8.689348015976375,
      8.687708302921365,
      8.689868266196639,
      8.690166272534164,
      8.690569171432914,
      8.689309365988999,
      8.689595434776662,
      8.690026289402235,
      8.689487919923042,
      8.688899688271077,
      8.689368877653935,
      8.68831461354378,
      8.689201707608776,
      8.688520968460821,
      8.687254091703213,
      8.689571689105902,
      8.688392623906056,
      8.687757116520983,
      8.688547388607084,
      8.688123885941412,
      8.689709035672932,
      8.689361746594285,
      8.688721394888434,
      8.684888919025447,
      8.683338548393527,
      8.682549891953943,
      8.682432595672203,
      8.68217992571379,
      8.681993495703326,
      8.681804015781497,
      8.682058716277915,
      8.682275260853737,
      8.681981850070203,
      8.681735283927143,
      8.682125327169876,
      8.68181963626172,
      8.681823213830047,
      8.681924705621043,
      8.681712175778319,
      8.681784188539178,
      8.681854851759958,
      8.681801469941561,
      8.68168959498247,
      8.681767472664411,
      8.68187247658002,
      8.681542322950545,
      8.681602903108429,
      8.681852962899386,
      8.681658862324644,
      8.681491827463136,
      8.681632229998865,
      8.681989140546841,
      8.6818219664978,
      8.681508043487893,
      8.68158904342091,
      8.68160417924971,
      8.68152409582816,
      8.681633331952609,
      8.681836143355255,
      8.681447803522632,
      8.681852566385526,
      8.681707699426092,
      8.681536163250122,
      8.681643746870707,
      8.681680676848035,
      8.681656486898566,
      8.68170639219545,
      8.680966124092334,
      8.680995209943964,
      8.680931971023709,
      8.680877243552976,
      8.680816284673877,
      8.680781128391375,
      8.680732944559724,
      8.680738835759332,
      8.680731876127915,
      8.680716038535213,
      8.680726452906791,
      8.680770571480245,
      8.680850547839894,
      8.680898965217382,
      8.680847220673378,
      8.68083721048467,
      8.680790281163855,
      8.680764160270588,
      8.680773048921264,
      8.680731625160107,
      8.680733900521844,
      8.680623946521955,
      8.680638282663054,
      8.680644377506976,
      8.680652905693597,
      8.680659832711008,
      8.680668661667807,
      8.680688495924075,
      8.680690499621177,
      8.680691402945852,
      8.680692142346876,
      8.680692135218122,
      8.680691749754226,
      8.68068850177595,
      8.680690038686373,
      8.680685174536562,
      8.680684916462315,
      8.680684807032604,
      8.680681067172484,
      8.680676839781478,
      8.680675753231762,
      8.680671276759337,
      8.680670569936346,
      8.68066747930701,
      8.68066723313405,
      8.680663268987116,
      8.680664633451052,
      8.680664222783843,
      8.68066381729404,
      8.680662994706019,
      8.680666842057654,
      8.680664650421754,
      8.68066636266025,
      8.680669159239217,
      8.680668373039625,
      8.680668508416007,
      8.6806673279857,
      8.680667519505207,
      8.680663383032567,
      8.68066240126545,
      8.680658984332071,
      8.680655193741568,
      8.680649964904498,
      8.68064841321441,
      8.680642463806373,
      8.680640829016136,
      8.680636028949364,
      8.680632251600386,
      8.680633559910277,
      8.680626734493286,
      8.680625210535391,
      8.680626046197405,
      8.680624364968681,
      8.680625697518673,
      8.680625707140127
    ]
  },
  "val": {
    "steps": [
      0,
      1,
      2,
      3,
      4,
      5,
      6,
      7,
      8,
      9,
      10,
      11,
      12,
      13,
      14,
      15,
      16,
      17,
      18,
      19,
      20,
      21,
      22,
      23,
      24,
      25,
      26,
      27,
      28,
      29,
      30,
      31,
      32,
      33,
      34,
      35,
      36,
      37,
      38,
      39,
      40,
      41,
      42,
      43,
      44,
      45,
      46,
      47,
      48,
      49,
      50,
      51,
      52,
      53,
      54,
      55,
      56,
      57,
      58,
      59,
      60,
      61,
      62,
      63,
      64,
      65,
      66,
      67,
      68,
      69,
      70,
      71,
      72,
      73,
      74,
      75,
      76,
      77,
      78,
      79,
      80,
      81,
      82,
      83,
      84,
      85,
      86,
      87,
      88,
      89,
      90,
      91,
      92,
      93,
      94,
      95,
      96,
      97,
      98,
      99,
      100,
      101,
      102,
      103,
      104,
      105,
      106,
      107,
      108,
      109,
      110,
      111,
      112,
      113,
      114,
      115,
      116,
      117,
      118,
      119,
      120,
      121,
      122,
      123,
      124,
      125,
      126,
      127,
      128,
      129,
      130,
      131,
      132,
      133,
      134,
      135,
      136,
      137,
      138,
      139,
      140,
      141,
      142,
      143,
      144,
      145,
      146,
      147,
      148,
      149,
      150,
      151,
      152,
      153,
      154,
      155,
      156,
      157,
      158,
      159,
      160,
      161,
      162,
      163,
      164,
      165,
      166,
      167,
      168,
      169,
      170,
      171,
      172,
      173,
      174,
      175,
      176,
      177,
      178,
      179,
      180,
      181,
      182,
      183,
      184,
      185,
      186,
      187,
      188,
      189,
      190,
      191,
      192,
      193,
      194,
      195,
      196,
      197,
      198,
      199,
      200,
      201,
      202,
      203,
      204,
      205,
      206,
      207,
      208,
      209,
      210,
      211,
      212,
      213,
      214,
      215,
      216,
      217,
      218,
      219,
      220,
      221,
      222,
      223,
      224,
      225,
      226,
      227,
      228,
      229,
      230,
      231,
      232,
      233,
      234,
      235,
      236,
      237,
      238,
      239,
      240,
      241,
      242,
      243,
      244,
      245,
      246,
      247,
      248,
      249,
      250,
      251,
      252,
      253,
      254,
      255,
      256,
      257,
      258,
      259,
      260,
      261,
      262,
      263,
      264,
      265,
      266,
      267,
      268,
      269,
      270,
      271,
      272,
      273,
      274,
      275,
      276,
      277,
      278,
      279,
      280,
      281,
      282,
      283,
      284,
      285,
      286,
      287,
      288,
      289,
      290,
      291,
      292,
      293,
      294,
      295,
      296,
      297,
      298,
      299
    ],
    "timestamps": [
      "2022-07-08T18:39:27.770766",
      "2022-07-08T18:39:30.748769",
      "2022-07-08T18:39:32.647400",
      "2022-07-08T18:39:34.475901",
      "2022-07-08T18:39:36.368125",
      "2022-07-08T18:39:38.247082",
      "2022-07-08T18:39:40.106722",
      "2022-07-08T18:39:41.929422",
      "2022-07-08T18:39:43.834127",
      "2022-07-08T18:39:45.831434",
      "2022-07-08T18:39:47.927762",
      "2022-07-08T18:39:49.609124",
      "2022-07-08T18:39:51.292051",
      "2022-07-08T18:39:53.048405",
      "2022-07-08T18:39:54.772329",
      "2022-07-08T18:39:56.609307",
      "2022-07-08T18:39:58.474438",
      "2022-07-08T18:40:00.220444",
      "2022-07-08T18:40:02.000715",
      "2022-07-08T18:40:03.746368",
      "2022-07-08T18:40:05.538607",
      "2022-07-08T18:40:07.477649",
      "2022-07-08T18:40:09.190310",
      "2022-07-08T18:40:10.873838",
      "2022-07-08T18:40:12.553474",
      "2022-07-08T18:40:14.236797",
      "2022-07-08T18:40:16.071676",
      "2022-07-08T18:40:17.837330",
      "2022-07-08T18:40:19.609122",
      "2022-07-08T18:40:21.307761",
      "2022-07-08T18:40:22.990090",
      "2022-07-08T18:40:24.747943",
      "2022-07-08T18:40:26.690456",
      "2022-07-08T18:40:28.380317",
      "2022-07-08T18:40:30.051778",
      "2022-07-08T18:40:31.752610",
      "2022-07-08T18:40:33.446365",
      "2022-07-08T18:40:35.195149",
      "2022-07-08T18:40:37.014364",
      "2022-07-08T18:40:38.721239",
      "2022-07-08T18:40:40.394844",
      "2022-07-08T18:40:42.233285",
      "2022-07-08T18:40:43.913865",
      "2022-07-08T18:40:45.745824",
      "2022-07-08T18:40:47.559503",
      "2022-07-08T18:40:49.250378",
      "2022-07-08T18:40:50.932695",
      "2022-07-08T18:40:52.629072",
      "2022-07-08T18:40:54.323331",
      "2022-07-08T18:40:56.121786",
      "2022-07-08T18:40:57.884815",
      "2022-07-08T18:40:59.584608",
      "2022-07-08T18:41:01.274189",
      "2022-07-08T18:41:02.963137",
      "2022-07-08T18:41:04.667503",
      "2022-07-08T18:41:06.632883",
      "2022-07-08T18:41:08.318071",
      "2022-07-08T18:41:10.002273",
      "2022-07-08T18:41:11.692490",
      "2022-07-08T18:41:13.447111",
      "2022-07-08T18:41:15.185419",
      "2022-07-08T18:41:17.024640",
      "2022-07-08T18:41:18.722870",
      "2022-07-08T18:41:20.421375",
      "2022-07-08T18:41:22.138347",
      "2022-07-08T18:41:23.859691",
      "2022-07-08T18:41:25.672252",
      "2022-07-08T18:41:27.551116",
      "2022-07-08T18:41:29.229680",
      "2022-07-08T18:41:30.908412",
      "2022-07-08T18:41:32.576750",
      "2022-07-08T18:41:34.265360",
      "2022-07-08T18:41:36.402382",
      "2022-07-08T18:41:38.279118",
      "2022-07-08T18:41:39.960880",
      "2022-07-08T18:41:41.643112",
      "2022-07-08T18:41:43.323899",
      "2022-07-08T18:41:45.025838",
      "2022-07-08T18:41:46.939721",
      "2022-07-08T18:41:48.633163",
      "2022-07-08T18:41:50.309044",
      "2022-07-08T18:41:51.996178",
      "2022-07-08T18:41:53.769289",
      "2022-07-08T18:41:55.530449",
      "2022-07-08T18:41:57.324706",
      "2022-07-08T18:41:59.076415",
      "2022-07-08T18:42:00.800296",
      "2022-07-08T18:42:02.622234",
      "2022-07-08T18:42:04.331908",
      "2022-07-08T18:42:06.189193",
      "2022-07-08T18:42:07.978671",
      "2022-07-08T18:42:09.683355",
      "2022-07-08T18:42:11.390848",
      "2022-07-08T18:42:13.099975",
      "2022-07-08T18:42:14.864434",
      "2022-07-08T18:42:16.780177",
      "2022-07-08T18:42:18.501752",
      "2022-07-08T18:42:20.211927",
      "2022-07-08T18:42:21.920367",
      "2022-07-08T18:42:23.626765",
      "2022-07-08T18:42:25.382385",
      "2022-07-08T18:42:27.686640",
      "2022-07-08T18:42:29.399409",
      "2022-07-08T18:42:31.090833",
      "2022-07-08T18:42:32.785410",
      "2022-07-08T18:42:34.498517",
      "2022-07-08T18:42:36.339133",
      "2022-07-08T18:42:38.110838",
      "2022-07-08T18:42:39.820740",
      "2022-07-08T18:42:41.530583",
      "2022-07-08T18:42:43.240608",
      "2022-07-08T18:42:44.982562",
      "2022-07-08T18:42:46.855881",
      "2022-07-08T18:42:48.562780",
      "2022-07-08T18:42:50.268532",
      "2022-07-08T18:42:51.968192",
      "2022-07-08T18:42:53.672568",
      "2022-07-08T18:42:55.488143",
      "2022-07-08T18:42:57.318885",
      "2022-07-08T18:42:59.041365",
      "2022-07-08T18:43:00.739895",
      "2022-07-08T18:43:02.445714",
      "2022-07-08T18:43:04.175712",
      "2022-07-08T18:43:05.959461",
      "2022-07-08T18:43:07.750640",
      "2022-07-08T18:43:09.449113",
      "2022-07-08T18:43:11.137585",
      "2022-07-08T18:43:12.817563",
      "2022-07-08T18:43:14.527500",
      "2022-07-08T18:43:16.403493",
      "2022-07-08T18:43:18.164636",
      "2022-07-08T18:43:19.864024",
      "2022-07-08T18:43:21.548511",
      "2022-07-08T18:43:23.246218",
      "2022-07-08T18:43:24.973773",
      "2022-07-08T18:43:27.324198",
      "2022-07-08T18:43:29.026227",
      "2022-07-08T18:43:30.718624",
      "2022-07-08T18:43:32.413576",
      "2022-07-08T18:43:34.104211",
      "2022-07-08T18:43:35.969668",
      "2022-07-08T18:43:37.784549",
      "2022-07-08T18:43:39.495556",
      "2022-07-08T18:43:41.199965",
      "2022-07-08T18:43:42.909065",
      "2022-07-08T18:43:44.638851",
      "2022-07-08T18:43:46.501143",
      "2022-07-08T18:43:48.264435",
      "2022-07-08T18:43:50.019652",
      "2022-07-08T18:43:51.705449",
      "2022-07-08T18:43:53.412909",
      "2022-07-08T18:43:55.124279",
      "2022-07-08T18:43:57.004726",
      "2022-07-08T18:43:58.691318",
      "2022-07-08T18:44:00.373089",
      "2022-07-08T18:44:02.058670",
      "2022-07-08T18:44:03.741406",
      "2022-07-08T18:44:05.492768",
      "2022-07-08T18:44:07.328268",
      "2022-07-08T18:44:09.210695",
      "2022-07-08T18:44:10.930073",
      "2022-07-08T18:44:12.608694",
      "2022-07-08T18:44:14.294004",
      "2022-07-08T18:44:16.255292",
      "2022-07-08T18:44:18.091892",
      "2022-07-08T18:44:19.771308",
      "2022-07-08T18:44:21.512085",
      "2022-07-08T18:44:23.190958",
      "2022-07-08T18:44:24.941701",
      "2022-07-08T18:44:26.771997",
      "2022-07-08T18:44:28.456549",
      "2022-07-08T18:44:30.173126",
      "2022-07-08T18:44:31.855623",
      "2022-07-08T18:44:33.540488",
      "2022-07-08T18:44:35.274564",
      "2022-07-08T18:44:37.111165",
      "2022-07-08T18:44:38.859713",
      "2022-07-08T18:44:40.536073",
      "2022-07-08T18:44:42.252592",
      "2022-07-08T18:44:43.939109",
      "2022-07-08T18:44:45.765216",
      "2022-07-08T18:44:47.667275",
      "2022-07-08T18:44:49.402876",
      "2022-07-08T18:44:51.074969",
      "2022-07-08T18:44:52.830141",
      "2022-07-08T18:44:54.545322",
      "2022-07-08T18:44:56.361042",
      "2022-07-08T18:44:58.122281",
      "2022-07-08T18:44:59.888256",
      "2022-07-08T18:45:01.699372",
      "2022-07-08T18:45:03.510414",
      "2022-07-08T18:45:05.286897",
      "2022-07-08T18:45:07.124071",
      "2022-07-08T18:45:08.805396",
      "2022-07-08T18:45:10.479095",
      "2022-07-08T18:45:12.295081",
      "2022-07-08T18:45:13.974858",
      "2022-07-08T18:45:15.732485",
      "2022-07-08T18:45:17.532511",
      "2022-07-08T18:45:19.221334",
      "2022-07-08T18:45:20.913858",
      "2022-07-08T18:45:22.600641",
      "2022-07-08T18:45:24.284591",
      "2022-07-08T18:45:26.130608",
      "2022-07-08T18:45:27.924059",
      "2022-07-08T18:45:29.641623",
      "2022-07-08T18:45:31.335017",
      "2022-07-08T18:45:33.084739",
      "2022-07-08T18:45:34.955720",
      "2022-07-08T18:45:36.969658",
      "2022-07-08T18:45:38.902450",
      "2022-07-08T18:45:40.748046",
      "2022-07-08T18:45:42.776011",
      "2022-07-08T18:45:44.588934",
      "2022-07-08T18:45:46.569925",
      "2022-07-08T18:45:48.470929",
      "2022-07-08T18:45:50.204205",
      "2022-07-08T18:45:51.966047",
      "2022-07-08T18:45:53.770498",
      "2022-07-08T18:45:55.670199",
      "2022-07-08T18:45:57.616587",
      "2022-07-08T18:45:59.405677",
      "2022-07-08T18:46:01.115878",
      "2022-07-08T18:46:02.819217",
      "2022-07-08T18:46:04.543998",
      "2022-07-08T18:46:06.404232",
      "2022-07-08T18:46:08.190987",
      "2022-07-08T18:46:09.895343",
      "2022-07-08T18:46:11.637419",
      "2022-07-08T18:46:13.476585",
      "2022-07-08T18:46:15.811375",
      "2022-07-08T18:46:17.514516",
      "2022-07-08T18:46:19.289795",
      "2022-07-08T18:46:21.087913",
      "2022-07-08T18:46:22.794904",
      "2022-07-08T18:46:24.516675",
      "2022-07-08T18:46:26.454458",
      "2022-07-08T18:46:28.199906",
      "2022-07-08T18:46:29.911872",
      "2022-07-08T18:46:31.619081",
      "2022-07-08T18:46:33.329460",
      "2022-07-08T18:46:35.049220",
      "2022-07-08T18:46:36.901696",
      "2022-07-08T18:46:38.596055",
      "2022-07-08T18:46:40.275801",
      "2022-07-08T18:46:41.952526",
      "2022-07-08T18:46:43.642665",
      "2022-07-08T18:46:45.375823",
      "2022-07-08T18:46:47.231386",
      "2022-07-08T18:46:48.914658",
      "2022-07-08T18:46:50.597778",
      "2022-07-08T18:46:52.276890",
      "2022-07-08T18:46:53.958287",
      "2022-07-08T18:46:55.747231",
      "2022-07-08T18:46:57.583725",
      "2022-07-08T18:46:59.271650",
      "2022-07-08T18:47:00.950562",
      "2022-07-08T18:47:02.605051",
      "2022-07-08T18:47:04.272366",
      "2022-07-08T18:47:06.076108",
      "2022-07-08T18:47:07.846541",
      "2022-07-08T18:47:09.520906",
      "2022-07-08T18:47:11.198459",
      "2022-07-08T18:47:12.876728",
      "2022-07-08T18:47:14.574070",
      "2022-07-08T18:47:16.519511",
      "2022-07-08T18:47:18.253021",
      "2022-07-08T18:47:19.935993",
      "2022-07-08T18:47:21.642995",
      "2022-07-08T18:47:23.324967",
      "2022-07-08T18:47:25.107218",
      "2022-07-08T18:47:26.935722",
      "2022-07-08T18:47:28.635385",
      "2022-07-08T18:47:30.317329",
      "2022-07-08T18:47:31.993293",
      "2022-07-08T18:47:33.859324",
      "2022-07-08T18:47:35.737438",
      "2022-07-08T18:47:37.556071",
      "2022-07-08T18:47:39.244341",
      "2022-07-08T18:47:40.936621",
      "2022-07-08T18:47:42.611333",
      "2022-07-08T18:47:44.303672",
      "2022-07-08T18:47:46.081406",
      "2022-07-08T18:47:47.886065",
      "2022-07-08T18:47:49.570778",
      "2022-07-08T18:47:51.248777",
      "2022-07-08T18:47:52.984726",
      "2022-07-08T18:47:54.681182",
      "2022-07-08T18:47:56.532380",
      "2022-07-08T18:47:58.330743",
      "2022-07-08T18:48:00.018232",
      "2022-07-08T18:48:01.696326",
      "2022-07-08T18:48:03.380172",
      "2022-07-08T18:48:05.117728",
      "2022-07-08T18:48:07.175764",
      "2022-07-08T18:48:08.917294",
      "2022-07-08T18:48:10.735841",
      "2022-07-08T18:48:12.570456",
      "2022-07-08T18:48:14.417089",
      "2022-07-08T18:48:16.267767"
    ],
    "values": [
      9.811738788184892,
      9.599650358118078,
      9.26002310443689,
      9.164232502485222,
      9.134685222621156,
      9.032019236790212,
      9.002363386758171,
      9.00391131628326,
      8.962493054535575,
      8.967630222267598,
      9.022355956647345,
      8.95309289661335,
      8.966224351880006,
      8.916573352906395,
      8.907792749398922,
      8.932180753884488,
      8.876834020910085,
      8.913271988135548,
      8.858399360817971,
      8.906685771057994,
      8.860653748490046,
      8.86742640626563,
      8.92622409715704,
      8.872652852857753,
      8.876020165565118,
      8.835592839110118,
      8.828640063264151,
      8.798987559809488,
      8.841486732468297,
      8.822998001504466,
      8.840902400343953,
      8.827811826271745,
      8.821921988823409,
      8.81104398178746,
      8.806424986523503,
      8.810891625236533,
      8.811151517356862,
      8.79390309994539,
      8.797430489178678,
      8.783780186547824,
      8.76558252363472,
      8.80340192178777,
      8.76522837189567,
      8.791969479383297,
      8.796469354356324,
      8.770786962029696,
      8.801614824228192,
      8.764767000253585,
      8.78775132859476,
      8.775113967899312,
      8.762740636807957,
      8.796220563635032,
      8.782695648542436,
      8.794449112200871,
      8.767249473808311,
      8.75241094987529,
      8.791863427224124,
      8.811720870538453,
      8.801940274458408,
      8.765715955460564,
      8.769409898991096,
      8.790693892557323,
      8.773826697009104,
      8.778578265080334,
      8.756777405594887,
      8.77997502391224,
      8.808863716240383,
      8.769952675295599,
      8.800627211066688,
      8.791740949134075,
      8.751024975285468,
      8.751434244963303,
      8.770945807699436,
      8.758513633189706,
      8.757793272865207,
      8.780737783268714,
      8.77300908546625,
      8.740858962748163,
      8.783417196737357,
      8.77443669168689,
      8.753667397108538,
      8.746749844425066,
      8.747900654595709,
      8.736510078922482,
      8.753201146476798,
      8.77761473664907,
      8.827877944218148,
      8.793376354109546,
      8.74632882029981,
      8.736090437765741,
      8.746237998116474,
      8.790218296347833,
      8.732751030305293,
      8.746798888689261,
      8.751199229491018,
      8.816824808602892,
      8.744295464686683,
      8.744980826242887,
      8.758860849427771,
      8.81016707383446,
      8.748021204449794,
      8.7515570692896,
      8.755927628916773,
      8.764966019331247,
      8.816749867344454,
      8.762418944535522,
      8.77324957049632,
      8.756307062752457,
      8.75641495075133,
      8.755526073971918,
      8.74101601696874,
      8.741043016883191,
      8.77661781194814,
      8.724712938474068,
      8.753683509786844,
      8.738225414322768,
      8.751201706379835,
      8.769648267776416,
      8.80112008617653,
      8.790691474403763,
      8.80181627737087,
      8.764361819240577,
      8.74139328211922,
      8.757943848027685,
      8.724614995317065,
      8.772091390156405,
      8.738904074471439,
      8.744952682260578,
      8.710517202907452,
      8.712467763401389,
      8.712782591402839,
      8.712481167322252,
      8.712113732058363,
      8.70970801562445,
      8.712320815400936,
      8.708941501709894,
      8.709701541350226,
      8.710336261792872,
      8.710926278503582,
      8.70797782140896,
      8.709366538102998,
      8.712062550338528,
      8.709704576543741,
      8.71346523816278,
      8.708023165916718,
      8.709009488644075,
      8.710395112050126,
      8.709667870226296,
      8.712384781506184,
      8.711766725106102,
      8.708545333525212,
      8.71292952198428,
      8.71132088915943,
      8.711959068489271,
      8.711522791708513,
      8.708304852265963,
      8.713690725631391,
      8.71046311680548,
      8.710482931744817,
      8.71060510237868,
      8.708196607185782,
      8.71476922293541,
      8.712797840759343,
      8.710923491645834,
      8.707201915732469,
      8.70836910526246,
      8.71300984414785,
      8.709993791240857,
      8.714088137244962,
      8.714694636320218,
      8.716587544228526,
      8.70913941950922,
      8.710161940744474,
      8.71169989350472,
      8.71034180946146,
      8.709892744078024,
      8.709336515595878,
      8.71312143970137,
      8.710084982489423,
      8.711405916891305,
      8.709293545856069,
      8.707598064251535,
      8.706309339585298,
      8.706814597682452,
      8.70555305991532,
      8.705782000838092,
      8.705432054066716,
      8.706130919315385,
      8.705857633998045,
      8.705495488527282,
      8.705099074667839,
      8.706346104375843,
      8.705430721217828,
      8.705860330636247,
      8.705325149280513,
      8.705098711094292,
      8.705279272617325,
      8.705382474932172,
      8.705263664151811,
      8.705811251189829,
      8.705402629790974,
      8.706282316169771,
      8.705209544525815,
      8.70519402599942,
      8.705880756306371,
      8.705515488267606,
      8.705456848811856,
      8.705283774547466,
      8.705721208050308,
      8.705464680653272,
      8.705785931381518,
      8.705360876644392,
      8.705320816048177,
      8.705179179110408,
      8.705213085841935,
      8.704864143880952,
      8.70505635130284,
      8.70594635492505,
      8.705578698112255,
      8.705649875901267,
      8.70591886010677,
      8.705588081503494,
      8.705416099527417,
      8.705254541177123,
      8.705287791094461,
      8.70542158998483,
      8.705394675593872,
      8.705377806215042,
      8.705280031735027,
      8.705223545617967,
      8.70517732847244,
      8.70517099653316,
      8.705221205218852,
      8.705183164347915,
      8.70517862751409,
      8.70520688212664,
      8.705253130108646,
      8.705334064923683,
      8.705375360136554,
      8.705337601809402,
      8.705384387192202,
      8.705361832698209,
      8.705342552425838,
      8.70532821423647,
      8.705272161703368,
      8.705293602113294,
      8.705298618071764,
      8.705299582996204,
      8.705305281663238,
      8.705304485110862,
      8.705310545068533,
      8.705318117573864,
      8.705321281929708,
      8.705322272477407,
      8.705316260055476,
      8.705314767517095,
      8.705318850562335,
      8.705315938005576,
      8.705313761486364,
      8.705307761404047,
      8.705309005428125,
      8.705302970275932,
      8.70529537697801,
      8.705295789276256,
      8.705292945078774,
      8.705290472680572,
      8.705288369470683,
      8.705282996792674,
      8.70528314074383,
      8.705279387886891,
      8.705275608020834,
      8.705273251831311,
      8.70527692699461,
      8.70527912991629,
      8.705277522445947,
      8.705276959723989,
      8.705281835390418,
      8.705286926730405,
      8.705279432196564,
      8.705281731644117,
      8.705282589613553,
      8.705282485331695,
      8.705272393057907,
      8.705276438736895,
      8.705265650647865,
      8.705267773175853,
      8.70525875539214,
      8.705256068746227,
      8.705251473454263,
      8.705246500199864,
      8.705241952541014,
      8.705240260796588,
      8.705233560147349,
      8.70523061651196,
      8.70522708415164,
      8.705219747188352,
      8.70522561157355,
      8.705214781902232,
      8.705223652953347,
      8.705222599259907
    ]
  }
}