{
  "test": {
    "steps": [
      0
    ],
    "timestamps": [
      "2022-07-09T03:52:50.383266"
    ],
    "values": [
      8.637877431653573
    ]
  },
  "train": {
    "steps": [
      0,
      1,
      2,
      3,
      4,
      5,
      6,
      7,
      8,
      9,
      10,
      11,
      12,
      13,
      14,
      15,
      16,
      17,
      18,
      19,
      20,
      21,
      22,
      23,
      24,
      25,
      26,
      27,
      28,
      29,
      30,
      31,
      32,
      33,
      34,
      35,
      36,
      37,
      38,
      39,
      40,
      41,
      42,
      43,
      44,
      45,
      46,
      47,
      48,
      49,
      50,
      51,
      52,
      53,
      54,
      55,
      56,
      57,
      58,
      59,
      60,
      61,
      62,
      63,
      64,
      65,
      66,
      67,
      68,
      69,
      70,
      71,
      72,
      73,
      74,
      75,
      76,
      77,
      78,
      79,
      80,
      81,
      82,
      83,
      84,
      85,
      86,
      87,
      88,
      89,
      90,
      91,
      92,
      93,
      94,
      95,
      96,
      97,
      98,
      99,
      100,
      101,
      102,
      103,
      104,
      105,
      106,
      107,
      108,
      109,
      110,
      111,
      112,
      113,
      114,
      115,
      116,
      117,
      118,
      119,
      120,
      121,
      122,
      123,
      124,
      125,
      126,
      127,
      128,
      129,
      130,
      131,
      132,
      133,
      134,
      135,
      136,
      137,
      138,
      139,
      140,
      141,
      142,
      143,
      144,
      145,
      146,
      147,
      148,
      149,
      150,
      151,
      152,
      153,
      154,
      155,
      156,
      157,
      158,
      159,
      160,
      161,
      162,
      163,
      164,
      165,
      166,
      167,
      168,
      169,
      170,
      171,
      172,
      173,
      174,
      175,
      176,
      177,
      178,
      179,
      180,
      181,
      182,
      183,
      184,
      185,
      186,
      187,
      188,
      189,
      190,
      191,
      192,
      193,
      194,
      195,
      196,
      197,
      198,
      199,
      200,
      201,
      202,
      203,
      204,
      205,
      206,
      207,
      208,
      209,
      210,
      211,
      212,
      213,
      214,
      215,
      216,
      217,
      218,
      219,
      220,
      221,
      222,
      223,
      224,
      225,
      226,
      227,
      228,
      229,
      230,
      231,
      232,
      233,
      234,
      235,
      236,
      237,
      238,
      239,
      240,
      241,
      242,
      243,
      244,
      245,
      246,
      247,
      248,
      249
    ],
    "timestamps": [
      "2022-07-09T03:34:29.733793",
      "2022-07-09T03:34:34.689355",
      "2022-07-09T03:34:39.628597",
      "2022-07-09T03:34:43.930878",
      "2022-07-09T03:34:48.498984",
      "2022-07-09T03:34:52.794912",
      "2022-07-09T03:34:57.846605",
      "2022-07-09T03:35:02.114392",
      "2022-07-09T03:35:06.625482",
      "2022-07-09T03:35:10.902209",
      "2022-07-09T03:35:15.402678",
      "2022-07-09T03:35:19.705109",
      "2022-07-09T03:35:24.013184",
      "2022-07-09T03:35:28.426634",
      "2022-07-09T03:35:32.745015",
      "2022-07-09T03:35:37.323462",
      "2022-07-09T03:35:41.619286",
      "2022-07-09T03:35:46.106685",
      "2022-07-09T03:35:50.398715",
      "2022-07-09T03:35:54.825948",
      "2022-07-09T03:35:59.259628",
      "2022-07-09T03:36:03.557680",
      "2022-07-09T03:36:08.263920",
      "2022-07-09T03:36:12.479646",
      "2022-07-09T03:36:17.532890",
      "2022-07-09T03:36:21.810343",
      "2022-07-09T03:36:26.446109",
      "2022-07-09T03:36:30.728197",
      "2022-07-09T03:36:35.178693",
      "2022-07-09T03:36:39.522113",
      "2022-07-09T03:36:43.798179",
      "2022-07-09T03:36:48.231755",
      "2022-07-09T03:36:52.463486",
      "2022-07-09T03:36:57.031810",
      "2022-07-09T03:37:01.321451",
      "2022-07-09T03:37:05.858479",
      "2022-07-09T03:37:10.129715",
      "2022-07-09T03:37:14.527718",
      "2022-07-09T03:37:18.943388",
      "2022-07-09T03:37:23.279101",
      "2022-07-09T03:37:27.834458",
      "2022-07-09T03:37:32.154180",
      "2022-07-09T03:37:36.669950",
      "2022-07-09T03:37:40.952969",
      "2022-07-09T03:37:45.523197",
      "2022-07-09T03:37:49.919293",
      "2022-07-09T03:37:54.207678",
      "2022-07-09T03:37:58.616140",
      "2022-07-09T03:38:03.004614",
      "2022-07-09T03:38:07.556051",
      "2022-07-09T03:38:11.853973",
      "2022-07-09T03:38:16.376990",
      "2022-07-09T03:38:20.682642",
      "2022-07-09T03:38:25.123084",
      "2022-07-09T03:38:29.450111",
      "2022-07-09T03:38:33.764776",
      "2022-07-09T03:38:38.291661",
      "2022-07-09T03:38:42.597066",
      "2022-07-09T03:38:47.589307",
      "2022-07-09T03:38:51.836613",
      "2022-07-09T03:38:56.387705",
      "2022-07-09T03:39:00.652036",
      "2022-07-09T03:39:05.521030",
      "2022-07-09T03:39:09.899737",
      "2022-07-09T03:39:14.221945",
      "2022-07-09T03:39:18.648861",
      "2022-07-09T03:39:22.905150",
      "2022-07-09T03:39:27.337834",
      "2022-07-09T03:39:31.566624",
      "2022-07-09T03:39:36.008439",
      "2022-07-09T03:39:40.251132",
      "2022-07-09T03:39:44.622173",
      "2022-07-09T03:39:49.000428",
      "2022-07-09T03:39:53.258243",
      "2022-07-09T03:39:57.755126",
      "2022-07-09T03:40:01.993786",
      "2022-07-09T03:40:06.517704",
      "2022-07-09T03:40:10.773828",
      "2022-07-09T03:40:15.188499",
      "2022-07-09T03:40:19.509424",
      "2022-07-09T03:40:23.803017",
      "2022-07-09T03:40:28.918767",
      "2022-07-09T03:40:33.385725",
      "2022-07-09T03:40:37.845394",
      "2022-07-09T03:40:42.130946",
      "2022-07-09T03:40:46.583186",
      "2022-07-09T03:40:50.833990",
      "2022-07-09T03:40:55.316496",
      "2022-07-09T03:40:59.611446",
      "2022-07-09T03:41:03.989699",
      "2022-07-09T03:41:08.446960",
      "2022-07-09T03:41:12.731576",
      "2022-07-09T03:41:17.202421",
      "2022-07-09T03:41:21.431101",
      "2022-07-09T03:41:25.915390",
      "2022-07-09T03:41:30.136348",
      "2022-07-09T03:41:34.672743",
      "2022-07-09T03:41:39.277759",
      "2022-07-09T03:41:43.649550",
      "2022-07-09T03:41:48.186929",
      "2022-07-09T03:41:52.501746",
      "2022-07-09T03:41:57.036156",
      "2022-07-09T03:42:01.256000",
      "2022-07-09T03:42:05.781409",
      "2022-07-09T03:42:10.025065",
      "2022-07-09T03:42:14.299841",
      "2022-07-09T03:42:18.971603",
      "2022-07-09T03:42:23.241460",
      "2022-07-09T03:42:27.740363",
      "2022-07-09T03:42:31.970845",
      "2022-07-09T03:42:36.624722",
      "2022-07-09T03:42:40.862034",
      "2022-07-09T03:42:45.468510",
      "2022-07-09T03:42:49.746279",
      "2022-07-09T03:42:54.084961",
      "2022-07-09T03:42:58.591080",
      "2022-07-09T03:43:02.979496",
      "2022-07-09T03:43:07.477513",
      "2022-07-09T03:43:11.888433",
      "2022-07-09T03:43:16.870209",
      "2022-07-09T03:43:21.101611",
      "2022-07-09T03:43:25.595935",
      "2022-07-09T03:43:29.891319",
      "2022-07-09T03:43:34.223348",
      "2022-07-09T03:43:38.659688",
      "2022-07-09T03:43:42.929467",
      "2022-07-09T03:43:47.450169",
      "2022-07-09T03:43:51.731312",
      "2022-07-09T03:43:56.499640",
      "2022-07-09T03:44:00.796395",
      "2022-07-09T03:44:05.650141",
      "2022-07-09T03:44:10.025969",
      "2022-07-09T03:44:14.359856",
      "2022-07-09T03:44:18.783187",
      "2022-07-09T03:44:23.051278",
      "2022-07-09T03:44:27.602689",
      "2022-07-09T03:44:31.882513",
      "2022-07-09T03:44:36.593635",
      "2022-07-09T03:44:40.879181",
      "2022-07-09T03:44:45.785822",
      "2022-07-09T03:44:50.082265",
      "2022-07-09T03:44:54.420048",
      "2022-07-09T03:44:58.827582",
      "2022-07-09T03:45:03.043730",
      "2022-07-09T03:45:07.520573",
      "2022-07-09T03:45:11.776428",
      "2022-07-09T03:45:16.291738",
      "2022-07-09T03:45:20.549259",
      "2022-07-09T03:45:24.898597",
      "2022-07-09T03:45:29.241149",
      "2022-07-09T03:45:33.466815",
      "2022-07-09T03:45:37.926596",
      "2022-07-09T03:45:42.169909",
      "2022-07-09T03:45:46.711278",
      "2022-07-09T03:45:50.955050",
      "2022-07-09T03:45:55.380321",
      "2022-07-09T03:45:59.707626",
      "2022-07-09T03:46:04.012507",
      "2022-07-09T03:46:08.448941",
      "2022-07-09T03:46:12.692405",
      "2022-07-09T03:46:17.199222",
      "2022-07-09T03:46:21.461767",
      "2022-07-09T03:46:25.944572",
      "2022-07-09T03:46:30.189806",
      "2022-07-09T03:46:34.533815",
      "2022-07-09T03:46:38.913228",
      "2022-07-09T03:46:43.202410",
      "2022-07-09T03:46:47.693312",
      "2022-07-09T03:46:51.928333",
      "2022-07-09T03:46:56.425709",
      "2022-07-09T03:47:00.666964",
      "2022-07-09T03:47:05.121639",
      "2022-07-09T03:47:09.446241",
      "2022-07-09T03:47:13.764484",
      "2022-07-09T03:47:18.265489",
      "2022-07-09T03:47:22.576746",
      "2022-07-09T03:47:27.566644",
      "2022-07-09T03:47:31.822393",
      "2022-07-09T03:47:36.331518",
      "2022-07-09T03:47:40.584996",
      "2022-07-09T03:47:45.024572",
      "2022-07-09T03:47:49.410620",
      "2022-07-09T03:47:53.725054",
      "2022-07-09T03:47:58.239365",
      "2022-07-09T03:48:02.511846",
      "2022-07-09T03:48:07.047134",
      "2022-07-09T03:48:11.328707",
      "2022-07-09T03:48:15.842442",
      "2022-07-09T03:48:20.140078",
      "2022-07-09T03:48:24.511268",
      "2022-07-09T03:48:28.936699",
      "2022-07-09T03:48:33.215623",
      "2022-07-09T03:48:37.662439",
      "2022-07-09T03:48:41.986221",
      "2022-07-09T03:48:46.600504",
      "2022-07-09T03:48:50.896413",
      "2022-07-09T03:48:55.286778",
      "2022-07-09T03:48:59.735098",
      "2022-07-09T03:49:04.135415",
      "2022-07-09T03:49:08.594264",
      "2022-07-09T03:49:12.889919",
      "2022-07-09T03:49:17.352285",
      "2022-07-09T03:49:21.633507",
      "2022-07-09T03:49:26.213648",
      "2022-07-09T03:49:30.497015",
      "2022-07-09T03:49:34.876655",
      "2022-07-09T03:49:39.319394",
      "2022-07-09T03:49:43.678326",
      "2022-07-09T03:49:48.209660",
      "2022-07-09T03:49:52.488494",
      "2022-07-09T03:49:57.029705",
      "2022-07-09T03:50:01.315937",
      "2022-07-09T03:50:05.819830",
      "2022-07-09T03:50:10.080451",
      "2022-07-09T03:50:14.392562",
      "2022-07-09T03:50:18.835956",
      "2022-07-09T03:50:23.149768",
      "2022-07-09T03:50:27.976316",
      "2022-07-09T03:50:32.185344",
      "2022-07-09T03:50:36.704600",
      "2022-07-09T03:50:41.005439",
      "2022-07-09T03:50:45.452716",
      "2022-07-09T03:50:49.802151",
      "2022-07-09T03:50:54.147030",
      "2022-07-09T03:50:59.114584",
      "2022-07-09T03:51:03.436099",
      "2022-07-09T03:51:07.973391",
      "2022-07-09T03:51:12.240239",
      "2022-07-09T03:51:16.702689",
      "2022-07-09T03:51:20.930182",
      "2022-07-09T03:51:25.377603",
      "2022-07-09T03:51:29.725426",
      "2022-07-09T03:51:34.129501",
      "2022-07-09T03:51:38.660119",
      "2022-07-09T03:51:42.881668",
      "2022-07-09T03:51:47.899805",
      "2022-07-09T03:51:52.141848",
      "2022-07-09T03:51:56.699498",
      "2022-07-09T03:52:00.953485",
      "2022-07-09T03:52:05.430568",
      "2022-07-09T03:52:09.740703",
      "2022-07-09T03:52:14.092158",
      "2022-07-09T03:52:18.702029",
      "2022-07-09T03:52:22.937392",
      "2022-07-09T03:52:27.429199",
      "2022-07-09T03:52:31.680624",
      "2022-07-09T03:52:36.216840",
      "2022-07-09T03:52:40.470062",
      "2022-07-09T03:52:44.802005",
      "2022-07-09T03:52:49.212921"
    ],
    "values": [
      9.91680823546146,
      9.31886318961462,
      8.886920034925827,
      8.814023020357062,
      8.77947011815556,
      8.778827572757828,
      8.74934656193326,
      8.742882776340808,
      8.734214645511177,
      8.717566296411757,
      8.725437314799825,
      8.720366478026978,
      8.713146907955657,
      8.713881930162328,
      8.712209149540405,
      8.691425473998589,
      8.700101026107738,
      8.696081944438307,
      8.699697569520463,
      8.695410881019574,
      8.694574754909155,
      8.699510872862367,
      8.69350675186775,
      8.690989215182189,
      8.686224154000818,
      8.690334386163535,
      8.689289097339415,
      8.69403349295806,
      8.67998030664221,
      8.688657644566717,
      8.677117459062394,
      8.68082284379967,
      8.67593448778053,
      8.686981159688196,
      8.66963113581022,
      8.685791816923853,
      8.68041935824417,
      8.680723878788298,
      8.676080474955262,
      8.664369140234875,
      8.673375488025401,
      8.681579315236736,
      8.678770433252634,
      8.679494209260572,
      8.67546316411983,
      8.67094969932023,
      8.672198869191611,
      8.669804703383479,
      8.674609269816779,
      8.672881553682721,
      8.671877595117541,
      8.677638847431606,
      8.68053731452958,
      8.666162564759176,
      8.675329602936394,
      8.66646198373226,
      8.679060205268687,
      8.668466283097615,
      8.674074606755015,
      8.674299391586498,
      8.663397751793386,
      8.678325951497643,
      8.686023727769097,
      8.67301414423257,
      8.661863461762282,
      8.672698466903935,
      8.66898687981616,
      8.663764068083607,
      8.673223741371611,
      8.660757226517207,
      8.671920199878967,
      8.672491583590006,
      8.669853847684381,
      8.659667708916176,
      8.661140808232053,
      8.66235553921173,
      8.66749336646749,
      8.661610649531694,
      8.669358453628904,
      8.655638537455268,
      8.667735992495004,
      8.666112033213977,
      8.667526506086308,
      8.667086593646662,
      8.661928646162256,
      8.66206078429979,
      8.668197723102725,
      8.666862764718168,
      8.661319211030381,
      8.654790544480147,
      8.670479015052706,
      8.664770789886136,
      8.664816714580036,
      8.659535868694853,
      8.662381665876993,
      8.65870433007032,
      8.665884509499241,
      8.65774247147592,
      8.662062023434427,
      8.661370667489997,
      8.674334783781573,
      8.62036923967491,
      8.612444514609903,
      8.612184533832648,
      8.611038098934353,
      8.610102912049536,
      8.611409875994509,
      8.609797593103172,
      8.611590374550365,
      8.610191959937032,
      8.60986357441834,
      8.609059530736916,
      8.610319665425084,
      8.608582353253237,
      8.609815109089919,
      8.60865261634538,
      8.610134569956589,
      8.609867807527985,
      8.608491983628191,
      8.609296903031971,
      8.609303496637398,
      8.610263808521978,
      8.609143782602496,
      8.608847666884547,
      8.609167661381525,
      8.610409155984625,
      8.607369628959143,
      8.608555219680634,
      8.607431181291737,
      8.60786701914021,
      8.607398575472756,
      8.607917009855196,
      8.607254429245462,
      8.608676164626068,
      8.608306940266091,
      8.607550701407478,
      8.607994632836606,
      8.6094620651415,
      8.607928522191054,
      8.60756003445719,
      8.60753013361501,
      8.607447866800484,
      8.607984435160809,
      8.608093549973919,
      8.608419759346177,
      8.60738637908395,
      8.606554655213225,
      8.607558491842633,
      8.60262212424123,
      8.600887918321163,
      8.600687929105268,
      8.600703766668502,
      8.600553999543854,
      8.600748934109474,
      8.60051351305919,
      8.6005920205286,
      8.60052643572741,
      8.600712049446471,
      8.600382645915348,
      8.600718180538154,
      8.600430080087596,
      8.600517823888698,
      8.600433753165644,
      8.600501387531533,
      8.60032172074761,
      8.600508753181305,
      8.600345188709735,
      8.600390121160334,
      8.600433870140199,
      8.60036451950355,
      8.600467589034734,
      8.599614911230953,
      8.599618891997846,
      8.599586859617075,
      8.599592420657045,
      8.599568096932108,
      8.599572542617375,
      8.599582673096343,
      8.599559543589095,
      8.599565497686202,
      8.59955124167289,
      8.599550460198174,
      8.599526810330822,
      8.599557501064655,
      8.59953853916831,
      8.59953340658533,
      8.599521768182127,
      8.599533234076285,
      8.599517572777138,
      8.599517395150441,
      8.599525320008846,
      8.599530044772424,
      8.599527459221823,
      8.599431296772313,
      8.599435500732854,
      8.599438679724758,
      8.599436419412198,
      8.599438203927047,
      8.599438163226909,
      8.599435570658859,
      8.599436926379497,
      8.599438562569121,
      8.59943990332476,
      8.599439197987625,
      8.599440226315531,
      8.599438606831507,
      8.599439290536916,
      8.599443302122479,
      8.59944219754094,
      8.599439632219966,
      8.599440268457432,
      8.599439952664872,
      8.599437586753695,
      8.599437358409869,
      8.599438808449824,
      8.599437335564028,
      8.599438215647899,
      8.59943899089977,
      8.59943825778787,
      8.599441424858872,
      8.599440173877449,
      8.59943687408703,
      8.599439442602174,
      8.599436720534857,
      8.59943625576743,
      8.59943553146315,
      8.599435112052598,
      8.599436777327076,
      8.599437335041655,
      8.599435879297399,
      8.599436712276654,
      8.599433558644415,
      8.599435368112964,
      8.59943604587692,
      8.599435811691801,
      8.599436442676964,
      8.599434752860942,
      8.599436124966584,
      8.59943702749251,
      8.59943343695354,
      8.599435315954766,
      8.59943335051018,
      8.599433948655747,
      8.599433034302397,
      8.59943315469862,
      8.599433486161512,
      8.599433791237338,
      8.59943529327104,
      8.599433508890634,
      8.59943154246531
    ]
  },
  "val": {
    "steps": [
      0,
      1,
      2,
      3,
      4,
      5,
      6,
      7,
      8,
      9,
      10,
      11,
      12,
      13,
      14,
      15,
      16,
      17,
      18,
      19,
      20,
      21,
      22,
      23,
      24,
      25,
      26,
      27,
      28,
      29,
      30,
      31,
      32,
      33,
      34,
      35,
      36,
      37,
      38,
      39,
      40,
      41,
      42,
      43,
      44,
      45,
      46,
      47,
      48,
      49,
      50,
      51,
      52,
      53,
      54,
      55,
      56,
      57,
      58,
      59,
      60,
      61,
      62,
      63,
      64,
      65,
      66,
      67,
      68,
      69,
      70,
      71,
      72,
      73,
      74,
      75,
      76,
      77,
      78,
      79,
      80,
      81,
      82,
      83,
      84,
      85,
      86,
      87,
      88,
      89,
      90,
      91,
      92,
      93,
      94,
      95,
      96,
      97,
      98,
      99,
      100,
      101,
      102,
      103,
      104,
      105,
      106,
      107,
      108,
      109,
      110,
      111,
      112,
      113,
      114,
      115,
      116,
      117,
      118,
      119,
      120,
      121,
      122,
      123,
      124,
      125,
      126,
      127,
      128,
      129,
      130,
      131,
      132,
      133,
      134,
      135,
      136,
      137,
      138,
      139,
      140,
      141,
      142,
      143,
      144,
      145,
      146,
      147,
      148,
      149,
      150,
      151,
      152,
      153,
      154,
      155,
      156,
      157,
      158,
      159,
      160,
      161,
      162,
      163,
      164,
      165,
      166,
      167,
      168,
      169,
      170,
      171,
      172,
      173,
      174,
      175,
      176,
      177,
      178,
      179,
      180,
      181,
      182,
      183,
      184,
      185,
      186,
      187,
      188,
      189,
      190,
      191,
      192,
      193,
      194,
      195,
      196,
      197,
      198,
      199,
      200,
      201,
      202,
      203,
      204,
      205,
      206,
      207,
      208,
      209,
      210,
      211,
      212,
      213,
      214,
      215,
      216,
      217,
      218,
      219,
      220,
      221,
      222,
      223,
      224,
      225,
      226,
      227,
      228,
      229,
      230,
      231,
      232,
      233,
      234,
      235,
      236,
      237,
      238,
      239,
      240,
      241,
      242,
      243,
      244,
      245,
      246,
      247,
      248,
      249
    ],
    "timestamps": [
      "2022-07-09T03:34:30.368682",
      "2022-07-09T03:34:35.643332",
      "2022-07-09T03:34:40.207443",
      "2022-07-09T03:34:44.583513",
      "2022-07-09T03:34:49.095781",
      "2022-07-09T03:34:53.374432",
      "2022-07-09T03:34:58.419532",
      "2022-07-09T03:35:02.695199",
      "2022-07-09T03:35:07.203810",
      "2022-07-09T03:35:11.478918",
      "2022-07-09T03:35:15.997960",
      "2022-07-09T03:35:20.273947",
      "2022-07-09T03:35:24.644309",
      "2022-07-09T03:35:29.002418",
      "2022-07-09T03:35:33.400258",
      "2022-07-09T03:35:37.939775",
      "2022-07-09T03:35:42.187041",
      "2022-07-09T03:35:46.673425",
      "2022-07-09T03:35:50.966197",
      "2022-07-09T03:35:55.482490",
      "2022-07-09T03:35:59.829198",
      "2022-07-09T03:36:04.216283",
      "2022-07-09T03:36:08.830433",
      "2022-07-09T03:36:13.095922",
      "2022-07-09T03:36:18.102237",
      "2022-07-09T03:36:22.378795",
      "2022-07-09T03:36:27.024569",
      "2022-07-09T03:36:31.304531",
      "2022-07-09T03:36:35.814929",
      "2022-07-09T03:36:40.100818",
      "2022-07-09T03:36:44.431018",
      "2022-07-09T03:36:48.804883",
      "2022-07-09T03:36:53.051491",
      "2022-07-09T03:36:57.607497",
      "2022-07-09T03:37:01.900070",
      "2022-07-09T03:37:06.434931",
      "2022-07-09T03:37:10.706468",
      "2022-07-09T03:37:15.164017",
      "2022-07-09T03:37:19.523297",
      "2022-07-09T03:37:23.869635",
      "2022-07-09T03:37:28.434942",
      "2022-07-09T03:37:32.734588",
      "2022-07-09T03:37:37.245257",
      "2022-07-09T03:37:41.530121",
      "2022-07-09T03:37:46.154940",
      "2022-07-09T03:37:50.491820",
      "2022-07-09T03:37:54.830895",
      "2022-07-09T03:37:59.187865",
      "2022-07-09T03:38:03.596171",
      "2022-07-09T03:38:08.127271",
      "2022-07-09T03:38:12.435891",
      "2022-07-09T03:38:16.947415",
      "2022-07-09T03:38:21.261560",
      "2022-07-09T03:38:25.770758",
      "2022-07-09T03:38:30.023843",
      "2022-07-09T03:38:34.408754",
      "2022-07-09T03:38:38.869491",
      "2022-07-09T03:38:43.178638",
      "2022-07-09T03:38:48.163480",
      "2022-07-09T03:38:52.403151",
      "2022-07-09T03:38:56.961236",
      "2022-07-09T03:39:01.220294",
      "2022-07-09T03:39:06.216155",
      "2022-07-09T03:39:10.473049",
      "2022-07-09T03:39:14.856717",
      "2022-07-09T03:39:19.227916",
      "2022-07-09T03:39:23.476090",
      "2022-07-09T03:39:27.908525",
      "2022-07-09T03:39:32.138976",
      "2022-07-09T03:39:36.583381",
      "2022-07-09T03:39:40.824095",
      "2022-07-09T03:39:45.257115",
      "2022-07-09T03:39:49.582968",
      "2022-07-09T03:39:53.846892",
      "2022-07-09T03:39:58.328549",
      "2022-07-09T03:40:02.568899",
      "2022-07-09T03:40:07.091185",
      "2022-07-09T03:40:11.348646",
      "2022-07-09T03:40:15.826056",
      "2022-07-09T03:40:20.085919",
      "2022-07-09T03:40:24.591107",
      "2022-07-09T03:40:29.487860",
      "2022-07-09T03:40:33.972135",
      "2022-07-09T03:40:38.414142",
      "2022-07-09T03:40:42.703217",
      "2022-07-09T03:40:47.151732",
      "2022-07-09T03:40:51.424851",
      "2022-07-09T03:40:55.936898",
      "2022-07-09T03:41:00.184778",
      "2022-07-09T03:41:04.634471",
      "2022-07-09T03:41:09.024316",
      "2022-07-09T03:41:13.319494",
      "2022-07-09T03:41:17.772927",
      "2022-07-09T03:41:22.012371",
      "2022-07-09T03:41:26.474486",
      "2022-07-09T03:41:30.708318",
      "2022-07-09T03:41:35.545015",
      "2022-07-09T03:41:39.850863",
      "2022-07-09T03:41:44.279416",
      "2022-07-09T03:41:48.785752",
      "2022-07-09T03:41:53.077380",
      "2022-07-09T03:41:57.601890",
      "2022-07-09T03:42:01.821319",
      "2022-07-09T03:42:06.353137",
      "2022-07-09T03:42:10.593386",
      "2022-07-09T03:42:14.927222",
      "2022-07-09T03:42:19.539607",
      "2022-07-09T03:42:23.828569",
      "2022-07-09T03:42:28.314259",
      "2022-07-09T03:42:32.538003",
      "2022-07-09T03:42:37.199117",
      "2022-07-09T03:42:41.425929",
      "2022-07-09T03:42:46.049335",
      "2022-07-09T03:42:50.325205",
      "2022-07-09T03:42:54.729103",
      "2022-07-09T03:42:59.162007",
      "2022-07-09T03:43:03.555540",
      "2022-07-09T03:43:08.045998",
      "2022-07-09T03:43:12.587343",
      "2022-07-09T03:43:17.439953",
      "2022-07-09T03:43:21.670551",
      "2022-07-09T03:43:26.195651",
      "2022-07-09T03:43:30.468724",
      "2022-07-09T03:43:34.853135",
      "2022-07-09T03:43:39.238367",
      "2022-07-09T03:43:43.509720",
      "2022-07-09T03:43:48.027465",
      "2022-07-09T03:43:52.309059",
      "2022-07-09T03:43:57.080726",
      "2022-07-09T03:44:01.371199",
      "2022-07-09T03:44:06.339592",
      "2022-07-09T03:44:10.595031",
      "2022-07-09T03:44:14.984507",
      "2022-07-09T03:44:19.352567",
      "2022-07-09T03:44:23.632860",
      "2022-07-09T03:44:28.169748",
      "2022-07-09T03:44:32.474826",
      "2022-07-09T03:44:37.159403",
      "2022-07-09T03:44:41.447790",
      "2022-07-09T03:44:46.415594",
      "2022-07-09T03:44:50.655556",
      "2022-07-09T03:44:55.053096",
      "2022-07-09T03:44:59.399598",
      "2022-07-09T03:45:03.617643",
      "2022-07-09T03:45:08.092485",
      "2022-07-09T03:45:12.352478",
      "2022-07-09T03:45:16.867626",
      "2022-07-09T03:45:21.115025",
      "2022-07-09T03:45:25.531580",
      "2022-07-09T03:45:29.813101",
      "2022-07-09T03:45:34.065537",
      "2022-07-09T03:45:38.498347",
      "2022-07-09T03:45:42.745383",
      "2022-07-09T03:45:47.280935",
      "2022-07-09T03:45:51.526545",
      "2022-07-09T03:45:56.010382",
      "2022-07-09T03:46:00.278784",
      "2022-07-09T03:46:04.645077",
      "2022-07-09T03:46:09.024843",
      "2022-07-09T03:46:13.283094",
      "2022-07-09T03:46:17.770680",
      "2022-07-09T03:46:22.034857",
      "2022-07-09T03:46:26.516376",
      "2022-07-09T03:46:30.762132",
      "2022-07-09T03:46:35.165583",
      "2022-07-09T03:46:39.490140",
      "2022-07-09T03:46:43.784146",
      "2022-07-09T03:46:48.265655",
      "2022-07-09T03:46:52.497793",
      "2022-07-09T03:46:56.997872",
      "2022-07-09T03:47:01.236886",
      "2022-07-09T03:47:05.754901",
      "2022-07-09T03:47:10.019458",
      "2022-07-09T03:47:14.389431",
      "2022-07-09T03:47:18.839170",
      "2022-07-09T03:47:23.149272",
      "2022-07-09T03:47:28.140949",
      "2022-07-09T03:47:32.394012",
      "2022-07-09T03:47:36.906163",
      "2022-07-09T03:47:41.159172",
      "2022-07-09T03:47:45.665217",
      "2022-07-09T03:47:49.990593",
      "2022-07-09T03:47:54.348354",
      "2022-07-09T03:47:58.816513",
      "2022-07-09T03:48:03.094713",
      "2022-07-09T03:48:07.621103",
      "2022-07-09T03:48:11.905217",
      "2022-07-09T03:48:16.427944",
      "2022-07-09T03:48:20.716371",
      "2022-07-09T03:48:25.130759",
      "2022-07-09T03:48:29.509821",
      "2022-07-09T03:48:33.794486",
      "2022-07-09T03:48:38.277842",
      "2022-07-09T03:48:42.552805",
      "2022-07-09T03:48:47.166359",
      "2022-07-09T03:48:51.467262",
      "2022-07-09T03:48:55.959683",
      "2022-07-09T03:49:00.304990",
      "2022-07-09T03:49:04.772375",
      "2022-07-09T03:49:09.165086",
      "2022-07-09T03:49:13.470175",
      "2022-07-09T03:49:17.927983",
      "2022-07-09T03:49:22.209966",
      "2022-07-09T03:49:26.792389",
      "2022-07-09T03:49:31.072335",
      "2022-07-09T03:49:35.503598",
      "2022-07-09T03:49:40.003375",
      "2022-07-09T03:49:44.280907",
      "2022-07-09T03:49:48.787995",
      "2022-07-09T03:49:53.068388",
      "2022-07-09T03:49:57.605691",
      "2022-07-09T03:50:01.894042",
      "2022-07-09T03:50:06.399431",
      "2022-07-09T03:50:10.647564",
      "2022-07-09T03:50:14.999569",
      "2022-07-09T03:50:19.457131",
      "2022-07-09T03:50:23.719183",
      "2022-07-09T03:50:28.543235",
      "2022-07-09T03:50:32.756569",
      "2022-07-09T03:50:37.298895",
      "2022-07-09T03:50:41.576432",
      "2022-07-09T03:50:46.096900",
      "2022-07-09T03:50:50.376938",
      "2022-07-09T03:50:54.975821",
      "2022-07-09T03:50:59.678681",
      "2022-07-09T03:51:04.004724",
      "2022-07-09T03:51:08.539230",
      "2022-07-09T03:51:12.806116",
      "2022-07-09T03:51:17.271506",
      "2022-07-09T03:51:21.498896",
      "2022-07-09T03:51:26.000554",
      "2022-07-09T03:51:30.293786",
      "2022-07-09T03:51:34.759709",
      "2022-07-09T03:51:39.235911",
      "2022-07-09T03:51:43.456812",
      "2022-07-09T03:51:48.470522",
      "2022-07-09T03:51:52.715618",
      "2022-07-09T03:51:57.280079",
      "2022-07-09T03:52:01.525298",
      "2022-07-09T03:52:06.092231",
      "2022-07-09T03:52:10.309654",
      "2022-07-09T03:52:14.717135",
      "2022-07-09T03:52:19.279205",
      "2022-07-09T03:52:23.513479",
      "2022-07-09T03:52:28.000881",
      "2022-07-09T03:52:32.251661",
      "2022-07-09T03:52:36.792164",
      "2022-07-09T03:52:41.044133",
      "2022-07-09T03:52:45.433335",
      "2022-07-09T03:52:49.787910"
    ],
    "values": [
      9.725425627881238,
      8.923191381002049,
      8.80229774668576,
      8.792954634480965,
      8.756746383044055,
      8.739820093532382,
      8.775861246502783,
      8.739527567990269,
      8.736807499850643,
      8.732291162641177,
      8.726708733199528,
      8.738878214815626,
      8.726232171922806,
      8.708480588659409,
      8.711178435800505,
      8.723983402593852,
      8.708126144265389,
      8.710649727567873,
      8.707518644520158,
      8.68273503006966,
      8.71756614034904,
      8.720307658687624,
      8.738323469059402,
      8.716684108719889,
      8.686732374121814,
      8.757023240651634,
      8.740642084062612,
      8.694936913129233,
      8.708787692918417,
      8.697339759226036,
      8.731178658905044,
      8.705156414964426,
      8.688957658435564,
      8.705060785832218,
      8.704613764221671,
      8.682329054902322,
      8.687804809360895,
      8.68760261690422,
      8.676492846348298,
      8.711909195989119,
      8.705785578445498,
      8.727575891356453,
      8.685380438696715,
      8.7669040168351,
      8.705526684646408,
      8.712792547675368,
      8.714130619133408,
      8.706663604812347,
      8.717880918428909,
      8.74372849463086,
      8.7049657531219,
      8.709527009699622,
      8.685958176112647,
      8.680648506271337,
      8.682635669303597,
      8.705095605664486,
      8.675733772105366,
      8.6987981537732,
      8.67726637682516,
      8.724509167207033,
      8.69374756766402,
      8.731537914591005,
      8.71083358327055,
      8.681974185389599,
      8.670018912718742,
      8.70405274460831,
      8.71147806323793,
      8.705265006581698,
      8.677883236724213,
      8.709423297385278,
      8.721943808356674,
      8.712207743699897,
      8.688497460178613,
      8.691435056392557,
      8.678093777427598,
      8.683231085632341,
      8.690003713040971,
      8.68819244125359,
      8.710054330548783,
      8.704887592111128,
      8.715791682042905,
      8.684538327041563,
      8.690296997572984,
      8.696622028136964,
      8.684264961611625,
      8.709280535046727,
      8.724968577741219,
      8.67932442138822,
      8.680003698267763,
      8.699549255351666,
      8.708325456689757,
      8.705511300732672,
      8.714130885195507,
      8.713312173643736,
      8.707488269597064,
      8.686479782275693,
      8.702939329621456,
      8.689261360249697,
      8.673310543702529,
      8.675219901165203,
      8.678986326253739,
      8.654591998273142,
      8.658302399531971,
      8.6572103630315,
      8.65422167296338,
      8.655476636553207,
      8.657900363902854,
      8.655198640046025,
      8.65799423030709,
      8.654744849570204,
      8.655188768617935,
      8.658954032661804,
      8.653797780145474,
      8.657193955035488,
      8.654903092639602,
      8.657256107095982,
      8.658738667610276,
      8.656788789408493,
      8.660284106240232,
      8.659428115735821,
      8.654702010351686,
      8.655106516616227,
      8.652275163576252,
      8.658327692015105,
      8.657901811598572,
      8.654890438312988,
      8.65724706865809,
      8.657034781946264,
      8.661092177491968,
      8.660764694832885,
      8.656302199213156,
      8.656145088262464,
      8.658776588667472,
      8.65523457748278,
      8.656298672674325,
      8.659849540982815,
      8.65860708385675,
      8.657466639057862,
      8.657696545958387,
      8.663559822111138,
      8.659353894211753,
      8.66153100577741,
      8.659383011950945,
      8.661258395855139,
      8.657644292755812,
      8.657516925865178,
      8.658544442111953,
      8.661736244104956,
      8.656466874237374,
      8.655517843137895,
      8.654878128976897,
      8.655479715327727,
      8.65542315928782,
      8.655307897499483,
      8.655821154637264,
      8.6554405967214,
      8.655189223070394,
      8.655684230133977,
      8.655585179536553,
      8.655268595252569,
      8.655338759948876,
      8.655163404227611,
      8.655252821575319,
      8.655285013342446,
      8.655546397073188,
      8.655614426655353,
      8.655891053484874,
      8.655240941671961,
      8.655205686440336,
      8.655682142273688,
      8.655800339797361,
      8.655806334751514,
      8.655788814115342,
      8.655749845221752,
      8.655701458245439,
      8.65565987993426,
      8.655626384555838,
      8.655608011959222,
      8.65561405069908,
      8.655553459810683,
      8.655535303591922,
      8.65554838006026,
      8.65551348739005,
      8.655536721482127,
      8.655488990550559,
      8.655490502022129,
      8.655489443194242,
      8.655455975108406,
      8.655493023016856,
      8.655459705059155,
      8.65546935453101,
      8.655459442480971,
      8.65545158159119,
      8.655471075809068,
      8.655475362181003,
      8.655475708386447,
      8.655471308572167,
      8.65547272185964,
      8.655469448078783,
      8.655468934488832,
      8.655473624315363,
      8.655468458270361,
      8.655472126693677,
      8.655473557125138,
      8.655474414361828,
      8.6554718438743,
      8.655472605983267,
      8.655467344369594,
      8.655474134113689,
      8.65547167126596,
      8.65547181846645,
      8.655475242356315,
      8.655473078714188,
      8.655472753261463,
      8.655469243483735,
      8.6554718563298,
      8.65547237832204,
      8.655473315807034,
      8.655476748168343,
      8.655473917481094,
      8.655478228024945,
      8.655473352103055,
      8.655475869618495,
      8.655478117514306,
      8.65547415019264,
      8.655476848775349,
      8.655474415252831,
      8.655476460458779,
      8.655475867627674,
      8.655475562670098,
      8.655477190444165,
      8.655478471020714,
      8.655473819339345,
      8.655478566881001,
      8.655475000171322,
      8.655478165433703,
      8.655481954346188,
      8.6554811658308,
      8.655477529150932,
      8.655481754080098,
      8.655482149566339,
      8.655480136953692,
      8.655476307620809,
      8.655482382769462,
      8.655480671898523,
      8.655481914902131,
      8.655480371912345,
      8.655479426877937,
      8.655486507525037,
      8.655483400780223
    ]
  }
}