{
  "memory.usage": {
    "steps": [
      0,
      1,
      2,
      3,
      4,
      5,
      6,
      7,
      8,
      9,
      10,
      11,
      12,
      13,
      14,
      15,
      16,
      17,
      18,
      19,
      20,
      21,
      22,
      23,
      24,
      25,
      26,
      27,
      28,
      29,
      30,
      31,
      32,
      33,
      34,
      35,
      36,
      37,
      38,
      39,
      40,
      41,
      42,
      43,
      44,
      45,
      46,
      47,
      48,
      49,
      50,
      0,
      1,
      2,
      3,
      4,
      5,
      6,
      7,
      8,
      9
    ],
    "timestamps": [
      "2022-09-27T07:37:07.670502",
      "2022-09-27T07:44:24.944099",
      "2022-09-27T07:52:27.879949",
      "2022-09-27T08:00:34.935163",
      "2022-09-27T08:08:41.724081",
      "2022-09-27T08:16:44.357834",
      "2022-09-27T08:24:46.126877",
      "2022-09-27T08:32:51.322487",
      "2022-09-27T08:40:57.167899",
      "2022-09-27T08:47:26.604522",
      "2022-09-27T08:53:30.449647",
      "2022-09-27T08:59:32.857855",
      "2022-09-27T09:05:35.797172",
      "2022-09-27T09:11:36.892667",
      "2022-09-27T09:17:43.654264",
      "2022-09-27T09:23:45.111759",
      "2022-09-27T09:29:53.355553",
      "2022-09-27T09:35:52.817051",
      "2022-09-27T09:41:51.207801",
      "2022-09-27T09:47:57.181970",
      "2022-09-27T09:54:05.895157",
      "2022-09-27T10:00:09.679034",
      "2022-09-27T10:06:13.758558",
      "2022-09-27T10:12:17.442866",
      "2022-09-27T10:18:23.346693",
      "2022-09-27T10:24:21.347098",
      "2022-09-27T10:29:36.334537",
      "2022-09-27T10:35:03.636867",
      "2022-09-27T10:40:20.126317",
      "2022-09-27T10:48:08.365702",
      "2022-09-27T10:56:17.751368",
      "2022-09-27T11:04:20.676666",
      "2022-09-27T11:12:21.931867",
      "2022-09-27T11:20:29.915707",
      "2022-09-27T11:28:43.892088",
      "2022-09-27T11:36:59.487340",
      "2022-09-27T11:45:17.435035",
      "2022-09-27T11:53:12.774829",
      "2022-09-27T11:59:31.771163",
      "2022-09-27T12:06:11.632052",
      "2022-09-27T12:12:36.831642",
      "2022-09-27T12:18:55.631765",
      "2022-09-27T12:25:00.811035",
      "2022-09-27T12:31:05.145491",
      "2022-09-27T12:37:08.200529",
      "2022-09-27T12:43:34.491565",
      "2022-09-27T12:49:39.208994",
      "2022-09-27T12:56:04.025195",
      "2022-09-27T13:02:13.439872",
      "2022-09-27T13:08:18.996205",
      "2022-09-27T13:14:34.188805",
      "2022-09-27T17:05:51.552849",
      "2022-09-27T17:12:11.688634",
      "2022-09-27T17:18:32.092855",
      "2022-09-27T17:24:37.488456",
      "2022-09-27T17:30:42.675751",
      "2022-09-27T17:36:48.137560",
      "2022-09-27T17:42:54.085928",
      "2022-09-27T17:49:00.430915",
      "2022-09-27T17:55:06.522829",
      "2022-09-27T18:01:12.944679"
    ],
    "values": [
      563.149824,
      563.149824,
      563.149824,
      563.149824,
      563.149824,
      563.149824,
      563.149824,
      563.149824,
      563.149824,
      563.149824,
      563.149824,
      563.149824,
      563.149824,
      563.149824,
      563.149824,
      563.149824,
      563.149824,
      563.149824,
      563.149824,
      563.149824,
      563.149824,
      563.149824,
      563.149824,
      563.149824,
      563.149824,
      563.149824,
      563.149824,
      563.149824,
      563.149824,
      563.149824,
      563.149824,
      563.149824,
      563.149824,
      563.149824,
      563.149824,
      563.149824,
      563.149824,
      563.149824,
      563.149824,
      563.149824,
      563.149824,
      563.149824,
      563.149824,
      563.149824,
      563.149824,
      563.149824,
      563.149824,
      563.149824,
      563.149824,
      563.149824,
      563.149824,
      563.149824,
      563.149824,
      563.149824,
      563.149824,
      563.149824,
      563.149824,
      563.149824,
      563.149824,
      563.149824,
      563.149824
    ]
  },
  "train": {
    "steps": [
      0,
      1,
      2,
      3,
      4,
      5,
      6,
      7,
      8,
      9,
      10,
      11,
      12,
      13,
      14,
      15,
      16,
      17,
      18,
      19,
      20,
      21,
      22,
      23,
      24,
      25,
      26,
      27,
      28,
      29,
      30,
      31,
      32,
      33,
      34,
      35,
      36,
      37,
      38,
      39,
      40,
      41,
      42,
      43,
      44,
      45,
      46,
      47,
      48,
      49,
      50,
      51,
      52,
      53,
      54,
      55,
      56,
      57,
      58,
      59,
      60,
      61,
      62,
      63,
      64,
      65,
      66,
      67,
      68,
      69,
      70,
      71,
      72,
      73,
      74,
      75,
      76,
      77,
      78,
      79,
      80,
      81,
      82,
      83,
      84,
      85,
      86,
      87,
      88,
      89,
      90,
      91,
      92,
      93,
      94,
      95,
      96,
      97,
      98,
      99,
      100,
      101,
      102,
      103,
      104,
      105,
      106,
      107,
      108,
      109,
      110,
      111,
      112,
      113,
      114,
      115,
      116,
      117,
      118,
      119,
      120,
      121,
      122,
      123,
      124,
      125,
      126,
      127,
      128,
      129,
      130,
      131,
      132,
      133,
      134,
      135,
      136,
      137,
      138,
      139,
      140,
      141,
      142,
      143,
      144,
      145,
      146,
      147,
      148,
      149,
      150,
      151,
      152,
      153,
      154,
      155,
      156,
      157,
      158,
      159,
      160,
      161,
      162,
      163,
      164,
      165,
      166,
      167,
      168,
      169,
      170,
      171,
      172,
      173,
      174,
      175,
      176,
      177,
      178,
      179,
      180,
      181,
      182,
      183,
      184,
      185,
      186,
      187,
      188,
      189,
      190,
      191,
      192,
      193,
      194,
      195,
      196,
      197,
      198,
      199,
      200,
      201,
      202,
      203,
      204,
      205,
      206,
      207,
      208,
      209,
      210,
      211,
      212,
      213,
      214,
      215,
      216,
      217,
      218,
      219,
      220,
      221,
      222,
      223,
      224,
      225,
      226,
      227,
      228,
      229,
      230,
      231,
      232,
      233,
      234,
      235,
      236,
      237,
      238,
      239,
      240,
      241,
      242,
      243,
      244,
      245,
      246,
      247,
      248,
      249,
      250,
      251,
      252,
      253,
      254,
      255,
      256,
      257,
      258,
      259,
      260,
      261,
      262,
      263,
      264,
      265,
      266,
      267,
      268,
      269,
      270,
      271,
      272,
      273,
      274,
      275,
      276,
      277,
      278,
      279,
      280,
      281,
      282,
      283,
      284,
      285,
      286,
      287,
      288,
      289,
      290,
      291,
      292,
      293,
      294,
      295,
      296,
      297,
      298,
      299,
      300,
      301,
      302,
      303,
      304,
      305,
      306,
      307,
      308,
      309,
      310,
      311,
      312,
      313,
      314,
      315,
      316,
      317,
      318,
      319,
      320,
      321,
      322,
      323,
      324,
      325,
      326,
      327,
      328,
      329,
      330,
      331,
      332,
      333,
      334,
      335,
      336,
      337,
      338,
      339,
      340,
      341,
      342,
      343,
      344,
      345,
      346,
      347,
      348,
      349,
      350,
      351,
      352,
      353,
      354,
      355,
      356,
      357,
      358,
      359,
      360,
      361,
      362,
      363,
      364,
      365,
      366,
      367,
      368,
      369,
      370,
      371,
      372,
      373,
      374,
      375,
      376,
      377,
      378,
      379,
      380,
      381,
      382,
      383,
      384,
      385,
      386,
      387,
      388,
      389,
      390,
      391,
      392,
      393,
      394,
      395,
      396,
      397,
      398,
      399,
      400,
      401,
      402,
      403,
      404,
      405,
      406,
      407,
      408,
      409,
      410,
      411,
      412,
      413,
      414,
      415,
      416,
      417,
      418,
      419,
      420,
      421,
      422,
      423,
      424,
      425,
      426,
      427,
      428,
      429,
      430,
      431,
      432,
      433,
      434,
      435,
      436,
      437,
      438,
      439,
      440,
      441,
      442,
      443,
      444,
      445,
      446,
      447,
      448,
      449,
      450,
      451,
      452,
      453,
      454,
      455,
      456,
      457,
      458,
      459,
      460,
      461,
      462,
      463,
      464,
      465,
      466,
      467,
      468,
      469,
      470,
      471,
      472,
      473,
      474,
      475,
      476,
      477,
      478,
      479,
      480,
      481,
      482,
      483,
      484,
      485,
      486,
      487,
      488,
      489,
      490,
      491,
      492,
      493,
      494,
      495,
      496,
      497,
      498,
      499,
      0,
      1,
      2,
      3,
      4,
      5,
      6,
      7,
      8,
      9,
      10,
      11,
      12,
      13,
      14,
      15,
      16,
      17,
      18,
      19,
      20,
      21,
      22,
      23,
      24,
      25,
      26,
      27,
      28,
      29,
      30,
      31,
      32,
      33,
      34,
      35,
      36,
      37,
      38,
      39,
      40,
      41,
      42,
      43,
      44,
      45,
      46,
      47,
      48,
      49,
      50,
      51,
      52,
      53,
      54,
      55,
      56,
      57,
      58,
      59,
      60,
      61,
      62,
      63,
      64,
      65,
      66,
      67,
      68,
      69,
      70,
      71,
      72,
      73,
      74,
      75,
      76,
      77,
      78,
      79,
      80,
      81,
      82,
      83,
      84,
      85,
      86,
      87,
      88,
      89,
      90,
      91,
      92,
      93,
      94,
      95,
      96,
      97,
      98,
      99
    ],
    "timestamps": [
      "2022-09-27T07:37:07.668680",
      "2022-09-27T07:37:56.049803",
      "2022-09-27T07:38:44.840894",
      "2022-09-27T07:39:33.148590",
      "2022-09-27T07:40:21.356888",
      "2022-09-27T07:41:10.175692",
      "2022-09-27T07:41:59.430680",
      "2022-09-27T07:42:48.869151",
      "2022-09-27T07:43:36.975579",
      "2022-09-27T07:44:24.943438",
      "2022-09-27T07:45:13.452923",
      "2022-09-27T07:46:01.365552",
      "2022-09-27T07:46:49.456928",
      "2022-09-27T07:47:38.716949",
      "2022-09-27T07:48:26.696077",
      "2022-09-27T07:49:14.874441",
      "2022-09-27T07:50:02.903157",
      "2022-09-27T07:50:51.394969",
      "2022-09-27T07:51:39.457721",
      "2022-09-27T07:52:27.878663",
      "2022-09-27T07:53:17.136849",
      "2022-09-27T07:54:05.227306",
      "2022-09-27T07:54:54.222783",
      "2022-09-27T07:55:42.811059",
      "2022-09-27T07:56:31.299472",
      "2022-09-27T07:57:20.799932",
      "2022-09-27T07:58:08.917368",
      "2022-09-27T07:58:57.206806",
      "2022-09-27T07:59:46.029470",
      "2022-09-27T08:00:34.933730",
      "2022-09-27T08:01:24.084877",
      "2022-09-27T08:02:12.993151",
      "2022-09-27T08:03:01.417202",
      "2022-09-27T08:03:50.051937",
      "2022-09-27T08:04:38.993334",
      "2022-09-27T08:05:26.978064",
      "2022-09-27T08:06:16.218004",
      "2022-09-27T08:07:04.914449",
      "2022-09-27T08:07:53.201046",
      "2022-09-27T08:08:41.723281",
      "2022-09-27T08:09:29.900016",
      "2022-09-27T08:10:18.729458",
      "2022-09-27T08:11:06.932949",
      "2022-09-27T08:11:54.988765",
      "2022-09-27T08:12:42.956240",
      "2022-09-27T08:13:31.286588",
      "2022-09-27T08:14:19.290332",
      "2022-09-27T08:15:07.176899",
      "2022-09-27T08:15:55.597601",
      "2022-09-27T08:16:44.357346",
      "2022-09-27T08:17:32.499655",
      "2022-09-27T08:18:20.632962",
      "2022-09-27T08:19:08.920751",
      "2022-09-27T08:19:57.168735",
      "2022-09-27T08:20:45.300662",
      "2022-09-27T08:21:33.303235",
      "2022-09-27T08:22:21.340153",
      "2022-09-27T08:23:09.527783",
      "2022-09-27T08:23:57.568226",
      "2022-09-27T08:24:46.125985",
      "2022-09-27T08:25:34.331638",
      "2022-09-27T08:26:22.655087",
      "2022-09-27T08:27:10.755778",
      "2022-09-27T08:28:00.510208",
      "2022-09-27T08:28:49.471770",
      "2022-09-27T08:29:37.711783",
      "2022-09-27T08:30:26.133328",
      "2022-09-27T08:31:14.674556",
      "2022-09-27T08:32:02.842295",
      "2022-09-27T08:32:51.321160",
      "2022-09-27T08:33:39.897293",
      "2022-09-27T08:34:28.079895",
      "2022-09-27T08:35:16.475114",
      "2022-09-27T08:36:04.967409",
      "2022-09-27T08:36:53.505752",
      "2022-09-27T08:37:42.364215",
      "2022-09-27T08:38:30.938203",
      "2022-09-27T08:39:19.133745",
      "2022-09-27T08:40:08.363226",
      "2022-09-27T08:40:57.166693",
      "2022-09-27T08:41:45.229841",
      "2022-09-27T08:42:33.916451",
      "2022-09-27T08:43:12.245359",
      "2022-09-27T08:43:48.749523",
      "2022-09-27T08:44:25.075870",
      "2022-09-27T08:45:01.374014",
      "2022-09-27T08:45:37.768906",
      "2022-09-27T08:46:13.947946",
      "2022-09-27T08:46:50.187717",
      "2022-09-27T08:47:26.603242",
      "2022-09-27T08:48:03.047241",
      "2022-09-27T08:48:39.500165",
      "2022-09-27T08:49:15.924703",
      "2022-09-27T08:49:52.269811",
      "2022-09-27T08:50:28.744477",
      "2022-09-27T08:51:05.077559",
      "2022-09-27T08:51:41.389560",
      "2022-09-27T08:52:17.840440",
      "2022-09-27T08:52:54.252295",
      "2022-09-27T08:53:30.448925",
      "2022-09-27T08:54:06.702535",
      "2022-09-27T08:54:42.839134",
      "2022-09-27T08:55:19.077484",
      "2022-09-27T08:55:55.205061",
      "2022-09-27T08:56:31.396388",
      "2022-09-27T08:57:07.633325",
      "2022-09-27T08:57:43.933506",
      "2022-09-27T08:58:20.269898",
      "2022-09-27T08:58:56.587115",
      "2022-09-27T08:59:32.856615",
      "2022-09-27T09:00:09.326446",
      "2022-09-27T09:00:45.551048",
      "2022-09-27T09:01:21.818057",
      "2022-09-27T09:01:58.070466",
      "2022-09-27T09:02:34.351113",
      "2022-09-27T09:03:10.694607",
      "2022-09-27T09:03:46.950990",
      "2022-09-27T09:04:23.321909",
      "2022-09-27T09:04:59.596582",
      "2022-09-27T09:05:35.796338",
      "2022-09-27T09:06:11.954002",
      "2022-09-27T09:06:48.206016",
      "2022-09-27T09:07:24.525915",
      "2022-09-27T09:08:00.948433",
      "2022-09-27T09:08:37.283569",
      "2022-09-27T09:09:13.375634",
      "2022-09-27T09:09:49.305802",
      "2022-09-27T09:10:25.270223",
      "2022-09-27T09:11:00.844242",
      "2022-09-27T09:11:36.891744",
      "2022-09-27T09:12:12.895885",
      "2022-09-27T09:12:49.818422",
      "2022-09-27T09:13:25.377684",
      "2022-09-27T09:14:02.115953",
      "2022-09-27T09:14:38.520150",
      "2022-09-27T09:15:15.741617",
      "2022-09-27T09:15:52.289045",
      "2022-09-27T09:16:29.039412",
      "2022-09-27T09:17:06.976756",
      "2022-09-27T09:17:43.652869",
      "2022-09-27T09:18:19.956650",
      "2022-09-27T09:18:55.656641",
      "2022-09-27T09:19:31.427948",
      "2022-09-27T09:20:07.462147",
      "2022-09-27T09:20:43.866092",
      "2022-09-27T09:21:20.087365",
      "2022-09-27T09:21:55.780148",
      "2022-09-27T09:22:31.699954",
      "2022-09-27T09:23:07.956772",
      "2022-09-27T09:23:45.110559",
      "2022-09-27T09:24:23.732376",
      "2022-09-27T09:25:01.517370",
      "2022-09-27T09:25:38.873209",
      "2022-09-27T09:26:16.183044",
      "2022-09-27T09:26:53.151897",
      "2022-09-27T09:27:29.623106",
      "2022-09-27T09:28:05.883431",
      "2022-09-27T09:28:41.718354",
      "2022-09-27T09:29:17.540944",
      "2022-09-27T09:29:53.354473",
      "2022-09-27T09:30:29.383225",
      "2022-09-27T09:31:05.272420",
      "2022-09-27T09:31:41.322156",
      "2022-09-27T09:32:17.254548",
      "2022-09-27T09:32:53.134324",
      "2022-09-27T09:33:29.068062",
      "2022-09-27T09:34:04.952847",
      "2022-09-27T09:34:40.977364",
      "2022-09-27T09:35:16.880525",
      "2022-09-27T09:35:52.815894",
      "2022-09-27T09:36:28.701600",
      "2022-09-27T09:37:04.571980",
      "2022-09-27T09:37:40.367054",
      "2022-09-27T09:38:16.314746",
      "2022-09-27T09:38:52.112418",
      "2022-09-27T09:39:28.026279",
      "2022-09-27T09:40:03.881790",
      "2022-09-27T09:40:39.566974",
      "2022-09-27T09:41:15.382109",
      "2022-09-27T09:41:51.206479",
      "2022-09-27T09:42:27.204758",
      "2022-09-27T09:43:04.104697",
      "2022-09-27T09:43:40.626667",
      "2022-09-27T09:44:17.216577",
      "2022-09-27T09:44:53.705465",
      "2022-09-27T09:45:30.047329",
      "2022-09-27T09:46:06.241653",
      "2022-09-27T09:46:42.863945",
      "2022-09-27T09:47:20.416946",
      "2022-09-27T09:47:57.181798",
      "2022-09-27T09:48:33.878204",
      "2022-09-27T09:49:10.693676",
      "2022-09-27T09:49:47.446615",
      "2022-09-27T09:50:24.048913",
      "2022-09-27T09:51:00.570235",
      "2022-09-27T09:51:37.161749",
      "2022-09-27T09:52:13.939967",
      "2022-09-27T09:52:50.881342",
      "2022-09-27T09:53:28.738729",
      "2022-09-27T09:54:05.893904",
      "2022-09-27T09:54:42.315445",
      "2022-09-27T09:55:18.668019",
      "2022-09-27T09:55:54.946853",
      "2022-09-27T09:56:31.304888",
      "2022-09-27T09:57:07.569413",
      "2022-09-27T09:57:43.971804",
      "2022-09-27T09:58:20.345118",
      "2022-09-27T09:58:56.841593",
      "2022-09-27T09:59:33.242950",
      "2022-09-27T10:00:09.677681",
      "2022-09-27T10:00:46.077989",
      "2022-09-27T10:01:22.396634",
      "2022-09-27T10:01:58.841515",
      "2022-09-27T10:02:35.330695",
      "2022-09-27T10:03:11.714783",
      "2022-09-27T10:03:48.233994",
      "2022-09-27T10:04:24.560568",
      "2022-09-27T10:05:00.915488",
      "2022-09-27T10:05:37.402465",
      "2022-09-27T10:06:13.757178",
      "2022-09-27T10:06:50.171880",
      "2022-09-27T10:07:26.394901",
      "2022-09-27T10:08:02.641468",
      "2022-09-27T10:08:39.138749",
      "2022-09-27T10:09:15.715119",
      "2022-09-27T10:09:52.274219",
      "2022-09-27T10:10:28.707786",
      "2022-09-27T10:11:05.026550",
      "2022-09-27T10:11:41.518732",
      "2022-09-27T10:12:17.441579",
      "2022-09-27T10:12:53.171179",
      "2022-09-27T10:13:29.566749",
      "2022-09-27T10:14:05.763862",
      "2022-09-27T10:14:42.206508",
      "2022-09-27T10:15:18.387881",
      "2022-09-27T10:15:54.751346",
      "2022-09-27T10:16:30.788823",
      "2022-09-27T10:17:06.918542",
      "2022-09-27T10:17:44.038141",
      "2022-09-27T10:18:23.345490",
      "2022-09-27T10:19:00.706105",
      "2022-09-27T10:19:38.670519",
      "2022-09-27T10:20:20.745715",
      "2022-09-27T10:20:58.731180",
      "2022-09-27T10:21:36.107180",
      "2022-09-27T10:22:13.147680",
      "2022-09-27T10:22:48.735833",
      "2022-09-27T10:23:19.614706",
      "2022-09-27T10:23:50.459936",
      "2022-09-27T10:24:21.346354",
      "2022-09-27T10:24:52.515087",
      "2022-09-27T10:25:24.481855",
      "2022-09-27T10:25:56.696653",
      "2022-09-27T10:26:27.918565",
      "2022-09-27T10:26:59.353615",
      "2022-09-27T10:27:30.698121",
      "2022-09-27T10:28:02.479003",
      "2022-09-27T10:28:33.910985",
      "2022-09-27T10:29:04.898892",
      "2022-09-27T10:29:36.333327",
      "2022-09-27T10:30:07.603302",
      "2022-09-27T10:30:39.134111",
      "2022-09-27T10:31:12.294345",
      "2022-09-27T10:31:44.773641",
      "2022-09-27T10:32:17.278967",
      "2022-09-27T10:32:50.290484",
      "2022-09-27T10:33:22.398783",
      "2022-09-27T10:33:55.189018",
      "2022-09-27T10:34:30.779245",
      "2022-09-27T10:35:03.635818",
      "2022-09-27T10:35:36.488399",
      "2022-09-27T10:36:08.402021",
      "2022-09-27T10:36:40.430419",
      "2022-09-27T10:37:12.400726",
      "2022-09-27T10:37:45.076057",
      "2022-09-27T10:38:15.795699",
      "2022-09-27T10:38:46.679805",
      "2022-09-27T10:39:17.448963",
      "2022-09-27T10:39:48.977352",
      "2022-09-27T10:40:20.125200",
      "2022-09-27T10:40:51.152200",
      "2022-09-27T10:41:27.993536",
      "2022-09-27T10:42:18.196564",
      "2022-09-27T10:43:08.198370",
      "2022-09-27T10:43:57.926524",
      "2022-09-27T10:44:48.608993",
      "2022-09-27T10:45:38.597521",
      "2022-09-27T10:46:28.842216",
      "2022-09-27T10:47:18.615144",
      "2022-09-27T10:48:08.365248",
      "2022-09-27T10:48:57.783350",
      "2022-09-27T10:49:47.743846",
      "2022-09-27T10:50:36.601476",
      "2022-09-27T10:51:25.881407",
      "2022-09-27T10:52:15.328776",
      "2022-09-27T10:53:05.333049",
      "2022-09-27T10:53:53.872482",
      "2022-09-27T10:54:41.314449",
      "2022-09-27T10:55:29.406009",
      "2022-09-27T10:56:17.749774",
      "2022-09-27T10:57:06.202101",
      "2022-09-27T10:57:55.275707",
      "2022-09-27T10:58:44.277886",
      "2022-09-27T10:59:32.084067",
      "2022-09-27T11:00:20.032926",
      "2022-09-27T11:01:08.279364",
      "2022-09-27T11:01:56.480284",
      "2022-09-27T11:02:44.028565",
      "2022-09-27T11:03:32.418519",
      "2022-09-27T11:04:20.675929",
      "2022-09-27T11:05:09.098132",
      "2022-09-27T11:05:57.090527",
      "2022-09-27T11:06:44.994647",
      "2022-09-27T11:07:32.816159",
      "2022-09-27T11:08:21.353311",
      "2022-09-27T11:09:09.506810",
      "2022-09-27T11:09:57.525554",
      "2022-09-27T11:10:45.426244",
      "2022-09-27T11:11:33.723871",
      "2022-09-27T11:12:21.930493",
      "2022-09-27T11:13:09.672039",
      "2022-09-27T11:13:57.404016",
      "2022-09-27T11:14:45.771267",
      "2022-09-27T11:15:34.608932",
      "2022-09-27T11:16:22.555375",
      "2022-09-27T11:17:11.445033",
      "2022-09-27T11:18:00.946808",
      "2022-09-27T11:18:50.231885",
      "2022-09-27T11:19:40.327496",
      "2022-09-27T11:20:29.914989",
      "2022-09-27T11:21:19.264132",
      "2022-09-27T11:22:08.821120",
      "2022-09-27T11:22:58.053749",
      "2022-09-27T11:23:47.389997",
      "2022-09-27T11:24:36.274625",
      "2022-09-27T11:25:25.580656",
      "2022-09-27T11:26:15.380183",
      "2022-09-27T11:27:05.276675",
      "2022-09-27T11:27:54.607794",
      "2022-09-27T11:28:43.890696",
      "2022-09-27T11:29:33.659061",
      "2022-09-27T11:30:23.834774",
      "2022-09-27T11:31:13.543000",
      "2022-09-27T11:32:03.488913",
      "2022-09-27T11:32:53.045158",
      "2022-09-27T11:33:43.022455",
      "2022-09-27T11:34:33.129145",
      "2022-09-27T11:35:22.832928",
      "2022-09-27T11:36:11.386858",
      "2022-09-27T11:36:59.486860",
      "2022-09-27T11:37:49.746350",
      "2022-09-27T11:38:39.881916",
      "2022-09-27T11:39:28.584641",
      "2022-09-27T11:40:16.954407",
      "2022-09-27T11:41:05.616391",
      "2022-09-27T11:41:56.224230",
      "2022-09-27T11:42:47.207698",
      "2022-09-27T11:43:36.288343",
      "2022-09-27T11:44:27.360531",
      "2022-09-27T11:45:17.433794",
      "2022-09-27T11:46:07.299874",
      "2022-09-27T11:46:58.030866",
      "2022-09-27T11:47:48.495831",
      "2022-09-27T11:48:39.255739",
      "2022-09-27T11:49:30.345963",
      "2022-09-27T11:50:19.443317",
      "2022-09-27T11:51:09.485299",
      "2022-09-27T11:51:57.618508",
      "2022-09-27T11:52:35.649369",
      "2022-09-27T11:53:12.773150",
      "2022-09-27T11:53:51.270301",
      "2022-09-27T11:54:27.883353",
      "2022-09-27T11:55:04.343223",
      "2022-09-27T11:55:43.322290",
      "2022-09-27T11:56:22.691103",
      "2022-09-27T11:57:01.923835",
      "2022-09-27T11:57:39.718019",
      "2022-09-27T11:58:16.197840",
      "2022-09-27T11:58:53.470986",
      "2022-09-27T11:59:31.769863",
      "2022-09-27T12:00:10.062656",
      "2022-09-27T12:00:48.367393",
      "2022-09-27T12:01:26.570139",
      "2022-09-27T12:02:05.648025",
      "2022-09-27T12:02:49.544042",
      "2022-09-27T12:03:30.283079",
      "2022-09-27T12:04:11.179477",
      "2022-09-27T12:04:54.721489",
      "2022-09-27T12:05:32.957634",
      "2022-09-27T12:06:11.631266",
      "2022-09-27T12:06:50.374699",
      "2022-09-27T12:07:28.844110",
      "2022-09-27T12:08:07.059374",
      "2022-09-27T12:08:45.823373",
      "2022-09-27T12:09:24.341595",
      "2022-09-27T12:10:02.428287",
      "2022-09-27T12:10:40.988022",
      "2022-09-27T12:11:19.343486",
      "2022-09-27T12:11:58.383214",
      "2022-09-27T12:12:36.830698",
      "2022-09-27T12:13:15.408286",
      "2022-09-27T12:13:53.918201",
      "2022-09-27T12:14:32.409929",
      "2022-09-27T12:15:10.944507",
      "2022-09-27T12:15:49.466812",
      "2022-09-27T12:16:28.468909",
      "2022-09-27T12:17:05.605786",
      "2022-09-27T12:17:42.688620",
      "2022-09-27T12:18:19.256340",
      "2022-09-27T12:18:55.630391",
      "2022-09-27T12:19:32.291244",
      "2022-09-27T12:20:08.457165",
      "2022-09-27T12:20:44.919275",
      "2022-09-27T12:21:22.537733",
      "2022-09-27T12:21:59.264129",
      "2022-09-27T12:22:35.505018",
      "2022-09-27T12:23:11.950184",
      "2022-09-27T12:23:48.155390",
      "2022-09-27T12:24:24.566454",
      "2022-09-27T12:25:00.810365",
      "2022-09-27T12:25:37.179875",
      "2022-09-27T12:26:13.413536",
      "2022-09-27T12:26:49.631666",
      "2022-09-27T12:27:25.901999",
      "2022-09-27T12:28:02.411709",
      "2022-09-27T12:28:38.836794",
      "2022-09-27T12:29:15.361913",
      "2022-09-27T12:29:51.775846",
      "2022-09-27T12:30:28.376524",
      "2022-09-27T12:31:05.143826",
      "2022-09-27T12:31:41.332948",
      "2022-09-27T12:32:17.266105",
      "2022-09-27T12:32:53.347227",
      "2022-09-27T12:33:29.580419",
      "2022-09-27T12:34:05.917719",
      "2022-09-27T12:34:42.266982",
      "2022-09-27T12:35:18.599971",
      "2022-09-27T12:35:54.865204",
      "2022-09-27T12:36:31.460177",
      "2022-09-27T12:37:08.198990",
      "2022-09-27T12:37:44.547058",
      "2022-09-27T12:38:20.862726",
      "2022-09-27T12:38:57.443174",
      "2022-09-27T12:39:34.779379",
      "2022-09-27T12:40:15.560378",
      "2022-09-27T12:40:56.303223",
      "2022-09-27T12:41:36.899614",
      "2022-09-27T12:42:16.351038",
      "2022-09-27T12:42:56.955947",
      "2022-09-27T12:43:34.491131",
      "2022-09-27T12:44:10.922333",
      "2022-09-27T12:44:47.036315",
      "2022-09-27T12:45:23.468517",
      "2022-09-27T12:46:00.617295",
      "2022-09-27T12:46:36.922445",
      "2022-09-27T12:47:13.369786",
      "2022-09-27T12:47:49.740277",
      "2022-09-27T12:48:26.415004",
      "2022-09-27T12:49:02.878270",
      "2022-09-27T12:49:39.208463",
      "2022-09-27T12:50:15.378925",
      "2022-09-27T12:50:51.732249",
      "2022-09-27T12:51:28.259215",
      "2022-09-27T12:52:04.901167",
      "2022-09-27T12:52:41.439002",
      "2022-09-27T12:53:19.055709",
      "2022-09-27T12:54:00.706981",
      "2022-09-27T12:54:41.256223",
      "2022-09-27T12:55:20.322461",
      "2022-09-27T12:56:04.023841",
      "2022-09-27T12:56:42.970056",
      "2022-09-27T12:57:21.148845",
      "2022-09-27T12:57:57.868952",
      "2022-09-27T12:58:34.337453",
      "2022-09-27T12:59:11.163834",
      "2022-09-27T12:59:47.708573",
      "2022-09-27T13:00:24.367867",
      "2022-09-27T13:01:00.521079",
      "2022-09-27T13:01:37.084466",
      "2022-09-27T13:02:13.438392",
      "2022-09-27T13:02:49.778678",
      "2022-09-27T13:03:26.456902",
      "2022-09-27T13:04:03.249772",
      "2022-09-27T13:04:40.019147",
      "2022-09-27T13:05:16.959317",
      "2022-09-27T13:05:53.888203",
      "2022-09-27T13:06:30.233472",
      "2022-09-27T13:07:06.484161",
      "2022-09-27T13:07:42.780888",
      "2022-09-27T13:08:18.995947",
      "2022-09-27T13:08:55.109996",
      "2022-09-27T13:09:31.507211",
      "2022-09-27T13:10:07.940610",
      "2022-09-27T13:10:46.033680",
      "2022-09-27T13:11:23.882235",
      "2022-09-27T13:12:01.812584",
      "2022-09-27T13:12:40.178072",
      "2022-09-27T13:13:18.086978",
      "2022-09-27T13:13:56.277151",
      "2022-09-27T13:14:34.187972",
      "2022-09-27T16:59:59.611339",
      "2022-09-27T17:00:39.288866",
      "2022-09-27T17:01:19.476501",
      "2022-09-27T17:01:58.644270",
      "2022-09-27T17:02:37.981610",
      "2022-09-27T17:03:17.015026",
      "2022-09-27T17:03:56.163216",
      "2022-09-27T17:04:34.455820",
      "2022-09-27T17:05:12.796286",
      "2022-09-27T17:05:51.551269",
      "2022-09-27T17:06:30.191726",
      "2022-09-27T17:07:09.119145",
      "2022-09-27T17:07:47.078139",
      "2022-09-27T17:08:25.581345",
      "2022-09-27T17:09:03.052469",
      "2022-09-27T17:09:40.627735",
      "2022-09-27T17:10:18.250649",
      "2022-09-27T17:10:55.722155",
      "2022-09-27T17:11:33.147812",
      "2022-09-27T17:12:11.687667",
      "2022-09-27T17:12:49.470922",
      "2022-09-27T17:13:26.791345",
      "2022-09-27T17:14:04.150046",
      "2022-09-27T17:14:41.694098",
      "2022-09-27T17:15:22.286627",
      "2022-09-27T17:16:03.689428",
      "2022-09-27T17:16:42.694319",
      "2022-09-27T17:17:19.338389",
      "2022-09-27T17:17:55.694517",
      "2022-09-27T17:18:32.091621",
      "2022-09-27T17:19:08.588040",
      "2022-09-27T17:19:45.192053",
      "2022-09-27T17:20:21.733966",
      "2022-09-27T17:20:58.261834",
      "2022-09-27T17:21:34.686966",
      "2022-09-27T17:22:11.180057",
      "2022-09-27T17:22:47.680876",
      "2022-09-27T17:23:24.224344",
      "2022-09-27T17:24:00.891020",
      "2022-09-27T17:24:37.486940",
      "2022-09-27T17:25:13.871997",
      "2022-09-27T17:25:50.226317",
      "2022-09-27T17:26:26.738050",
      "2022-09-27T17:27:03.311609",
      "2022-09-27T17:27:39.820964",
      "2022-09-27T17:28:16.437550",
      "2022-09-27T17:28:52.958666",
      "2022-09-27T17:29:29.605152",
      "2022-09-27T17:30:06.206056",
      "2022-09-27T17:30:42.674547",
      "2022-09-27T17:31:19.248352",
      "2022-09-27T17:31:55.738855",
      "2022-09-27T17:32:32.186161",
      "2022-09-27T17:33:08.670598",
      "2022-09-27T17:33:45.293247",
      "2022-09-27T17:34:22.022931",
      "2022-09-27T17:34:58.698172",
      "2022-09-27T17:35:35.122251",
      "2022-09-27T17:36:11.496967",
      "2022-09-27T17:36:48.136370",
      "2022-09-27T17:37:24.814879",
      "2022-09-27T17:38:01.440930",
      "2022-09-27T17:38:38.068358",
      "2022-09-27T17:39:14.426283",
      "2022-09-27T17:39:50.821379",
      "2022-09-27T17:40:27.422300",
      "2022-09-27T17:41:04.156304",
      "2022-09-27T17:41:40.856135",
      "2022-09-27T17:42:17.484984",
      "2022-09-27T17:42:54.085761",
      "2022-09-27T17:43:30.865039",
      "2022-09-27T17:44:07.627760",
      "2022-09-27T17:44:44.297777",
      "2022-09-27T17:45:20.944621",
      "2022-09-27T17:45:57.272869",
      "2022-09-27T17:46:33.663807",
      "2022-09-27T17:47:10.327107",
      "2022-09-27T17:47:47.026232",
      "2022-09-27T17:48:23.735031",
      "2022-09-27T17:49:00.429782",
      "2022-09-27T17:49:36.880352",
      "2022-09-27T17:50:13.499698",
      "2022-09-27T17:50:50.138403",
      "2022-09-27T17:51:26.764443",
      "2022-09-27T17:52:03.540076",
      "2022-09-27T17:52:40.208716",
      "2022-09-27T17:53:16.651836",
      "2022-09-27T17:53:53.242195",
      "2022-09-27T17:54:29.851244",
      "2022-09-27T17:55:06.521042",
      "2022-09-27T17:55:43.194512",
      "2022-09-27T17:56:19.725922",
      "2022-09-27T17:56:56.343224",
      "2022-09-27T17:57:33.046104",
      "2022-09-27T17:58:09.677265",
      "2022-09-27T17:58:46.413118",
      "2022-09-27T17:59:23.033061",
      "2022-09-27T17:59:59.549828",
      "2022-09-27T18:00:36.184444",
      "2022-09-27T18:01:12.944502"
    ],
    "values": [
      9.555528825575443,
      8.047175919486119,
      6.7487916857397865,
      5.856515016082815,
      5.230149488343223,
      4.699444577163438,
      4.335706041897129,
      3.626807634501824,
      3.048338396416482,
      2.5208140330909745,
      2.1741927245026513,
      2.0045985514305307,
      1.6654451575071996,
      1.2915352584044766,
      1.1206376664256406,
      0.9757258939766175,
      0.8816528834738623,
      0.8911075404421205,
      0.7684574913824079,
      0.6293784191211348,
      0.47635799132713325,
      0.48197807898302913,
      0.5249893764264547,
      0.29851709965395395,
      0.6633608554284661,
      0.4119927474554725,
      0.6919048179330276,
      0.6447223892854261,
      0.4404463752849181,
      0.43218763061977156,
      0.9190175972701645,
      1.0716228818651239,
      0.9160178031964161,
      1.0020852552974744,
      0.8278102309181868,
      0.9265462662104363,
      1.1807293418093434,
      1.3301725377541134,
      1.3088916627518374,
      1.7242051510389147,
      1.4147719784301918,
      2.036374761090297,
      1.7589319948070123,
      1.8469656188287786,
      1.8497918524557508,
      2.022314733024254,
      2.3349551156673027,
      2.241382373701644,
      2.4024930593523095,
      2.4974758489596502,
      2.512812928316808,
      2.7186110088920015,
      2.7635718138998984,
      3.788544305646991,
      3.2869383260284026,
      3.7258655824813047,
      3.7943662752490916,
      3.447787806714687,
      3.9057633807577377,
      3.9064076868556876,
      3.839572642799273,
      4.201675919703929,
      4.1769832672494775,
      4.305115300741653,
      4.423452227383688,
      4.596929920879602,
      4.774599596711168,
      4.888222131889116,
      5.061347361333775,
      5.094447744084035,
      5.600660548937228,
      5.415766202787473,
      5.6725289480133325,
      5.798272645853711,
      5.832698223004039,
      6.036027420655944,
      6.250106289416548,
      6.287180426811942,
      6.40938922771609,
      6.536666934952843,
      6.803888417485602,
      6.850062288967237,
      7.022140197434249,
      7.1834373557646725,
      7.350609776973643,
      7.499854188808806,
      7.588272953660422,
      7.742155350655113,
      7.857195409357253,
      8.057012635748992,
      8.183869944061788,
      8.305293919586735,
      8.437345572004144,
      8.561892905896663,
      8.770578859156688,
      8.870962489523475,
      9.000780229647038,
      9.15962310856042,
      9.274867295858854,
      9.394252480220848,
      9.38034950583413,
      9.39200533241675,
      9.379527699931485,
      9.372784588043292,
      9.368773414640271,
      9.370196229974267,
      9.366052409297875,
      9.367398562820368,
      9.364869213362237,
      9.359362797266046,
      9.360567977492348,
      9.358900777361184,
      9.349500655348159,
      9.345703411896494,
      9.346658307971895,
      9.348731056783036,
      9.34835787109595,
      9.34477904821469,
      9.337622906526308,
      9.33520353984843,
      9.339285873496122,
      9.33548731870103,
      9.329506164572845,
      9.326538957431765,
      9.32952065887176,
      9.320427730134389,
      9.326839538637762,
      9.318435636223342,
      9.31812370624807,
      9.31387368209717,
      9.312416351339929,
      9.30447775442039,
      9.308490185856233,
      9.302162590051427,
      9.30405993422037,
      9.298140587067298,
      9.300086518491,
      9.297793807646785,
      9.287664935326337,
      9.28912786108506,
      9.284582562947914,
      9.280869387909098,
      9.27724149826438,
      9.277754380129204,
      9.267505948019629,
      9.270699363780462,
      9.26181656189268,
      9.260516812138379,
      9.255961171148648,
      9.25442261150923,
      9.246846400166623,
      9.251909992506931,
      9.241962670165815,
      9.241768818515869,
      9.236673311344344,
      9.233761666240097,
      9.222742455452833,
      9.221624737135311,
      9.215652030769395,
      9.208349878107516,
      9.21068852547166,
      9.205986613339359,
      9.197437214578224,
      9.190289491308233,
      9.189052207640973,
      9.18124829459252,
      9.179667266604095,
      9.168163855797514,
      9.158868810192756,
      9.157124941648187,
      9.14628238823914,
      9.1387827216992,
      9.125168154693412,
      9.124768196014912,
      9.112639004822308,
      9.096426806859728,
      9.08684108910712,
      9.064798894173125,
      9.058960050189041,
      9.042511627605583,
      9.030178754556706,
      9.00684653676542,
      8.988548003375767,
      8.968399988668363,
      8.936245542774872,
      8.928390924174337,
      8.893289558159665,
      8.874254410326646,
      8.84746275514776,
      8.828632240450746,
      8.81381117872539,
      8.794602632566924,
      8.779368297400792,
      8.768575885232675,
      8.751617732533457,
      8.733888583857468,
      8.741678534819886,
      8.711455254178569,
      8.705543763977259,
      8.698839453936001,
      8.690047468357353,
      8.67734250495862,
      8.677376871283965,
      8.659815063811953,
      8.638050090047496,
      8.641435611556508,
      8.639156727155342,
      8.63056754614691,
      8.610762112626023,
      8.63888743332295,
      8.593688272344213,
      8.598762148777334,
      8.590460770600437,
      8.583884534155299,
      8.567980802327655,
      8.553229229677752,
      8.5475884169732,
      8.541849920148362,
      8.526294018926317,
      8.521809001499122,
      8.541336505660484,
      8.504981988292306,
      8.500619183284122,
      8.49258216590375,
      8.475093775613304,
      8.466762041025357,
      8.444863506450368,
      8.462358842887886,
      8.450338304920589,
      8.42329626122125,
      8.4263128207282,
      8.410450526130758,
      8.39137040699088,
      8.390223361132092,
      8.368964897245986,
      8.358029768394385,
      8.349708984707714,
      8.33789389398749,
      8.316453487252678,
      8.308485826958902,
      8.297390519604928,
      8.280061685537756,
      8.269107455822768,
      8.249151950358806,
      8.261596021885861,
      8.232861968302483,
      8.223781665347651,
      8.22900732651949,
      8.196035943472854,
      8.195353286171649,
      8.183414489679327,
      8.193959839046986,
      8.167255772099704,
      8.172852899042123,
      8.150179524453252,
      8.145760437494115,
      8.138772032383349,
      8.144928218848378,
      8.11943157130103,
      8.127061705396212,
      8.1021895721341,
      8.1072757161909,
      8.097009673054636,
      8.060079547070266,
      8.07859942073257,
      8.076962053314448,
      8.080714792724333,
      8.096415980144066,
      8.059530775936581,
      8.05397028600289,
      8.052671430499664,
      8.03107760138815,
      8.050734545439138,
      8.043614157656748,
      8.043408214371638,
      8.046466997549974,
      8.026817609569012,
      8.022951465681407,
      8.022087390087739,
      8.030495213939238,
      8.029371739317531,
      8.012312995938279,
      8.011436631991634,
      8.007578211200402,
      7.990489647811667,
      7.989127853676642,
      7.995513694273283,
      8.001444897024886,
      8.00862071098132,
      7.994206198981156,
      7.9772110764847355,
      7.996515951718644,
      8.029371866616675,
      7.998514776359035,
      7.989970533856504,
      7.978992721172274,
      7.97737136598298,
      7.9576734042007855,
      7.965850127237187,
      7.959769487256368,
      7.9608289642425305,
      7.96683623609186,
      7.963597817833889,
      7.954355932970851,
      7.956703972695552,
      7.959246275363135,
      7.946405203773894,
      7.939912345234217,
      7.9315771889293645,
      7.94875030649617,
      7.951440933873384,
      7.943850149929952,
      7.9380936760613725,
      7.952677814003442,
      7.958061029082185,
      7.950786247134384,
      7.947524682338195,
      7.930764315219832,
      7.938976754767178,
      7.926179236560154,
      7.926665173075494,
      7.929785470876972,
      7.9143409144769326,
      7.9335458154879746,
      7.926630789860018,
      7.9141022952289575,
      7.9027446252955755,
      7.930027511351939,
      7.912061310089088,
      7.909162919102576,
      7.896262191125615,
      7.90758826350041,
      7.928547727911092,
      7.900318158684165,
      7.908700542349142,
      7.906336768351392,
      7.902832486253596,
      7.892034404089991,
      7.886316946496402,
      7.881978351646119,
      7.896813861105075,
      7.884500922752281,
      7.898347617849491,
      7.900778563000661,
      7.897798603706255,
      7.879369126636213,
      7.892848372465269,
      7.884431506143325,
      7.875544267896943,
      7.902375698142627,
      7.897265879743058,
      7.888590869287826,
      7.879947190984145,
      7.884779458764255,
      7.872588383513646,
      7.87127713155756,
      7.872018077847405,
      7.883834643202301,
      7.900289395145494,
      7.875018452896647,
      7.872081540430175,
      7.892079374807707,
      7.8584807351735675,
      7.878560824973469,
      7.864418890202576,
      7.863964638525951,
      7.856935218120045,
      7.856655222339915,
      7.880061302651832,
      7.86609457571185,
      7.880057646285593,
      7.850157371810806,
      7.856322287248223,
      7.8634708417032755,
      7.856844896406057,
      7.850173197551383,
      7.862624459802191,
      7.845023380282505,
      7.849680385133669,
      7.839919922011793,
      7.852317394433672,
      7.851542522871997,
      7.841936418173394,
      7.851069395686794,
      7.841550776325446,
      7.849676029907845,
      7.83489180279412,
      7.8446774045944405,
      7.825707520378161,
      7.84552579879865,
      7.834713177922646,
      7.857873590902554,
      7.848058641266368,
      7.824510875723616,
      7.858634436338164,
      7.827339132996249,
      7.832080716259111,
      7.831009748004677,
      7.8581489311509785,
      7.842459622819919,
      7.832388079535787,
      7.834855529164685,
      7.825803537471439,
      7.819009696448168,
      7.83451596330967,
      7.821223450811127,
      7.822368862801776,
      7.837408319076376,
      7.822067763972039,
      7.823743205465917,
      7.838642497072496,
      7.820044982453655,
      7.822928071807901,
      7.825841480899084,
      7.829228828404486,
      7.809953294765984,
      7.8125188131699606,
      7.823120916022582,
      7.819737927158705,
      7.820189236664379,
      7.830873330269391,
      7.8116534963876445,
      7.83331685601552,
      7.811405426514372,
      7.8289654417720485,
      7.8233183429514614,
      7.80663941494839,
      7.819484864557173,
      7.824006990106402,
      7.817371208380512,
      7.831221141635122,
      7.817933694005328,
      7.8140646473237805,
      7.806349566388373,
      7.813909188807381,
      7.8053606853215545,
      7.814436965902219,
      7.802966159949213,
      7.813411082029644,
      7.814872309841041,
      7.800746554639498,
      7.796374390726979,
      7.828991033869791,
      7.825128180619354,
      7.814418167511404,
      7.819554599753967,
      7.794324509037425,
      7.810899275069356,
      7.800451835517937,
      7.800752924289471,
      7.785569028159658,
      7.803909430709164,
      7.789462838690275,
      7.796855046529909,
      7.789243786169213,
      7.808995164193933,
      7.80717642399338,
      7.804088406529867,
      7.79524880907051,
      7.822040911862541,
      7.7968863639999855,
      7.781540429081446,
      7.781407546398124,
      7.816672994645752,
      7.795418122160055,
      7.797982565755609,
      7.796387235695592,
      7.787815214783693,
      7.782336945660072,
      7.79434625163749,
      7.795895409358825,
      7.80651435414992,
      7.7849697537378235,
      7.801132171649014,
      7.792496268455977,
      7.7976121784652035,
      7.808094497686371,
      7.784509438110206,
      7.774995717503053,
      7.788443864211854,
      7.801158432213214,
      7.788265660979732,
      7.779402656422162,
      7.793668904597112,
      7.775417338132888,
      7.779587110683512,
      7.778794835722732,
      7.792857429940535,
      7.790071185671882,
      7.782458877357612,
      7.779292675848419,
      7.7715016462970725,
      7.788648335710851,
      7.790340361774089,
      7.800881267011784,
      7.791630467354247,
      7.785109765752567,
      7.801616931079255,
      7.780691136912752,
      7.7961129876760635,
      7.778779049988385,
      7.771126065317145,
      7.764840083342793,
      7.801885237322859,
      7.794508534272484,
      7.796174540470342,
      7.778476166928525,
      7.7758675574061,
      7.779169882438973,
      7.785623162346177,
      7.762579578149001,
      7.777275639487537,
      7.794674043272282,
      7.770976519590754,
      7.770138563034561,
      7.775594889324275,
      7.77746852720407,
      7.780009156043604,
      7.776729723849717,
      7.7644682904600755,
      7.769562842481581,
      7.783017224768744,
      7.765325023771519,
      7.7523016418601305,
      7.774611796346103,
      7.764705347938055,
      7.783303949104699,
      7.762342261963357,
      7.771498162943044,
      7.768067087343262,
      7.776525258411567,
      7.76788404080946,
      7.760356070075931,
      7.793441298165968,
      7.76651755428532,
      7.770449853940254,
      7.7941655649784725,
      7.76063281812803,
      7.775622345120671,
      7.77279082739485,
      7.760321898325198,
      7.797584922324113,
      7.760046630189622,
      7.779031330922497,
      7.754314920870685,
      7.747908636745159,
      7.726029219265622,
      7.720901706586856,
      7.726797082041463,
      7.7267584508077505,
      7.729636833842719,
      7.72338306060451,
      7.7316589511942455,
      7.725761351503769,
      7.738067004645812,
      7.722918604182934,
      7.736598545707994,
      7.723570986029354,
      7.727603638946453,
      7.72307243691876,
      7.720455148772987,
      7.722011538381547,
      7.715747717835825,
      7.7139541516758126,
      7.7176531685145,
      7.727241586328626,
      7.7140358850387445,
      7.723813069965655,
      7.734611981864573,
      7.732115586409866,
      7.717137515010482,
      7.715643041014897,
      7.717340803856094,
      7.722261352411964,
      7.729603748525781,
      7.726225827681252,
      7.719415135527856,
      7.731329597908858,
      7.724115215804065,
      7.731960385935371,
      7.721711222833207,
      7.7254780714774185,
      7.729736469817619,
      7.725102128821152,
      7.719594372169536,
      7.715461524627737,
      7.716509494908588,
      7.714375464599124,
      7.718059769249459,
      7.718016869314324,
      7.7191617916208966,
      7.714374352612296,
      7.710608625455175,
      7.714319022928981,
      7.713453185409579,
      7.726221124717957,
      7.717776001378131,
      7.718777145671585,
      7.709517543642046,
      7.714129924456524
    ]
  },
  "val": {
    "steps": [
      0,
      1,
      2,
      3,
      4,
      5,
      6,
      7,
      8,
      9,
      10,
      11,
      12,
      13,
      14,
      15,
      16,
      17,
      18,
      19,
      20,
      21,
      22,
      23,
      24,
      25,
      26,
      27,
      28,
      29,
      30,
      31,
      32,
      33,
      34,
      35,
      36,
      37,
      38,
      39,
      40,
      41,
      42,
      43,
      44,
      45,
      46,
      47,
      48,
      49,
      50,
      51,
      52,
      53,
      54,
      55,
      56,
      57,
      58,
      59,
      60,
      61,
      62,
      63,
      64,
      65,
      66,
      67,
      68,
      69,
      70,
      71,
      72,
      73,
      74,
      75,
      76,
      77,
      78,
      79,
      80,
      81,
      82,
      83,
      84,
      85,
      86,
      87,
      88,
      89,
      90,
      91,
      92,
      93,
      94,
      95,
      96,
      97,
      98,
      99,
      100,
      101,
      102,
      103,
      104,
      105,
      106,
      107,
      108,
      109,
      110,
      111,
      112,
      113,
      114,
      115,
      116,
      117,
      118,
      119,
      120,
      121,
      122,
      123,
      124,
      125,
      126,
      127,
      128,
      129,
      130,
      131,
      132,
      133,
      134,
      135,
      136,
      137,
      138,
      139,
      140,
      141,
      142,
      143,
      144,
      145,
      146,
      147,
      148,
      149,
      150,
      151,
      152,
      153,
      154,
      155,
      156,
      157,
      158,
      159,
      160,
      161,
      162,
      163,
      164,
      165,
      166,
      167,
      168,
      169,
      170,
      171,
      172,
      173,
      174,
      175,
      176,
      177,
      178,
      179,
      180,
      181,
      182,
      183,
      184,
      185,
      186,
      187,
      188,
      189,
      190,
      191,
      192,
      193,
      194,
      195,
      196,
      197,
      198,
      199,
      200,
      201,
      202,
      203,
      204,
      205,
      206,
      207,
      208,
      209,
      210,
      211,
      212,
      213,
      214,
      215,
      216,
      217,
      218,
      219,
      220,
      221,
      222,
      223,
      224,
      225,
      226,
      227,
      228,
      229,
      230,
      231,
      232,
      233,
      234,
      235,
      236,
      237,
      238,
      239,
      240,
      241,
      242,
      243,
      244,
      245,
      246,
      247,
      248,
      249,
      250,
      251,
      252,
      253,
      254,
      255,
      256,
      257,
      258,
      259,
      260,
      261,
      262,
      263,
      264,
      265,
      266,
      267,
      268,
      269,
      270,
      271,
      272,
      273,
      274,
      275,
      276,
      277,
      278,
      279,
      280,
      281,
      282,
      283,
      284,
      285,
      286,
      287,
      288,
      289,
      290,
      291,
      292,
      293,
      294,
      295,
      296,
      297,
      298,
      299,
      300,
      301,
      302,
      303,
      304,
      305,
      306,
      307,
      308,
      309,
      310,
      311,
      312,
      313,
      314,
      315,
      316,
      317,
      318,
      319,
      320,
      321,
      322,
      323,
      324,
      325,
      326,
      327,
      328,
      329,
      330,
      331,
      332,
      333,
      334,
      335,
      336,
      337,
      338,
      339,
      340,
      341,
      342,
      343,
      344,
      345,
      346,
      347,
      348,
      349,
      350,
      351,
      352,
      353,
      354,
      355,
      356,
      357,
      358,
      359,
      360,
      361,
      362,
      363,
      364,
      365,
      366,
      367,
      368,
      369,
      370,
      371,
      372,
      373,
      374,
      375,
      376,
      377,
      378,
      379,
      380,
      381,
      382,
      383,
      384,
      385,
      386,
      387,
      388,
      389,
      390,
      391,
      392,
      393,
      394,
      395,
      396,
      397,
      398,
      399,
      400,
      401,
      402,
      403,
      404,
      405,
      406,
      407,
      408,
      409,
      410,
      411,
      412,
      413,
      414,
      415,
      416,
      417,
      418,
      419,
      420,
      421,
      422,
      423,
      424,
      425,
      426,
      427,
      428,
      429,
      430,
      431,
      432,
      433,
      434,
      435,
      436,
      437,
      438,
      439,
      440,
      441,
      442,
      443,
      444,
      445,
      446,
      447,
      448,
      449,
      450,
      451,
      452,
      453,
      454,
      455,
      456,
      457,
      458,
      459,
      460,
      461,
      462,
      463,
      464,
      465,
      466,
      467,
      468,
      469,
      470,
      471,
      472,
      473,
      474,
      475,
      476,
      477,
      478,
      479,
      480,
      481,
      482,
      483,
      484,
      485,
      486,
      487,
      488,
      489,
      490,
      491,
      492,
      493,
      494,
      495,
      496,
      497,
      498,
      499,
      0,
      1,
      2,
      3,
      4,
      5,
      6,
      7,
      8,
      9,
      10,
      11,
      12,
      13,
      14,
      15,
      16,
      17,
      18,
      19,
      20,
      21,
      22,
      23,
      24,
      25,
      26,
      27,
      28,
      29,
      30,
      31,
      32,
      33,
      34,
      35,
      36,
      37,
      38,
      39,
      40,
      41,
      42,
      43,
      44,
      45,
      46,
      47,
      48,
      49,
      50,
      51,
      52,
      53,
      54,
      55,
      56,
      57,
      58,
      59,
      60,
      61,
      62,
      63,
      64,
      65,
      66,
      67,
      68,
      69,
      70,
      71,
      72,
      73,
      74,
      75,
      76,
      77,
      78,
      79,
      80,
      81,
      82,
      83,
      84,
      85,
      86,
      87,
      88,
      89,
      90,
      91,
      92,
      93,
      94,
      95,
      96,
      97,
      98,
      99
    ],
    "timestamps": [
      "2022-09-27T07:37:11.860476",
      "2022-09-27T07:38:00.540378",
      "2022-09-27T07:38:48.921477",
      "2022-09-27T07:39:37.316874",
      "2022-09-27T07:40:25.472950",
      "2022-09-27T07:41:14.377077",
      "2022-09-27T07:42:03.732292",
      "2022-09-27T07:42:53.098630",
      "2022-09-27T07:43:41.086272",
      "2022-09-27T07:44:29.040338",
      "2022-09-27T07:45:17.623952",
      "2022-09-27T07:46:05.516152",
      "2022-09-27T07:46:53.759412",
      "2022-09-27T07:47:42.828906",
      "2022-09-27T07:48:30.862672",
      "2022-09-27T07:49:19.014803",
      "2022-09-27T07:50:07.088913",
      "2022-09-27T07:50:55.574498",
      "2022-09-27T07:51:43.568242",
      "2022-09-27T07:52:32.038994",
      "2022-09-27T07:53:21.244278",
      "2022-09-27T07:54:09.442848",
      "2022-09-27T07:54:58.442369",
      "2022-09-27T07:55:46.951700",
      "2022-09-27T07:56:35.594906",
      "2022-09-27T07:57:24.914054",
      "2022-09-27T07:58:13.185095",
      "2022-09-27T07:59:01.534014",
      "2022-09-27T07:59:50.213906",
      "2022-09-27T08:00:39.244251",
      "2022-09-27T08:01:28.204900",
      "2022-09-27T08:02:17.285547",
      "2022-09-27T08:03:05.632089",
      "2022-09-27T08:03:54.363450",
      "2022-09-27T08:04:43.073149",
      "2022-09-27T08:05:31.270371",
      "2022-09-27T08:06:20.333281",
      "2022-09-27T08:07:09.195333",
      "2022-09-27T08:07:57.375342",
      "2022-09-27T08:08:45.877863",
      "2022-09-27T08:09:34.076586",
      "2022-09-27T08:10:22.869451",
      "2022-09-27T08:11:11.119050",
      "2022-09-27T08:11:59.106999",
      "2022-09-27T08:12:47.161179",
      "2022-09-27T08:13:35.404125",
      "2022-09-27T08:14:23.433434",
      "2022-09-27T08:15:11.408807",
      "2022-09-27T08:15:59.702632",
      "2022-09-27T08:16:48.559188",
      "2022-09-27T08:17:36.654074",
      "2022-09-27T08:18:24.817774",
      "2022-09-27T08:19:13.076259",
      "2022-09-27T08:20:01.298584",
      "2022-09-27T08:20:49.449234",
      "2022-09-27T08:21:37.457965",
      "2022-09-27T08:22:25.501941",
      "2022-09-27T08:23:13.614117",
      "2022-09-27T08:24:01.774768",
      "2022-09-27T08:24:50.204591",
      "2022-09-27T08:25:38.570917",
      "2022-09-27T08:26:26.843224",
      "2022-09-27T08:27:15.209987",
      "2022-09-27T08:28:04.707820",
      "2022-09-27T08:28:53.611638",
      "2022-09-27T08:29:41.879034",
      "2022-09-27T08:30:30.304600",
      "2022-09-27T08:31:18.783295",
      "2022-09-27T08:32:06.873445",
      "2022-09-27T08:32:55.764075",
      "2022-09-27T08:33:44.114217",
      "2022-09-27T08:34:32.224416",
      "2022-09-27T08:35:20.752293",
      "2022-09-27T08:36:09.106473",
      "2022-09-27T08:36:57.869477",
      "2022-09-27T08:37:46.595026",
      "2022-09-27T08:38:35.143035",
      "2022-09-27T08:39:23.394089",
      "2022-09-27T08:40:13.011981",
      "2022-09-27T08:41:01.330661",
      "2022-09-27T08:41:49.396822",
      "2022-09-27T08:42:38.161098",
      "2022-09-27T08:43:15.630636",
      "2022-09-27T08:43:52.111072",
      "2022-09-27T08:44:28.316381",
      "2022-09-27T08:45:04.831496",
      "2022-09-27T08:45:41.055505",
      "2022-09-27T08:46:17.233047",
      "2022-09-27T08:46:53.565738",
      "2022-09-27T08:47:29.926415",
      "2022-09-27T08:48:06.437714",
      "2022-09-27T08:48:42.714378",
      "2022-09-27T08:49:19.221778",
      "2022-09-27T08:49:55.678175",
      "2022-09-27T08:50:32.050702",
      "2022-09-27T08:51:08.381903",
      "2022-09-27T08:51:44.681976",
      "2022-09-27T08:52:21.208365",
      "2022-09-27T08:52:57.541149",
      "2022-09-27T08:53:33.830418",
      "2022-09-27T08:54:09.941022",
      "2022-09-27T08:54:46.200629",
      "2022-09-27T08:55:22.296569",
      "2022-09-27T08:55:58.550406",
      "2022-09-27T08:56:34.776745",
      "2022-09-27T08:57:11.012419",
      "2022-09-27T08:57:47.317408",
      "2022-09-27T08:58:23.604769",
      "2022-09-27T08:58:59.961047",
      "2022-09-27T08:59:36.198019",
      "2022-09-27T09:00:12.662660",
      "2022-09-27T09:00:48.837952",
      "2022-09-27T09:01:25.132059",
      "2022-09-27T09:02:01.353772",
      "2022-09-27T09:02:37.687721",
      "2022-09-27T09:03:14.040138",
      "2022-09-27T09:03:50.271736",
      "2022-09-27T09:04:26.753760",
      "2022-09-27T09:05:02.959526",
      "2022-09-27T09:05:39.078549",
      "2022-09-27T09:06:15.289743",
      "2022-09-27T09:06:51.510338",
      "2022-09-27T09:07:27.814757",
      "2022-09-27T09:08:04.327006",
      "2022-09-27T09:08:40.548320",
      "2022-09-27T09:09:16.689650",
      "2022-09-27T09:09:52.503741",
      "2022-09-27T09:10:28.466955",
      "2022-09-27T09:11:04.192306",
      "2022-09-27T09:11:40.090349",
      "2022-09-27T09:12:16.279200",
      "2022-09-27T09:12:52.982595",
      "2022-09-27T09:13:28.642898",
      "2022-09-27T09:14:05.399675",
      "2022-09-27T09:14:41.918216",
      "2022-09-27T09:15:18.942150",
      "2022-09-27T09:15:55.685876",
      "2022-09-27T09:16:32.429285",
      "2022-09-27T09:17:10.348930",
      "2022-09-27T09:17:47.282950",
      "2022-09-27T09:18:23.223085",
      "2022-09-27T09:18:58.922289",
      "2022-09-27T09:19:34.656572",
      "2022-09-27T09:20:10.860278",
      "2022-09-27T09:20:47.408217",
      "2022-09-27T09:21:23.246643",
      "2022-09-27T09:21:59.023419",
      "2022-09-27T09:22:34.961291",
      "2022-09-27T09:23:11.252093",
      "2022-09-27T09:23:48.640858",
      "2022-09-27T09:24:27.155226",
      "2022-09-27T09:25:04.846290",
      "2022-09-27T09:25:42.531239",
      "2022-09-27T09:26:19.521750",
      "2022-09-27T09:26:56.540716",
      "2022-09-27T09:27:33.109751",
      "2022-09-27T09:28:09.098654",
      "2022-09-27T09:28:44.958780",
      "2022-09-27T09:29:20.793142",
      "2022-09-27T09:29:56.689401",
      "2022-09-27T09:30:32.630820",
      "2022-09-27T09:31:08.588260",
      "2022-09-27T09:31:44.578593",
      "2022-09-27T09:32:20.541696",
      "2022-09-27T09:32:56.422917",
      "2022-09-27T09:33:32.363267",
      "2022-09-27T09:34:08.219886",
      "2022-09-27T09:34:44.210729",
      "2022-09-27T09:35:20.122554",
      "2022-09-27T09:35:56.040291",
      "2022-09-27T09:36:31.967227",
      "2022-09-27T09:37:07.777387",
      "2022-09-27T09:37:43.665401",
      "2022-09-27T09:38:19.510919",
      "2022-09-27T09:38:55.306671",
      "2022-09-27T09:39:31.318938",
      "2022-09-27T09:40:07.035992",
      "2022-09-27T09:40:42.825257",
      "2022-09-27T09:41:18.624051",
      "2022-09-27T09:41:54.615157",
      "2022-09-27T09:42:30.586981",
      "2022-09-27T09:43:07.510366",
      "2022-09-27T09:43:43.957086",
      "2022-09-27T09:44:20.552809",
      "2022-09-27T09:44:57.122198",
      "2022-09-27T09:45:33.317021",
      "2022-09-27T09:46:09.620838",
      "2022-09-27T09:46:46.277968",
      "2022-09-27T09:47:23.932912",
      "2022-09-27T09:48:00.542473",
      "2022-09-27T09:48:37.379540",
      "2022-09-27T09:49:14.173218",
      "2022-09-27T09:49:50.760196",
      "2022-09-27T09:50:27.468392",
      "2022-09-27T09:51:03.922406",
      "2022-09-27T09:51:40.592565",
      "2022-09-27T09:52:17.326809",
      "2022-09-27T09:52:54.453604",
      "2022-09-27T09:53:32.404377",
      "2022-09-27T09:54:09.304225",
      "2022-09-27T09:54:45.701261",
      "2022-09-27T09:55:21.983582",
      "2022-09-27T09:55:58.251211",
      "2022-09-27T09:56:34.648956",
      "2022-09-27T09:57:10.923698",
      "2022-09-27T09:57:47.240675",
      "2022-09-27T09:58:23.737276",
      "2022-09-27T09:59:00.161790",
      "2022-09-27T09:59:36.596109",
      "2022-09-27T10:00:13.047451",
      "2022-09-27T10:00:49.398273",
      "2022-09-27T10:01:25.852305",
      "2022-09-27T10:02:02.243833",
      "2022-09-27T10:02:38.640757",
      "2022-09-27T10:03:15.107887",
      "2022-09-27T10:03:51.533143",
      "2022-09-27T10:04:27.913619",
      "2022-09-27T10:05:04.325421",
      "2022-09-27T10:05:40.773316",
      "2022-09-27T10:06:17.150452",
      "2022-09-27T10:06:53.474930",
      "2022-09-27T10:07:29.622372",
      "2022-09-27T10:08:06.042631",
      "2022-09-27T10:08:42.576040",
      "2022-09-27T10:09:19.046252",
      "2022-09-27T10:09:55.649499",
      "2022-09-27T10:10:31.996638",
      "2022-09-27T10:11:08.425281",
      "2022-09-27T10:11:44.778129",
      "2022-09-27T10:12:20.684167",
      "2022-09-27T10:12:56.493672",
      "2022-09-27T10:13:32.822299",
      "2022-09-27T10:14:09.199174",
      "2022-09-27T10:14:45.542297",
      "2022-09-27T10:15:21.873878",
      "2022-09-27T10:15:58.046797",
      "2022-09-27T10:16:34.079852",
      "2022-09-27T10:17:10.434374",
      "2022-09-27T10:17:47.682560",
      "2022-09-27T10:18:27.044988",
      "2022-09-27T10:19:04.121302",
      "2022-09-27T10:19:43.286203",
      "2022-09-27T10:20:24.485014",
      "2022-09-27T10:21:02.197939",
      "2022-09-27T10:21:39.536589",
      "2022-09-27T10:22:16.433159",
      "2022-09-27T10:22:51.230870",
      "2022-09-27T10:23:22.107845",
      "2022-09-27T10:23:52.986891",
      "2022-09-27T10:24:23.874351",
      "2022-09-27T10:24:55.184955",
      "2022-09-27T10:25:26.997716",
      "2022-09-27T10:25:59.311513",
      "2022-09-27T10:26:30.461847",
      "2022-09-27T10:27:01.893147",
      "2022-09-27T10:27:33.362499",
      "2022-09-27T10:28:05.008718",
      "2022-09-27T10:28:36.492011",
      "2022-09-27T10:29:07.390363",
      "2022-09-27T10:29:38.929456",
      "2022-09-27T10:30:10.118236",
      "2022-09-27T10:30:41.957466",
      "2022-09-27T10:31:15.241039",
      "2022-09-27T10:31:47.607880",
      "2022-09-27T10:32:20.095761",
      "2022-09-27T10:32:52.807859",
      "2022-09-27T10:33:25.222213",
      "2022-09-27T10:33:57.807233",
      "2022-09-27T10:34:33.787926",
      "2022-09-27T10:35:06.299977",
      "2022-09-27T10:35:39.395248",
      "2022-09-27T10:36:11.302343",
      "2022-09-27T10:36:42.914072",
      "2022-09-27T10:37:15.216183",
      "2022-09-27T10:37:47.554061",
      "2022-09-27T10:38:18.269781",
      "2022-09-27T10:38:49.223123",
      "2022-09-27T10:39:19.899525",
      "2022-09-27T10:39:51.744277",
      "2022-09-27T10:40:22.580123",
      "2022-09-27T10:40:53.680053",
      "2022-09-27T10:41:31.936265",
      "2022-09-27T10:42:22.553990",
      "2022-09-27T10:43:12.526973",
      "2022-09-27T10:44:02.159050",
      "2022-09-27T10:44:53.048637",
      "2022-09-27T10:45:42.936215",
      "2022-09-27T10:46:33.316739",
      "2022-09-27T10:47:22.967063",
      "2022-09-27T10:48:12.657400",
      "2022-09-27T10:49:02.186017",
      "2022-09-27T10:49:52.138544",
      "2022-09-27T10:50:40.825169",
      "2022-09-27T10:51:30.305369",
      "2022-09-27T10:52:19.676822",
      "2022-09-27T10:53:09.744913",
      "2022-09-27T10:53:57.901060",
      "2022-09-27T10:54:45.494723",
      "2022-09-27T10:55:33.556574",
      "2022-09-27T10:56:21.787581",
      "2022-09-27T10:57:10.517285",
      "2022-09-27T10:57:59.720415",
      "2022-09-27T10:58:48.358524",
      "2022-09-27T10:59:36.141311",
      "2022-09-27T11:00:24.331494",
      "2022-09-27T11:01:12.472892",
      "2022-09-27T11:02:00.543312",
      "2022-09-27T11:02:48.169250",
      "2022-09-27T11:03:36.549867",
      "2022-09-27T11:04:24.735637",
      "2022-09-27T11:05:13.186904",
      "2022-09-27T11:06:01.182592",
      "2022-09-27T11:06:49.140853",
      "2022-09-27T11:07:36.932447",
      "2022-09-27T11:08:25.467549",
      "2022-09-27T11:09:13.650517",
      "2022-09-27T11:10:01.628440",
      "2022-09-27T11:10:49.775169",
      "2022-09-27T11:11:37.888915",
      "2022-09-27T11:12:26.011019",
      "2022-09-27T11:13:13.761083",
      "2022-09-27T11:14:01.549731",
      "2022-09-27T11:14:49.862787",
      "2022-09-27T11:15:38.764759",
      "2022-09-27T11:16:26.636033",
      "2022-09-27T11:17:15.890704",
      "2022-09-27T11:18:05.300073",
      "2022-09-27T11:18:54.735343",
      "2022-09-27T11:19:44.774684",
      "2022-09-27T11:20:34.199577",
      "2022-09-27T11:21:23.687200",
      "2022-09-27T11:22:13.172880",
      "2022-09-27T11:23:02.477310",
      "2022-09-27T11:23:51.777549",
      "2022-09-27T11:24:40.674824",
      "2022-09-27T11:25:30.035128",
      "2022-09-27T11:26:19.790766",
      "2022-09-27T11:27:09.668029",
      "2022-09-27T11:27:58.891799",
      "2022-09-27T11:28:48.293482",
      "2022-09-27T11:29:38.327071",
      "2022-09-27T11:30:28.376900",
      "2022-09-27T11:31:17.855669",
      "2022-09-27T11:32:07.946555",
      "2022-09-27T11:32:57.504175",
      "2022-09-27T11:33:47.518591",
      "2022-09-27T11:34:37.522339",
      "2022-09-27T11:35:27.023434",
      "2022-09-27T11:36:15.913550",
      "2022-09-27T11:37:03.952452",
      "2022-09-27T11:37:54.229485",
      "2022-09-27T11:38:44.182154",
      "2022-09-27T11:39:32.826277",
      "2022-09-27T11:40:21.178956",
      "2022-09-27T11:41:09.903380",
      "2022-09-27T11:42:00.720904",
      "2022-09-27T11:42:51.608817",
      "2022-09-27T11:43:40.620510",
      "2022-09-27T11:44:31.885531",
      "2022-09-27T11:45:22.014694",
      "2022-09-27T11:46:11.615419",
      "2022-09-27T11:47:02.750884",
      "2022-09-27T11:47:52.761852",
      "2022-09-27T11:48:43.786302",
      "2022-09-27T11:49:34.781006",
      "2022-09-27T11:50:23.735617",
      "2022-09-27T11:51:13.646541",
      "2022-09-27T11:52:00.860468",
      "2022-09-27T11:52:39.016412",
      "2022-09-27T11:53:16.350553",
      "2022-09-27T11:53:54.811796",
      "2022-09-27T11:54:31.097909",
      "2022-09-27T11:55:07.738096",
      "2022-09-27T11:55:47.058048",
      "2022-09-27T11:56:26.347889",
      "2022-09-27T11:57:05.579661",
      "2022-09-27T11:57:43.084547",
      "2022-09-27T11:58:19.638803",
      "2022-09-27T11:58:57.061335",
      "2022-09-27T11:59:35.420930",
      "2022-09-27T12:00:13.614126",
      "2022-09-27T12:00:52.007980",
      "2022-09-27T12:01:30.110362",
      "2022-09-27T12:02:10.848398",
      "2022-09-27T12:02:53.302710",
      "2022-09-27T12:03:33.917223",
      "2022-09-27T12:04:15.870590",
      "2022-09-27T12:04:58.397944",
      "2022-09-27T12:05:36.428538",
      "2022-09-27T12:06:15.301227",
      "2022-09-27T12:06:54.054581",
      "2022-09-27T12:07:32.362778",
      "2022-09-27T12:08:10.692699",
      "2022-09-27T12:08:49.360125",
      "2022-09-27T12:09:27.935372",
      "2022-09-27T12:10:06.159099",
      "2022-09-27T12:10:44.675649",
      "2022-09-27T12:11:23.047048",
      "2022-09-27T12:12:02.102901",
      "2022-09-27T12:12:40.455717",
      "2022-09-27T12:13:19.065805",
      "2022-09-27T12:13:57.458462",
      "2022-09-27T12:14:36.027288",
      "2022-09-27T12:15:14.677708",
      "2022-09-27T12:15:53.178686",
      "2022-09-27T12:16:32.046227",
      "2022-09-27T12:17:08.886127",
      "2022-09-27T12:17:46.112716",
      "2022-09-27T12:18:22.538172",
      "2022-09-27T12:18:59.019777",
      "2022-09-27T12:19:35.533284",
      "2022-09-27T12:20:11.667647",
      "2022-09-27T12:20:48.212727",
      "2022-09-27T12:21:25.862142",
      "2022-09-27T12:22:02.568121",
      "2022-09-27T12:22:38.871215",
      "2022-09-27T12:23:15.249426",
      "2022-09-27T12:23:51.533847",
      "2022-09-27T12:24:27.873760",
      "2022-09-27T12:25:04.133309",
      "2022-09-27T12:25:40.488602",
      "2022-09-27T12:26:16.675164",
      "2022-09-27T12:26:52.953832",
      "2022-09-27T12:27:29.156680",
      "2022-09-27T12:28:05.775603",
      "2022-09-27T12:28:42.135823",
      "2022-09-27T12:29:18.731729",
      "2022-09-27T12:29:55.115823",
      "2022-09-27T12:30:31.743503",
      "2022-09-27T12:31:08.520547",
      "2022-09-27T12:31:44.554365",
      "2022-09-27T12:32:20.525770",
      "2022-09-27T12:32:56.651555",
      "2022-09-27T12:33:32.998623",
      "2022-09-27T12:34:09.236725",
      "2022-09-27T12:34:45.639773",
      "2022-09-27T12:35:21.919601",
      "2022-09-27T12:35:58.167377",
      "2022-09-27T12:36:34.839376",
      "2022-09-27T12:37:11.547966",
      "2022-09-27T12:37:47.722783",
      "2022-09-27T12:38:24.118931",
      "2022-09-27T12:39:00.832167",
      "2022-09-27T12:39:38.417937",
      "2022-09-27T12:40:20.113421",
      "2022-09-27T12:40:59.938957",
      "2022-09-27T12:41:40.546579",
      "2022-09-27T12:42:21.527957",
      "2022-09-27T12:43:00.375643",
      "2022-09-27T12:43:37.814406",
      "2022-09-27T12:44:14.170479",
      "2022-09-27T12:44:50.380383",
      "2022-09-27T12:45:26.916310",
      "2022-09-27T12:46:03.796488",
      "2022-09-27T12:46:40.253134",
      "2022-09-27T12:47:16.690988",
      "2022-09-27T12:47:53.095798",
      "2022-09-27T12:48:29.617347",
      "2022-09-27T12:49:06.223459",
      "2022-09-27T12:49:42.566064",
      "2022-09-27T12:50:18.706483",
      "2022-09-27T12:50:55.059039",
      "2022-09-27T12:51:31.498648",
      "2022-09-27T12:52:08.221304",
      "2022-09-27T12:52:44.676858",
      "2022-09-27T12:53:22.732020",
      "2022-09-27T12:54:04.437926",
      "2022-09-27T12:54:44.921403",
      "2022-09-27T12:55:25.232941",
      "2022-09-27T12:56:07.694886",
      "2022-09-27T12:56:46.481762",
      "2022-09-27T12:57:24.660738",
      "2022-09-27T12:58:01.163647",
      "2022-09-27T12:58:37.670636",
      "2022-09-27T12:59:14.429295",
      "2022-09-27T12:59:51.034617",
      "2022-09-27T13:00:27.585278",
      "2022-09-27T13:01:03.863345",
      "2022-09-27T13:01:40.442056",
      "2022-09-27T13:02:16.678651",
      "2022-09-27T13:02:53.090604",
      "2022-09-27T13:03:29.878907",
      "2022-09-27T13:04:06.538791",
      "2022-09-27T13:04:43.290049",
      "2022-09-27T13:05:20.392252",
      "2022-09-27T13:05:57.230834",
      "2022-09-27T13:06:33.568444",
      "2022-09-27T13:07:09.778537",
      "2022-09-27T13:07:46.089844",
      "2022-09-27T13:08:22.147921",
      "2022-09-27T13:08:58.326937",
      "2022-09-27T13:09:34.818986",
      "2022-09-27T13:10:11.445303",
      "2022-09-27T13:10:49.439366",
      "2022-09-27T13:11:27.383987",
      "2022-09-27T13:12:05.422129",
      "2022-09-27T13:12:43.662053",
      "2022-09-27T13:13:21.638001",
      "2022-09-27T13:13:59.772605",
      "2022-09-27T13:14:37.634244",
      "2022-09-27T17:00:02.955350",
      "2022-09-27T17:00:43.056847",
      "2022-09-27T17:01:23.128283",
      "2022-09-27T17:02:02.473643",
      "2022-09-27T17:02:41.627508",
      "2022-09-27T17:03:20.672594",
      "2022-09-27T17:03:59.829612",
      "2022-09-27T17:04:38.037757",
      "2022-09-27T17:05:16.393906",
      "2022-09-27T17:05:55.242516",
      "2022-09-27T17:06:33.938828",
      "2022-09-27T17:07:12.644694",
      "2022-09-27T17:07:50.713930",
      "2022-09-27T17:08:29.130206",
      "2022-09-27T17:09:06.652877",
      "2022-09-27T17:09:44.216162",
      "2022-09-27T17:10:21.754461",
      "2022-09-27T17:10:59.212727",
      "2022-09-27T17:11:36.624703",
      "2022-09-27T17:12:15.268201",
      "2022-09-27T17:12:52.942649",
      "2022-09-27T17:13:30.172821",
      "2022-09-27T17:14:07.866312",
      "2022-09-27T17:14:45.556782",
      "2022-09-27T17:15:27.216260",
      "2022-09-27T17:16:07.560354",
      "2022-09-27T17:16:46.116951",
      "2022-09-27T17:17:22.650851",
      "2022-09-27T17:17:59.068390",
      "2022-09-27T17:18:35.389663",
      "2022-09-27T17:19:11.952248",
      "2022-09-27T17:19:48.576037",
      "2022-09-27T17:20:25.094543",
      "2022-09-27T17:21:01.642147",
      "2022-09-27T17:21:38.023013",
      "2022-09-27T17:22:14.546937",
      "2022-09-27T17:22:51.005444",
      "2022-09-27T17:23:27.619431",
      "2022-09-27T17:24:04.263963",
      "2022-09-27T17:24:40.853456",
      "2022-09-27T17:25:17.234027",
      "2022-09-27T17:25:53.603398",
      "2022-09-27T17:26:30.190347",
      "2022-09-27T17:27:06.699896",
      "2022-09-27T17:27:43.228231",
      "2022-09-27T17:28:19.805845",
      "2022-09-27T17:28:56.358386",
      "2022-09-27T17:29:33.034281",
      "2022-09-27T17:30:09.597745",
      "2022-09-27T17:30:46.070933",
      "2022-09-27T17:31:22.658014",
      "2022-09-27T17:31:59.093779",
      "2022-09-27T17:32:35.475894",
      "2022-09-27T17:33:11.997011",
      "2022-09-27T17:33:48.729049",
      "2022-09-27T17:34:25.394450",
      "2022-09-27T17:35:02.117894",
      "2022-09-27T17:35:38.370863",
      "2022-09-27T17:36:14.940296",
      "2022-09-27T17:36:51.447326",
      "2022-09-27T17:37:28.143873",
      "2022-09-27T17:38:04.898424",
      "2022-09-27T17:38:41.398721",
      "2022-09-27T17:39:17.829370",
      "2022-09-27T17:39:54.190206",
      "2022-09-27T17:40:30.887109",
      "2022-09-27T17:41:07.601624",
      "2022-09-27T17:41:44.370438",
      "2022-09-27T17:42:20.858017",
      "2022-09-27T17:42:57.482866",
      "2022-09-27T17:43:34.323342",
      "2022-09-27T17:44:11.060617",
      "2022-09-27T17:44:47.668948",
      "2022-09-27T17:45:24.180026",
      "2022-09-27T17:46:00.606463",
      "2022-09-27T17:46:36.976238",
      "2022-09-27T17:47:13.692965",
      "2022-09-27T17:47:50.490836",
      "2022-09-27T17:48:27.179866",
      "2022-09-27T17:49:03.770309",
      "2022-09-27T17:49:40.173810",
      "2022-09-27T17:50:16.889102",
      "2022-09-27T17:50:53.470182",
      "2022-09-27T17:51:30.182186",
      "2022-09-27T17:52:06.905326",
      "2022-09-27T17:52:43.563046",
      "2022-09-27T17:53:20.061933",
      "2022-09-27T17:53:56.580860",
      "2022-09-27T17:54:33.265880",
      "2022-09-27T17:55:09.938033",
      "2022-09-27T17:55:46.653957",
      "2022-09-27T17:56:23.059450",
      "2022-09-27T17:56:59.776982",
      "2022-09-27T17:57:36.390368",
      "2022-09-27T17:58:13.123431",
      "2022-09-27T17:58:49.819453",
      "2022-09-27T17:59:26.400997",
      "2022-09-27T18:00:02.966549",
      "2022-09-27T18:00:39.593353",
      "2022-09-27T18:01:16.372206"
    ],
    "values": [
      9.627876872598375,
      9.448989449740994,
      9.500536289510544,
      9.790620423691307,
      9.830933947251198,
      9.841394643210267,
      9.729217578073435,
      9.64038839295724,
      9.678272533418621,
      9.597692100183242,
      9.684224092164339,
      9.611765939860016,
      9.701667098688077,
      9.855947925588115,
      9.663557545468226,
      9.686514714515157,
      9.666697121281869,
      9.699942879392713,
      9.80402379951526,
      9.669574151001747,
      9.7456054295956,
      9.744114544246038,
      9.926217804456694,
      9.897667501225975,
      9.591554758881859,
      9.852471274740157,
      9.88725865852707,
      9.746934877287,
      9.683817295257885,
      9.61531564231966,
      9.78746681495431,
      9.757237939141865,
      9.55591061617734,
      9.56848821857187,
      9.629614831194717,
      9.596353124757039,
      9.553948734641136,
      9.761200630158182,
      9.631824161570425,
      9.540824509853032,
      9.576305101627716,
      9.518214509673673,
      9.627341358820743,
      9.786297994380359,
      9.622587118977822,
      9.52754152934089,
      9.595826133460795,
      9.635793669056119,
      9.52779315447128,
      9.65126461143582,
      9.6707174585691,
      9.597067486135085,
      9.592301572701793,
      9.508079851568873,
      9.512548040218055,
      9.614545200428132,
      9.469682610263684,
      9.546479504536805,
      9.815380877753352,
      9.469600424289451,
      9.586766203789479,
      9.529233486716564,
      9.496060628313844,
      9.569000722669879,
      9.55688172821544,
      9.535355493166726,
      9.60488676670698,
      9.589170829709502,
      9.532706847633204,
      9.553457182661129,
      9.488307538892784,
      9.497554356407807,
      9.594381201036132,
      9.489049572757697,
      9.585598177179476,
      9.53096852416804,
      9.450701364699343,
      9.481962908019593,
      9.490095095859798,
      9.476818702980188,
      9.46898796730289,
      9.502272584290365,
      9.546849407884936,
      9.545885958190151,
      9.521803768149345,
      9.425879795163391,
      9.480875322813503,
      9.436117649666956,
      9.45051001217565,
      9.498475472720674,
      9.43256470316453,
      9.43324995284149,
      9.457246161585694,
      9.43860800356703,
      9.42042588258771,
      9.426026604944646,
      9.463202136847809,
      9.432542226908241,
      9.392288125811715,
      9.3914751614595,
      9.403133000180818,
      9.400585335820189,
      9.393046338216232,
      9.388388457609325,
      9.383576728653441,
      9.375139844658815,
      9.380126710607598,
      9.402630825053151,
      9.382333604703799,
      9.384256906574205,
      9.359290741851753,
      9.37495253568012,
      9.37361626562305,
      9.356684739347369,
      9.374938359149942,
      9.354160658270505,
      9.359098240968052,
      9.355273735065044,
      9.351197982347596,
      9.36451583373925,
      9.34067548616149,
      9.344185818399643,
      9.35443940453776,
      9.342353214364028,
      9.342164339272498,
      9.340946499171546,
      9.33240395723603,
      9.346633181047483,
      9.349293449465419,
      9.33549263731523,
      9.315252682064255,
      9.32494774716363,
      9.332473189202357,
      9.313762651985844,
      9.323863908024787,
      9.321532658388204,
      9.328128008734948,
      9.317749544407574,
      9.320058229401024,
      9.305775790246637,
      9.302968797310351,
      9.302790824695817,
      9.296670334172251,
      9.28326489366278,
      9.283211534866812,
      9.284685658045145,
      9.27315277946561,
      9.275375309610684,
      9.281439993035264,
      9.263449557280149,
      9.274047002123003,
      9.266471143747703,
      9.253674786214116,
      9.253887746167251,
      9.261964489008141,
      9.237288186315904,
      9.25368926723519,
      9.248556989393606,
      9.23782115917437,
      9.23354594178386,
      9.240571170681084,
      9.211216847762957,
      9.209215318662933,
      9.199734669834301,
      9.200948711461702,
      9.200110811869473,
      9.17680007317267,
      9.175325872949799,
      9.176876343503023,
      9.17670718887722,
      9.144979625487874,
      9.152545006267564,
      9.135403191093138,
      9.126435915732918,
      9.114626079380699,
      9.115646512870399,
      9.083822314385248,
      9.078884234928058,
      9.061648101422499,
      9.042253375390477,
      9.041807667068664,
      9.01020110823877,
      8.9811996681671,
      8.952418793718405,
      8.933425091198533,
      8.91844129336991,
      8.91206081757351,
      8.877187417805619,
      8.852571036387237,
      8.83323088941197,
      8.830765669167128,
      8.788898418795885,
      8.791850348941136,
      8.775803213691722,
      8.752511175725033,
      8.738726297487666,
      8.754525314639844,
      8.7111691333496,
      8.705161397412343,
      8.727349980636093,
      8.666629383375852,
      8.690014310158313,
      8.658023232517284,
      8.640276357718571,
      8.62350725182702,
      8.63913130144874,
      8.618730122983914,
      8.591958063079172,
      8.62694676330649,
      8.584453265733572,
      8.571836052173348,
      8.57840550123177,
      8.561280774449552,
      8.562312795589136,
      8.558801984625799,
      8.540189451527457,
      8.538943919232382,
      8.551964505866454,
      8.495965306034945,
      8.510540082247656,
      8.492675689104775,
      8.473475754895894,
      8.472112169803783,
      8.473212695736676,
      8.478301189135475,
      8.43800209397785,
      8.42243882523864,
      8.48031270069762,
      8.40044691980014,
      8.384589767428718,
      8.402202526630964,
      8.37769871012843,
      8.371572212611404,
      8.34039895556558,
      8.34170016878534,
      8.336678483674424,
      8.322907278712087,
      8.29023467713252,
      8.284713591751174,
      8.309416877778173,
      8.262599778038641,
      8.241140682459228,
      8.248245150822676,
      8.203661868684536,
      8.202081941677253,
      8.202932559601134,
      8.204356990403094,
      8.185483471048114,
      8.192162445707826,
      8.160698283458604,
      8.15855399382799,
      8.162767062396078,
      8.140670150899783,
      8.123098755674818,
      8.157425864818654,
      8.098673232529551,
      8.11410532266152,
      8.115707901564985,
      8.075430825671184,
      8.097471076833614,
      8.070448241382378,
      8.104313342728151,
      8.059480315985622,
      8.0634428463284,
      8.055106159660934,
      8.076220349689628,
      8.098314686824104,
      8.05550859156134,
      8.090743964005387,
      8.0609574807668,
      8.01598073028798,
      8.035054146002729,
      8.040641615133945,
      8.017534571596403,
      8.114704966660183,
      8.03110519318186,
      8.06352951987441,
      8.013378142408802,
      8.006937838395952,
      8.022329793203488,
      8.05320542048771,
      8.002419050765528,
      7.996781954615514,
      8.014204958163239,
      7.990301796948534,
      7.9920557500087686,
      8.014695701674695,
      8.020417821814211,
      7.99745164986269,
      8.0378508946593,
      8.002191416204255,
      8.034536793110567,
      8.005662064506598,
      7.9663507767923205,
      8.009754308708281,
      8.003785258665136,
      7.977526264347399,
      8.019077323613766,
      7.985821266095795,
      7.97218439652961,
      7.974103516850144,
      7.9643751804908804,
      7.988380094523636,
      7.954432401143467,
      7.976342665205071,
      7.985014107233806,
      7.948234303212002,
      7.956843899499892,
      8.013717939880028,
      7.97356910674159,
      7.925968665651837,
      7.952088775546407,
      7.951333346999563,
      7.957603870578481,
      7.9502788468403285,
      7.970030773470706,
      7.948130134873779,
      7.936037326901032,
      7.9340599881609135,
      7.9522696009833,
      7.964611156210919,
      7.91829910494841,
      7.9738313844243764,
      7.950642539754028,
      7.96281224958644,
      7.911401205817789,
      7.978405772899016,
      7.956409344986058,
      7.931108382643055,
      7.916796022656335,
      7.917851970205102,
      7.909979001571108,
      7.926042884294337,
      7.910128744920921,
      7.93231609531726,
      7.924471185211314,
      7.922597438289169,
      7.913306009801467,
      7.918329795471825,
      7.895950718126963,
      7.9044251085707655,
      7.951284340967492,
      7.954988706917826,
      7.92258700012173,
      7.931340918206826,
      7.910064304220488,
      7.896880933484145,
      7.894140688409325,
      8.011816936319413,
      7.907277849300321,
      7.893840497380052,
      7.907480904331324,
      7.949964012186335,
      7.915942756443817,
      7.889080454504578,
      7.924080940024591,
      7.916222671944705,
      7.917207800449165,
      7.868621264034755,
      7.891521237096001,
      7.904197222591027,
      7.903394105433319,
      7.872327094421212,
      7.887215931764874,
      7.878622956506392,
      7.877299884125273,
      7.879779877046362,
      7.849287177619378,
      7.884546452786789,
      7.898733886920285,
      7.885134162921561,
      7.88833036928164,
      7.88419418955836,
      7.883675203340859,
      7.880773116138926,
      7.8786595166215445,
      7.904613560570814,
      7.877133150669207,
      7.886939456056889,
      7.854205622389278,
      7.886411827699308,
      7.873000692363286,
      7.882833140877241,
      7.871788560693647,
      7.874115689303356,
      7.881299762643617,
      7.860084547783087,
      7.844576801632861,
      7.914613363813698,
      7.8781112622567475,
      7.8782042665924426,
      7.916418708701045,
      7.846341844129524,
      7.851478289902903,
      7.841323944597365,
      7.850415677305399,
      7.861495687831429,
      7.857015873110425,
      7.902916045139088,
      7.862012135242658,
      7.875082850793459,
      7.838769507816361,
      7.840506413858376,
      7.821420226323584,
      7.888833423734729,
      7.828933800594915,
      7.880676734432386,
      7.860316043936537,
      7.881825476850247,
      7.821342202541082,
      7.865889265662652,
      7.889103667607041,
      7.886374299863862,
      7.855321327527508,
      7.850056646866004,
      7.833519391848874,
      7.847371261881568,
      7.837714549326776,
      7.852011203448446,
      7.8525751350699124,
      7.8516611373778415,
      7.868121180863591,
      7.833094638740522,
      7.8342319172927875,
      7.819162504567393,
      7.83268285836529,
      7.840146888074851,
      7.825592227290642,
      7.842092186378897,
      7.875007564203879,
      7.8459006935189946,
      7.834175072651346,
      7.826272643283218,
      7.826721859781616,
      7.863606468924918,
      7.81950180651891,
      7.8441790208019455,
      7.822273680545445,
      7.852725940664092,
      7.816581119187225,
      7.824990032933291,
      7.884058640157176,
      7.837641605174459,
      7.827501968541017,
      7.886519468845094,
      7.816537880968005,
      7.835148303198288,
      7.830938917285735,
      7.818472029572729,
      7.841302141702113,
      7.84698029712235,
      7.828838011473342,
      7.851718117330947,
      7.821440176977662,
      7.797497086363523,
      7.842792889165321,
      7.806286736118653,
      7.809826344932449,
      7.8127181569574145,
      7.84927308257014,
      7.814582939427356,
      7.83167068469251,
      7.845105425208205,
      7.851657504622267,
      7.792618511533301,
      7.815138887067408,
      7.8146642843133325,
      7.834566586468176,
      7.860196734322477,
      7.831337116825621,
      7.832498861615972,
      7.8211235948854325,
      7.819065453090465,
      7.843952956915729,
      7.831756506840124,
      7.844106099741879,
      7.864907173579226,
      7.803975404516936,
      7.804048400924861,
      7.815814895876829,
      7.8641819912305975,
      7.8290015436787925,
      7.8219823770962975,
      7.827308194389099,
      7.834189026036337,
      7.851567047457074,
      7.825270518750521,
      7.79904415158102,
      7.8373360235131475,
      7.807221179286063,
      7.7885153383699075,
      7.82364390323645,
      7.830881825232265,
      7.799440419870059,
      7.798166593474747,
      7.802070596902489,
      7.938495024653919,
      7.799579130707707,
      7.8065866940287965,
      7.8303063944639515,
      7.849206824012436,
      7.83220300723611,
      7.8201878318766775,
      7.821807716531682,
      7.859479535266094,
      7.817011793437868,
      7.826225990838447,
      7.8237024332237315,
      7.829237733535573,
      7.789818319688427,
      7.803291283834346,
      7.802567916797635,
      7.79502011602635,
      7.7818599839602225,
      7.819030132364018,
      7.783815315942201,
      7.81439196598105,
      7.867647108237335,
      7.81151006996115,
      7.792824620306169,
      7.825263840906986,
      7.795618930717922,
      7.79617858490906,
      7.793660243454541,
      7.850698822416964,
      7.786233082412144,
      7.80913453489223,
      7.827567811538588,
      7.794870304642932,
      7.7876973917592895,
      7.791262870628543,
      7.772843696754123,
      7.803830735075351,
      7.840034878599347,
      7.784845287706372,
      7.874800573786521,
      7.7966826081695215,
      7.813650713359292,
      7.850255006647627,
      7.804028533790257,
      7.794671824097916,
      7.80570784031558,
      7.858097428169524,
      7.809766042237453,
      7.835811050875131,
      7.780687032133128,
      7.7745906832682605,
      7.768544433299534,
      7.762750145371688,
      7.766091471361977,
      7.759938967486785,
      7.743700362674406,
      7.772072032149522,
      7.7828042264860215,
      7.764459301916824,
      7.760014617177935,
      7.748164717484987,
      7.7789916019731224,
      7.76269085238385,
      7.774799855852168,
      7.753786673205927,
      7.771746237560694,
      7.778556482908954,
      7.764167504758845,
      7.775055937947897,
      7.753233930809493,
      7.759843573913299,
      7.757829655283777,
      7.758512758667895,
      7.776151386457866,
      7.758573662868775,
      7.779776586329119,
      7.761124443325011,
      7.767359677373475,
      7.767490865979515,
      7.761569573126129,
      7.766324412162244,
      7.76077554730729,
      7.7698827397800585,
      7.758827339218422,
      7.761659396886772,
      7.755314133642808,
      7.766967930350253,
      7.777224454769813,
      7.762556139248083,
      7.756832911313066,
      7.7696144290652756,
      7.749925716369459,
      7.777923343940321,
      7.76682800080625,
      7.751528143866528,
      7.755262269765322,
      7.754751485346721,
      7.77728216289024,
      7.771365825187023,
      7.760125003145587,
      7.745553256510486,
      7.772415626178287,
      7.757593556473813,
      7.750754732992344
    ]
  }
}