INFO - siren_vae - Running command 'run'
INFO - siren_vae - Started run with ID "2"
[ENCODED STRUCTURE] Updating BN structure to be fully-connected.
  0%|          | 0/400 [00:00<?, ?it/s]Train -ELBO: 71.808, Val -ELBO: 56.282:   0%|          | 1/400 [00:01<11:33,  1.74s/it]Train -ELBO: 53.188, Val -ELBO: 49.968:   0%|          | 2/400 [00:03<10:22,  1.56s/it]Train -ELBO: 48.852, Val -ELBO: 47.357:   1%|          | 3/400 [00:04<09:48,  1.48s/it]Train -ELBO: 46.740, Val -ELBO: 45.713:   1%|          | 4/400 [00:06<09:42,  1.47s/it]Train -ELBO: 45.334, Val -ELBO: 44.713:   1%|▏         | 5/400 [00:07<09:18,  1.41s/it]Train -ELBO: 44.517, Val -ELBO: 44.169:   2%|▏         | 6/400 [00:08<09:09,  1.39s/it]Train -ELBO: 44.083, Val -ELBO: 43.678:   2%|▏         | 7/400 [00:10<09:02,  1.38s/it]Train -ELBO: 43.604, Val -ELBO: 43.088:   2%|▏         | 8/400 [00:11<08:57,  1.37s/it]Train -ELBO: 42.959, Val -ELBO: 42.281:   2%|▏         | 9/400 [00:12<08:54,  1.37s/it]Train -ELBO: 41.812, Val -ELBO: 41.372:   2%|▎         | 10/400 [00:14<08:48,  1.36s/it]Train -ELBO: 40.870, Val -ELBO: 40.367:   3%|▎         | 11/400 [00:15<08:43,  1.35s/it]Train -ELBO: 40.044, Val -ELBO: 39.638:   3%|▎         | 12/400 [00:16<08:40,  1.34s/it]Train -ELBO: 39.378, Val -ELBO: 39.064:   3%|▎         | 13/400 [00:18<08:40,  1.35s/it]Train -ELBO: 38.888, Val -ELBO: 38.767:   4%|▎         | 14/400 [00:19<08:37,  1.34s/it]Train -ELBO: 38.652, Val -ELBO: 38.450:   4%|▍         | 15/400 [00:20<08:32,  1.33s/it]Train -ELBO: 38.421, Val -ELBO: 38.264:   4%|▍         | 16/400 [00:22<08:32,  1.34s/it]Train -ELBO: 38.200, Val -ELBO: 38.103:   4%|▍         | 17/400 [00:23<08:34,  1.34s/it]Train -ELBO: 38.005, Val -ELBO: 38.092:   4%|▍         | 18/400 [00:24<08:32,  1.34s/it]Train -ELBO: 37.937, Val -ELBO: 37.892:   5%|▍         | 19/400 [00:26<08:30,  1.34s/it]Train -ELBO: 37.778, Val -ELBO: 37.765:   5%|▌         | 20/400 [00:27<08:26,  1.33s/it]Train -ELBO: 37.671, Val -ELBO: 37.693:   5%|▌         | 21/400 [00:28<08:27,  1.34s/it]Train -ELBO: 37.601, Val -ELBO: 37.654:   6%|▌         | 22/400 [00:30<08:31,  1.35s/it]Train -ELBO: 37.524, Val -ELBO: 37.571:   6%|▌         | 23/400 [00:31<08:25,  1.34s/it]Train -ELBO: 37.466, Val -ELBO: 37.455:   6%|▌         | 24/400 [00:32<08:21,  1.34s/it]Train -ELBO: 37.381, Val -ELBO: 37.457:   6%|▋         | 25/400 [00:34<08:28,  1.36s/it]Train -ELBO: 37.324, Val -ELBO: 37.427:   6%|▋         | 26/400 [00:35<08:32,  1.37s/it]Train -ELBO: 37.335, Val -ELBO: 37.321:   7%|▋         | 27/400 [00:36<08:31,  1.37s/it]Train -ELBO: 37.218, Val -ELBO: 37.312:   7%|▋         | 28/400 [00:38<08:44,  1.41s/it]Train -ELBO: 37.139, Val -ELBO: 37.188:   7%|▋         | 29/400 [00:39<08:43,  1.41s/it]Train -ELBO: 37.112, Val -ELBO: 37.360:   8%|▊         | 30/400 [00:41<08:47,  1.42s/it]Train -ELBO: 37.124, Val -ELBO: 37.180:   8%|▊         | 31/400 [00:42<08:50,  1.44s/it]Train -ELBO: 37.010, Val -ELBO: 37.071:   8%|▊         | 32/400 [00:44<08:46,  1.43s/it]Train -ELBO: 36.957, Val -ELBO: 36.981:   8%|▊         | 33/400 [00:45<08:35,  1.40s/it]Train -ELBO: 36.864, Val -ELBO: 36.949:   8%|▊         | 34/400 [00:46<08:28,  1.39s/it]Train -ELBO: 36.794, Val -ELBO: 36.878:   9%|▉         | 35/400 [00:48<08:30,  1.40s/it]Train -ELBO: 36.761, Val -ELBO: 36.889:   9%|▉         | 36/400 [00:49<08:23,  1.38s/it]Train -ELBO: 36.651, Val -ELBO: 36.722:   9%|▉         | 37/400 [00:51<08:18,  1.37s/it]Train -ELBO: 36.620, Val -ELBO: 36.699:  10%|▉         | 38/400 [00:52<08:11,  1.36s/it]Train -ELBO: 36.571, Val -ELBO: 36.702:  10%|▉         | 39/400 [00:53<08:06,  1.35s/it]Train -ELBO: 36.567, Val -ELBO: 36.721:  10%|█         | 40/400 [00:55<08:04,  1.35s/it]Train -ELBO: 36.478, Val -ELBO: 36.568:  10%|█         | 41/400 [00:56<08:05,  1.35s/it]Train -ELBO: 36.446, Val -ELBO: 36.538:  10%|█         | 42/400 [00:57<07:59,  1.34s/it]Train -ELBO: 36.419, Val -ELBO: 36.524:  11%|█         | 43/400 [00:59<08:00,  1.35s/it]Train -ELBO: 36.367, Val -ELBO: 36.506:  11%|█         | 44/400 [01:00<08:02,  1.35s/it]Train -ELBO: 36.376, Val -ELBO: 36.553:  11%|█▏        | 45/400 [01:01<08:03,  1.36s/it]Train -ELBO: 36.337, Val -ELBO: 36.458:  12%|█▏        | 46/400 [01:03<08:12,  1.39s/it]Train -ELBO: 36.341, Val -ELBO: 36.494:  12%|█▏        | 47/400 [01:04<08:09,  1.39s/it]Train -ELBO: 36.297, Val -ELBO: 36.462:  12%|█▏        | 48/400 [01:05<08:00,  1.37s/it]Train -ELBO: 36.203, Val -ELBO: 36.445:  12%|█▏        | 49/400 [01:07<07:57,  1.36s/it]Train -ELBO: 36.284, Val -ELBO: 36.388:  12%|█▎        | 50/400 [01:08<07:58,  1.37s/it]Train -ELBO: 36.267, Val -ELBO: 36.354:  13%|█▎        | 51/400 [01:10<07:55,  1.36s/it]Train -ELBO: 36.173, Val -ELBO: 36.361:  13%|█▎        | 52/400 [01:11<07:51,  1.36s/it]Train -ELBO: 36.197, Val -ELBO: 36.316:  13%|█▎        | 53/400 [01:12<07:47,  1.35s/it]Train -ELBO: 36.129, Val -ELBO: 36.326:  14%|█▎        | 54/400 [01:14<07:44,  1.34s/it]Train -ELBO: 36.092, Val -ELBO: 36.319:  14%|█▍        | 55/400 [01:15<07:40,  1.34s/it]Train -ELBO: 36.103, Val -ELBO: 36.228:  14%|█▍        | 56/400 [01:16<07:36,  1.33s/it]Train -ELBO: 35.984, Val -ELBO: 36.423:  14%|█▍        | 57/400 [01:18<07:39,  1.34s/it]Train -ELBO: 36.099, Val -ELBO: 36.201:  14%|█▍        | 58/400 [01:19<07:38,  1.34s/it]Train -ELBO: 36.008, Val -ELBO: 36.266:  15%|█▍        | 59/400 [01:20<07:34,  1.33s/it]Train -ELBO: 35.974, Val -ELBO: 36.375:  15%|█▌        | 60/400 [01:22<07:30,  1.32s/it]Train -ELBO: 36.038, Val -ELBO: 36.205:  15%|█▌        | 61/400 [01:23<07:27,  1.32s/it]Train -ELBO: 35.993, Val -ELBO: 36.219:  16%|█▌        | 62/400 [01:24<07:24,  1.32s/it]Train -ELBO: 35.956, Val -ELBO: 36.124:  16%|█▌        | 63/400 [01:25<07:23,  1.32s/it]Train -ELBO: 35.837, Val -ELBO: 36.090:  16%|█▌        | 64/400 [01:27<07:46,  1.39s/it]Train -ELBO: 35.844, Val -ELBO: 36.118:  16%|█▋        | 65/400 [01:28<07:46,  1.39s/it]Train -ELBO: 35.925, Val -ELBO: 36.179:  16%|█▋        | 66/400 [01:30<07:49,  1.41s/it]Train -ELBO: 35.949, Val -ELBO: 36.144:  17%|█▋        | 67/400 [01:31<07:53,  1.42s/it]Train -ELBO: 35.897, Val -ELBO: 36.023:  17%|█▋        | 68/400 [01:33<07:46,  1.41s/it]Train -ELBO: 35.808, Val -ELBO: 36.091:  17%|█▋        | 69/400 [01:34<07:53,  1.43s/it]Train -ELBO: 35.797, Val -ELBO: 36.025:  18%|█▊        | 70/400 [01:36<07:53,  1.43s/it]Train -ELBO: 35.821, Val -ELBO: 36.079:  18%|█▊        | 71/400 [01:37<07:43,  1.41s/it]Train -ELBO: 35.771, Val -ELBO: 36.034:  18%|█▊        | 72/400 [01:38<07:33,  1.38s/it]Train -ELBO: 35.781, Val -ELBO: 36.051:  18%|█▊        | 73/400 [01:40<07:27,  1.37s/it]Train -ELBO: 35.770, Val -ELBO: 35.932:  18%|█▊        | 74/400 [01:41<07:21,  1.35s/it]Train -ELBO: 35.678, Val -ELBO: 36.090:  19%|█▉        | 75/400 [01:42<07:16,  1.34s/it]Train -ELBO: 35.752, Val -ELBO: 35.994:  19%|█▉        | 76/400 [01:44<07:12,  1.34s/it]Train -ELBO: 35.705, Val -ELBO: 35.975:  19%|█▉        | 77/400 [01:45<07:08,  1.33s/it]Train -ELBO: 35.683, Val -ELBO: 35.938:  20%|█▉        | 78/400 [01:46<07:13,  1.34s/it]Train -ELBO: 35.584, Val -ELBO: 35.859:  20%|█▉        | 79/400 [01:48<07:13,  1.35s/it]Train -ELBO: 35.557, Val -ELBO: 35.904:  20%|██        | 80/400 [01:49<07:11,  1.35s/it]Train -ELBO: 35.577, Val -ELBO: 36.045:  20%|██        | 81/400 [01:50<07:12,  1.36s/it]Train -ELBO: 35.602, Val -ELBO: 35.917:  20%|██        | 82/400 [01:52<07:13,  1.36s/it]Train -ELBO: 35.597, Val -ELBO: 35.945:  21%|██        | 83/400 [01:53<07:14,  1.37s/it]Train -ELBO: 35.626, Val -ELBO: 35.922:  21%|██        | 84/400 [01:54<07:09,  1.36s/it]Train -ELBO: 35.580, Val -ELBO: 36.017:  21%|██▏       | 85/400 [01:56<07:09,  1.36s/it]Train -ELBO: 35.559, Val -ELBO: 35.886:  22%|██▏       | 86/400 [01:57<07:30,  1.44s/it]Train -ELBO: 35.517, Val -ELBO: 35.956:  22%|██▏       | 87/400 [01:59<07:35,  1.46s/it]Train -ELBO: 35.552, Val -ELBO: 35.927:  22%|██▏       | 88/400 [02:00<07:24,  1.42s/it]Train -ELBO: 35.525, Val -ELBO: 35.936:  22%|██▏       | 89/400 [02:02<07:14,  1.40s/it]Train -ELBO: 35.497, Val -ELBO: 35.955:  22%|██▎       | 90/400 [02:03<07:05,  1.37s/it]Train -ELBO: 35.592, Val -ELBO: 35.962:  23%|██▎       | 91/400 [02:04<07:03,  1.37s/it]Train -ELBO: 35.484, Val -ELBO: 35.889:  23%|██▎       | 92/400 [02:06<06:58,  1.36s/it]Train -ELBO: 35.498, Val -ELBO: 35.932:  23%|██▎       | 93/400 [02:07<06:58,  1.36s/it]Train -ELBO: 35.545, Val -ELBO: 35.893:  24%|██▎       | 94/400 [02:08<06:55,  1.36s/it]Train -ELBO: 35.492, Val -ELBO: 35.907:  24%|██▍       | 95/400 [02:10<06:55,  1.36s/it]Train -ELBO: 35.565, Val -ELBO: 35.918:  24%|██▍       | 96/400 [02:11<06:55,  1.37s/it]Train -ELBO: 35.441, Val -ELBO: 35.987:  24%|██▍       | 97/400 [02:12<06:52,  1.36s/it]Train -ELBO: 35.539, Val -ELBO: 35.957:  24%|██▍       | 98/400 [02:14<06:49,  1.35s/it]Train -ELBO: 35.499, Val -ELBO: 35.857:  25%|██▍       | 99/400 [02:15<06:47,  1.35s/it]Train -ELBO: 35.372, Val -ELBO: 35.800:  25%|██▌       | 100/400 [02:16<06:46,  1.36s/it]Train -ELBO: 35.452, Val -ELBO: 35.896:  25%|██▌       | 101/400 [02:18<06:40,  1.34s/it]Train -ELBO: 35.425, Val -ELBO: 35.895:  26%|██▌       | 102/400 [02:19<06:38,  1.34s/it]Train -ELBO: 35.421, Val -ELBO: 35.873:  26%|██▌       | 103/400 [02:20<06:37,  1.34s/it]Train -ELBO: 35.450, Val -ELBO: 35.883:  26%|██▌       | 104/400 [02:22<06:35,  1.33s/it]Train -ELBO: 35.441, Val -ELBO: 35.869:  26%|██▋       | 105/400 [02:23<06:31,  1.33s/it]Train -ELBO: 35.447, Val -ELBO: 35.825:  26%|██▋       | 106/400 [02:24<06:28,  1.32s/it]Train -ELBO: 35.415, Val -ELBO: 35.825:  27%|██▋       | 107/400 [02:26<06:29,  1.33s/it]Train -ELBO: 35.351, Val -ELBO: 35.938:  27%|██▋       | 108/400 [02:27<06:31,  1.34s/it]Train -ELBO: 35.344, Val -ELBO: 35.929:  27%|██▋       | 109/400 [02:28<06:28,  1.33s/it]Train -ELBO: 35.368, Val -ELBO: 35.998:  28%|██▊       | 110/400 [02:30<06:33,  1.36s/it]Train -ELBO: 35.382, Val -ELBO: 35.862:  28%|██▊       | 111/400 [02:31<06:33,  1.36s/it]Train -ELBO: 35.401, Val -ELBO: 35.952:  28%|██▊       | 112/400 [02:33<06:40,  1.39s/it]Train -ELBO: 35.418, Val -ELBO: 35.870:  28%|██▊       | 113/400 [02:34<06:49,  1.43s/it]Train -ELBO: 35.388, Val -ELBO: 35.877:  28%|██▊       | 114/400 [02:36<07:08,  1.50s/it]Train -ELBO: 35.319, Val -ELBO: 35.877:  29%|██▉       | 115/400 [02:37<07:00,  1.48s/it]Train -ELBO: 35.344, Val -ELBO: 35.870:  29%|██▉       | 116/400 [02:39<06:49,  1.44s/it]Train -ELBO: 35.347, Val -ELBO: 35.897:  29%|██▉       | 117/400 [02:40<06:38,  1.41s/it]Train -ELBO: 35.322, Val -ELBO: 35.837:  30%|██▉       | 118/400 [02:41<06:36,  1.41s/it]Train -ELBO: 35.365, Val -ELBO: 35.920:  30%|██▉       | 119/400 [02:43<06:30,  1.39s/it]Train -ELBO: 35.341, Val -ELBO: 35.930:  30%|███       | 120/400 [02:44<06:29,  1.39s/it]Train -ELBO: 35.384, Val -ELBO: 35.961:  30%|███       | 121/400 [02:46<06:28,  1.39s/it]Train -ELBO: 35.381, Val -ELBO: 35.964:  30%|███       | 122/400 [02:47<06:20,  1.37s/it]Train -ELBO: 35.279, Val -ELBO: 35.877:  31%|███       | 123/400 [02:48<06:14,  1.35s/it]Train -ELBO: 35.318, Val -ELBO: 35.872:  31%|███       | 124/400 [02:49<06:10,  1.34s/it]Train -ELBO: 35.316, Val -ELBO: 35.883:  31%|███▏      | 125/400 [02:51<06:06,  1.33s/it]Train -ELBO: 35.229, Val -ELBO: 35.922:  32%|███▏      | 126/400 [02:52<06:03,  1.33s/it]Train -ELBO: 35.325, Val -ELBO: 35.930:  32%|███▏      | 127/400 [02:53<06:00,  1.32s/it]Train -ELBO: 35.311, Val -ELBO: 35.861:  32%|███▏      | 128/400 [02:55<05:58,  1.32s/it]Train -ELBO: 35.317, Val -ELBO: 35.907:  32%|███▏      | 129/400 [02:56<05:56,  1.31s/it]Train -ELBO: 35.312, Val -ELBO: 35.954:  32%|███▎      | 130/400 [02:57<06:04,  1.35s/it]Train -ELBO: 35.297, Val -ELBO: 35.900:  33%|███▎      | 131/400 [02:59<06:07,  1.36s/it]Train -ELBO: 35.285, Val -ELBO: 36.002:  33%|███▎      | 132/400 [03:00<06:06,  1.37s/it]Train -ELBO: 35.315, Val -ELBO: 35.864:  33%|███▎      | 133/400 [03:02<06:07,  1.38s/it]Train -ELBO: 35.275, Val -ELBO: 35.886:  34%|███▎      | 134/400 [03:03<06:02,  1.36s/it]Train -ELBO: 35.225, Val -ELBO: 35.864:  34%|███▍      | 135/400 [03:04<06:01,  1.36s/it]Train -ELBO: 35.233, Val -ELBO: 35.956:  34%|███▍      | 136/400 [03:06<06:08,  1.40s/it]Train -ELBO: 35.248, Val -ELBO: 35.982:  34%|███▍      | 137/400 [03:07<06:12,  1.42s/it]Train -ELBO: 35.333, Val -ELBO: 35.939:  34%|███▍      | 138/400 [03:09<06:22,  1.46s/it]Train -ELBO: 35.264, Val -ELBO: 35.894:  35%|███▍      | 139/400 [03:10<06:31,  1.50s/it]Train -ELBO: 35.200, Val -ELBO: 35.960:  35%|███▌      | 140/400 [03:12<06:16,  1.45s/it]Train -ELBO: 35.239, Val -ELBO: 35.988:  35%|███▌      | 141/400 [03:13<06:07,  1.42s/it]Train -ELBO: 35.247, Val -ELBO: 35.831:  36%|███▌      | 142/400 [03:14<06:01,  1.40s/it]Train -ELBO: 35.190, Val -ELBO: 35.823:  36%|███▌      | 143/400 [03:16<05:59,  1.40s/it]Train -ELBO: 35.180, Val -ELBO: 35.927:  36%|███▌      | 144/400 [03:17<05:51,  1.37s/it]Train -ELBO: 35.194, Val -ELBO: 35.839:  36%|███▋      | 145/400 [03:19<05:58,  1.41s/it]Train -ELBO: 35.143, Val -ELBO: 35.844:  36%|███▋      | 146/400 [03:20<05:58,  1.41s/it]Train -ELBO: 35.154, Val -ELBO: 35.951:  37%|███▋      | 147/400 [03:22<06:01,  1.43s/it]Train -ELBO: 35.148, Val -ELBO: 35.854:  37%|███▋      | 148/400 [03:23<05:55,  1.41s/it]Train -ELBO: 35.117, Val -ELBO: 35.898:  37%|███▋      | 149/400 [03:24<05:51,  1.40s/it]Train -ELBO: 35.186, Val -ELBO: 35.928:  38%|███▊      | 150/400 [03:26<05:48,  1.39s/it]Train -ELBO: 35.226, Val -ELBO: 36.022:  38%|███▊      | 151/400 [03:27<05:42,  1.38s/it]Train -ELBO: 35.201, Val -ELBO: 35.839:  38%|███▊      | 152/400 [03:28<05:42,  1.38s/it]Train -ELBO: 35.104, Val -ELBO: 35.933:  38%|███▊      | 153/400 [03:30<05:39,  1.37s/it]Train -ELBO: 35.123, Val -ELBO: 35.928:  38%|███▊      | 154/400 [03:31<05:41,  1.39s/it]Train -ELBO: 35.173, Val -ELBO: 35.968:  39%|███▉      | 155/400 [03:32<05:34,  1.37s/it]Train -ELBO: 35.147, Val -ELBO: 35.860:  39%|███▉      | 156/400 [03:34<05:29,  1.35s/it]Train -ELBO: 35.086, Val -ELBO: 35.893:  39%|███▉      | 157/400 [03:35<05:26,  1.34s/it]Train -ELBO: 35.119, Val -ELBO: 35.898:  40%|███▉      | 158/400 [03:36<05:22,  1.33s/it]Train -ELBO: 35.100, Val -ELBO: 35.906:  40%|███▉      | 159/400 [03:38<05:19,  1.33s/it]Train -ELBO: 35.106, Val -ELBO: 35.822:  40%|████      | 160/400 [03:39<05:18,  1.33s/it]Train -ELBO: 35.083, Val -ELBO: 35.923:  40%|████      | 161/400 [03:40<05:16,  1.32s/it]Train -ELBO: 35.120, Val -ELBO: 35.968:  40%|████      | 162/400 [03:42<05:14,  1.32s/it]Train -ELBO: 35.134, Val -ELBO: 35.948:  41%|████      | 163/400 [03:43<05:12,  1.32s/it]Train -ELBO: 35.086, Val -ELBO: 35.943:  41%|████      | 164/400 [03:44<05:10,  1.32s/it]Train -ELBO: 35.076, Val -ELBO: 36.011:  41%|████▏     | 165/400 [03:46<05:09,  1.32s/it]Train -ELBO: 35.050, Val -ELBO: 35.926:  42%|████▏     | 166/400 [03:47<05:07,  1.31s/it]Train -ELBO: 35.042, Val -ELBO: 35.892:  42%|████▏     | 167/400 [03:48<05:06,  1.31s/it]Train -ELBO: 35.100, Val -ELBO: 35.941:  42%|████▏     | 168/400 [03:50<05:06,  1.32s/it]Train -ELBO: 35.107, Val -ELBO: 35.985:  42%|████▏     | 169/400 [03:51<05:05,  1.32s/it]Train -ELBO: 35.051, Val -ELBO: 35.992:  42%|████▎     | 170/400 [03:52<05:06,  1.33s/it]Train -ELBO: 35.088, Val -ELBO: 35.911:  43%|████▎     | 171/400 [03:54<05:07,  1.34s/it]Train -ELBO: 35.076, Val -ELBO: 36.080:  43%|████▎     | 172/400 [03:55<05:14,  1.38s/it]Train -ELBO: 35.071, Val -ELBO: 35.995:  43%|████▎     | 173/400 [03:56<05:12,  1.38s/it]Train -ELBO: 35.015, Val -ELBO: 35.885:  44%|████▎     | 174/400 [03:58<05:09,  1.37s/it]Train -ELBO: 35.085, Val -ELBO: 36.026:  44%|████▍     | 175/400 [03:59<05:15,  1.40s/it]Train -ELBO: 35.102, Val -ELBO: 36.019:  44%|████▍     | 176/400 [04:01<05:11,  1.39s/it]Train -ELBO: 35.096, Val -ELBO: 36.030:  44%|████▍     | 177/400 [04:02<05:08,  1.38s/it]Train -ELBO: 35.028, Val -ELBO: 36.021:  44%|████▍     | 178/400 [04:03<05:02,  1.36s/it]Train -ELBO: 35.027, Val -ELBO: 35.955:  45%|████▍     | 179/400 [04:05<05:02,  1.37s/it]Train -ELBO: 35.042, Val -ELBO: 35.927:  45%|████▌     | 180/400 [04:06<05:03,  1.38s/it]Train -ELBO: 35.032, Val -ELBO: 36.015:  45%|████▌     | 181/400 [04:08<05:06,  1.40s/it]Train -ELBO: 35.049, Val -ELBO: 36.001:  46%|████▌     | 182/400 [04:09<05:08,  1.42s/it]Train -ELBO: 35.011, Val -ELBO: 35.990:  46%|████▌     | 183/400 [04:10<05:02,  1.39s/it]Train -ELBO: 35.042, Val -ELBO: 36.073:  46%|████▌     | 184/400 [04:12<04:55,  1.37s/it]Train -ELBO: 35.078, Val -ELBO: 36.004:  46%|████▋     | 185/400 [04:13<04:54,  1.37s/it]Train -ELBO: 34.980, Val -ELBO: 36.071:  46%|████▋     | 186/400 [04:14<04:53,  1.37s/it]Train -ELBO: 34.961, Val -ELBO: 35.946:  47%|████▋     | 187/400 [04:16<04:52,  1.37s/it]Train -ELBO: 34.996, Val -ELBO: 35.973:  47%|████▋     | 188/400 [04:17<04:47,  1.36s/it]Train -ELBO: 34.977, Val -ELBO: 35.988:  47%|████▋     | 189/400 [04:19<04:55,  1.40s/it]Train -ELBO: 34.903, Val -ELBO: 36.012:  48%|████▊     | 190/400 [04:20<04:56,  1.41s/it]Train -ELBO: 34.970, Val -ELBO: 35.926:  48%|████▊     | 191/400 [04:21<04:50,  1.39s/it]Train -ELBO: 34.954, Val -ELBO: 36.023:  48%|████▊     | 192/400 [04:23<04:50,  1.40s/it]Train -ELBO: 34.903, Val -ELBO: 35.966:  48%|████▊     | 193/400 [04:24<04:53,  1.42s/it]Train -ELBO: 34.945, Val -ELBO: 36.020:  48%|████▊     | 194/400 [04:26<04:52,  1.42s/it]Train -ELBO: 34.972, Val -ELBO: 36.048:  49%|████▉     | 195/400 [04:27<04:46,  1.40s/it]Train -ELBO: 34.976, Val -ELBO: 36.099:  49%|████▉     | 196/400 [04:29<04:49,  1.42s/it]Train -ELBO: 34.968, Val -ELBO: 36.082:  49%|████▉     | 197/400 [04:30<04:47,  1.42s/it]Train -ELBO: 34.981, Val -ELBO: 35.986:  50%|████▉     | 198/400 [04:31<04:40,  1.39s/it]Train -ELBO: 34.958, Val -ELBO: 36.027:  50%|████▉     | 199/400 [04:33<04:41,  1.40s/it]Train -ELBO: 34.957, Val -ELBO: 36.075:  50%|█████     | 200/400 [04:34<04:44,  1.42s/it]Epoch   201: reducing learning rate of group 0 to 1.0000e-04.
Train -ELBO: 34.987, Val -ELBO: 36.010:  50%|█████     | 201/400 [04:36<04:42,  1.42s/it]Train -ELBO: 34.832, Val -ELBO: 35.895:  50%|█████     | 202/400 [04:37<04:36,  1.40s/it]Train -ELBO: 34.779, Val -ELBO: 35.888:  51%|█████     | 203/400 [04:38<04:38,  1.41s/it]Train -ELBO: 34.730, Val -ELBO: 35.867:  51%|█████     | 204/400 [04:40<04:39,  1.43s/it]Train -ELBO: 34.728, Val -ELBO: 35.831:  51%|█████▏    | 205/400 [04:41<04:33,  1.40s/it]Train -ELBO: 34.708, Val -ELBO: 35.839:  52%|█████▏    | 206/400 [04:43<04:31,  1.40s/it]Train -ELBO: 34.711, Val -ELBO: 35.861:  52%|█████▏    | 207/400 [04:44<04:29,  1.40s/it]Train -ELBO: 34.686, Val -ELBO: 35.861:  52%|█████▏    | 208/400 [04:45<04:24,  1.38s/it]Train -ELBO: 34.650, Val -ELBO: 35.843:  52%|█████▏    | 209/400 [04:47<04:19,  1.36s/it]Train -ELBO: 34.697, Val -ELBO: 35.859:  52%|█████▎    | 210/400 [04:48<04:15,  1.35s/it]Train -ELBO: 34.672, Val -ELBO: 35.837:  53%|█████▎    | 211/400 [04:49<04:13,  1.34s/it]Train -ELBO: 34.690, Val -ELBO: 35.887:  53%|█████▎    | 212/400 [04:51<04:10,  1.33s/it]Train -ELBO: 34.658, Val -ELBO: 35.828:  53%|█████▎    | 213/400 [04:52<04:08,  1.33s/it]Train -ELBO: 34.665, Val -ELBO: 35.851:  54%|█████▎    | 214/400 [04:53<04:06,  1.33s/it]Train -ELBO: 34.712, Val -ELBO: 35.844:  54%|█████▍    | 215/400 [04:55<04:09,  1.35s/it]Train -ELBO: 34.651, Val -ELBO: 35.881:  54%|█████▍    | 216/400 [04:56<04:13,  1.38s/it]Train -ELBO: 34.658, Val -ELBO: 35.858:  54%|█████▍    | 217/400 [04:58<04:17,  1.40s/it]Train -ELBO: 34.679, Val -ELBO: 35.873:  55%|█████▍    | 218/400 [04:59<04:16,  1.41s/it]Train -ELBO: 34.697, Val -ELBO: 35.852:  55%|█████▍    | 219/400 [05:00<04:15,  1.41s/it]Epoch   220: reducing learning rate of group 0 to 1.0000e-05.
Train -ELBO: 34.657, Val -ELBO: 35.810:  55%|█████▌    | 220/400 [05:02<04:09,  1.39s/it]Train -ELBO: 34.652, Val -ELBO: 35.850:  55%|█████▌    | 221/400 [05:03<04:08,  1.39s/it]Train -ELBO: 34.674, Val -ELBO: 35.829:  56%|█████▌    | 222/400 [05:05<04:09,  1.40s/it]Train -ELBO: 34.639, Val -ELBO: 35.833:  56%|█████▌    | 223/400 [05:06<04:05,  1.39s/it]Train -ELBO: 34.649, Val -ELBO: 35.830:  56%|█████▌    | 224/400 [05:07<04:04,  1.39s/it]Train -ELBO: 34.607, Val -ELBO: 35.806:  56%|█████▋    | 225/400 [05:09<04:00,  1.38s/it]Train -ELBO: 34.632, Val -ELBO: 35.814:  56%|█████▋    | 226/400 [05:10<04:00,  1.38s/it]Train -ELBO: 34.653, Val -ELBO: 35.835:  57%|█████▋    | 227/400 [05:11<04:01,  1.39s/it]Train -ELBO: 34.649, Val -ELBO: 35.870:  57%|█████▋    | 228/400 [05:13<03:59,  1.39s/it]Train -ELBO: 34.675, Val -ELBO: 35.831:  57%|█████▋    | 229/400 [05:14<03:56,  1.38s/it]Train -ELBO: 34.677, Val -ELBO: 35.833:  57%|█████▊    | 230/400 [05:16<03:58,  1.40s/it]Train -ELBO: 34.650, Val -ELBO: 35.835:  58%|█████▊    | 231/400 [05:17<03:58,  1.41s/it]Train -ELBO: 34.655, Val -ELBO: 35.861:  58%|█████▊    | 232/400 [05:18<03:54,  1.40s/it]Train -ELBO: 34.647, Val -ELBO: 35.835:  58%|█████▊    | 233/400 [05:20<03:54,  1.40s/it]Train -ELBO: 34.648, Val -ELBO: 35.810:  58%|█████▊    | 234/400 [05:21<03:50,  1.39s/it]Train -ELBO: 34.650, Val -ELBO: 35.818:  59%|█████▉    | 235/400 [05:23<03:49,  1.39s/it]Epoch   236: reducing learning rate of group 0 to 1.0000e-06.
Train -ELBO: 34.633, Val -ELBO: 35.820:  59%|█████▉    | 236/400 [05:24<03:51,  1.41s/it]Train -ELBO: 34.662, Val -ELBO: 35.821:  59%|█████▉    | 237/400 [05:25<03:50,  1.42s/it]Train -ELBO: 34.667, Val -ELBO: 35.836:  60%|█████▉    | 238/400 [05:27<03:47,  1.40s/it]Train -ELBO: 34.646, Val -ELBO: 35.848:  60%|█████▉    | 239/400 [05:28<03:42,  1.38s/it]Train -ELBO: 34.668, Val -ELBO: 35.817:  60%|██████    | 240/400 [05:30<03:40,  1.38s/it]Train -ELBO: 34.649, Val -ELBO: 35.802:  60%|██████    | 241/400 [05:31<03:39,  1.38s/it]Train -ELBO: 34.640, Val -ELBO: 35.824:  60%|██████    | 242/400 [05:32<03:39,  1.39s/it]Train -ELBO: 34.628, Val -ELBO: 35.813:  61%|██████    | 243/400 [05:34<03:38,  1.39s/it]Train -ELBO: 34.664, Val -ELBO: 35.845:  61%|██████    | 244/400 [05:35<03:38,  1.40s/it]Train -ELBO: 34.653, Val -ELBO: 35.833:  61%|██████▏   | 245/400 [05:37<03:36,  1.39s/it]Train -ELBO: 34.641, Val -ELBO: 35.822:  62%|██████▏   | 246/400 [05:38<03:32,  1.38s/it]Train -ELBO: 34.647, Val -ELBO: 35.827:  62%|██████▏   | 247/400 [05:39<03:29,  1.37s/it]Train -ELBO: 34.638, Val -ELBO: 35.823:  62%|██████▏   | 248/400 [05:41<03:26,  1.36s/it]Train -ELBO: 34.648, Val -ELBO: 35.830:  62%|██████▏   | 249/400 [05:42<03:24,  1.35s/it]Train -ELBO: 34.612, Val -ELBO: 35.852:  62%|██████▎   | 250/400 [05:43<03:25,  1.37s/it]Train -ELBO: 34.666, Val -ELBO: 35.837:  63%|██████▎   | 251/400 [05:45<03:23,  1.36s/it]Train -ELBO: 34.641, Val -ELBO: 35.833:  63%|██████▎   | 252/400 [05:46<03:22,  1.37s/it]Train -ELBO: 34.636, Val -ELBO: 35.852:  63%|██████▎   | 253/400 [05:47<03:20,  1.36s/it]Train -ELBO: 34.628, Val -ELBO: 35.842:  64%|██████▎   | 254/400 [05:49<03:17,  1.35s/it]Train -ELBO: 34.653, Val -ELBO: 35.836:  64%|██████▍   | 255/400 [05:50<03:16,  1.36s/it]Train -ELBO: 34.634, Val -ELBO: 35.842:  64%|██████▍   | 256/400 [05:51<03:13,  1.35s/it]Train -ELBO: 34.631, Val -ELBO: 35.859:  64%|██████▍   | 257/400 [05:53<03:12,  1.35s/it]Train -ELBO: 34.655, Val -ELBO: 35.815:  64%|██████▍   | 258/400 [05:54<03:12,  1.35s/it]Train -ELBO: 34.649, Val -ELBO: 35.828:  65%|██████▍   | 259/400 [05:55<03:09,  1.35s/it]Train -ELBO: 34.663, Val -ELBO: 35.839:  65%|██████▌   | 260/400 [05:57<03:10,  1.36s/it]Train -ELBO: 34.667, Val -ELBO: 35.835:  65%|██████▌   | 261/400 [05:58<03:10,  1.37s/it]Train -ELBO: 34.615, Val -ELBO: 35.835:  66%|██████▌   | 262/400 [06:00<03:08,  1.37s/it]Train -ELBO: 34.655, Val -ELBO: 35.837:  66%|██████▌   | 263/400 [06:01<03:06,  1.36s/it]Train -ELBO: 34.619, Val -ELBO: 35.843:  66%|██████▌   | 264/400 [06:02<03:03,  1.35s/it]Train -ELBO: 34.632, Val -ELBO: 35.817:  66%|██████▋   | 265/400 [06:04<03:02,  1.35s/it]Train -ELBO: 34.628, Val -ELBO: 35.849:  66%|██████▋   | 266/400 [06:05<03:01,  1.35s/it]Train -ELBO: 34.634, Val -ELBO: 35.837:  67%|██████▋   | 267/400 [06:06<02:59,  1.35s/it]Train -ELBO: 34.640, Val -ELBO: 35.820:  67%|██████▋   | 268/400 [06:08<02:56,  1.34s/it]Train -ELBO: 34.618, Val -ELBO: 35.846:  67%|██████▋   | 269/400 [06:09<02:56,  1.35s/it]Train -ELBO: 34.625, Val -ELBO: 35.815:  68%|██████▊   | 270/400 [06:10<02:55,  1.35s/it]Train -ELBO: 34.661, Val -ELBO: 35.841:  68%|██████▊   | 271/400 [06:12<02:54,  1.35s/it]Train -ELBO: 34.620, Val -ELBO: 35.824:  68%|██████▊   | 272/400 [06:13<02:53,  1.35s/it]Train -ELBO: 34.633, Val -ELBO: 35.853:  68%|██████▊   | 273/400 [06:14<02:51,  1.35s/it]Train -ELBO: 34.633, Val -ELBO: 35.840:  68%|██████▊   | 274/400 [06:16<02:54,  1.38s/it]Train -ELBO: 34.634, Val -ELBO: 35.841:  69%|██████▉   | 275/400 [06:17<02:51,  1.37s/it]Train -ELBO: 34.623, Val -ELBO: 35.849:  69%|██████▉   | 276/400 [06:19<02:50,  1.37s/it]Train -ELBO: 34.681, Val -ELBO: 35.831:  69%|██████▉   | 277/400 [06:20<02:47,  1.36s/it]Train -ELBO: 34.635, Val -ELBO: 35.856:  70%|██████▉   | 278/400 [06:21<02:45,  1.35s/it]Train -ELBO: 34.626, Val -ELBO: 35.818:  70%|██████▉   | 279/400 [06:23<02:43,  1.35s/it]Train -ELBO: 34.659, Val -ELBO: 35.853:  70%|███████   | 280/400 [06:24<02:41,  1.34s/it]Train -ELBO: 34.637, Val -ELBO: 35.849:  70%|███████   | 281/400 [06:25<02:39,  1.34s/it]Train -ELBO: 34.636, Val -ELBO: 35.860:  70%|███████   | 282/400 [06:27<02:37,  1.33s/it]Train -ELBO: 34.630, Val -ELBO: 35.835:  71%|███████   | 283/400 [06:28<02:36,  1.34s/it]Train -ELBO: 34.640, Val -ELBO: 35.838:  71%|███████   | 284/400 [06:29<02:35,  1.34s/it]Train -ELBO: 34.615, Val -ELBO: 35.846:  71%|███████▏  | 285/400 [06:31<02:34,  1.34s/it]Train -ELBO: 34.630, Val -ELBO: 35.812:  72%|███████▏  | 286/400 [06:32<02:36,  1.37s/it]Train -ELBO: 34.647, Val -ELBO: 35.816:  72%|███████▏  | 287/400 [06:33<02:35,  1.38s/it]Train -ELBO: 34.655, Val -ELBO: 35.823:  72%|███████▏  | 288/400 [06:35<02:35,  1.39s/it]Train -ELBO: 34.633, Val -ELBO: 35.829:  72%|███████▏  | 289/400 [06:36<02:32,  1.37s/it]Train -ELBO: 34.637, Val -ELBO: 35.869:  72%|███████▎  | 290/400 [06:38<02:30,  1.37s/it]Train -ELBO: 34.607, Val -ELBO: 35.845:  73%|███████▎  | 291/400 [06:39<02:27,  1.35s/it]Train -ELBO: 34.642, Val -ELBO: 35.838:  73%|███████▎  | 292/400 [06:40<02:25,  1.35s/it]Train -ELBO: 34.615, Val -ELBO: 35.818:  73%|███████▎  | 293/400 [06:42<02:23,  1.34s/it]Train -ELBO: 34.623, Val -ELBO: 35.831:  74%|███████▎  | 294/400 [06:43<02:21,  1.33s/it]Train -ELBO: 34.648, Val -ELBO: 35.842:  74%|███████▍  | 295/400 [06:44<02:20,  1.34s/it]Train -ELBO: 34.648, Val -ELBO: 35.811:  74%|███████▍  | 296/400 [06:46<02:23,  1.38s/it]Train -ELBO: 34.645, Val -ELBO: 35.829:  74%|███████▍  | 297/400 [06:47<02:21,  1.37s/it]Train -ELBO: 34.632, Val -ELBO: 35.826:  74%|███████▍  | 298/400 [06:48<02:22,  1.40s/it]Train -ELBO: 34.652, Val -ELBO: 35.815:  75%|███████▍  | 299/400 [06:50<02:20,  1.39s/it]Train -ELBO: 34.638, Val -ELBO: 35.840:  75%|███████▌  | 300/400 [06:51<02:19,  1.39s/it]Train -ELBO: 34.639, Val -ELBO: 35.854:  75%|███████▌  | 301/400 [06:53<02:16,  1.38s/it]Train -ELBO: 34.631, Val -ELBO: 35.830:  76%|███████▌  | 302/400 [06:54<02:16,  1.39s/it]Train -ELBO: 34.622, Val -ELBO: 35.836:  76%|███████▌  | 303/400 [06:55<02:14,  1.39s/it]Train -ELBO: 34.633, Val -ELBO: 35.826:  76%|███████▌  | 304/400 [06:57<02:14,  1.40s/it]Train -ELBO: 34.655, Val -ELBO: 35.860:  76%|███████▋  | 305/400 [06:58<02:12,  1.40s/it]Train -ELBO: 34.624, Val -ELBO: 35.814:  76%|███████▋  | 306/400 [07:00<02:10,  1.39s/it]Train -ELBO: 34.640, Val -ELBO: 35.849:  77%|███████▋  | 307/400 [07:01<02:09,  1.39s/it]Train -ELBO: 34.597, Val -ELBO: 35.847:  77%|███████▋  | 308/400 [07:02<02:06,  1.38s/it]Train -ELBO: 34.614, Val -ELBO: 35.868:  77%|███████▋  | 309/400 [07:04<02:04,  1.37s/it]Train -ELBO: 34.623, Val -ELBO: 35.835:  78%|███████▊  | 310/400 [07:05<02:01,  1.36s/it]Train -ELBO: 34.622, Val -ELBO: 35.878:  78%|███████▊  | 311/400 [07:06<01:59,  1.34s/it]Train -ELBO: 34.629, Val -ELBO: 35.849:  78%|███████▊  | 312/400 [07:08<01:57,  1.34s/it]Train -ELBO: 34.652, Val -ELBO: 35.857:  78%|███████▊  | 313/400 [07:09<01:56,  1.34s/it]Train -ELBO: 34.655, Val -ELBO: 35.849:  78%|███████▊  | 314/400 [07:10<01:56,  1.35s/it]Train -ELBO: 34.627, Val -ELBO: 35.846:  79%|███████▉  | 315/400 [07:12<01:54,  1.35s/it]Train -ELBO: 34.639, Val -ELBO: 35.826:  79%|███████▉  | 316/400 [07:13<01:56,  1.38s/it]Train -ELBO: 34.642, Val -ELBO: 35.851:  79%|███████▉  | 317/400 [07:15<01:54,  1.38s/it]Train -ELBO: 34.644, Val -ELBO: 35.839:  80%|███████▉  | 318/400 [07:16<01:52,  1.37s/it]Train -ELBO: 34.605, Val -ELBO: 35.847:  80%|███████▉  | 319/400 [07:17<01:51,  1.38s/it]Train -ELBO: 34.637, Val -ELBO: 35.803:  80%|████████  | 320/400 [07:19<01:48,  1.36s/it]Train -ELBO: 34.643, Val -ELBO: 35.846:  80%|████████  | 321/400 [07:20<01:49,  1.38s/it]Train -ELBO: 34.644, Val -ELBO: 35.842:  80%|████████  | 322/400 [07:21<01:47,  1.37s/it]Train -ELBO: 34.622, Val -ELBO: 35.808:  81%|████████  | 323/400 [07:23<01:44,  1.36s/it]Train -ELBO: 34.627, Val -ELBO: 35.848:  81%|████████  | 324/400 [07:24<01:44,  1.37s/it]Train -ELBO: 34.622, Val -ELBO: 35.843:  81%|████████▏ | 325/400 [07:26<01:43,  1.38s/it]Train -ELBO: 34.648, Val -ELBO: 35.816:  82%|████████▏ | 326/400 [07:27<01:41,  1.37s/it]Train -ELBO: 34.653, Val -ELBO: 35.835:  82%|████████▏ | 327/400 [07:28<01:40,  1.38s/it]Train -ELBO: 34.652, Val -ELBO: 35.830:  82%|████████▏ | 328/400 [07:30<01:38,  1.37s/it]Train -ELBO: 34.636, Val -ELBO: 35.857:  82%|████████▏ | 329/400 [07:31<01:36,  1.35s/it]Train -ELBO: 34.637, Val -ELBO: 35.840:  82%|████████▎ | 330/400 [07:32<01:35,  1.36s/it]Train -ELBO: 34.629, Val -ELBO: 35.848:  83%|████████▎ | 331/400 [07:34<01:33,  1.36s/it]Train -ELBO: 34.639, Val -ELBO: 35.835:  83%|████████▎ | 332/400 [07:35<01:32,  1.35s/it]Train -ELBO: 34.649, Val -ELBO: 35.850:  83%|████████▎ | 333/400 [07:36<01:31,  1.36s/it]Train -ELBO: 34.652, Val -ELBO: 35.837:  84%|████████▎ | 334/400 [07:38<01:29,  1.36s/it]Train -ELBO: 34.625, Val -ELBO: 35.841:  84%|████████▍ | 335/400 [07:39<01:29,  1.37s/it]Train -ELBO: 34.654, Val -ELBO: 35.827:  84%|████████▍ | 336/400 [07:41<01:28,  1.38s/it]Train -ELBO: 34.658, Val -ELBO: 35.794:  84%|████████▍ | 337/400 [07:42<01:26,  1.37s/it]Train -ELBO: 34.601, Val -ELBO: 35.856:  84%|████████▍ | 338/400 [07:43<01:24,  1.37s/it]Train -ELBO: 34.613, Val -ELBO: 35.835:  85%|████████▍ | 339/400 [07:45<01:23,  1.36s/it]Train -ELBO: 34.646, Val -ELBO: 35.838:  85%|████████▌ | 340/400 [07:46<01:20,  1.35s/it]Train -ELBO: 34.625, Val -ELBO: 35.828:  85%|████████▌ | 341/400 [07:47<01:19,  1.34s/it]Train -ELBO: 34.655, Val -ELBO: 35.841:  86%|████████▌ | 342/400 [07:49<01:17,  1.33s/it]Train -ELBO: 34.655, Val -ELBO: 35.847:  86%|████████▌ | 343/400 [07:50<01:16,  1.34s/it]Train -ELBO: 34.622, Val -ELBO: 35.843:  86%|████████▌ | 344/400 [07:51<01:15,  1.35s/it]Train -ELBO: 34.656, Val -ELBO: 35.843:  86%|████████▋ | 345/400 [07:53<01:14,  1.35s/it]Train -ELBO: 34.632, Val -ELBO: 35.857:  86%|████████▋ | 346/400 [07:54<01:13,  1.36s/it]Train -ELBO: 34.607, Val -ELBO: 35.843:  87%|████████▋ | 347/400 [07:55<01:12,  1.37s/it]Train -ELBO: 34.613, Val -ELBO: 35.837:  87%|████████▋ | 348/400 [07:57<01:12,  1.39s/it]Train -ELBO: 34.635, Val -ELBO: 35.825:  87%|████████▋ | 349/400 [07:58<01:10,  1.39s/it]Train -ELBO: 34.639, Val -ELBO: 35.848:  88%|████████▊ | 350/400 [08:00<01:10,  1.41s/it]Train -ELBO: 34.645, Val -ELBO: 35.834:  88%|████████▊ | 351/400 [08:01<01:08,  1.40s/it]Train -ELBO: 34.589, Val -ELBO: 35.852:  88%|████████▊ | 352/400 [08:02<01:07,  1.40s/it]Train -ELBO: 34.655, Val -ELBO: 35.824:  88%|████████▊ | 353/400 [08:04<01:05,  1.40s/it]Train -ELBO: 34.645, Val -ELBO: 35.833:  88%|████████▊ | 354/400 [08:05<01:04,  1.39s/it]Train -ELBO: 34.625, Val -ELBO: 35.847:  89%|████████▉ | 355/400 [08:07<01:03,  1.41s/it]Train -ELBO: 34.651, Val -ELBO: 35.825:  89%|████████▉ | 356/400 [08:08<01:00,  1.38s/it]Train -ELBO: 34.650, Val -ELBO: 35.823:  89%|████████▉ | 357/400 [08:09<00:59,  1.38s/it]Train -ELBO: 34.643, Val -ELBO: 35.837:  90%|████████▉ | 358/400 [08:11<00:57,  1.37s/it]Train -ELBO: 34.619, Val -ELBO: 35.820:  90%|████████▉ | 359/400 [08:12<00:56,  1.37s/it]Train -ELBO: 34.627, Val -ELBO: 35.816:  90%|█████████ | 360/400 [08:13<00:54,  1.36s/it]Train -ELBO: 34.614, Val -ELBO: 35.840:  90%|█████████ | 361/400 [08:15<00:53,  1.36s/it]Train -ELBO: 34.628, Val -ELBO: 35.829:  90%|█████████ | 362/400 [08:16<00:51,  1.37s/it]Train -ELBO: 34.630, Val -ELBO: 35.836:  91%|█████████ | 363/400 [08:18<00:50,  1.36s/it]Train -ELBO: 34.649, Val -ELBO: 35.819:  91%|█████████ | 364/400 [08:19<00:50,  1.40s/it]Train -ELBO: 34.617, Val -ELBO: 35.817:  91%|█████████▏| 365/400 [08:21<00:49,  1.43s/it]Train -ELBO: 34.643, Val -ELBO: 35.837:  92%|█████████▏| 366/400 [08:22<00:47,  1.40s/it]Train -ELBO: 34.665, Val -ELBO: 35.851:  92%|█████████▏| 367/400 [08:23<00:45,  1.38s/it]Train -ELBO: 34.624, Val -ELBO: 35.846:  92%|█████████▏| 368/400 [08:25<00:43,  1.37s/it]Train -ELBO: 34.641, Val -ELBO: 35.826:  92%|█████████▏| 369/400 [08:26<00:42,  1.37s/it]Train -ELBO: 34.653, Val -ELBO: 35.843:  92%|█████████▎| 370/400 [08:27<00:41,  1.38s/it]Train -ELBO: 34.605, Val -ELBO: 35.822:  93%|█████████▎| 371/400 [08:29<00:39,  1.37s/it]Train -ELBO: 34.611, Val -ELBO: 35.823:  93%|█████████▎| 372/400 [08:30<00:38,  1.39s/it]Train -ELBO: 34.643, Val -ELBO: 35.852:  93%|█████████▎| 373/400 [08:31<00:37,  1.38s/it]Train -ELBO: 34.644, Val -ELBO: 35.833:  94%|█████████▎| 374/400 [08:33<00:35,  1.38s/it]Train -ELBO: 34.629, Val -ELBO: 35.848:  94%|█████████▍| 375/400 [08:34<00:34,  1.37s/it]Train -ELBO: 34.646, Val -ELBO: 35.819:  94%|█████████▍| 376/400 [08:36<00:33,  1.39s/it]Train -ELBO: 34.617, Val -ELBO: 35.794:  94%|█████████▍| 377/400 [08:37<00:31,  1.36s/it]Train -ELBO: 34.636, Val -ELBO: 35.814:  94%|█████████▍| 378/400 [08:38<00:29,  1.36s/it]Train -ELBO: 34.618, Val -ELBO: 35.811:  95%|█████████▍| 379/400 [08:40<00:28,  1.37s/it]Train -ELBO: 34.629, Val -ELBO: 35.810:  95%|█████████▌| 380/400 [08:41<00:27,  1.37s/it]Train -ELBO: 34.632, Val -ELBO: 35.830:  95%|█████████▌| 381/400 [08:42<00:26,  1.38s/it]Train -ELBO: 34.602, Val -ELBO: 35.817:  96%|█████████▌| 382/400 [08:44<00:25,  1.40s/it]Train -ELBO: 34.608, Val -ELBO: 35.853:  96%|█████████▌| 383/400 [08:45<00:23,  1.38s/it]Train -ELBO: 34.619, Val -ELBO: 35.825:  96%|█████████▌| 384/400 [08:47<00:21,  1.37s/it]Train -ELBO: 34.633, Val -ELBO: 35.845:  96%|█████████▋| 385/400 [08:48<00:20,  1.36s/it]Train -ELBO: 34.641, Val -ELBO: 35.828:  96%|█████████▋| 386/400 [08:49<00:19,  1.39s/it]Train -ELBO: 34.636, Val -ELBO: 35.831:  97%|█████████▋| 387/400 [08:51<00:17,  1.38s/it]Train -ELBO: 34.646, Val -ELBO: 35.842:  97%|█████████▋| 388/400 [08:52<00:16,  1.36s/it]Train -ELBO: 34.645, Val -ELBO: 35.837:  97%|█████████▋| 389/400 [08:53<00:14,  1.36s/it]Train -ELBO: 34.625, Val -ELBO: 35.846:  98%|█████████▊| 390/400 [08:55<00:13,  1.36s/it]Train -ELBO: 34.638, Val -ELBO: 35.848:  98%|█████████▊| 391/400 [08:56<00:12,  1.36s/it]Train -ELBO: 34.650, Val -ELBO: 35.839:  98%|█████████▊| 392/400 [08:57<00:10,  1.36s/it]Train -ELBO: 34.627, Val -ELBO: 35.832:  98%|█████████▊| 393/400 [08:59<00:09,  1.36s/it]Train -ELBO: 34.646, Val -ELBO: 35.826:  98%|█████████▊| 394/400 [09:00<00:08,  1.37s/it]Train -ELBO: 34.667, Val -ELBO: 35.863:  99%|█████████▉| 395/400 [09:02<00:06,  1.37s/it]Train -ELBO: 34.640, Val -ELBO: 35.823:  99%|█████████▉| 396/400 [09:03<00:05,  1.36s/it]Train -ELBO: 34.617, Val -ELBO: 35.807:  99%|█████████▉| 397/400 [09:04<00:04,  1.35s/it]Train -ELBO: 34.646, Val -ELBO: 35.817: 100%|█████████▉| 398/400 [09:06<00:02,  1.35s/it]Train -ELBO: 34.615, Val -ELBO: 35.847: 100%|█████████▉| 399/400 [09:07<00:01,  1.36s/it]Train -ELBO: 34.646, Val -ELBO: 35.793: 100%|██████████| 400/400 [09:08<00:00,  1.36s/it]Train -ELBO: 34.646, Val -ELBO: 35.793: 100%|██████████| 400/400 [09:08<00:00,  1.37s/it]
INFO - siren_vae - Completed after 0:09:11
