[MUTUAL INFORMATION RESULTS]
True model: p*(x|z)p*(z)
Learned model: p(x|z)p(z)
Inference model: q(z|x)
-- Between z* ~ p*(z) and z ~ q(z|x): --
	 MI(z*, z) = 0.755
	 Per dimension: 
	 0: (0: 0.023) (1: 0.170) (2: 0.040) 
	 1: (0: 0.006) (1: 0.354) (2: 0.160) 
	 2: (0: 0.032) (1: 0.187) (2: 0.434) 
-- Between x, z ~ p(x|z)p(z) --
	 MI(z, z) per dimension: 
	 0: (1: 0.001) (2: 0.002) 
	 1: (2: 0.001) 
	 2: 
	 MI(z, x) per dimension: 
	 0: (0: 0.255) (1: 0.389) (2: 0.774) (3: 0.241) (4: 0.001) (5: 0.000) (6: 0.002) 
	 1: (0: 0.001) (1: 0.001) (2: 0.001) (3: 0.040) (4: 0.721) (5: 0.640) (6: 0.002) 
	 2: (0: 0.001) (1: 0.002) (2: 0.001) (3: 0.060) (4: 0.065) (5: 0.001) (6: 0.628) 
