INFO - vanilla_vae - Running command 'run'
INFO - vanilla_vae - Started run with ID "3"
  0%|          | 0/600 [00:00<?, ?it/s]Train -ELBO: 86.177, Val -ELBO: 81.554:   0%|          | 3/600 [00:01<03:50,  2.60it/s]Train -ELBO: 68.577, Val -ELBO: 66.508:   2%|▏         | 10/600 [00:02<02:00,  4.89it/s]Train -ELBO: 59.066, Val -ELBO: 58.384:   3%|▎         | 18/600 [00:03<01:33,  6.23it/s]Train -ELBO: 54.385, Val -ELBO: 54.299:   4%|▍         | 27/600 [00:04<01:21,  7.05it/s]Train -ELBO: 51.530, Val -ELBO: 52.049:   6%|▌         | 36/600 [00:05<01:14,  7.55it/s]Train -ELBO: 49.803, Val -ELBO: 50.496:   8%|▊         | 45/600 [00:06<01:10,  7.88it/s]Train -ELBO: 48.429, Val -ELBO: 49.322:   9%|▉         | 54/600 [00:07<01:07,  8.11it/s]Train -ELBO: 47.823, Val -ELBO: 48.186:  10%|█         | 63/600 [00:08<01:05,  8.24it/s]Train -ELBO: 46.496, Val -ELBO: 47.664:  12%|█▏        | 72/600 [00:09<01:05,  8.06it/s]Train -ELBO: 46.124, Val -ELBO: 47.098:  14%|█▎        | 81/600 [00:10<01:03,  8.22it/s]Train -ELBO: 45.692, Val -ELBO: 46.619:  15%|█▌        | 90/600 [00:11<01:02,  8.19it/s]Train -ELBO: 44.750, Val -ELBO: 46.401:  16%|█▋        | 99/600 [00:12<01:01,  8.17it/s]Train -ELBO: 44.210, Val -ELBO: 46.027:  18%|█▊        | 108/600 [00:14<01:00,  8.19it/s]Train -ELBO: 43.864, Val -ELBO: 45.573:  20%|█▉        | 117/600 [00:15<00:58,  8.28it/s]Train -ELBO: 43.706, Val -ELBO: 45.458:  21%|██        | 126/600 [00:16<00:58,  8.15it/s]Train -ELBO: 43.446, Val -ELBO: 45.107:  22%|██▎       | 135/600 [00:17<00:57,  8.06it/s]Train -ELBO: 42.664, Val -ELBO: 44.800:  24%|██▍       | 144/600 [00:18<00:57,  7.90it/s]Train -ELBO: 42.071, Val -ELBO: 44.467:  25%|██▌       | 152/600 [00:19<00:56,  7.90it/s]Train -ELBO: 41.622, Val -ELBO: 44.444:  27%|██▋       | 161/600 [00:20<00:55,  7.98it/s]Train -ELBO: 41.948, Val -ELBO: 44.072:  28%|██▊       | 170/600 [00:21<00:52,  8.12it/s]Train -ELBO: 40.868, Val -ELBO: 43.903:  30%|██▉       | 179/600 [00:22<00:51,  8.22it/s]Train -ELBO: 40.766, Val -ELBO: 43.851:  31%|███▏      | 188/600 [00:23<00:50,  8.18it/s]Epoch   196: reducing learning rate of group 0 to 1.0000e-04.
Train -ELBO: 40.220, Val -ELBO: 43.628:  33%|███▎      | 197/600 [00:25<00:48,  8.24it/s]Train -ELBO: 40.309, Val -ELBO: 43.688:  34%|███▍      | 206/600 [00:26<00:47,  8.29it/s]Train -ELBO: 39.716, Val -ELBO: 43.763:  36%|███▌      | 215/600 [00:27<00:46,  8.23it/s]Train -ELBO: 40.122, Val -ELBO: 43.634:  37%|███▋      | 224/600 [00:28<00:45,  8.34it/s]Train -ELBO: 40.083, Val -ELBO: 43.602:  39%|███▉      | 233/600 [00:29<00:43,  8.34it/s]Epoch   234: reducing learning rate of group 0 to 1.0000e-05.
Train -ELBO: 40.166, Val -ELBO: 43.530:  40%|████      | 242/600 [00:30<00:42,  8.34it/s]Epoch   250: reducing learning rate of group 0 to 1.0000e-06.
Train -ELBO: 39.904, Val -ELBO: 43.527:  42%|████▏     | 251/600 [00:31<00:41,  8.40it/s]Train -ELBO: 39.750, Val -ELBO: 43.525:  44%|████▎     | 261/600 [00:32<00:39,  8.62it/s]Train -ELBO: 40.307, Val -ELBO: 43.629:  45%|████▌     | 271/600 [00:33<00:37,  8.76it/s]Train -ELBO: 39.690, Val -ELBO: 43.536:  47%|████▋     | 280/600 [00:34<00:36,  8.82it/s]Train -ELBO: 40.284, Val -ELBO: 43.588:  48%|████▊     | 290/600 [00:35<00:34,  8.92it/s]Train -ELBO: 39.497, Val -ELBO: 43.549:  50%|█████     | 300/600 [00:36<00:33,  8.96it/s]Train -ELBO: 40.176, Val -ELBO: 43.626:  52%|█████▏    | 310/600 [00:37<00:32,  9.00it/s]Train -ELBO: 40.173, Val -ELBO: 43.654:  53%|█████▎    | 320/600 [00:39<00:31,  9.02it/s]Train -ELBO: 40.061, Val -ELBO: 43.579:  55%|█████▌    | 330/600 [00:40<00:29,  9.04it/s]Train -ELBO: 39.913, Val -ELBO: 43.632:  57%|█████▋    | 340/600 [00:41<00:29,  8.94it/s]Train -ELBO: 40.344, Val -ELBO: 43.603:  58%|█████▊    | 350/600 [00:42<00:27,  8.97it/s]Train -ELBO: 39.610, Val -ELBO: 43.514:  60%|█████▉    | 359/600 [00:43<00:27,  8.77it/s]Train -ELBO: 39.931, Val -ELBO: 43.563:  61%|██████▏   | 368/600 [00:44<00:26,  8.81it/s]Train -ELBO: 40.165, Val -ELBO: 43.619:  63%|██████▎   | 377/600 [00:45<00:25,  8.83it/s]Train -ELBO: 39.395, Val -ELBO: 43.597:  64%|██████▍   | 387/600 [00:46<00:23,  8.93it/s]Train -ELBO: 40.439, Val -ELBO: 43.562:  66%|██████▌   | 397/600 [00:47<00:22,  9.01it/s]Train -ELBO: 39.812, Val -ELBO: 43.620:  68%|██████▊   | 407/600 [00:48<00:21,  9.05it/s]Train -ELBO: 39.788, Val -ELBO: 43.549:  70%|██████▉   | 417/600 [00:49<00:20,  9.06it/s]Train -ELBO: 39.849, Val -ELBO: 43.578:  71%|███████   | 427/600 [00:51<00:19,  9.00it/s]Train -ELBO: 39.876, Val -ELBO: 43.551:  73%|███████▎  | 437/600 [00:52<00:18,  8.86it/s]Train -ELBO: 40.210, Val -ELBO: 43.593:  74%|███████▍  | 446/600 [00:53<00:17,  8.88it/s]Train -ELBO: 39.829, Val -ELBO: 43.496:  76%|███████▌  | 455/600 [00:54<00:16,  8.79it/s]Train -ELBO: 40.039, Val -ELBO: 43.521:  78%|███████▊  | 465/600 [00:55<00:15,  8.87it/s]Train -ELBO: 39.729, Val -ELBO: 43.511:  79%|███████▉  | 475/600 [00:56<00:13,  8.98it/s]Train -ELBO: 40.276, Val -ELBO: 43.581:  81%|████████  | 485/600 [00:57<00:12,  9.04it/s]Train -ELBO: 40.040, Val -ELBO: 43.562:  82%|████████▎ | 495/600 [00:58<00:11,  9.07it/s]Train -ELBO: 39.961, Val -ELBO: 43.687:  84%|████████▍ | 505/600 [00:59<00:10,  8.95it/s]Train -ELBO: 40.561, Val -ELBO: 43.463:  86%|████████▌ | 514/600 [01:00<00:09,  8.96it/s]Train -ELBO: 40.370, Val -ELBO: 43.453:  87%|████████▋ | 524/600 [01:01<00:08,  9.04it/s]Train -ELBO: 39.880, Val -ELBO: 43.552:  89%|████████▉ | 534/600 [01:02<00:07,  9.10it/s]Train -ELBO: 40.099, Val -ELBO: 43.599:  91%|█████████ | 544/600 [01:04<00:06,  9.14it/s]Train -ELBO: 40.138, Val -ELBO: 43.641:  92%|█████████▏| 554/600 [01:05<00:05,  9.14it/s]Train -ELBO: 39.594, Val -ELBO: 43.591:  94%|█████████▍| 564/600 [01:06<00:03,  9.15it/s]Train -ELBO: 39.874, Val -ELBO: 43.434:  96%|█████████▌| 574/600 [01:07<00:02,  9.16it/s]Train -ELBO: 39.636, Val -ELBO: 43.511:  97%|█████████▋| 584/600 [01:08<00:01,  9.14it/s]Train -ELBO: 39.726, Val -ELBO: 43.600:  99%|█████████▉| 594/600 [01:09<00:00,  9.06it/s]Train -ELBO: 39.746, Val -ELBO: 43.565: 100%|██████████| 600/600 [01:10<00:00,  8.55it/s]
