{
  "batch_size": 120,
  "bn": "arithmetic-circuit2",
  "condition_sigma": true,
  "decoder_hidden_dims": [
    100
  ],
  "encoder_hidden_dims": [
    100
  ],
  "ex_name": "vanilla_vae",
  "lr": 0.01,
  "normalize": false,
  "num_epochs": 600,
  "num_train_batches": 16,
  "num_train_samples": 1920,
  "num_val_batches": 25,
  "num_val_samples": 3000,
  "path": "./experiment_logs/vanilla_vae/arithmetic-circuit2/[100]_[100]_128g",
  "patience": 20,
  "plotting_range": null,
  "run": 1,
  "seed": 1,
  "sub_folder": "[100]_[100]_128g"
}