INFO - residual_nf - Running command 'run'
INFO - residual_nf - Started run with ID "5"
[CONFIG] {'bn': 'mehra-real', 'structure': 'faithful', 'coeff': 0.99, 'n_power_iterations': 5, 'num_blocks': 5, 'hidden_dims': [100], 'activation': 'elu', 'grad_in_forward': True, 'batch_size': 100, 'num_train_samples': 10000, 'num_val_samples': 5000, 'num_epochs': 300, 'num_train_batches': 100, 'num_val_batches': 50, 'lr': 0.01, 'seed': 4, 'patience': 20, 'double': True, 'run': 1, 'checkpoint_n': 10, 'load_from_checkpoint': False, 'ex_name': 'residual_nf_density_estimation', 'sub_folder': 'faithful_99_elu_5_[100]', 'path': './experiment_logs/residual_nf_density_estimation/mehra-real/faithful_99_elu_5_[100]', 'bt_config': {'depth': 5, 'seed': 4}}
[DEVICE] cpu
[LOADING DATA] Mehra
[ENCODED STRUCTURE] Using faithful BN structure.
  0%|          | 0/300 [00:00<?, ?it/s]Train NLL: 11.864, Val NLL: 11.798:   1%|          | 2/300 [00:01<03:30,  1.42it/s]Train NLL: 11.596, Val NLL: 11.589:   1%|▏         | 4/300 [00:03<03:46,  1.30it/s]Train NLL: 11.515, Val NLL: 11.549:   2%|▏         | 6/300 [00:04<03:41,  1.33it/s]Train NLL: 11.481, Val NLL: 11.526:   3%|▎         | 8/300 [00:05<03:29,  1.39it/s]Train NLL: 11.445, Val NLL: 11.471:   3%|▎         | 10/300 [00:07<03:26,  1.41it/s]Train NLL: 11.412, Val NLL: 11.448:   4%|▍         | 12/300 [00:08<03:25,  1.40it/s]Train NLL: 11.394, Val NLL: 11.423:   5%|▍         | 14/300 [00:10<03:27,  1.38it/s]Train NLL: 11.379, Val NLL: 11.426:   5%|▌         | 16/300 [00:11<03:25,  1.38it/s]Train NLL: 11.354, Val NLL: 11.427:   6%|▌         | 18/300 [00:12<03:21,  1.40it/s]Train NLL: 11.340, Val NLL: 11.443:   7%|▋         | 20/300 [00:14<03:20,  1.39it/s]Train NLL: 11.338, Val NLL: 11.386:   7%|▋         | 22/300 [00:15<03:22,  1.37it/s]Train NLL: 11.317, Val NLL: 11.353:   8%|▊         | 24/300 [00:17<03:17,  1.40it/s]Train NLL: 11.308, Val NLL: 11.385:   9%|▊         | 26/300 [00:18<03:13,  1.42it/s]Train NLL: 11.314, Val NLL: 11.370:   9%|▉         | 28/300 [00:20<03:14,  1.40it/s]Train NLL: 11.300, Val NLL: 11.343:  10%|█         | 30/300 [00:21<03:13,  1.40it/s]Train NLL: 11.293, Val NLL: 11.350:  11%|█         | 32/300 [00:22<03:09,  1.42it/s]Train NLL: 11.279, Val NLL: 11.330:  11%|█▏        | 34/300 [00:24<03:07,  1.41it/s]Train NLL: 11.271, Val NLL: 11.329:  12%|█▏        | 36/300 [00:25<03:09,  1.40it/s]Train NLL: 11.288, Val NLL: 11.361:  13%|█▎        | 38/300 [00:27<03:08,  1.39it/s]Train NLL: 11.267, Val NLL: 11.391:  13%|█▎        | 40/300 [00:28<03:04,  1.41it/s]Train NLL: 11.245, Val NLL: 11.308:  14%|█▍        | 42/300 [00:30<03:02,  1.41it/s]Train NLL: 11.258, Val NLL: 11.340:  15%|█▍        | 44/300 [00:31<03:11,  1.34it/s]Train NLL: 11.257, Val NLL: 11.308:  15%|█▌        | 46/300 [00:33<03:04,  1.38it/s]Train NLL: 11.255, Val NLL: 11.318:  16%|█▌        | 48/300 [00:34<02:59,  1.40it/s]Train NLL: 11.243, Val NLL: 11.284:  17%|█▋        | 50/300 [00:35<02:58,  1.40it/s]Train NLL: 11.251, Val NLL: 11.329:  17%|█▋        | 52/300 [00:37<03:00,  1.38it/s]Train NLL: 11.251, Val NLL: 11.312:  18%|█▊        | 54/300 [00:38<02:55,  1.41it/s]Train NLL: 11.246, Val NLL: 11.304:  19%|█▊        | 56/300 [00:40<02:51,  1.42it/s]Train NLL: 11.252, Val NLL: 11.353:  19%|█▉        | 58/300 [00:42<03:14,  1.25it/s]Train NLL: 11.241, Val NLL: 11.299:  20%|██        | 60/300 [00:43<03:10,  1.26it/s]Train NLL: 11.239, Val NLL: 11.312:  21%|██        | 62/300 [00:45<03:00,  1.32it/s]Train NLL: 11.239, Val NLL: 11.331:  21%|██▏       | 64/300 [00:46<03:09,  1.24it/s]Train NLL: 11.245, Val NLL: 11.318:  22%|██▏       | 66/300 [00:48<03:02,  1.28it/s]Train NLL: 11.238, Val NLL: 11.304:  23%|██▎       | 68/300 [00:49<02:53,  1.33it/s]Train NLL: 11.233, Val NLL: 11.292:  23%|██▎       | 70/300 [00:51<02:47,  1.37it/s]Train NLL: 11.250, Val NLL: 11.289:  24%|██▍       | 72/300 [00:52<02:46,  1.37it/s]Train NLL: 11.243, Val NLL: 11.300:  25%|██▍       | 74/300 [00:54<02:45,  1.37it/s]Train NLL: 11.233, Val NLL: 11.287:  25%|██▌       | 76/300 [00:55<02:41,  1.39it/s]Train NLL: 11.235, Val NLL: 11.326:  26%|██▌       | 78/300 [00:56<02:39,  1.39it/s]Train NLL: 11.221, Val NLL: 11.303:  27%|██▋       | 80/300 [00:58<02:35,  1.41it/s]Train NLL: 11.222, Val NLL: 11.297:  27%|██▋       | 82/300 [00:59<02:33,  1.42it/s]Train NLL: 11.237, Val NLL: 11.339:  28%|██▊       | 84/300 [01:01<02:34,  1.40it/s]Train NLL: 11.234, Val NLL: 11.267:  29%|██▊       | 86/300 [01:02<02:32,  1.41it/s]Train NLL: 11.221, Val NLL: 11.294:  29%|██▉       | 88/300 [01:03<02:28,  1.43it/s]Train NLL: 11.221, Val NLL: 11.292:  30%|███       | 90/300 [01:05<02:28,  1.42it/s]Train NLL: 11.229, Val NLL: 11.306:  31%|███       | 92/300 [01:06<02:29,  1.39it/s]Train NLL: 11.230, Val NLL: 11.282:  31%|███▏      | 94/300 [01:08<02:25,  1.41it/s]Train NLL: 11.228, Val NLL: 11.299:  32%|███▏      | 96/300 [01:09<02:22,  1.43it/s]Train NLL: 11.233, Val NLL: 11.270:  33%|███▎      | 98/300 [01:10<02:23,  1.41it/s]Train NLL: 11.217, Val NLL: 11.318:  33%|███▎      | 100/300 [01:12<02:22,  1.40it/s]Epoch   102: reducing learning rate of group 0 to 1.0000e-03.
Train NLL: 11.216, Val NLL: 11.320:  34%|███▍      | 102/300 [01:13<02:19,  1.42it/s]Train NLL: 11.166, Val NLL: 11.247:  35%|███▍      | 104/300 [01:15<02:16,  1.43it/s]Train NLL: 11.164, Val NLL: 11.242:  35%|███▌      | 106/300 [01:16<02:18,  1.40it/s]Train NLL: 11.163, Val NLL: 11.245:  36%|███▌      | 108/300 [01:18<02:17,  1.40it/s]Train NLL: 11.163, Val NLL: 11.248:  37%|███▋      | 110/300 [01:19<02:13,  1.42it/s]Train NLL: 11.160, Val NLL: 11.236:  37%|███▋      | 112/300 [01:20<02:11,  1.43it/s]Train NLL: 11.160, Val NLL: 11.240:  38%|███▊      | 114/300 [01:22<02:11,  1.42it/s]Train NLL: 11.158, Val NLL: 11.238:  39%|███▊      | 116/300 [01:23<02:11,  1.40it/s]Train NLL: 11.156, Val NLL: 11.240:  39%|███▉      | 118/300 [01:25<02:08,  1.42it/s]Train NLL: 11.156, Val NLL: 11.236:  40%|████      | 120/300 [01:26<02:06,  1.43it/s]Train NLL: 11.153, Val NLL: 11.230:  41%|████      | 122/300 [01:27<02:05,  1.42it/s]Train NLL: 11.150, Val NLL: 11.230:  41%|████▏     | 124/300 [01:29<02:05,  1.40it/s]Train NLL: 11.148, Val NLL: 11.231:  42%|████▏     | 126/300 [01:30<02:04,  1.40it/s]Train NLL: 11.146, Val NLL: 11.231:  43%|████▎     | 128/300 [01:32<02:00,  1.42it/s]Train NLL: 11.145, Val NLL: 11.229:  43%|████▎     | 130/300 [01:33<01:59,  1.42it/s]Train NLL: 11.146, Val NLL: 11.229:  44%|████▍     | 132/300 [01:35<02:00,  1.39it/s]Train NLL: 11.143, Val NLL: 11.227:  45%|████▍     | 134/300 [01:36<01:57,  1.42it/s]Train NLL: 11.141, Val NLL: 11.225:  45%|████▌     | 136/300 [01:37<01:54,  1.44it/s]Train NLL: 11.140, Val NLL: 11.223:  46%|████▌     | 138/300 [01:39<01:55,  1.41it/s]Train NLL: 11.138, Val NLL: 11.224:  47%|████▋     | 140/300 [01:40<01:54,  1.40it/s]Train NLL: 11.137, Val NLL: 11.221:  47%|████▋     | 142/300 [01:42<01:51,  1.42it/s]Train NLL: 11.135, Val NLL: 11.217:  48%|████▊     | 144/300 [01:43<01:50,  1.41it/s]Train NLL: 11.136, Val NLL: 11.218:  49%|████▊     | 146/300 [01:45<02:06,  1.22it/s]Train NLL: 11.135, Val NLL: 11.225:  49%|████▉     | 148/300 [01:47<01:59,  1.27it/s]Train NLL: 11.134, Val NLL: 11.222:  50%|█████     | 150/300 [01:48<01:53,  1.32it/s]Train NLL: 11.134, Val NLL: 11.221:  51%|█████     | 152/300 [01:49<01:51,  1.33it/s]Train NLL: 11.132, Val NLL: 11.222:  51%|█████▏    | 154/300 [01:52<02:04,  1.17it/s]Train NLL: 11.130, Val NLL: 11.221:  52%|█████▏    | 156/300 [01:53<01:56,  1.24it/s]Train NLL: 11.130, Val NLL: 11.224:  53%|█████▎    | 158/300 [01:54<01:49,  1.29it/s]Train NLL: 11.130, Val NLL: 11.214:  53%|█████▎    | 160/300 [01:56<01:47,  1.31it/s]Train NLL: 11.129, Val NLL: 11.212:  54%|█████▍    | 162/300 [01:57<01:44,  1.32it/s]Train NLL: 11.130, Val NLL: 11.219:  55%|█████▍    | 164/300 [01:59<01:39,  1.36it/s]Train NLL: 11.130, Val NLL: 11.216:  55%|█████▌    | 166/300 [02:00<01:38,  1.36it/s]Train NLL: 11.127, Val NLL: 11.223:  56%|█████▌    | 168/300 [02:02<01:38,  1.35it/s]Train NLL: 11.127, Val NLL: 11.216:  57%|█████▋    | 170/300 [02:03<01:34,  1.38it/s]Train NLL: 11.128, Val NLL: 11.218:  57%|█████▋    | 172/300 [02:04<01:30,  1.41it/s]Train NLL: 11.126, Val NLL: 11.220:  58%|█████▊    | 174/300 [02:06<01:29,  1.40it/s]Train NLL: 11.125, Val NLL: 11.217:  59%|█████▊    | 176/300 [02:07<01:29,  1.39it/s]Train NLL: 11.125, Val NLL: 11.210:  59%|█████▉    | 178/300 [02:09<01:26,  1.41it/s]Train NLL: 11.123, Val NLL: 11.211:  60%|██████    | 180/300 [02:10<01:25,  1.41it/s]Train NLL: 11.124, Val NLL: 11.213:  61%|██████    | 182/300 [02:12<01:23,  1.42it/s]Train NLL: 11.123, Val NLL: 11.214:  61%|██████▏   | 184/300 [02:13<01:23,  1.38it/s]Train NLL: 11.125, Val NLL: 11.209:  62%|██████▏   | 186/300 [02:14<01:21,  1.40it/s]Train NLL: 11.125, Val NLL: 11.214:  63%|██████▎   | 188/300 [02:16<01:19,  1.41it/s]Train NLL: 11.125, Val NLL: 11.217:  63%|██████▎   | 190/300 [02:17<01:16,  1.43it/s]Train NLL: 11.123, Val NLL: 11.213:  64%|██████▍   | 192/300 [02:19<01:15,  1.42it/s]Train NLL: 11.124, Val NLL: 11.211:  65%|██████▍   | 194/300 [02:20<01:15,  1.40it/s]Train NLL: 11.124, Val NLL: 11.213:  65%|██████▌   | 196/300 [02:22<01:14,  1.40it/s]Train NLL: 11.123, Val NLL: 11.211:  66%|██████▌   | 198/300 [02:23<01:11,  1.42it/s]Train NLL: 11.120, Val NLL: 11.209:  67%|██████▋   | 200/300 [02:24<01:10,  1.41it/s]Train NLL: 11.122, Val NLL: 11.213:  67%|██████▋   | 202/300 [02:26<01:10,  1.39it/s]Train NLL: 11.122, Val NLL: 11.209:  68%|██████▊   | 204/300 [02:27<01:08,  1.41it/s]Train NLL: 11.123, Val NLL: 11.214:  69%|██████▊   | 206/300 [02:29<01:06,  1.42it/s]Train NLL: 11.120, Val NLL: 11.209:  69%|██████▉   | 208/300 [02:30<01:05,  1.40it/s]Train NLL: 11.121, Val NLL: 11.215:  70%|███████   | 210/300 [02:32<01:04,  1.39it/s]Train NLL: 11.120, Val NLL: 11.215:  71%|███████   | 212/300 [02:33<01:02,  1.41it/s]Train NLL: 11.122, Val NLL: 11.209:  71%|███████▏  | 214/300 [02:34<01:01,  1.39it/s]Train NLL: 11.120, Val NLL: 11.212:  72%|███████▏  | 216/300 [02:36<01:04,  1.30it/s]Train NLL: 11.119, Val NLL: 11.211:  73%|███████▎  | 218/300 [02:37<01:00,  1.35it/s]Train NLL: 11.119, Val NLL: 11.204:  73%|███████▎  | 220/300 [02:39<00:58,  1.38it/s]Train NLL: 11.121, Val NLL: 11.205:  74%|███████▍  | 222/300 [02:40<00:55,  1.41it/s]Train NLL: 11.118, Val NLL: 11.208:  75%|███████▍  | 224/300 [02:42<00:54,  1.41it/s]Train NLL: 11.119, Val NLL: 11.207:  75%|███████▌  | 226/300 [02:43<00:53,  1.39it/s]Train NLL: 11.119, Val NLL: 11.209:  76%|███████▌  | 228/300 [02:44<00:50,  1.41it/s]Train NLL: 11.118, Val NLL: 11.208:  77%|███████▋  | 230/300 [02:46<00:48,  1.43it/s]Train NLL: 11.119, Val NLL: 11.204:  77%|███████▋  | 232/300 [02:47<00:47,  1.44it/s]Train NLL: 11.118, Val NLL: 11.215:  78%|███████▊  | 234/300 [02:49<00:46,  1.42it/s]Train NLL: 11.116, Val NLL: 11.211:  79%|███████▊  | 236/300 [02:50<00:45,  1.41it/s]Train NLL: 11.119, Val NLL: 11.214:  79%|███████▉  | 238/300 [02:51<00:43,  1.43it/s]Train NLL: 11.117, Val NLL: 11.209:  80%|████████  | 240/300 [02:53<00:42,  1.42it/s]Train NLL: 11.117, Val NLL: 11.207:  81%|████████  | 242/300 [02:54<00:41,  1.39it/s]Train NLL: 11.120, Val NLL: 11.203:  81%|████████▏ | 244/300 [02:56<00:39,  1.41it/s]Train NLL: 11.117, Val NLL: 11.210:  82%|████████▏ | 246/300 [02:57<00:37,  1.43it/s]Train NLL: 11.116, Val NLL: 11.210:  83%|████████▎ | 248/300 [02:59<00:37,  1.40it/s]Train NLL: 11.118, Val NLL: 11.209:  83%|████████▎ | 250/300 [03:00<00:37,  1.35it/s]Train NLL: 11.115, Val NLL: 11.204:  84%|████████▍ | 252/300 [03:02<00:34,  1.39it/s]Train NLL: 11.117, Val NLL: 11.210:  85%|████████▍ | 254/300 [03:03<00:32,  1.40it/s]Train NLL: 11.118, Val NLL: 11.212:  85%|████████▌ | 256/300 [03:04<00:31,  1.40it/s]Train NLL: 11.116, Val NLL: 11.207:  86%|████████▌ | 258/300 [03:06<00:30,  1.40it/s]Train NLL: 11.118, Val NLL: 11.207:  87%|████████▋ | 260/300 [03:07<00:28,  1.42it/s]Train NLL: 11.117, Val NLL: 11.215:  87%|████████▋ | 262/300 [03:09<00:27,  1.39it/s]Train NLL: 11.117, Val NLL: 11.205:  88%|████████▊ | 264/300 [03:10<00:27,  1.31it/s]Train NLL: 11.117, Val NLL: 11.207:  89%|████████▊ | 266/300 [03:12<00:25,  1.36it/s]Train NLL: 11.114, Val NLL: 11.211:  89%|████████▉ | 268/300 [03:13<00:22,  1.39it/s]Train NLL: 11.117, Val NLL: 11.208:  90%|█████████ | 270/300 [03:15<00:21,  1.39it/s]Train NLL: 11.117, Val NLL: 11.203:  91%|█████████ | 272/300 [03:16<00:20,  1.38it/s]Train NLL: 11.115, Val NLL: 11.209:  91%|█████████▏| 274/300 [03:17<00:18,  1.40it/s]Train NLL: 11.114, Val NLL: 11.212:  92%|█████████▏| 276/300 [03:19<00:16,  1.42it/s]Epoch   278: reducing learning rate of group 0 to 1.0000e-04.
Train NLL: 11.115, Val NLL: 11.204:  93%|█████████▎| 278/300 [03:20<00:15,  1.40it/s]Train NLL: 11.108, Val NLL: 11.204:  93%|█████████▎| 280/300 [03:22<00:14,  1.40it/s]Train NLL: 11.107, Val NLL: 11.204:  94%|█████████▍| 282/300 [03:23<00:12,  1.42it/s]Train NLL: 11.107, Val NLL: 11.203:  95%|█████████▍| 284/300 [03:24<00:11,  1.42it/s]Train NLL: 11.107, Val NLL: 11.203:  95%|█████████▌| 286/300 [03:26<00:10,  1.40it/s]Train NLL: 11.107, Val NLL: 11.203:  96%|█████████▌| 288/300 [03:27<00:08,  1.41it/s]Train NLL: 11.107, Val NLL: 11.203:  97%|█████████▋| 290/300 [03:29<00:07,  1.43it/s]Train NLL: 11.107, Val NLL: 11.203:  97%|█████████▋| 292/300 [03:30<00:05,  1.43it/s]Train NLL: 11.106, Val NLL: 11.203:  98%|█████████▊| 294/300 [03:32<00:04,  1.42it/s]Train NLL: 11.106, Val NLL: 11.204:  99%|█████████▊| 296/300 [03:33<00:02,  1.40it/s]Train NLL: 11.106, Val NLL: 11.203:  99%|█████████▉| 298/300 [03:34<00:01,  1.41it/s]Train NLL: 11.106, Val NLL: 11.203: 100%|██████████| 300/300 [03:36<00:00,  1.43it/s]Train NLL: 11.106, Val NLL: 11.203: 100%|██████████| 300/300 [03:36<00:00,  1.39it/s]
INFO - residual_nf - Completed after 0:03:36
