{
  "test": {
    "steps": [
      0
    ],
    "timestamps": [
      "2022-08-15T06:44:24.109895"
    ],
    "values": [
      1.1979649666296708
    ]
  },
  "train": {
    "steps": [
      0,
      1,
      2,
      3,
      4,
      5,
      6,
      7,
      8,
      9,
      10,
      11,
      12,
      13,
      14,
      15,
      16,
      17,
      18,
      19,
      20,
      21,
      22,
      23,
      24,
      25,
      26,
      27,
      28,
      29,
      30,
      31,
      32,
      33,
      34,
      35,
      36,
      37,
      38,
      39,
      40,
      41,
      42,
      43,
      44,
      45,
      46,
      47,
      48,
      49,
      50,
      51,
      52,
      53,
      54,
      55,
      56,
      57,
      58,
      59,
      60,
      61,
      62,
      63,
      64,
      65,
      66,
      67,
      68,
      69,
      70,
      71,
      72,
      73,
      74,
      75,
      76,
      77,
      78,
      79,
      80,
      81,
      82,
      83,
      84,
      85,
      86,
      87,
      88,
      89,
      90,
      91,
      92,
      93,
      94,
      95,
      96,
      97,
      98,
      99,
      100,
      101,
      102,
      103,
      104,
      105,
      106,
      107,
      108,
      109,
      110,
      111,
      112,
      113,
      114,
      115,
      116,
      117,
      118,
      119,
      120,
      121,
      122,
      123,
      124,
      125,
      126,
      127,
      128,
      129,
      130,
      131,
      132,
      133,
      134,
      135,
      136,
      137,
      138,
      139,
      140,
      141,
      142,
      143,
      144,
      145,
      146,
      147,
      148,
      149,
      150,
      151,
      152,
      153,
      154,
      155,
      156,
      157,
      158,
      159,
      160,
      161,
      162,
      163,
      164,
      165,
      166,
      167,
      168,
      169,
      170,
      171,
      172,
      173,
      174,
      175,
      176,
      177,
      178,
      179,
      180,
      181,
      182,
      183,
      184,
      185,
      186,
      187,
      188,
      189,
      190,
      191,
      192,
      193,
      194,
      195,
      196,
      197,
      198,
      199,
      200,
      201,
      202,
      203,
      204,
      205,
      206,
      207,
      208,
      209,
      210,
      211,
      212,
      213,
      214,
      215,
      216,
      217,
      218,
      219,
      220,
      221,
      222,
      223,
      224,
      225,
      226,
      227,
      228,
      229,
      230,
      231,
      232,
      233,
      234,
      235,
      236,
      237,
      238,
      239,
      240,
      241,
      242,
      243,
      244,
      245,
      246,
      247,
      248,
      249,
      250,
      251,
      252,
      253,
      254,
      255,
      256,
      257,
      258,
      259,
      260,
      261,
      262,
      263,
      264,
      265,
      266,
      267,
      268,
      269,
      270,
      271,
      272,
      273,
      274,
      275,
      276,
      277,
      278,
      279,
      280,
      281,
      282,
      283,
      284,
      285,
      286,
      287,
      288,
      289,
      290,
      291,
      292,
      293,
      294,
      295,
      296,
      297,
      298,
      299
    ],
    "timestamps": [
      "2022-08-15T06:19:00.655041",
      "2022-08-15T06:19:05.564567",
      "2022-08-15T06:19:10.497297",
      "2022-08-15T06:19:15.426645",
      "2022-08-15T06:19:20.332823",
      "2022-08-15T06:19:25.265420",
      "2022-08-15T06:19:30.183672",
      "2022-08-15T06:19:35.114853",
      "2022-08-15T06:19:40.034161",
      "2022-08-15T06:19:44.957702",
      "2022-08-15T06:19:49.935316",
      "2022-08-15T06:19:54.908448",
      "2022-08-15T06:19:59.875682",
      "2022-08-15T06:20:04.827598",
      "2022-08-15T06:20:09.765876",
      "2022-08-15T06:20:14.746187",
      "2022-08-15T06:20:19.702767",
      "2022-08-15T06:20:24.637558",
      "2022-08-15T06:20:29.574688",
      "2022-08-15T06:20:34.554734",
      "2022-08-15T06:20:39.556137",
      "2022-08-15T06:20:44.542909",
      "2022-08-15T06:20:49.499308",
      "2022-08-15T06:20:55.723670",
      "2022-08-15T06:21:01.667099",
      "2022-08-15T06:21:06.681015",
      "2022-08-15T06:21:11.703154",
      "2022-08-15T06:21:16.700878",
      "2022-08-15T06:21:21.686133",
      "2022-08-15T06:21:26.688750",
      "2022-08-15T06:21:31.725914",
      "2022-08-15T06:21:36.779565",
      "2022-08-15T06:21:41.821799",
      "2022-08-15T06:21:46.870014",
      "2022-08-15T06:21:51.910214",
      "2022-08-15T06:21:56.951975",
      "2022-08-15T06:22:01.978015",
      "2022-08-15T06:22:07.056832",
      "2022-08-15T06:22:12.152451",
      "2022-08-15T06:22:17.192748",
      "2022-08-15T06:22:22.201518",
      "2022-08-15T06:22:27.224339",
      "2022-08-15T06:22:32.239747",
      "2022-08-15T06:22:37.258465",
      "2022-08-15T06:22:42.273816",
      "2022-08-15T06:22:47.335244",
      "2022-08-15T06:22:52.338396",
      "2022-08-15T06:22:57.474492",
      "2022-08-15T06:23:02.543795",
      "2022-08-15T06:23:07.625154",
      "2022-08-15T06:23:12.679714",
      "2022-08-15T06:23:17.720036",
      "2022-08-15T06:23:22.802229",
      "2022-08-15T06:23:27.864873",
      "2022-08-15T06:23:32.929157",
      "2022-08-15T06:23:37.991487",
      "2022-08-15T06:23:43.051027",
      "2022-08-15T06:23:48.102420",
      "2022-08-15T06:23:53.131506",
      "2022-08-15T06:23:58.218740",
      "2022-08-15T06:24:03.270231",
      "2022-08-15T06:24:08.307852",
      "2022-08-15T06:24:13.342497",
      "2022-08-15T06:24:18.381899",
      "2022-08-15T06:24:23.423602",
      "2022-08-15T06:24:29.168016",
      "2022-08-15T06:24:35.685727",
      "2022-08-15T06:24:42.182718",
      "2022-08-15T06:24:47.614939",
      "2022-08-15T06:24:52.592860",
      "2022-08-15T06:24:57.639274",
      "2022-08-15T06:25:02.617849",
      "2022-08-15T06:25:07.610581",
      "2022-08-15T06:25:12.595108",
      "2022-08-15T06:25:17.551918",
      "2022-08-15T06:25:22.592076",
      "2022-08-15T06:25:27.621833",
      "2022-08-15T06:25:32.646146",
      "2022-08-15T06:25:37.649870",
      "2022-08-15T06:25:42.624787",
      "2022-08-15T06:25:47.997777",
      "2022-08-15T06:25:52.938204",
      "2022-08-15T06:25:58.768565",
      "2022-08-15T06:26:05.106616",
      "2022-08-15T06:26:10.523314",
      "2022-08-15T06:26:15.727851",
      "2022-08-15T06:26:20.811173",
      "2022-08-15T06:26:25.894688",
      "2022-08-15T06:26:30.875514",
      "2022-08-15T06:26:35.858136",
      "2022-08-15T06:26:40.850343",
      "2022-08-15T06:26:45.846185",
      "2022-08-15T06:26:50.817148",
      "2022-08-15T06:26:55.782469",
      "2022-08-15T06:27:00.760372",
      "2022-08-15T06:27:05.847996",
      "2022-08-15T06:27:10.828419",
      "2022-08-15T06:27:15.807552",
      "2022-08-15T06:27:20.774666",
      "2022-08-15T06:27:25.742122",
      "2022-08-15T06:27:30.724584",
      "2022-08-15T06:27:35.680273",
      "2022-08-15T06:27:40.646631",
      "2022-08-15T06:27:45.588099",
      "2022-08-15T06:27:50.549886",
      "2022-08-15T06:27:55.519654",
      "2022-08-15T06:28:00.508197",
      "2022-08-15T06:28:05.484261",
      "2022-08-15T06:28:10.462068",
      "2022-08-15T06:28:15.454549",
      "2022-08-15T06:28:20.445876",
      "2022-08-15T06:28:25.408039",
      "2022-08-15T06:28:30.376019",
      "2022-08-15T06:28:35.338597",
      "2022-08-15T06:28:40.318030",
      "2022-08-15T06:28:45.291843",
      "2022-08-15T06:28:50.232308",
      "2022-08-15T06:28:55.199505",
      "2022-08-15T06:29:00.165102",
      "2022-08-15T06:29:05.159349",
      "2022-08-15T06:29:10.141699",
      "2022-08-15T06:29:15.116375",
      "2022-08-15T06:29:20.085684",
      "2022-08-15T06:29:25.062628",
      "2022-08-15T06:29:30.014063",
      "2022-08-15T06:29:34.963223",
      "2022-08-15T06:29:39.918805",
      "2022-08-15T06:29:44.871467",
      "2022-08-15T06:29:49.832799",
      "2022-08-15T06:29:54.800265",
      "2022-08-15T06:29:59.793632",
      "2022-08-15T06:30:04.780014",
      "2022-08-15T06:30:09.803522",
      "2022-08-15T06:30:14.839383",
      "2022-08-15T06:30:19.886728",
      "2022-08-15T06:30:24.890486",
      "2022-08-15T06:30:29.928775",
      "2022-08-15T06:30:34.960965",
      "2022-08-15T06:30:39.982336",
      "2022-08-15T06:30:45.000890",
      "2022-08-15T06:30:50.033030",
      "2022-08-15T06:30:55.045720",
      "2022-08-15T06:31:00.185322",
      "2022-08-15T06:31:05.164761",
      "2022-08-15T06:31:10.228083",
      "2022-08-15T06:31:15.305129",
      "2022-08-15T06:31:20.344073",
      "2022-08-15T06:31:25.375088",
      "2022-08-15T06:31:30.428198",
      "2022-08-15T06:31:35.484948",
      "2022-08-15T06:31:40.477639",
      "2022-08-15T06:31:45.438862",
      "2022-08-15T06:31:50.430672",
      "2022-08-15T06:31:55.400978",
      "2022-08-15T06:32:00.380298",
      "2022-08-15T06:32:05.359421",
      "2022-08-15T06:32:10.355453",
      "2022-08-15T06:32:16.124713",
      "2022-08-15T06:32:22.467676",
      "2022-08-15T06:32:28.802906",
      "2022-08-15T06:32:33.969443",
      "2022-08-15T06:32:39.243609",
      "2022-08-15T06:32:45.121034",
      "2022-08-15T06:32:50.494426",
      "2022-08-15T06:32:56.458051",
      "2022-08-15T06:33:02.891160",
      "2022-08-15T06:33:09.315767",
      "2022-08-15T06:33:15.763384",
      "2022-08-15T06:33:21.208767",
      "2022-08-15T06:33:26.753204",
      "2022-08-15T06:33:33.183767",
      "2022-08-15T06:33:39.625847",
      "2022-08-15T06:33:45.048182",
      "2022-08-15T06:33:50.057088",
      "2022-08-15T06:33:55.425032",
      "2022-08-15T06:34:00.387697",
      "2022-08-15T06:34:05.371601",
      "2022-08-15T06:34:10.353159",
      "2022-08-15T06:34:15.327294",
      "2022-08-15T06:34:20.284135",
      "2022-08-15T06:34:25.294280",
      "2022-08-15T06:34:30.349100",
      "2022-08-15T06:34:35.365825",
      "2022-08-15T06:34:40.392024",
      "2022-08-15T06:34:45.421918",
      "2022-08-15T06:34:50.430405",
      "2022-08-15T06:34:55.457662",
      "2022-08-15T06:35:00.493948",
      "2022-08-15T06:35:05.573163",
      "2022-08-15T06:35:10.615847",
      "2022-08-15T06:35:15.680752",
      "2022-08-15T06:35:20.798581",
      "2022-08-15T06:35:25.892919",
      "2022-08-15T06:35:30.997241",
      "2022-08-15T06:35:36.135240",
      "2022-08-15T06:35:41.233217",
      "2022-08-15T06:35:46.377292",
      "2022-08-15T06:35:51.426017",
      "2022-08-15T06:35:56.491715",
      "2022-08-15T06:36:01.554940",
      "2022-08-15T06:36:06.640866",
      "2022-08-15T06:36:11.703770",
      "2022-08-15T06:36:16.826572",
      "2022-08-15T06:36:21.934233",
      "2022-08-15T06:36:27.036897",
      "2022-08-15T06:36:32.102672",
      "2022-08-15T06:36:37.149116",
      "2022-08-15T06:36:42.207404",
      "2022-08-15T06:36:47.280164",
      "2022-08-15T06:36:52.348893",
      "2022-08-15T06:36:57.393992",
      "2022-08-15T06:37:02.420263",
      "2022-08-15T06:37:07.463599",
      "2022-08-15T06:37:12.493334",
      "2022-08-15T06:37:17.522747",
      "2022-08-15T06:37:22.534634",
      "2022-08-15T06:37:27.568554",
      "2022-08-15T06:37:32.623686",
      "2022-08-15T06:37:37.705257",
      "2022-08-15T06:37:42.817608",
      "2022-08-15T06:37:47.820969",
      "2022-08-15T06:37:52.814432",
      "2022-08-15T06:37:57.805382",
      "2022-08-15T06:38:02.787920",
      "2022-08-15T06:38:07.774183",
      "2022-08-15T06:38:12.824486",
      "2022-08-15T06:38:17.844132",
      "2022-08-15T06:38:22.856232",
      "2022-08-15T06:38:27.836744",
      "2022-08-15T06:38:32.897504",
      "2022-08-15T06:38:37.873580",
      "2022-08-15T06:38:42.833226",
      "2022-08-15T06:38:47.820462",
      "2022-08-15T06:38:52.765858",
      "2022-08-15T06:38:57.722022",
      "2022-08-15T06:39:02.668154",
      "2022-08-15T06:39:07.615544",
      "2022-08-15T06:39:12.557297",
      "2022-08-15T06:39:17.498549",
      "2022-08-15T06:39:22.445680",
      "2022-08-15T06:39:27.459534",
      "2022-08-15T06:39:32.447035",
      "2022-08-15T06:39:37.446161",
      "2022-08-15T06:39:42.431386",
      "2022-08-15T06:39:47.421996",
      "2022-08-15T06:39:52.367332",
      "2022-08-15T06:39:57.464834",
      "2022-08-15T06:40:02.436147",
      "2022-08-15T06:40:07.424968",
      "2022-08-15T06:40:12.421814",
      "2022-08-15T06:40:17.452234",
      "2022-08-15T06:40:22.494688",
      "2022-08-15T06:40:27.538390",
      "2022-08-15T06:40:32.569464",
      "2022-08-15T06:40:37.603997",
      "2022-08-15T06:40:42.619745",
      "2022-08-15T06:40:47.631881",
      "2022-08-15T06:40:52.650726",
      "2022-08-15T06:40:57.710901",
      "2022-08-15T06:41:02.744284",
      "2022-08-15T06:41:07.755234",
      "2022-08-15T06:41:12.761962",
      "2022-08-15T06:41:17.750351",
      "2022-08-15T06:41:22.728669",
      "2022-08-15T06:41:27.740790",
      "2022-08-15T06:41:32.743732",
      "2022-08-15T06:41:37.763146",
      "2022-08-15T06:41:42.764102",
      "2022-08-15T06:41:47.759523",
      "2022-08-15T06:41:52.764005",
      "2022-08-15T06:41:57.808544",
      "2022-08-15T06:42:02.818020",
      "2022-08-15T06:42:07.852176",
      "2022-08-15T06:42:12.853299",
      "2022-08-15T06:42:17.902589",
      "2022-08-15T06:42:22.931100",
      "2022-08-15T06:42:27.950152",
      "2022-08-15T06:42:32.954420",
      "2022-08-15T06:42:37.982408",
      "2022-08-15T06:42:43.016631",
      "2022-08-15T06:42:48.027249",
      "2022-08-15T06:42:52.999458",
      "2022-08-15T06:42:57.992345",
      "2022-08-15T06:43:02.952273",
      "2022-08-15T06:43:07.936143",
      "2022-08-15T06:43:12.936167",
      "2022-08-15T06:43:17.908328",
      "2022-08-15T06:43:22.896020",
      "2022-08-15T06:43:27.894219",
      "2022-08-15T06:43:32.884560",
      "2022-08-15T06:43:37.884356",
      "2022-08-15T06:43:42.870763",
      "2022-08-15T06:43:47.854857",
      "2022-08-15T06:43:52.846600",
      "2022-08-15T06:43:57.851203",
      "2022-08-15T06:44:02.905719",
      "2022-08-15T06:44:07.895750",
      "2022-08-15T06:44:12.911560",
      "2022-08-15T06:44:17.907603",
      "2022-08-15T06:44:22.881534"
    ],
    "values": [
      15.27941513268436,
      7.783436705265084,
      6.50194604035005,
      5.1388800697404395,
      4.453926806899393,
      3.926129808908593,
      3.568907211567896,
      3.1297559473024217,
      3.0944068476443953,
      2.801869106267722,
      2.721295981390923,
      2.5450081978436225,
      2.6160764653281983,
      2.5235479482387957,
      2.3283767331921568,
      2.379983326281318,
      2.27982368733806,
      2.2641881612874606,
      2.221857031318271,
      2.1641828132363323,
      2.146914587747508,
      2.1791481140716815,
      2.012662101553904,
      1.9732333575990868,
      2.1136990896744927,
      2.079931700681182,
      1.9979161772379452,
      2.2393774777367685,
      2.106939440643441,
      1.8305632157005285,
      1.9216081594081134,
      1.8669002624305622,
      1.9279712413303018,
      1.9178242098782683,
      1.8646511885087338,
      1.838360676009817,
      1.9279151169219437,
      1.8188225751821958,
      1.8165459901263181,
      1.9744716332041736,
      1.8116054177132461,
      1.8047712574249135,
      1.752841055540886,
      1.8580925423401355,
      1.7612010110204388,
      1.8309248451926112,
      1.819507523680398,
      1.8256829537088464,
      1.7924229019063918,
      1.7137427410856076,
      1.7922073331050734,
      1.7513718922371058,
      1.719646787517681,
      1.8050388392448873,
      1.7365666385183183,
      1.6873415328070367,
      1.8193285789189333,
      1.7370164639788037,
      1.7853443246716052,
      1.7444211618793843,
      1.7589386236968267,
      1.799396016652139,
      1.6392899801283025,
      1.7463828976859528,
      1.7176606187209598,
      1.781361817778197,
      1.768770732011997,
      1.7325605311697996,
      1.689785751273699,
      1.7476861079270651,
      1.7306094948332613,
      1.7003865477464828,
      1.754866001801366,
      1.6363124194077323,
      1.7539091028999954,
      1.672406645013239,
      1.6581772843951441,
      1.6783607301517447,
      1.7211134928251521,
      1.6153518835931533,
      1.6312971533585745,
      1.631721492175311,
      1.6703616707935054,
      1.5466296673190203,
      1.6739805661900167,
      1.6589469445398635,
      1.73977360362739,
      1.5743702090811131,
      1.7574015587092346,
      1.591029339502317,
      1.6638649549814184,
      1.7355475786734538,
      1.648793250210856,
      1.652036856517514,
      1.6751735427862302,
      1.6583400038845282,
      1.5671435044749429,
      1.6741857935618298,
      1.629979144452268,
      1.6163796915189084,
      1.657879023731642,
      1.645500141686476,
      1.5122695552768437,
      1.6139877254925867,
      1.6473538248807464,
      1.6452765777373863,
      1.6176096581828103,
      1.5429271547338805,
      1.6209432068265912,
      1.7313007592413843,
      1.639630862362042,
      1.6789910641430896,
      1.5710098392152032,
      1.6484987918996286,
      1.6229308389869432,
      1.565599284019457,
      1.6422307748362224,
      1.6092643500617083,
      1.5468297564557867,
      1.6313157222528076,
      1.6501482448679354,
      1.5521926561890396,
      1.5610166979186446,
      1.630443298685428,
      1.3088009508375718,
      1.2780871868306982,
      1.2767486626053177,
      1.2707183757081952,
      1.2638185065586816,
      1.2707810651232787,
      1.2658459788784429,
      1.2651242586870197,
      1.2737891488917639,
      1.2719401670582524,
      1.288902161389228,
      1.275184460539797,
      1.2676125368415034,
      1.2685222088430712,
      1.2680641579753311,
      1.262700551858186,
      1.2699656144877889,
      1.259216927995334,
      1.2763265489147173,
      1.2711776408447388,
      1.2658031227697126,
      1.2716331449554845,
      1.2660353632841974,
      1.2627332149085815,
      1.2653475690721674,
      1.2726301006114953,
      1.2757062103090495,
      1.2739543240773612,
      1.2683653650991145,
      1.2711506421099878,
      1.2606527532305032,
      1.267272624516192,
      1.2664351515687828,
      1.2569109312068119,
      1.2513189628784642,
      1.2616962585971294,
      1.2594647896246898,
      1.2523475615398478,
      1.2540388371498212,
      1.2546708233668808,
      1.285979629696463,
      1.2503502955383696,
      1.2505596701931474,
      1.2589193437582384,
      1.255716401719152,
      1.2502319743286898,
      1.2657054310885598,
      1.255371360914043,
      1.2804548564870943,
      1.2586902389808738,
      1.2607994132334488,
      1.2603547890131557,
      1.2607390608489282,
      1.256057666267735,
      1.2651410182763536,
      1.2844802466906524,
      1.2580789558763088,
      1.255295580676467,
      1.2507651557971813,
      1.2628359637446487,
      1.2428439215853908,
      1.2668758977114714,
      1.2499678926569024,
      1.2538964579607295,
      1.2439280476598582,
      1.2618564246027122,
      1.2549459579794373,
      1.2536258518581505,
      1.2421296727197504,
      1.279000169886086,
      1.263940053757929,
      1.2615635700365764,
      1.2436851822450405,
      1.249755631644048,
      1.262826766620358,
      1.2449723674726167,
      1.2471555306099298,
      1.2411343277725733,
      1.269661355301099,
      1.2547906488936775,
      1.2478363098014922,
      1.2466912748869499,
      1.2603050070363242,
      1.2491490772877865,
      1.2312380848352893,
      1.2378647231250672,
      1.244760930452459,
      1.2563246557790968,
      1.2423730413909497,
      1.2559593068557304,
      1.2510822414673104,
      1.2380199973182078,
      1.251804568253587,
      1.2394263208310623,
      1.2464130998280671,
      1.254557654371908,
      1.24258932428457,
      1.2401565572813724,
      1.2530177774578801,
      1.2391401059306582,
      1.2367354261894135,
      1.2373064124587836,
      1.2431551867721913,
      1.2341831081981867,
      1.2317463272755966,
      1.248752925433775,
      1.1968829026407959,
      1.1928132835959777,
      1.1941879376857136,
      1.1922054328682643,
      1.1961425023140742,
      1.1918798131136399,
      1.1929716893242608,
      1.1950596468939019,
      1.1946531368153273,
      1.1938101228743179,
      1.1956832906182817,
      1.1930884965928101,
      1.1929164822005633,
      1.1939519909084977,
      1.1950528468013524,
      1.193537262461261,
      1.1932477651826892,
      1.1937109865769573,
      1.1964213316534573,
      1.1926388160678172,
      1.1935560068380413,
      1.194474629936285,
      1.192745398760098,
      1.1932343444094229,
      1.1932460571556986,
      1.195394157572816,
      1.1941422657166478,
      1.1874548339800663,
      1.1867401434023062,
      1.1869312678484456,
      1.186818092204914,
      1.187004578014424,
      1.1871329643522488,
      1.186858163944036,
      1.1865845426715782,
      1.1865325091674404,
      1.1865119192823803,
      1.186851721083179,
      1.186359393216716,
      1.1866016069703218,
      1.1868370808137498,
      1.1868422400900787,
      1.186481491960371,
      1.1866435603278211,
      1.1870192858772168,
      1.1866954646392114,
      1.1866410210385125,
      1.1868188979408347,
      1.1866242846569215,
      1.1866937830178788,
      1.186569964816374,
      1.1867456142643389,
      1.186906673562595,
      1.1866422249495105,
      1.186683888049625,
      1.1864883473037842,
      1.1865058804232862,
      1.1865020400807735,
      1.1866799409795954,
      1.186559030144918,
      1.185778863261134,
      1.1856767140521638,
      1.185653256381576,
      1.1856858537676458,
      1.1856831481671237,
      1.1856761026888014,
      1.1856810626948646,
      1.185677796666355,
      1.1856591269440742,
      1.185682186976323
    ]
  },
  "val": {
    "steps": [
      0,
      1,
      2,
      3,
      4,
      5,
      6,
      7,
      8,
      9,
      10,
      11,
      12,
      13,
      14,
      15,
      16,
      17,
      18,
      19,
      20,
      21,
      22,
      23,
      24,
      25,
      26,
      27,
      28,
      29,
      30,
      31,
      32,
      33,
      34,
      35,
      36,
      37,
      38,
      39,
      40,
      41,
      42,
      43,
      44,
      45,
      46,
      47,
      48,
      49,
      50,
      51,
      52,
      53,
      54,
      55,
      56,
      57,
      58,
      59,
      60,
      61,
      62,
      63,
      64,
      65,
      66,
      67,
      68,
      69,
      70,
      71,
      72,
      73,
      74,
      75,
      76,
      77,
      78,
      79,
      80,
      81,
      82,
      83,
      84,
      85,
      86,
      87,
      88,
      89,
      90,
      91,
      92,
      93,
      94,
      95,
      96,
      97,
      98,
      99,
      100,
      101,
      102,
      103,
      104,
      105,
      106,
      107,
      108,
      109,
      110,
      111,
      112,
      113,
      114,
      115,
      116,
      117,
      118,
      119,
      120,
      121,
      122,
      123,
      124,
      125,
      126,
      127,
      128,
      129,
      130,
      131,
      132,
      133,
      134,
      135,
      136,
      137,
      138,
      139,
      140,
      141,
      142,
      143,
      144,
      145,
      146,
      147,
      148,
      149,
      150,
      151,
      152,
      153,
      154,
      155,
      156,
      157,
      158,
      159,
      160,
      161,
      162,
      163,
      164,
      165,
      166,
      167,
      168,
      169,
      170,
      171,
      172,
      173,
      174,
      175,
      176,
      177,
      178,
      179,
      180,
      181,
      182,
      183,
      184,
      185,
      186,
      187,
      188,
      189,
      190,
      191,
      192,
      193,
      194,
      195,
      196,
      197,
      198,
      199,
      200,
      201,
      202,
      203,
      204,
      205,
      206,
      207,
      208,
      209,
      210,
      211,
      212,
      213,
      214,
      215,
      216,
      217,
      218,
      219,
      220,
      221,
      222,
      223,
      224,
      225,
      226,
      227,
      228,
      229,
      230,
      231,
      232,
      233,
      234,
      235,
      236,
      237,
      238,
      239,
      240,
      241,
      242,
      243,
      244,
      245,
      246,
      247,
      248,
      249,
      250,
      251,
      252,
      253,
      254,
      255,
      256,
      257,
      258,
      259,
      260,
      261,
      262,
      263,
      264,
      265,
      266,
      267,
      268,
      269,
      270,
      271,
      272,
      273,
      274,
      275,
      276,
      277,
      278,
      279,
      280,
      281,
      282,
      283,
      284,
      285,
      286,
      287,
      288,
      289,
      290,
      291,
      292,
      293,
      294,
      295,
      296,
      297,
      298,
      299
    ],
    "timestamps": [
      "2022-08-15T06:19:01.245086",
      "2022-08-15T06:19:06.153110",
      "2022-08-15T06:19:11.084631",
      "2022-08-15T06:19:16.013919",
      "2022-08-15T06:19:20.921928",
      "2022-08-15T06:19:25.854941",
      "2022-08-15T06:19:30.773005",
      "2022-08-15T06:19:35.703798",
      "2022-08-15T06:19:40.640387",
      "2022-08-15T06:19:45.562352",
      "2022-08-15T06:19:50.546595",
      "2022-08-15T06:19:55.511722",
      "2022-08-15T06:20:00.472380",
      "2022-08-15T06:20:05.424570",
      "2022-08-15T06:20:10.376879",
      "2022-08-15T06:20:15.342756",
      "2022-08-15T06:20:20.310660",
      "2022-08-15T06:20:25.238026",
      "2022-08-15T06:20:30.172116",
      "2022-08-15T06:20:35.147699",
      "2022-08-15T06:20:40.158819",
      "2022-08-15T06:20:45.144126",
      "2022-08-15T06:20:50.105682",
      "2022-08-15T06:20:56.483134",
      "2022-08-15T06:21:02.258648",
      "2022-08-15T06:21:07.274752",
      "2022-08-15T06:21:12.301349",
      "2022-08-15T06:21:17.292100",
      "2022-08-15T06:21:22.278375",
      "2022-08-15T06:21:27.283077",
      "2022-08-15T06:21:32.318671",
      "2022-08-15T06:21:37.392426",
      "2022-08-15T06:21:42.422055",
      "2022-08-15T06:21:47.467026",
      "2022-08-15T06:21:52.511185",
      "2022-08-15T06:21:57.546469",
      "2022-08-15T06:22:02.579078",
      "2022-08-15T06:22:07.682823",
      "2022-08-15T06:22:12.747857",
      "2022-08-15T06:22:17.789867",
      "2022-08-15T06:22:22.799787",
      "2022-08-15T06:22:27.826070",
      "2022-08-15T06:22:32.839156",
      "2022-08-15T06:22:37.860070",
      "2022-08-15T06:22:42.877125",
      "2022-08-15T06:22:47.931769",
      "2022-08-15T06:22:52.935512",
      "2022-08-15T06:22:58.085424",
      "2022-08-15T06:23:03.156253",
      "2022-08-15T06:23:08.234830",
      "2022-08-15T06:23:13.278213",
      "2022-08-15T06:23:18.321420",
      "2022-08-15T06:23:23.401394",
      "2022-08-15T06:23:28.463133",
      "2022-08-15T06:23:33.529760",
      "2022-08-15T06:23:38.590502",
      "2022-08-15T06:23:43.659255",
      "2022-08-15T06:23:48.698304",
      "2022-08-15T06:23:53.730732",
      "2022-08-15T06:23:58.823363",
      "2022-08-15T06:24:03.864624",
      "2022-08-15T06:24:08.909053",
      "2022-08-15T06:24:13.943079",
      "2022-08-15T06:24:18.979363",
      "2022-08-15T06:24:24.019308",
      "2022-08-15T06:24:29.950027",
      "2022-08-15T06:24:36.460273",
      "2022-08-15T06:24:42.962597",
      "2022-08-15T06:24:48.213992",
      "2022-08-15T06:24:53.193253",
      "2022-08-15T06:24:58.236916",
      "2022-08-15T06:25:03.217587",
      "2022-08-15T06:25:08.210003",
      "2022-08-15T06:25:13.193016",
      "2022-08-15T06:25:18.178505",
      "2022-08-15T06:25:23.187214",
      "2022-08-15T06:25:28.224117",
      "2022-08-15T06:25:33.244564",
      "2022-08-15T06:25:38.248969",
      "2022-08-15T06:25:43.230274",
      "2022-08-15T06:25:48.591420",
      "2022-08-15T06:25:53.527481",
      "2022-08-15T06:25:59.529830",
      "2022-08-15T06:26:05.861359",
      "2022-08-15T06:26:11.122852",
      "2022-08-15T06:26:16.333905",
      "2022-08-15T06:26:21.417774",
      "2022-08-15T06:26:26.492480",
      "2022-08-15T06:26:31.473437",
      "2022-08-15T06:26:36.457640",
      "2022-08-15T06:26:41.437790",
      "2022-08-15T06:26:46.435001",
      "2022-08-15T06:26:51.407385",
      "2022-08-15T06:26:56.380461",
      "2022-08-15T06:27:01.348285",
      "2022-08-15T06:27:06.436118",
      "2022-08-15T06:27:11.417008",
      "2022-08-15T06:27:16.394476",
      "2022-08-15T06:27:21.370883",
      "2022-08-15T06:27:26.330505",
      "2022-08-15T06:27:31.311566",
      "2022-08-15T06:27:36.268549",
      "2022-08-15T06:27:41.234223",
      "2022-08-15T06:27:46.176593",
      "2022-08-15T06:27:51.139384",
      "2022-08-15T06:27:56.104973",
      "2022-08-15T06:28:01.097824",
      "2022-08-15T06:28:06.073496",
      "2022-08-15T06:28:11.050449",
      "2022-08-15T06:28:16.042116",
      "2022-08-15T06:28:21.034658",
      "2022-08-15T06:28:25.995293",
      "2022-08-15T06:28:30.963945",
      "2022-08-15T06:28:35.927581",
      "2022-08-15T06:28:40.905846",
      "2022-08-15T06:28:45.877708",
      "2022-08-15T06:28:50.821592",
      "2022-08-15T06:28:55.787776",
      "2022-08-15T06:29:00.754254",
      "2022-08-15T06:29:05.753553",
      "2022-08-15T06:29:10.723983",
      "2022-08-15T06:29:15.701846",
      "2022-08-15T06:29:20.669449",
      "2022-08-15T06:29:25.648056",
      "2022-08-15T06:29:30.598832",
      "2022-08-15T06:29:35.547027",
      "2022-08-15T06:29:40.505700",
      "2022-08-15T06:29:45.458402",
      "2022-08-15T06:29:50.415738",
      "2022-08-15T06:29:55.395121",
      "2022-08-15T06:30:00.386877",
      "2022-08-15T06:30:05.374501",
      "2022-08-15T06:30:10.419705",
      "2022-08-15T06:30:15.432760",
      "2022-08-15T06:30:20.481210",
      "2022-08-15T06:30:25.498380",
      "2022-08-15T06:30:30.532827",
      "2022-08-15T06:30:35.556724",
      "2022-08-15T06:30:40.578642",
      "2022-08-15T06:30:45.594405",
      "2022-08-15T06:30:50.632865",
      "2022-08-15T06:30:55.657488",
      "2022-08-15T06:31:00.775670",
      "2022-08-15T06:31:05.766724",
      "2022-08-15T06:31:10.831700",
      "2022-08-15T06:31:15.907149",
      "2022-08-15T06:31:20.945353",
      "2022-08-15T06:31:25.976497",
      "2022-08-15T06:31:31.028294",
      "2022-08-15T06:31:36.083812",
      "2022-08-15T06:31:41.064805",
      "2022-08-15T06:31:46.032557",
      "2022-08-15T06:31:51.022407",
      "2022-08-15T06:31:55.992118",
      "2022-08-15T06:32:00.968752",
      "2022-08-15T06:32:05.947571",
      "2022-08-15T06:32:10.945061",
      "2022-08-15T06:32:16.886780",
      "2022-08-15T06:32:23.225176",
      "2022-08-15T06:32:29.561356",
      "2022-08-15T06:32:34.641369",
      "2022-08-15T06:32:39.836323",
      "2022-08-15T06:32:45.881551",
      "2022-08-15T06:32:51.087581",
      "2022-08-15T06:32:57.234909",
      "2022-08-15T06:33:03.662019",
      "2022-08-15T06:33:10.106991",
      "2022-08-15T06:33:16.537692",
      "2022-08-15T06:33:21.812228",
      "2022-08-15T06:33:27.524472",
      "2022-08-15T06:33:33.956145",
      "2022-08-15T06:33:40.398201",
      "2022-08-15T06:33:45.650683",
      "2022-08-15T06:33:50.805724",
      "2022-08-15T06:33:56.019811",
      "2022-08-15T06:34:00.979612",
      "2022-08-15T06:34:05.963940",
      "2022-08-15T06:34:10.946925",
      "2022-08-15T06:34:15.922384",
      "2022-08-15T06:34:20.878660",
      "2022-08-15T06:34:25.892776",
      "2022-08-15T06:34:30.952353",
      "2022-08-15T06:34:35.966658",
      "2022-08-15T06:34:40.992712",
      "2022-08-15T06:34:46.023776",
      "2022-08-15T06:34:51.030882",
      "2022-08-15T06:34:56.060448",
      "2022-08-15T06:35:01.105140",
      "2022-08-15T06:35:06.176424",
      "2022-08-15T06:35:11.213788",
      "2022-08-15T06:35:16.298445",
      "2022-08-15T06:35:21.412552",
      "2022-08-15T06:35:26.512792",
      "2022-08-15T06:35:31.614675",
      "2022-08-15T06:35:36.757781",
      "2022-08-15T06:35:41.870841",
      "2022-08-15T06:35:46.989628",
      "2022-08-15T06:35:52.039030",
      "2022-08-15T06:35:57.105949",
      "2022-08-15T06:36:02.166414",
      "2022-08-15T06:36:07.252573",
      "2022-08-15T06:36:12.331888",
      "2022-08-15T06:36:17.441912",
      "2022-08-15T06:36:22.550163",
      "2022-08-15T06:36:27.651151",
      "2022-08-15T06:36:32.713546",
      "2022-08-15T06:36:37.761930",
      "2022-08-15T06:36:42.820098",
      "2022-08-15T06:36:47.892397",
      "2022-08-15T06:36:52.958737",
      "2022-08-15T06:36:57.988493",
      "2022-08-15T06:37:03.019057",
      "2022-08-15T06:37:08.061268",
      "2022-08-15T06:37:13.093635",
      "2022-08-15T06:37:18.126555",
      "2022-08-15T06:37:23.133443",
      "2022-08-15T06:37:28.174384",
      "2022-08-15T06:37:33.229609",
      "2022-08-15T06:37:38.331055",
      "2022-08-15T06:37:43.419631",
      "2022-08-15T06:37:48.415348",
      "2022-08-15T06:37:53.407807",
      "2022-08-15T06:37:58.399680",
      "2022-08-15T06:38:03.384167",
      "2022-08-15T06:38:08.369238",
      "2022-08-15T06:38:13.421280",
      "2022-08-15T06:38:18.442266",
      "2022-08-15T06:38:23.448042",
      "2022-08-15T06:38:28.543532",
      "2022-08-15T06:38:33.482484",
      "2022-08-15T06:38:38.463612",
      "2022-08-15T06:38:43.431861",
      "2022-08-15T06:38:48.410176",
      "2022-08-15T06:38:53.357465",
      "2022-08-15T06:38:58.312194",
      "2022-08-15T06:39:03.259031",
      "2022-08-15T06:39:08.204159",
      "2022-08-15T06:39:13.146803",
      "2022-08-15T06:39:18.088787",
      "2022-08-15T06:39:23.032790",
      "2022-08-15T06:39:28.055689",
      "2022-08-15T06:39:33.043343",
      "2022-08-15T06:39:38.040917",
      "2022-08-15T06:39:43.025382",
      "2022-08-15T06:39:48.014361",
      "2022-08-15T06:39:52.959418",
      "2022-08-15T06:39:58.057953",
      "2022-08-15T06:40:03.032237",
      "2022-08-15T06:40:08.019606",
      "2022-08-15T06:40:13.017222",
      "2022-08-15T06:40:18.083766",
      "2022-08-15T06:40:23.098577",
      "2022-08-15T06:40:28.146826",
      "2022-08-15T06:40:33.173824",
      "2022-08-15T06:40:38.208381",
      "2022-08-15T06:40:43.224278",
      "2022-08-15T06:40:48.235393",
      "2022-08-15T06:40:53.250181",
      "2022-08-15T06:40:58.314694",
      "2022-08-15T06:41:03.348305",
      "2022-08-15T06:41:08.347294",
      "2022-08-15T06:41:13.355294",
      "2022-08-15T06:41:18.346337",
      "2022-08-15T06:41:23.320936",
      "2022-08-15T06:41:28.340720",
      "2022-08-15T06:41:33.336856",
      "2022-08-15T06:41:38.359383",
      "2022-08-15T06:41:43.360478",
      "2022-08-15T06:41:48.354271",
      "2022-08-15T06:41:53.357049",
      "2022-08-15T06:41:58.412976",
      "2022-08-15T06:42:03.421790",
      "2022-08-15T06:42:08.456114",
      "2022-08-15T06:42:13.458784",
      "2022-08-15T06:42:18.508953",
      "2022-08-15T06:42:23.535640",
      "2022-08-15T06:42:28.553257",
      "2022-08-15T06:42:33.559901",
      "2022-08-15T06:42:38.588332",
      "2022-08-15T06:42:43.621888",
      "2022-08-15T06:42:48.620308",
      "2022-08-15T06:42:53.593556",
      "2022-08-15T06:42:58.586748",
      "2022-08-15T06:43:03.548003",
      "2022-08-15T06:43:08.530586",
      "2022-08-15T06:43:13.530734",
      "2022-08-15T06:43:18.501636",
      "2022-08-15T06:43:23.489849",
      "2022-08-15T06:43:28.488599",
      "2022-08-15T06:43:33.476381",
      "2022-08-15T06:43:38.477939",
      "2022-08-15T06:43:43.465964",
      "2022-08-15T06:43:48.450034",
      "2022-08-15T06:43:53.440639",
      "2022-08-15T06:43:58.447932",
      "2022-08-15T06:44:03.502431",
      "2022-08-15T06:44:08.488354",
      "2022-08-15T06:44:13.508341",
      "2022-08-15T06:44:18.499689",
      "2022-08-15T06:44:23.476543"
    ],
    "values": [
      8.710370687907927,
      6.753285908152638,
      5.516146964077494,
      4.5029946373700565,
      3.9549163477293217,
      3.5024821992394197,
      3.3902464513875334,
      3.327837172662289,
      3.0374401272680718,
      2.740542157707218,
      2.634798626551819,
      2.7813586170325455,
      2.307924408572412,
      2.295642086935884,
      2.3108924179179846,
      2.2694622107000346,
      2.008667859713083,
      2.4716589148572736,
      1.9849603481242297,
      2.1162709024064115,
      2.181662818137715,
      2.131776253419921,
      1.9708783398233143,
      1.8923245164224505,
      2.187152770795616,
      2.314311106794074,
      1.9151105205839178,
      1.7083796780412468,
      1.9716097479536352,
      1.8402264978720788,
      1.943525371011054,
      1.7295109364142518,
      1.9304037214591252,
      1.8698666854740358,
      1.6855688385296768,
      1.7132078948635356,
      1.8483326777139553,
      1.7538654046490407,
      1.7827796607935278,
      1.9188925924485085,
      1.7102159091045848,
      1.716140055253028,
      1.6452185337139655,
      1.6932088464839075,
      1.7587613460092997,
      1.9042517773797025,
      1.8495804745951787,
      1.754747841705339,
      1.8614141638044026,
      1.6123381505208707,
      1.6371838581247307,
      1.5897078136131413,
      2.4460149923552112,
      1.7587645353374433,
      1.6680365777698472,
      1.7032443382832614,
      1.5928333761272273,
      1.8798410802188572,
      1.613092962034685,
      1.8011033304730655,
      1.965508262238382,
      1.6248087023954119,
      1.5531923225163504,
      1.6798687788941729,
      1.6867642870997286,
      1.8105455894315523,
      1.5560332160803378,
      1.931876854142088,
      1.7072365144865844,
      1.778892520084757,
      1.589072414168176,
      1.7730420761134849,
      1.6788125344167628,
      1.6060153281012841,
      1.5860080494024489,
      1.7150425954098034,
      1.882723557494132,
      1.6899586138157312,
      1.8275379001638206,
      1.498295827397396,
      1.8351130995920009,
      1.7710517691601253,
      1.5269404478403568,
      1.5565470529536207,
      1.5515283220373077,
      1.7160043862626073,
      1.6093252334730652,
      1.731364683687069,
      1.6443179173585691,
      1.511562931770144,
      1.553894296617431,
      1.5591001937141342,
      1.6487217699039278,
      1.7792212277365482,
      1.628226550832973,
      1.7022538388104191,
      1.5553011436899595,
      1.4929521738792182,
      1.7694390313113397,
      1.5286668233793432,
      1.6056298144567034,
      1.653449839401022,
      1.482553084015638,
      1.5598198218698374,
      1.8566725347254371,
      1.5888055657775444,
      1.508094725145806,
      1.4882969827493921,
      1.773129467260017,
      1.7768109144085162,
      1.5786114599615417,
      1.6965751517916658,
      1.4778147588538801,
      1.7933606245837286,
      1.5056320019396239,
      1.525989866974337,
      1.4807715509829733,
      2.0306749966562196,
      1.450385213428384,
      1.8284634261598558,
      1.6693660681425753,
      1.4538784456626979,
      1.5123504394730372,
      1.5400636968530586,
      1.3473851132006627,
      1.3438995567707541,
      1.3375671634075257,
      1.3887848530334217,
      1.3390118620422362,
      1.3666396294304946,
      1.3464534171509774,
      1.3420339218309092,
      1.3463299459767217,
      1.4055959153298867,
      1.362124699879015,
      1.3519452032601749,
      1.3585459524506758,
      1.3374762393762074,
      1.354150870656229,
      1.3469061021479483,
      1.3237964247658243,
      1.348356487214491,
      1.3329337025200696,
      1.3246401505594605,
      1.3330492189362873,
      1.3372109511380104,
      1.3336594365076362,
      1.356033822732134,
      1.3288793011689208,
      1.3524450427645018,
      1.3207447060529622,
      1.350221031654495,
      1.3656072230285397,
      1.3219420081929285,
      1.3567548078312672,
      1.3743446420086152,
      1.3142811192773527,
      1.323692124503957,
      1.3263223954189718,
      1.3455544498780032,
      1.3327421427546495,
      1.3123614483543142,
      1.341148134282882,
      1.327182564729185,
      1.3563118670706695,
      1.3387224761567227,
      1.3318632421080734,
      1.3199783603208624,
      1.3240389648801931,
      1.3606926688102334,
      1.3130279244599417,
      1.310569624140122,
      1.2969669763399472,
      1.353185505184387,
      1.339751784387384,
      1.5004415536897695,
      1.3221338303370063,
      1.3355267640573236,
      1.3573970340580415,
      1.3483563399280842,
      1.3226266526198824,
      1.3318130074202839,
      1.3444493653068874,
      1.340722001915458,
      1.366044299057175,
      1.3582504308903691,
      1.3141155938444242,
      1.3052627709428934,
      1.303393055280257,
      1.3156708528408905,
      1.339797265529605,
      1.3110861148702444,
      1.3047164983264574,
      1.3482711621626031,
      1.5254218610640027,
      1.3343702952780052,
      1.3107531972555662,
      1.3675642237141636,
      1.328843061286116,
      1.3117787691492768,
      1.3225784483652987,
      1.3563422794603468,
      1.3850423778391694,
      1.3502185790042385,
      1.3186988607503998,
      1.3606209953512733,
      1.3117167403225662,
      1.3279182513308334,
      1.2900372823558248,
      1.3101208570939125,
      1.3150941087062586,
      1.3186747040002311,
      1.315943265648513,
      1.3493471155772314,
      1.3086884599436155,
      1.3028120067496183,
      1.3383965713016084,
      1.3307533859331304,
      1.3251649181283096,
      1.3460708583211471,
      1.3202541583640255,
      1.3332065891278608,
      1.3108544800788113,
      1.3182164291370122,
      1.2980156402186218,
      1.3305268738658982,
      1.3340846883005788,
      1.3571657574834233,
      1.2986435414855313,
      1.3116135671965372,
      1.2748971486133351,
      1.2799001532653265,
      1.2745765088878689,
      1.281995108568103,
      1.271337462928301,
      1.2718397537401631,
      1.2753228062079336,
      1.2695650157274354,
      1.2787573235464105,
      1.2738215316615635,
      1.274005506206602,
      1.2712532383658126,
      1.2700336453909085,
      1.2725748112708255,
      1.2691673673235448,
      1.2718908844271812,
      1.270397732083158,
      1.2790059704436605,
      1.27043299863975,
      1.2758534794147907,
      1.2816071336102608,
      1.2709865010264776,
      1.2709900776639689,
      1.2690409170428922,
      1.2684995595694797,
      1.2808784369909376,
      1.271179732322438,
      1.267095411770699,
      1.2672116863336804,
      1.266960293803973,
      1.267406858517621,
      1.266667363810376,
      1.2672206478084305,
      1.2675562071213216,
      1.2682095120059573,
      1.267078540932782,
      1.267809235366741,
      1.2672044000044225,
      1.2674888309278687,
      1.2669902305512015,
      1.267378310363324,
      1.2675749020402653,
      1.2670167337303402,
      1.2670153720232915,
      1.2685528907512111,
      1.2669585243057317,
      1.2671411206448755,
      1.2671040242398912,
      1.2672000770302083,
      1.2670817695337302,
      1.267631198833644,
      1.2674425536373988,
      1.2673519599543095,
      1.2673438332557443,
      1.2683570380316112,
      1.2676565579662533,
      1.2680476390573332,
      1.2677431785943554,
      1.2669422902590344,
      1.267436919532439,
      1.267040769342637,
      1.2669765646272662,
      1.2669348527938697,
      1.2668540103094283,
      1.266960806342202,
      1.266922344731454,
      1.266959167156673,
      1.2669848758690387,
      1.2670143233422442,
      1.2669555390785987
    ]
  }
}