INFO - siren_vae - Running command 'run'
INFO - siren_vae - Started run with ID "1"
[ENCODED STRUCTURE] Using faithful BN structure.
  0%|          | 0/600 [00:00<?, ?it/s]Train -ELBO: 78.090, Val -ELBO: 78.858:   0%|          | 1/600 [00:01<10:27,  1.05s/it]Train -ELBO: 74.000, Val -ELBO: 75.218:   0%|          | 3/600 [00:02<07:05,  1.40it/s]Train -ELBO: 70.315, Val -ELBO: 71.342:   1%|          | 5/600 [00:03<06:25,  1.54it/s]Train -ELBO: 67.117, Val -ELBO: 67.793:   1%|          | 7/600 [00:04<06:08,  1.61it/s]Train -ELBO: 63.800, Val -ELBO: 64.302:   2%|▏         | 9/600 [00:05<06:16,  1.57it/s]Train -ELBO: 60.497, Val -ELBO: 61.140:   2%|▏         | 11/600 [00:07<06:06,  1.61it/s]Train -ELBO: 57.989, Val -ELBO: 58.463:   2%|▏         | 13/600 [00:08<06:00,  1.63it/s]Train -ELBO: 55.749, Val -ELBO: 56.206:   2%|▎         | 15/600 [00:09<05:55,  1.65it/s]Train -ELBO: 54.205, Val -ELBO: 54.429:   3%|▎         | 17/600 [00:10<05:49,  1.67it/s]Train -ELBO: 52.581, Val -ELBO: 53.224:   3%|▎         | 19/600 [00:11<05:45,  1.68it/s]Train -ELBO: 51.922, Val -ELBO: 52.432:   4%|▎         | 21/600 [00:12<05:42,  1.69it/s]Train -ELBO: 51.172, Val -ELBO: 51.552:   4%|▍         | 23/600 [00:14<05:40,  1.69it/s]Train -ELBO: 50.490, Val -ELBO: 50.845:   4%|▍         | 25/600 [00:15<05:38,  1.70it/s]Train -ELBO: 49.978, Val -ELBO: 50.232:   4%|▍         | 27/600 [00:16<05:38,  1.69it/s]Train -ELBO: 49.040, Val -ELBO: 49.420:   5%|▍         | 29/600 [00:17<05:36,  1.70it/s]Train -ELBO: 48.130, Val -ELBO: 48.743:   5%|▌         | 31/600 [00:18<05:36,  1.69it/s]Train -ELBO: 47.406, Val -ELBO: 48.109:   6%|▌         | 33/600 [00:20<05:35,  1.69it/s]Train -ELBO: 46.860, Val -ELBO: 47.566:   6%|▌         | 35/600 [00:21<05:33,  1.69it/s]Train -ELBO: 46.056, Val -ELBO: 46.986:   6%|▌         | 37/600 [00:22<05:31,  1.70it/s]Train -ELBO: 45.784, Val -ELBO: 46.459:   6%|▋         | 39/600 [00:23<05:29,  1.70it/s]Train -ELBO: 45.350, Val -ELBO: 45.818:   7%|▋         | 41/600 [00:24<05:27,  1.71it/s]Train -ELBO: 44.491, Val -ELBO: 45.354:   7%|▋         | 43/600 [00:25<05:25,  1.71it/s]Train -ELBO: 44.150, Val -ELBO: 44.851:   8%|▊         | 45/600 [00:27<05:24,  1.71it/s]Train -ELBO: 43.968, Val -ELBO: 44.411:   8%|▊         | 47/600 [00:28<05:22,  1.71it/s]Train -ELBO: 43.253, Val -ELBO: 44.082:   8%|▊         | 49/600 [00:29<05:21,  1.71it/s]Train -ELBO: 42.722, Val -ELBO: 43.620:   8%|▊         | 51/600 [00:30<05:20,  1.71it/s]Train -ELBO: 42.350, Val -ELBO: 43.194:   9%|▉         | 53/600 [00:31<05:18,  1.72it/s]Train -ELBO: 41.783, Val -ELBO: 42.785:   9%|▉         | 55/600 [00:32<05:18,  1.71it/s]Train -ELBO: 41.560, Val -ELBO: 42.417:  10%|▉         | 57/600 [00:34<05:17,  1.71it/s]Train -ELBO: 41.127, Val -ELBO: 42.152:  10%|▉         | 59/600 [00:35<05:15,  1.71it/s]Train -ELBO: 40.964, Val -ELBO: 41.965:  10%|█         | 61/600 [00:36<05:14,  1.71it/s]Train -ELBO: 40.773, Val -ELBO: 41.567:  10%|█         | 63/600 [00:37<05:13,  1.71it/s]Train -ELBO: 40.230, Val -ELBO: 41.454:  11%|█         | 65/600 [00:38<05:13,  1.71it/s]Train -ELBO: 40.101, Val -ELBO: 41.681:  11%|█         | 67/600 [00:39<05:11,  1.71it/s]Train -ELBO: 40.199, Val -ELBO: 41.284:  12%|█▏        | 69/600 [00:41<05:10,  1.71it/s]Train -ELBO: 39.876, Val -ELBO: 41.151:  12%|█▏        | 71/600 [00:42<05:09,  1.71it/s]Train -ELBO: 39.850, Val -ELBO: 41.122:  12%|█▏        | 73/600 [00:43<05:08,  1.71it/s]Train -ELBO: 40.115, Val -ELBO: 41.121:  12%|█▎        | 75/600 [00:44<05:06,  1.71it/s]Train -ELBO: 39.447, Val -ELBO: 40.687:  13%|█▎        | 77/600 [00:45<05:05,  1.71it/s]Train -ELBO: 39.377, Val -ELBO: 40.511:  13%|█▎        | 79/600 [00:46<05:04,  1.71it/s]Train -ELBO: 39.541, Val -ELBO: 40.606:  14%|█▎        | 81/600 [00:48<05:02,  1.71it/s]Train -ELBO: 39.188, Val -ELBO: 40.169:  14%|█▍        | 83/600 [00:49<05:02,  1.71it/s]Train -ELBO: 38.925, Val -ELBO: 40.058:  14%|█▍        | 85/600 [00:50<05:01,  1.71it/s]Train -ELBO: 39.077, Val -ELBO: 40.519:  14%|█▍        | 87/600 [00:51<05:00,  1.71it/s]Train -ELBO: 38.745, Val -ELBO: 40.094:  15%|█▍        | 89/600 [00:52<04:59,  1.71it/s]Train -ELBO: 38.937, Val -ELBO: 40.013:  15%|█▌        | 91/600 [00:53<04:57,  1.71it/s]Train -ELBO: 38.704, Val -ELBO: 40.144:  16%|█▌        | 93/600 [00:55<04:56,  1.71it/s]Train -ELBO: 38.881, Val -ELBO: 39.962:  16%|█▌        | 95/600 [00:56<04:55,  1.71it/s]Train -ELBO: 38.718, Val -ELBO: 40.093:  16%|█▌        | 97/600 [00:57<04:54,  1.71it/s]Train -ELBO: 38.560, Val -ELBO: 39.907:  16%|█▋        | 99/600 [00:58<04:53,  1.71it/s]Train -ELBO: 38.202, Val -ELBO: 39.517:  17%|█▋        | 101/600 [00:59<04:52,  1.70it/s]Train -ELBO: 38.595, Val -ELBO: 39.604:  17%|█▋        | 103/600 [01:00<04:51,  1.71it/s]Train -ELBO: 38.430, Val -ELBO: 39.557:  18%|█▊        | 105/600 [01:02<04:49,  1.71it/s]Train -ELBO: 38.221, Val -ELBO: 39.409:  18%|█▊        | 107/600 [01:03<04:48,  1.71it/s]Train -ELBO: 38.062, Val -ELBO: 39.378:  18%|█▊        | 109/600 [01:04<04:47,  1.71it/s]Train -ELBO: 38.038, Val -ELBO: 39.356:  18%|█▊        | 111/600 [01:05<04:46,  1.71it/s]Train -ELBO: 38.023, Val -ELBO: 39.444:  19%|█▉        | 113/600 [01:06<04:44,  1.71it/s]Train -ELBO: 37.849, Val -ELBO: 39.378:  19%|█▉        | 115/600 [01:08<04:43,  1.71it/s]Train -ELBO: 37.863, Val -ELBO: 39.292:  20%|█▉        | 117/600 [01:09<04:43,  1.71it/s]Train -ELBO: 37.751, Val -ELBO: 39.438:  20%|█▉        | 119/600 [01:10<04:42,  1.70it/s]Train -ELBO: 37.920, Val -ELBO: 39.405:  20%|██        | 121/600 [01:11<04:43,  1.69it/s]Train -ELBO: 37.976, Val -ELBO: 39.058:  20%|██        | 123/600 [01:12<04:42,  1.69it/s]Train -ELBO: 37.746, Val -ELBO: 39.253:  21%|██        | 125/600 [01:13<04:40,  1.70it/s]Train -ELBO: 37.645, Val -ELBO: 39.004:  21%|██        | 127/600 [01:15<04:40,  1.68it/s]Train -ELBO: 37.728, Val -ELBO: 39.053:  22%|██▏       | 129/600 [01:16<04:39,  1.68it/s]Train -ELBO: 37.462, Val -ELBO: 38.985:  22%|██▏       | 131/600 [01:17<04:38,  1.68it/s]Train -ELBO: 37.751, Val -ELBO: 39.076:  22%|██▏       | 133/600 [01:18<04:37,  1.68it/s]Train -ELBO: 37.629, Val -ELBO: 38.929:  22%|██▎       | 135/600 [01:19<04:39,  1.66it/s]Train -ELBO: 37.640, Val -ELBO: 39.110:  23%|██▎       | 137/600 [01:21<04:38,  1.66it/s]Train -ELBO: 37.552, Val -ELBO: 38.934:  23%|██▎       | 139/600 [01:22<04:37,  1.66it/s]Train -ELBO: 37.379, Val -ELBO: 38.837:  24%|██▎       | 141/600 [01:23<04:35,  1.67it/s]Train -ELBO: 37.500, Val -ELBO: 38.930:  24%|██▍       | 143/600 [01:24<04:33,  1.67it/s]Train -ELBO: 37.301, Val -ELBO: 38.822:  24%|██▍       | 145/600 [01:25<04:33,  1.67it/s]Train -ELBO: 37.324, Val -ELBO: 39.159:  24%|██▍       | 147/600 [01:27<04:32,  1.66it/s]Train -ELBO: 37.428, Val -ELBO: 38.961:  25%|██▍       | 149/600 [01:28<04:31,  1.66it/s]Train -ELBO: 37.100, Val -ELBO: 38.727:  25%|██▌       | 151/600 [01:29<04:29,  1.66it/s]Train -ELBO: 37.405, Val -ELBO: 38.751:  26%|██▌       | 153/600 [01:30<04:32,  1.64it/s]Train -ELBO: 37.369, Val -ELBO: 38.680:  26%|██▌       | 155/600 [01:31<04:28,  1.66it/s]Train -ELBO: 37.316, Val -ELBO: 38.689:  26%|██▌       | 157/600 [01:33<04:25,  1.67it/s]Train -ELBO: 37.139, Val -ELBO: 38.585:  26%|██▋       | 159/600 [01:34<04:23,  1.68it/s]Train -ELBO: 37.120, Val -ELBO: 38.663:  27%|██▋       | 161/600 [01:35<04:20,  1.68it/s]Train -ELBO: 37.157, Val -ELBO: 38.640:  27%|██▋       | 163/600 [01:36<04:19,  1.69it/s]Train -ELBO: 37.207, Val -ELBO: 38.703:  28%|██▊       | 165/600 [01:37<04:17,  1.69it/s]Train -ELBO: 37.042, Val -ELBO: 38.695:  28%|██▊       | 167/600 [01:39<04:16,  1.69it/s]Train -ELBO: 36.878, Val -ELBO: 38.539:  28%|██▊       | 169/600 [01:40<04:15,  1.68it/s]Train -ELBO: 36.967, Val -ELBO: 38.557:  28%|██▊       | 171/600 [01:41<04:15,  1.68it/s]Train -ELBO: 36.970, Val -ELBO: 38.669:  29%|██▉       | 173/600 [01:42<04:13,  1.68it/s]Train -ELBO: 37.005, Val -ELBO: 38.550:  29%|██▉       | 175/600 [01:43<04:13,  1.67it/s]Train -ELBO: 36.838, Val -ELBO: 38.593:  30%|██▉       | 177/600 [01:45<04:13,  1.67it/s]Train -ELBO: 36.911, Val -ELBO: 38.637:  30%|██▉       | 179/600 [01:46<04:11,  1.68it/s]Train -ELBO: 36.958, Val -ELBO: 38.553:  30%|███       | 181/600 [01:47<04:10,  1.68it/s]Train -ELBO: 36.973, Val -ELBO: 38.546:  30%|███       | 183/600 [01:48<04:08,  1.68it/s]Train -ELBO: 36.819, Val -ELBO: 38.535:  31%|███       | 185/600 [01:49<04:10,  1.66it/s]Train -ELBO: 36.776, Val -ELBO: 38.421:  31%|███       | 187/600 [01:51<04:08,  1.67it/s]Train -ELBO: 36.713, Val -ELBO: 38.490:  32%|███▏      | 189/600 [01:52<04:05,  1.67it/s]Train -ELBO: 36.784, Val -ELBO: 38.506:  32%|███▏      | 191/600 [01:53<04:03,  1.68it/s]Train -ELBO: 36.768, Val -ELBO: 38.515:  32%|███▏      | 193/600 [01:54<04:03,  1.67it/s]Train -ELBO: 36.481, Val -ELBO: 38.502:  32%|███▎      | 195/600 [01:55<03:59,  1.69it/s]Train -ELBO: 36.639, Val -ELBO: 38.531:  33%|███▎      | 197/600 [01:56<03:57,  1.69it/s]Train -ELBO: 36.645, Val -ELBO: 38.486:  33%|███▎      | 199/600 [01:58<03:56,  1.70it/s]Train -ELBO: 36.639, Val -ELBO: 38.536:  34%|███▎      | 201/600 [01:59<03:54,  1.70it/s]Train -ELBO: 36.792, Val -ELBO: 38.503:  34%|███▍      | 203/600 [02:00<03:54,  1.69it/s]Train -ELBO: 36.653, Val -ELBO: 38.507:  34%|███▍      | 205/600 [02:01<03:53,  1.69it/s]Train -ELBO: 36.582, Val -ELBO: 38.472:  34%|███▍      | 207/600 [02:02<03:51,  1.69it/s]Train -ELBO: 36.695, Val -ELBO: 38.444:  35%|███▍      | 209/600 [02:04<03:51,  1.69it/s]Train -ELBO: 36.599, Val -ELBO: 38.387:  35%|███▌      | 211/600 [02:05<03:50,  1.69it/s]Train -ELBO: 36.475, Val -ELBO: 38.397:  36%|███▌      | 213/600 [02:06<03:47,  1.70it/s]Train -ELBO: 36.704, Val -ELBO: 38.533:  36%|███▌      | 215/600 [02:07<03:46,  1.70it/s]Train -ELBO: 36.544, Val -ELBO: 38.441:  36%|███▌      | 217/600 [02:08<03:44,  1.70it/s]Train -ELBO: 36.660, Val -ELBO: 38.426:  36%|███▋      | 219/600 [02:09<03:43,  1.71it/s]Train -ELBO: 36.546, Val -ELBO: 38.363:  37%|███▋      | 221/600 [02:11<03:41,  1.71it/s]Train -ELBO: 36.585, Val -ELBO: 38.351:  37%|███▋      | 223/600 [02:12<03:40,  1.71it/s]Train -ELBO: 36.745, Val -ELBO: 38.446:  38%|███▊      | 225/600 [02:13<03:39,  1.71it/s]Train -ELBO: 36.621, Val -ELBO: 38.414:  38%|███▊      | 227/600 [02:14<03:38,  1.71it/s]Train -ELBO: 36.553, Val -ELBO: 38.413:  38%|███▊      | 229/600 [02:15<03:36,  1.71it/s]Train -ELBO: 36.495, Val -ELBO: 38.464:  38%|███▊      | 231/600 [02:16<03:35,  1.71it/s]Train -ELBO: 36.389, Val -ELBO: 38.466:  39%|███▉      | 233/600 [02:18<03:34,  1.71it/s]Train -ELBO: 36.794, Val -ELBO: 38.415:  39%|███▉      | 235/600 [02:19<03:33,  1.71it/s]Train -ELBO: 36.335, Val -ELBO: 38.513:  40%|███▉      | 237/600 [02:20<03:32,  1.71it/s]Train -ELBO: 36.430, Val -ELBO: 38.420:  40%|███▉      | 239/600 [02:21<03:30,  1.71it/s]Train -ELBO: 36.362, Val -ELBO: 38.403:  40%|████      | 241/600 [02:22<03:29,  1.71it/s]Train -ELBO: 36.309, Val -ELBO: 38.407:  40%|████      | 243/600 [02:23<03:28,  1.71it/s]Train -ELBO: 36.458, Val -ELBO: 38.520:  41%|████      | 245/600 [02:25<03:27,  1.71it/s]Train -ELBO: 36.538, Val -ELBO: 38.283:  41%|████      | 247/600 [02:26<03:26,  1.71it/s]Train -ELBO: 36.508, Val -ELBO: 38.496:  42%|████▏     | 249/600 [02:27<03:25,  1.71it/s]Train -ELBO: 36.363, Val -ELBO: 38.446:  42%|████▏     | 251/600 [02:28<03:24,  1.71it/s]Train -ELBO: 36.246, Val -ELBO: 38.400:  42%|████▏     | 253/600 [02:29<03:23,  1.70it/s]Train -ELBO: 36.149, Val -ELBO: 38.332:  42%|████▎     | 255/600 [02:30<03:22,  1.71it/s]Train -ELBO: 36.235, Val -ELBO: 38.340:  43%|████▎     | 257/600 [02:32<03:20,  1.71it/s]Train -ELBO: 36.343, Val -ELBO: 38.488:  43%|████▎     | 259/600 [02:33<03:19,  1.71it/s]Train -ELBO: 36.323, Val -ELBO: 38.352:  44%|████▎     | 261/600 [02:34<03:18,  1.71it/s]Train -ELBO: 36.314, Val -ELBO: 38.269:  44%|████▍     | 263/600 [02:35<03:17,  1.71it/s]Train -ELBO: 36.159, Val -ELBO: 38.292:  44%|████▍     | 265/600 [02:36<03:16,  1.71it/s]Train -ELBO: 36.142, Val -ELBO: 38.257:  44%|████▍     | 267/600 [02:37<03:14,  1.71it/s]Train -ELBO: 36.095, Val -ELBO: 38.235:  45%|████▍     | 269/600 [02:39<03:13,  1.71it/s]Train -ELBO: 36.079, Val -ELBO: 38.310:  45%|████▌     | 271/600 [02:40<03:12,  1.71it/s]Train -ELBO: 36.178, Val -ELBO: 38.467:  46%|████▌     | 273/600 [02:41<03:11,  1.71it/s]Train -ELBO: 36.454, Val -ELBO: 38.494:  46%|████▌     | 275/600 [02:42<03:10,  1.71it/s]Train -ELBO: 36.023, Val -ELBO: 38.153:  46%|████▌     | 277/600 [02:43<03:08,  1.71it/s]Train -ELBO: 36.266, Val -ELBO: 38.316:  46%|████▋     | 279/600 [02:44<03:07,  1.71it/s]Train -ELBO: 36.058, Val -ELBO: 38.218:  47%|████▋     | 281/600 [02:46<03:06,  1.71it/s]Train -ELBO: 36.077, Val -ELBO: 38.210:  47%|████▋     | 283/600 [02:47<03:05,  1.71it/s]Train -ELBO: 35.917, Val -ELBO: 38.154:  48%|████▊     | 285/600 [02:48<03:04,  1.71it/s]Train -ELBO: 35.721, Val -ELBO: 38.064:  48%|████▊     | 287/600 [02:49<03:02,  1.71it/s]Train -ELBO: 35.765, Val -ELBO: 38.111:  48%|████▊     | 289/600 [02:50<03:01,  1.71it/s]Train -ELBO: 35.978, Val -ELBO: 38.055:  48%|████▊     | 291/600 [02:52<03:00,  1.71it/s]Train -ELBO: 35.906, Val -ELBO: 38.028:  49%|████▉     | 293/600 [02:53<02:59,  1.71it/s]Train -ELBO: 35.859, Val -ELBO: 38.139:  49%|████▉     | 295/600 [02:54<02:58,  1.71it/s]Train -ELBO: 35.602, Val -ELBO: 38.117:  50%|████▉     | 297/600 [02:55<02:57,  1.71it/s]Train -ELBO: 35.494, Val -ELBO: 38.124:  50%|████▉     | 299/600 [02:56<02:55,  1.71it/s]Train -ELBO: 35.749, Val -ELBO: 38.007:  50%|█████     | 301/600 [02:57<02:54,  1.71it/s]Train -ELBO: 35.674, Val -ELBO: 38.023:  50%|█████     | 303/600 [02:59<02:53,  1.71it/s]Train -ELBO: 35.745, Val -ELBO: 37.994:  51%|█████     | 305/600 [03:00<02:52,  1.71it/s]Train -ELBO: 35.825, Val -ELBO: 38.011:  51%|█████     | 307/600 [03:01<02:51,  1.71it/s]Train -ELBO: 35.502, Val -ELBO: 38.046:  52%|█████▏    | 309/600 [03:02<02:50,  1.71it/s]Train -ELBO: 35.694, Val -ELBO: 38.038:  52%|█████▏    | 311/600 [03:03<02:49,  1.71it/s]Train -ELBO: 35.620, Val -ELBO: 37.933:  52%|█████▏    | 313/600 [03:04<02:48,  1.71it/s]Train -ELBO: 35.624, Val -ELBO: 37.967:  52%|█████▎    | 315/600 [03:06<02:46,  1.71it/s]Train -ELBO: 35.641, Val -ELBO: 37.974:  53%|█████▎    | 317/600 [03:07<02:45,  1.71it/s]Train -ELBO: 35.446, Val -ELBO: 38.039:  53%|█████▎    | 319/600 [03:08<02:44,  1.71it/s]Train -ELBO: 35.697, Val -ELBO: 38.094:  54%|█████▎    | 321/600 [03:09<02:42,  1.71it/s]Train -ELBO: 35.486, Val -ELBO: 38.057:  54%|█████▍    | 323/600 [03:10<02:41,  1.71it/s]Train -ELBO: 35.576, Val -ELBO: 38.006:  54%|█████▍    | 325/600 [03:11<02:40,  1.71it/s]Train -ELBO: 35.692, Val -ELBO: 38.018:  55%|█████▍    | 327/600 [03:13<02:39,  1.72it/s]Train -ELBO: 35.563, Val -ELBO: 38.130:  55%|█████▍    | 329/600 [03:14<02:38,  1.71it/s]Train -ELBO: 35.496, Val -ELBO: 38.034:  55%|█████▌    | 331/600 [03:15<02:36,  1.71it/s]Train -ELBO: 35.600, Val -ELBO: 37.960:  56%|█████▌    | 333/600 [03:16<02:35,  1.72it/s]Train -ELBO: 35.795, Val -ELBO: 38.012:  56%|█████▌    | 335/600 [03:17<02:34,  1.72it/s]Train -ELBO: 35.604, Val -ELBO: 38.046:  56%|█████▌    | 337/600 [03:18<02:33,  1.72it/s]Train -ELBO: 35.556, Val -ELBO: 38.121:  56%|█████▋    | 339/600 [03:20<02:32,  1.72it/s]Train -ELBO: 35.931, Val -ELBO: 38.146:  57%|█████▋    | 341/600 [03:21<02:30,  1.72it/s]Train -ELBO: 35.657, Val -ELBO: 38.149:  57%|█████▋    | 343/600 [03:22<02:29,  1.72it/s]Train -ELBO: 35.338, Val -ELBO: 38.133:  57%|█████▊    | 345/600 [03:23<02:28,  1.72it/s]Train -ELBO: 35.690, Val -ELBO: 38.137:  58%|█████▊    | 347/600 [03:24<02:27,  1.72it/s]Train -ELBO: 35.331, Val -ELBO: 37.939:  58%|█████▊    | 349/600 [03:25<02:26,  1.71it/s]Train -ELBO: 35.556, Val -ELBO: 38.029:  58%|█████▊    | 351/600 [03:27<02:24,  1.72it/s]Train -ELBO: 35.262, Val -ELBO: 38.128:  59%|█████▉    | 353/600 [03:28<02:23,  1.72it/s]Train -ELBO: 35.522, Val -ELBO: 38.117:  59%|█████▉    | 355/600 [03:29<02:22,  1.72it/s]Train -ELBO: 35.357, Val -ELBO: 37.991:  60%|█████▉    | 357/600 [03:30<02:21,  1.71it/s]Train -ELBO: 35.446, Val -ELBO: 38.006:  60%|█████▉    | 359/600 [03:31<02:20,  1.71it/s]Train -ELBO: 35.307, Val -ELBO: 38.099:  60%|██████    | 361/600 [03:32<02:19,  1.71it/s]Train -ELBO: 35.647, Val -ELBO: 38.047:  60%|██████    | 363/600 [03:34<02:18,  1.71it/s]Train -ELBO: 35.639, Val -ELBO: 38.116:  61%|██████    | 365/600 [03:35<02:17,  1.71it/s]Train -ELBO: 35.446, Val -ELBO: 38.072:  61%|██████    | 367/600 [03:36<02:16,  1.71it/s]Train -ELBO: 35.347, Val -ELBO: 38.063:  62%|██████▏   | 369/600 [03:37<02:15,  1.71it/s]Train -ELBO: 35.613, Val -ELBO: 37.993:  62%|██████▏   | 371/600 [03:38<02:13,  1.71it/s]Train -ELBO: 35.271, Val -ELBO: 37.922:  62%|██████▏   | 373/600 [03:39<02:12,  1.71it/s]Epoch   374: reducing learning rate of group 0 to 1.0000e-03.
Train -ELBO: 35.510, Val -ELBO: 38.038:  62%|██████▎   | 375/600 [03:41<02:11,  1.71it/s]Train -ELBO: 35.478, Val -ELBO: 37.983:  63%|██████▎   | 377/600 [03:42<02:10,  1.71it/s]Train -ELBO: 35.174, Val -ELBO: 37.902:  63%|██████▎   | 379/600 [03:43<02:09,  1.71it/s]Train -ELBO: 35.049, Val -ELBO: 37.809:  64%|██████▎   | 381/600 [03:44<02:07,  1.71it/s]Train -ELBO: 35.193, Val -ELBO: 37.803:  64%|██████▍   | 383/600 [03:45<02:06,  1.71it/s]Train -ELBO: 35.077, Val -ELBO: 37.782:  64%|██████▍   | 385/600 [03:46<02:05,  1.71it/s]Train -ELBO: 35.171, Val -ELBO: 37.814:  64%|██████▍   | 387/600 [03:48<02:04,  1.71it/s]Train -ELBO: 35.148, Val -ELBO: 37.790:  65%|██████▍   | 389/600 [03:49<02:03,  1.71it/s]Train -ELBO: 35.071, Val -ELBO: 37.758:  65%|██████▌   | 391/600 [03:50<02:02,  1.71it/s]Train -ELBO: 34.989, Val -ELBO: 37.766:  66%|██████▌   | 393/600 [03:51<02:01,  1.71it/s]Train -ELBO: 34.971, Val -ELBO: 37.734:  66%|██████▌   | 395/600 [03:52<01:59,  1.71it/s]Train -ELBO: 35.132, Val -ELBO: 37.780:  66%|██████▌   | 397/600 [03:53<01:58,  1.71it/s]Train -ELBO: 35.030, Val -ELBO: 37.771:  66%|██████▋   | 399/600 [03:55<01:57,  1.71it/s]Train -ELBO: 35.038, Val -ELBO: 37.738:  67%|██████▋   | 401/600 [03:56<01:56,  1.71it/s]Train -ELBO: 34.946, Val -ELBO: 37.738:  67%|██████▋   | 403/600 [03:57<01:55,  1.71it/s]Train -ELBO: 35.082, Val -ELBO: 37.779:  68%|██████▊   | 405/600 [03:58<01:54,  1.71it/s]Train -ELBO: 35.213, Val -ELBO: 37.795:  68%|██████▊   | 407/600 [03:59<01:52,  1.71it/s]Train -ELBO: 35.092, Val -ELBO: 37.770:  68%|██████▊   | 409/600 [04:00<01:51,  1.71it/s]Train -ELBO: 35.020, Val -ELBO: 37.708:  68%|██████▊   | 411/600 [04:02<01:50,  1.71it/s]Train -ELBO: 35.099, Val -ELBO: 37.753:  69%|██████▉   | 413/600 [04:03<01:49,  1.71it/s]Train -ELBO: 34.978, Val -ELBO: 37.737:  69%|██████▉   | 415/600 [04:04<01:47,  1.71it/s]Train -ELBO: 35.187, Val -ELBO: 37.752:  70%|██████▉   | 417/600 [04:05<01:46,  1.71it/s]Train -ELBO: 35.011, Val -ELBO: 37.721:  70%|██████▉   | 419/600 [04:06<01:45,  1.71it/s]Train -ELBO: 35.026, Val -ELBO: 37.725:  70%|███████   | 421/600 [04:07<01:44,  1.71it/s]Train -ELBO: 34.902, Val -ELBO: 37.741:  70%|███████   | 423/600 [04:09<01:43,  1.71it/s]Train -ELBO: 35.085, Val -ELBO: 37.739:  71%|███████   | 425/600 [04:10<01:42,  1.71it/s]Train -ELBO: 34.965, Val -ELBO: 37.740:  71%|███████   | 427/600 [04:11<01:41,  1.71it/s]Train -ELBO: 35.035, Val -ELBO: 37.741:  72%|███████▏  | 429/600 [04:12<01:39,  1.71it/s]Train -ELBO: 35.117, Val -ELBO: 37.757:  72%|███████▏  | 431/600 [04:13<01:38,  1.71it/s]Train -ELBO: 35.057, Val -ELBO: 37.753:  72%|███████▏  | 433/600 [04:14<01:37,  1.70it/s]Train -ELBO: 34.977, Val -ELBO: 37.768:  72%|███████▎  | 435/600 [04:16<01:36,  1.71it/s]Train -ELBO: 35.080, Val -ELBO: 37.748:  73%|███████▎  | 437/600 [04:17<01:35,  1.71it/s]Train -ELBO: 34.990, Val -ELBO: 37.783:  73%|███████▎  | 439/600 [04:18<01:34,  1.71it/s]Train -ELBO: 34.983, Val -ELBO: 37.754:  74%|███████▎  | 441/600 [04:19<01:33,  1.71it/s]Train -ELBO: 35.074, Val -ELBO: 37.761:  74%|███████▍  | 443/600 [04:20<01:31,  1.71it/s]Epoch   444: reducing learning rate of group 0 to 1.0000e-04.
Train -ELBO: 35.075, Val -ELBO: 37.756:  74%|███████▍  | 445/600 [04:21<01:30,  1.71it/s]Train -ELBO: 34.985, Val -ELBO: 37.747:  74%|███████▍  | 447/600 [04:23<01:29,  1.71it/s]Train -ELBO: 34.874, Val -ELBO: 37.748:  75%|███████▍  | 449/600 [04:24<01:28,  1.71it/s]Train -ELBO: 34.971, Val -ELBO: 37.727:  75%|███████▌  | 451/600 [04:25<01:27,  1.71it/s]Train -ELBO: 35.092, Val -ELBO: 37.755:  76%|███████▌  | 453/600 [04:26<01:25,  1.71it/s]Train -ELBO: 34.934, Val -ELBO: 37.762:  76%|███████▌  | 455/600 [04:27<01:24,  1.71it/s]Train -ELBO: 35.029, Val -ELBO: 37.752:  76%|███████▌  | 457/600 [04:29<01:23,  1.71it/s]Train -ELBO: 35.011, Val -ELBO: 37.752:  76%|███████▋  | 459/600 [04:30<01:22,  1.71it/s]Train -ELBO: 35.066, Val -ELBO: 37.728:  77%|███████▋  | 461/600 [04:31<01:21,  1.71it/s]Train -ELBO: 35.006, Val -ELBO: 37.696:  77%|███████▋  | 463/600 [04:32<01:20,  1.71it/s]Train -ELBO: 35.017, Val -ELBO: 37.756:  78%|███████▊  | 465/600 [04:33<01:18,  1.71it/s]Train -ELBO: 35.007, Val -ELBO: 37.738:  78%|███████▊  | 467/600 [04:34<01:17,  1.71it/s]Train -ELBO: 34.973, Val -ELBO: 37.720:  78%|███████▊  | 469/600 [04:36<01:16,  1.71it/s]Epoch   470: reducing learning rate of group 0 to 1.0000e-05.
Train -ELBO: 35.156, Val -ELBO: 37.715:  78%|███████▊  | 471/600 [04:37<01:15,  1.71it/s]Train -ELBO: 34.956, Val -ELBO: 37.717:  79%|███████▉  | 473/600 [04:38<01:14,  1.70it/s]Train -ELBO: 34.972, Val -ELBO: 37.725:  79%|███████▉  | 475/600 [04:39<01:13,  1.70it/s]Train -ELBO: 34.920, Val -ELBO: 37.725:  80%|███████▉  | 477/600 [04:40<01:12,  1.70it/s]Train -ELBO: 35.036, Val -ELBO: 37.705:  80%|███████▉  | 479/600 [04:41<01:11,  1.68it/s]Train -ELBO: 34.879, Val -ELBO: 37.719:  80%|████████  | 481/600 [04:43<01:10,  1.69it/s]Train -ELBO: 34.919, Val -ELBO: 37.731:  80%|████████  | 483/600 [04:44<01:09,  1.69it/s]Train -ELBO: 35.049, Val -ELBO: 37.764:  81%|████████  | 485/600 [04:45<01:07,  1.70it/s]Train -ELBO: 35.049, Val -ELBO: 37.737:  81%|████████  | 487/600 [04:46<01:06,  1.70it/s]Train -ELBO: 35.201, Val -ELBO: 37.727:  82%|████████▏ | 489/600 [04:47<01:05,  1.71it/s]Epoch   491: reducing learning rate of group 0 to 1.0000e-06.
Train -ELBO: 35.058, Val -ELBO: 37.707:  82%|████████▏ | 491/600 [04:48<01:03,  1.70it/s]Train -ELBO: 34.887, Val -ELBO: 37.728:  82%|████████▏ | 493/600 [04:50<01:02,  1.70it/s]Train -ELBO: 34.902, Val -ELBO: 37.703:  82%|████████▎ | 495/600 [04:51<01:01,  1.70it/s]Train -ELBO: 34.966, Val -ELBO: 37.743:  83%|████████▎ | 497/600 [04:52<01:00,  1.70it/s]Train -ELBO: 34.951, Val -ELBO: 37.723:  83%|████████▎ | 499/600 [04:53<00:59,  1.71it/s]Train -ELBO: 34.941, Val -ELBO: 37.736:  84%|████████▎ | 501/600 [04:54<00:57,  1.71it/s]Train -ELBO: 35.003, Val -ELBO: 37.726:  84%|████████▍ | 503/600 [04:56<00:56,  1.71it/s]Train -ELBO: 34.938, Val -ELBO: 37.695:  84%|████████▍ | 505/600 [04:57<00:55,  1.71it/s]Train -ELBO: 34.973, Val -ELBO: 37.731:  84%|████████▍ | 507/600 [04:58<00:54,  1.71it/s]Train -ELBO: 34.918, Val -ELBO: 37.727:  85%|████████▍ | 509/600 [04:59<00:53,  1.71it/s]Train -ELBO: 35.093, Val -ELBO: 37.715:  85%|████████▌ | 511/600 [05:00<00:52,  1.71it/s]Train -ELBO: 35.003, Val -ELBO: 37.710:  86%|████████▌ | 513/600 [05:01<00:50,  1.71it/s]Train -ELBO: 34.907, Val -ELBO: 37.734:  86%|████████▌ | 515/600 [05:03<00:49,  1.71it/s]Train -ELBO: 35.084, Val -ELBO: 37.702:  86%|████████▌ | 517/600 [05:04<00:48,  1.71it/s]Train -ELBO: 34.919, Val -ELBO: 37.714:  86%|████████▋ | 519/600 [05:05<00:47,  1.71it/s]Train -ELBO: 34.962, Val -ELBO: 37.708:  87%|████████▋ | 521/600 [05:06<00:46,  1.71it/s]Train -ELBO: 34.928, Val -ELBO: 37.726:  87%|████████▋ | 523/600 [05:07<00:45,  1.71it/s]Train -ELBO: 35.041, Val -ELBO: 37.724:  88%|████████▊ | 525/600 [05:08<00:43,  1.71it/s]Train -ELBO: 35.020, Val -ELBO: 37.692:  88%|████████▊ | 527/600 [05:10<00:42,  1.71it/s]Train -ELBO: 35.026, Val -ELBO: 37.717:  88%|████████▊ | 529/600 [05:11<00:41,  1.70it/s]Train -ELBO: 35.182, Val -ELBO: 37.733:  88%|████████▊ | 531/600 [05:12<00:40,  1.70it/s]Train -ELBO: 34.909, Val -ELBO: 37.736:  89%|████████▉ | 533/600 [05:13<00:39,  1.70it/s]Train -ELBO: 35.032, Val -ELBO: 37.706:  89%|████████▉ | 535/600 [05:14<00:38,  1.70it/s]Train -ELBO: 35.038, Val -ELBO: 37.733:  90%|████████▉ | 537/600 [05:15<00:37,  1.70it/s]Train -ELBO: 35.079, Val -ELBO: 37.720:  90%|████████▉ | 539/600 [05:17<00:35,  1.70it/s]Train -ELBO: 34.900, Val -ELBO: 37.694:  90%|█████████ | 541/600 [05:18<00:34,  1.70it/s]Train -ELBO: 34.926, Val -ELBO: 37.723:  90%|█████████ | 543/600 [05:19<00:33,  1.70it/s]Train -ELBO: 35.042, Val -ELBO: 37.728:  91%|█████████ | 545/600 [05:20<00:32,  1.70it/s]Train -ELBO: 35.029, Val -ELBO: 37.710:  91%|█████████ | 547/600 [05:21<00:31,  1.70it/s]Train -ELBO: 34.977, Val -ELBO: 37.705:  92%|█████████▏| 549/600 [05:22<00:29,  1.70it/s]Train -ELBO: 34.955, Val -ELBO: 37.737:  92%|█████████▏| 551/600 [05:24<00:28,  1.70it/s]Train -ELBO: 34.953, Val -ELBO: 37.722:  92%|█████████▏| 553/600 [05:25<00:27,  1.71it/s]Train -ELBO: 34.943, Val -ELBO: 37.737:  92%|█████████▎| 555/600 [05:26<00:26,  1.71it/s]Train -ELBO: 34.996, Val -ELBO: 37.727:  93%|█████████▎| 557/600 [05:27<00:25,  1.71it/s]Train -ELBO: 35.005, Val -ELBO: 37.728:  93%|█████████▎| 559/600 [05:28<00:24,  1.71it/s]Train -ELBO: 34.999, Val -ELBO: 37.742:  94%|█████████▎| 561/600 [05:30<00:22,  1.71it/s]Train -ELBO: 35.068, Val -ELBO: 37.699:  94%|█████████▍| 563/600 [05:31<00:21,  1.71it/s]Train -ELBO: 35.051, Val -ELBO: 37.740:  94%|█████████▍| 565/600 [05:32<00:20,  1.71it/s]Train -ELBO: 34.945, Val -ELBO: 37.696:  94%|█████████▍| 567/600 [05:33<00:19,  1.71it/s]Train -ELBO: 34.909, Val -ELBO: 37.752:  95%|█████████▍| 569/600 [05:34<00:18,  1.71it/s]Train -ELBO: 34.887, Val -ELBO: 37.728:  95%|█████████▌| 571/600 [05:35<00:16,  1.71it/s]Train -ELBO: 34.945, Val -ELBO: 37.702:  96%|█████████▌| 573/600 [05:37<00:15,  1.71it/s]Train -ELBO: 34.905, Val -ELBO: 37.739:  96%|█████████▌| 575/600 [05:38<00:14,  1.70it/s]Train -ELBO: 35.004, Val -ELBO: 37.711:  96%|█████████▌| 577/600 [05:39<00:13,  1.70it/s]Train -ELBO: 35.022, Val -ELBO: 37.747:  96%|█████████▋| 579/600 [05:40<00:12,  1.70it/s]Train -ELBO: 35.066, Val -ELBO: 37.726:  97%|█████████▋| 581/600 [05:41<00:11,  1.70it/s]Train -ELBO: 34.923, Val -ELBO: 37.722:  97%|█████████▋| 583/600 [05:42<00:09,  1.71it/s]Train -ELBO: 34.957, Val -ELBO: 37.720:  98%|█████████▊| 585/600 [05:44<00:08,  1.71it/s]Train -ELBO: 34.987, Val -ELBO: 37.719:  98%|█████████▊| 587/600 [05:45<00:07,  1.71it/s]Train -ELBO: 35.114, Val -ELBO: 37.731:  98%|█████████▊| 589/600 [05:46<00:06,  1.71it/s]Train -ELBO: 34.870, Val -ELBO: 37.753:  98%|█████████▊| 591/600 [05:47<00:05,  1.71it/s]Train -ELBO: 35.126, Val -ELBO: 37.737:  99%|█████████▉| 593/600 [05:48<00:04,  1.71it/s]Train -ELBO: 34.998, Val -ELBO: 37.726:  99%|█████████▉| 595/600 [05:49<00:02,  1.71it/s]Train -ELBO: 34.852, Val -ELBO: 37.713: 100%|█████████▉| 597/600 [05:51<00:01,  1.71it/s]Train -ELBO: 35.018, Val -ELBO: 37.711: 100%|█████████▉| 599/600 [05:52<00:00,  1.71it/s]Train -ELBO: 34.989, Val -ELBO: 37.734: 100%|██████████| 600/600 [05:52<00:00,  1.70it/s]
