{
  "train": {
    "steps": [
      0,
      1,
      2,
      3,
      4,
      5,
      6,
      7,
      8,
      9,
      10,
      11,
      12,
      13,
      14,
      15,
      16,
      17,
      18,
      19,
      20,
      21,
      22,
      23,
      24,
      25,
      26,
      27,
      28,
      29,
      30,
      31,
      32,
      33,
      34,
      35,
      36,
      37,
      38,
      39,
      40,
      41,
      42,
      43,
      44,
      45,
      46,
      47,
      48,
      49,
      50,
      51,
      52,
      53,
      54,
      55,
      56,
      57,
      58,
      59,
      60,
      61,
      62,
      63,
      64,
      65,
      66,
      67,
      68,
      69,
      70,
      71,
      72,
      73,
      74,
      75,
      76,
      77,
      78,
      79,
      80,
      81,
      82,
      83,
      84,
      85,
      86,
      87,
      88,
      89,
      90,
      91,
      92,
      93,
      94,
      95,
      96,
      97,
      98,
      99,
      100,
      101,
      102,
      103,
      104,
      105,
      106,
      107,
      108,
      109,
      110,
      111,
      112,
      113,
      114,
      115,
      116,
      117,
      118,
      119,
      120,
      121,
      122,
      123,
      124,
      125,
      126,
      127,
      128,
      129,
      130,
      131,
      132,
      133,
      134,
      135,
      136,
      137,
      138,
      139,
      140,
      141,
      142,
      143,
      144,
      145,
      146,
      147,
      148,
      149,
      150,
      151,
      152,
      153,
      154,
      155,
      156,
      157,
      158,
      159,
      160,
      161,
      162,
      163,
      164,
      165,
      166,
      167,
      168,
      169,
      170,
      171,
      172,
      173,
      174,
      175,
      176,
      177,
      178,
      179,
      180,
      181,
      182,
      183,
      184,
      185,
      186,
      187,
      188,
      189,
      190,
      191,
      192,
      193,
      194,
      195,
      196,
      197,
      198,
      199
    ],
    "timestamps": [
      "2023-03-14T17:05:47.104750",
      "2023-03-14T17:05:47.196438",
      "2023-03-14T17:05:47.288198",
      "2023-03-14T17:05:47.380178",
      "2023-03-14T17:05:47.471184",
      "2023-03-14T17:05:47.562520",
      "2023-03-14T17:05:47.660439",
      "2023-03-14T17:05:47.753732",
      "2023-03-14T17:05:47.847575",
      "2023-03-14T17:05:47.944730",
      "2023-03-14T17:05:48.045739",
      "2023-03-14T17:05:48.137666",
      "2023-03-14T17:05:48.230936",
      "2023-03-14T17:05:48.322487",
      "2023-03-14T17:05:48.413942",
      "2023-03-14T17:05:48.505555",
      "2023-03-14T17:05:48.596898",
      "2023-03-14T17:05:48.688990",
      "2023-03-14T17:05:48.780363",
      "2023-03-14T17:05:48.872275",
      "2023-03-14T17:05:48.975554",
      "2023-03-14T17:05:49.067137",
      "2023-03-14T17:05:49.158149",
      "2023-03-14T17:05:49.250115",
      "2023-03-14T17:05:49.341315",
      "2023-03-14T17:05:49.432516",
      "2023-03-14T17:05:49.523414",
      "2023-03-14T17:05:49.614813",
      "2023-03-14T17:05:49.706598",
      "2023-03-14T17:05:49.797766",
      "2023-03-14T17:05:49.897452",
      "2023-03-14T17:05:49.992305",
      "2023-03-14T17:05:50.083163",
      "2023-03-14T17:05:50.174383",
      "2023-03-14T17:05:50.265504",
      "2023-03-14T17:05:50.356583",
      "2023-03-14T17:05:50.447347",
      "2023-03-14T17:05:50.538461",
      "2023-03-14T17:05:50.629238",
      "2023-03-14T17:05:50.720270",
      "2023-03-14T17:05:50.818356",
      "2023-03-14T17:05:50.910702",
      "2023-03-14T17:05:51.005355",
      "2023-03-14T17:05:51.096486",
      "2023-03-14T17:05:51.187596",
      "2023-03-14T17:05:51.278536",
      "2023-03-14T17:05:51.369533",
      "2023-03-14T17:05:51.461026",
      "2023-03-14T17:05:51.551864",
      "2023-03-14T17:05:51.643146",
      "2023-03-14T17:05:51.741270",
      "2023-03-14T17:05:51.832488",
      "2023-03-14T17:05:51.924804",
      "2023-03-14T17:05:52.019698",
      "2023-03-14T17:05:52.111109",
      "2023-03-14T17:05:52.202260",
      "2023-03-14T17:05:52.293187",
      "2023-03-14T17:05:52.384192",
      "2023-03-14T17:05:52.475109",
      "2023-03-14T17:05:52.566106",
      "2023-03-14T17:05:52.664510",
      "2023-03-14T17:05:52.755785",
      "2023-03-14T17:05:52.846758",
      "2023-03-14T17:05:52.939308",
      "2023-03-14T17:05:53.034300",
      "2023-03-14T17:05:53.125404",
      "2023-03-14T17:05:53.216186",
      "2023-03-14T17:05:53.307344",
      "2023-03-14T17:05:53.398023",
      "2023-03-14T17:05:53.488925",
      "2023-03-14T17:05:53.587101",
      "2023-03-14T17:05:53.679165",
      "2023-03-14T17:05:53.770020",
      "2023-03-14T17:05:53.861186",
      "2023-03-14T17:05:53.953525",
      "2023-03-14T17:05:54.049457",
      "2023-03-14T17:05:54.141676",
      "2023-03-14T17:05:54.233045",
      "2023-03-14T17:05:54.324015",
      "2023-03-14T17:05:54.415099",
      "2023-03-14T17:05:54.513293",
      "2023-03-14T17:05:54.606015",
      "2023-03-14T17:05:54.698851",
      "2023-03-14T17:05:54.791206",
      "2023-03-14T17:05:54.883702",
      "2023-03-14T17:05:54.977045",
      "2023-03-14T17:05:55.073496",
      "2023-03-14T17:05:55.166024",
      "2023-03-14T17:05:55.258049",
      "2023-03-14T17:05:55.352372",
      "2023-03-14T17:05:55.451083",
      "2023-03-14T17:05:55.542827",
      "2023-03-14T17:05:55.633706",
      "2023-03-14T17:05:55.724698",
      "2023-03-14T17:05:55.815283",
      "2023-03-14T17:05:55.906802",
      "2023-03-14T17:05:55.998920",
      "2023-03-14T17:05:56.093602",
      "2023-03-14T17:05:56.184588",
      "2023-03-14T17:05:56.275657",
      "2023-03-14T17:05:56.374126",
      "2023-03-14T17:05:56.465692",
      "2023-03-14T17:05:56.556569",
      "2023-03-14T17:05:56.647795",
      "2023-03-14T17:05:56.738766",
      "2023-03-14T17:05:56.830296",
      "2023-03-14T17:05:56.921574",
      "2023-03-14T17:05:57.014573",
      "2023-03-14T17:05:57.110315",
      "2023-03-14T17:05:57.201785",
      "2023-03-14T17:05:57.300049",
      "2023-03-14T17:05:57.391775",
      "2023-03-14T17:05:57.483101",
      "2023-03-14T17:05:57.574672",
      "2023-03-14T17:05:57.666010",
      "2023-03-14T17:05:57.757218",
      "2023-03-14T17:05:57.848227",
      "2023-03-14T17:05:57.939591",
      "2023-03-14T17:05:58.032119",
      "2023-03-14T17:05:58.127623",
      "2023-03-14T17:05:58.226185",
      "2023-03-14T17:05:58.317541",
      "2023-03-14T17:05:58.409502",
      "2023-03-14T17:05:58.501333",
      "2023-03-14T17:05:58.592553",
      "2023-03-14T17:05:58.684834",
      "2023-03-14T17:05:58.775966",
      "2023-03-14T17:05:58.867626",
      "2023-03-14T17:05:58.958881",
      "2023-03-14T17:05:59.051718",
      "2023-03-14T17:05:59.154065",
      "2023-03-14T17:05:59.245687",
      "2023-03-14T17:05:59.337500",
      "2023-03-14T17:05:59.428714",
      "2023-03-14T17:05:59.519926",
      "2023-03-14T17:05:59.611456",
      "2023-03-14T17:05:59.702933",
      "2023-03-14T17:05:59.794318",
      "2023-03-14T17:05:59.885506",
      "2023-03-14T17:05:59.976909",
      "2023-03-14T17:06:00.077047",
      "2023-03-14T17:06:00.173596",
      "2023-03-14T17:06:00.264753",
      "2023-03-14T17:06:00.355953",
      "2023-03-14T17:06:00.447340",
      "2023-03-14T17:06:00.538636",
      "2023-03-14T17:06:00.629632",
      "2023-03-14T17:06:00.720847",
      "2023-03-14T17:06:00.811939",
      "2023-03-14T17:06:00.904072",
      "2023-03-14T17:06:01.002296",
      "2023-03-14T17:06:01.095084",
      "2023-03-14T17:06:01.190269",
      "2023-03-14T17:06:01.281645",
      "2023-03-14T17:06:01.372834",
      "2023-03-14T17:06:01.464161",
      "2023-03-14T17:06:01.555302",
      "2023-03-14T17:06:01.646807",
      "2023-03-14T17:06:01.738005",
      "2023-03-14T17:06:01.829279",
      "2023-03-14T17:06:01.927905",
      "2023-03-14T17:06:02.019433",
      "2023-03-14T17:06:02.111948",
      "2023-03-14T17:06:02.207206",
      "2023-03-14T17:06:02.298843",
      "2023-03-14T17:06:02.390931",
      "2023-03-14T17:06:02.481836",
      "2023-03-14T17:06:02.572873",
      "2023-03-14T17:06:02.663846",
      "2023-03-14T17:06:02.754829",
      "2023-03-14T17:06:02.853146",
      "2023-03-14T17:06:02.944453",
      "2023-03-14T17:06:03.035247",
      "2023-03-14T17:06:03.127675",
      "2023-03-14T17:06:03.223850",
      "2023-03-14T17:06:03.315335",
      "2023-03-14T17:06:03.406453",
      "2023-03-14T17:06:03.497693",
      "2023-03-14T17:06:03.588671",
      "2023-03-14T17:06:03.680893",
      "2023-03-14T17:06:03.780267",
      "2023-03-14T17:06:03.872281",
      "2023-03-14T17:06:03.963503",
      "2023-03-14T17:06:04.054881",
      "2023-03-14T17:06:04.147534",
      "2023-03-14T17:06:04.242529",
      "2023-03-14T17:06:04.333795",
      "2023-03-14T17:06:04.425789",
      "2023-03-14T17:06:04.516940",
      "2023-03-14T17:06:04.608474",
      "2023-03-14T17:06:04.707439",
      "2023-03-14T17:06:04.799149",
      "2023-03-14T17:06:04.890687",
      "2023-03-14T17:06:04.982526",
      "2023-03-14T17:06:05.073747",
      "2023-03-14T17:06:05.166348",
      "2023-03-14T17:06:05.260864",
      "2023-03-14T17:06:05.355543",
      "2023-03-14T17:06:05.446473",
      "2023-03-14T17:06:05.537886"
    ],
    "values": [
      85.2516513165468,
      81.7851723432842,
      76.93880112057725,
      74.02419651696015,
      71.1307054298525,
      69.57494822627355,
      67.10976672274423,
      64.64203928750426,
      63.45803335604118,
      61.720493824810106,
      60.66753652062313,
      59.35188709631974,
      58.62951687299787,
      58.22456603876055,
      57.81671442683127,
      56.41724485697485,
      56.14332945660591,
      54.94131754845148,
      55.04895085718364,
      54.9144401291482,
      53.73737242009942,
      53.29076401061159,
      52.668298917349276,
      52.60834241836206,
      52.41057947970132,
      51.47436224066884,
      51.56665486810546,
      51.60089309134036,
      51.15080394973033,
      50.724786074299026,
      50.9865467040255,
      50.25384544505521,
      49.92889939245255,
      49.60279209304648,
      49.5134073807781,
      49.48291904500254,
      49.40721046708784,
      49.249874994268104,
      48.96861168535731,
      48.40819556683568,
      47.996786216436995,
      48.16862573106976,
      48.11032388788328,
      47.51846070798965,
      47.47790113392111,
      47.59613596284105,
      46.61278542443123,
      46.59555220239713,
      46.496437358159646,
      46.699747500191464,
      46.549639033464764,
      46.59583358484712,
      46.40946393212041,
      45.85533109454918,
      46.09740163060511,
      46.33082132294075,
      45.53596597733652,
      46.08246255958864,
      45.6947941101052,
      45.13449237150124,
      45.92470304043736,
      45.11178573253384,
      45.006750212918014,
      44.670845901127656,
      45.24478735271853,
      44.743387531444306,
      44.693371819052935,
      44.50941850397235,
      45.10101383586113,
      44.217085927298264,
      44.45368095484216,
      44.55796581396486,
      44.26847327586459,
      44.443130631291126,
      44.513529803484516,
      43.99038629989227,
      43.71396686324068,
      43.875398202978594,
      43.79491426200983,
      44.13067067335286,
      43.71788231334181,
      43.96243009640481,
      43.96651131875281,
      43.63913865970916,
      43.78060127954131,
      43.373866299578246,
      43.54385445368918,
      43.921680522460285,
      43.394308771068964,
      43.364229591224934,
      43.112030493305625,
      42.952250902647634,
      43.22255131279535,
      43.10221706933639,
      43.20184027158124,
      42.807961702218215,
      42.99905289543678,
      42.73441972644709,
      42.80254456187062,
      42.55726020963856,
      42.44662200742959,
      42.479496830121526,
      42.308075558476375,
      42.25720144569849,
      42.57401863337978,
      42.37991526511693,
      42.53640675909657,
      42.67571409053375,
      41.93295587645628,
      41.96319442480615,
      41.926671068537026,
      42.2334570428531,
      41.817044969198506,
      41.351234296004286,
      41.91733724420102,
      42.142074106221756,
      41.91470924784316,
      41.72006826067513,
      41.17063914354575,
      41.505166350022385,
      41.24593141513871,
      41.294890837146504,
      41.16793079667276,
      41.224891241017595,
      40.741369041878734,
      40.82231011650439,
      40.90961432932398,
      40.45584512576112,
      40.710393851283655,
      40.689487257061494,
      40.32272752082925,
      40.692505477367895,
      40.35213701794544,
      40.17196628606281,
      40.905766396531625,
      40.1865765931047,
      40.16216899317667,
      40.05327828946031,
      40.20078934343731,
      40.33801126202459,
      39.60616166627068,
      39.71790097447972,
      39.456385420644374,
      39.64706214309336,
      39.95457593767425,
      39.34748644641645,
      39.76035279731494,
      39.53696633215249,
      39.322700483711266,
      39.655010982644946,
      39.09921849413264,
      39.19322018088693,
      39.22053916486486,
      39.10659582471478,
      39.00850731001747,
      38.57407141831718,
      39.16331851974375,
      38.815603784212804,
      38.715668709148346,
      38.85254574283855,
      38.4554832795187,
      38.89244721002033,
      38.5948620813945,
      38.6054324245652,
      38.458213331097134,
      38.13760096942973,
      37.928438479338254,
      38.50713050812742,
      38.11257564062585,
      38.03347274401051,
      38.236603734632425,
      38.05202540652012,
      38.32241906043702,
      37.847200627010444,
      37.828793674521705,
      37.715286538924936,
      38.15596140242935,
      37.89119972890323,
      37.8369357138137,
      37.5784495798094,
      37.64615428811881,
      37.45627690680866,
      37.53941888705212,
      37.59695881590519,
      37.60590882228218,
      37.105651580343405,
      37.19773374520581,
      37.237725184600244,
      37.38001004568014,
      37.26521576442963,
      37.12950311225465,
      36.98521160671422,
      37.02616136273782,
      37.1443500438836,
      37.07397192888424,
      36.9230398287267,
      36.638143587221684,
      36.80087521158644,
      36.91674972677395,
      37.10924282234283
    ]
  },
  "val": {
    "steps": [
      0,
      1,
      2,
      3,
      4,
      5,
      6,
      7,
      8,
      9,
      10,
      11,
      12,
      13,
      14,
      15,
      16,
      17,
      18,
      19,
      20,
      21,
      22,
      23,
      24,
      25,
      26,
      27,
      28,
      29,
      30,
      31,
      32,
      33,
      34,
      35,
      36,
      37,
      38,
      39,
      40,
      41,
      42,
      43,
      44,
      45,
      46,
      47,
      48,
      49,
      50,
      51,
      52,
      53,
      54,
      55,
      56,
      57,
      58,
      59,
      60,
      61,
      62,
      63,
      64,
      65,
      66,
      67,
      68,
      69,
      70,
      71,
      72,
      73,
      74,
      75,
      76,
      77,
      78,
      79,
      80,
      81,
      82,
      83,
      84,
      85,
      86,
      87,
      88,
      89,
      90,
      91,
      92,
      93,
      94,
      95,
      96,
      97,
      98,
      99,
      100,
      101,
      102,
      103,
      104,
      105,
      106,
      107,
      108,
      109,
      110,
      111,
      112,
      113,
      114,
      115,
      116,
      117,
      118,
      119,
      120,
      121,
      122,
      123,
      124,
      125,
      126,
      127,
      128,
      129,
      130,
      131,
      132,
      133,
      134,
      135,
      136,
      137,
      138,
      139,
      140,
      141,
      142,
      143,
      144,
      145,
      146,
      147,
      148,
      149,
      150,
      151,
      152,
      153,
      154,
      155,
      156,
      157,
      158,
      159,
      160,
      161,
      162,
      163,
      164,
      165,
      166,
      167,
      168,
      169,
      170,
      171,
      172,
      173,
      174,
      175,
      176,
      177,
      178,
      179,
      180,
      181,
      182,
      183,
      184,
      185,
      186,
      187,
      188,
      189,
      190,
      191,
      192,
      193,
      194,
      195,
      196,
      197,
      198,
      199
    ],
    "timestamps": [
      "2023-03-14T17:05:47.191013",
      "2023-03-14T17:05:47.282666",
      "2023-03-14T17:05:47.374634",
      "2023-03-14T17:05:47.465834",
      "2023-03-14T17:05:47.557203",
      "2023-03-14T17:05:47.654560",
      "2023-03-14T17:05:47.748194",
      "2023-03-14T17:05:47.841840",
      "2023-03-14T17:05:47.939149",
      "2023-03-14T17:05:48.032628",
      "2023-03-14T17:05:48.131820",
      "2023-03-14T17:05:48.225268",
      "2023-03-14T17:05:48.317097",
      "2023-03-14T17:05:48.408547",
      "2023-03-14T17:05:48.500089",
      "2023-03-14T17:05:48.591384",
      "2023-03-14T17:05:48.683470",
      "2023-03-14T17:05:48.775043",
      "2023-03-14T17:05:48.866409",
      "2023-03-14T17:05:48.962705",
      "2023-03-14T17:05:49.061505",
      "2023-03-14T17:05:49.152757",
      "2023-03-14T17:05:49.244765",
      "2023-03-14T17:05:49.335961",
      "2023-03-14T17:05:49.427152",
      "2023-03-14T17:05:49.518078",
      "2023-03-14T17:05:49.609244",
      "2023-03-14T17:05:49.700864",
      "2023-03-14T17:05:49.792359",
      "2023-03-14T17:05:49.883243",
      "2023-03-14T17:05:49.986605",
      "2023-03-14T17:05:50.077776",
      "2023-03-14T17:05:50.168997",
      "2023-03-14T17:05:50.260104",
      "2023-03-14T17:05:50.351253",
      "2023-03-14T17:05:50.442011",
      "2023-03-14T17:05:50.533158",
      "2023-03-14T17:05:50.623938",
      "2023-03-14T17:05:50.714953",
      "2023-03-14T17:05:50.805779",
      "2023-03-14T17:05:50.904127",
      "2023-03-14T17:05:50.999715",
      "2023-03-14T17:05:51.091119",
      "2023-03-14T17:05:51.182274",
      "2023-03-14T17:05:51.273213",
      "2023-03-14T17:05:51.364222",
      "2023-03-14T17:05:51.455591",
      "2023-03-14T17:05:51.546544",
      "2023-03-14T17:05:51.637654",
      "2023-03-14T17:05:51.728738",
      "2023-03-14T17:05:51.827129",
      "2023-03-14T17:05:51.918175",
      "2023-03-14T17:05:52.014112",
      "2023-03-14T17:05:52.105679",
      "2023-03-14T17:05:52.196788",
      "2023-03-14T17:05:52.287875",
      "2023-03-14T17:05:52.378874",
      "2023-03-14T17:05:52.469797",
      "2023-03-14T17:05:52.560802",
      "2023-03-14T17:05:52.651611",
      "2023-03-14T17:05:52.750355",
      "2023-03-14T17:05:52.841362",
      "2023-03-14T17:05:52.932654",
      "2023-03-14T17:05:53.028691",
      "2023-03-14T17:05:53.119987",
      "2023-03-14T17:05:53.210884",
      "2023-03-14T17:05:53.301934",
      "2023-03-14T17:05:53.392720",
      "2023-03-14T17:05:53.483611",
      "2023-03-14T17:05:53.574505",
      "2023-03-14T17:05:53.673568",
      "2023-03-14T17:05:53.764676",
      "2023-03-14T17:05:53.855741",
      "2023-03-14T17:05:53.946992",
      "2023-03-14T17:05:54.043817",
      "2023-03-14T17:05:54.136351",
      "2023-03-14T17:05:54.227526",
      "2023-03-14T17:05:54.318656",
      "2023-03-14T17:05:54.409779",
      "2023-03-14T17:05:54.500682",
      "2023-03-14T17:05:54.600453",
      "2023-03-14T17:05:54.693421",
      "2023-03-14T17:05:54.785848",
      "2023-03-14T17:05:54.878330",
      "2023-03-14T17:05:54.970805",
      "2023-03-14T17:05:55.067747",
      "2023-03-14T17:05:55.160634",
      "2023-03-14T17:05:55.252744",
      "2023-03-14T17:05:55.346494",
      "2023-03-14T17:05:55.438358",
      "2023-03-14T17:05:55.537493",
      "2023-03-14T17:05:55.628285",
      "2023-03-14T17:05:55.719370",
      "2023-03-14T17:05:55.809990",
      "2023-03-14T17:05:55.901370",
      "2023-03-14T17:05:55.992220",
      "2023-03-14T17:05:56.088064",
      "2023-03-14T17:05:56.179256",
      "2023-03-14T17:05:56.270145",
      "2023-03-14T17:05:56.361247",
      "2023-03-14T17:05:56.460229",
      "2023-03-14T17:05:56.551266",
      "2023-03-14T17:05:56.642480",
      "2023-03-14T17:05:56.733438",
      "2023-03-14T17:05:56.824978",
      "2023-03-14T17:05:56.916055",
      "2023-03-14T17:05:57.007814",
      "2023-03-14T17:05:57.104433",
      "2023-03-14T17:05:57.196396",
      "2023-03-14T17:05:57.287531",
      "2023-03-14T17:05:57.386200",
      "2023-03-14T17:05:57.477671",
      "2023-03-14T17:05:57.569317",
      "2023-03-14T17:05:57.660658",
      "2023-03-14T17:05:57.751862",
      "2023-03-14T17:05:57.842832",
      "2023-03-14T17:05:57.934118",
      "2023-03-14T17:05:58.025518",
      "2023-03-14T17:05:58.121865",
      "2023-03-14T17:05:58.213594",
      "2023-03-14T17:05:58.312078",
      "2023-03-14T17:05:58.404049",
      "2023-03-14T17:05:58.495723",
      "2023-03-14T17:05:58.587104",
      "2023-03-14T17:05:58.679297",
      "2023-03-14T17:05:58.770560",
      "2023-03-14T17:05:58.862144",
      "2023-03-14T17:05:58.953533",
      "2023-03-14T17:05:59.044845",
      "2023-03-14T17:05:59.141080",
      "2023-03-14T17:05:59.240136",
      "2023-03-14T17:05:59.332098",
      "2023-03-14T17:05:59.423390",
      "2023-03-14T17:05:59.514535",
      "2023-03-14T17:05:59.606006",
      "2023-03-14T17:05:59.697468",
      "2023-03-14T17:05:59.788940",
      "2023-03-14T17:05:59.880128",
      "2023-03-14T17:05:59.971556",
      "2023-03-14T17:06:00.063150",
      "2023-03-14T17:06:00.167483",
      "2023-03-14T17:06:00.259346",
      "2023-03-14T17:06:00.350608",
      "2023-03-14T17:06:00.441799",
      "2023-03-14T17:06:00.533230",
      "2023-03-14T17:06:00.624293",
      "2023-03-14T17:06:00.715469",
      "2023-03-14T17:06:00.806520",
      "2023-03-14T17:06:00.898646",
      "2023-03-14T17:06:00.989740",
      "2023-03-14T17:06:01.088304",
      "2023-03-14T17:06:01.184711",
      "2023-03-14T17:06:01.276278",
      "2023-03-14T17:06:01.367412",
      "2023-03-14T17:06:01.458853",
      "2023-03-14T17:06:01.549995",
      "2023-03-14T17:06:01.641346",
      "2023-03-14T17:06:01.732651",
      "2023-03-14T17:06:01.823962",
      "2023-03-14T17:06:01.915107",
      "2023-03-14T17:06:02.014002",
      "2023-03-14T17:06:02.105263",
      "2023-03-14T17:06:02.201697",
      "2023-03-14T17:06:02.293223",
      "2023-03-14T17:06:02.385536",
      "2023-03-14T17:06:02.476535",
      "2023-03-14T17:06:02.567552",
      "2023-03-14T17:06:02.658565",
      "2023-03-14T17:06:02.749536",
      "2023-03-14T17:06:02.840443",
      "2023-03-14T17:06:02.939068",
      "2023-03-14T17:06:03.029906",
      "2023-03-14T17:06:03.120996",
      "2023-03-14T17:06:03.218143",
      "2023-03-14T17:06:03.309970",
      "2023-03-14T17:06:03.400983",
      "2023-03-14T17:06:03.492310",
      "2023-03-14T17:06:03.583322",
      "2023-03-14T17:06:03.675327",
      "2023-03-14T17:06:03.766710",
      "2023-03-14T17:06:03.866524",
      "2023-03-14T17:06:03.958165",
      "2023-03-14T17:06:04.049406",
      "2023-03-14T17:06:04.140758",
      "2023-03-14T17:06:04.236947",
      "2023-03-14T17:06:04.328443",
      "2023-03-14T17:06:04.420254",
      "2023-03-14T17:06:04.511570",
      "2023-03-14T17:06:04.603112",
      "2023-03-14T17:06:04.694725",
      "2023-03-14T17:06:04.793621",
      "2023-03-14T17:06:04.885170",
      "2023-03-14T17:06:04.977110",
      "2023-03-14T17:06:05.068415",
      "2023-03-14T17:06:05.159794",
      "2023-03-14T17:06:05.255281",
      "2023-03-14T17:06:05.349961",
      "2023-03-14T17:06:05.441139",
      "2023-03-14T17:06:05.532546",
      "2023-03-14T17:06:05.623701"
    ],
    "values": [
      81.45616662033632,
      77.52560547943025,
      74.0560744023685,
      71.33088924216308,
      68.83976610834863,
      66.76503510261779,
      64.88033816300874,
      63.32210520390531,
      61.91109116844492,
      60.62416464423072,
      59.66444063627552,
      58.82069702714487,
      57.974173250751335,
      57.30175122927245,
      56.68083065389816,
      56.01840714639769,
      55.4937891518026,
      54.969232694154336,
      54.44533301509941,
      54.02449519752644,
      53.663072704747265,
      53.24102796629848,
      52.88712255342741,
      52.60184017549559,
      52.29032471389351,
      52.04687957332856,
      51.69228679032315,
      51.41533124310975,
      51.15980196826279,
      50.86518140608567,
      50.71073730466287,
      50.528364323422394,
      50.19854614556062,
      50.011336397187875,
      49.76306336970596,
      49.5448806494561,
      49.29913097619163,
      49.04917237259402,
      48.8134876577045,
      48.62461606492563,
      48.33646391629982,
      48.156430453642045,
      47.90801892381737,
      47.71735309832152,
      47.599787996347395,
      47.488284811367066,
      47.2908496696722,
      47.17105220134123,
      47.01686546474256,
      46.96594079685845,
      46.737432743612736,
      46.70101287261448,
      46.58151012716685,
      46.44915986111194,
      46.453249882081316,
      46.262046389891594,
      46.12066173195298,
      46.09106124298599,
      45.96886381740935,
      45.864091929946674,
      45.80520726785142,
      45.755707922777425,
      45.75692801474418,
      45.620118741027866,
      45.57253283749135,
      45.56334804234234,
      45.451873773647904,
      45.44125533288347,
      45.35045832857197,
      45.36241409365837,
      45.29895390944174,
      45.2086756914895,
      45.14461872812833,
      45.103074009417426,
      45.08465385269158,
      45.08524178938296,
      45.09578684715244,
      44.98379271580357,
      44.88382713387257,
      44.91592666292152,
      44.80773321638046,
      44.752637631067344,
      44.74922998086052,
      44.663050923504635,
      44.66463897872272,
      44.58772066197934,
      44.575528011464904,
      44.495304697307965,
      44.44251188382128,
      44.39632066025414,
      44.444336857895294,
      44.486306684408184,
      44.44854523631666,
      44.42513622493226,
      44.31128675507529,
      44.29518198983016,
      44.17579063396126,
      44.05681069327537,
      43.954182204308935,
      43.926835800128536,
      43.937194779336934,
      43.90986876351918,
      43.86857576569501,
      43.86535295751417,
      43.950239075907255,
      43.87077188617572,
      43.75329451173522,
      43.7277405441718,
      43.58964243371392,
      43.51024772705731,
      43.535709833901485,
      43.468080744580384,
      43.34819844109725,
      43.35063448689427,
      43.310575179654826,
      43.30996399525488,
      43.28327991492627,
      43.14694092111612,
      43.10806866810696,
      42.980329204123244,
      42.90859969957641,
      42.95833263155832,
      42.8228630183143,
      42.80412620218375,
      42.71827666510788,
      42.61046787710275,
      42.60763791866785,
      42.6767750378836,
      42.69438502194452,
      42.74737156030855,
      42.63945106707425,
      42.47724203612483,
      42.331257545736705,
      42.32489355745931,
      42.332613680327896,
      42.13214778874207,
      42.27954012072437,
      42.16704839523525,
      42.21706501847679,
      42.12551428933537,
      42.12301798393827,
      42.04426021004445,
      41.943837930497466,
      41.803862329912256,
      41.85994543218616,
      41.717318572596305,
      41.78665033017565,
      41.665657065437884,
      41.65333522977901,
      41.547928166213794,
      41.5245057224331,
      41.535855537533614,
      41.487944019512724,
      41.48544022046827,
      41.467553762158005,
      41.447678152565594,
      41.4363141773831,
      41.356354416491904,
      41.2501328905689,
      41.143764685762896,
      41.22217172509938,
      41.18275114825848,
      41.176422528262975,
      41.13298579025256,
      41.023638214166674,
      41.027694377410015,
      41.02655938946425,
      41.02213192716736,
      40.932420330858214,
      40.95630028495011,
      40.85275088212485,
      40.87726491437311,
      40.917027446979496,
      40.938561920962464,
      40.93496982123279,
      40.999407998708314,
      40.866117332307155,
      40.77343643088322,
      40.6609686710705,
      40.6150653000657,
      40.670800065632854,
      40.64286206855962,
      40.60256701558439,
      40.66264461669593,
      40.6614889276091,
      40.55067361521626,
      40.5006899965502,
      40.58294660148966,
      40.57425229263147,
      40.57749932142126,
      40.61131735148737,
      40.60219081428637,
      40.61042676220855,
      40.62915941228377,
      40.55057150610872,
      40.54133955938078,
      40.59808133404674,
      40.441333590663326,
      40.45403330516237,
      40.360665858492375
    ]
  }
}