{
  "test": {
    "steps": [
      0
    ],
    "timestamps": [
      "2022-07-08T11:41:17.283725"
    ],
    "values": [
      40.19597782774969
    ]
  },
  "train": {
    "steps": [
      0,
      1,
      2,
      3,
      4,
      5,
      6,
      7,
      8,
      9,
      10,
      11,
      12,
      13,
      14,
      15,
      16,
      17,
      18,
      19,
      20,
      21,
      22,
      23,
      24,
      25,
      26,
      27,
      28,
      29,
      30,
      31,
      32,
      33,
      34,
      35,
      36,
      37,
      38,
      39,
      40,
      41,
      42,
      43,
      44,
      45,
      46,
      47,
      48,
      49,
      50,
      51,
      52,
      53,
      54,
      55,
      56,
      57,
      58,
      59,
      60,
      61,
      62,
      63,
      64,
      65,
      66,
      67,
      68,
      69,
      70,
      71,
      72,
      73,
      74,
      75,
      76,
      77,
      78,
      79,
      80,
      81,
      82,
      83,
      84,
      85,
      86,
      87,
      88,
      89,
      90,
      91,
      92,
      93,
      94,
      95,
      96,
      97,
      98,
      99,
      100,
      101,
      102,
      103,
      104,
      105,
      106,
      107,
      108,
      109,
      110,
      111,
      112,
      113,
      114,
      115,
      116,
      117,
      118,
      119,
      120,
      121,
      122,
      123,
      124,
      125,
      126,
      127,
      128,
      129,
      130,
      131,
      132,
      133,
      134,
      135,
      136,
      137,
      138,
      139,
      140,
      141,
      142,
      143,
      144,
      145,
      146,
      147,
      148,
      149,
      150,
      151,
      152,
      153,
      154,
      155,
      156,
      157,
      158,
      159,
      160,
      161,
      162,
      163,
      164,
      165,
      166,
      167,
      168,
      169,
      170,
      171,
      172,
      173,
      174,
      175,
      176,
      177,
      178,
      179,
      180,
      181,
      182,
      183,
      184,
      185,
      186,
      187,
      188,
      189,
      190,
      191,
      192,
      193,
      194,
      195,
      196,
      197,
      198,
      199
    ],
    "timestamps": [
      "2022-07-08T11:25:26.491857",
      "2022-07-08T11:25:30.760715",
      "2022-07-08T11:25:35.367652",
      "2022-07-08T11:25:39.548432",
      "2022-07-08T11:25:43.880893",
      "2022-07-08T11:25:47.970976",
      "2022-07-08T11:25:52.197495",
      "2022-07-08T11:25:56.481848",
      "2022-07-08T11:26:00.709184",
      "2022-07-08T11:26:05.443500",
      "2022-07-08T11:26:10.699369",
      "2022-07-08T11:26:16.517273",
      "2022-07-08T11:26:21.702502",
      "2022-07-08T11:26:26.692441",
      "2022-07-08T11:26:31.368822",
      "2022-07-08T11:26:35.890363",
      "2022-07-08T11:26:40.162416",
      "2022-07-08T11:26:44.569429",
      "2022-07-08T11:26:48.768649",
      "2022-07-08T11:26:53.434907",
      "2022-07-08T11:26:57.679136",
      "2022-07-08T11:27:02.278268",
      "2022-07-08T11:27:06.830188",
      "2022-07-08T11:27:11.179826",
      "2022-07-08T11:27:15.673305",
      "2022-07-08T11:27:20.056586",
      "2022-07-08T11:27:24.610195",
      "2022-07-08T11:27:29.145738",
      "2022-07-08T11:27:33.683097",
      "2022-07-08T11:27:38.194869",
      "2022-07-08T11:27:42.673840",
      "2022-07-08T11:27:46.927592",
      "2022-07-08T11:27:51.328628",
      "2022-07-08T11:27:56.037109",
      "2022-07-08T11:28:00.476127",
      "2022-07-08T11:28:04.918566",
      "2022-07-08T11:28:09.210074",
      "2022-07-08T11:28:13.865929",
      "2022-07-08T11:28:18.657960",
      "2022-07-08T11:28:22.989742",
      "2022-07-08T11:28:27.487652",
      "2022-07-08T11:28:32.188815",
      "2022-07-08T11:28:36.622896",
      "2022-07-08T11:28:41.610745",
      "2022-07-08T11:28:47.744989",
      "2022-07-08T11:28:52.437634",
      "2022-07-08T11:28:56.990774",
      "2022-07-08T11:29:02.306482",
      "2022-07-08T11:29:06.575596",
      "2022-07-08T11:29:11.276080",
      "2022-07-08T11:29:15.757956",
      "2022-07-08T11:29:20.508068",
      "2022-07-08T11:29:25.193256",
      "2022-07-08T11:29:29.704098",
      "2022-07-08T11:29:34.393288",
      "2022-07-08T11:29:38.919510",
      "2022-07-08T11:29:43.547880",
      "2022-07-08T11:29:48.121534",
      "2022-07-08T11:29:53.137455",
      "2022-07-08T11:29:58.994043",
      "2022-07-08T11:30:04.907751",
      "2022-07-08T11:30:09.422858",
      "2022-07-08T11:30:14.204578",
      "2022-07-08T11:30:18.523370",
      "2022-07-08T11:30:23.109034",
      "2022-07-08T11:30:28.669637",
      "2022-07-08T11:30:33.819874",
      "2022-07-08T11:30:39.692928",
      "2022-07-08T11:30:44.397637",
      "2022-07-08T11:30:49.427871",
      "2022-07-08T11:30:54.240011",
      "2022-07-08T11:30:59.537083",
      "2022-07-08T11:31:04.418064",
      "2022-07-08T11:31:09.324033",
      "2022-07-08T11:31:14.213392",
      "2022-07-08T11:31:18.888532",
      "2022-07-08T11:31:23.900093",
      "2022-07-08T11:31:28.500959",
      "2022-07-08T11:31:33.419602",
      "2022-07-08T11:31:38.338919",
      "2022-07-08T11:31:43.463842",
      "2022-07-08T11:31:48.581884",
      "2022-07-08T11:31:53.781636",
      "2022-07-08T11:31:59.130237",
      "2022-07-08T11:32:04.621656",
      "2022-07-08T11:32:09.701069",
      "2022-07-08T11:32:15.064545",
      "2022-07-08T11:32:20.073278",
      "2022-07-08T11:32:25.239075",
      "2022-07-08T11:32:30.339195",
      "2022-07-08T11:32:35.235788",
      "2022-07-08T11:32:39.917670",
      "2022-07-08T11:32:44.761089",
      "2022-07-08T11:32:49.719411",
      "2022-07-08T11:32:54.941304",
      "2022-07-08T11:32:59.948948",
      "2022-07-08T11:33:04.555231",
      "2022-07-08T11:33:09.366346",
      "2022-07-08T11:33:14.042096",
      "2022-07-08T11:33:18.410034",
      "2022-07-08T11:33:22.880094",
      "2022-07-08T11:33:27.423108",
      "2022-07-08T11:33:32.629747",
      "2022-07-08T11:33:37.422031",
      "2022-07-08T11:33:42.265034",
      "2022-07-08T11:33:46.925339",
      "2022-07-08T11:33:52.126157",
      "2022-07-08T11:33:57.094589",
      "2022-07-08T11:34:01.826479",
      "2022-07-08T11:34:06.539821",
      "2022-07-08T11:34:10.902645",
      "2022-07-08T11:34:15.936466",
      "2022-07-08T11:34:20.753822",
      "2022-07-08T11:34:25.487524",
      "2022-07-08T11:34:29.871334",
      "2022-07-08T11:34:35.014037",
      "2022-07-08T11:34:40.164910",
      "2022-07-08T11:34:45.151009",
      "2022-07-08T11:34:49.583142",
      "2022-07-08T11:34:54.730724",
      "2022-07-08T11:34:59.722288",
      "2022-07-08T11:35:04.690482",
      "2022-07-08T11:35:09.559057",
      "2022-07-08T11:35:14.875168",
      "2022-07-08T11:35:19.643220",
      "2022-07-08T11:35:24.815105",
      "2022-07-08T11:35:30.128228",
      "2022-07-08T11:35:34.968792",
      "2022-07-08T11:35:39.647776",
      "2022-07-08T11:35:44.524140",
      "2022-07-08T11:35:48.967235",
      "2022-07-08T11:35:53.632393",
      "2022-07-08T11:35:58.456565",
      "2022-07-08T11:36:03.331469",
      "2022-07-08T11:36:08.140619",
      "2022-07-08T11:36:12.894212",
      "2022-07-08T11:36:17.740161",
      "2022-07-08T11:36:22.469739",
      "2022-07-08T11:36:27.177550",
      "2022-07-08T11:36:31.787977",
      "2022-07-08T11:36:36.700242",
      "2022-07-08T11:36:41.300365",
      "2022-07-08T11:36:46.272235",
      "2022-07-08T11:36:51.039826",
      "2022-07-08T11:36:56.117580",
      "2022-07-08T11:37:00.770158",
      "2022-07-08T11:37:05.622074",
      "2022-07-08T11:37:10.345298",
      "2022-07-08T11:37:15.426769",
      "2022-07-08T11:37:19.972066",
      "2022-07-08T11:37:24.476581",
      "2022-07-08T11:37:29.377037",
      "2022-07-08T11:37:34.383389",
      "2022-07-08T11:37:38.852356",
      "2022-07-08T11:37:43.317784",
      "2022-07-08T11:37:48.409326",
      "2022-07-08T11:37:53.458991",
      "2022-07-08T11:37:58.260674",
      "2022-07-08T11:38:03.519869",
      "2022-07-08T11:38:08.576654",
      "2022-07-08T11:38:13.677876",
      "2022-07-08T11:38:18.360270",
      "2022-07-08T11:38:22.956243",
      "2022-07-08T11:38:27.375429",
      "2022-07-08T11:38:31.944610",
      "2022-07-08T11:38:37.054164",
      "2022-07-08T11:38:41.606515",
      "2022-07-08T11:38:46.740521",
      "2022-07-08T11:38:51.772409",
      "2022-07-08T11:38:56.688698",
      "2022-07-08T11:39:00.931741",
      "2022-07-08T11:39:05.770944",
      "2022-07-08T11:39:10.718201",
      "2022-07-08T11:39:15.765164",
      "2022-07-08T11:39:20.645756",
      "2022-07-08T11:39:25.213859",
      "2022-07-08T11:39:29.671828",
      "2022-07-08T11:39:34.370506",
      "2022-07-08T11:39:39.037894",
      "2022-07-08T11:39:43.443458",
      "2022-07-08T11:39:48.298405",
      "2022-07-08T11:39:52.982872",
      "2022-07-08T11:39:57.688289",
      "2022-07-08T11:40:02.295628",
      "2022-07-08T11:40:07.194943",
      "2022-07-08T11:40:11.576447",
      "2022-07-08T11:40:16.200232",
      "2022-07-08T11:40:20.729352",
      "2022-07-08T11:40:25.550478",
      "2022-07-08T11:40:30.060520",
      "2022-07-08T11:40:34.800100",
      "2022-07-08T11:40:39.747860",
      "2022-07-08T11:40:44.377617",
      "2022-07-08T11:40:49.124321",
      "2022-07-08T11:40:53.991633",
      "2022-07-08T11:40:58.467402",
      "2022-07-08T11:41:03.076023",
      "2022-07-08T11:41:07.692947",
      "2022-07-08T11:41:12.053767",
      "2022-07-08T11:41:16.450563"
    ],
    "values": [
      52.448454058433384,
      40.977145083346024,
      40.704595076176126,
      40.61230240031193,
      40.57418038708106,
      40.55537287243892,
      40.51057275272734,
      40.513116598250846,
      40.47760130287186,
      40.476668313620344,
      40.47602626257861,
      40.46086036170469,
      40.46420278492281,
      40.463539113662435,
      40.43990341094641,
      40.436521511393444,
      40.42540227836198,
      40.43928836432221,
      40.43653097875086,
      40.41264423698492,
      40.41329477528339,
      40.42960725283176,
      40.417391697186275,
      40.42925335971566,
      40.39674269983855,
      40.4064927929803,
      40.40195683602957,
      40.4042798956205,
      40.4027412468133,
      40.36560746701762,
      40.395874492880054,
      40.3769399079034,
      40.39627030741949,
      40.38481615379598,
      40.362560758436764,
      40.400105340246704,
      40.39885119843452,
      40.360540376019046,
      40.37718414732432,
      40.36956065663382,
      40.36912351499689,
      40.39672718509733,
      40.39972732363629,
      40.36302776682373,
      40.38438774889868,
      40.36201014775983,
      40.360111182962804,
      40.37339011058639,
      40.3328095084393,
      40.340920346054624,
      40.35952457549909,
      40.356684820155685,
      40.35247149849021,
      40.353608932425324,
      40.35802644418446,
      40.333913296164994,
      40.351715902148946,
      40.34281508785675,
      40.33215239432329,
      40.352757383789495,
      40.33712149062404,
      40.32889596842249,
      40.35297737969584,
      40.338187288929106,
      40.34745982877559,
      40.351185931936186,
      40.34026841365534,
      40.35193572938881,
      40.352032637705584,
      40.3326844015569,
      40.16910826312977,
      40.14226334768664,
      40.139517125218156,
      40.139705714946885,
      40.14000586466016,
      40.14517501871251,
      40.14093371663587,
      40.140655645603516,
      40.13983642158971,
      40.142064503530484,
      40.13836328492469,
      40.141053067783105,
      40.13880448685462,
      40.137774284502584,
      40.141233952449106,
      40.13561642179424,
      40.13885476306548,
      40.13884595096517,
      40.13908929408796,
      40.13678623403014,
      40.14168632992051,
      40.13640856843566,
      40.13593190918252,
      40.13575644786994,
      40.136024397398344,
      40.13634876198029,
      40.13370036112947,
      40.13677132018046,
      40.13381791489285,
      40.134881709606354,
      40.136364414420584,
      40.13616256508764,
      40.13442645271832,
      40.13629547225711,
      40.13694593424012,
      40.132387524436425,
      40.134890068450595,
      40.1333668627503,
      40.13523655950279,
      40.13578209796135,
      40.134308335585786,
      40.132187411150646,
      40.13347730120658,
      40.132732071690114,
      40.138330061150214,
      40.13153845935936,
      40.130474123953235,
      40.13189887502338,
      40.111389013018105,
      40.105984695043105,
      40.10528871762401,
      40.10511359402873,
      40.10487195982514,
      40.10473438968007,
      40.104602180515535,
      40.104693270850206,
      40.10485245076709,
      40.10452688646488,
      40.104554354483646,
      40.104137753156465,
      40.10433241294674,
      40.104268227026985,
      40.104320700835416,
      40.10403006376269,
      40.10385631067325,
      40.104285616541944,
      40.10418303041753,
      40.10387314534275,
      40.10426639703028,
      40.10416732722278,
      40.1040347220367,
      40.10100749457955,
      40.100746673693145,
      40.10069300289185,
      40.10063943365677,
      40.10052979383175,
      40.10047771512577,
      40.100420684408085,
      40.10049656327382,
      40.10043630466556,
      40.100439182170405,
      40.100401028232184,
      40.10042592711,
      40.100454124142054,
      40.10047326309619,
      40.1004030747954,
      40.10045359893799,
      40.10039357033354,
      40.10034620076996,
      40.10037422176123,
      40.10034740969543,
      40.10036125445386,
      40.10036464463926,
      40.09997040960049,
      40.09997898304716,
      40.09998957587743,
      40.099985508104226,
      40.09998742783796,
      40.099991331037806,
      40.09999636426162,
      40.099995758702036,
      40.100000406929546,
      40.09999445174922,
      40.09999299158299,
      40.099986256502454,
      40.09998841126451,
      40.09998753594281,
      40.09998524445828,
      40.099984935729346,
      40.09997568346616,
      40.099980598219446,
      40.09998205728309,
      40.09998012074962,
      40.099973638015776,
      40.09997686117926,
      40.09997839009212,
      40.0999683963341,
      40.09997347224816,
      40.099969853667986,
      40.09997281990415,
      40.09996936095109,
      40.09996203495871,
      40.099964365652404,
      40.09996587349057,
      40.099960785556725,
      40.099963183924785,
      40.09996016392761,
      40.09996445705113,
      40.09995763458316,
      40.099950937012814
    ]
  },
  "val": {
    "steps": [
      0,
      1,
      2,
      3,
      4,
      5,
      6,
      7,
      8,
      9,
      10,
      11,
      12,
      13,
      14,
      15,
      16,
      17,
      18,
      19,
      20,
      21,
      22,
      23,
      24,
      25,
      26,
      27,
      28,
      29,
      30,
      31,
      32,
      33,
      34,
      35,
      36,
      37,
      38,
      39,
      40,
      41,
      42,
      43,
      44,
      45,
      46,
      47,
      48,
      49,
      50,
      51,
      52,
      53,
      54,
      55,
      56,
      57,
      58,
      59,
      60,
      61,
      62,
      63,
      64,
      65,
      66,
      67,
      68,
      69,
      70,
      71,
      72,
      73,
      74,
      75,
      76,
      77,
      78,
      79,
      80,
      81,
      82,
      83,
      84,
      85,
      86,
      87,
      88,
      89,
      90,
      91,
      92,
      93,
      94,
      95,
      96,
      97,
      98,
      99,
      100,
      101,
      102,
      103,
      104,
      105,
      106,
      107,
      108,
      109,
      110,
      111,
      112,
      113,
      114,
      115,
      116,
      117,
      118,
      119,
      120,
      121,
      122,
      123,
      124,
      125,
      126,
      127,
      128,
      129,
      130,
      131,
      132,
      133,
      134,
      135,
      136,
      137,
      138,
      139,
      140,
      141,
      142,
      143,
      144,
      145,
      146,
      147,
      148,
      149,
      150,
      151,
      152,
      153,
      154,
      155,
      156,
      157,
      158,
      159,
      160,
      161,
      162,
      163,
      164,
      165,
      166,
      167,
      168,
      169,
      170,
      171,
      172,
      173,
      174,
      175,
      176,
      177,
      178,
      179,
      180,
      181,
      182,
      183,
      184,
      185,
      186,
      187,
      188,
      189,
      190,
      191,
      192,
      193,
      194,
      195,
      196,
      197,
      198,
      199
    ],
    "timestamps": [
      "2022-07-08T11:25:26.854218",
      "2022-07-08T11:25:31.304427",
      "2022-07-08T11:25:35.718037",
      "2022-07-08T11:25:39.916524",
      "2022-07-08T11:25:44.225875",
      "2022-07-08T11:25:48.318268",
      "2022-07-08T11:25:52.576464",
      "2022-07-08T11:25:56.882022",
      "2022-07-08T11:26:01.070519",
      "2022-07-08T11:26:05.914523",
      "2022-07-08T11:26:11.407764",
      "2022-07-08T11:26:16.934270",
      "2022-07-08T11:26:22.174851",
      "2022-07-08T11:26:27.215027",
      "2022-07-08T11:26:31.815309",
      "2022-07-08T11:26:36.244316",
      "2022-07-08T11:26:40.507404",
      "2022-07-08T11:26:44.920783",
      "2022-07-08T11:26:49.110925",
      "2022-07-08T11:26:53.788728",
      "2022-07-08T11:26:58.073023",
      "2022-07-08T11:27:02.640183",
      "2022-07-08T11:27:07.185959",
      "2022-07-08T11:27:11.525640",
      "2022-07-08T11:27:16.052007",
      "2022-07-08T11:27:20.403914",
      "2022-07-08T11:27:25.075089",
      "2022-07-08T11:27:29.596694",
      "2022-07-08T11:27:34.095042",
      "2022-07-08T11:27:38.552617",
      "2022-07-08T11:27:43.051408",
      "2022-07-08T11:27:47.274716",
      "2022-07-08T11:27:51.807762",
      "2022-07-08T11:27:56.415891",
      "2022-07-08T11:28:00.852484",
      "2022-07-08T11:28:05.271624",
      "2022-07-08T11:28:09.700888",
      "2022-07-08T11:28:14.276075",
      "2022-07-08T11:28:19.016913",
      "2022-07-08T11:28:23.397238",
      "2022-07-08T11:28:27.954788",
      "2022-07-08T11:28:32.572896",
      "2022-07-08T11:28:37.037643",
      "2022-07-08T11:28:42.163514",
      "2022-07-08T11:28:48.333887",
      "2022-07-08T11:28:52.840211",
      "2022-07-08T11:28:57.511265",
      "2022-07-08T11:29:02.651117",
      "2022-07-08T11:29:06.919801",
      "2022-07-08T11:29:11.641309",
      "2022-07-08T11:29:16.173835",
      "2022-07-08T11:29:20.917888",
      "2022-07-08T11:29:25.546559",
      "2022-07-08T11:29:30.231224",
      "2022-07-08T11:29:34.780053",
      "2022-07-08T11:29:39.277590",
      "2022-07-08T11:29:43.913317",
      "2022-07-08T11:29:48.545487",
      "2022-07-08T11:29:53.658469",
      "2022-07-08T11:29:59.724386",
      "2022-07-08T11:30:05.317600",
      "2022-07-08T11:30:09.777655",
      "2022-07-08T11:30:14.556424",
      "2022-07-08T11:30:18.889428",
      "2022-07-08T11:30:23.504719",
      "2022-07-08T11:30:29.148607",
      "2022-07-08T11:30:34.223642",
      "2022-07-08T11:30:40.175210",
      "2022-07-08T11:30:44.788170",
      "2022-07-08T11:30:49.799284",
      "2022-07-08T11:30:54.723090",
      "2022-07-08T11:30:59.909707",
      "2022-07-08T11:31:04.897562",
      "2022-07-08T11:31:09.779346",
      "2022-07-08T11:31:14.653995",
      "2022-07-08T11:31:19.270283",
      "2022-07-08T11:31:24.280140",
      "2022-07-08T11:31:28.902136",
      "2022-07-08T11:31:33.917604",
      "2022-07-08T11:31:38.704631",
      "2022-07-08T11:31:43.918687",
      "2022-07-08T11:31:49.093067",
      "2022-07-08T11:31:54.242425",
      "2022-07-08T11:31:59.532561",
      "2022-07-08T11:32:05.220058",
      "2022-07-08T11:32:10.213129",
      "2022-07-08T11:32:15.447368",
      "2022-07-08T11:32:20.456102",
      "2022-07-08T11:32:25.717401",
      "2022-07-08T11:32:30.891262",
      "2022-07-08T11:32:35.600481",
      "2022-07-08T11:32:40.330072",
      "2022-07-08T11:32:45.195979",
      "2022-07-08T11:32:50.217021",
      "2022-07-08T11:32:55.434482",
      "2022-07-08T11:33:00.353766",
      "2022-07-08T11:33:04.928034",
      "2022-07-08T11:33:09.739011",
      "2022-07-08T11:33:14.411422",
      "2022-07-08T11:33:18.797204",
      "2022-07-08T11:33:23.271866",
      "2022-07-08T11:33:27.822204",
      "2022-07-08T11:33:33.165657",
      "2022-07-08T11:33:37.824627",
      "2022-07-08T11:33:42.711310",
      "2022-07-08T11:33:47.484762",
      "2022-07-08T11:33:52.640658",
      "2022-07-08T11:33:57.579549",
      "2022-07-08T11:34:02.345771",
      "2022-07-08T11:34:06.930628",
      "2022-07-08T11:34:11.274890",
      "2022-07-08T11:34:16.441439",
      "2022-07-08T11:34:21.166064",
      "2022-07-08T11:34:25.922822",
      "2022-07-08T11:34:30.244701",
      "2022-07-08T11:34:35.423833",
      "2022-07-08T11:34:40.668120",
      "2022-07-08T11:34:45.531796",
      "2022-07-08T11:34:50.003319",
      "2022-07-08T11:34:55.283266",
      "2022-07-08T11:35:00.468055",
      "2022-07-08T11:35:05.074033",
      "2022-07-08T11:35:10.054158",
      "2022-07-08T11:35:15.301409",
      "2022-07-08T11:35:20.060019",
      "2022-07-08T11:35:25.266775",
      "2022-07-08T11:35:30.614533",
      "2022-07-08T11:35:35.398209",
      "2022-07-08T11:35:40.165609",
      "2022-07-08T11:35:44.915963",
      "2022-07-08T11:35:49.353208",
      "2022-07-08T11:35:54.233172",
      "2022-07-08T11:35:58.989915",
      "2022-07-08T11:36:03.813045",
      "2022-07-08T11:36:08.554948",
      "2022-07-08T11:36:13.393446",
      "2022-07-08T11:36:18.114067",
      "2022-07-08T11:36:23.034848",
      "2022-07-08T11:36:27.578296",
      "2022-07-08T11:36:32.272135",
      "2022-07-08T11:36:37.098679",
      "2022-07-08T11:36:41.748851",
      "2022-07-08T11:36:46.714563",
      "2022-07-08T11:36:51.516218",
      "2022-07-08T11:36:56.553429",
      "2022-07-08T11:37:01.217371",
      "2022-07-08T11:37:06.066291",
      "2022-07-08T11:37:10.746935",
      "2022-07-08T11:37:15.887551",
      "2022-07-08T11:37:20.350164",
      "2022-07-08T11:37:24.839614",
      "2022-07-08T11:37:29.817654",
      "2022-07-08T11:37:34.805447",
      "2022-07-08T11:37:39.235090",
      "2022-07-08T11:37:43.773955",
      "2022-07-08T11:37:48.907046",
      "2022-07-08T11:37:53.933101",
      "2022-07-08T11:37:58.769907",
      "2022-07-08T11:38:04.026412",
      "2022-07-08T11:38:08.956110",
      "2022-07-08T11:38:14.219608",
      "2022-07-08T11:38:18.794109",
      "2022-07-08T11:38:23.440907",
      "2022-07-08T11:38:27.745963",
      "2022-07-08T11:38:32.431874",
      "2022-07-08T11:38:37.454359",
      "2022-07-08T11:38:42.098831",
      "2022-07-08T11:38:47.198960",
      "2022-07-08T11:38:52.310154",
      "2022-07-08T11:38:57.059183",
      "2022-07-08T11:39:01.437827",
      "2022-07-08T11:39:06.149997",
      "2022-07-08T11:39:11.104833",
      "2022-07-08T11:39:16.179177",
      "2022-07-08T11:39:21.152981",
      "2022-07-08T11:39:25.590607",
      "2022-07-08T11:39:30.075593",
      "2022-07-08T11:39:34.818399",
      "2022-07-08T11:39:39.408553",
      "2022-07-08T11:39:43.921332",
      "2022-07-08T11:39:48.728953",
      "2022-07-08T11:39:53.430351",
      "2022-07-08T11:39:58.107450",
      "2022-07-08T11:40:02.755269",
      "2022-07-08T11:40:07.576182",
      "2022-07-08T11:40:12.085806",
      "2022-07-08T11:40:16.594248",
      "2022-07-08T11:40:21.154797",
      "2022-07-08T11:40:25.933595",
      "2022-07-08T11:40:30.446802",
      "2022-07-08T11:40:35.273331",
      "2022-07-08T11:40:40.146188",
      "2022-07-08T11:40:44.897922",
      "2022-07-08T11:40:49.573968",
      "2022-07-08T11:40:54.405385",
      "2022-07-08T11:40:58.873217",
      "2022-07-08T11:41:03.481355",
      "2022-07-08T11:41:08.076679",
      "2022-07-08T11:41:12.464662",
      "2022-07-08T11:41:16.844551"
    ],
    "values": [
      41.42652834997222,
      40.80719738673125,
      40.7985819067658,
      40.640371285561066,
      40.61731800974815,
      40.5277796693227,
      40.568110836574476,
      40.52998141009181,
      40.46346812804795,
      40.47572525710585,
      40.51514731105808,
      40.502290484647546,
      40.51688021175819,
      40.44160002452784,
      40.49794702626409,
      40.49231544278578,
      40.48502001594531,
      40.593762230534075,
      40.45135139784484,
      40.466122769549955,
      40.44081981407074,
      40.46487648707868,
      40.4758276358638,
      40.372312704668765,
      40.476570669188995,
      40.431638479167,
      40.40813607316672,
      40.433194865659246,
      40.436441553386715,
      40.407800334351386,
      40.46481265887716,
      40.437553601792864,
      40.41705620458727,
      40.38269681335048,
      40.416719438378294,
      40.40432872583045,
      40.407567385816805,
      40.42413930907614,
      40.41590386292261,
      40.405220318514765,
      40.4367885571318,
      40.498466842596955,
      40.38993595645199,
      40.419171615578335,
      40.475214536561005,
      40.41045969814957,
      40.389138891785244,
      40.39118484615227,
      40.43593236118854,
      40.42098241794293,
      40.42073190273941,
      40.42872891155861,
      40.43022065765495,
      40.43085508065151,
      40.40202544025412,
      40.371915181757366,
      40.325464589630805,
      40.382218155253476,
      40.312579747771125,
      40.43800228776947,
      40.4306437084609,
      40.4179718642396,
      40.433185852036274,
      40.43126739251053,
      40.401662766033745,
      40.41457942516796,
      40.45912654165536,
      40.39985630228909,
      40.40751158648045,
      40.3814805689191,
      40.2094199258439,
      40.206246769149786,
      40.21100728217724,
      40.2118838443223,
      40.20787830250417,
      40.20953144589732,
      40.204692371824024,
      40.21275512934622,
      40.20371152785446,
      40.204115884791875,
      40.20673940467383,
      40.199247281078236,
      40.20460205260906,
      40.211322029193134,
      40.20302099659696,
      40.20531655365102,
      40.2002144011733,
      40.20954931933567,
      40.211621167968886,
      40.20535213889037,
      40.209684919066675,
      40.203771738267875,
      40.20361342957774,
      40.20733666815995,
      40.20430070591437,
      40.21204634337137,
      40.21828125381602,
      40.2020309427009,
      40.202367147261704,
      40.20551131016885,
      40.216975303792886,
      40.21474660332015,
      40.21194968087316,
      40.209319553579604,
      40.21013893804006,
      40.20391583751011,
      40.197301916969536,
      40.20524256696781,
      40.21013714918856,
      40.20396511967841,
      40.20872202887317,
      40.218952507916015,
      40.19557501416568,
      40.200616085042945,
      40.2030475877188,
      40.20200956286412,
      40.20396500109747,
      40.19298260654327,
      40.18440877972435,
      40.183407897316535,
      40.183332548020694,
      40.18377002190246,
      40.18395223962705,
      40.18328161240003,
      40.18367142343279,
      40.18296153267216,
      40.1828369146075,
      40.183315218156274,
      40.18401339543163,
      40.18292424628813,
      40.18286823716176,
      40.18257473478491,
      40.182597677983466,
      40.18422764689564,
      40.18159571934735,
      40.18163123145539,
      40.18316686641443,
      40.18252742540472,
      40.18207596925651,
      40.182369367928885,
      40.18306014280793,
      40.18277170372171,
      40.182549142394066,
      40.182353375849466,
      40.18235029287177,
      40.18238238321866,
      40.182245671882484,
      40.182255282767805,
      40.18236612717049,
      40.18223650216566,
      40.18222321989711,
      40.18228803723288,
      40.182237402982935,
      40.18220480458789,
      40.18223722900444,
      40.18224242664838,
      40.18221921847879,
      40.18222228572327,
      40.182174081649144,
      40.18229823254663,
      40.1821812527403,
      40.18225834905389,
      40.182220062293844,
      40.18223750811127,
      40.18223657994348,
      40.18223279060119,
      40.18223230217711,
      40.182234286879584,
      40.18223143794034,
      40.182236223575124,
      40.18222374131527,
      40.18223191051627,
      40.18223418243246,
      40.18223131514655,
      40.1822265624748,
      40.182237649347044,
      40.18223452711317,
      40.18223923638817,
      40.182224613971655,
      40.182232569648406,
      40.18222914950201,
      40.1822445755533,
      40.18224106825362,
      40.182230157357345,
      40.18223819746213,
      40.18224134659615,
      40.182246910219035,
      40.18224453246691,
      40.18225731637603,
      40.18225012020583,
      40.18225312936647,
      40.18224407564569,
      40.182248210010314,
      40.1822482698766,
      40.18225632506108,
      40.18226572148206,
      40.18225631272631,
      40.18225676210465,
      40.18225385607385,
      40.18226686129485
    ]
  }
}