{
  "test": {
    "steps": [
      0
    ],
    "timestamps": [
      "2022-08-09T09:30:12.441939"
    ],
    "values": [
      11.663090542721289
    ]
  },
  "train": {
    "steps": [
      0,
      1,
      2,
      3,
      4,
      5,
      6,
      7,
      8,
      9,
      10,
      11,
      12,
      13,
      14,
      15,
      16,
      17,
      18,
      19,
      20,
      21,
      22,
      23,
      24,
      25,
      26,
      27,
      28,
      29,
      30,
      31,
      32,
      33,
      34,
      35,
      36,
      37,
      38,
      39,
      40,
      41,
      42,
      43,
      44,
      45,
      46,
      47,
      48,
      49,
      50,
      51,
      52,
      53,
      54,
      55,
      56,
      57,
      58,
      59,
      60,
      61,
      62,
      63,
      64,
      65,
      66,
      67,
      68,
      69,
      70,
      71,
      72,
      73,
      74,
      75,
      76,
      77,
      78,
      79,
      80,
      81,
      82,
      83,
      84,
      85,
      86,
      87,
      88,
      89,
      90,
      91,
      92,
      93,
      94,
      95,
      96,
      97,
      98,
      99,
      100,
      101,
      102,
      103,
      104,
      105,
      106,
      107,
      108,
      109,
      110,
      111,
      112,
      113,
      114,
      115,
      116,
      117,
      118,
      119,
      120,
      121,
      122,
      123,
      124,
      125,
      126,
      127,
      128,
      129,
      130,
      131,
      132,
      133,
      134,
      135,
      136,
      137,
      138,
      139,
      140,
      141,
      142,
      143,
      144,
      145,
      146,
      147,
      148,
      149,
      150,
      151,
      152,
      153,
      154,
      155,
      156,
      157,
      158,
      159,
      160,
      161,
      162,
      163,
      164,
      165,
      166,
      167,
      168,
      169,
      170,
      171,
      172,
      173,
      174,
      175,
      176,
      177,
      178,
      179,
      180,
      181,
      182,
      183,
      184,
      185,
      186,
      187,
      188,
      189,
      190,
      191,
      192,
      193,
      194,
      195,
      196,
      197,
      198,
      199,
      200,
      201,
      202,
      203,
      204,
      205,
      206,
      207,
      208,
      209,
      210,
      211,
      212,
      213,
      214,
      215,
      216,
      217,
      218,
      219,
      220,
      221,
      222,
      223,
      224,
      225,
      226,
      227,
      228,
      229,
      230,
      231,
      232,
      233,
      234,
      235,
      236,
      237,
      238,
      239,
      240,
      241,
      242,
      243,
      244,
      245,
      246,
      247,
      248,
      249,
      250,
      251,
      252,
      253,
      254,
      255,
      256,
      257,
      258,
      259,
      260,
      261,
      262,
      263,
      264,
      265,
      266,
      267,
      268,
      269,
      270,
      271,
      272,
      273,
      274,
      275,
      276,
      277,
      278,
      279,
      280,
      281,
      282,
      283,
      284,
      285,
      286,
      287,
      288,
      289,
      290,
      291,
      292,
      293,
      294,
      295,
      296,
      297,
      298,
      299
    ],
    "timestamps": [
      "2022-08-09T09:22:07.365096",
      "2022-08-09T09:22:09.402465",
      "2022-08-09T09:22:11.373078",
      "2022-08-09T09:22:12.788330",
      "2022-08-09T09:22:14.280979",
      "2022-08-09T09:22:16.184320",
      "2022-08-09T09:22:17.693259",
      "2022-08-09T09:22:19.619861",
      "2022-08-09T09:22:21.075980",
      "2022-08-09T09:22:22.725144",
      "2022-08-09T09:22:24.439494",
      "2022-08-09T09:22:25.897996",
      "2022-08-09T09:22:27.325018",
      "2022-08-09T09:22:28.835100",
      "2022-08-09T09:22:30.417625",
      "2022-08-09T09:22:31.833312",
      "2022-08-09T09:22:33.374165",
      "2022-08-09T09:22:35.085089",
      "2022-08-09T09:22:37.039589",
      "2022-08-09T09:22:38.821607",
      "2022-08-09T09:22:40.772762",
      "2022-08-09T09:22:42.194773",
      "2022-08-09T09:22:43.651433",
      "2022-08-09T09:22:45.187219",
      "2022-08-09T09:22:47.090665",
      "2022-08-09T09:22:48.919959",
      "2022-08-09T09:22:50.567513",
      "2022-08-09T09:22:52.143892",
      "2022-08-09T09:22:53.560193",
      "2022-08-09T09:22:55.222013",
      "2022-08-09T09:22:56.929753",
      "2022-08-09T09:22:58.468753",
      "2022-08-09T09:23:00.081053",
      "2022-08-09T09:23:01.582465",
      "2022-08-09T09:23:03.103226",
      "2022-08-09T09:23:04.661145",
      "2022-08-09T09:23:06.096479",
      "2022-08-09T09:23:07.607068",
      "2022-08-09T09:23:09.205327",
      "2022-08-09T09:23:10.834835",
      "2022-08-09T09:23:12.344417",
      "2022-08-09T09:23:14.615070",
      "2022-08-09T09:23:16.375493",
      "2022-08-09T09:23:17.918747",
      "2022-08-09T09:23:19.509459",
      "2022-08-09T09:23:21.020914",
      "2022-08-09T09:23:22.542432",
      "2022-08-09T09:23:24.162506",
      "2022-08-09T09:23:25.769527",
      "2022-08-09T09:23:27.241538",
      "2022-08-09T09:23:28.891701",
      "2022-08-09T09:23:30.344982",
      "2022-08-09T09:23:32.150675",
      "2022-08-09T09:23:33.806948",
      "2022-08-09T09:23:35.444464",
      "2022-08-09T09:23:36.934445",
      "2022-08-09T09:23:38.592860",
      "2022-08-09T09:23:40.309794",
      "2022-08-09T09:23:42.088369",
      "2022-08-09T09:23:43.697691",
      "2022-08-09T09:23:45.432867",
      "2022-08-09T09:23:46.976189",
      "2022-08-09T09:23:48.553339",
      "2022-08-09T09:23:50.149195",
      "2022-08-09T09:23:52.184586",
      "2022-08-09T09:23:54.205193",
      "2022-08-09T09:23:55.891070",
      "2022-08-09T09:23:57.402982",
      "2022-08-09T09:23:58.934865",
      "2022-08-09T09:24:00.577847",
      "2022-08-09T09:24:02.240258",
      "2022-08-09T09:24:03.952154",
      "2022-08-09T09:24:05.705789",
      "2022-08-09T09:24:07.308128",
      "2022-08-09T09:24:08.929639",
      "2022-08-09T09:24:10.541842",
      "2022-08-09T09:24:11.986083",
      "2022-08-09T09:24:13.763077",
      "2022-08-09T09:24:15.987106",
      "2022-08-09T09:24:17.541039",
      "2022-08-09T09:24:19.040591",
      "2022-08-09T09:24:20.644987",
      "2022-08-09T09:24:22.151011",
      "2022-08-09T09:24:23.697139",
      "2022-08-09T09:24:25.198497",
      "2022-08-09T09:24:26.625036",
      "2022-08-09T09:24:28.363974",
      "2022-08-09T09:24:30.039413",
      "2022-08-09T09:24:32.071846",
      "2022-08-09T09:24:33.638319",
      "2022-08-09T09:24:35.217230",
      "2022-08-09T09:24:37.128287",
      "2022-08-09T09:24:39.065699",
      "2022-08-09T09:24:40.731286",
      "2022-08-09T09:24:42.145992",
      "2022-08-09T09:24:43.656761",
      "2022-08-09T09:24:45.242737",
      "2022-08-09T09:24:46.679060",
      "2022-08-09T09:24:48.141083",
      "2022-08-09T09:24:49.664329",
      "2022-08-09T09:24:51.512303",
      "2022-08-09T09:24:53.263194",
      "2022-08-09T09:24:54.934348",
      "2022-08-09T09:24:56.666043",
      "2022-08-09T09:24:58.085351",
      "2022-08-09T09:24:59.587057",
      "2022-08-09T09:25:01.148564",
      "2022-08-09T09:25:02.582507",
      "2022-08-09T09:25:04.058680",
      "2022-08-09T09:25:05.625987",
      "2022-08-09T09:25:07.176382",
      "2022-08-09T09:25:08.637543",
      "2022-08-09T09:25:10.178591",
      "2022-08-09T09:25:11.740050",
      "2022-08-09T09:25:13.165552",
      "2022-08-09T09:25:14.636613",
      "2022-08-09T09:25:16.170493",
      "2022-08-09T09:25:17.848155",
      "2022-08-09T09:25:19.282429",
      "2022-08-09T09:25:20.933651",
      "2022-08-09T09:25:22.504098",
      "2022-08-09T09:25:23.934065",
      "2022-08-09T09:25:25.433398",
      "2022-08-09T09:25:27.041834",
      "2022-08-09T09:25:28.567369",
      "2022-08-09T09:25:29.993763",
      "2022-08-09T09:25:31.702469",
      "2022-08-09T09:25:33.245878",
      "2022-08-09T09:25:34.688684",
      "2022-08-09T09:25:36.370762",
      "2022-08-09T09:25:37.881044",
      "2022-08-09T09:25:39.446749",
      "2022-08-09T09:25:41.025836",
      "2022-08-09T09:25:42.489265",
      "2022-08-09T09:25:43.931331",
      "2022-08-09T09:25:45.389799",
      "2022-08-09T09:25:47.068629",
      "2022-08-09T09:25:48.811463",
      "2022-08-09T09:25:50.573908",
      "2022-08-09T09:25:52.190822",
      "2022-08-09T09:25:53.698774",
      "2022-08-09T09:25:55.213810",
      "2022-08-09T09:25:56.936048",
      "2022-08-09T09:25:58.481412",
      "2022-08-09T09:26:00.018899",
      "2022-08-09T09:26:01.616860",
      "2022-08-09T09:26:03.726498",
      "2022-08-09T09:26:05.350216",
      "2022-08-09T09:26:07.005594",
      "2022-08-09T09:26:08.482110",
      "2022-08-09T09:26:10.057012",
      "2022-08-09T09:26:11.673725",
      "2022-08-09T09:26:13.789981",
      "2022-08-09T09:26:15.413994",
      "2022-08-09T09:26:17.103367",
      "2022-08-09T09:26:18.856244",
      "2022-08-09T09:26:20.434448",
      "2022-08-09T09:26:21.881187",
      "2022-08-09T09:26:23.332546",
      "2022-08-09T09:26:24.980296",
      "2022-08-09T09:26:26.678709",
      "2022-08-09T09:26:28.125640",
      "2022-08-09T09:26:29.577387",
      "2022-08-09T09:26:31.021233",
      "2022-08-09T09:26:32.583439",
      "2022-08-09T09:26:34.173248",
      "2022-08-09T09:26:35.626026",
      "2022-08-09T09:26:37.074710",
      "2022-08-09T09:26:38.523744",
      "2022-08-09T09:26:40.676605",
      "2022-08-09T09:26:42.792633",
      "2022-08-09T09:26:44.561276",
      "2022-08-09T09:26:46.006202",
      "2022-08-09T09:26:47.563646",
      "2022-08-09T09:26:49.263057",
      "2022-08-09T09:26:50.707877",
      "2022-08-09T09:26:52.145678",
      "2022-08-09T09:26:53.585230",
      "2022-08-09T09:26:55.149952",
      "2022-08-09T09:26:56.617385",
      "2022-08-09T09:26:58.145717",
      "2022-08-09T09:26:59.725661",
      "2022-08-09T09:27:01.461510",
      "2022-08-09T09:27:02.902296",
      "2022-08-09T09:27:04.344108",
      "2022-08-09T09:27:05.790796",
      "2022-08-09T09:27:07.678571",
      "2022-08-09T09:27:09.369500",
      "2022-08-09T09:27:10.893276",
      "2022-08-09T09:27:12.368053",
      "2022-08-09T09:27:13.822747",
      "2022-08-09T09:27:15.383096",
      "2022-08-09T09:27:17.030219",
      "2022-08-09T09:27:18.521248",
      "2022-08-09T09:27:20.087394",
      "2022-08-09T09:27:21.535305",
      "2022-08-09T09:27:23.067983",
      "2022-08-09T09:27:24.698314",
      "2022-08-09T09:27:26.318023",
      "2022-08-09T09:27:27.879782",
      "2022-08-09T09:27:29.428707",
      "2022-08-09T09:27:31.020906",
      "2022-08-09T09:27:32.475936",
      "2022-08-09T09:27:34.723453",
      "2022-08-09T09:27:36.839216",
      "2022-08-09T09:27:38.899504",
      "2022-08-09T09:27:40.947701",
      "2022-08-09T09:27:42.698804",
      "2022-08-09T09:27:44.216030",
      "2022-08-09T09:27:45.647437",
      "2022-08-09T09:27:47.190265",
      "2022-08-09T09:27:48.979708",
      "2022-08-09T09:27:51.268716",
      "2022-08-09T09:27:52.769399",
      "2022-08-09T09:27:54.212662",
      "2022-08-09T09:27:55.660798",
      "2022-08-09T09:27:57.675477",
      "2022-08-09T09:27:59.245001",
      "2022-08-09T09:28:00.778862",
      "2022-08-09T09:28:02.464448",
      "2022-08-09T09:28:04.300333",
      "2022-08-09T09:28:06.093479",
      "2022-08-09T09:28:07.891056",
      "2022-08-09T09:28:09.374064",
      "2022-08-09T09:28:11.243398",
      "2022-08-09T09:28:12.976480",
      "2022-08-09T09:28:14.601570",
      "2022-08-09T09:28:16.058811",
      "2022-08-09T09:28:17.501427",
      "2022-08-09T09:28:19.022427",
      "2022-08-09T09:28:21.151036",
      "2022-08-09T09:28:22.957270",
      "2022-08-09T09:28:24.387815",
      "2022-08-09T09:28:25.985633",
      "2022-08-09T09:28:27.464186",
      "2022-08-09T09:28:29.441465",
      "2022-08-09T09:28:30.975291",
      "2022-08-09T09:28:32.444112",
      "2022-08-09T09:28:33.914299",
      "2022-08-09T09:28:35.362599",
      "2022-08-09T09:28:36.812029",
      "2022-08-09T09:28:38.984631",
      "2022-08-09T09:28:40.641952",
      "2022-08-09T09:28:42.229673",
      "2022-08-09T09:28:43.669509",
      "2022-08-09T09:28:45.282179",
      "2022-08-09T09:28:46.817227",
      "2022-08-09T09:28:48.395804",
      "2022-08-09T09:28:50.118918",
      "2022-08-09T09:28:51.571459",
      "2022-08-09T09:28:53.057964",
      "2022-08-09T09:28:54.520694",
      "2022-08-09T09:28:56.089753",
      "2022-08-09T09:28:57.647772",
      "2022-08-09T09:28:59.382882",
      "2022-08-09T09:29:01.122364",
      "2022-08-09T09:29:02.656573",
      "2022-08-09T09:29:04.198129",
      "2022-08-09T09:29:06.027168",
      "2022-08-09T09:29:07.478246",
      "2022-08-09T09:29:08.929971",
      "2022-08-09T09:29:10.521121",
      "2022-08-09T09:29:12.128924",
      "2022-08-09T09:29:13.638605",
      "2022-08-09T09:29:15.077921",
      "2022-08-09T09:29:16.872547",
      "2022-08-09T09:29:18.456539",
      "2022-08-09T09:29:20.069278",
      "2022-08-09T09:29:21.586026",
      "2022-08-09T09:29:23.036059",
      "2022-08-09T09:29:24.621830",
      "2022-08-09T09:29:26.223022",
      "2022-08-09T09:29:27.789833",
      "2022-08-09T09:29:29.236058",
      "2022-08-09T09:29:30.681368",
      "2022-08-09T09:29:32.224373",
      "2022-08-09T09:29:34.518966",
      "2022-08-09T09:29:36.249888",
      "2022-08-09T09:29:37.695821",
      "2022-08-09T09:29:39.132074",
      "2022-08-09T09:29:40.628241",
      "2022-08-09T09:29:42.162287",
      "2022-08-09T09:29:43.909720",
      "2022-08-09T09:29:45.452562",
      "2022-08-09T09:29:46.898039",
      "2022-08-09T09:29:48.598370",
      "2022-08-09T09:29:50.213463",
      "2022-08-09T09:29:51.675058",
      "2022-08-09T09:29:53.122556",
      "2022-08-09T09:29:55.031942",
      "2022-08-09T09:29:56.591661",
      "2022-08-09T09:29:58.681167",
      "2022-08-09T09:30:00.537063",
      "2022-08-09T09:30:01.989082",
      "2022-08-09T09:30:03.732544",
      "2022-08-09T09:30:05.352620",
      "2022-08-09T09:30:07.114558",
      "2022-08-09T09:30:09.203404",
      "2022-08-09T09:30:10.829721",
      "2022-08-09T09:30:12.275933"
    ],
    "values": [
      12.449480383215771,
      11.796511106056554,
      11.67256206178503,
      11.57675278085522,
      11.53009133056015,
      11.48544898109955,
      11.420009702046523,
      11.442281192409247,
      11.410511182311257,
      11.366222738274073,
      11.368282966911595,
      11.385581560684608,
      11.370952825269033,
      11.381958666817034,
      11.348870553583952,
      11.324418912467497,
      11.339346340535064,
      11.329809759236582,
      11.327627746857022,
      11.30288241237065,
      11.315144736505665,
      11.285353762847736,
      11.291666546408194,
      11.285764687034074,
      11.29185810824312,
      11.281635510039337,
      11.30272714856537,
      11.27642331922257,
      11.272382357817357,
      11.265544385757202,
      11.273122244371136,
      11.266901324415208,
      11.238283038447006,
      11.23780822960177,
      11.230370137821875,
      11.23798166577943,
      11.247540825777962,
      11.23881006352109,
      11.236837064790654,
      11.228171052577833,
      11.205166107125855,
      11.229302944444635,
      11.22799469923823,
      11.223149194486469,
      11.216017168884704,
      11.197157324764019,
      11.206534350617234,
      11.199383782379423,
      11.218566243205974,
      11.191503013709086,
      11.201483022817591,
      11.225122480375314,
      11.189510832097596,
      11.187581909833911,
      11.187300372285662,
      11.222046383777887,
      11.19199307312525,
      11.172554938393922,
      11.178457065648667,
      11.147824940246814,
      11.158290160577371,
      11.172387599365981,
      11.196359423862283,
      11.157516563564291,
      11.133378199477475,
      11.126571895641089,
      11.156591212749253,
      11.163041180305557,
      11.130825213461016,
      11.14140929205209,
      11.137172725044575,
      11.141194646451982,
      11.129617741421587,
      11.118438617151778,
      11.150694363800742,
      11.139429398447216,
      11.117254186267585,
      11.14266358436205,
      11.169977317629177,
      11.143805134988304,
      11.131108144738455,
      11.152652693014684,
      11.129513716534236,
      11.12555196000085,
      11.14501214938363,
      11.120503232591822,
      11.135715197594719,
      11.12962174023179,
      11.124517886801335,
      11.108504917822506,
      11.119126878684277,
      11.128970414696767,
      11.11906624174556,
      11.108041222524145,
      11.119398266793487,
      11.112837295642699,
      11.102813439663796,
      11.111265339246668,
      11.130292057268125,
      11.110521093230531,
      11.10454519851281,
      11.11796177365247,
      11.117843535647237,
      11.107258004823322,
      11.101405601811972,
      11.104542251617989,
      11.121143147409912,
      11.110161427832947,
      11.087296252563037,
      11.118567644052911,
      11.092940388709785,
      11.10143915376784,
      11.103061570346481,
      11.08704985762183,
      11.098054569340553,
      11.10937919939894,
      11.09712028183298,
      11.098691217863227,
      11.091004444471448,
      11.105520545595002,
      11.09842647410543,
      11.10129641387257,
      11.09921687056519,
      11.09727888758036,
      11.083518743725072,
      11.109125591085398,
      11.10454289193155,
      11.116173053405864,
      11.11314452623414,
      11.088250789690823,
      11.084529155917323,
      11.081297755371754,
      11.101207725739014,
      11.097856288350615,
      11.076414006442782,
      11.107290196597244,
      11.084309360390343,
      11.10513372476863,
      11.12166657902945,
      11.110029028140781,
      11.08394068366834,
      11.082001001963796,
      11.093509001636153,
      11.087072570608226,
      11.0777768710028,
      11.114735767502598,
      11.073810203483152,
      11.092994387054746,
      11.098911007599838,
      11.082729596222196,
      11.08218587837247,
      11.110047469731848,
      11.09757821124252,
      11.076418441315843,
      11.090346359020232,
      11.0726730445767,
      11.082310283321004,
      11.077051970332736,
      11.100908017679801,
      11.080301661775957,
      11.080675783034337,
      11.106886029657883,
      11.067813426830599,
      11.078965166163089,
      11.106038733087013,
      11.068445376618483,
      11.071293224828702,
      11.069288243344332,
      11.083919212679849,
      11.076160964103611,
      11.083021621891099,
      11.084081720029525,
      11.074174732877795,
      11.064133897400453,
      11.074366037398965,
      11.09040438179852,
      11.099019135875167,
      11.084106518610715,
      11.085243204782739,
      11.09062291876636,
      11.08053329909783,
      11.082716633066795,
      11.071640637202139,
      11.06489118412825,
      11.072212180987872,
      11.080378825266301,
      11.091355490442874,
      11.064938052976872,
      11.064915206848777,
      11.075468857292497,
      11.06692860108883,
      11.067889411656676,
      11.083803845175918,
      11.077817215862513,
      11.05386821785771,
      11.096896568534016,
      11.070276489483899,
      11.083192641030273,
      11.055149158390908,
      11.075501011790402,
      11.065700941770638,
      11.060571542399405,
      11.068154405823888,
      11.062452718485579,
      11.058779215096358,
      11.06641392636953,
      11.065620747848605,
      11.088632735494942,
      11.07713355123097,
      11.079299900963324,
      11.067432971604783,
      11.060495765852517,
      11.06860201616941,
      11.067094786424468,
      11.060682224229708,
      11.058831576797484,
      11.020479850387298,
      11.002536826691976,
      11.00231507158482,
      11.001967517683578,
      10.998360268533439,
      10.999657350857769,
      10.998521906778643,
      11.000234526502163,
      10.999079274048505,
      11.001848876724305,
      11.00132270953633,
      10.998025483249272,
      11.000231410167062,
      10.998918073026566,
      10.995968314979873,
      10.998783412909528,
      10.996770986027618,
      10.99734022019806,
      10.99759441234901,
      10.999080528363947,
      10.996608066549891,
      10.998822693484872,
      10.998095952632113,
      10.996687624972783,
      10.999102432826275,
      10.998227926068637,
      10.997567071115292,
      10.997943497014978,
      10.997486614880074,
      10.997636564903551,
      10.996017377781648,
      10.99690779257633,
      10.995874629620253,
      10.995731618739844,
      10.997230839520537,
      10.995876138108008,
      10.989328358716065,
      10.988427419979251,
      10.987884266703716,
      10.987991232949035,
      10.987902024598679,
      10.987637516430969,
      10.987878979033527,
      10.987818547932568,
      10.987741777624949,
      10.987589278446139,
      10.987765318502557,
      10.98767995703822,
      10.987734924219344,
      10.987523877240811,
      10.987658978273139,
      10.988263356661344,
      10.987668152674365,
      10.987442439275435,
      10.987911209230226,
      10.987583431066966,
      10.987771455958873,
      10.987703397075693,
      10.987435872219791,
      10.987231085602213,
      10.98654090158856,
      10.986549122886652,
      10.986529948773818,
      10.986553964801917,
      10.986545430139847,
      10.986540669220481,
      10.986547266067383,
      10.986547754116112,
      10.986534579170748,
      10.98651692915842,
      10.98655625186265,
      10.986520305699337,
      10.986556694816533,
      10.98647477853165,
      10.986519800849756,
      10.986504534079243,
      10.986525787518488,
      10.986522025400761,
      10.986498359540194,
      10.986495791793798,
      10.986467764007559,
      10.986460383498912,
      10.986372870082993,
      10.986376299608985
    ]
  },
  "val": {
    "steps": [
      0,
      1,
      2,
      3,
      4,
      5,
      6,
      7,
      8,
      9,
      10,
      11,
      12,
      13,
      14,
      15,
      16,
      17,
      18,
      19,
      20,
      21,
      22,
      23,
      24,
      25,
      26,
      27,
      28,
      29,
      30,
      31,
      32,
      33,
      34,
      35,
      36,
      37,
      38,
      39,
      40,
      41,
      42,
      43,
      44,
      45,
      46,
      47,
      48,
      49,
      50,
      51,
      52,
      53,
      54,
      55,
      56,
      57,
      58,
      59,
      60,
      61,
      62,
      63,
      64,
      65,
      66,
      67,
      68,
      69,
      70,
      71,
      72,
      73,
      74,
      75,
      76,
      77,
      78,
      79,
      80,
      81,
      82,
      83,
      84,
      85,
      86,
      87,
      88,
      89,
      90,
      91,
      92,
      93,
      94,
      95,
      96,
      97,
      98,
      99,
      100,
      101,
      102,
      103,
      104,
      105,
      106,
      107,
      108,
      109,
      110,
      111,
      112,
      113,
      114,
      115,
      116,
      117,
      118,
      119,
      120,
      121,
      122,
      123,
      124,
      125,
      126,
      127,
      128,
      129,
      130,
      131,
      132,
      133,
      134,
      135,
      136,
      137,
      138,
      139,
      140,
      141,
      142,
      143,
      144,
      145,
      146,
      147,
      148,
      149,
      150,
      151,
      152,
      153,
      154,
      155,
      156,
      157,
      158,
      159,
      160,
      161,
      162,
      163,
      164,
      165,
      166,
      167,
      168,
      169,
      170,
      171,
      172,
      173,
      174,
      175,
      176,
      177,
      178,
      179,
      180,
      181,
      182,
      183,
      184,
      185,
      186,
      187,
      188,
      189,
      190,
      191,
      192,
      193,
      194,
      195,
      196,
      197,
      198,
      199,
      200,
      201,
      202,
      203,
      204,
      205,
      206,
      207,
      208,
      209,
      210,
      211,
      212,
      213,
      214,
      215,
      216,
      217,
      218,
      219,
      220,
      221,
      222,
      223,
      224,
      225,
      226,
      227,
      228,
      229,
      230,
      231,
      232,
      233,
      234,
      235,
      236,
      237,
      238,
      239,
      240,
      241,
      242,
      243,
      244,
      245,
      246,
      247,
      248,
      249,
      250,
      251,
      252,
      253,
      254,
      255,
      256,
      257,
      258,
      259,
      260,
      261,
      262,
      263,
      264,
      265,
      266,
      267,
      268,
      269,
      270,
      271,
      272,
      273,
      274,
      275,
      276,
      277,
      278,
      279,
      280,
      281,
      282,
      283,
      284,
      285,
      286,
      287,
      288,
      289,
      290,
      291,
      292,
      293,
      294,
      295,
      296,
      297,
      298,
      299
    ],
    "timestamps": [
      "2022-08-09T09:22:07.479256",
      "2022-08-09T09:22:09.543479",
      "2022-08-09T09:22:11.446034",
      "2022-08-09T09:22:12.861028",
      "2022-08-09T09:22:14.401367",
      "2022-08-09T09:22:16.257186",
      "2022-08-09T09:22:17.783781",
      "2022-08-09T09:22:19.692117",
      "2022-08-09T09:22:21.148470",
      "2022-08-09T09:22:22.801437",
      "2022-08-09T09:22:24.534212",
      "2022-08-09T09:22:25.970818",
      "2022-08-09T09:22:27.400554",
      "2022-08-09T09:22:28.910959",
      "2022-08-09T09:22:30.490374",
      "2022-08-09T09:22:31.905215",
      "2022-08-09T09:22:33.448869",
      "2022-08-09T09:22:35.186598",
      "2022-08-09T09:22:37.145414",
      "2022-08-09T09:22:38.898161",
      "2022-08-09T09:22:40.844710",
      "2022-08-09T09:22:42.267621",
      "2022-08-09T09:22:43.727638",
      "2022-08-09T09:22:45.288075",
      "2022-08-09T09:22:47.207869",
      "2022-08-09T09:22:48.995892",
      "2022-08-09T09:22:50.642629",
      "2022-08-09T09:22:52.216474",
      "2022-08-09T09:22:53.632884",
      "2022-08-09T09:22:55.352151",
      "2022-08-09T09:22:57.002115",
      "2022-08-09T09:22:58.542615",
      "2022-08-09T09:23:00.154194",
      "2022-08-09T09:23:01.658955",
      "2022-08-09T09:23:03.180332",
      "2022-08-09T09:23:04.734597",
      "2022-08-09T09:23:06.169338",
      "2022-08-09T09:23:07.684027",
      "2022-08-09T09:23:09.316867",
      "2022-08-09T09:23:10.919464",
      "2022-08-09T09:23:12.464156",
      "2022-08-09T09:23:14.735605",
      "2022-08-09T09:23:16.450919",
      "2022-08-09T09:23:17.991704",
      "2022-08-09T09:23:19.581947",
      "2022-08-09T09:23:21.097221",
      "2022-08-09T09:23:22.622792",
      "2022-08-09T09:23:24.235326",
      "2022-08-09T09:23:25.842647",
      "2022-08-09T09:23:27.318865",
      "2022-08-09T09:23:28.968784",
      "2022-08-09T09:23:30.427808",
      "2022-08-09T09:23:32.234785",
      "2022-08-09T09:23:33.883520",
      "2022-08-09T09:23:35.517251",
      "2022-08-09T09:23:37.057484",
      "2022-08-09T09:23:38.669143",
      "2022-08-09T09:23:40.390361",
      "2022-08-09T09:23:42.182288",
      "2022-08-09T09:23:43.772984",
      "2022-08-09T09:23:45.503581",
      "2022-08-09T09:23:47.049145",
      "2022-08-09T09:23:48.681749",
      "2022-08-09T09:23:50.226008",
      "2022-08-09T09:23:52.295276",
      "2022-08-09T09:23:54.326184",
      "2022-08-09T09:23:55.964505",
      "2022-08-09T09:23:57.481030",
      "2022-08-09T09:23:59.012492",
      "2022-08-09T09:24:00.682644",
      "2022-08-09T09:24:02.316882",
      "2022-08-09T09:24:04.060844",
      "2022-08-09T09:24:05.779763",
      "2022-08-09T09:24:07.394317",
      "2022-08-09T09:24:09.019522",
      "2022-08-09T09:24:10.615612",
      "2022-08-09T09:24:12.060397",
      "2022-08-09T09:24:13.849900",
      "2022-08-09T09:24:16.091285",
      "2022-08-09T09:24:17.614062",
      "2022-08-09T09:24:19.162717",
      "2022-08-09T09:24:20.721091",
      "2022-08-09T09:24:22.227132",
      "2022-08-09T09:24:23.790484",
      "2022-08-09T09:24:25.272211",
      "2022-08-09T09:24:26.698516",
      "2022-08-09T09:24:28.450815",
      "2022-08-09T09:24:30.146853",
      "2022-08-09T09:24:32.152271",
      "2022-08-09T09:24:33.723335",
      "2022-08-09T09:24:35.290600",
      "2022-08-09T09:24:37.210492",
      "2022-08-09T09:24:39.167748",
      "2022-08-09T09:24:40.802020",
      "2022-08-09T09:24:42.218274",
      "2022-08-09T09:24:43.738991",
      "2022-08-09T09:24:45.319039",
      "2022-08-09T09:24:46.751787",
      "2022-08-09T09:24:48.221390",
      "2022-08-09T09:24:49.739854",
      "2022-08-09T09:24:51.623572",
      "2022-08-09T09:24:53.348047",
      "2022-08-09T09:24:55.019938",
      "2022-08-09T09:24:56.738526",
      "2022-08-09T09:24:58.158481",
      "2022-08-09T09:24:59.680766",
      "2022-08-09T09:25:01.225079",
      "2022-08-09T09:25:02.653885",
      "2022-08-09T09:25:04.136266",
      "2022-08-09T09:25:05.703103",
      "2022-08-09T09:25:07.249615",
      "2022-08-09T09:25:08.710381",
      "2022-08-09T09:25:10.256836",
      "2022-08-09T09:25:11.815078",
      "2022-08-09T09:25:13.238642",
      "2022-08-09T09:25:14.713924",
      "2022-08-09T09:25:16.263962",
      "2022-08-09T09:25:17.921305",
      "2022-08-09T09:25:19.355314",
      "2022-08-09T09:25:21.022149",
      "2022-08-09T09:25:22.578131",
      "2022-08-09T09:25:24.006573",
      "2022-08-09T09:25:25.510032",
      "2022-08-09T09:25:27.121998",
      "2022-08-09T09:25:28.640287",
      "2022-08-09T09:25:30.066784",
      "2022-08-09T09:25:31.780475",
      "2022-08-09T09:25:33.319877",
      "2022-08-09T09:25:34.762532",
      "2022-08-09T09:25:36.442164",
      "2022-08-09T09:25:37.958949",
      "2022-08-09T09:25:39.550977",
      "2022-08-09T09:25:41.099398",
      "2022-08-09T09:25:42.563887",
      "2022-08-09T09:25:44.005294",
      "2022-08-09T09:25:45.483608",
      "2022-08-09T09:25:47.153530",
      "2022-08-09T09:25:48.929411",
      "2022-08-09T09:25:50.647032",
      "2022-08-09T09:25:52.261640",
      "2022-08-09T09:25:53.772033",
      "2022-08-09T09:25:55.293173",
      "2022-08-09T09:25:57.037488",
      "2022-08-09T09:25:58.555310",
      "2022-08-09T09:26:00.091264",
      "2022-08-09T09:26:01.699812",
      "2022-08-09T09:26:03.802422",
      "2022-08-09T09:26:05.423796",
      "2022-08-09T09:26:07.094638",
      "2022-08-09T09:26:08.556603",
      "2022-08-09T09:26:10.174668",
      "2022-08-09T09:26:11.814233",
      "2022-08-09T09:26:13.894535",
      "2022-08-09T09:26:15.494737",
      "2022-08-09T09:26:17.190521",
      "2022-08-09T09:26:18.946116",
      "2022-08-09T09:26:20.509132",
      "2022-08-09T09:26:21.956140",
      "2022-08-09T09:26:23.418423",
      "2022-08-09T09:26:25.082958",
      "2022-08-09T09:26:26.753281",
      "2022-08-09T09:26:28.199784",
      "2022-08-09T09:26:29.651193",
      "2022-08-09T09:26:31.095221",
      "2022-08-09T09:26:32.660987",
      "2022-08-09T09:26:34.255732",
      "2022-08-09T09:26:35.699634",
      "2022-08-09T09:26:37.148731",
      "2022-08-09T09:26:38.597536",
      "2022-08-09T09:26:40.797157",
      "2022-08-09T09:26:42.875293",
      "2022-08-09T09:26:44.634939",
      "2022-08-09T09:26:46.080009",
      "2022-08-09T09:26:47.643557",
      "2022-08-09T09:26:49.337515",
      "2022-08-09T09:26:50.781446",
      "2022-08-09T09:26:52.219548",
      "2022-08-09T09:26:53.658136",
      "2022-08-09T09:26:55.258550",
      "2022-08-09T09:26:56.690701",
      "2022-08-09T09:26:58.226315",
      "2022-08-09T09:26:59.831325",
      "2022-08-09T09:27:01.535034",
      "2022-08-09T09:27:02.975823",
      "2022-08-09T09:27:04.418116",
      "2022-08-09T09:27:05.864455",
      "2022-08-09T09:27:07.756290",
      "2022-08-09T09:27:09.474791",
      "2022-08-09T09:27:10.967651",
      "2022-08-09T09:27:12.442024",
      "2022-08-09T09:27:13.896172",
      "2022-08-09T09:27:15.462951",
      "2022-08-09T09:27:17.107684",
      "2022-08-09T09:27:18.595103",
      "2022-08-09T09:27:20.161497",
      "2022-08-09T09:27:21.609177",
      "2022-08-09T09:27:23.145438",
      "2022-08-09T09:27:24.772846",
      "2022-08-09T09:27:26.392481",
      "2022-08-09T09:27:27.957183",
      "2022-08-09T09:27:29.507874",
      "2022-08-09T09:27:31.094030",
      "2022-08-09T09:27:32.561368",
      "2022-08-09T09:27:34.845065",
      "2022-08-09T09:27:36.919773",
      "2022-08-09T09:27:39.022390",
      "2022-08-09T09:27:41.050205",
      "2022-08-09T09:27:42.775480",
      "2022-08-09T09:27:44.290244",
      "2022-08-09T09:27:45.720736",
      "2022-08-09T09:27:47.264116",
      "2022-08-09T09:27:49.103306",
      "2022-08-09T09:27:51.376409",
      "2022-08-09T09:27:52.842538",
      "2022-08-09T09:27:54.288356",
      "2022-08-09T09:27:55.735289",
      "2022-08-09T09:27:57.753677",
      "2022-08-09T09:27:59.348006",
      "2022-08-09T09:28:00.853535",
      "2022-08-09T09:28:02.587035",
      "2022-08-09T09:28:04.382231",
      "2022-08-09T09:28:06.171739",
      "2022-08-09T09:28:08.000638",
      "2022-08-09T09:28:09.448769",
      "2022-08-09T09:28:11.352256",
      "2022-08-09T09:28:13.053798",
      "2022-08-09T09:28:14.678306",
      "2022-08-09T09:28:16.132877",
      "2022-08-09T09:28:17.575226",
      "2022-08-09T09:28:19.095937",
      "2022-08-09T09:28:21.275952",
      "2022-08-09T09:28:23.030953",
      "2022-08-09T09:28:24.462944",
      "2022-08-09T09:28:26.059218",
      "2022-08-09T09:28:27.584833",
      "2022-08-09T09:28:29.544010",
      "2022-08-09T09:28:31.048938",
      "2022-08-09T09:28:32.536464",
      "2022-08-09T09:28:33.988092",
      "2022-08-09T09:28:35.436644",
      "2022-08-09T09:28:36.885543",
      "2022-08-09T09:28:39.103725",
      "2022-08-09T09:28:40.715419",
      "2022-08-09T09:28:42.302640",
      "2022-08-09T09:28:43.743379",
      "2022-08-09T09:28:45.355717",
      "2022-08-09T09:28:46.889662",
      "2022-08-09T09:28:48.473956",
      "2022-08-09T09:28:50.193741",
      "2022-08-09T09:28:51.645891",
      "2022-08-09T09:28:53.131025",
      "2022-08-09T09:28:54.617575",
      "2022-08-09T09:28:56.167739",
      "2022-08-09T09:28:57.721463",
      "2022-08-09T09:28:59.491946",
      "2022-08-09T09:29:01.195971",
      "2022-08-09T09:29:02.736526",
      "2022-08-09T09:29:04.287826",
      "2022-08-09T09:29:06.107814",
      "2022-08-09T09:29:07.565824",
      "2022-08-09T09:29:09.002952",
      "2022-08-09T09:29:10.600710",
      "2022-08-09T09:29:12.202613",
      "2022-08-09T09:29:13.712390",
      "2022-08-09T09:29:15.151341",
      "2022-08-09T09:29:16.956937",
      "2022-08-09T09:29:18.536425",
      "2022-08-09T09:29:20.147594",
      "2022-08-09T09:29:21.659933",
      "2022-08-09T09:29:23.109835",
      "2022-08-09T09:29:24.750938",
      "2022-08-09T09:29:26.300863",
      "2022-08-09T09:29:27.863491",
      "2022-08-09T09:29:29.310620",
      "2022-08-09T09:29:30.754964",
      "2022-08-09T09:29:32.349272",
      "2022-08-09T09:29:34.641962",
      "2022-08-09T09:29:36.323645",
      "2022-08-09T09:29:37.769612",
      "2022-08-09T09:29:39.205591",
      "2022-08-09T09:29:40.706268",
      "2022-08-09T09:29:42.240704",
      "2022-08-09T09:29:44.009725",
      "2022-08-09T09:29:45.526453",
      "2022-08-09T09:29:46.972059",
      "2022-08-09T09:29:48.674733",
      "2022-08-09T09:29:50.293248",
      "2022-08-09T09:29:51.748310",
      "2022-08-09T09:29:53.197661",
      "2022-08-09T09:29:55.140832",
      "2022-08-09T09:29:56.667168",
      "2022-08-09T09:29:58.773029",
      "2022-08-09T09:30:00.620870",
      "2022-08-09T09:30:02.063049",
      "2022-08-09T09:30:03.812463",
      "2022-08-09T09:30:05.426576",
      "2022-08-09T09:30:07.192472",
      "2022-08-09T09:30:09.299199",
      "2022-08-09T09:30:10.903344",
      "2022-08-09T09:30:12.349633"
    ],
    "values": [
      11.99333565152028,
      11.73885523035263,
      11.659785954948848,
      11.56924276872291,
      11.507160247570317,
      11.473492600162746,
      11.477319049427742,
      11.48137152539853,
      11.47799037808483,
      11.463282070305155,
      11.447688414587626,
      11.452461693597584,
      11.456094760342568,
      11.438004603962222,
      11.460871142204727,
      11.37640825371368,
      11.376746428705479,
      11.370331939972711,
      11.356716118285862,
      11.3818350305725,
      11.418931850771484,
      11.316946097215201,
      11.404152872301712,
      11.397926596104114,
      11.343605242650792,
      11.30779912344264,
      11.357404683880706,
      11.35372650754729,
      11.310974579464128,
      11.38284975308044,
      11.311424801472103,
      11.332115012445414,
      11.355111774539282,
      11.340726312569934,
      11.307397580499762,
      11.370962099793491,
      11.3391790557725,
      11.340231930689168,
      11.293640967793175,
      11.289710756900284,
      11.262885433505943,
      11.369478785076407,
      11.329624475138136,
      11.325669069712106,
      11.298667144437525,
      11.267684140307704,
      11.258225761985328,
      11.303854572471858,
      11.279472585293316,
      11.256042060320002,
      11.271990171768094,
      11.259613330480366,
      11.253883196034813,
      11.242189870905275,
      11.299961295501017,
      11.27487520486024,
      11.306117495692842,
      11.244840352883541,
      11.22029524110601,
      11.255779431072543,
      11.309452131641141,
      11.266381745238432,
      11.269743516203741,
      11.219505395186943,
      11.236971659143396,
      11.232517798172276,
      11.282748426552624,
      11.226975572738837,
      11.195928816293403,
      11.232160753431975,
      11.230216653989146,
      11.21105032854324,
      11.174044943369582,
      11.230751093209237,
      11.222729630022348,
      11.265110979124294,
      11.2177930431463,
      11.221015051730395,
      11.27150683134829,
      11.19337080460204,
      11.204311521869927,
      11.234351084402862,
      11.190585157842484,
      11.213555739249887,
      11.206347248706267,
      11.237393108098939,
      11.233025831871602,
      11.217680902512445,
      11.225232109778684,
      11.209957092068917,
      11.228285053275393,
      11.247726155375828,
      11.234242271583256,
      11.239841288697765,
      11.182526543767969,
      11.195719570009336,
      11.181245400646356,
      11.225938866699895,
      11.21539216644341,
      11.219625534467516,
      11.190347242968866,
      11.230652949903755,
      11.187142160999167,
      11.179812572015368,
      11.201347704587969,
      11.202995252577242,
      11.243798309585225,
      11.181578423375726,
      11.167625331025166,
      11.264219512994543,
      11.188419261044709,
      11.199512204091153,
      11.211301444349084,
      11.177402606934475,
      11.207791648579398,
      11.217580638920502,
      11.235623452438787,
      11.228276032175675,
      11.18374305298219,
      11.194992047162165,
      11.208458331029718,
      11.25475302866669,
      11.189820717661686,
      11.176407662987396,
      11.18773769087224,
      11.203286154546126,
      11.195425796374659,
      11.19795895811147,
      11.18028547663724,
      11.193098022513757,
      11.258017514382232,
      11.197823653273794,
      11.214114117204875,
      11.192711496293345,
      11.183301935039193,
      11.183323112568988,
      11.206872169228594,
      11.185422433054788,
      11.216512960229153,
      11.178582652670151,
      11.169441535871075,
      11.208176353001026,
      11.188192475304712,
      11.196250490439972,
      11.189357284842242,
      11.216115763969407,
      11.161302227099771,
      11.243003246387458,
      11.180144784194031,
      11.184041288878072,
      11.163995363113731,
      11.225802844143074,
      11.227642036457917,
      11.206153209941458,
      11.205459359544815,
      11.194541798130889,
      11.198910191539442,
      11.177040765056029,
      11.202867199874818,
      11.154154778176661,
      11.215357716681664,
      11.215032988336274,
      11.180621148001197,
      11.189145253198909,
      11.219449135025508,
      11.199018684307829,
      11.233867884441059,
      11.17370775433976,
      11.17841827898139,
      11.163740904064793,
      11.165572289468376,
      11.224417777524334,
      11.165490557914325,
      11.20410515904137,
      11.194750228260236,
      11.278143181822562,
      11.189013082912057,
      11.171714492439685,
      11.20088483791617,
      11.183564992222191,
      11.202007829562811,
      11.1579041627504,
      11.20715573663761,
      11.134240840242489,
      11.163188382341232,
      11.174125546319726,
      11.158617460498037,
      11.163125883027552,
      11.162615278874792,
      11.219177438557145,
      11.155025283364784,
      11.238649302701095,
      11.258713407565526,
      11.166913879800312,
      11.164138246806859,
      11.21106935299863,
      11.195309844587138,
      11.163359212685641,
      11.19395579242724,
      11.152117109008762,
      11.176744954951461,
      11.179328499273081,
      11.180362406293266,
      11.14913425104157,
      11.182677210798461,
      11.18170755060336,
      11.163930205620662,
      11.211254100440321,
      11.19377310844558,
      11.197540768468539,
      11.187864294096684,
      11.185117897463126,
      11.167080682870278,
      11.166678140178927,
      11.210184364406153,
      11.188675161638967,
      11.124732735948633,
      11.129023228280145,
      11.124351628322755,
      11.121751714723809,
      11.126480201659287,
      11.126548664040723,
      11.122107763329174,
      11.123256359393128,
      11.12130833323288,
      11.12503982998651,
      11.123113652395604,
      11.119492918426804,
      11.121363444607514,
      11.12099730934375,
      11.129901372532448,
      11.124455632165322,
      11.118989244183606,
      11.125107102218974,
      11.123020685263237,
      11.128486643969634,
      11.121613028326424,
      11.11926372567767,
      11.125738124218177,
      11.118790529387862,
      11.12780479426242,
      11.124516222706939,
      11.124472239881618,
      11.12444104586256,
      11.122048369716941,
      11.131554962048629,
      11.121615669025847,
      11.133113579702743,
      11.132303682672632,
      11.125756249120307,
      11.117444671148968,
      11.11925593816279,
      11.118677651298352,
      11.117710501295333,
      11.118271239393582,
      11.118279610883858,
      11.118915143232872,
      11.11832215279822,
      11.1185219304807,
      11.118162446634326,
      11.118187708705118,
      11.118316246105117,
      11.119451601435719,
      11.118259062939256,
      11.118283389354568,
      11.118806857959964,
      11.119110643262141,
      11.118589220497181,
      11.118643140283433,
      11.119231131988093,
      11.118848659961362,
      11.118354726912056,
      11.118256643475272,
      11.118479305838441,
      11.118880723268646,
      11.118137920967385,
      11.117982147413162,
      11.118067825853473,
      11.118060673573646,
      11.118061986088037,
      11.11801145733394,
      11.11810029410444,
      11.118068720974,
      11.118038812884157,
      11.11802676073398,
      11.118097443724931,
      11.11814592851622,
      11.118088580144398,
      11.118108054810051,
      11.118140508938382,
      11.118257364333823,
      11.118255341767261,
      11.118241419253938,
      11.11820058258358,
      11.11817558298675,
      11.118266795918672,
      11.118252264110307,
      11.118257014046128,
      11.118263812689312,
      11.11828228294489
    ]
  }
}