INFO - residual_nf - Running command 'run'
INFO - residual_nf - Started run with ID "3"
[CONFIG] {'bn': 'ecoli70-alt', 'structure': 'faithful', 'coeff': 0.99, 'n_power_iterations': 5, 'num_blocks': 5, 'hidden_dims': [100], 'activation': 'lipswish', 'grad_in_forward': True, 'batch_size': 100, 'num_train_samples': 10000, 'num_val_samples': 5000, 'num_epochs': 300, 'num_train_batches': 100, 'num_val_batches': 50, 'lr': 0.01, 'seed': 2, 'patience': 20, 'ex_name': 'residual_nf_density_estimation', 'sub_folder': 'faithful_99_lipswish_5_[100]', 'path': './experiment_logs/residual_nf_density_estimation/ecoli70-alt/faithful_99_lipswish_5_[100]', 'bt_config': {'depth': 5, 'seed': 4}}
[ENCODED STRUCTURE] Using faithful BN structure.
  0%|          | 0/300 [00:00<?, ?it/s]Train NLL: 58.025, Val NLL: 42.097:   0%|          | 1/300 [00:05<27:00,  5.42s/it]Train NLL: 41.169, Val NLL: 40.910:   1%|          | 2/300 [00:08<20:37,  4.15s/it]Train NLL: 40.687, Val NLL: 40.566:   1%|          | 3/300 [00:11<18:29,  3.73s/it]Train NLL: 40.587, Val NLL: 40.585:   1%|▏         | 4/300 [00:15<17:17,  3.50s/it]Train NLL: 40.488, Val NLL: 40.539:   2%|▏         | 5/300 [00:18<16:37,  3.38s/it]Train NLL: 40.464, Val NLL: 40.460:   2%|▏         | 6/300 [00:21<16:24,  3.35s/it]Train NLL: 40.424, Val NLL: 40.390:   2%|▏         | 7/300 [00:24<16:16,  3.33s/it]Train NLL: 40.397, Val NLL: 40.470:   3%|▎         | 8/300 [00:28<15:59,  3.28s/it]Train NLL: 40.394, Val NLL: 40.457:   3%|▎         | 9/300 [00:31<15:37,  3.22s/it]Train NLL: 40.366, Val NLL: 40.397:   3%|▎         | 10/300 [00:34<15:38,  3.24s/it]Train NLL: 40.370, Val NLL: 40.319:   4%|▎         | 11/300 [00:37<15:40,  3.25s/it]Train NLL: 40.325, Val NLL: 40.391:   4%|▍         | 12/300 [00:40<15:41,  3.27s/it]Train NLL: 40.333, Val NLL: 40.419:   4%|▍         | 13/300 [00:44<15:37,  3.27s/it]Train NLL: 40.312, Val NLL: 40.368:   5%|▍         | 14/300 [00:47<15:27,  3.24s/it]Train NLL: 40.334, Val NLL: 40.355:   5%|▌         | 15/300 [00:50<15:19,  3.23s/it]Train NLL: 40.310, Val NLL: 40.437:   5%|▌         | 16/300 [00:53<15:29,  3.27s/it]Train NLL: 40.350, Val NLL: 40.378:   6%|▌         | 17/300 [00:57<15:17,  3.24s/it]Train NLL: 40.330, Val NLL: 40.370:   6%|▌         | 18/300 [01:00<15:07,  3.22s/it]Train NLL: 40.318, Val NLL: 40.346:   6%|▋         | 19/300 [01:03<15:09,  3.24s/it]Train NLL: 40.313, Val NLL: 40.341:   7%|▋         | 20/300 [01:06<15:00,  3.21s/it]Train NLL: 40.331, Val NLL: 40.275:   7%|▋         | 21/300 [01:09<14:52,  3.20s/it]Train NLL: 40.288, Val NLL: 40.333:   7%|▋         | 22/300 [01:13<14:53,  3.21s/it]Train NLL: 40.297, Val NLL: 40.379:   8%|▊         | 23/300 [01:16<14:47,  3.21s/it]Train NLL: 40.318, Val NLL: 40.381:   8%|▊         | 24/300 [01:19<14:43,  3.20s/it]Train NLL: 40.289, Val NLL: 40.322:   8%|▊         | 25/300 [01:22<14:48,  3.23s/it]Train NLL: 40.318, Val NLL: 40.382:   9%|▊         | 26/300 [01:25<14:37,  3.20s/it]Train NLL: 40.318, Val NLL: 40.281:   9%|▉         | 27/300 [01:29<14:21,  3.16s/it]Train NLL: 40.286, Val NLL: 40.315:   9%|▉         | 28/300 [01:32<14:32,  3.21s/it]Train NLL: 40.266, Val NLL: 40.262:  10%|▉         | 29/300 [01:35<14:24,  3.19s/it]Train NLL: 40.284, Val NLL: 40.312:  10%|█         | 30/300 [01:38<14:18,  3.18s/it]Train NLL: 40.286, Val NLL: 40.311:  10%|█         | 31/300 [01:41<14:24,  3.21s/it]Train NLL: 40.300, Val NLL: 40.307:  11%|█         | 32/300 [01:45<14:19,  3.21s/it]Train NLL: 40.293, Val NLL: 40.380:  11%|█         | 33/300 [01:48<14:13,  3.20s/it]Train NLL: 40.306, Val NLL: 40.407:  11%|█▏        | 34/300 [01:51<14:12,  3.20s/it]Train NLL: 40.296, Val NLL: 40.259:  12%|█▏        | 35/300 [01:54<14:09,  3.21s/it]Train NLL: 40.259, Val NLL: 40.301:  12%|█▏        | 36/300 [01:57<14:06,  3.20s/it]Train NLL: 40.285, Val NLL: 40.286:  12%|█▏        | 37/300 [02:01<14:06,  3.22s/it]Train NLL: 40.276, Val NLL: 40.352:  13%|█▎        | 38/300 [02:04<14:06,  3.23s/it]Train NLL: 40.277, Val NLL: 40.287:  13%|█▎        | 39/300 [02:07<13:59,  3.22s/it]Train NLL: 40.289, Val NLL: 40.323:  13%|█▎        | 40/300 [02:10<13:52,  3.20s/it]Train NLL: 40.274, Val NLL: 40.336:  14%|█▎        | 41/300 [02:14<13:53,  3.22s/it]Train NLL: 40.271, Val NLL: 40.326:  14%|█▍        | 42/300 [02:17<13:46,  3.20s/it]Train NLL: 40.278, Val NLL: 40.394:  14%|█▍        | 43/300 [02:20<13:44,  3.21s/it]Train NLL: 40.287, Val NLL: 40.309:  15%|█▍        | 44/300 [02:23<13:46,  3.23s/it]Train NLL: 40.275, Val NLL: 40.309:  15%|█▌        | 45/300 [02:26<13:35,  3.20s/it]Train NLL: 40.266, Val NLL: 40.297:  15%|█▌        | 46/300 [02:29<13:27,  3.18s/it]Train NLL: 40.260, Val NLL: 40.345:  16%|█▌        | 47/300 [02:33<13:35,  3.22s/it]Train NLL: 40.276, Val NLL: 40.313:  16%|█▌        | 48/300 [02:36<13:33,  3.23s/it]Train NLL: 40.280, Val NLL: 40.417:  16%|█▋        | 49/300 [02:39<13:30,  3.23s/it]Train NLL: 40.286, Val NLL: 40.368:  17%|█▋        | 50/300 [02:43<13:29,  3.24s/it]Train NLL: 40.256, Val NLL: 40.311:  17%|█▋        | 51/300 [02:46<13:16,  3.20s/it]Train NLL: 40.252, Val NLL: 40.304:  17%|█▋        | 52/300 [02:49<13:10,  3.19s/it]Train NLL: 40.259, Val NLL: 40.356:  18%|█▊        | 53/300 [02:52<13:13,  3.21s/it]Train NLL: 40.255, Val NLL: 40.264:  18%|█▊        | 54/300 [02:55<13:07,  3.20s/it]Train NLL: 40.253, Val NLL: 40.342:  18%|█▊        | 55/300 [02:58<13:03,  3.20s/it]Train NLL: 40.252, Val NLL: 40.347:  19%|█▊        | 56/300 [03:02<13:03,  3.21s/it]Train NLL: 40.266, Val NLL: 40.292:  19%|█▉        | 57/300 [03:05<12:56,  3.20s/it]Train NLL: 40.251, Val NLL: 40.361:  19%|█▉        | 58/300 [03:08<12:52,  3.19s/it]Train NLL: 40.243, Val NLL: 40.316:  20%|█▉        | 59/300 [03:11<12:53,  3.21s/it]Train NLL: 40.246, Val NLL: 40.308:  20%|██        | 60/300 [03:14<12:49,  3.21s/it]Train NLL: 40.260, Val NLL: 40.329:  20%|██        | 61/300 [03:18<12:46,  3.21s/it]Train NLL: 40.254, Val NLL: 40.268:  21%|██        | 62/300 [03:21<12:47,  3.22s/it]Train NLL: 40.239, Val NLL: 40.246:  21%|██        | 63/300 [03:24<12:48,  3.24s/it]Train NLL: 40.242, Val NLL: 40.277:  21%|██▏       | 64/300 [03:27<12:43,  3.23s/it]Train NLL: 40.245, Val NLL: 40.367:  22%|██▏       | 65/300 [03:31<12:38,  3.23s/it]Train NLL: 40.257, Val NLL: 40.336:  22%|██▏       | 66/300 [03:34<12:38,  3.24s/it]Train NLL: 40.241, Val NLL: 40.325:  22%|██▏       | 67/300 [03:37<12:33,  3.24s/it]Train NLL: 40.252, Val NLL: 40.310:  23%|██▎       | 68/300 [03:40<12:29,  3.23s/it]Train NLL: 40.242, Val NLL: 40.294:  23%|██▎       | 69/300 [03:44<12:31,  3.25s/it]Train NLL: 40.259, Val NLL: 40.420:  23%|██▎       | 70/300 [03:47<12:27,  3.25s/it]Train NLL: 40.254, Val NLL: 40.285:  24%|██▎       | 71/300 [03:50<12:20,  3.23s/it]Train NLL: 40.248, Val NLL: 40.266:  24%|██▍       | 72/300 [03:53<12:25,  3.27s/it]Train NLL: 40.243, Val NLL: 40.251:  24%|██▍       | 73/300 [03:57<12:20,  3.26s/it]Train NLL: 40.257, Val NLL: 40.312:  25%|██▍       | 74/300 [04:00<12:15,  3.26s/it]Train NLL: 40.246, Val NLL: 40.242:  25%|██▌       | 75/300 [04:03<12:19,  3.28s/it]Train NLL: 40.259, Val NLL: 40.367:  25%|██▌       | 76/300 [04:07<12:13,  3.28s/it]Train NLL: 40.246, Val NLL: 40.285:  26%|██▌       | 77/300 [04:10<12:06,  3.26s/it]Train NLL: 40.236, Val NLL: 40.282:  26%|██▌       | 78/300 [04:13<12:04,  3.26s/it]Train NLL: 40.248, Val NLL: 40.227:  26%|██▋       | 79/300 [04:16<11:58,  3.25s/it]Train NLL: 40.256, Val NLL: 40.353:  27%|██▋       | 80/300 [04:20<11:54,  3.25s/it]Train NLL: 40.241, Val NLL: 40.308:  27%|██▋       | 81/300 [04:23<11:55,  3.27s/it]Train NLL: 40.248, Val NLL: 40.272:  27%|██▋       | 82/300 [04:26<11:48,  3.25s/it]Train NLL: 40.234, Val NLL: 40.306:  28%|██▊       | 83/300 [04:29<11:43,  3.24s/it]Train NLL: 40.250, Val NLL: 40.310:  28%|██▊       | 84/300 [04:33<11:46,  3.27s/it]Train NLL: 40.227, Val NLL: 40.316:  28%|██▊       | 85/300 [04:36<11:39,  3.25s/it]Train NLL: 40.233, Val NLL: 40.350:  29%|██▊       | 86/300 [04:39<11:32,  3.24s/it]Train NLL: 40.235, Val NLL: 40.341:  29%|██▉       | 87/300 [04:43<11:45,  3.31s/it]Train NLL: 40.231, Val NLL: 40.314:  29%|██▉       | 88/300 [04:46<11:37,  3.29s/it]Train NLL: 40.248, Val NLL: 40.304:  30%|██▉       | 89/300 [04:49<11:31,  3.28s/it]Train NLL: 40.248, Val NLL: 40.279:  30%|███       | 90/300 [04:52<11:37,  3.32s/it]Train NLL: 40.243, Val NLL: 40.322:  30%|███       | 91/300 [04:56<11:27,  3.29s/it]Train NLL: 40.233, Val NLL: 40.274:  31%|███       | 92/300 [04:59<11:20,  3.27s/it]Train NLL: 40.242, Val NLL: 40.316:  31%|███       | 93/300 [05:02<11:26,  3.32s/it]Train NLL: 40.249, Val NLL: 40.316:  31%|███▏      | 94/300 [05:05<11:16,  3.28s/it]Train NLL: 40.232, Val NLL: 40.286:  32%|███▏      | 95/300 [05:09<11:07,  3.26s/it]Train NLL: 40.218, Val NLL: 40.293:  32%|███▏      | 96/300 [05:12<11:04,  3.26s/it]Train NLL: 40.230, Val NLL: 40.323:  32%|███▏      | 97/300 [05:15<10:56,  3.23s/it]Train NLL: 40.228, Val NLL: 40.257:  33%|███▎      | 98/300 [05:18<10:45,  3.20s/it]Train NLL: 40.216, Val NLL: 40.294:  33%|███▎      | 99/300 [05:22<10:46,  3.22s/it]Train NLL: 40.213, Val NLL: 40.270:  33%|███▎      | 100/300 [05:25<10:43,  3.22s/it]Train NLL: 40.233, Val NLL: 40.273:  34%|███▎      | 101/300 [05:28<10:38,  3.21s/it]Train NLL: 40.224, Val NLL: 40.320:  34%|███▍      | 102/300 [05:31<10:36,  3.21s/it]Train NLL: 40.226, Val NLL: 40.379:  34%|███▍      | 103/300 [05:34<10:34,  3.22s/it]Train NLL: 40.251, Val NLL: 40.278:  35%|███▍      | 104/300 [05:38<10:29,  3.21s/it]Train NLL: 40.252, Val NLL: 40.300:  35%|███▌      | 105/300 [05:41<10:28,  3.22s/it]Train NLL: 40.229, Val NLL: 40.311:  35%|███▌      | 106/300 [05:44<10:28,  3.24s/it]Train NLL: 40.231, Val NLL: 40.343:  36%|███▌      | 107/300 [05:47<10:22,  3.23s/it]Train NLL: 40.214, Val NLL: 40.288:  36%|███▌      | 108/300 [05:50<10:17,  3.22s/it]Train NLL: 40.229, Val NLL: 40.294:  36%|███▋      | 109/300 [05:54<10:18,  3.24s/it]Train NLL: 40.234, Val NLL: 40.305:  37%|███▋      | 110/300 [05:57<10:15,  3.24s/it]Train NLL: 40.237, Val NLL: 40.280:  37%|███▋      | 111/300 [06:00<10:10,  3.23s/it]Train NLL: 40.223, Val NLL: 40.323:  37%|███▋      | 112/300 [06:04<10:11,  3.25s/it]Train NLL: 40.229, Val NLL: 40.302:  38%|███▊      | 113/300 [06:07<10:04,  3.23s/it]Train NLL: 40.222, Val NLL: 40.272:  38%|███▊      | 114/300 [06:10<09:56,  3.21s/it]Train NLL: 40.246, Val NLL: 40.295:  38%|███▊      | 115/300 [06:13<09:51,  3.20s/it]Train NLL: 40.227, Val NLL: 40.272:  39%|███▊      | 116/300 [06:16<09:45,  3.18s/it]Train NLL: 40.220, Val NLL: 40.249:  39%|███▉      | 117/300 [06:19<09:44,  3.19s/it]Train NLL: 40.247, Val NLL: 40.304:  39%|███▉      | 118/300 [06:23<09:46,  3.22s/it]Train NLL: 40.247, Val NLL: 40.282:  40%|███▉      | 119/300 [06:26<09:45,  3.23s/it]Train NLL: 40.242, Val NLL: 40.245:  40%|████      | 120/300 [06:29<09:41,  3.23s/it]Epoch   121: reducing learning rate of group 0 to 1.0000e-03.
Train NLL: 40.217, Val NLL: 40.289:  40%|████      | 121/300 [06:32<09:38,  3.23s/it]Train NLL: 40.090, Val NLL: 40.137:  41%|████      | 122/300 [06:36<09:33,  3.22s/it]Train NLL: 40.067, Val NLL: 40.143:  41%|████      | 123/300 [06:39<09:26,  3.20s/it]Train NLL: 40.067, Val NLL: 40.136:  41%|████▏     | 124/300 [06:42<09:29,  3.23s/it]Train NLL: 40.066, Val NLL: 40.154:  42%|████▏     | 125/300 [06:45<09:22,  3.21s/it]Train NLL: 40.068, Val NLL: 40.141:  42%|████▏     | 126/300 [06:48<09:17,  3.21s/it]Train NLL: 40.069, Val NLL: 40.136:  42%|████▏     | 127/300 [06:52<09:17,  3.22s/it]Train NLL: 40.066, Val NLL: 40.138:  43%|████▎     | 128/300 [06:55<09:11,  3.21s/it]Train NLL: 40.067, Val NLL: 40.141:  43%|████▎     | 129/300 [06:58<09:05,  3.19s/it]Train NLL: 40.067, Val NLL: 40.139:  43%|████▎     | 130/300 [07:01<09:05,  3.21s/it]Train NLL: 40.066, Val NLL: 40.138:  44%|████▎     | 131/300 [07:04<09:03,  3.21s/it]Train NLL: 40.067, Val NLL: 40.140:  44%|████▍     | 132/300 [07:08<08:59,  3.21s/it]Train NLL: 40.065, Val NLL: 40.130:  44%|████▍     | 133/300 [07:11<08:59,  3.23s/it]Train NLL: 40.068, Val NLL: 40.141:  45%|████▍     | 134/300 [07:14<08:56,  3.23s/it]Train NLL: 40.066, Val NLL: 40.140:  45%|████▌     | 135/300 [07:17<08:49,  3.21s/it]Train NLL: 40.067, Val NLL: 40.137:  45%|████▌     | 136/300 [07:21<08:43,  3.19s/it]Train NLL: 40.067, Val NLL: 40.144:  46%|████▌     | 137/300 [07:24<08:52,  3.26s/it]Train NLL: 40.065, Val NLL: 40.138:  46%|████▌     | 138/300 [07:27<08:46,  3.25s/it]Train NLL: 40.068, Val NLL: 40.143:  46%|████▋     | 139/300 [07:30<08:41,  3.24s/it]Train NLL: 40.066, Val NLL: 40.143:  47%|████▋     | 140/300 [07:34<08:37,  3.24s/it]Train NLL: 40.065, Val NLL: 40.135:  47%|████▋     | 141/300 [07:37<08:33,  3.23s/it]Train NLL: 40.068, Val NLL: 40.133:  47%|████▋     | 142/300 [07:40<08:26,  3.21s/it]Train NLL: 40.063, Val NLL: 40.143:  48%|████▊     | 143/300 [07:43<08:29,  3.24s/it]Train NLL: 40.065, Val NLL: 40.139:  48%|████▊     | 144/300 [07:46<08:22,  3.22s/it]Train NLL: 40.069, Val NLL: 40.140:  48%|████▊     | 145/300 [07:50<08:16,  3.20s/it]Train NLL: 40.065, Val NLL: 40.134:  49%|████▊     | 146/300 [07:53<08:15,  3.22s/it]Train NLL: 40.065, Val NLL: 40.141:  49%|████▉     | 147/300 [07:56<08:12,  3.22s/it]Train NLL: 40.068, Val NLL: 40.137:  49%|████▉     | 148/300 [07:59<08:07,  3.21s/it]Train NLL: 40.069, Val NLL: 40.140:  50%|████▉     | 149/300 [08:03<08:09,  3.24s/it]Train NLL: 40.066, Val NLL: 40.139:  50%|█████     | 150/300 [08:06<08:02,  3.22s/it]Train NLL: 40.067, Val NLL: 40.134:  50%|█████     | 151/300 [08:09<07:58,  3.21s/it]Train NLL: 40.067, Val NLL: 40.138:  51%|█████     | 152/300 [08:12<07:57,  3.22s/it]Train NLL: 40.070, Val NLL: 40.139:  51%|█████     | 153/300 [08:15<07:53,  3.22s/it]Train NLL: 40.069, Val NLL: 40.150:  51%|█████▏    | 154/300 [08:19<07:48,  3.21s/it]Train NLL: 40.070, Val NLL: 40.142:  52%|█████▏    | 155/300 [08:22<07:48,  3.23s/it]Train NLL: 40.064, Val NLL: 40.134:  52%|█████▏    | 156/300 [08:25<07:43,  3.22s/it]Train NLL: 40.064, Val NLL: 40.134:  52%|█████▏    | 157/300 [08:28<07:40,  3.22s/it]Train NLL: 40.065, Val NLL: 40.140:  53%|█████▎    | 158/300 [08:32<07:40,  3.24s/it]Train NLL: 40.065, Val NLL: 40.144:  53%|█████▎    | 159/300 [08:35<07:35,  3.23s/it]Train NLL: 40.065, Val NLL: 40.152:  53%|█████▎    | 160/300 [08:38<07:31,  3.22s/it]Train NLL: 40.068, Val NLL: 40.152:  54%|█████▎    | 161/300 [08:41<07:28,  3.23s/it]Train NLL: 40.067, Val NLL: 40.141:  54%|█████▍    | 162/300 [08:45<07:27,  3.24s/it]Train NLL: 40.067, Val NLL: 40.144:  54%|█████▍    | 163/300 [08:48<07:22,  3.23s/it]Epoch   164: reducing learning rate of group 0 to 1.0000e-04.
Train NLL: 40.065, Val NLL: 40.150:  55%|█████▍    | 164/300 [08:51<07:18,  3.22s/it]Train NLL: 40.050, Val NLL: 40.131:  55%|█████▌    | 165/300 [08:54<07:14,  3.22s/it]Train NLL: 40.045, Val NLL: 40.128:  55%|█████▌    | 166/300 [08:57<07:10,  3.21s/it]Train NLL: 40.045, Val NLL: 40.127:  56%|█████▌    | 167/300 [09:01<07:05,  3.20s/it]Train NLL: 40.044, Val NLL: 40.126:  56%|█████▌    | 168/300 [09:04<07:05,  3.23s/it]Train NLL: 40.044, Val NLL: 40.125:  56%|█████▋    | 169/300 [09:07<07:01,  3.22s/it]Train NLL: 40.045, Val NLL: 40.126:  57%|█████▋    | 170/300 [09:10<06:58,  3.22s/it]Train NLL: 40.044, Val NLL: 40.126:  57%|█████▋    | 171/300 [09:14<06:58,  3.24s/it]Train NLL: 40.044, Val NLL: 40.125:  57%|█████▋    | 172/300 [09:17<06:54,  3.24s/it]Train NLL: 40.044, Val NLL: 40.125:  58%|█████▊    | 173/300 [09:20<06:50,  3.23s/it]Train NLL: 40.044, Val NLL: 40.126:  58%|█████▊    | 174/300 [09:23<06:50,  3.25s/it]Train NLL: 40.044, Val NLL: 40.125:  58%|█████▊    | 175/300 [09:26<06:45,  3.24s/it]Train NLL: 40.044, Val NLL: 40.126:  59%|█████▊    | 176/300 [09:30<06:40,  3.23s/it]Train NLL: 40.044, Val NLL: 40.126:  59%|█████▉    | 177/300 [09:33<06:45,  3.29s/it]Train NLL: 40.044, Val NLL: 40.126:  59%|█████▉    | 178/300 [09:36<06:33,  3.23s/it]Train NLL: 40.044, Val NLL: 40.125:  60%|█████▉    | 179/300 [09:39<06:27,  3.20s/it]Train NLL: 40.044, Val NLL: 40.125:  60%|██████    | 180/300 [09:43<06:31,  3.26s/it]Train NLL: 40.044, Val NLL: 40.125:  60%|██████    | 181/300 [09:46<06:25,  3.24s/it]Train NLL: 40.044, Val NLL: 40.125:  61%|██████    | 182/300 [09:49<06:20,  3.22s/it]Train NLL: 40.044, Val NLL: 40.125:  61%|██████    | 183/300 [09:52<06:18,  3.24s/it]Train NLL: 40.044, Val NLL: 40.126:  61%|██████▏   | 184/300 [09:56<06:14,  3.22s/it]Train NLL: 40.044, Val NLL: 40.126:  62%|██████▏   | 185/300 [09:59<06:09,  3.21s/it]Train NLL: 40.044, Val NLL: 40.126:  62%|██████▏   | 186/300 [10:02<06:07,  3.22s/it]Epoch   187: reducing learning rate of group 0 to 1.0000e-05.
Train NLL: 40.044, Val NLL: 40.126:  62%|██████▏   | 187/300 [10:05<06:03,  3.21s/it]Train NLL: 40.041, Val NLL: 40.126:  63%|██████▎   | 188/300 [10:08<05:58,  3.20s/it]Train NLL: 40.041, Val NLL: 40.126:  63%|██████▎   | 189/300 [10:12<05:57,  3.22s/it]Train NLL: 40.041, Val NLL: 40.126:  63%|██████▎   | 190/300 [10:15<05:54,  3.23s/it]Train NLL: 40.041, Val NLL: 40.126:  64%|██████▎   | 191/300 [10:18<05:52,  3.24s/it]Train NLL: 40.041, Val NLL: 40.126:  64%|██████▍   | 192/300 [10:21<05:52,  3.27s/it]Train NLL: 40.041, Val NLL: 40.126:  64%|██████▍   | 193/300 [10:25<05:48,  3.26s/it]Train NLL: 40.041, Val NLL: 40.126:  65%|██████▍   | 194/300 [10:28<05:43,  3.24s/it]Train NLL: 40.041, Val NLL: 40.125:  65%|██████▌   | 195/300 [10:31<05:40,  3.24s/it]Train NLL: 40.041, Val NLL: 40.125:  65%|██████▌   | 196/300 [10:34<05:35,  3.23s/it]Train NLL: 40.041, Val NLL: 40.125:  66%|██████▌   | 197/300 [10:38<05:31,  3.22s/it]Train NLL: 40.041, Val NLL: 40.125:  66%|██████▌   | 198/300 [10:41<05:28,  3.22s/it]Train NLL: 40.041, Val NLL: 40.125:  66%|██████▋   | 199/300 [10:44<05:27,  3.24s/it]Train NLL: 40.041, Val NLL: 40.125:  67%|██████▋   | 200/300 [10:47<05:22,  3.23s/it]Train NLL: 40.041, Val NLL: 40.125:  67%|██████▋   | 201/300 [10:50<05:17,  3.21s/it]Train NLL: 40.041, Val NLL: 40.126:  67%|██████▋   | 202/300 [10:54<05:16,  3.23s/it]Train NLL: 40.041, Val NLL: 40.125:  68%|██████▊   | 203/300 [10:57<05:12,  3.23s/it]Train NLL: 40.041, Val NLL: 40.125:  68%|██████▊   | 204/300 [11:00<05:08,  3.21s/it]Train NLL: 40.041, Val NLL: 40.125:  68%|██████▊   | 205/300 [11:03<05:08,  3.25s/it]Train NLL: 40.041, Val NLL: 40.125:  69%|██████▊   | 206/300 [11:07<05:03,  3.23s/it]Train NLL: 40.041, Val NLL: 40.125:  69%|██████▉   | 207/300 [11:10<04:59,  3.22s/it]Train NLL: 40.041, Val NLL: 40.125:  69%|██████▉   | 208/300 [11:13<05:01,  3.28s/it]Epoch   209: reducing learning rate of group 0 to 1.0000e-06.
Train NLL: 40.041, Val NLL: 40.125:  70%|██████▉   | 209/300 [11:16<04:56,  3.26s/it]Train NLL: 40.041, Val NLL: 40.125:  70%|███████   | 210/300 [11:20<04:52,  3.25s/it]Train NLL: 40.041, Val NLL: 40.125:  70%|███████   | 211/300 [11:23<04:51,  3.27s/it]Train NLL: 40.041, Val NLL: 40.125:  71%|███████   | 212/300 [11:26<04:45,  3.25s/it]Train NLL: 40.041, Val NLL: 40.125:  71%|███████   | 213/300 [11:29<04:41,  3.23s/it]Train NLL: 40.041, Val NLL: 40.125:  71%|███████▏  | 214/300 [11:33<04:43,  3.30s/it]Train NLL: 40.041, Val NLL: 40.125:  72%|███████▏  | 215/300 [11:36<04:38,  3.27s/it]Train NLL: 40.041, Val NLL: 40.125:  72%|███████▏  | 216/300 [11:39<04:34,  3.26s/it]Train NLL: 40.041, Val NLL: 40.125:  72%|███████▏  | 217/300 [11:43<04:31,  3.27s/it]Train NLL: 40.041, Val NLL: 40.125:  73%|███████▎  | 218/300 [11:46<04:25,  3.23s/it]Train NLL: 40.041, Val NLL: 40.125:  73%|███████▎  | 219/300 [11:49<04:21,  3.23s/it]Train NLL: 40.041, Val NLL: 40.125:  73%|███████▎  | 220/300 [11:52<04:19,  3.24s/it]Train NLL: 40.041, Val NLL: 40.125:  74%|███████▎  | 221/300 [11:55<04:15,  3.24s/it]Train NLL: 40.041, Val NLL: 40.125:  74%|███████▍  | 222/300 [11:59<04:11,  3.22s/it]Train NLL: 40.041, Val NLL: 40.125:  74%|███████▍  | 223/300 [12:02<04:09,  3.24s/it]Train NLL: 40.041, Val NLL: 40.125:  75%|███████▍  | 224/300 [12:05<04:06,  3.24s/it]Train NLL: 40.041, Val NLL: 40.125:  75%|███████▌  | 225/300 [12:08<04:01,  3.22s/it]Train NLL: 40.041, Val NLL: 40.125:  75%|███████▌  | 226/300 [12:12<04:00,  3.24s/it]Train NLL: 40.041, Val NLL: 40.125:  76%|███████▌  | 227/300 [12:15<03:56,  3.24s/it]Train NLL: 40.041, Val NLL: 40.125:  76%|███████▌  | 228/300 [12:18<03:52,  3.23s/it]Train NLL: 40.041, Val NLL: 40.125:  76%|███████▋  | 229/300 [12:21<03:49,  3.24s/it]Train NLL: 40.041, Val NLL: 40.125:  77%|███████▋  | 230/300 [12:25<03:47,  3.25s/it]Train NLL: 40.041, Val NLL: 40.125:  77%|███████▋  | 231/300 [12:28<03:43,  3.24s/it]Train NLL: 40.041, Val NLL: 40.125:  77%|███████▋  | 232/300 [12:31<03:39,  3.23s/it]Train NLL: 40.041, Val NLL: 40.125:  78%|███████▊  | 233/300 [12:34<03:36,  3.23s/it]Train NLL: 40.041, Val NLL: 40.125:  78%|███████▊  | 234/300 [12:37<03:32,  3.22s/it]Train NLL: 40.041, Val NLL: 40.125:  78%|███████▊  | 235/300 [12:41<03:28,  3.21s/it]Train NLL: 40.041, Val NLL: 40.125:  79%|███████▊  | 236/300 [12:44<03:27,  3.24s/it]Train NLL: 40.041, Val NLL: 40.125:  79%|███████▉  | 237/300 [12:47<03:22,  3.21s/it]Train NLL: 40.041, Val NLL: 40.125:  79%|███████▉  | 238/300 [12:50<03:18,  3.20s/it]Train NLL: 40.041, Val NLL: 40.125:  80%|███████▉  | 239/300 [12:54<03:18,  3.26s/it]Train NLL: 40.041, Val NLL: 40.125:  80%|████████  | 240/300 [12:57<03:14,  3.23s/it]Train NLL: 40.041, Val NLL: 40.125:  80%|████████  | 241/300 [13:00<03:11,  3.24s/it]Train NLL: 40.041, Val NLL: 40.125:  81%|████████  | 242/300 [13:03<03:09,  3.26s/it]Train NLL: 40.041, Val NLL: 40.125:  81%|████████  | 243/300 [13:07<03:04,  3.24s/it]Train NLL: 40.041, Val NLL: 40.125:  81%|████████▏ | 244/300 [13:10<03:01,  3.24s/it]Train NLL: 40.041, Val NLL: 40.125:  82%|████████▏ | 245/300 [13:13<02:58,  3.25s/it]Train NLL: 40.041, Val NLL: 40.125:  82%|████████▏ | 246/300 [13:16<02:54,  3.23s/it]Train NLL: 40.041, Val NLL: 40.125:  82%|████████▏ | 247/300 [13:19<02:50,  3.22s/it]Train NLL: 40.041, Val NLL: 40.125:  83%|████████▎ | 248/300 [13:23<02:48,  3.25s/it]Train NLL: 40.041, Val NLL: 40.125:  83%|████████▎ | 249/300 [13:26<02:45,  3.25s/it]Train NLL: 40.041, Val NLL: 40.125:  83%|████████▎ | 250/300 [13:29<02:42,  3.25s/it]Train NLL: 40.041, Val NLL: 40.125:  84%|████████▎ | 251/300 [13:33<02:38,  3.24s/it]Train NLL: 40.041, Val NLL: 40.125:  84%|████████▍ | 252/300 [13:36<02:36,  3.25s/it]Train NLL: 40.041, Val NLL: 40.125:  84%|████████▍ | 253/300 [13:39<02:32,  3.24s/it]Train NLL: 40.041, Val NLL: 40.125:  85%|████████▍ | 254/300 [13:42<02:29,  3.26s/it]Train NLL: 40.041, Val NLL: 40.125:  85%|████████▌ | 255/300 [13:45<02:25,  3.23s/it]Train NLL: 40.041, Val NLL: 40.125:  85%|████████▌ | 256/300 [13:49<02:21,  3.22s/it]Train NLL: 40.041, Val NLL: 40.125:  86%|████████▌ | 257/300 [13:52<02:18,  3.22s/it]Train NLL: 40.041, Val NLL: 40.125:  86%|████████▌ | 258/300 [13:55<02:14,  3.21s/it]Train NLL: 40.041, Val NLL: 40.125:  86%|████████▋ | 259/300 [13:58<02:11,  3.21s/it]Train NLL: 40.041, Val NLL: 40.125:  87%|████████▋ | 260/300 [14:02<02:08,  3.22s/it]Train NLL: 40.041, Val NLL: 40.125:  87%|████████▋ | 261/300 [14:05<02:05,  3.21s/it]Train NLL: 40.041, Val NLL: 40.125:  87%|████████▋ | 262/300 [14:08<02:02,  3.23s/it]Train NLL: 40.041, Val NLL: 40.125:  88%|████████▊ | 263/300 [14:11<01:58,  3.22s/it]Train NLL: 40.041, Val NLL: 40.125:  88%|████████▊ | 264/300 [14:15<01:57,  3.26s/it]Train NLL: 40.041, Val NLL: 40.125:  88%|████████▊ | 265/300 [14:18<01:53,  3.25s/it]Train NLL: 40.041, Val NLL: 40.125:  89%|████████▊ | 266/300 [14:21<01:51,  3.27s/it]Train NLL: 40.041, Val NLL: 40.125:  89%|████████▉ | 267/300 [14:24<01:48,  3.28s/it]Train NLL: 40.041, Val NLL: 40.125:  89%|████████▉ | 268/300 [14:28<01:44,  3.25s/it]Train NLL: 40.041, Val NLL: 40.125:  90%|████████▉ | 269/300 [14:31<01:40,  3.24s/it]Train NLL: 40.041, Val NLL: 40.125:  90%|█████████ | 270/300 [14:34<01:37,  3.25s/it]Train NLL: 40.041, Val NLL: 40.125:  90%|█████████ | 271/300 [14:37<01:33,  3.23s/it]Train NLL: 40.041, Val NLL: 40.125:  91%|█████████ | 272/300 [14:40<01:30,  3.22s/it]Train NLL: 40.041, Val NLL: 40.125:  91%|█████████ | 273/300 [14:44<01:27,  3.23s/it]Train NLL: 40.041, Val NLL: 40.125:  91%|█████████▏| 274/300 [14:47<01:24,  3.24s/it]Train NLL: 40.041, Val NLL: 40.125:  92%|█████████▏| 275/300 [14:50<01:20,  3.23s/it]Train NLL: 40.041, Val NLL: 40.125:  92%|█████████▏| 276/300 [14:53<01:17,  3.25s/it]Train NLL: 40.041, Val NLL: 40.125:  92%|█████████▏| 277/300 [14:57<01:14,  3.23s/it]Train NLL: 40.041, Val NLL: 40.125:  93%|█████████▎| 278/300 [15:00<01:10,  3.23s/it]Train NLL: 40.041, Val NLL: 40.125:  93%|█████████▎| 279/300 [15:03<01:08,  3.26s/it]Train NLL: 40.041, Val NLL: 40.125:  93%|█████████▎| 280/300 [15:06<01:04,  3.23s/it]Train NLL: 40.041, Val NLL: 40.125:  94%|█████████▎| 281/300 [15:10<01:01,  3.22s/it]Train NLL: 40.041, Val NLL: 40.125:  94%|█████████▍| 282/300 [15:13<00:58,  3.25s/it]Train NLL: 40.041, Val NLL: 40.125:  94%|█████████▍| 283/300 [15:16<00:54,  3.23s/it]Train NLL: 40.041, Val NLL: 40.125:  95%|█████████▍| 284/300 [15:19<00:51,  3.21s/it]Train NLL: 40.041, Val NLL: 40.125:  95%|█████████▌| 285/300 [15:22<00:48,  3.23s/it]Train NLL: 40.041, Val NLL: 40.125:  95%|█████████▌| 286/300 [15:26<00:45,  3.22s/it]Train NLL: 40.041, Val NLL: 40.125:  96%|█████████▌| 287/300 [15:29<00:41,  3.21s/it]Train NLL: 40.041, Val NLL: 40.125:  96%|█████████▌| 288/300 [15:32<00:38,  3.23s/it]Train NLL: 40.041, Val NLL: 40.125:  96%|█████████▋| 289/300 [15:35<00:35,  3.21s/it]Train NLL: 40.041, Val NLL: 40.125:  97%|█████████▋| 290/300 [15:38<00:32,  3.21s/it]Train NLL: 40.041, Val NLL: 40.125:  97%|█████████▋| 291/300 [15:42<00:28,  3.22s/it]Train NLL: 40.041, Val NLL: 40.125:  97%|█████████▋| 292/300 [15:45<00:25,  3.22s/it]Train NLL: 40.041, Val NLL: 40.125:  98%|█████████▊| 293/300 [15:48<00:22,  3.20s/it]Train NLL: 40.041, Val NLL: 40.125:  98%|█████████▊| 294/300 [15:51<00:19,  3.22s/it]Train NLL: 40.041, Val NLL: 40.125:  98%|█████████▊| 295/300 [15:55<00:16,  3.21s/it]Train NLL: 40.041, Val NLL: 40.125:  99%|█████████▊| 296/300 [15:58<00:12,  3.19s/it]Train NLL: 40.041, Val NLL: 40.125:  99%|█████████▉| 297/300 [16:01<00:09,  3.18s/it]Train NLL: 40.041, Val NLL: 40.125:  99%|█████████▉| 298/300 [16:04<00:06,  3.21s/it]Train NLL: 40.041, Val NLL: 40.125: 100%|█████████▉| 299/300 [16:07<00:03,  3.19s/it]Train NLL: 40.041, Val NLL: 40.125: 100%|██████████| 300/300 [16:10<00:00,  3.18s/it]Train NLL: 40.041, Val NLL: 40.125: 100%|██████████| 300/300 [16:10<00:00,  3.24s/it]
INFO - residual_nf - Completed after 0:16:11
