{
  "activation": "lipmish",
  "batch_size": 107,
  "bn": "arth150-synth",
  "checkpoint_n": 10,
  "coeff": 0.99,
  "decoder_hidden_dims": [
    200
  ],
  "double": true,
  "dreg": false,
  "ex_name": "iw_siren_vae",
  "flow_hidden_dims": [
    200
  ],
  "iw": true,
  "k": 8,
  "legend": [
    "SIReN-VAE$_faith$",
    "SIReN-VAE$_fc$"
  ],
  "load_from_checkpoint": false,
  "lr": 0.001,
  "model_path": "arithmetic-circuit2_faithful_lipmish_5_[100]_[100]",
  "n_power_iterations": 5,
  "num_epochs": 300,
  "num_flow_steps": 5,
  "num_train_batches": 2,
  "num_train_samples": 214,
  "num_val_batches": 40,
  "num_val_samples": 4280,
  "path": "./experiment_logs/iw_siren_vae/arth150-synth/fully-connected_lipmish_5_[200]_[200]_32k_2g",
  "patience": 30,
  "run": 1,
  "save_checkpoints": false,
  "seed": 2,
  "structure": "fully-connected",
  "sub_folder": "fully-connected_lipmish_5_[200]_[200]_32k_2g",
  "wu": false,
  "wu_N": 1,
  "wu_all": false,
  "ylims": [
    [
      9,
      14
    ],
    [
      9,
      14
    ]
  ]
}