{
  "test": {
    "steps": [
      0
    ],
    "timestamps": [
      "2022-07-09T01:32:27.026325"
    ],
    "values": [
      8.623021637861509
    ]
  },
  "train": {
    "steps": [
      0,
      1,
      2,
      3,
      4,
      5,
      6,
      7,
      8,
      9,
      10,
      11,
      12,
      13,
      14,
      15,
      16,
      17,
      18,
      19,
      20,
      21,
      22,
      23,
      24,
      25,
      26,
      27,
      28,
      29,
      30,
      31,
      32,
      33,
      34,
      35,
      36,
      37,
      38,
      39,
      40,
      41,
      42,
      43,
      44,
      45,
      46,
      47,
      48,
      49,
      50,
      51,
      52,
      53,
      54,
      55,
      56,
      57,
      58,
      59,
      60,
      61,
      62,
      63,
      64,
      65,
      66,
      67,
      68,
      69,
      70,
      71,
      72,
      73,
      74,
      75,
      76,
      77,
      78,
      79,
      80,
      81,
      82,
      83,
      84,
      85,
      86,
      87,
      88,
      89,
      90,
      91,
      92,
      93,
      94,
      95,
      96,
      97,
      98,
      99,
      100,
      101,
      102,
      103,
      104,
      105,
      106,
      107,
      108,
      109,
      110,
      111,
      112,
      113,
      114,
      115,
      116,
      117,
      118,
      119,
      120,
      121,
      122,
      123,
      124,
      125,
      126,
      127,
      128,
      129,
      130,
      131,
      132,
      133,
      134,
      135,
      136,
      137,
      138,
      139,
      140,
      141,
      142,
      143,
      144,
      145,
      146,
      147,
      148,
      149,
      150,
      151,
      152,
      153,
      154,
      155,
      156,
      157,
      158,
      159,
      160,
      161,
      162,
      163,
      164,
      165,
      166,
      167,
      168,
      169,
      170,
      171,
      172,
      173,
      174,
      175,
      176,
      177,
      178,
      179,
      180,
      181,
      182,
      183,
      184,
      185,
      186,
      187,
      188,
      189,
      190,
      191,
      192,
      193,
      194,
      195,
      196,
      197,
      198,
      199,
      200,
      201,
      202,
      203,
      204,
      205,
      206,
      207,
      208,
      209,
      210,
      211,
      212,
      213,
      214,
      215,
      216,
      217,
      218,
      219,
      220,
      221,
      222,
      223,
      224,
      225,
      226,
      227,
      228,
      229,
      230,
      231,
      232,
      233,
      234,
      235,
      236,
      237,
      238,
      239,
      240,
      241,
      242,
      243,
      244,
      245,
      246,
      247,
      248,
      249,
      250,
      251,
      252,
      253,
      254,
      255,
      256,
      257,
      258,
      259,
      260,
      261,
      262,
      263,
      264,
      265,
      266,
      267,
      268,
      269,
      270,
      271,
      272,
      273,
      274,
      275,
      276,
      277,
      278,
      279,
      280,
      281,
      282,
      283,
      284,
      285,
      286,
      287,
      288,
      289,
      290,
      291,
      292,
      293,
      294,
      295,
      296,
      297,
      298,
      299,
      300,
      301,
      302,
      303,
      304,
      305,
      306,
      307,
      308,
      309,
      310,
      311,
      312,
      313,
      314,
      315,
      316,
      317,
      318,
      319,
      320,
      321,
      322,
      323,
      324,
      325,
      326,
      327,
      328,
      329,
      330,
      331,
      332,
      333,
      334,
      335,
      336,
      337,
      338,
      339,
      340,
      341,
      342,
      343,
      344,
      345,
      346,
      347,
      348,
      349,
      350,
      351,
      352,
      353,
      354,
      355,
      356,
      357,
      358,
      359,
      360,
      361,
      362,
      363,
      364,
      365,
      366,
      367,
      368,
      369,
      370,
      371,
      372,
      373,
      374,
      375,
      376,
      377,
      378,
      379,
      380,
      381,
      382,
      383,
      384,
      385,
      386,
      387,
      388,
      389,
      390,
      391,
      392,
      393,
      394,
      395,
      396,
      397,
      398,
      399
    ],
    "timestamps": [
      "2022-07-09T01:17:23.120794",
      "2022-07-09T01:17:25.532795",
      "2022-07-09T01:17:27.913762",
      "2022-07-09T01:17:30.349993",
      "2022-07-09T01:17:32.930316",
      "2022-07-09T01:17:35.148736",
      "2022-07-09T01:17:37.334915",
      "2022-07-09T01:17:39.517424",
      "2022-07-09T01:17:42.027378",
      "2022-07-09T01:17:44.190592",
      "2022-07-09T01:17:46.367109",
      "2022-07-09T01:17:48.539215",
      "2022-07-09T01:17:50.821868",
      "2022-07-09T01:17:53.155712",
      "2022-07-09T01:17:55.319879",
      "2022-07-09T01:17:57.478944",
      "2022-07-09T01:17:59.644677",
      "2022-07-09T01:18:02.013400",
      "2022-07-09T01:18:04.200183",
      "2022-07-09T01:18:06.368847",
      "2022-07-09T01:18:08.539563",
      "2022-07-09T01:18:10.833527",
      "2022-07-09T01:18:13.358666",
      "2022-07-09T01:18:15.555552",
      "2022-07-09T01:18:17.787295",
      "2022-07-09T01:18:20.039749",
      "2022-07-09T01:18:22.434065",
      "2022-07-09T01:18:24.618694",
      "2022-07-09T01:18:26.784122",
      "2022-07-09T01:18:28.948644",
      "2022-07-09T01:18:31.219256",
      "2022-07-09T01:18:33.525648",
      "2022-07-09T01:18:35.699037",
      "2022-07-09T01:18:37.870447",
      "2022-07-09T01:18:40.050623",
      "2022-07-09T01:18:42.453766",
      "2022-07-09T01:18:44.641890",
      "2022-07-09T01:18:46.825798",
      "2022-07-09T01:18:49.001499",
      "2022-07-09T01:18:51.305941",
      "2022-07-09T01:18:53.678967",
      "2022-07-09T01:18:55.898466",
      "2022-07-09T01:18:58.067409",
      "2022-07-09T01:19:00.263474",
      "2022-07-09T01:19:02.689737",
      "2022-07-09T01:19:04.856485",
      "2022-07-09T01:19:07.010418",
      "2022-07-09T01:19:09.183435",
      "2022-07-09T01:19:11.845366",
      "2022-07-09T01:19:14.139180",
      "2022-07-09T01:19:16.445552",
      "2022-07-09T01:19:18.628073",
      "2022-07-09T01:19:20.872225",
      "2022-07-09T01:19:23.195242",
      "2022-07-09T01:19:25.377833",
      "2022-07-09T01:19:27.536623",
      "2022-07-09T01:19:29.759713",
      "2022-07-09T01:19:32.209320",
      "2022-07-09T01:19:34.411116",
      "2022-07-09T01:19:36.643895",
      "2022-07-09T01:19:38.931685",
      "2022-07-09T01:19:41.252470",
      "2022-07-09T01:19:43.516924",
      "2022-07-09T01:19:45.702419",
      "2022-07-09T01:19:47.861028",
      "2022-07-09T01:19:50.058498",
      "2022-07-09T01:19:52.489377",
      "2022-07-09T01:19:54.680545",
      "2022-07-09T01:19:56.867872",
      "2022-07-09T01:19:59.079114",
      "2022-07-09T01:20:01.391457",
      "2022-07-09T01:20:03.629821",
      "2022-07-09T01:20:05.796739",
      "2022-07-09T01:20:07.964349",
      "2022-07-09T01:20:10.148582",
      "2022-07-09T01:20:12.558703",
      "2022-07-09T01:20:14.739086",
      "2022-07-09T01:20:16.889864",
      "2022-07-09T01:20:19.041616",
      "2022-07-09T01:20:21.366078",
      "2022-07-09T01:20:23.628469",
      "2022-07-09T01:20:25.792950",
      "2022-07-09T01:20:27.953982",
      "2022-07-09T01:20:30.145082",
      "2022-07-09T01:20:32.531764",
      "2022-07-09T01:20:34.707096",
      "2022-07-09T01:20:36.869259",
      "2022-07-09T01:20:39.034468",
      "2022-07-09T01:20:41.323298",
      "2022-07-09T01:20:43.603718",
      "2022-07-09T01:20:45.778523",
      "2022-07-09T01:20:47.944646",
      "2022-07-09T01:20:50.176750",
      "2022-07-09T01:20:52.646806",
      "2022-07-09T01:20:54.830128",
      "2022-07-09T01:20:57.020830",
      "2022-07-09T01:20:59.183763",
      "2022-07-09T01:21:01.527330",
      "2022-07-09T01:21:03.904491",
      "2022-07-09T01:21:06.083526",
      "2022-07-09T01:21:08.249559",
      "2022-07-09T01:21:10.493200",
      "2022-07-09T01:21:13.243791",
      "2022-07-09T01:21:15.494042",
      "2022-07-09T01:21:17.723758",
      "2022-07-09T01:21:19.952482",
      "2022-07-09T01:21:22.384693",
      "2022-07-09T01:21:24.561723",
      "2022-07-09T01:21:26.804603",
      "2022-07-09T01:21:29.029064",
      "2022-07-09T01:21:31.458257",
      "2022-07-09T01:21:33.822581",
      "2022-07-09T01:21:36.026803",
      "2022-07-09T01:21:38.223756",
      "2022-07-09T01:21:40.454380",
      "2022-07-09T01:21:42.896978",
      "2022-07-09T01:21:45.153582",
      "2022-07-09T01:21:47.349323",
      "2022-07-09T01:21:49.553250",
      "2022-07-09T01:21:51.945945",
      "2022-07-09T01:21:54.202382",
      "2022-07-09T01:21:56.408849",
      "2022-07-09T01:21:58.608245",
      "2022-07-09T01:22:00.917788",
      "2022-07-09T01:22:03.286087",
      "2022-07-09T01:22:05.496037",
      "2022-07-09T01:22:07.711596",
      "2022-07-09T01:22:09.954932",
      "2022-07-09T01:22:12.506675",
      "2022-07-09T01:22:14.698482",
      "2022-07-09T01:22:16.873428",
      "2022-07-09T01:22:19.058605",
      "2022-07-09T01:22:21.505749",
      "2022-07-09T01:22:23.859470",
      "2022-07-09T01:22:26.067713",
      "2022-07-09T01:22:28.281560",
      "2022-07-09T01:22:30.515700",
      "2022-07-09T01:22:32.962189",
      "2022-07-09T01:22:35.172259",
      "2022-07-09T01:22:37.369389",
      "2022-07-09T01:22:39.624504",
      "2022-07-09T01:22:42.068791",
      "2022-07-09T01:22:44.276216",
      "2022-07-09T01:22:46.471560",
      "2022-07-09T01:22:48.676210",
      "2022-07-09T01:22:50.993612",
      "2022-07-09T01:22:53.363436",
      "2022-07-09T01:22:55.562622",
      "2022-07-09T01:22:57.755368",
      "2022-07-09T01:22:59.967553",
      "2022-07-09T01:23:02.444584",
      "2022-07-09T01:23:04.653803",
      "2022-07-09T01:23:06.850468",
      "2022-07-09T01:23:09.046988",
      "2022-07-09T01:23:11.600561",
      "2022-07-09T01:23:13.885193",
      "2022-07-09T01:23:16.110166",
      "2022-07-09T01:23:18.278281",
      "2022-07-09T01:23:20.508510",
      "2022-07-09T01:23:22.872057",
      "2022-07-09T01:23:25.046264",
      "2022-07-09T01:23:27.218301",
      "2022-07-09T01:23:29.382705",
      "2022-07-09T01:23:31.733871",
      "2022-07-09T01:23:33.969937",
      "2022-07-09T01:23:36.138916",
      "2022-07-09T01:23:38.367254",
      "2022-07-09T01:23:40.654970",
      "2022-07-09T01:23:43.071537",
      "2022-07-09T01:23:45.386928",
      "2022-07-09T01:23:47.589925",
      "2022-07-09T01:23:49.829034",
      "2022-07-09T01:23:52.194377",
      "2022-07-09T01:23:54.394593",
      "2022-07-09T01:23:56.552000",
      "2022-07-09T01:23:58.711631",
      "2022-07-09T01:24:01.021036",
      "2022-07-09T01:24:03.403357",
      "2022-07-09T01:24:05.630496",
      "2022-07-09T01:24:07.813108",
      "2022-07-09T01:24:10.145039",
      "2022-07-09T01:24:12.756748",
      "2022-07-09T01:24:14.934308",
      "2022-07-09T01:24:17.105938",
      "2022-07-09T01:24:19.289166",
      "2022-07-09T01:24:21.659154",
      "2022-07-09T01:24:23.950468",
      "2022-07-09T01:24:26.143495",
      "2022-07-09T01:24:28.339996",
      "2022-07-09T01:24:30.598348",
      "2022-07-09T01:24:33.017057",
      "2022-07-09T01:24:35.203267",
      "2022-07-09T01:24:37.404820",
      "2022-07-09T01:24:39.592444",
      "2022-07-09T01:24:41.997547",
      "2022-07-09T01:24:44.225371",
      "2022-07-09T01:24:46.386444",
      "2022-07-09T01:24:48.557997",
      "2022-07-09T01:24:50.822544",
      "2022-07-09T01:24:53.181744",
      "2022-07-09T01:24:55.370796",
      "2022-07-09T01:24:57.553485",
      "2022-07-09T01:24:59.750564",
      "2022-07-09T01:25:02.587738",
      "2022-07-09T01:25:04.820132",
      "2022-07-09T01:25:07.020803",
      "2022-07-09T01:25:09.231953",
      "2022-07-09T01:25:11.591116",
      "2022-07-09T01:25:13.906477",
      "2022-07-09T01:25:16.106211",
      "2022-07-09T01:25:18.315220",
      "2022-07-09T01:25:20.562060",
      "2022-07-09T01:25:22.990250",
      "2022-07-09T01:25:25.210535",
      "2022-07-09T01:25:27.420908",
      "2022-07-09T01:25:29.645369",
      "2022-07-09T01:25:32.065202",
      "2022-07-09T01:25:34.315616",
      "2022-07-09T01:25:36.522654",
      "2022-07-09T01:25:38.721014",
      "2022-07-09T01:25:41.006121",
      "2022-07-09T01:25:43.359851",
      "2022-07-09T01:25:45.575929",
      "2022-07-09T01:25:47.784425",
      "2022-07-09T01:25:50.020757",
      "2022-07-09T01:25:52.509592",
      "2022-07-09T01:25:54.723319",
      "2022-07-09T01:25:56.930117",
      "2022-07-09T01:25:59.152226",
      "2022-07-09T01:26:01.512024",
      "2022-07-09T01:26:03.808704",
      "2022-07-09T01:26:06.018852",
      "2022-07-09T01:26:08.219652",
      "2022-07-09T01:26:10.460713",
      "2022-07-09T01:26:12.877602",
      "2022-07-09T01:26:15.091266",
      "2022-07-09T01:26:17.293088",
      "2022-07-09T01:26:19.511054",
      "2022-07-09T01:26:22.453642",
      "2022-07-09T01:26:24.703193",
      "2022-07-09T01:26:26.916459",
      "2022-07-09T01:26:29.142029",
      "2022-07-09T01:26:31.618628",
      "2022-07-09T01:26:33.856243",
      "2022-07-09T01:26:36.020286",
      "2022-07-09T01:26:38.192016",
      "2022-07-09T01:26:40.412531",
      "2022-07-09T01:26:42.901408",
      "2022-07-09T01:26:45.061474",
      "2022-07-09T01:26:47.227101",
      "2022-07-09T01:26:49.398780",
      "2022-07-09T01:26:51.735061",
      "2022-07-09T01:26:53.984345",
      "2022-07-09T01:26:56.175873",
      "2022-07-09T01:26:58.357539",
      "2022-07-09T01:27:00.592458",
      "2022-07-09T01:27:03.022438",
      "2022-07-09T01:27:05.207130",
      "2022-07-09T01:27:07.390975",
      "2022-07-09T01:27:09.580174",
      "2022-07-09T01:27:12.565844",
      "2022-07-09T01:27:14.771747",
      "2022-07-09T01:27:16.954936",
      "2022-07-09T01:27:19.155738",
      "2022-07-09T01:27:21.461522",
      "2022-07-09T01:27:23.776975",
      "2022-07-09T01:27:25.965425",
      "2022-07-09T01:27:28.150391",
      "2022-07-09T01:27:30.374804",
      "2022-07-09T01:27:32.768131",
      "2022-07-09T01:27:34.957983",
      "2022-07-09T01:27:37.144250",
      "2022-07-09T01:27:39.329957",
      "2022-07-09T01:27:41.676298",
      "2022-07-09T01:27:43.948383",
      "2022-07-09T01:27:46.124307",
      "2022-07-09T01:27:48.306656",
      "2022-07-09T01:27:50.537381",
      "2022-07-09T01:27:52.946631",
      "2022-07-09T01:27:55.136672",
      "2022-07-09T01:27:57.318656",
      "2022-07-09T01:27:59.522459",
      "2022-07-09T01:28:02.365440",
      "2022-07-09T01:28:04.670184",
      "2022-07-09T01:28:06.884684",
      "2022-07-09T01:28:09.080958",
      "2022-07-09T01:28:11.516137",
      "2022-07-09T01:28:13.826795",
      "2022-07-09T01:28:15.986937",
      "2022-07-09T01:28:18.154068",
      "2022-07-09T01:28:20.365869",
      "2022-07-09T01:28:22.762954",
      "2022-07-09T01:28:24.951575",
      "2022-07-09T01:28:27.318155",
      "2022-07-09T01:28:29.521945",
      "2022-07-09T01:28:32.322503",
      "2022-07-09T01:28:34.742614",
      "2022-07-09T01:28:36.904161",
      "2022-07-09T01:28:39.221223",
      "2022-07-09T01:28:41.501630",
      "2022-07-09T01:28:43.890309",
      "2022-07-09T01:28:46.129568",
      "2022-07-09T01:28:48.340831",
      "2022-07-09T01:28:50.613139",
      "2022-07-09T01:28:53.059146",
      "2022-07-09T01:28:55.227081",
      "2022-07-09T01:28:57.433237",
      "2022-07-09T01:28:59.675174",
      "2022-07-09T01:29:02.236798",
      "2022-07-09T01:29:04.431492",
      "2022-07-09T01:29:06.610973",
      "2022-07-09T01:29:08.816981",
      "2022-07-09T01:29:11.084164",
      "2022-07-09T01:29:13.422402",
      "2022-07-09T01:29:15.607731",
      "2022-07-09T01:29:17.795661",
      "2022-07-09T01:29:19.991247",
      "2022-07-09T01:29:22.404812",
      "2022-07-09T01:29:24.591994",
      "2022-07-09T01:29:26.775632",
      "2022-07-09T01:29:28.946133",
      "2022-07-09T01:29:31.231090",
      "2022-07-09T01:29:33.606832",
      "2022-07-09T01:29:35.789660",
      "2022-07-09T01:29:37.964184",
      "2022-07-09T01:29:40.161621",
      "2022-07-09T01:29:42.602768",
      "2022-07-09T01:29:44.790945",
      "2022-07-09T01:29:46.971386",
      "2022-07-09T01:29:49.158327",
      "2022-07-09T01:29:51.466373",
      "2022-07-09T01:29:53.780106",
      "2022-07-09T01:29:55.965634",
      "2022-07-09T01:29:58.159782",
      "2022-07-09T01:30:00.378117",
      "2022-07-09T01:30:02.788411",
      "2022-07-09T01:30:04.973838",
      "2022-07-09T01:30:07.151930",
      "2022-07-09T01:30:09.341523",
      "2022-07-09T01:30:11.719367",
      "2022-07-09T01:30:13.988327",
      "2022-07-09T01:30:16.177744",
      "2022-07-09T01:30:18.375679",
      "2022-07-09T01:30:20.581995",
      "2022-07-09T01:30:22.991101",
      "2022-07-09T01:30:25.189236",
      "2022-07-09T01:30:27.376958",
      "2022-07-09T01:30:29.577569",
      "2022-07-09T01:30:31.977803",
      "2022-07-09T01:30:34.238602",
      "2022-07-09T01:30:36.422679",
      "2022-07-09T01:30:38.609715",
      "2022-07-09T01:30:40.851066",
      "2022-07-09T01:30:43.237907",
      "2022-07-09T01:30:45.436695",
      "2022-07-09T01:30:47.634662",
      "2022-07-09T01:30:49.829900",
      "2022-07-09T01:30:52.481968",
      "2022-07-09T01:30:54.694605",
      "2022-07-09T01:30:56.857042",
      "2022-07-09T01:30:59.018202",
      "2022-07-09T01:31:01.296084",
      "2022-07-09T01:31:03.615491",
      "2022-07-09T01:31:05.782861",
      "2022-07-09T01:31:07.962282",
      "2022-07-09T01:31:10.149260",
      "2022-07-09T01:31:12.545013",
      "2022-07-09T01:31:14.758977",
      "2022-07-09T01:31:16.929005",
      "2022-07-09T01:31:19.118664",
      "2022-07-09T01:31:21.515229",
      "2022-07-09T01:31:23.826561",
      "2022-07-09T01:31:26.009925",
      "2022-07-09T01:31:28.197810",
      "2022-07-09T01:31:30.392200",
      "2022-07-09T01:31:32.797325",
      "2022-07-09T01:31:34.988748",
      "2022-07-09T01:31:37.167520",
      "2022-07-09T01:31:39.331791",
      "2022-07-09T01:31:41.656253",
      "2022-07-09T01:31:43.955484",
      "2022-07-09T01:31:46.146575",
      "2022-07-09T01:31:48.327651",
      "2022-07-09T01:31:50.546083",
      "2022-07-09T01:31:52.947152",
      "2022-07-09T01:31:55.121686",
      "2022-07-09T01:31:57.305900",
      "2022-07-09T01:31:59.495800",
      "2022-07-09T01:32:01.829312",
      "2022-07-09T01:32:04.118808",
      "2022-07-09T01:32:06.304891",
      "2022-07-09T01:32:08.481506",
      "2022-07-09T01:32:10.708672",
      "2022-07-09T01:32:13.109740",
      "2022-07-09T01:32:15.285824",
      "2022-07-09T01:32:17.481701",
      "2022-07-09T01:32:19.673041",
      "2022-07-09T01:32:22.062568",
      "2022-07-09T01:32:24.322203",
      "2022-07-09T01:32:26.503405"
    ],
    "values": [
      9.924885936709774,
      9.118117041787748,
      8.86680282556147,
      8.811014938466961,
      8.791811753461946,
      8.755404441810606,
      8.736130587817025,
      8.735079764902304,
      8.730194960497004,
      8.730769509384144,
      8.719101917988025,
      8.712476289131487,
      8.704566983860992,
      8.71965754948693,
      8.712004362910164,
      8.710034401163965,
      8.71988254711221,
      8.712810809921788,
      8.70980613794636,
      8.700182091118526,
      8.699644812646282,
      8.706180599326808,
      8.697001215205301,
      8.699022687705762,
      8.698412293504566,
      8.70536810985911,
      8.701742165295727,
      8.694472717365956,
      8.69717770146471,
      8.698691445660911,
      8.690583032821298,
      8.698963568423897,
      8.696512023331064,
      8.690912302939196,
      8.689928345408063,
      8.69433129725131,
      8.693196865289226,
      8.68625639383652,
      8.681953827605101,
      8.684194194819321,
      8.692835425164947,
      8.68789590268326,
      8.68348767522523,
      8.685977088084561,
      8.691485563551057,
      8.683686430178659,
      8.693619059201996,
      8.692175167176947,
      8.690855196813597,
      8.686360464099382,
      8.689840874031706,
      8.685294260021843,
      8.680914537332871,
      8.687830813865114,
      8.676990040288203,
      8.68515769527194,
      8.690116999168502,
      8.689545477547911,
      8.689229017278517,
      8.690126787923388,
      8.683383926740238,
      8.683382119329519,
      8.685055079761778,
      8.685245863061768,
      8.68078547841071,
      8.691492381939902,
      8.688269661301419,
      8.680325071853568,
      8.687551178483805,
      8.686982666654549,
      8.679743558419144,
      8.678687315945101,
      8.680108817007792,
      8.682361435791966,
      8.682626842590397,
      8.680433610012024,
      8.648806428544344,
      8.644142295545983,
      8.643536744475993,
      8.6437979080626,
      8.644522600691413,
      8.643316568572681,
      8.64375161060938,
      8.642721245032796,
      8.643305948964317,
      8.643425590358783,
      8.642774386748238,
      8.642741613041665,
      8.64320603925024,
      8.644008645232343,
      8.643212803018548,
      8.643447767919145,
      8.643671344503435,
      8.642593544157867,
      8.643112317072113,
      8.64277593572759,
      8.642708184193417,
      8.64231700516675,
      8.643577923039892,
      8.64290550252163,
      8.643266473019414,
      8.643865113380574,
      8.643213931314177,
      8.644003178425613,
      8.641485851005697,
      8.642489265415964,
      8.642667202058746,
      8.641751870367408,
      8.643373753369024,
      8.642248580766784,
      8.643285653212333,
      8.642177225094812,
      8.64201739476985,
      8.6418926591456,
      8.643058658568572,
      8.642248787419641,
      8.641534663188235,
      8.642466980444475,
      8.642398912891702,
      8.643149728775988,
      8.641954588910671,
      8.64235344691341,
      8.641698321404625,
      8.64249794767351,
      8.64108519073555,
      8.64252035328063,
      8.639057580592917,
      8.637234505805393,
      8.637135288531926,
      8.636874360924743,
      8.63688112642996,
      8.636837022793001,
      8.636982593985296,
      8.63677995321302,
      8.636829916440893,
      8.636930009915092,
      8.636860028800488,
      8.636896330154554,
      8.636741190190124,
      8.636831566425771,
      8.63686789300214,
      8.636934201848042,
      8.636858706598101,
      8.63661760020795,
      8.636884093731744,
      8.636786591040302,
      8.636704496018623,
      8.63683731212329,
      8.63674354556672,
      8.63612172701418,
      8.636104959051425,
      8.636101167560641,
      8.636106550813578,
      8.636113598788974,
      8.63612001772225,
      8.636092923556676,
      8.63609552591879,
      8.63608184005622,
      8.636088623485854,
      8.636072361204313,
      8.636078210737725,
      8.636074787414993,
      8.636090874149273,
      8.636083042790045,
      8.636076376157037,
      8.636082576997389,
      8.6360789709691,
      8.636077027875427,
      8.636071069464174,
      8.636064091224592,
      8.636082975880086,
      8.635998790507871,
      8.635998055458424,
      8.635995626156728,
      8.63599552345306,
      8.635997260507333,
      8.635997041922131,
      8.635995875087193,
      8.635997311964,
      8.635996075819081,
      8.635996670380067,
      8.635996357082862,
      8.635996412637631,
      8.635995829299688,
      8.635997552998322,
      8.635999252538921,
      8.636001077147885,
      8.63600467491232,
      8.636006327178727,
      8.636007977522656,
      8.636007722941947,
      8.636007122986804,
      8.636007573248449,
      8.63600682229178,
      8.636006873618559,
      8.636005423109502,
      8.636006368474847,
      8.6360043801052,
      8.63600430965314,
      8.636003826126432,
      8.636001985413413,
      8.636002866769829,
      8.636001609477479,
      8.636000867112408,
      8.636002490231801,
      8.63600091875438,
      8.63599962708458,
      8.635999764404847,
      8.635999753944256,
      8.635997342513907,
      8.635997788840008,
      8.63599838746647,
      8.63599631208984,
      8.635997244796814,
      8.635997162553892,
      8.635996541663973,
      8.635996807589674,
      8.635996119730898,
      8.635995453175418,
      8.635994985797284,
      8.635993752369531,
      8.63599287056196,
      8.635993563047816,
      8.6359944109526,
      8.63599097528804,
      8.63599378623291,
      8.635990618772173,
      8.635990414356689,
      8.635990880909924,
      8.635989109740137,
      8.63598969656261,
      8.635990181005194,
      8.635989797398139,
      8.635990053426816,
      8.63598886632669,
      8.635989228968745,
      8.635988441858547,
      8.635987089465019,
      8.635988768902997,
      8.635989064656808,
      8.635989456541452,
      8.635991352121115,
      8.635994193955293,
      8.635996101190551,
      8.635997572712586,
      8.63599764390568,
      8.635998185556593,
      8.635999051275043,
      8.635997486155135,
      8.635997914233863,
      8.635998172114608,
      8.635997375941074,
      8.635997434802011,
      8.635996926891204,
      8.635997475181547,
      8.635997144390537,
      8.63599702852673,
      8.63599705617942,
      8.635998978979977,
      8.635997633482509,
      8.635997519595081,
      8.635997302775944,
      8.635996069683632,
      8.635996155299834,
      8.635997579449384,
      8.635994465761641,
      8.635997095510481,
      8.6359962221535,
      8.635996267759223,
      8.635995276488146,
      8.635996515911925,
      8.63599603925343,
      8.635996105763551,
      8.635995840582039,
      8.635996071514501,
      8.635993929285295,
      8.635994587263017,
      8.635995028684691,
      8.635994023286477,
      8.635994847931107,
      8.635995080897906,
      8.635995516853768,
      8.635996559768863,
      8.635993992208506,
      8.635993159663265,
      8.635994561580752,
      8.635995397629825,
      8.635993584114702,
      8.635992872862138,
      8.635992890273679,
      8.63599285608461,
      8.63599227222055,
      8.635995448126423,
      8.635992627344327,
      8.635993598138604,
      8.63599140882937,
      8.635993362545474,
      8.635992589254842,
      8.635992166588826,
      8.635993065527554,
      8.63599292827837,
      8.63599017864596,
      8.635992594101625,
      8.635991392501424,
      8.635992223664395,
      8.635991312644167,
      8.635990232001575,
      8.635990393815002,
      8.63599099534904,
      8.635990704533087,
      8.635990920622277,
      8.635990692814795,
      8.63599047371736,
      8.635990101207922,
      8.635989636395335,
      8.635990123750876,
      8.635989723641426,
      8.635990089216268,
      8.63599054993928,
      8.635990247609248,
      8.635990419523452,
      8.635988756685215,
      8.635990316344898,
      8.635989460806584,
      8.635989481437813,
      8.63598926866507,
      8.635989401684638,
      8.635988826971783,
      8.635988675170042,
      8.635989253874135,
      8.635987624731147,
      8.635989104709253,
      8.635988907405032,
      8.635988005437081,
      8.635988300331439,
      8.635988532611076,
      8.635988397753271,
      8.635990181210135,
      8.635989882425358,
      8.635990660163692,
      8.635991122361467,
      8.635989654558081,
      8.635990451334624,
      8.635991090041635,
      8.63599219157763,
      8.635993194499154,
      8.635992979076095,
      8.635994530696102,
      8.635995829700784,
      8.635994347823559,
      8.635994721951045,
      8.635994714970117,
      8.635993925860731,
      8.635993590145619,
      8.635993172931148,
      8.635993370779802,
      8.635991910014095,
      8.635991435647577,
      8.635993266151793,
      8.635990258777445,
      8.635989992591242,
      8.635989890625662,
      8.635989272785537,
      8.635988167168266,
      8.635990393615913,
      8.635988632837236,
      8.635990142439638,
      8.635989143634971,
      8.635987820216231,
      8.635985501084251,
      8.635986121644295,
      8.635985598837035,
      8.63598659507719,
      8.635987119234084,
      8.635987009190425,
      8.635986901955805,
      8.635988262502558,
      8.63598876010826,
      8.635989147458046,
      8.635988389174527,
      8.635989245853672,
      8.635990221126363,
      8.635990797151543,
      8.63599030195002,
      8.635989719363543,
      8.63598847939466,
      8.635989228594262,
      8.63598917858191,
      8.635988479069594,
      8.635989095629194,
      8.635989647331328,
      8.635989430397585,
      8.635988071327937,
      8.635988642120553,
      8.635988980043631,
      8.63598757931949,
      8.635989240507364,
      8.635987514127645,
      8.63598829635328,
      8.635988141092227
    ]
  },
  "val": {
    "steps": [
      0,
      1,
      2,
      3,
      4,
      5,
      6,
      7,
      8,
      9,
      10,
      11,
      12,
      13,
      14,
      15,
      16,
      17,
      18,
      19,
      20,
      21,
      22,
      23,
      24,
      25,
      26,
      27,
      28,
      29,
      30,
      31,
      32,
      33,
      34,
      35,
      36,
      37,
      38,
      39,
      40,
      41,
      42,
      43,
      44,
      45,
      46,
      47,
      48,
      49,
      50,
      51,
      52,
      53,
      54,
      55,
      56,
      57,
      58,
      59,
      60,
      61,
      62,
      63,
      64,
      65,
      66,
      67,
      68,
      69,
      70,
      71,
      72,
      73,
      74,
      75,
      76,
      77,
      78,
      79,
      80,
      81,
      82,
      83,
      84,
      85,
      86,
      87,
      88,
      89,
      90,
      91,
      92,
      93,
      94,
      95,
      96,
      97,
      98,
      99,
      100,
      101,
      102,
      103,
      104,
      105,
      106,
      107,
      108,
      109,
      110,
      111,
      112,
      113,
      114,
      115,
      116,
      117,
      118,
      119,
      120,
      121,
      122,
      123,
      124,
      125,
      126,
      127,
      128,
      129,
      130,
      131,
      132,
      133,
      134,
      135,
      136,
      137,
      138,
      139,
      140,
      141,
      142,
      143,
      144,
      145,
      146,
      147,
      148,
      149,
      150,
      151,
      152,
      153,
      154,
      155,
      156,
      157,
      158,
      159,
      160,
      161,
      162,
      163,
      164,
      165,
      166,
      167,
      168,
      169,
      170,
      171,
      172,
      173,
      174,
      175,
      176,
      177,
      178,
      179,
      180,
      181,
      182,
      183,
      184,
      185,
      186,
      187,
      188,
      189,
      190,
      191,
      192,
      193,
      194,
      195,
      196,
      197,
      198,
      199,
      200,
      201,
      202,
      203,
      204,
      205,
      206,
      207,
      208,
      209,
      210,
      211,
      212,
      213,
      214,
      215,
      216,
      217,
      218,
      219,
      220,
      221,
      222,
      223,
      224,
      225,
      226,
      227,
      228,
      229,
      230,
      231,
      232,
      233,
      234,
      235,
      236,
      237,
      238,
      239,
      240,
      241,
      242,
      243,
      244,
      245,
      246,
      247,
      248,
      249,
      250,
      251,
      252,
      253,
      254,
      255,
      256,
      257,
      258,
      259,
      260,
      261,
      262,
      263,
      264,
      265,
      266,
      267,
      268,
      269,
      270,
      271,
      272,
      273,
      274,
      275,
      276,
      277,
      278,
      279,
      280,
      281,
      282,
      283,
      284,
      285,
      286,
      287,
      288,
      289,
      290,
      291,
      292,
      293,
      294,
      295,
      296,
      297,
      298,
      299,
      300,
      301,
      302,
      303,
      304,
      305,
      306,
      307,
      308,
      309,
      310,
      311,
      312,
      313,
      314,
      315,
      316,
      317,
      318,
      319,
      320,
      321,
      322,
      323,
      324,
      325,
      326,
      327,
      328,
      329,
      330,
      331,
      332,
      333,
      334,
      335,
      336,
      337,
      338,
      339,
      340,
      341,
      342,
      343,
      344,
      345,
      346,
      347,
      348,
      349,
      350,
      351,
      352,
      353,
      354,
      355,
      356,
      357,
      358,
      359,
      360,
      361,
      362,
      363,
      364,
      365,
      366,
      367,
      368,
      369,
      370,
      371,
      372,
      373,
      374,
      375,
      376,
      377,
      378,
      379,
      380,
      381,
      382,
      383,
      384,
      385,
      386,
      387,
      388,
      389,
      390,
      391,
      392,
      393,
      394,
      395,
      396,
      397,
      398,
      399
    ],
    "timestamps": [
      "2022-07-09T01:17:23.367862",
      "2022-07-09T01:17:25.814264",
      "2022-07-09T01:17:28.191315",
      "2022-07-09T01:17:30.655700",
      "2022-07-09T01:17:33.199212",
      "2022-07-09T01:17:35.398866",
      "2022-07-09T01:17:37.588286",
      "2022-07-09T01:17:39.850920",
      "2022-07-09T01:17:42.277572",
      "2022-07-09T01:17:44.441106",
      "2022-07-09T01:17:46.617666",
      "2022-07-09T01:17:48.791970",
      "2022-07-09T01:17:51.112662",
      "2022-07-09T01:17:53.406469",
      "2022-07-09T01:17:55.569681",
      "2022-07-09T01:17:57.729773",
      "2022-07-09T01:17:59.895474",
      "2022-07-09T01:18:02.277135",
      "2022-07-09T01:18:04.451301",
      "2022-07-09T01:18:06.622782",
      "2022-07-09T01:18:08.799804",
      "2022-07-09T01:18:11.229273",
      "2022-07-09T01:18:13.610640",
      "2022-07-09T01:18:15.808480",
      "2022-07-09T01:18:18.037431",
      "2022-07-09T01:18:20.294593",
      "2022-07-09T01:18:22.687927",
      "2022-07-09T01:18:24.867588",
      "2022-07-09T01:18:27.035159",
      "2022-07-09T01:18:29.198588",
      "2022-07-09T01:18:31.515501",
      "2022-07-09T01:18:33.780620",
      "2022-07-09T01:18:35.951794",
      "2022-07-09T01:18:38.116618",
      "2022-07-09T01:18:40.324865",
      "2022-07-09T01:18:42.707586",
      "2022-07-09T01:18:44.891821",
      "2022-07-09T01:18:47.073458",
      "2022-07-09T01:18:49.255166",
      "2022-07-09T01:18:51.652338",
      "2022-07-09T01:18:53.933084",
      "2022-07-09T01:18:56.149259",
      "2022-07-09T01:18:58.318567",
      "2022-07-09T01:19:00.523235",
      "2022-07-09T01:19:02.939967",
      "2022-07-09T01:19:05.105747",
      "2022-07-09T01:19:07.260622",
      "2022-07-09T01:19:09.437517",
      "2022-07-09T01:19:12.135003",
      "2022-07-09T01:19:14.390130",
      "2022-07-09T01:19:16.696070",
      "2022-07-09T01:19:18.880292",
      "2022-07-09T01:19:21.145510",
      "2022-07-09T01:19:23.447232",
      "2022-07-09T01:19:25.628775",
      "2022-07-09T01:19:27.785762",
      "2022-07-09T01:19:30.009310",
      "2022-07-09T01:19:32.461997",
      "2022-07-09T01:19:34.686977",
      "2022-07-09T01:19:36.904756",
      "2022-07-09T01:19:39.185116",
      "2022-07-09T01:19:41.522784",
      "2022-07-09T01:19:43.795944",
      "2022-07-09T01:19:45.951963",
      "2022-07-09T01:19:48.111089",
      "2022-07-09T01:19:50.326905",
      "2022-07-09T01:19:52.744296",
      "2022-07-09T01:19:54.934429",
      "2022-07-09T01:19:57.121498",
      "2022-07-09T01:19:59.328533",
      "2022-07-09T01:20:01.658199",
      "2022-07-09T01:20:03.886288",
      "2022-07-09T01:20:06.046421",
      "2022-07-09T01:20:08.214543",
      "2022-07-09T01:20:10.405562",
      "2022-07-09T01:20:12.810427",
      "2022-07-09T01:20:14.989610",
      "2022-07-09T01:20:17.139770",
      "2022-07-09T01:20:19.292741",
      "2022-07-09T01:20:21.641527",
      "2022-07-09T01:20:23.882014",
      "2022-07-09T01:20:26.042873",
      "2022-07-09T01:20:28.204538",
      "2022-07-09T01:20:30.399926",
      "2022-07-09T01:20:32.785022",
      "2022-07-09T01:20:34.957014",
      "2022-07-09T01:20:37.119778",
      "2022-07-09T01:20:39.283981",
      "2022-07-09T01:20:41.611402",
      "2022-07-09T01:20:43.861575",
      "2022-07-09T01:20:46.029717",
      "2022-07-09T01:20:48.195591",
      "2022-07-09T01:20:50.435719",
      "2022-07-09T01:20:52.899664",
      "2022-07-09T01:20:55.082792",
      "2022-07-09T01:20:57.270934",
      "2022-07-09T01:20:59.435095",
      "2022-07-09T01:21:01.944839",
      "2022-07-09T01:21:04.151851",
      "2022-07-09T01:21:06.334106",
      "2022-07-09T01:21:08.499112",
      "2022-07-09T01:21:10.823029",
      "2022-07-09T01:21:13.494422",
      "2022-07-09T01:21:15.774020",
      "2022-07-09T01:21:17.976699",
      "2022-07-09T01:21:20.213063",
      "2022-07-09T01:21:22.640564",
      "2022-07-09T01:21:24.807257",
      "2022-07-09T01:21:27.087815",
      "2022-07-09T01:21:29.279399",
      "2022-07-09T01:21:31.786832",
      "2022-07-09T01:21:34.077206",
      "2022-07-09T01:21:36.281766",
      "2022-07-09T01:21:38.476753",
      "2022-07-09T01:21:40.777975",
      "2022-07-09T01:21:43.149222",
      "2022-07-09T01:21:45.409873",
      "2022-07-09T01:21:47.602423",
      "2022-07-09T01:21:49.809264",
      "2022-07-09T01:21:52.239041",
      "2022-07-09T01:21:54.455902",
      "2022-07-09T01:21:56.664223",
      "2022-07-09T01:21:58.864647",
      "2022-07-09T01:22:01.194422",
      "2022-07-09T01:22:03.540287",
      "2022-07-09T01:22:05.750557",
      "2022-07-09T01:22:07.962519",
      "2022-07-09T01:22:10.220282",
      "2022-07-09T01:22:12.760434",
      "2022-07-09T01:22:14.950319",
      "2022-07-09T01:22:17.131911",
      "2022-07-09T01:22:19.308561",
      "2022-07-09T01:22:21.885067",
      "2022-07-09T01:22:24.114267",
      "2022-07-09T01:22:26.322171",
      "2022-07-09T01:22:28.532239",
      "2022-07-09T01:22:30.815483",
      "2022-07-09T01:22:33.216844",
      "2022-07-09T01:22:35.422874",
      "2022-07-09T01:22:37.623990",
      "2022-07-09T01:22:39.879592",
      "2022-07-09T01:22:42.327313",
      "2022-07-09T01:22:44.530733",
      "2022-07-09T01:22:46.727376",
      "2022-07-09T01:22:48.932077",
      "2022-07-09T01:22:51.285535",
      "2022-07-09T01:22:53.617480",
      "2022-07-09T01:22:55.817591",
      "2022-07-09T01:22:58.010090",
      "2022-07-09T01:23:00.234106",
      "2022-07-09T01:23:02.701976",
      "2022-07-09T01:23:04.907656",
      "2022-07-09T01:23:07.105348",
      "2022-07-09T01:23:09.298795",
      "2022-07-09T01:23:11.939576",
      "2022-07-09T01:23:14.158041",
      "2022-07-09T01:23:16.360013",
      "2022-07-09T01:23:18.528676",
      "2022-07-09T01:23:20.794957",
      "2022-07-09T01:23:23.123876",
      "2022-07-09T01:23:25.296006",
      "2022-07-09T01:23:27.466726",
      "2022-07-09T01:23:29.636232",
      "2022-07-09T01:23:32.016076",
      "2022-07-09T01:23:34.219803",
      "2022-07-09T01:23:36.387752",
      "2022-07-09T01:23:38.617349",
      "2022-07-09T01:23:40.945429",
      "2022-07-09T01:23:43.319266",
      "2022-07-09T01:23:45.634971",
      "2022-07-09T01:23:47.841401",
      "2022-07-09T01:23:50.079138",
      "2022-07-09T01:23:52.453871",
      "2022-07-09T01:23:54.644151",
      "2022-07-09T01:23:56.801974",
      "2022-07-09T01:23:58.962909",
      "2022-07-09T01:24:01.299983",
      "2022-07-09T01:24:03.657438",
      "2022-07-09T01:24:05.880818",
      "2022-07-09T01:24:08.123621",
      "2022-07-09T01:24:10.398005",
      "2022-07-09T01:24:13.008603",
      "2022-07-09T01:24:15.186578",
      "2022-07-09T01:24:17.358043",
      "2022-07-09T01:24:19.551807",
      "2022-07-09T01:24:21.940309",
      "2022-07-09T01:24:24.201748",
      "2022-07-09T01:24:26.395213",
      "2022-07-09T01:24:28.597001",
      "2022-07-09T01:24:30.888562",
      "2022-07-09T01:24:33.267717",
      "2022-07-09T01:24:35.458030",
      "2022-07-09T01:24:37.654577",
      "2022-07-09T01:24:39.848987",
      "2022-07-09T01:24:42.269435",
      "2022-07-09T01:24:44.475303",
      "2022-07-09T01:24:46.638829",
      "2022-07-09T01:24:48.811529",
      "2022-07-09T01:24:51.097748",
      "2022-07-09T01:24:53.437481",
      "2022-07-09T01:24:55.623062",
      "2022-07-09T01:24:57.807667",
      "2022-07-09T01:25:00.017040",
      "2022-07-09T01:25:02.868474",
      "2022-07-09T01:25:05.075474",
      "2022-07-09T01:25:07.275301",
      "2022-07-09T01:25:09.487075",
      "2022-07-09T01:25:11.887121",
      "2022-07-09T01:25:14.159968",
      "2022-07-09T01:25:16.359678",
      "2022-07-09T01:25:18.570817",
      "2022-07-09T01:25:20.848892",
      "2022-07-09T01:25:23.246270",
      "2022-07-09T01:25:25.464543",
      "2022-07-09T01:25:27.676087",
      "2022-07-09T01:25:29.901642",
      "2022-07-09T01:25:32.355408",
      "2022-07-09T01:25:34.569907",
      "2022-07-09T01:25:36.776751",
      "2022-07-09T01:25:38.976853",
      "2022-07-09T01:25:41.281077",
      "2022-07-09T01:25:43.611770",
      "2022-07-09T01:25:45.829305",
      "2022-07-09T01:25:48.039652",
      "2022-07-09T01:25:50.307863",
      "2022-07-09T01:25:52.767817",
      "2022-07-09T01:25:54.977466",
      "2022-07-09T01:25:57.184613",
      "2022-07-09T01:25:59.409665",
      "2022-07-09T01:26:01.793196",
      "2022-07-09T01:26:04.068265",
      "2022-07-09T01:26:06.272535",
      "2022-07-09T01:26:08.475167",
      "2022-07-09T01:26:10.746496",
      "2022-07-09T01:26:13.134489",
      "2022-07-09T01:26:15.345794",
      "2022-07-09T01:26:17.548387",
      "2022-07-09T01:26:19.774223",
      "2022-07-09T01:26:22.743586",
      "2022-07-09T01:26:24.959212",
      "2022-07-09T01:26:27.171790",
      "2022-07-09T01:26:29.399774",
      "2022-07-09T01:26:31.888202",
      "2022-07-09T01:26:34.108331",
      "2022-07-09T01:26:36.269191",
      "2022-07-09T01:26:38.442388",
      "2022-07-09T01:26:40.691930",
      "2022-07-09T01:26:43.152475",
      "2022-07-09T01:26:45.312301",
      "2022-07-09T01:26:47.476210",
      "2022-07-09T01:26:49.679491",
      "2022-07-09T01:26:52.003745",
      "2022-07-09T01:26:54.235280",
      "2022-07-09T01:26:56.429508",
      "2022-07-09T01:26:58.611076",
      "2022-07-09T01:27:00.874118",
      "2022-07-09T01:27:03.273895",
      "2022-07-09T01:27:05.461338",
      "2022-07-09T01:27:07.644527",
      "2022-07-09T01:27:09.840477",
      "2022-07-09T01:27:12.833675",
      "2022-07-09T01:27:15.024342",
      "2022-07-09T01:27:17.208730",
      "2022-07-09T01:27:19.409341",
      "2022-07-09T01:27:21.737934",
      "2022-07-09T01:27:24.030268",
      "2022-07-09T01:27:26.217733",
      "2022-07-09T01:27:28.402563",
      "2022-07-09T01:27:30.636394",
      "2022-07-09T01:27:33.019102",
      "2022-07-09T01:27:35.211511",
      "2022-07-09T01:27:37.396069",
      "2022-07-09T01:27:39.582511",
      "2022-07-09T01:27:41.957616",
      "2022-07-09T01:27:44.201055",
      "2022-07-09T01:27:46.377119",
      "2022-07-09T01:27:48.558850",
      "2022-07-09T01:27:50.824934",
      "2022-07-09T01:27:53.202516",
      "2022-07-09T01:27:55.388920",
      "2022-07-09T01:27:57.572045",
      "2022-07-09T01:27:59.781317",
      "2022-07-09T01:28:02.702147",
      "2022-07-09T01:28:04.923934",
      "2022-07-09T01:28:07.134457",
      "2022-07-09T01:28:09.331408",
      "2022-07-09T01:28:11.804303",
      "2022-07-09T01:28:14.078788",
      "2022-07-09T01:28:16.238432",
      "2022-07-09T01:28:18.405655",
      "2022-07-09T01:28:20.625135",
      "2022-07-09T01:28:23.014952",
      "2022-07-09T01:28:25.277868",
      "2022-07-09T01:28:27.567537",
      "2022-07-09T01:28:29.779276",
      "2022-07-09T01:28:32.685491",
      "2022-07-09T01:28:34.993955",
      "2022-07-09T01:28:37.154392",
      "2022-07-09T01:28:39.471086",
      "2022-07-09T01:28:41.779564",
      "2022-07-09T01:28:44.140188",
      "2022-07-09T01:28:46.375841",
      "2022-07-09T01:28:48.590490",
      "2022-07-09T01:28:50.897931",
      "2022-07-09T01:28:53.307651",
      "2022-07-09T01:28:55.476403",
      "2022-07-09T01:28:57.684074",
      "2022-07-09T01:29:00.012500",
      "2022-07-09T01:29:02.492730",
      "2022-07-09T01:29:04.685783",
      "2022-07-09T01:29:06.875310",
      "2022-07-09T01:29:09.066345",
      "2022-07-09T01:29:11.366747",
      "2022-07-09T01:29:13.676856",
      "2022-07-09T01:29:15.859901",
      "2022-07-09T01:29:18.047281",
      "2022-07-09T01:29:20.242355",
      "2022-07-09T01:29:22.665105",
      "2022-07-09T01:29:24.845076",
      "2022-07-09T01:29:27.026628",
      "2022-07-09T01:29:29.203800",
      "2022-07-09T01:29:31.506628",
      "2022-07-09T01:29:33.859640",
      "2022-07-09T01:29:36.042067",
      "2022-07-09T01:29:38.218597",
      "2022-07-09T01:29:40.430969",
      "2022-07-09T01:29:42.857224",
      "2022-07-09T01:29:45.042829",
      "2022-07-09T01:29:47.222919",
      "2022-07-09T01:29:49.410964",
      "2022-07-09T01:29:51.751113",
      "2022-07-09T01:29:54.034220",
      "2022-07-09T01:29:56.219462",
      "2022-07-09T01:29:58.411604",
      "2022-07-09T01:30:00.654288",
      "2022-07-09T01:30:03.041064",
      "2022-07-09T01:30:05.226478",
      "2022-07-09T01:30:07.403681",
      "2022-07-09T01:30:09.594265",
      "2022-07-09T01:30:11.993950",
      "2022-07-09T01:30:14.243109",
      "2022-07-09T01:30:16.431224",
      "2022-07-09T01:30:18.628933",
      "2022-07-09T01:30:20.869001",
      "2022-07-09T01:30:23.245943",
      "2022-07-09T01:30:25.442569",
      "2022-07-09T01:30:27.631659",
      "2022-07-09T01:30:29.847525",
      "2022-07-09T01:30:32.265133",
      "2022-07-09T01:30:34.492218",
      "2022-07-09T01:30:36.675894",
      "2022-07-09T01:30:38.866452",
      "2022-07-09T01:30:41.143108",
      "2022-07-09T01:30:43.492631",
      "2022-07-09T01:30:45.689080",
      "2022-07-09T01:30:47.889021",
      "2022-07-09T01:30:50.097967",
      "2022-07-09T01:30:52.736650",
      "2022-07-09T01:30:54.942994",
      "2022-07-09T01:30:57.105467",
      "2022-07-09T01:30:59.268558",
      "2022-07-09T01:31:01.583370",
      "2022-07-09T01:31:03.873913",
      "2022-07-09T01:31:06.039581",
      "2022-07-09T01:31:08.214853",
      "2022-07-09T01:31:10.416149",
      "2022-07-09T01:31:12.798121",
      "2022-07-09T01:31:15.009655",
      "2022-07-09T01:31:17.180636",
      "2022-07-09T01:31:19.368702",
      "2022-07-09T01:31:21.795444",
      "2022-07-09T01:31:24.079748",
      "2022-07-09T01:31:26.262645",
      "2022-07-09T01:31:28.450639",
      "2022-07-09T01:31:30.665125",
      "2022-07-09T01:31:33.052820",
      "2022-07-09T01:31:35.246434",
      "2022-07-09T01:31:37.418806",
      "2022-07-09T01:31:39.584268",
      "2022-07-09T01:31:41.946033",
      "2022-07-09T01:31:44.209392",
      "2022-07-09T01:31:46.399419",
      "2022-07-09T01:31:48.580092",
      "2022-07-09T01:31:50.802509",
      "2022-07-09T01:31:53.199602",
      "2022-07-09T01:31:55.374681",
      "2022-07-09T01:31:57.560484",
      "2022-07-09T01:31:59.754078",
      "2022-07-09T01:32:02.121967",
      "2022-07-09T01:32:04.372163",
      "2022-07-09T01:32:06.557007",
      "2022-07-09T01:32:08.736566",
      "2022-07-09T01:32:10.989903",
      "2022-07-09T01:32:13.363303",
      "2022-07-09T01:32:15.535279",
      "2022-07-09T01:32:17.734704",
      "2022-07-09T01:32:19.950555",
      "2022-07-09T01:32:22.366704",
      "2022-07-09T01:32:24.575800",
      "2022-07-09T01:32:26.756557"
    ],
    "values": [
      9.6014189875385,
      8.884237323873485,
      8.822122317949875,
      8.787321951730512,
      8.739333570884922,
      8.72142336382188,
      8.729548728212537,
      8.722501515708707,
      8.711944229278647,
      8.711341265674047,
      8.695403488149575,
      8.695820048579124,
      8.715641343853008,
      8.711992111588028,
      8.702780415762309,
      8.693045723847087,
      8.703040965806888,
      8.696717414911257,
      8.689875017416542,
      8.710496140202368,
      8.692546845823802,
      8.705811892632305,
      8.687324119108661,
      8.686853465576412,
      8.687294278113212,
      8.725564366748676,
      8.672631617776878,
      8.685572811883334,
      8.668415581739495,
      8.678602499235366,
      8.671679139819984,
      8.699307841975033,
      8.68349199587076,
      8.705082901657034,
      8.679902024632165,
      8.701583683873242,
      8.671361631631658,
      8.683146484318762,
      8.68166607618674,
      8.693955014324285,
      8.682445725572215,
      8.670409001420701,
      8.700797904809495,
      8.683342445682378,
      8.67973588022753,
      8.674507252263345,
      8.671613888436289,
      8.69495341207952,
      8.67686066958445,
      8.672955607171273,
      8.681243425640055,
      8.677496555161925,
      8.666957464433443,
      8.66330267155752,
      8.66919814664153,
      8.717340035811747,
      8.673176119617398,
      8.678999161407106,
      8.704707912537378,
      8.677112732857147,
      8.68122889461834,
      8.692820055046283,
      8.676667229271944,
      8.680681623208189,
      8.661765478891493,
      8.680218579909875,
      8.689350771835455,
      8.680515840513008,
      8.69019881634641,
      8.68648489787516,
      8.665435539535544,
      8.665406150982232,
      8.678383489441035,
      8.672945788523634,
      8.672626126731638,
      8.661504373550821,
      8.644827222480757,
      8.644659187827365,
      8.645766559637002,
      8.643100567770283,
      8.647234818907194,
      8.644708300245842,
      8.644285872803977,
      8.643578394736211,
      8.649646546129395,
      8.643735870064683,
      8.646665457575493,
      8.654454907917824,
      8.645906575330711,
      8.64502746036285,
      8.648066939245812,
      8.65156176481988,
      8.643702861023884,
      8.642905416880183,
      8.64392904805385,
      8.646301212661138,
      8.64469162002338,
      8.646322997681677,
      8.645875906288808,
      8.647343287519197,
      8.646060369174496,
      8.645112262793997,
      8.647671073551862,
      8.645177004058269,
      8.647755189153607,
      8.646580031679335,
      8.643319684809557,
      8.644022479826827,
      8.644029991133444,
      8.643643200498648,
      8.646272544770397,
      8.640886276833719,
      8.645015107621424,
      8.646332251860377,
      8.648290830118544,
      8.648424020103418,
      8.644903708862888,
      8.645577733895449,
      8.6428577398159,
      8.644319705490101,
      8.643342044715418,
      8.646950365367655,
      8.646811104317637,
      8.646655746252517,
      8.64287638307577,
      8.648351565797975,
      8.642716970175645,
      8.641863274030863,
      8.642000457891118,
      8.642033342828608,
      8.64171945178298,
      8.642201837902372,
      8.641919858885531,
      8.641986177075756,
      8.641272229748823,
      8.641976220755394,
      8.641379061975282,
      8.64136562670342,
      8.641765017780429,
      8.64191739321854,
      8.641734087634662,
      8.641258807373218,
      8.641342080777784,
      8.641389892147894,
      8.641684637639434,
      8.641434203077594,
      8.64171149338347,
      8.641536134634615,
      8.641428249163383,
      8.641456208648055,
      8.64144238323188,
      8.641473266225045,
      8.641504490337404,
      8.64151972561072,
      8.641505691306548,
      8.641540051331692,
      8.641522868977432,
      8.641519453678411,
      8.641546457843718,
      8.641565129598002,
      8.641540694150173,
      8.64155817250432,
      8.641556517372273,
      8.641535625703591,
      8.641536552272857,
      8.641526361315181,
      8.64155725174046,
      8.641540621907907,
      8.641530370602712,
      8.641583249339993,
      8.641548865207161,
      8.641554936279347,
      8.641553754688967,
      8.641549602770834,
      8.641552793230389,
      8.641555319340773,
      8.641552944703806,
      8.641555885259494,
      8.64155252846085,
      8.641555664199077,
      8.641550283040411,
      8.641553216946058,
      8.641556248820097,
      8.641560988452866,
      8.641555632758868,
      8.641558945112664,
      8.641562932550105,
      8.641562218295578,
      8.641566763032726,
      8.641564811505994,
      8.641562186644094,
      8.641566609800774,
      8.641564796409806,
      8.641564893948885,
      8.641565395280194,
      8.641563931804036,
      8.64156413047399,
      8.64156055419303,
      8.641557330914097,
      8.641557711234919,
      8.641560714267591,
      8.641560643294937,
      8.6415557955838,
      8.641557690280338,
      8.64155412146791,
      8.64155958393765,
      8.641555647693112,
      8.641554403994846,
      8.641553136883287,
      8.641553992195307,
      8.64155180360198,
      8.641549826631909,
      8.641551130444986,
      8.641552069157804,
      8.641550598778762,
      8.641546615357559,
      8.641549746780008,
      8.641548741685515,
      8.64155364625558,
      8.641548453725933,
      8.641545963560949,
      8.64154319711013,
      8.641548804753965,
      8.641550466803976,
      8.641545508541515,
      8.64154742393721,
      8.64154356916097,
      8.641542423064365,
      8.641542609315083,
      8.641542262750855,
      8.64154396689218,
      8.641543408978414,
      8.641539849102863,
      8.641539220693872,
      8.641541123545966,
      8.641537880975012,
      8.641540575533966,
      8.64153808679906,
      8.641534757194492,
      8.64153786530013,
      8.64154133357448,
      8.641546537151893,
      8.641548035808858,
      8.641550795250966,
      8.641548795205987,
      8.641547791006667,
      8.641553222677029,
      8.641548194142544,
      8.64155107388432,
      8.641550080419115,
      8.641549312453385,
      8.641550641418359,
      8.641552503031068,
      8.641549280150162,
      8.641550205134854,
      8.641548076667926,
      8.641555277417865,
      8.64154874308239,
      8.64155288625718,
      8.641551654972933,
      8.641547475416592,
      8.641557503349057,
      8.6415523909985,
      8.641548735243964,
      8.641550599238714,
      8.641551760441768,
      8.641552042218096,
      8.641550926375983,
      8.641549141058345,
      8.641550121313607,
      8.64155465057438,
      8.641555201232894,
      8.64155059225154,
      8.641555241650805,
      8.641552958449173,
      8.64155425773826,
      8.641555762520525,
      8.641555163171333,
      8.64155632020944,
      8.64155147554524,
      8.64155462037214,
      8.641554400493945,
      8.641551707422352,
      8.641552738345206,
      8.641553141356827,
      8.641553986875552,
      8.64155383017379,
      8.64155545556883,
      8.641553869428638,
      8.641554027689846,
      8.641553162851862,
      8.641555528986338,
      8.641553508487913,
      8.641554592217767,
      8.641550559307479,
      8.641553711400924,
      8.64155272853031,
      8.641552575857684,
      8.641555524528682,
      8.641552095318508,
      8.641554746477944,
      8.641558077478377,
      8.641556347961748,
      8.641554039225278,
      8.641554109609874,
      8.641553058742158,
      8.641555405704823,
      8.641554377320478,
      8.641553642976318,
      8.641552975569754,
      8.641554247679144,
      8.641557382139293,
      8.64155875103633,
      8.641553817795298,
      8.641554649114672,
      8.641556173967736,
      8.641553687378952,
      8.641553629821372,
      8.641554853312408,
      8.641557060728083,
      8.641558730967194,
      8.641557900941935,
      8.64155583683594,
      8.641553319760925,
      8.641559323638683,
      8.641551970585121,
      8.64155684334117,
      8.641557874172612,
      8.641559038776489,
      8.641559697809074,
      8.641558197329656,
      8.641554736486786,
      8.641557221782376,
      8.641558396572028,
      8.641560588186953,
      8.641558181282772,
      8.641562113136052,
      8.641560016715179,
      8.641559523803183,
      8.641558148203845,
      8.64156169112265,
      8.641560644993241,
      8.641560324113176,
      8.641561707499841,
      8.641562275027322,
      8.641555470583485,
      8.641562658439177,
      8.641564624366117,
      8.641561021884897,
      8.64156503393487,
      8.64156406372798,
      8.641561067623714,
      8.641555946758682,
      8.641558717235862,
      8.641554013271564,
      8.64156019701936,
      8.64155808984382,
      8.641554504749912,
      8.641558783186435,
      8.641550837079432,
      8.641556730445531,
      8.64155391766101,
      8.641554786205866,
      8.641553485043564,
      8.6415495885464,
      8.641549884994363,
      8.641548593426954,
      8.641549943606623,
      8.641548534606391,
      8.641550497806353,
      8.641547748749282,
      8.64154773106852,
      8.641543879619855,
      8.64154745489789,
      8.641546302185361,
      8.64154671737831,
      8.641548946177451,
      8.641548210018481,
      8.641551734432184,
      8.641550928314212,
      8.641549634519892,
      8.641550826480518,
      8.641547797419202,
      8.641548330739708,
      8.64154842411597,
      8.641551010051193,
      8.641548707788548,
      8.641552611498934,
      8.641550764485281,
      8.64154627052027,
      8.641547722394103,
      8.641548824942765,
      8.64154783946692,
      8.641545884229286,
      8.641550306606252,
      8.641546050450353,
      8.641545249305572,
      8.641552729501116,
      8.641546513448114,
      8.641545378155984
    ]
  }
}