{
  "memory.usage": {
    "steps": [
      0,
      1,
      2,
      3,
      4,
      5,
      6,
      7,
      8,
      9,
      10,
      11,
      12,
      13,
      14,
      15,
      16,
      17,
      18,
      19,
      20,
      21,
      22,
      23,
      24,
      25,
      26,
      27,
      28,
      29,
      30,
      31,
      32,
      33,
      34,
      35,
      36,
      37,
      38,
      39,
      40
    ],
    "timestamps": [
      "2022-11-11T13:21:48.402249",
      "2022-11-11T13:21:53.575867",
      "2022-11-11T13:21:59.235728",
      "2022-11-11T13:22:05.454367",
      "2022-11-11T13:22:11.586328",
      "2022-11-11T13:22:17.312352",
      "2022-11-11T13:22:22.917622",
      "2022-11-11T13:22:28.528259",
      "2022-11-11T13:22:34.127443",
      "2022-11-11T13:22:39.739378",
      "2022-11-11T13:22:45.357116",
      "2022-11-11T13:22:50.975985",
      "2022-11-11T13:22:56.574505",
      "2022-11-11T13:23:02.174755",
      "2022-11-11T13:23:07.776327",
      "2022-11-11T13:23:13.383610",
      "2022-11-11T13:23:18.984116",
      "2022-11-11T13:23:24.583262",
      "2022-11-11T13:23:30.182857",
      "2022-11-11T13:23:35.784612",
      "2022-11-11T13:23:41.939629",
      "2022-11-11T13:23:48.249044",
      "2022-11-11T13:23:54.057300",
      "2022-11-11T13:23:59.693542",
      "2022-11-11T13:24:06.259132",
      "2022-11-11T13:24:12.737740",
      "2022-11-11T13:24:18.587825",
      "2022-11-11T13:24:24.162286",
      "2022-11-11T13:24:30.482992",
      "2022-11-11T13:24:36.303914",
      "2022-11-11T13:24:42.419254",
      "2022-11-11T13:24:48.600471",
      "2022-11-11T13:24:54.542426",
      "2022-11-11T13:25:00.384801",
      "2022-11-11T13:25:06.864829",
      "2022-11-11T13:25:12.689959",
      "2022-11-11T13:25:18.313858",
      "2022-11-11T13:25:24.227218",
      "2022-11-11T13:25:30.097521",
      "2022-11-11T13:25:35.839413",
      "2022-11-11T13:25:41.686199"
    ],
    "values": [
      139.698176,
      139.698176,
      139.698176,
      139.698176,
      139.698176,
      139.698176,
      139.698176,
      139.698176,
      139.698176,
      139.698176,
      139.698176,
      139.698176,
      139.698176,
      139.698176,
      139.698176,
      139.698176,
      139.698176,
      139.698176,
      139.698176,
      139.698176,
      139.698176,
      139.698176,
      139.698176,
      139.698176,
      139.698176,
      139.698176,
      139.698176,
      139.698176,
      139.698176,
      139.698176,
      139.698176,
      139.698176,
      139.698176,
      139.698176,
      139.698176,
      139.698176,
      139.698176,
      139.698176,
      139.698176,
      139.698176,
      139.698176
    ]
  },
  "train": {
    "steps": [
      0,
      1,
      2,
      3,
      4,
      5,
      6,
      7,
      8,
      9,
      10,
      11,
      12,
      13,
      14,
      15,
      16,
      17,
      18,
      19,
      20,
      21,
      22,
      23,
      24,
      25,
      26,
      27,
      28,
      29,
      30,
      31,
      32,
      33,
      34,
      35,
      36,
      37,
      38,
      39,
      40,
      41,
      42,
      43,
      44,
      45,
      46,
      47,
      48,
      49,
      50,
      51,
      52,
      53,
      54,
      55,
      56,
      57,
      58,
      59,
      60,
      61,
      62,
      63,
      64,
      65,
      66,
      67,
      68,
      69,
      70,
      71,
      72,
      73,
      74,
      75,
      76,
      77,
      78,
      79,
      80,
      81,
      82,
      83,
      84,
      85,
      86,
      87,
      88,
      89,
      90,
      91,
      92,
      93,
      94,
      95,
      96,
      97,
      98,
      99,
      100,
      101,
      102,
      103,
      104,
      105,
      106,
      107,
      108,
      109,
      110,
      111,
      112,
      113,
      114,
      115,
      116,
      117,
      118,
      119,
      120,
      121,
      122,
      123,
      124,
      125,
      126,
      127,
      128,
      129,
      130,
      131,
      132,
      133,
      134,
      135,
      136,
      137,
      138,
      139,
      140,
      141,
      142,
      143,
      144,
      145,
      146,
      147,
      148,
      149,
      150,
      151,
      152,
      153,
      154,
      155,
      156,
      157,
      158,
      159,
      160,
      161,
      162,
      163,
      164,
      165,
      166,
      167,
      168,
      169,
      170,
      171,
      172,
      173,
      174,
      175,
      176,
      177,
      178,
      179,
      180,
      181,
      182,
      183,
      184,
      185,
      186,
      187,
      188,
      189,
      190,
      191,
      192,
      193,
      194,
      195,
      196,
      197,
      198,
      199,
      200,
      201,
      202,
      203,
      204,
      205,
      206,
      207,
      208,
      209,
      210,
      211,
      212,
      213,
      214,
      215,
      216,
      217,
      218,
      219,
      220,
      221,
      222,
      223,
      224,
      225,
      226,
      227,
      228,
      229,
      230,
      231,
      232,
      233,
      234,
      235,
      236,
      237,
      238,
      239,
      240,
      241,
      242,
      243,
      244,
      245,
      246,
      247,
      248,
      249,
      250,
      251,
      252,
      253,
      254,
      255,
      256,
      257,
      258,
      259,
      260,
      261,
      262,
      263,
      264,
      265,
      266,
      267,
      268,
      269,
      270,
      271,
      272,
      273,
      274,
      275,
      276,
      277,
      278,
      279,
      280,
      281,
      282,
      283,
      284,
      285,
      286,
      287,
      288,
      289,
      290,
      291,
      292,
      293,
      294,
      295,
      296,
      297,
      298,
      299,
      300,
      301,
      302,
      303,
      304,
      305,
      306,
      307,
      308,
      309,
      310,
      311,
      312,
      313,
      314,
      315,
      316,
      317,
      318,
      319,
      320,
      321,
      322,
      323,
      324,
      325,
      326,
      327,
      328,
      329,
      330,
      331,
      332,
      333,
      334,
      335,
      336,
      337,
      338,
      339,
      340,
      341,
      342,
      343,
      344,
      345,
      346,
      347,
      348,
      349,
      350,
      351,
      352,
      353,
      354,
      355,
      356,
      357,
      358,
      359,
      360,
      361,
      362,
      363,
      364,
      365,
      366,
      367,
      368,
      369,
      370,
      371,
      372,
      373,
      374,
      375,
      376,
      377,
      378,
      379,
      380,
      381,
      382,
      383,
      384,
      385,
      386,
      387,
      388,
      389,
      390,
      391,
      392,
      393,
      394,
      395,
      396,
      397,
      398,
      399
    ],
    "timestamps": [
      "2022-11-11T13:21:48.401502",
      "2022-11-11T13:21:49.066616",
      "2022-11-11T13:21:49.680309",
      "2022-11-11T13:21:50.239215",
      "2022-11-11T13:21:50.791895",
      "2022-11-11T13:21:51.350283",
      "2022-11-11T13:21:51.905307",
      "2022-11-11T13:21:52.463822",
      "2022-11-11T13:21:53.018414",
      "2022-11-11T13:21:53.575541",
      "2022-11-11T13:21:54.209052",
      "2022-11-11T13:21:54.768044",
      "2022-11-11T13:21:55.323237",
      "2022-11-11T13:21:55.884585",
      "2022-11-11T13:21:56.442518",
      "2022-11-11T13:21:57.005510",
      "2022-11-11T13:21:57.562077",
      "2022-11-11T13:21:58.122639",
      "2022-11-11T13:21:58.676058",
      "2022-11-11T13:21:59.235375",
      "2022-11-11T13:21:59.817290",
      "2022-11-11T13:22:00.575744",
      "2022-11-11T13:22:01.243314",
      "2022-11-11T13:22:01.879165",
      "2022-11-11T13:22:02.525125",
      "2022-11-11T13:22:03.126548",
      "2022-11-11T13:22:03.703730",
      "2022-11-11T13:22:04.274775",
      "2022-11-11T13:22:04.854651",
      "2022-11-11T13:22:05.453991",
      "2022-11-11T13:22:06.056607",
      "2022-11-11T13:22:06.668325",
      "2022-11-11T13:22:07.472626",
      "2022-11-11T13:22:08.067454",
      "2022-11-11T13:22:08.646282",
      "2022-11-11T13:22:09.214606",
      "2022-11-11T13:22:09.769677",
      "2022-11-11T13:22:10.412925",
      "2022-11-11T13:22:11.010677",
      "2022-11-11T13:22:11.585925",
      "2022-11-11T13:22:12.186655",
      "2022-11-11T13:22:12.753870",
      "2022-11-11T13:22:13.322189",
      "2022-11-11T13:22:13.893709",
      "2022-11-11T13:22:14.470085",
      "2022-11-11T13:22:15.050326",
      "2022-11-11T13:22:15.625625",
      "2022-11-11T13:22:16.192990",
      "2022-11-11T13:22:16.751010",
      "2022-11-11T13:22:17.312011",
      "2022-11-11T13:22:17.895134",
      "2022-11-11T13:22:18.454228",
      "2022-11-11T13:22:19.010232",
      "2022-11-11T13:22:19.567990",
      "2022-11-11T13:22:20.124169",
      "2022-11-11T13:22:20.682663",
      "2022-11-11T13:22:21.240123",
      "2022-11-11T13:22:21.801449",
      "2022-11-11T13:22:22.356970",
      "2022-11-11T13:22:22.917283",
      "2022-11-11T13:22:23.500511",
      "2022-11-11T13:22:24.058726",
      "2022-11-11T13:22:24.613005",
      "2022-11-11T13:22:25.170572",
      "2022-11-11T13:22:25.731236",
      "2022-11-11T13:22:26.293216",
      "2022-11-11T13:22:26.851924",
      "2022-11-11T13:22:27.411243",
      "2022-11-11T13:22:27.967349",
      "2022-11-11T13:22:28.527929",
      "2022-11-11T13:22:29.111436",
      "2022-11-11T13:22:29.669882",
      "2022-11-11T13:22:30.226559",
      "2022-11-11T13:22:30.785740",
      "2022-11-11T13:22:31.339893",
      "2022-11-11T13:22:31.899367",
      "2022-11-11T13:22:32.454928",
      "2022-11-11T13:22:33.014595",
      "2022-11-11T13:22:33.569122",
      "2022-11-11T13:22:34.127115",
      "2022-11-11T13:22:34.709401",
      "2022-11-11T13:22:35.270391",
      "2022-11-11T13:22:35.829128",
      "2022-11-11T13:22:36.388858",
      "2022-11-11T13:22:36.945989",
      "2022-11-11T13:22:37.507579",
      "2022-11-11T13:22:38.063184",
      "2022-11-11T13:22:38.622257",
      "2022-11-11T13:22:39.177879",
      "2022-11-11T13:22:39.739035",
      "2022-11-11T13:22:40.320839",
      "2022-11-11T13:22:40.878941",
      "2022-11-11T13:22:41.433484",
      "2022-11-11T13:22:41.990999",
      "2022-11-11T13:22:42.547580",
      "2022-11-11T13:22:43.106128",
      "2022-11-11T13:22:43.660627",
      "2022-11-11T13:22:44.228836",
      "2022-11-11T13:22:44.789271",
      "2022-11-11T13:22:45.356681",
      "2022-11-11T13:22:45.951582",
      "2022-11-11T13:22:46.516722",
      "2022-11-11T13:22:47.074100",
      "2022-11-11T13:22:47.635702",
      "2022-11-11T13:22:48.190964",
      "2022-11-11T13:22:48.748270",
      "2022-11-11T13:22:49.303046",
      "2022-11-11T13:22:49.862508",
      "2022-11-11T13:22:50.418102",
      "2022-11-11T13:22:50.975650",
      "2022-11-11T13:22:51.560317",
      "2022-11-11T13:22:52.118920",
      "2022-11-11T13:22:52.674193",
      "2022-11-11T13:22:53.232819",
      "2022-11-11T13:22:53.787177",
      "2022-11-11T13:22:54.344561",
      "2022-11-11T13:22:54.900463",
      "2022-11-11T13:22:55.459483",
      "2022-11-11T13:22:56.015121",
      "2022-11-11T13:22:56.574178",
      "2022-11-11T13:22:57.158088",
      "2022-11-11T13:22:57.718017",
      "2022-11-11T13:22:58.273968",
      "2022-11-11T13:22:58.832870",
      "2022-11-11T13:22:59.387565",
      "2022-11-11T13:22:59.945326",
      "2022-11-11T13:23:00.501272",
      "2022-11-11T13:23:01.060382",
      "2022-11-11T13:23:01.615960",
      "2022-11-11T13:23:02.174428",
      "2022-11-11T13:23:02.759244",
      "2022-11-11T13:23:03.317364",
      "2022-11-11T13:23:03.871842",
      "2022-11-11T13:23:04.431499",
      "2022-11-11T13:23:04.987996",
      "2022-11-11T13:23:05.546034",
      "2022-11-11T13:23:06.104189",
      "2022-11-11T13:23:06.663939",
      "2022-11-11T13:23:07.218072",
      "2022-11-11T13:23:07.776000",
      "2022-11-11T13:23:08.364148",
      "2022-11-11T13:23:08.924142",
      "2022-11-11T13:23:09.479353",
      "2022-11-11T13:23:10.038963",
      "2022-11-11T13:23:10.593876",
      "2022-11-11T13:23:11.152599",
      "2022-11-11T13:23:11.707912",
      "2022-11-11T13:23:12.266615",
      "2022-11-11T13:23:12.823708",
      "2022-11-11T13:23:13.383138",
      "2022-11-11T13:23:13.967682",
      "2022-11-11T13:23:14.525714",
      "2022-11-11T13:23:15.080556",
      "2022-11-11T13:23:15.641296",
      "2022-11-11T13:23:16.195124",
      "2022-11-11T13:23:16.754687",
      "2022-11-11T13:23:17.309549",
      "2022-11-11T13:23:17.867432",
      "2022-11-11T13:23:18.424385",
      "2022-11-11T13:23:18.983785",
      "2022-11-11T13:23:19.566809",
      "2022-11-11T13:23:20.125452",
      "2022-11-11T13:23:20.680097",
      "2022-11-11T13:23:21.239928",
      "2022-11-11T13:23:21.796693",
      "2022-11-11T13:23:22.355774",
      "2022-11-11T13:23:22.913708",
      "2022-11-11T13:23:23.472017",
      "2022-11-11T13:23:24.026159",
      "2022-11-11T13:23:24.582937",
      "2022-11-11T13:23:25.165402",
      "2022-11-11T13:23:25.727537",
      "2022-11-11T13:23:26.282793",
      "2022-11-11T13:23:26.841245",
      "2022-11-11T13:23:27.397514",
      "2022-11-11T13:23:27.956597",
      "2022-11-11T13:23:28.510822",
      "2022-11-11T13:23:29.070155",
      "2022-11-11T13:23:29.624589",
      "2022-11-11T13:23:30.182558",
      "2022-11-11T13:23:30.764318",
      "2022-11-11T13:23:31.322819",
      "2022-11-11T13:23:31.881078",
      "2022-11-11T13:23:32.439795",
      "2022-11-11T13:23:32.994314",
      "2022-11-11T13:23:33.551991",
      "2022-11-11T13:23:34.106815",
      "2022-11-11T13:23:34.664933",
      "2022-11-11T13:23:35.220678",
      "2022-11-11T13:23:35.784285",
      "2022-11-11T13:23:36.366390",
      "2022-11-11T13:23:36.929362",
      "2022-11-11T13:23:37.486039",
      "2022-11-11T13:23:38.043895",
      "2022-11-11T13:23:38.712816",
      "2022-11-11T13:23:39.526401",
      "2022-11-11T13:23:40.131825",
      "2022-11-11T13:23:40.740940",
      "2022-11-11T13:23:41.339069",
      "2022-11-11T13:23:41.939223",
      "2022-11-11T13:23:42.565966",
      "2022-11-11T13:23:43.208978",
      "2022-11-11T13:23:43.845063",
      "2022-11-11T13:23:44.513484",
      "2022-11-11T13:23:45.151273",
      "2022-11-11T13:23:45.785414",
      "2022-11-11T13:23:46.425139",
      "2022-11-11T13:23:47.015468",
      "2022-11-11T13:23:47.631866",
      "2022-11-11T13:23:48.248686",
      "2022-11-11T13:23:48.871687",
      "2022-11-11T13:23:49.511152",
      "2022-11-11T13:23:50.078487",
      "2022-11-11T13:23:50.633787",
      "2022-11-11T13:23:51.186770",
      "2022-11-11T13:23:51.743670",
      "2022-11-11T13:23:52.339748",
      "2022-11-11T13:23:52.934077",
      "2022-11-11T13:23:53.501779",
      "2022-11-11T13:23:54.056964",
      "2022-11-11T13:23:54.654508",
      "2022-11-11T13:23:55.248866",
      "2022-11-11T13:23:55.812940",
      "2022-11-11T13:23:56.368383",
      "2022-11-11T13:23:56.920290",
      "2022-11-11T13:23:57.475659",
      "2022-11-11T13:23:58.031896",
      "2022-11-11T13:23:58.586887",
      "2022-11-11T13:23:59.138698",
      "2022-11-11T13:23:59.693210",
      "2022-11-11T13:24:00.285878",
      "2022-11-11T13:24:00.912429",
      "2022-11-11T13:24:01.708493",
      "2022-11-11T13:24:02.264088",
      "2022-11-11T13:24:02.881639",
      "2022-11-11T13:24:03.678911",
      "2022-11-11T13:24:04.475975",
      "2022-11-11T13:24:05.126553",
      "2022-11-11T13:24:05.678463",
      "2022-11-11T13:24:06.258999",
      "2022-11-11T13:24:07.124716",
      "2022-11-11T13:24:07.806933",
      "2022-11-11T13:24:08.361406",
      "2022-11-11T13:24:08.979043",
      "2022-11-11T13:24:09.576336",
      "2022-11-11T13:24:10.252977",
      "2022-11-11T13:24:10.861455",
      "2022-11-11T13:24:11.538941",
      "2022-11-11T13:24:12.142002",
      "2022-11-11T13:24:12.737609",
      "2022-11-11T13:24:13.353368",
      "2022-11-11T13:24:13.940389",
      "2022-11-11T13:24:14.492750",
      "2022-11-11T13:24:15.070444",
      "2022-11-11T13:24:15.788922",
      "2022-11-11T13:24:16.369112",
      "2022-11-11T13:24:16.923731",
      "2022-11-11T13:24:17.480263",
      "2022-11-11T13:24:18.032110",
      "2022-11-11T13:24:18.587707",
      "2022-11-11T13:24:19.168476",
      "2022-11-11T13:24:19.723971",
      "2022-11-11T13:24:20.275441",
      "2022-11-11T13:24:20.835227",
      "2022-11-11T13:24:21.387514",
      "2022-11-11T13:24:21.947527",
      "2022-11-11T13:24:22.500121",
      "2022-11-11T13:24:23.056329",
      "2022-11-11T13:24:23.607478",
      "2022-11-11T13:24:24.161975",
      "2022-11-11T13:24:24.743196",
      "2022-11-11T13:24:25.298621",
      "2022-11-11T13:24:25.854846",
      "2022-11-11T13:24:26.409821",
      "2022-11-11T13:24:26.963617",
      "2022-11-11T13:24:27.631195",
      "2022-11-11T13:24:28.441152",
      "2022-11-11T13:24:29.006205",
      "2022-11-11T13:24:29.696916",
      "2022-11-11T13:24:30.482412",
      "2022-11-11T13:24:31.072761",
      "2022-11-11T13:24:31.633134",
      "2022-11-11T13:24:32.187703",
      "2022-11-11T13:24:32.764733",
      "2022-11-11T13:24:33.341345",
      "2022-11-11T13:24:33.930966",
      "2022-11-11T13:24:34.530244",
      "2022-11-11T13:24:35.137845",
      "2022-11-11T13:24:35.724473",
      "2022-11-11T13:24:36.303611",
      "2022-11-11T13:24:36.890611",
      "2022-11-11T13:24:37.449627",
      "2022-11-11T13:24:38.011795",
      "2022-11-11T13:24:38.577507",
      "2022-11-11T13:24:39.169065",
      "2022-11-11T13:24:39.747858",
      "2022-11-11T13:24:40.353771",
      "2022-11-11T13:24:40.934056",
      "2022-11-11T13:24:41.593047",
      "2022-11-11T13:24:42.419068",
      "2022-11-11T13:24:43.067286",
      "2022-11-11T13:24:43.656415",
      "2022-11-11T13:24:44.249423",
      "2022-11-11T13:24:44.857093",
      "2022-11-11T13:24:45.412411",
      "2022-11-11T13:24:45.987332",
      "2022-11-11T13:24:46.628387",
      "2022-11-11T13:24:47.240490",
      "2022-11-11T13:24:47.958762",
      "2022-11-11T13:24:48.600128",
      "2022-11-11T13:24:49.270497",
      "2022-11-11T13:24:49.929405",
      "2022-11-11T13:24:50.531109",
      "2022-11-11T13:24:51.175590",
      "2022-11-11T13:24:51.729042",
      "2022-11-11T13:24:52.313141",
      "2022-11-11T13:24:52.865795",
      "2022-11-11T13:24:53.420669",
      "2022-11-11T13:24:53.971725",
      "2022-11-11T13:24:54.542085",
      "2022-11-11T13:24:55.161289",
      "2022-11-11T13:24:55.728534",
      "2022-11-11T13:24:56.280591",
      "2022-11-11T13:24:56.837867",
      "2022-11-11T13:24:57.389551",
      "2022-11-11T13:24:57.945975",
      "2022-11-11T13:24:58.498324",
      "2022-11-11T13:24:59.054414",
      "2022-11-11T13:24:59.605223",
      "2022-11-11T13:25:00.384258",
      "2022-11-11T13:25:01.110579",
      "2022-11-11T13:25:01.805601",
      "2022-11-11T13:25:02.642988",
      "2022-11-11T13:25:03.296637",
      "2022-11-11T13:25:03.874475",
      "2022-11-11T13:25:04.489125",
      "2022-11-11T13:25:05.077551",
      "2022-11-11T13:25:05.664944",
      "2022-11-11T13:25:06.265323",
      "2022-11-11T13:25:06.864178",
      "2022-11-11T13:25:07.474471",
      "2022-11-11T13:25:08.034854",
      "2022-11-11T13:25:08.608808",
      "2022-11-11T13:25:09.190759",
      "2022-11-11T13:25:09.762996",
      "2022-11-11T13:25:10.366324",
      "2022-11-11T13:25:10.950662",
      "2022-11-11T13:25:11.534974",
      "2022-11-11T13:25:12.122868",
      "2022-11-11T13:25:12.689604",
      "2022-11-11T13:25:13.287077",
      "2022-11-11T13:25:13.846004",
      "2022-11-11T13:25:14.400761",
      "2022-11-11T13:25:14.960512",
      "2022-11-11T13:25:15.517083",
      "2022-11-11T13:25:16.076646",
      "2022-11-11T13:25:16.637497",
      "2022-11-11T13:25:17.197679",
      "2022-11-11T13:25:17.753679",
      "2022-11-11T13:25:18.313507",
      "2022-11-11T13:25:18.899739",
      "2022-11-11T13:25:19.468651",
      "2022-11-11T13:25:20.065699",
      "2022-11-11T13:25:20.641909",
      "2022-11-11T13:25:21.221401",
      "2022-11-11T13:25:21.840610",
      "2022-11-11T13:25:22.444193",
      "2022-11-11T13:25:23.047790",
      "2022-11-11T13:25:23.650909",
      "2022-11-11T13:25:24.226874",
      "2022-11-11T13:25:24.864953",
      "2022-11-11T13:25:25.453727",
      "2022-11-11T13:25:26.026184",
      "2022-11-11T13:25:26.587529",
      "2022-11-11T13:25:27.186364",
      "2022-11-11T13:25:27.792348",
      "2022-11-11T13:25:28.361029",
      "2022-11-11T13:25:28.926878",
      "2022-11-11T13:25:29.515281",
      "2022-11-11T13:25:30.097378",
      "2022-11-11T13:25:30.736386",
      "2022-11-11T13:25:31.308953",
      "2022-11-11T13:25:31.865615",
      "2022-11-11T13:25:32.422666",
      "2022-11-11T13:25:32.979263",
      "2022-11-11T13:25:33.537853",
      "2022-11-11T13:25:34.092753",
      "2022-11-11T13:25:34.673423",
      "2022-11-11T13:25:35.249861",
      "2022-11-11T13:25:35.839285",
      "2022-11-11T13:25:36.453640",
      "2022-11-11T13:25:37.082201",
      "2022-11-11T13:25:37.664089",
      "2022-11-11T13:25:38.254086",
      "2022-11-11T13:25:38.871103",
      "2022-11-11T13:25:39.437938",
      "2022-11-11T13:25:40.003947",
      "2022-11-11T13:25:40.561356",
      "2022-11-11T13:25:41.123685",
      "2022-11-11T13:25:41.685871"
    ],
    "values": [
      1328.7614250850443,
      722.80780896597,
      327.8556590950133,
      231.37840653702784,
      212.86324811672327,
      205.5668238843215,
      199.95019323269165,
      194.4012822690768,
      188.22800901762363,
      180.85369492225684,
      171.17985317735318,
      161.83499898090952,
      152.61569389286365,
      141.04598631990248,
      128.8386552393627,
      120.03216238053383,
      109.60885629810376,
      101.99149391051012,
      95.49026387950632,
      90.2673303564446,
      85.04159155981061,
      80.38128821033654,
      76.31832163790766,
      73.00082307492072,
      70.17628493419312,
      68.11775208943443,
      64.73211582988355,
      62.58537088667505,
      60.986943337688054,
      59.748378371075454,
      59.8236454157131,
      58.41815346163177,
      55.92031287020065,
      54.50879924620616,
      54.04096849098959,
      53.60030290101064,
      53.63690594268152,
      52.982008222999944,
      52.010081344822694,
      51.8853818888087,
      51.46907434668309,
      50.87635939752255,
      50.47462487354029,
      49.972790080690075,
      50.53340843614176,
      50.02913790341344,
      48.985747578838435,
      49.95403456244638,
      49.072498886193365,
      48.96339486003899,
      48.62535087600279,
      54.20393762986551,
      54.494728054246856,
      51.721979178639344,
      49.7481910370679,
      48.11986900756431,
      48.044222911122155,
      47.29680691242532,
      47.211510149623756,
      46.5814204875631,
      47.139662261849246,
      47.157083519193634,
      46.55622348268225,
      46.91197145888027,
      46.90007860455675,
      46.30752698560755,
      45.99850913850612,
      45.71259696795814,
      45.9213951917539,
      45.4611694596092,
      45.8739744356519,
      45.8027716610586,
      45.419719455518084,
      45.504372309106344,
      45.73598753789895,
      45.4492686455787,
      45.025744795330525,
      44.80820973191849,
      45.016313354572226,
      44.739193461488355,
      44.55232924463665,
      44.58046183749321,
      44.37468499107248,
      44.353845907640334,
      44.26386322798758,
      44.72915293776438,
      45.14684269011672,
      44.3940906717156,
      44.652273455324035,
      44.3909471746188,
      43.96666674801256,
      43.86015033541719,
      43.93525339255089,
      43.800289023953965,
      43.346293354931916,
      43.56426900134113,
      43.504791181379176,
      43.57748551324969,
      43.37314842049826,
      43.24505336627488,
      43.477444850214404,
      44.053159878478866,
      44.08758131314815,
      43.58281922739238,
      43.75961255918084,
      43.75613989768,
      43.21283882490185,
      43.34462617225039,
      43.319820416616764,
      43.13428932731401,
      43.549403256007054,
      43.53269654688495,
      43.49520760004187,
      43.01992700040862,
      42.53150695417805,
      42.55913547842593,
      42.33574901301262,
      42.516037304536276,
      42.61315365330803,
      42.26948211775902,
      42.43145773950067,
      42.45337403221782,
      42.36967039495574,
      42.46442188783271,
      42.179206288009176,
      42.402634837781484,
      43.09968630010657,
      42.79740830172157,
      42.42760645000647,
      42.36263674569016,
      42.73330557776062,
      42.44505482729964,
      42.59806307212321,
      43.03183827555722,
      42.861979118749865,
      42.39882227750649,
      42.0156260000476,
      42.14810237897545,
      42.62340183395227,
      42.41930071317744,
      42.141334480134056,
      42.269301783127524,
      42.266291242005984,
      42.24109587149591,
      41.9015801690761,
      41.9201953854884,
      41.99164749084936,
      42.32263391017497,
      41.866061580142606,
      41.95776816548136,
      41.740843451226944,
      41.93053824868666,
      41.9669361921135,
      41.811908981689186,
      41.6539585576223,
      42.0813868526118,
      42.19590982627763,
      41.624296655475014,
      41.58694670881478,
      41.241727291630184,
      41.57755938333799,
      41.40635469240938,
      41.23633131064106,
      41.47755735721171,
      41.37870184440453,
      41.644049545640684,
      41.424645442107355,
      41.13255406062037,
      41.26977621936091,
      41.45835511401126,
      41.43412563963255,
      41.12657399624442,
      41.08336304837514,
      41.42720850510225,
      41.45948558517021,
      41.184587271579574,
      41.40861181621345,
      41.193696508771424,
      40.80447875657683,
      40.719820806044545,
      40.674453583152655,
      40.910253329727105,
      41.42659367447328,
      40.92385309022008,
      41.0911929886808,
      41.00664638602737,
      41.451144064798704,
      41.26779312672322,
      41.05733063009575,
      40.69010877599753,
      40.77601491823198,
      40.947415607861785,
      41.02147912143573,
      40.72779866654601,
      40.751472633378455,
      41.219362510330114,
      41.08283120227836,
      40.76783061664827,
      40.74761752347616,
      40.79664176174586,
      40.94053835022773,
      41.07595056374527,
      40.20861911184346,
      39.55559324761122,
      39.3841473432941,
      39.26916709950966,
      39.22702537099871,
      39.22112938569542,
      39.169214187396314,
      39.17884474370668,
      39.17252418726947,
      39.178666277629425,
      39.15075572514113,
      39.21541524310399,
      39.14911719685197,
      39.216544299442376,
      39.24231717911642,
      39.205828551861295,
      39.170412249800606,
      39.18929989832789,
      39.14861328025855,
      39.14004881428558,
      39.15354844707656,
      39.111429433756534,
      39.132737025687604,
      39.14817541086739,
      39.167604814235176,
      39.210339016901926,
      39.20094302519213,
      39.20976297426634,
      39.13607418951944,
      39.18523897747447,
      39.16547795708562,
      39.12357762444577,
      39.08817783979537,
      39.162030769423815,
      39.11060613071539,
      39.13881616883911,
      39.09498596508463,
      39.134590895919864,
      39.136221914242526,
      39.10706839137263,
      39.05587275631128,
      39.03143614237432,
      39.09219404168087,
      39.092939036821505,
      39.12168493349717,
      39.11267142082854,
      39.10098973133335,
      39.08097588856181,
      39.14925452597907,
      39.13665661239011,
      39.0327661042954,
      39.10094203902868,
      39.11079339364025,
      39.113297620648396,
      39.14006462063506,
      39.14095980488742,
      39.1379177156094,
      39.10247109590759,
      39.047624323503335,
      39.11023911957068,
      39.044214963473344,
      39.1340667650419,
      39.06054590028878,
      39.02029116315806,
      38.982680310432706,
      38.992290945367785,
      38.96649757007317,
      38.95750038879806,
      38.96750984238364,
      38.92753237004553,
      38.94302316389761,
      38.99249440559748,
      38.96898680791054,
      38.9544029145214,
      38.98150752591803,
      38.94612535182175,
      38.96680743361357,
      38.94266188629718,
      38.9423151939231,
      38.938128835540496,
      38.962973955664125,
      38.98310330478742,
      39.020749933839355,
      38.984988425523696,
      38.96600097002694,
      38.922388631589754,
      38.988337440756275,
      38.95424602620433,
      38.98585074558731,
      38.93352041840049,
      38.93921153392398,
      38.943256600389354,
      38.964157332466186,
      38.93703593742553,
      38.95435549865007,
      38.9406802076968,
      38.946538451690316,
      38.95468943990292,
      38.95674793365754,
      38.934818845273035,
      38.91970335855646,
      38.96323648032268,
      39.00919359518079,
      38.93915478575833,
      38.961419991722636,
      39.02192760390852,
      38.968244001177794,
      38.87844030983706,
      38.91818080258203,
      38.93434165185526,
      38.94449083644412,
      38.90392374064241,
      38.935497999026005,
      38.94749605588446,
      38.934065087724505,
      38.89915314342872,
      38.910309223114545,
      38.92013535197876,
      38.95870242430635,
      38.94506229318919,
      38.904405221745115,
      38.970018969568486,
      38.93132717931408,
      38.95451385342198,
      38.9518678560424,
      38.949585848817456,
      38.940561489119524,
      38.97465585309551,
      38.90987940274163,
      38.935176644883526,
      38.938808299510534,
      38.9295401246665,
      38.89790315695275,
      38.9342904754583,
      38.88288924843162,
      38.942226683507826,
      38.9313606443648,
      38.949769108098025,
      38.9283882472574,
      38.903744401010385,
      38.91068755481927,
      38.95694839148432,
      38.943223946525556,
      38.96093761430987,
      38.933207920228746,
      38.90984245097629,
      38.90180064918687,
      38.91979689430265,
      38.96920349171114,
      38.94086189742884,
      38.95719904627453,
      38.91865947623853,
      38.94101073451547,
      38.957562865554806,
      38.960590967846564,
      38.915772226905155,
      38.91834341581708,
      38.91615513790372,
      38.98544918915764,
      38.95037408301478,
      38.981037918854106,
      38.900793218401624,
      38.913757710942804,
      38.9457783140307,
      38.95035102018863,
      38.96237828885071,
      38.89689807208056,
      38.9589105548871,
      38.973123706027046,
      38.95312433312951,
      38.93684360513247,
      38.96509662816543,
      38.94273867569677,
      38.947662285956085,
      38.941884230949704,
      38.95380682786352,
      38.99712484673004,
      38.94026158027214,
      38.88673755650109,
      38.93868173055443,
      38.92868067970707,
      38.950548786703315,
      38.92872753330364,
      38.94300593052684,
      38.96412427114551,
      38.924620937609426,
      38.91063604193705,
      38.92279811960475,
      38.93872249405662,
      38.907550743746434,
      38.950634919137414,
      38.897101837255065,
      38.93169867288006,
      38.94780489953364,
      38.899305965094236,
      38.96943953163583,
      38.9492126892517,
      38.90547000709037
    ]
  },
  "val": {
    "steps": [
      0,
      1,
      2,
      3,
      4,
      5,
      6,
      7,
      8,
      9,
      10,
      11,
      12,
      13,
      14,
      15,
      16,
      17,
      18,
      19,
      20,
      21,
      22,
      23,
      24,
      25,
      26,
      27,
      28,
      29,
      30,
      31,
      32,
      33,
      34,
      35,
      36,
      37,
      38,
      39,
      40,
      41,
      42,
      43,
      44,
      45,
      46,
      47,
      48,
      49,
      50,
      51,
      52,
      53,
      54,
      55,
      56,
      57,
      58,
      59,
      60,
      61,
      62,
      63,
      64,
      65,
      66,
      67,
      68,
      69,
      70,
      71,
      72,
      73,
      74,
      75,
      76,
      77,
      78,
      79,
      80,
      81,
      82,
      83,
      84,
      85,
      86,
      87,
      88,
      89,
      90,
      91,
      92,
      93,
      94,
      95,
      96,
      97,
      98,
      99,
      100,
      101,
      102,
      103,
      104,
      105,
      106,
      107,
      108,
      109,
      110,
      111,
      112,
      113,
      114,
      115,
      116,
      117,
      118,
      119,
      120,
      121,
      122,
      123,
      124,
      125,
      126,
      127,
      128,
      129,
      130,
      131,
      132,
      133,
      134,
      135,
      136,
      137,
      138,
      139,
      140,
      141,
      142,
      143,
      144,
      145,
      146,
      147,
      148,
      149,
      150,
      151,
      152,
      153,
      154,
      155,
      156,
      157,
      158,
      159,
      160,
      161,
      162,
      163,
      164,
      165,
      166,
      167,
      168,
      169,
      170,
      171,
      172,
      173,
      174,
      175,
      176,
      177,
      178,
      179,
      180,
      181,
      182,
      183,
      184,
      185,
      186,
      187,
      188,
      189,
      190,
      191,
      192,
      193,
      194,
      195,
      196,
      197,
      198,
      199,
      200,
      201,
      202,
      203,
      204,
      205,
      206,
      207,
      208,
      209,
      210,
      211,
      212,
      213,
      214,
      215,
      216,
      217,
      218,
      219,
      220,
      221,
      222,
      223,
      224,
      225,
      226,
      227,
      228,
      229,
      230,
      231,
      232,
      233,
      234,
      235,
      236,
      237,
      238,
      239,
      240,
      241,
      242,
      243,
      244,
      245,
      246,
      247,
      248,
      249,
      250,
      251,
      252,
      253,
      254,
      255,
      256,
      257,
      258,
      259,
      260,
      261,
      262,
      263,
      264,
      265,
      266,
      267,
      268,
      269,
      270,
      271,
      272,
      273,
      274,
      275,
      276,
      277,
      278,
      279,
      280,
      281,
      282,
      283,
      284,
      285,
      286,
      287,
      288,
      289,
      290,
      291,
      292,
      293,
      294,
      295,
      296,
      297,
      298,
      299,
      300,
      301,
      302,
      303,
      304,
      305,
      306,
      307,
      308,
      309,
      310,
      311,
      312,
      313,
      314,
      315,
      316,
      317,
      318,
      319,
      320,
      321,
      322,
      323,
      324,
      325,
      326,
      327,
      328,
      329,
      330,
      331,
      332,
      333,
      334,
      335,
      336,
      337,
      338,
      339,
      340,
      341,
      342,
      343,
      344,
      345,
      346,
      347,
      348,
      349,
      350,
      351,
      352,
      353,
      354,
      355,
      356,
      357,
      358,
      359,
      360,
      361,
      362,
      363,
      364,
      365,
      366,
      367,
      368,
      369,
      370,
      371,
      372,
      373,
      374,
      375,
      376,
      377,
      378,
      379,
      380,
      381,
      382,
      383,
      384,
      385,
      386,
      387,
      388,
      389,
      390,
      391,
      392,
      393,
      394,
      395,
      396,
      397,
      398,
      399
    ],
    "timestamps": [
      "2022-11-11T13:21:48.544177",
      "2022-11-11T13:21:49.212034",
      "2022-11-11T13:21:49.809698",
      "2022-11-11T13:21:50.368853",
      "2022-11-11T13:21:50.922845",
      "2022-11-11T13:21:51.481980",
      "2022-11-11T13:21:52.036100",
      "2022-11-11T13:21:52.593714",
      "2022-11-11T13:21:53.149732",
      "2022-11-11T13:21:53.706683",
      "2022-11-11T13:21:54.338941",
      "2022-11-11T13:21:54.897209",
      "2022-11-11T13:21:55.452779",
      "2022-11-11T13:21:56.014410",
      "2022-11-11T13:21:56.572474",
      "2022-11-11T13:21:57.136885",
      "2022-11-11T13:21:57.693537",
      "2022-11-11T13:21:58.252485",
      "2022-11-11T13:21:58.805613",
      "2022-11-11T13:21:59.365142",
      "2022-11-11T13:22:00.044475",
      "2022-11-11T13:22:00.799380",
      "2022-11-11T13:22:01.373529",
      "2022-11-11T13:22:02.045987",
      "2022-11-11T13:22:02.667705",
      "2022-11-11T13:22:03.256542",
      "2022-11-11T13:22:03.833411",
      "2022-11-11T13:22:04.404954",
      "2022-11-11T13:22:04.993794",
      "2022-11-11T13:22:05.592095",
      "2022-11-11T13:22:06.195858",
      "2022-11-11T13:22:06.929955",
      "2022-11-11T13:22:07.624542",
      "2022-11-11T13:22:08.216065",
      "2022-11-11T13:22:08.776214",
      "2022-11-11T13:22:09.345030",
      "2022-11-11T13:22:09.924291",
      "2022-11-11T13:22:10.553139",
      "2022-11-11T13:22:11.146109",
      "2022-11-11T13:22:11.722845",
      "2022-11-11T13:22:12.318214",
      "2022-11-11T13:22:12.887509",
      "2022-11-11T13:22:13.458542",
      "2022-11-11T13:22:14.029424",
      "2022-11-11T13:22:14.600316",
      "2022-11-11T13:22:15.185121",
      "2022-11-11T13:22:15.757329",
      "2022-11-11T13:22:16.325023",
      "2022-11-11T13:22:16.882354",
      "2022-11-11T13:22:17.443540",
      "2022-11-11T13:22:18.026444",
      "2022-11-11T13:22:18.583997",
      "2022-11-11T13:22:19.139929",
      "2022-11-11T13:22:19.697678",
      "2022-11-11T13:22:20.255330",
      "2022-11-11T13:22:20.814161",
      "2022-11-11T13:22:21.370041",
      "2022-11-11T13:22:21.931383",
      "2022-11-11T13:22:22.486879",
      "2022-11-11T13:22:23.046939",
      "2022-11-11T13:22:23.630090",
      "2022-11-11T13:22:24.188318",
      "2022-11-11T13:22:24.744771",
      "2022-11-11T13:22:25.303297",
      "2022-11-11T13:22:25.862700",
      "2022-11-11T13:22:26.424893",
      "2022-11-11T13:22:26.981728",
      "2022-11-11T13:22:27.541684",
      "2022-11-11T13:22:28.097340",
      "2022-11-11T13:22:28.657418",
      "2022-11-11T13:22:29.242746",
      "2022-11-11T13:22:29.800950",
      "2022-11-11T13:22:30.356471",
      "2022-11-11T13:22:30.915349",
      "2022-11-11T13:22:31.470021",
      "2022-11-11T13:22:32.028807",
      "2022-11-11T13:22:32.584507",
      "2022-11-11T13:22:33.145173",
      "2022-11-11T13:22:33.700436",
      "2022-11-11T13:22:34.260241",
      "2022-11-11T13:22:34.841657",
      "2022-11-11T13:22:35.400369",
      "2022-11-11T13:22:35.958916",
      "2022-11-11T13:22:36.519033",
      "2022-11-11T13:22:37.075578",
      "2022-11-11T13:22:37.637093",
      "2022-11-11T13:22:38.192682",
      "2022-11-11T13:22:38.753735",
      "2022-11-11T13:22:39.309532",
      "2022-11-11T13:22:39.868716",
      "2022-11-11T13:22:40.450327",
      "2022-11-11T13:22:41.008479",
      "2022-11-11T13:22:41.563738",
      "2022-11-11T13:22:42.122110",
      "2022-11-11T13:22:42.679188",
      "2022-11-11T13:22:43.238699",
      "2022-11-11T13:22:43.792506",
      "2022-11-11T13:22:44.359327",
      "2022-11-11T13:22:44.919625",
      "2022-11-11T13:22:45.486901",
      "2022-11-11T13:22:46.082527",
      "2022-11-11T13:22:46.646355",
      "2022-11-11T13:22:47.203650",
      "2022-11-11T13:22:47.765510",
      "2022-11-11T13:22:48.320446",
      "2022-11-11T13:22:48.878436",
      "2022-11-11T13:22:49.434835",
      "2022-11-11T13:22:49.993719",
      "2022-11-11T13:22:50.548171",
      "2022-11-11T13:22:51.106630",
      "2022-11-11T13:22:51.691338",
      "2022-11-11T13:22:52.249733",
      "2022-11-11T13:22:52.804085",
      "2022-11-11T13:22:53.362287",
      "2022-11-11T13:22:53.918177",
      "2022-11-11T13:22:54.475879",
      "2022-11-11T13:22:55.030506",
      "2022-11-11T13:22:55.588981",
      "2022-11-11T13:22:56.144637",
      "2022-11-11T13:22:56.704021",
      "2022-11-11T13:22:57.287768",
      "2022-11-11T13:22:57.848181",
      "2022-11-11T13:22:58.405121",
      "2022-11-11T13:22:58.964431",
      "2022-11-11T13:22:59.519007",
      "2022-11-11T13:23:00.077302",
      "2022-11-11T13:23:00.632364",
      "2022-11-11T13:23:01.189960",
      "2022-11-11T13:23:01.745557",
      "2022-11-11T13:23:02.304202",
      "2022-11-11T13:23:02.890618",
      "2022-11-11T13:23:03.448677",
      "2022-11-11T13:23:04.003074",
      "2022-11-11T13:23:04.560726",
      "2022-11-11T13:23:05.117856",
      "2022-11-11T13:23:05.678459",
      "2022-11-11T13:23:06.233754",
      "2022-11-11T13:23:06.793563",
      "2022-11-11T13:23:07.348250",
      "2022-11-11T13:23:07.909012",
      "2022-11-11T13:23:08.496776",
      "2022-11-11T13:23:09.055775",
      "2022-11-11T13:23:09.609029",
      "2022-11-11T13:23:10.168713",
      "2022-11-11T13:23:10.723692",
      "2022-11-11T13:23:11.281752",
      "2022-11-11T13:23:11.837867",
      "2022-11-11T13:23:12.397595",
      "2022-11-11T13:23:12.955228",
      "2022-11-11T13:23:13.513474",
      "2022-11-11T13:23:14.097407",
      "2022-11-11T13:23:14.655444",
      "2022-11-11T13:23:15.210187",
      "2022-11-11T13:23:15.771375",
      "2022-11-11T13:23:16.326559",
      "2022-11-11T13:23:16.887080",
      "2022-11-11T13:23:17.442411",
      "2022-11-11T13:23:17.998871",
      "2022-11-11T13:23:18.553982",
      "2022-11-11T13:23:19.113461",
      "2022-11-11T13:23:19.696722",
      "2022-11-11T13:23:20.255154",
      "2022-11-11T13:23:20.810592",
      "2022-11-11T13:23:21.369451",
      "2022-11-11T13:23:21.928308",
      "2022-11-11T13:23:22.487481",
      "2022-11-11T13:23:23.043264",
      "2022-11-11T13:23:23.601704",
      "2022-11-11T13:23:24.156430",
      "2022-11-11T13:23:24.714038",
      "2022-11-11T13:23:25.296706",
      "2022-11-11T13:23:25.858420",
      "2022-11-11T13:23:26.415345",
      "2022-11-11T13:23:26.972857",
      "2022-11-11T13:23:27.527819",
      "2022-11-11T13:23:28.086116",
      "2022-11-11T13:23:28.640508",
      "2022-11-11T13:23:29.199654",
      "2022-11-11T13:23:29.754147",
      "2022-11-11T13:23:30.312095",
      "2022-11-11T13:23:30.895600",
      "2022-11-11T13:23:31.457111",
      "2022-11-11T13:23:32.011771",
      "2022-11-11T13:23:32.569634",
      "2022-11-11T13:23:33.125188",
      "2022-11-11T13:23:33.682815",
      "2022-11-11T13:23:34.237877",
      "2022-11-11T13:23:34.794716",
      "2022-11-11T13:23:35.349995",
      "2022-11-11T13:23:35.915358",
      "2022-11-11T13:23:36.498166",
      "2022-11-11T13:23:37.059161",
      "2022-11-11T13:23:37.615455",
      "2022-11-11T13:23:38.173683",
      "2022-11-11T13:23:38.961692",
      "2022-11-11T13:23:39.669790",
      "2022-11-11T13:23:40.279758",
      "2022-11-11T13:23:40.884807",
      "2022-11-11T13:23:41.482640",
      "2022-11-11T13:23:42.084635",
      "2022-11-11T13:23:42.707055",
      "2022-11-11T13:23:43.339952",
      "2022-11-11T13:23:44.025998",
      "2022-11-11T13:23:44.658996",
      "2022-11-11T13:23:45.288078",
      "2022-11-11T13:23:45.968723",
      "2022-11-11T13:23:46.555131",
      "2022-11-11T13:23:47.145069",
      "2022-11-11T13:23:47.767447",
      "2022-11-11T13:23:48.378726",
      "2022-11-11T13:23:49.059046",
      "2022-11-11T13:23:49.656354",
      "2022-11-11T13:23:50.208065",
      "2022-11-11T13:23:50.763358",
      "2022-11-11T13:23:51.316467",
      "2022-11-11T13:23:51.876753",
      "2022-11-11T13:23:52.482209",
      "2022-11-11T13:23:53.075886",
      "2022-11-11T13:23:53.631375",
      "2022-11-11T13:23:54.186974",
      "2022-11-11T13:23:54.796343",
      "2022-11-11T13:23:55.387636",
      "2022-11-11T13:23:55.942619",
      "2022-11-11T13:23:56.498471",
      "2022-11-11T13:23:57.050117",
      "2022-11-11T13:23:57.605475",
      "2022-11-11T13:23:58.161544",
      "2022-11-11T13:23:58.716802",
      "2022-11-11T13:23:59.268383",
      "2022-11-11T13:23:59.822890",
      "2022-11-11T13:24:00.415304",
      "2022-11-11T13:24:01.142242",
      "2022-11-11T13:24:01.838390",
      "2022-11-11T13:24:02.393818",
      "2022-11-11T13:24:03.108932",
      "2022-11-11T13:24:03.909103",
      "2022-11-11T13:24:04.700603",
      "2022-11-11T13:24:05.256381",
      "2022-11-11T13:24:05.807756",
      "2022-11-11T13:24:06.508224",
      "2022-11-11T13:24:07.360416",
      "2022-11-11T13:24:07.938108",
      "2022-11-11T13:24:08.518870",
      "2022-11-11T13:24:09.123152",
      "2022-11-11T13:24:09.738790",
      "2022-11-11T13:24:10.383552",
      "2022-11-11T13:24:11.041107",
      "2022-11-11T13:24:11.677072",
      "2022-11-11T13:24:12.271533",
      "2022-11-11T13:24:12.878019",
      "2022-11-11T13:24:13.494749",
      "2022-11-11T13:24:14.070338",
      "2022-11-11T13:24:14.622256",
      "2022-11-11T13:24:15.234831",
      "2022-11-11T13:24:15.929306",
      "2022-11-11T13:24:16.499848",
      "2022-11-11T13:24:17.053250",
      "2022-11-11T13:24:17.609905",
      "2022-11-11T13:24:18.161689",
      "2022-11-11T13:24:18.717494",
      "2022-11-11T13:24:19.298068",
      "2022-11-11T13:24:19.853618",
      "2022-11-11T13:24:20.405030",
      "2022-11-11T13:24:20.964944",
      "2022-11-11T13:24:21.517962",
      "2022-11-11T13:24:22.077271",
      "2022-11-11T13:24:22.629576",
      "2022-11-11T13:24:23.185775",
      "2022-11-11T13:24:23.737092",
      "2022-11-11T13:24:24.291965",
      "2022-11-11T13:24:24.873109",
      "2022-11-11T13:24:25.428461",
      "2022-11-11T13:24:25.984405",
      "2022-11-11T13:24:26.540848",
      "2022-11-11T13:24:27.092913",
      "2022-11-11T13:24:27.902348",
      "2022-11-11T13:24:28.573171",
      "2022-11-11T13:24:29.136337",
      "2022-11-11T13:24:29.960699",
      "2022-11-11T13:24:30.618422",
      "2022-11-11T13:24:31.202276",
      "2022-11-11T13:24:31.762752",
      "2022-11-11T13:24:32.317211",
      "2022-11-11T13:24:32.896343",
      "2022-11-11T13:24:33.471154",
      "2022-11-11T13:24:34.075972",
      "2022-11-11T13:24:34.664537",
      "2022-11-11T13:24:35.271966",
      "2022-11-11T13:24:35.859931",
      "2022-11-11T13:24:36.433814",
      "2022-11-11T13:24:37.020186",
      "2022-11-11T13:24:37.581190",
      "2022-11-11T13:24:38.142748",
      "2022-11-11T13:24:38.717574",
      "2022-11-11T13:24:39.304348",
      "2022-11-11T13:24:39.885526",
      "2022-11-11T13:24:40.492580",
      "2022-11-11T13:24:41.064217",
      "2022-11-11T13:24:41.858114",
      "2022-11-11T13:24:42.565442",
      "2022-11-11T13:24:43.206516",
      "2022-11-11T13:24:43.798076",
      "2022-11-11T13:24:44.390355",
      "2022-11-11T13:24:44.987692",
      "2022-11-11T13:24:45.542341",
      "2022-11-11T13:24:46.197579",
      "2022-11-11T13:24:46.777917",
      "2022-11-11T13:24:47.406029",
      "2022-11-11T13:24:48.111021",
      "2022-11-11T13:24:48.782505",
      "2022-11-11T13:24:49.460269",
      "2022-11-11T13:24:50.070684",
      "2022-11-11T13:24:50.731702",
      "2022-11-11T13:24:51.304976",
      "2022-11-11T13:24:51.888571",
      "2022-11-11T13:24:52.443066",
      "2022-11-11T13:24:52.995697",
      "2022-11-11T13:24:53.550424",
      "2022-11-11T13:24:54.101343",
      "2022-11-11T13:24:54.684130",
      "2022-11-11T13:24:55.297242",
      "2022-11-11T13:24:55.858346",
      "2022-11-11T13:24:56.410271",
      "2022-11-11T13:24:56.967591",
      "2022-11-11T13:24:57.519522",
      "2022-11-11T13:24:58.075950",
      "2022-11-11T13:24:58.628101",
      "2022-11-11T13:24:59.184054",
      "2022-11-11T13:24:59.785352",
      "2022-11-11T13:25:00.600063",
      "2022-11-11T13:25:01.330694",
      "2022-11-11T13:25:02.052252",
      "2022-11-11T13:25:02.820516",
      "2022-11-11T13:25:03.434907",
      "2022-11-11T13:25:04.021959",
      "2022-11-11T13:25:04.623523",
      "2022-11-11T13:25:05.212284",
      "2022-11-11T13:25:05.806400",
      "2022-11-11T13:25:06.401206",
      "2022-11-11T13:25:07.001037",
      "2022-11-11T13:25:07.604345",
      "2022-11-11T13:25:08.169011",
      "2022-11-11T13:25:08.752539",
      "2022-11-11T13:25:09.324376",
      "2022-11-11T13:25:09.902076",
      "2022-11-11T13:25:10.500155",
      "2022-11-11T13:25:11.086151",
      "2022-11-11T13:25:11.664807",
      "2022-11-11T13:25:12.252918",
      "2022-11-11T13:25:12.824712",
      "2022-11-11T13:25:13.416957",
      "2022-11-11T13:25:13.976320",
      "2022-11-11T13:25:14.531703",
      "2022-11-11T13:25:15.091756",
      "2022-11-11T13:25:15.648186",
      "2022-11-11T13:25:16.208224",
      "2022-11-11T13:25:16.768895",
      "2022-11-11T13:25:17.327788",
      "2022-11-11T13:25:17.883472",
      "2022-11-11T13:25:18.443515",
      "2022-11-11T13:25:19.029470",
      "2022-11-11T13:25:19.613357",
      "2022-11-11T13:25:20.198835",
      "2022-11-11T13:25:20.777224",
      "2022-11-11T13:25:21.370770",
      "2022-11-11T13:25:21.980157",
      "2022-11-11T13:25:22.587443",
      "2022-11-11T13:25:23.192305",
      "2022-11-11T13:25:23.784395",
      "2022-11-11T13:25:24.369485",
      "2022-11-11T13:25:24.998655",
      "2022-11-11T13:25:25.587126",
      "2022-11-11T13:25:26.156121",
      "2022-11-11T13:25:26.729364",
      "2022-11-11T13:25:27.335122",
      "2022-11-11T13:25:27.927828",
      "2022-11-11T13:25:28.490978",
      "2022-11-11T13:25:29.062679",
      "2022-11-11T13:25:29.653693",
      "2022-11-11T13:25:30.248563",
      "2022-11-11T13:25:30.872744",
      "2022-11-11T13:25:31.438851",
      "2022-11-11T13:25:31.995359",
      "2022-11-11T13:25:32.554402",
      "2022-11-11T13:25:33.110011",
      "2022-11-11T13:25:33.670639",
      "2022-11-11T13:25:34.224049",
      "2022-11-11T13:25:34.813556",
      "2022-11-11T13:25:35.382504",
      "2022-11-11T13:25:35.972452",
      "2022-11-11T13:25:36.591873",
      "2022-11-11T13:25:37.216212",
      "2022-11-11T13:25:37.807875",
      "2022-11-11T13:25:38.394042",
      "2022-11-11T13:25:39.004450",
      "2022-11-11T13:25:39.571513",
      "2022-11-11T13:25:40.134031",
      "2022-11-11T13:25:40.693128",
      "2022-11-11T13:25:41.255212",
      "2022-11-11T13:25:41.817184"
    ],
    "values": [
      1013.4267955449995,
      445.6929900172898,
      250.52359655821473,
      218.96851209909414,
      208.5580471419044,
      202.56480738193284,
      196.7225668475816,
      191.2688762423612,
      184.4398249220655,
      175.42480971031503,
      165.9404603066756,
      157.083329223794,
      146.61123025404692,
      133.8789387489963,
      122.42452722461876,
      114.02053985698294,
      103.88194528465795,
      97.98961506304508,
      92.45054893479369,
      86.92842003521767,
      82.01007630830702,
      77.88881399911898,
      74.07250681793768,
      70.75298751397307,
      68.40640768616419,
      66.10691403448405,
      63.030671193975195,
      61.14251750839865,
      58.95477740341037,
      59.48274344864792,
      57.69910353150014,
      56.57596063239549,
      54.44222257879825,
      53.84330896049538,
      53.555509354385,
      53.12545691164945,
      52.426721294244885,
      52.11163298352651,
      51.85576507924647,
      50.868328303985614,
      50.267079334311916,
      49.81713252147943,
      49.916137231824194,
      49.95349257860581,
      49.3361288022227,
      48.47014897265322,
      48.91006655344513,
      49.8652119953109,
      48.579703693372636,
      49.202100680263165,
      48.443100962671394,
      57.60134492594981,
      52.45739487503717,
      50.32574600675774,
      48.74899194461189,
      47.6073614567151,
      46.850283003448915,
      46.99986266712323,
      47.071393028855724,
      46.1674981399384,
      47.266609104113485,
      45.94020196649439,
      46.470652180546665,
      46.466092618160076,
      46.529022981427175,
      46.150920197367654,
      45.1900624348467,
      45.69438099113341,
      45.44278982800161,
      45.837667631560336,
      45.58181677241599,
      45.15911786470476,
      45.28313403793574,
      45.30291037263307,
      45.194143329876134,
      45.29229415777606,
      44.35630316702186,
      44.42064964355342,
      45.09124331567341,
      44.12737336207581,
      43.90051210495773,
      44.02354026763767,
      44.196800176243464,
      43.98734968199183,
      43.77763777552256,
      44.95685945888243,
      44.77145535436716,
      44.00341613396079,
      45.07041318560007,
      43.52496860569288,
      43.83536020167968,
      43.69030637085279,
      43.453013784841275,
      43.78783045841503,
      43.2437499117291,
      43.232685375672006,
      43.439099765510434,
      43.32964004064613,
      43.24528299765292,
      42.66921544476748,
      43.38818631632011,
      44.197539036058814,
      43.473331394725044,
      43.49396932579982,
      43.13226719488959,
      43.75188207498127,
      42.91607717712789,
      43.065055872083505,
      42.9677034448511,
      42.885219799810294,
      43.5399747511435,
      42.91099092932389,
      42.804448946981594,
      42.96910570258319,
      42.3567089235335,
      42.21636213499298,
      42.38397080507328,
      42.55503317142932,
      42.35948018681027,
      42.17138378092329,
      42.403535858200115,
      41.89440094200036,
      42.76534899391814,
      42.172609354818256,
      42.07015620027967,
      42.5424411635618,
      42.75175713930064,
      42.89922673257631,
      42.07480324807467,
      41.92036188964606,
      42.42247809035675,
      41.94377661858901,
      42.48852450549745,
      43.10852334139532,
      43.10754569367678,
      41.74066122854218,
      41.68049361113951,
      42.391383640925156,
      42.06633810700731,
      42.28640543679467,
      41.881199461593,
      41.74204200368333,
      42.25634390617732,
      41.88945267571768,
      41.856343463564144,
      41.803961804198494,
      41.72856687560633,
      41.7397083772423,
      41.83175526508984,
      41.35092320377459,
      41.77722805471198,
      41.88104196031616,
      41.98292969049645,
      41.65919632806349,
      41.736407071779105,
      42.034849049957955,
      41.814374769676206,
      41.526541138759235,
      41.29694147293667,
      41.25430399915221,
      41.6817432017722,
      41.116504085649915,
      41.781630332340484,
      41.1910031625234,
      41.34371196169175,
      41.554016040475645,
      41.44314769208323,
      41.27369094049239,
      41.312146272363734,
      41.38853390209546,
      41.02104958911845,
      40.7652407909677,
      41.205508513947635,
      41.47735800802847,
      40.91914875595028,
      41.59646252897897,
      40.86789771636971,
      40.897678618449426,
      40.74150916817248,
      40.90958569815264,
      40.60094901467965,
      41.48113584177081,
      41.40884712080598,
      40.5681854410214,
      41.23051262480042,
      41.187882891453825,
      41.56048696776842,
      41.06089492589073,
      40.658473552653795,
      40.49396032854594,
      40.989227450405934,
      40.58508404176739,
      40.342245558304356,
      40.75465868534849,
      40.519362580884845,
      41.19504844778429,
      40.748435577955206,
      41.05075768520267,
      40.921280693902474,
      40.88472797668235,
      40.644140672351206,
      40.76465769045082,
      40.14198436730226,
      39.7039958502786,
      39.64291940064921,
      39.55388002374217,
      39.45046300530376,
      39.552816586443306,
      39.48940421755831,
      39.53016931975659,
      39.48513859006664,
      39.47713808813519,
      39.46696307134511,
      39.464801559391326,
      39.462534402914585,
      39.404348228397275,
      39.47574392311361,
      39.44968888164404,
      39.46859557587549,
      39.395820471758405,
      39.493809036364354,
      39.385387716417554,
      39.41352872252854,
      39.35542159453221,
      39.4426682569903,
      39.38950727212765,
      39.455107214163164,
      39.42842968175512,
      39.517546248263656,
      39.49611909690996,
      39.401161348084045,
      39.352906923694775,
      39.47401052307325,
      39.437897274030966,
      39.413900180823155,
      39.393955490110145,
      39.4769172687205,
      39.38623523801502,
      39.3787130255681,
      39.418813986078476,
      39.412992574611664,
      39.4119514827425,
      39.405512224318166,
      39.42146781869737,
      39.373239033424326,
      39.39163774937729,
      39.33674754852446,
      39.340339013668704,
      39.37258680987293,
      39.37541562691232,
      39.39746009857561,
      39.389145154739474,
      39.376908742340575,
      39.354264272923636,
      39.409626353934684,
      39.438057723583924,
      39.32879146214547,
      39.453536337762195,
      39.41223229010262,
      39.31814417339894,
      39.385189696509016,
      39.3845373799371,
      39.410743823891416,
      39.35711375721165,
      39.376082150287615,
      39.38565690757356,
      39.30728772630855,
      39.28304827742665,
      39.22716779514239,
      39.239744644926844,
      39.24070269167002,
      39.31212495570163,
      39.30972741445825,
      39.34109318443329,
      39.221901769034275,
      39.27897501308511,
      39.29576342421855,
      39.29399369572553,
      39.29965445907908,
      39.25711157855183,
      39.23675045438814,
      39.27084116357017,
      39.264616050602655,
      39.25319232076885,
      39.27886377856906,
      39.28206510269851,
      39.2553131278065,
      39.303626458976645,
      39.25838558179261,
      39.28303146484129,
      39.30061761424557,
      39.2454249768712,
      39.22594151580782,
      39.246488157907486,
      39.29766494420565,
      39.26667810211411,
      39.25375097966053,
      39.25600276089288,
      39.30723676969423,
      39.288558907757206,
      39.252907543867764,
      39.24649792431861,
      39.24862564980617,
      39.258302827064156,
      39.29452657400592,
      39.22849121769248,
      39.23570179737237,
      39.25084485576227,
      39.25737519801698,
      39.295070000707064,
      39.3156468501032,
      39.295646086266785,
      39.31588658127167,
      39.28065687806141,
      39.26974490195946,
      39.24689915431424,
      39.25032409425916,
      39.28730479426257,
      39.239918063422635,
      39.21075602011932,
      39.30806833035031,
      39.2384551262808,
      39.27813052124441,
      39.275399104815264,
      39.256683197190064,
      39.22768421645354,
      39.27576751097533,
      39.27487717955135,
      39.26290023019327,
      39.21375282699135,
      39.28282058860741,
      39.20376048845945,
      39.22822600825655,
      39.250375773302224,
      39.2913267150791,
      39.2239082243059,
      39.29628731292954,
      39.24802468091354,
      39.248685675400424,
      39.24215925299094,
      39.28025143527721,
      39.228919597531,
      39.27507808734542,
      39.249794741352396,
      39.26939518389405,
      39.21165462841427,
      39.30148316944506,
      39.26111716543743,
      39.19588131800486,
      39.278691448150354,
      39.23969034318494,
      39.25597826355913,
      39.236511186924616,
      39.23857552461691,
      39.24115831100982,
      39.250555066454936,
      39.25435215791048,
      39.26923541257047,
      39.22581996877171,
      39.269425147888896,
      39.24203711743139,
      39.25563048023202,
      39.22901937599379,
      39.2385128610447,
      39.26417340685076,
      39.23285947866864,
      39.261242997854545,
      39.24417093980899,
      39.254028196837524,
      39.24258071485251,
      39.248886454119386,
      39.25184810733931,
      39.26704957420718,
      39.243931666389905,
      39.2562691445661,
      39.25023985475701,
      39.2326201397436,
      39.30759584488201,
      39.2548111654997,
      39.22238679533882,
      39.267766554412525,
      39.27584382722678,
      39.24398183057402,
      39.29730261251187,
      39.259198844473694,
      39.24002585608962,
      39.19441369203719,
      39.25317971505905,
      39.307623828200256,
      39.24552137863293,
      39.28421778734791,
      39.274646046759656,
      39.28709410665621,
      39.23742601728084,
      39.188035853531254,
      39.231775851737076,
      39.24253881168807,
      39.26391183555917,
      39.26747797514115,
      39.24330755292399
    ]
  }
}