{
  "artifacts": [],
  "command": "run",
  "experiment": {
    "base_dir": "/home/jmouton/Documents/MSc/Code/mouton-msc-code/inference",
    "dependencies": [
      "matplotlib==3.4.3",
      "numpy==1.21.2",
      "pandas==1.3.3",
      "sacred==0.8.2",
      "torch==1.9.1",
      "torchvision==0.2.2",
      "tqdm==4.62.3"
    ],
    "mainfile": "ex_vanilla_vae.py",
    "name": "vanilla_vae",
    "repositories": [
      {
        "commit": "21364407cdb6ba83e26e99d44da33dc633f788d3",
        "dirty": true,
        "url": "git@git.cs.sun.ac.za:21054479/mouton-msc-code.git"
      },
      {
        "commit": "21364407cdb6ba83e26e99d44da33dc633f788d3",
        "dirty": true,
        "url": "git@git.cs.sun.ac.za:21054479/mouton-msc-code.git"
      },
      {
        "commit": "21364407cdb6ba83e26e99d44da33dc633f788d3",
        "dirty": true,
        "url": "git@git.cs.sun.ac.za:21054479/mouton-msc-code.git"
      },
      {
        "commit": "21364407cdb6ba83e26e99d44da33dc633f788d3",
        "dirty": true,
        "url": "git@git.cs.sun.ac.za:21054479/mouton-msc-code.git"
      },
      {
        "commit": "21364407cdb6ba83e26e99d44da33dc633f788d3",
        "dirty": true,
        "url": "git@git.cs.sun.ac.za:21054479/mouton-msc-code.git"
      },
      {
        "commit": "21364407cdb6ba83e26e99d44da33dc633f788d3",
        "dirty": true,
        "url": "git@git.cs.sun.ac.za:21054479/mouton-msc-code.git"
      },
      {
        "commit": "21364407cdb6ba83e26e99d44da33dc633f788d3",
        "dirty": true,
        "url": "git@git.cs.sun.ac.za:21054479/mouton-msc-code.git"
      },
      {
        "commit": "21364407cdb6ba83e26e99d44da33dc633f788d3",
        "dirty": true,
        "url": "git@git.cs.sun.ac.za:21054479/mouton-msc-code.git"
      },
      {
        "commit": "21364407cdb6ba83e26e99d44da33dc633f788d3",
        "dirty": true,
        "url": "git@git.cs.sun.ac.za:21054479/mouton-msc-code.git"
      },
      {
        "commit": "21364407cdb6ba83e26e99d44da33dc633f788d3",
        "dirty": true,
        "url": "git@git.cs.sun.ac.za:21054479/mouton-msc-code.git"
      },
      {
        "commit": "21364407cdb6ba83e26e99d44da33dc633f788d3",
        "dirty": true,
        "url": "git@git.cs.sun.ac.za:21054479/mouton-msc-code.git"
      },
      {
        "commit": "21364407cdb6ba83e26e99d44da33dc633f788d3",
        "dirty": true,
        "url": "git@git.cs.sun.ac.za:21054479/mouton-msc-code.git"
      },
      {
        "commit": "21364407cdb6ba83e26e99d44da33dc633f788d3",
        "dirty": true,
        "url": "git@git.cs.sun.ac.za:21054479/mouton-msc-code.git"
      },
      {
        "commit": "21364407cdb6ba83e26e99d44da33dc633f788d3",
        "dirty": true,
        "url": "git@git.cs.sun.ac.za:21054479/mouton-msc-code.git"
      },
      {
        "commit": "21364407cdb6ba83e26e99d44da33dc633f788d3",
        "dirty": true,
        "url": "git@git.cs.sun.ac.za:21054479/mouton-msc-code.git"
      },
      {
        "commit": "21364407cdb6ba83e26e99d44da33dc633f788d3",
        "dirty": true,
        "url": "git@git.cs.sun.ac.za:21054479/mouton-msc-code.git"
      },
      {
        "commit": "21364407cdb6ba83e26e99d44da33dc633f788d3",
        "dirty": true,
        "url": "git@git.cs.sun.ac.za:21054479/mouton-msc-code.git"
      },
      {
        "commit": "21364407cdb6ba83e26e99d44da33dc633f788d3",
        "dirty": true,
        "url": "git@git.cs.sun.ac.za:21054479/mouton-msc-code.git"
      },
      {
        "commit": "21364407cdb6ba83e26e99d44da33dc633f788d3",
        "dirty": true,
        "url": "git@git.cs.sun.ac.za:21054479/mouton-msc-code.git"
      },
      {
        "commit": "21364407cdb6ba83e26e99d44da33dc633f788d3",
        "dirty": true,
        "url": "git@git.cs.sun.ac.za:21054479/mouton-msc-code.git"
      },
      {
        "commit": "21364407cdb6ba83e26e99d44da33dc633f788d3",
        "dirty": true,
        "url": "git@git.cs.sun.ac.za:21054479/mouton-msc-code.git"
      },
      {
        "commit": "21364407cdb6ba83e26e99d44da33dc633f788d3",
        "dirty": true,
        "url": "git@git.cs.sun.ac.za:21054479/mouton-msc-code.git"
      },
      {
        "commit": "21364407cdb6ba83e26e99d44da33dc633f788d3",
        "dirty": true,
        "url": "git@git.cs.sun.ac.za:21054479/mouton-msc-code.git"
      },
      {
        "commit": "21364407cdb6ba83e26e99d44da33dc633f788d3",
        "dirty": true,
        "url": "git@git.cs.sun.ac.za:21054479/mouton-msc-code.git"
      },
      {
        "commit": "21364407cdb6ba83e26e99d44da33dc633f788d3",
        "dirty": true,
        "url": "git@git.cs.sun.ac.za:21054479/mouton-msc-code.git"
      },
      {
        "commit": "21364407cdb6ba83e26e99d44da33dc633f788d3",
        "dirty": true,
        "url": "git@git.cs.sun.ac.za:21054479/mouton-msc-code.git"
      },
      {
        "commit": "21364407cdb6ba83e26e99d44da33dc633f788d3",
        "dirty": true,
        "url": "git@git.cs.sun.ac.za:21054479/mouton-msc-code.git"
      },
      {
        "commit": "21364407cdb6ba83e26e99d44da33dc633f788d3",
        "dirty": true,
        "url": "git@git.cs.sun.ac.za:21054479/mouton-msc-code.git"
      },
      {
        "commit": "21364407cdb6ba83e26e99d44da33dc633f788d3",
        "dirty": true,
        "url": "git@git.cs.sun.ac.za:21054479/mouton-msc-code.git"
      },
      {
        "commit": "21364407cdb6ba83e26e99d44da33dc633f788d3",
        "dirty": true,
        "url": "git@git.cs.sun.ac.za:21054479/mouton-msc-code.git"
      },
      {
        "commit": "21364407cdb6ba83e26e99d44da33dc633f788d3",
        "dirty": true,
        "url": "git@git.cs.sun.ac.za:21054479/mouton-msc-code.git"
      },
      {
        "commit": "21364407cdb6ba83e26e99d44da33dc633f788d3",
        "dirty": true,
        "url": "git@git.cs.sun.ac.za:21054479/mouton-msc-code.git"
      },
      {
        "commit": "21364407cdb6ba83e26e99d44da33dc633f788d3",
        "dirty": true,
        "url": "git@git.cs.sun.ac.za:21054479/mouton-msc-code.git"
      },
      {
        "commit": "21364407cdb6ba83e26e99d44da33dc633f788d3",
        "dirty": true,
        "url": "git@git.cs.sun.ac.za:21054479/mouton-msc-code.git"
      },
      {
        "commit": "21364407cdb6ba83e26e99d44da33dc633f788d3",
        "dirty": true,
        "url": "git@git.cs.sun.ac.za:21054479/mouton-msc-code.git"
      },
      {
        "commit": "21364407cdb6ba83e26e99d44da33dc633f788d3",
        "dirty": true,
        "url": "git@git.cs.sun.ac.za:21054479/mouton-msc-code.git"
      },
      {
        "commit": "21364407cdb6ba83e26e99d44da33dc633f788d3",
        "dirty": true,
        "url": "git@git.cs.sun.ac.za:21054479/mouton-msc-code.git"
      },
      {
        "commit": "21364407cdb6ba83e26e99d44da33dc633f788d3",
        "dirty": true,
        "url": "git@git.cs.sun.ac.za:21054479/mouton-msc-code.git"
      },
      {
        "commit": "21364407cdb6ba83e26e99d44da33dc633f788d3",
        "dirty": true,
        "url": "git@git.cs.sun.ac.za:21054479/mouton-msc-code.git"
      }
    ],
    "sources": [
      [
        "data/load_data.py",
        "_sources/load_data_03265553819c0e61e61248492a3d2bd5.py"
      ],
      [
        "ex_utils.py",
        "_sources/ex_utils_2fc5cf83b18569f779105bc0ffdbfb70.py"
      ],
      [
        "ex_vanilla_vae.py",
        "_sources/ex_vanilla_vae_9f61c6a414cafebb96ed977df6fb300f.py"
      ],
      [
        "graph/belief_network/__init__.py",
        "_sources/__init___70e1fc40755df273659c3611240cc673.py"
      ],
      [
        "graph/belief_network/arithmetic_circuit.py",
        "_sources/arithmetic_circuit_dd404022eded31e1c5d43ee2c0bf8b0d.py"
      ],
      [
        "graph/belief_network/arithmetic_circuit2.py",
        "_sources/arithmetic_circuit2_79b4132aed00046f6503bc5181ac4c41.py"
      ],
      [
        "graph/belief_network/arth150.py",
        "_sources/arth150_c505484d7005b016446bf5484ad754e4.py"
      ],
      [
        "graph/belief_network/augmented.py",
        "_sources/augmented_e0d2684778bbd3c752685ce7241d56aa.py"
      ],
      [
        "graph/belief_network/augmented_ac.py",
        "_sources/augmented_ac_4d878d519aedc7d29dc9e85bb5f6cd1e.py"
      ],
      [
        "graph/belief_network/bn.py",
        "_sources/bn_7907cdb518df03738b12cff9d1f3f47d.py"
      ],
      [
        "graph/belief_network/circles.py",
        "_sources/circles_bb2fb6153e9b8e514f6aa18a3266f3d9.py"
      ],
      [
        "graph/belief_network/ecoli70.py",
        "_sources/ecoli70_56888b9a9292747e352ce3994e14da03.py"
      ],
      [
        "graph/belief_network/ecoli70_2.py",
        "_sources/ecoli70_2_100a5c1eb135d96b94e823b2a5158f70.py"
      ],
      [
        "graph/belief_network/ecoli70_adapted.py",
        "_sources/ecoli70_adapted_e9cf2d952bc29442b55ea7dfd5bf8da0.py"
      ],
      [
        "graph/belief_network/ecoli70_complex.py",
        "_sources/ecoli70_complex_a775584aaa5a99c8ebce188a32253a7c.py"
      ],
      [
        "graph/belief_network/eight_gaussians.py",
        "_sources/eight_gaussians_49f0ad346382821aace99aa4d7147789.py"
      ],
      [
        "graph/belief_network/eight_pairs.py",
        "_sources/eight_pairs_c2f3274b444f9dd9a8bd5b86ef605df1.py"
      ],
      [
        "graph/belief_network/fc.py",
        "_sources/fc_54cee4520012502805eef09b30a1ac19.py"
      ],
      [
        "graph/belief_network/gaussian_binary_tree.py",
        "_sources/gaussian_binary_tree_f8190669535d64dce0245dc12bf45b24.py"
      ],
      [
        "graph/belief_network/gaussian_ternary_tree.py",
        "_sources/gaussian_ternary_tree_76d85f0fe5f2f6f3f713142583405567.py"
      ],
      [
        "graph/belief_network/indep.py",
        "_sources/indep_c8e534595f38fe83b95d5166708408f9.py"
      ],
      [
        "graph/belief_network/largerbn1.py",
        "_sources/largerbn1_5052dd5316372d7ad856e5b6f25ce930.py"
      ],
      [
        "graph/belief_network/largerbn2.py",
        "_sources/largerbn2_8136298ee0585cfbd189e761242b1217.py"
      ],
      [
        "graph/belief_network/magic_irri.py",
        "_sources/magic_irri_cdb9a0005d1c554638169bf60a8e65e1.py"
      ],
      [
        "graph/belief_network/mehra.py",
        "_sources/mehra_491b24eb11fd3f90d54dda000dd21dbf.py"
      ],
      [
        "graph/belief_network/one_pair.py",
        "_sources/one_pair_6a451d18a5701ada28f15cc4e151ebad.py"
      ],
      [
        "graph/belief_network/protein.py",
        "_sources/protein_d1779b2d24e9600929e31a97a6e8e8bd.py"
      ],
      [
        "graph/belief_network/random.py",
        "_sources/random_6bd77f60aa268f541cc12349b8f7c3ec.py"
      ],
      [
        "graph/belief_network/sangiovese.py",
        "_sources/sangiovese_b635b58ebde616574bfc2a8b58efd3c7.py"
      ],
      [
        "graph/belief_network/swiss_roll.py",
        "_sources/swiss_roll_e358d640f29e30e3f4e713ea21edd3bc.py"
      ],
      [
        "graph/belief_network/synthetic1.py",
        "_sources/synthetic1_c2993644bf825c5d2dcc2f1aed756be3.py"
      ],
      [
        "graph/belief_network/synthetic2.py",
        "_sources/synthetic2_08115974ddcc6281d0fc0ae85918231b.py"
      ],
      [
        "graph/belief_network/tree.py",
        "_sources/tree_e14fdb923b97da979e467823e2f634a5.py"
      ],
      [
        "graph/belief_network/tree2.py",
        "_sources/tree2_71083b35138ef633726f5ea3d6eb5668.py"
      ],
      [
        "graph/belief_network/two_pairs.py",
        "_sources/two_pairs_d03fe25dd53f70e5283aae4afb7b9bc1.py"
      ],
      [
        "graph/belief_network/two_spirals.py",
        "_sources/two_spirals_b64bc7d7f9bbb9f2952bac70c32ad669.py"
      ],
      [
        "graph/belief_network/vanilla.py",
        "_sources/vanilla_caf5c3d57d0fa511a34e0b85222ca9e4.py"
      ],
      [
        "modules/__init__.py",
        "_sources/__init___eac46f424a64c54c5d2650eae0c452ec.py"
      ],
      [
        "modules/factory.py",
        "_sources/factory_fdf2b9439c1a3a5b8f6e989eb87170f4.py"
      ]
    ]
  },
  "heartbeat": "2022-05-18T10:07:34.609197",
  "host": {
    "ENV": {},
    "cpu": "11th Gen Intel(R) Core(TM) i9-11900 @ 2.50GHz",
    "gpus": {
      "driver_version": "470.63.01",
      "gpus": [
        {
          "model": "NVIDIA GeForce RTX 3070",
          "persistence_mode": false,
          "total_memory": 7973
        }
      ]
    },
    "hostname": "clg-518788",
    "os": [
      "Linux",
      "Linux-5.11.0-37-generic-x86_64-with-glibc2.10"
    ],
    "python_version": "3.8.12"
  },
  "meta": {
    "command": "run",
    "options": {
      "--beat-interval": null,
      "--capture": null,
      "--comment": null,
      "--debug": false,
      "--enforce_clean": false,
      "--file_storage": null,
      "--force": false,
      "--help": false,
      "--loglevel": null,
      "--mongo_db": null,
      "--name": null,
      "--pdb": false,
      "--print-config": false,
      "--priority": null,
      "--queue": false,
      "--s3": null,
      "--sql": null,
      "--tiny_db": null,
      "--unobserved": false,
      "COMMAND": null,
      "UPDATE": [
        "bn=ecoli70-alt",
        "num_train_samples=88",
        "num_val_samples=4400",
        "batch_size=88",
        "num_epochs=600",
        "lr=1e-3",
        "sub_folder=[100]_[100]_2g",
        "seed=1",
        "patience=10"
      ],
      "help": false,
      "with": true
    }
  },
  "resources": [],
  "result": null,
  "start_time": "2022-05-18T10:06:30.582172",
  "status": "COMPLETED",
  "stop_time": "2022-05-18T10:07:34.607560"
}