INFO - residual_nf - Running command 'run'
INFO - residual_nf - Started run with ID "5"
[CONFIG] {'bn': 'tree', 'structure': 'faithful', 'coeff': 0.99, 'n_power_iterations': 5, 'num_blocks': 11, 'hidden_dims': [100], 'activation': 'lipswish', 'grad_in_forward': True, 'batch_size': 100, 'num_train_samples': 10000, 'num_val_samples': 5000, 'num_epochs': 250, 'num_train_batches': 100, 'num_val_batches': 50, 'lr': 0.01, 'seed': 4, 'patience': 20, 'run': 1, 'ex_name': 'residual_nf_density_estimation', 'sub_folder': 'faithful_99_lipswish_11_[100]', 'path': './experiment_logs/residual_nf_density_estimation/tree/faithful_99_lipswish_11_[100]', 'bt_config': {'depth': 5, 'seed': 4}}
[ENCODED STRUCTURE] Using faithful BN structure.
  0%|          | 0/250 [00:00<?, ?it/s]Train NLL: 9.897, Val NLL: 9.775:   0%|          | 1/250 [00:05<22:16,  5.37s/it]Train NLL: 9.529, Val NLL: 9.044:   1%|          | 2/250 [00:09<18:36,  4.50s/it]Train NLL: 8.894, Val NLL: 8.805:   1%|          | 3/250 [00:13<17:22,  4.22s/it]Train NLL: 8.814, Val NLL: 8.824:   2%|▏         | 4/250 [00:17<16:47,  4.10s/it]Train NLL: 8.772, Val NLL: 8.816:   2%|▏         | 5/250 [00:20<16:14,  3.98s/it]Train NLL: 8.754, Val NLL: 8.764:   2%|▏         | 6/250 [00:24<15:52,  3.90s/it]Train NLL: 8.747, Val NLL: 8.748:   3%|▎         | 7/250 [00:28<16:12,  4.00s/it]Train NLL: 8.720, Val NLL: 8.779:   3%|▎         | 8/250 [00:32<16:06,  3.99s/it]Train NLL: 8.718, Val NLL: 8.732:   4%|▎         | 9/250 [00:36<16:13,  4.04s/it]Train NLL: 8.710, Val NLL: 8.703:   4%|▍         | 10/250 [00:41<17:11,  4.30s/it]Train NLL: 8.696, Val NLL: 8.744:   4%|▍         | 11/250 [00:45<17:00,  4.27s/it]Train NLL: 8.691, Val NLL: 8.778:   5%|▍         | 12/250 [00:50<16:40,  4.20s/it]Train NLL: 8.715, Val NLL: 8.767:   5%|▌         | 13/250 [00:54<16:23,  4.15s/it]Train NLL: 8.698, Val NLL: 8.700:   6%|▌         | 14/250 [00:57<15:43,  4.00s/it]Train NLL: 8.679, Val NLL: 8.705:   6%|▌         | 15/250 [01:02<16:04,  4.11s/it]Train NLL: 8.682, Val NLL: 8.688:   6%|▋         | 16/250 [01:06<16:12,  4.16s/it]Train NLL: 8.678, Val NLL: 8.693:   7%|▋         | 17/250 [01:10<15:43,  4.05s/it]Train NLL: 8.676, Val NLL: 8.701:   7%|▋         | 18/250 [01:14<15:50,  4.10s/it]Train NLL: 8.679, Val NLL: 8.716:   8%|▊         | 19/250 [01:18<15:50,  4.12s/it]Train NLL: 8.675, Val NLL: 8.697:   8%|▊         | 20/250 [01:22<16:11,  4.23s/it]Train NLL: 8.676, Val NLL: 8.694:   8%|▊         | 21/250 [01:27<16:19,  4.28s/it]Train NLL: 8.680, Val NLL: 8.713:   9%|▉         | 22/250 [01:31<16:07,  4.24s/it]Train NLL: 8.668, Val NLL: 8.683:   9%|▉         | 23/250 [01:35<15:53,  4.20s/it]Train NLL: 8.669, Val NLL: 8.708:  10%|▉         | 24/250 [01:39<15:27,  4.10s/it]Train NLL: 8.662, Val NLL: 8.681:  10%|█         | 25/250 [01:43<15:25,  4.11s/it]Train NLL: 8.670, Val NLL: 8.690:  10%|█         | 26/250 [01:47<14:50,  3.98s/it]Train NLL: 8.671, Val NLL: 8.687:  11%|█         | 27/250 [01:50<14:27,  3.89s/it]Train NLL: 8.673, Val NLL: 8.728:  11%|█         | 28/250 [01:54<14:03,  3.80s/it]Train NLL: 8.657, Val NLL: 8.680:  12%|█▏        | 29/250 [01:58<13:55,  3.78s/it]Train NLL: 8.663, Val NLL: 8.715:  12%|█▏        | 30/250 [02:02<14:04,  3.84s/it]Train NLL: 8.662, Val NLL: 8.707:  12%|█▏        | 31/250 [02:05<13:46,  3.77s/it]Train NLL: 8.653, Val NLL: 8.670:  13%|█▎        | 32/250 [02:10<14:44,  4.06s/it]Train NLL: 8.657, Val NLL: 8.667:  13%|█▎        | 33/250 [02:14<14:45,  4.08s/it]Train NLL: 8.654, Val NLL: 8.690:  14%|█▎        | 34/250 [02:19<15:19,  4.26s/it]Train NLL: 8.659, Val NLL: 8.681:  14%|█▍        | 35/250 [02:24<15:35,  4.35s/it]Train NLL: 8.655, Val NLL: 8.702:  14%|█▍        | 36/250 [02:27<14:47,  4.15s/it]Train NLL: 8.655, Val NLL: 8.691:  15%|█▍        | 37/250 [02:31<14:18,  4.03s/it]Train NLL: 8.651, Val NLL: 8.720:  15%|█▌        | 38/250 [02:35<13:52,  3.93s/it]Train NLL: 8.650, Val NLL: 8.689:  16%|█▌        | 39/250 [02:38<13:39,  3.89s/it]Train NLL: 8.652, Val NLL: 8.681:  16%|█▌        | 40/250 [02:42<13:26,  3.84s/it]Train NLL: 8.652, Val NLL: 8.681:  16%|█▋        | 41/250 [02:46<13:13,  3.80s/it]Train NLL: 8.649, Val NLL: 8.697:  17%|█▋        | 42/250 [02:49<12:59,  3.75s/it]Train NLL: 8.661, Val NLL: 8.693:  17%|█▋        | 43/250 [02:53<13:04,  3.79s/it]Train NLL: 8.655, Val NLL: 8.695:  18%|█▊        | 44/250 [02:57<12:54,  3.76s/it]Train NLL: 8.644, Val NLL: 8.683:  18%|█▊        | 45/250 [03:01<12:41,  3.72s/it]Train NLL: 8.648, Val NLL: 8.709:  18%|█▊        | 46/250 [03:04<12:42,  3.74s/it]Train NLL: 8.646, Val NLL: 8.674:  19%|█▉        | 47/250 [03:08<12:48,  3.79s/it]Train NLL: 8.642, Val NLL: 8.678:  19%|█▉        | 48/250 [03:12<12:48,  3.81s/it]Train NLL: 8.648, Val NLL: 8.675:  20%|█▉        | 49/250 [03:16<12:39,  3.78s/it]Train NLL: 8.645, Val NLL: 8.669:  20%|██        | 50/250 [03:20<12:41,  3.81s/it]Train NLL: 8.642, Val NLL: 8.665:  20%|██        | 51/250 [03:24<12:33,  3.79s/it]Train NLL: 8.643, Val NLL: 8.672:  21%|██        | 52/250 [03:27<12:28,  3.78s/it]Train NLL: 8.644, Val NLL: 8.679:  21%|██        | 53/250 [03:31<12:21,  3.77s/it]Train NLL: 8.638, Val NLL: 8.698:  22%|██▏       | 54/250 [03:35<12:52,  3.94s/it]Train NLL: 8.646, Val NLL: 8.667:  22%|██▏       | 55/250 [03:40<13:29,  4.15s/it]Train NLL: 8.645, Val NLL: 8.675:  22%|██▏       | 56/250 [03:44<13:12,  4.08s/it]Train NLL: 8.649, Val NLL: 8.675:  23%|██▎       | 57/250 [03:49<13:49,  4.30s/it]Train NLL: 8.648, Val NLL: 8.685:  23%|██▎       | 58/250 [03:54<14:28,  4.52s/it]Train NLL: 8.643, Val NLL: 8.681:  24%|██▎       | 59/250 [03:58<13:55,  4.37s/it]Train NLL: 8.644, Val NLL: 8.670:  24%|██▍       | 60/250 [04:02<13:32,  4.28s/it]Train NLL: 8.642, Val NLL: 8.655:  24%|██▍       | 61/250 [04:06<13:22,  4.25s/it]Train NLL: 8.641, Val NLL: 8.666:  25%|██▍       | 62/250 [04:10<12:54,  4.12s/it]Train NLL: 8.636, Val NLL: 8.659:  25%|██▌       | 63/250 [04:14<12:35,  4.04s/it]Train NLL: 8.633, Val NLL: 8.692:  26%|██▌       | 64/250 [04:19<13:49,  4.46s/it]Train NLL: 8.648, Val NLL: 8.725:  26%|██▌       | 65/250 [04:24<14:09,  4.59s/it]Train NLL: 8.650, Val NLL: 8.685:  26%|██▋       | 66/250 [04:28<13:44,  4.48s/it]Train NLL: 8.642, Val NLL: 8.663:  27%|██▋       | 67/250 [04:32<13:08,  4.31s/it]Train NLL: 8.642, Val NLL: 8.687:  27%|██▋       | 68/250 [04:36<12:34,  4.15s/it]Train NLL: 8.641, Val NLL: 8.666:  28%|██▊       | 69/250 [04:40<12:09,  4.03s/it]Train NLL: 8.635, Val NLL: 8.680:  28%|██▊       | 70/250 [04:44<11:55,  3.97s/it]Train NLL: 8.630, Val NLL: 8.680:  28%|██▊       | 71/250 [04:47<11:42,  3.92s/it]Train NLL: 8.644, Val NLL: 8.676:  29%|██▉       | 72/250 [04:51<11:26,  3.86s/it]Train NLL: 8.638, Val NLL: 8.700:  29%|██▉       | 73/250 [04:55<11:17,  3.83s/it]Train NLL: 8.633, Val NLL: 8.686:  30%|██▉       | 74/250 [04:59<11:10,  3.81s/it]Train NLL: 8.645, Val NLL: 8.706:  30%|███       | 75/250 [05:02<11:01,  3.78s/it]Train NLL: 8.636, Val NLL: 8.672:  30%|███       | 76/250 [05:06<10:56,  3.77s/it]Train NLL: 8.639, Val NLL: 8.684:  31%|███       | 77/250 [05:10<10:48,  3.75s/it]Train NLL: 8.629, Val NLL: 8.661:  31%|███       | 78/250 [05:13<10:43,  3.74s/it]Train NLL: 8.640, Val NLL: 8.691:  32%|███▏      | 79/250 [05:17<10:38,  3.74s/it]Train NLL: 8.633, Val NLL: 8.708:  32%|███▏      | 80/250 [05:21<10:30,  3.71s/it]Train NLL: 8.645, Val NLL: 8.755:  32%|███▏      | 81/250 [05:25<10:26,  3.70s/it]Train NLL: 8.641, Val NLL: 8.697:  33%|███▎      | 82/250 [05:28<10:23,  3.71s/it]Train NLL: 8.630, Val NLL: 8.656:  33%|███▎      | 83/250 [05:32<10:17,  3.70s/it]Train NLL: 8.641, Val NLL: 8.696:  34%|███▎      | 84/250 [05:36<10:11,  3.68s/it]Train NLL: 8.633, Val NLL: 8.690:  34%|███▍      | 85/250 [05:40<10:43,  3.90s/it]Train NLL: 8.637, Val NLL: 8.720:  34%|███▍      | 86/250 [05:44<10:36,  3.88s/it]Train NLL: 8.650, Val NLL: 8.681:  35%|███▍      | 87/250 [05:48<10:33,  3.89s/it]Train NLL: 8.636, Val NLL: 8.681:  35%|███▌      | 88/250 [05:52<10:35,  3.92s/it]Train NLL: 8.639, Val NLL: 8.689:  36%|███▌      | 89/250 [05:55<10:21,  3.86s/it]Train NLL: 8.638, Val NLL: 8.680:  36%|███▌      | 90/250 [06:01<11:19,  4.25s/it]Train NLL: 8.640, Val NLL: 8.705:  36%|███▋      | 91/250 [06:05<11:44,  4.43s/it]Train NLL: 8.632, Val NLL: 8.665:  37%|███▋      | 92/250 [06:10<12:06,  4.60s/it]Train NLL: 8.631, Val NLL: 8.679:  37%|███▋      | 93/250 [06:15<11:36,  4.44s/it]Train NLL: 8.633, Val NLL: 8.668:  38%|███▊      | 94/250 [06:18<11:05,  4.26s/it]Train NLL: 8.626, Val NLL: 8.661:  38%|███▊      | 95/250 [06:23<11:13,  4.34s/it]Train NLL: 8.623, Val NLL: 8.688:  38%|███▊      | 96/250 [06:27<11:05,  4.32s/it]Train NLL: 8.639, Val NLL: 8.669:  39%|███▉      | 97/250 [06:31<10:36,  4.16s/it]Train NLL: 8.636, Val NLL: 8.679:  39%|███▉      | 98/250 [06:35<10:09,  4.01s/it]Train NLL: 8.630, Val NLL: 8.676:  40%|███▉      | 99/250 [06:38<09:58,  3.96s/it]Train NLL: 8.626, Val NLL: 8.682:  40%|████      | 100/250 [06:42<09:54,  3.96s/it]Train NLL: 8.628, Val NLL: 8.664:  40%|████      | 101/250 [06:46<09:35,  3.86s/it]Train NLL: 8.629, Val NLL: 8.699:  41%|████      | 102/250 [06:50<09:25,  3.82s/it]Train NLL: 8.630, Val NLL: 8.675:  41%|████      | 103/250 [06:54<09:18,  3.80s/it]Train NLL: 8.632, Val NLL: 8.677:  42%|████▏     | 104/250 [06:57<09:06,  3.75s/it]Train NLL: 8.631, Val NLL: 8.702:  42%|████▏     | 105/250 [07:01<08:57,  3.71s/it]Train NLL: 8.629, Val NLL: 8.676:  42%|████▏     | 106/250 [07:06<09:43,  4.05s/it]Train NLL: 8.625, Val NLL: 8.666:  43%|████▎     | 107/250 [07:10<09:39,  4.05s/it]Train NLL: 8.626, Val NLL: 8.667:  43%|████▎     | 108/250 [07:13<09:16,  3.92s/it]Train NLL: 8.626, Val NLL: 8.660:  44%|████▎     | 109/250 [07:17<09:12,  3.92s/it]Train NLL: 8.638, Val NLL: 8.672:  44%|████▍     | 110/250 [07:22<09:37,  4.12s/it]Train NLL: 8.628, Val NLL: 8.661:  44%|████▍     | 111/250 [07:26<09:20,  4.03s/it]Train NLL: 8.634, Val NLL: 8.672:  45%|████▍     | 112/250 [07:30<09:10,  3.99s/it]Train NLL: 8.631, Val NLL: 8.679:  45%|████▌     | 113/250 [07:33<09:04,  3.97s/it]Train NLL: 8.624, Val NLL: 8.653:  46%|████▌     | 114/250 [07:37<08:47,  3.88s/it]Train NLL: 8.623, Val NLL: 8.656:  46%|████▌     | 115/250 [07:41<08:58,  3.99s/it]Train NLL: 8.630, Val NLL: 8.667:  46%|████▋     | 116/250 [07:46<09:19,  4.17s/it]Epoch   117: reducing learning rate of group 0 to 1.0000e-03.
Train NLL: 8.632, Val NLL: 8.668:  47%|████▋     | 117/250 [07:50<08:59,  4.06s/it]Train NLL: 8.590, Val NLL: 8.636:  47%|████▋     | 118/250 [07:54<09:14,  4.20s/it]Train NLL: 8.585, Val NLL: 8.634:  48%|████▊     | 119/250 [07:58<09:08,  4.19s/it]Train NLL: 8.583, Val NLL: 8.634:  48%|████▊     | 120/250 [08:02<08:59,  4.15s/it]Train NLL: 8.583, Val NLL: 8.633:  48%|████▊     | 121/250 [08:06<08:38,  4.02s/it]Train NLL: 8.582, Val NLL: 8.636:  49%|████▉     | 122/250 [08:10<08:38,  4.05s/it]Train NLL: 8.583, Val NLL: 8.636:  49%|████▉     | 123/250 [08:14<08:35,  4.06s/it]Train NLL: 8.582, Val NLL: 8.635:  50%|████▉     | 124/250 [08:19<08:42,  4.14s/it]Train NLL: 8.583, Val NLL: 8.637:  50%|█████     | 125/250 [08:23<08:34,  4.11s/it]Train NLL: 8.582, Val NLL: 8.635:  50%|█████     | 126/250 [08:27<08:36,  4.17s/it]Train NLL: 8.582, Val NLL: 8.634:  51%|█████     | 127/250 [08:32<08:43,  4.26s/it]Train NLL: 8.582, Val NLL: 8.634:  51%|█████     | 128/250 [08:36<08:32,  4.20s/it]Train NLL: 8.582, Val NLL: 8.635:  52%|█████▏    | 129/250 [08:39<08:13,  4.08s/it]Train NLL: 8.581, Val NLL: 8.638:  52%|█████▏    | 130/250 [08:44<08:11,  4.10s/it]Train NLL: 8.582, Val NLL: 8.634:  52%|█████▏    | 131/250 [08:47<08:01,  4.04s/it]Train NLL: 8.581, Val NLL: 8.636:  53%|█████▎    | 132/250 [08:52<07:59,  4.06s/it]Train NLL: 8.582, Val NLL: 8.640:  53%|█████▎    | 133/250 [08:56<08:08,  4.18s/it]Train NLL: 8.583, Val NLL: 8.637:  54%|█████▎    | 134/250 [09:01<08:23,  4.34s/it]Train NLL: 8.582, Val NLL: 8.634:  54%|█████▍    | 135/250 [09:05<08:20,  4.35s/it]Train NLL: 8.581, Val NLL: 8.636:  54%|█████▍    | 136/250 [09:10<08:23,  4.41s/it]Train NLL: 8.582, Val NLL: 8.633:  55%|█████▍    | 137/250 [09:14<08:16,  4.39s/it]Train NLL: 8.581, Val NLL: 8.637:  55%|█████▌    | 138/250 [09:18<07:56,  4.25s/it]Train NLL: 8.581, Val NLL: 8.634:  56%|█████▌    | 139/250 [09:23<08:08,  4.40s/it]Train NLL: 8.581, Val NLL: 8.639:  56%|█████▌    | 140/250 [09:26<07:41,  4.19s/it]Train NLL: 8.583, Val NLL: 8.638:  56%|█████▋    | 141/250 [09:32<08:16,  4.55s/it]Train NLL: 8.582, Val NLL: 8.637:  57%|█████▋    | 142/250 [09:36<08:04,  4.49s/it]Train NLL: 8.582, Val NLL: 8.639:  57%|█████▋    | 143/250 [09:40<07:51,  4.40s/it]Train NLL: 8.583, Val NLL: 8.640:  58%|█████▊    | 144/250 [09:45<07:47,  4.41s/it]Train NLL: 8.582, Val NLL: 8.636:  58%|█████▊    | 145/250 [09:49<07:44,  4.43s/it]Train NLL: 8.582, Val NLL: 8.641:  58%|█████▊    | 146/250 [09:53<07:26,  4.29s/it]Train NLL: 8.583, Val NLL: 8.636:  59%|█████▉    | 147/250 [09:57<07:09,  4.17s/it]Train NLL: 8.581, Val NLL: 8.635:  59%|█████▉    | 148/250 [10:01<07:10,  4.22s/it]Train NLL: 8.581, Val NLL: 8.642:  60%|█████▉    | 149/250 [10:06<07:11,  4.27s/it]Train NLL: 8.581, Val NLL: 8.635:  60%|██████    | 150/250 [10:10<06:55,  4.16s/it]Epoch   151: reducing learning rate of group 0 to 1.0000e-04.
Train NLL: 8.581, Val NLL: 8.637:  60%|██████    | 151/250 [10:14<07:00,  4.25s/it]Train NLL: 8.577, Val NLL: 8.634:  61%|██████    | 152/250 [10:19<07:01,  4.30s/it]Train NLL: 8.575, Val NLL: 8.633:  61%|██████    | 153/250 [10:24<07:23,  4.57s/it]Train NLL: 8.575, Val NLL: 8.634:  62%|██████▏   | 154/250 [10:28<07:02,  4.40s/it]Train NLL: 8.575, Val NLL: 8.634:  62%|██████▏   | 155/250 [10:32<06:49,  4.31s/it]Train NLL: 8.575, Val NLL: 8.633:  62%|██████▏   | 156/250 [10:36<06:39,  4.25s/it]Train NLL: 8.575, Val NLL: 8.633:  63%|██████▎   | 157/250 [10:40<06:21,  4.10s/it]Train NLL: 8.575, Val NLL: 8.633:  63%|██████▎   | 158/250 [10:44<06:09,  4.01s/it]Train NLL: 8.575, Val NLL: 8.634:  64%|██████▎   | 159/250 [10:47<05:54,  3.90s/it]Train NLL: 8.575, Val NLL: 8.633:  64%|██████▍   | 160/250 [10:51<05:56,  3.96s/it]Train NLL: 8.575, Val NLL: 8.634:  64%|██████▍   | 161/250 [10:56<06:09,  4.16s/it]Train NLL: 8.575, Val NLL: 8.634:  65%|██████▍   | 162/250 [11:00<05:56,  4.05s/it]Train NLL: 8.575, Val NLL: 8.634:  65%|██████▌   | 163/250 [11:04<05:54,  4.07s/it]Train NLL: 8.575, Val NLL: 8.634:  66%|██████▌   | 164/250 [11:09<06:26,  4.49s/it]Train NLL: 8.575, Val NLL: 8.633:  66%|██████▌   | 165/250 [11:14<06:20,  4.48s/it]Train NLL: 8.575, Val NLL: 8.634:  66%|██████▋   | 166/250 [11:18<06:04,  4.34s/it]Train NLL: 8.575, Val NLL: 8.634:  67%|██████▋   | 167/250 [11:23<06:11,  4.48s/it]Train NLL: 8.575, Val NLL: 8.634:  67%|██████▋   | 168/250 [11:27<06:01,  4.41s/it]Train NLL: 8.575, Val NLL: 8.634:  68%|██████▊   | 169/250 [11:32<06:05,  4.52s/it]Train NLL: 8.575, Val NLL: 8.634:  68%|██████▊   | 170/250 [11:36<05:50,  4.39s/it]Train NLL: 8.575, Val NLL: 8.633:  68%|██████▊   | 171/250 [11:40<05:46,  4.38s/it]Train NLL: 8.575, Val NLL: 8.634:  69%|██████▉   | 172/250 [11:45<05:52,  4.52s/it]Train NLL: 8.575, Val NLL: 8.634:  69%|██████▉   | 173/250 [11:49<05:39,  4.41s/it]Epoch   174: reducing learning rate of group 0 to 1.0000e-05.
Train NLL: 8.575, Val NLL: 8.634:  70%|██████▉   | 174/250 [11:53<05:35,  4.41s/it]Train NLL: 8.574, Val NLL: 8.634:  70%|███████   | 175/250 [11:58<05:26,  4.35s/it]Train NLL: 8.574, Val NLL: 8.634:  70%|███████   | 176/250 [12:02<05:22,  4.36s/it]Train NLL: 8.574, Val NLL: 8.634:  71%|███████   | 177/250 [12:07<05:23,  4.43s/it]Train NLL: 8.574, Val NLL: 8.634:  71%|███████   | 178/250 [12:11<05:14,  4.36s/it]Train NLL: 8.574, Val NLL: 8.634:  72%|███████▏  | 179/250 [12:15<05:08,  4.35s/it]Train NLL: 8.574, Val NLL: 8.634:  72%|███████▏  | 180/250 [12:20<05:07,  4.39s/it]Train NLL: 8.574, Val NLL: 8.634:  72%|███████▏  | 181/250 [12:24<04:58,  4.33s/it]Train NLL: 8.574, Val NLL: 8.634:  73%|███████▎  | 182/250 [12:28<05:00,  4.41s/it]Train NLL: 8.574, Val NLL: 8.634:  73%|███████▎  | 183/250 [12:33<05:04,  4.55s/it]Train NLL: 8.574, Val NLL: 8.634:  74%|███████▎  | 184/250 [12:38<04:55,  4.48s/it]Train NLL: 8.574, Val NLL: 8.634:  74%|███████▍  | 185/250 [12:42<04:51,  4.49s/it]Train NLL: 8.574, Val NLL: 8.634:  74%|███████▍  | 186/250 [12:47<04:59,  4.68s/it]Train NLL: 8.574, Val NLL: 8.634:  75%|███████▍  | 187/250 [12:52<04:48,  4.58s/it]Train NLL: 8.574, Val NLL: 8.634:  75%|███████▌  | 188/250 [12:56<04:35,  4.45s/it]Train NLL: 8.574, Val NLL: 8.634:  76%|███████▌  | 189/250 [13:00<04:25,  4.36s/it]Train NLL: 8.574, Val NLL: 8.634:  76%|███████▌  | 190/250 [13:05<04:34,  4.57s/it]Train NLL: 8.574, Val NLL: 8.634:  76%|███████▋  | 191/250 [13:10<04:29,  4.56s/it]Train NLL: 8.574, Val NLL: 8.634:  77%|███████▋  | 192/250 [13:14<04:18,  4.46s/it]Train NLL: 8.574, Val NLL: 8.634:  77%|███████▋  | 193/250 [13:18<04:14,  4.46s/it]Train NLL: 8.574, Val NLL: 8.634:  78%|███████▊  | 194/250 [13:23<04:14,  4.55s/it]Train NLL: 8.574, Val NLL: 8.634:  78%|███████▊  | 195/250 [13:28<04:17,  4.69s/it]Epoch   196: reducing learning rate of group 0 to 1.0000e-06.
Train NLL: 8.574, Val NLL: 8.634:  78%|███████▊  | 196/250 [13:32<04:00,  4.46s/it]Train NLL: 8.574, Val NLL: 8.634:  79%|███████▉  | 197/250 [13:36<03:42,  4.21s/it]Train NLL: 8.574, Val NLL: 8.634:  79%|███████▉  | 198/250 [13:39<03:33,  4.10s/it]Train NLL: 8.574, Val NLL: 8.634:  80%|███████▉  | 199/250 [13:43<03:23,  3.99s/it]Train NLL: 8.574, Val NLL: 8.634:  80%|████████  | 200/250 [13:47<03:12,  3.85s/it]Train NLL: 8.574, Val NLL: 8.634:  80%|████████  | 201/250 [13:51<03:11,  3.91s/it]Train NLL: 8.574, Val NLL: 8.634:  81%|████████  | 202/250 [13:54<03:05,  3.86s/it]Train NLL: 8.574, Val NLL: 8.634:  81%|████████  | 203/250 [13:58<02:58,  3.80s/it]Train NLL: 8.574, Val NLL: 8.634:  82%|████████▏ | 204/250 [14:03<03:05,  4.03s/it]Train NLL: 8.574, Val NLL: 8.634:  82%|████████▏ | 205/250 [14:07<02:58,  3.97s/it]Train NLL: 8.574, Val NLL: 8.634:  82%|████████▏ | 206/250 [14:11<02:57,  4.03s/it]Train NLL: 8.574, Val NLL: 8.634:  83%|████████▎ | 207/250 [14:15<02:54,  4.05s/it]Train NLL: 8.574, Val NLL: 8.634:  83%|████████▎ | 208/250 [14:19<02:47,  3.98s/it]Train NLL: 8.574, Val NLL: 8.634:  84%|████████▎ | 209/250 [14:22<02:40,  3.92s/it]Train NLL: 8.574, Val NLL: 8.634:  84%|████████▍ | 210/250 [14:26<02:32,  3.81s/it]Train NLL: 8.574, Val NLL: 8.634:  84%|████████▍ | 211/250 [14:29<02:25,  3.74s/it]Train NLL: 8.574, Val NLL: 8.634:  85%|████████▍ | 212/250 [14:33<02:22,  3.74s/it]Train NLL: 8.574, Val NLL: 8.634:  85%|████████▌ | 213/250 [14:37<02:16,  3.68s/it]Train NLL: 8.574, Val NLL: 8.634:  86%|████████▌ | 214/250 [14:41<02:14,  3.73s/it]Train NLL: 8.574, Val NLL: 8.634:  86%|████████▌ | 215/250 [14:44<02:10,  3.72s/it]Train NLL: 8.574, Val NLL: 8.634:  86%|████████▋ | 216/250 [14:48<02:05,  3.69s/it]Train NLL: 8.574, Val NLL: 8.634:  87%|████████▋ | 217/250 [14:52<02:03,  3.74s/it]Train NLL: 8.574, Val NLL: 8.634:  87%|████████▋ | 218/250 [14:55<01:57,  3.68s/it]Train NLL: 8.574, Val NLL: 8.634:  88%|████████▊ | 219/250 [14:59<01:53,  3.67s/it]Train NLL: 8.574, Val NLL: 8.634:  88%|████████▊ | 220/250 [15:03<01:53,  3.80s/it]Train NLL: 8.574, Val NLL: 8.634:  88%|████████▊ | 221/250 [15:07<01:48,  3.73s/it]Train NLL: 8.574, Val NLL: 8.634:  89%|████████▉ | 222/250 [15:10<01:45,  3.75s/it]Train NLL: 8.574, Val NLL: 8.634:  89%|████████▉ | 223/250 [15:15<01:49,  4.04s/it]Train NLL: 8.574, Val NLL: 8.634:  90%|████████▉ | 224/250 [15:19<01:46,  4.09s/it]Train NLL: 8.574, Val NLL: 8.634:  90%|█████████ | 225/250 [15:23<01:41,  4.04s/it]Train NLL: 8.574, Val NLL: 8.634:  90%|█████████ | 226/250 [15:27<01:33,  3.92s/it]Train NLL: 8.574, Val NLL: 8.634:  91%|█████████ | 227/250 [15:31<01:28,  3.84s/it]Train NLL: 8.574, Val NLL: 8.634:  91%|█████████ | 228/250 [15:34<01:24,  3.83s/it]Train NLL: 8.574, Val NLL: 8.634:  92%|█████████▏| 229/250 [15:38<01:19,  3.79s/it]Train NLL: 8.574, Val NLL: 8.634:  92%|█████████▏| 230/250 [15:42<01:19,  3.95s/it]Train NLL: 8.574, Val NLL: 8.634:  92%|█████████▏| 231/250 [15:46<01:13,  3.89s/it]Train NLL: 8.574, Val NLL: 8.634:  93%|█████████▎| 232/250 [15:50<01:08,  3.81s/it]Train NLL: 8.574, Val NLL: 8.634:  93%|█████████▎| 233/250 [15:54<01:06,  3.91s/it]Train NLL: 8.574, Val NLL: 8.634:  94%|█████████▎| 234/250 [15:58<01:01,  3.84s/it]Train NLL: 8.574, Val NLL: 8.634:  94%|█████████▍| 235/250 [16:02<00:58,  3.90s/it]Train NLL: 8.574, Val NLL: 8.634:  94%|█████████▍| 236/250 [16:05<00:54,  3.86s/it]Train NLL: 8.574, Val NLL: 8.634:  95%|█████████▍| 237/250 [16:09<00:49,  3.80s/it]Train NLL: 8.574, Val NLL: 8.634:  95%|█████████▌| 238/250 [16:13<00:46,  3.86s/it]Train NLL: 8.574, Val NLL: 8.634:  96%|█████████▌| 239/250 [16:17<00:43,  3.93s/it]Train NLL: 8.574, Val NLL: 8.634:  96%|█████████▌| 240/250 [16:22<00:42,  4.26s/it]Train NLL: 8.574, Val NLL: 8.634:  96%|█████████▋| 241/250 [16:26<00:38,  4.23s/it]Train NLL: 8.574, Val NLL: 8.634:  97%|█████████▋| 242/250 [16:31<00:35,  4.40s/it]Train NLL: 8.574, Val NLL: 8.634:  97%|█████████▋| 243/250 [16:36<00:30,  4.39s/it]Train NLL: 8.574, Val NLL: 8.634:  98%|█████████▊| 244/250 [16:40<00:26,  4.39s/it]Train NLL: 8.574, Val NLL: 8.634:  98%|█████████▊| 245/250 [16:45<00:22,  4.55s/it]Train NLL: 8.574, Val NLL: 8.634:  98%|█████████▊| 246/250 [16:50<00:18,  4.67s/it]Train NLL: 8.574, Val NLL: 8.634:  99%|█████████▉| 247/250 [16:54<00:14,  4.67s/it]Train NLL: 8.574, Val NLL: 8.634:  99%|█████████▉| 248/250 [16:58<00:08,  4.48s/it]Train NLL: 8.574, Val NLL: 8.634: 100%|█████████▉| 249/250 [17:03<00:04,  4.35s/it]Train NLL: 8.574, Val NLL: 8.634: 100%|██████████| 250/250 [17:06<00:00,  4.18s/it]Train NLL: 8.574, Val NLL: 8.634: 100%|██████████| 250/250 [17:06<00:00,  4.11s/it]
INFO - residual_nf - Completed after 0:17:09
