INFO - maf_vae - Running command 'run'
INFO - maf_vae - Started run with ID "1"
  0%|          | 0/400 [00:00<?, ?it/s]Train -ELBO: 20.559, Val -ELBO: 18.302:   1%|          | 3/400 [00:01<02:22,  2.78it/s]Train -ELBO: 18.606, Val -ELBO: 16.911:   2%|▏         | 9/400 [00:02<01:29,  4.35it/s]Train -ELBO: 17.298, Val -ELBO: 16.254:   4%|▍         | 15/400 [00:03<01:20,  4.78it/s]Train -ELBO: 16.763, Val -ELBO: 15.963:   5%|▌         | 21/400 [00:04<01:13,  5.18it/s]Train -ELBO: 15.992, Val -ELBO: 15.857:   7%|▋         | 27/400 [00:05<01:08,  5.42it/s]Train -ELBO: 16.208, Val -ELBO: 15.782:   8%|▊         | 33/400 [00:06<01:05,  5.56it/s]Train -ELBO: 15.575, Val -ELBO: 15.712:  10%|▉         | 39/400 [00:07<01:03,  5.66it/s]Train -ELBO: 15.722, Val -ELBO: 15.560:  11%|█▏        | 45/400 [00:08<01:02,  5.72it/s]Train -ELBO: 15.516, Val -ELBO: 15.430:  13%|█▎        | 51/400 [00:09<01:00,  5.76it/s]Train -ELBO: 15.653, Val -ELBO: 15.241:  14%|█▍        | 57/400 [00:10<00:59,  5.79it/s]Train -ELBO: 15.628, Val -ELBO: 15.143:  16%|█▌        | 63/400 [00:11<00:59,  5.64it/s]Train -ELBO: 15.085, Val -ELBO: 15.035:  17%|█▋        | 69/400 [00:12<00:58,  5.69it/s]Train -ELBO: 14.845, Val -ELBO: 14.998:  19%|█▉        | 75/400 [00:13<00:56,  5.72it/s]Train -ELBO: 14.177, Val -ELBO: 14.803:  20%|██        | 81/400 [00:14<00:55,  5.76it/s]Epoch    85: reducing learning rate of group 0 to 1.0000e-04.
Train -ELBO: 14.307, Val -ELBO: 14.658:  22%|██▏       | 87/400 [00:15<00:54,  5.79it/s]Train -ELBO: 14.161, Val -ELBO: 14.664:  23%|██▎       | 93/400 [00:16<00:52,  5.81it/s]Train -ELBO: 14.213, Val -ELBO: 14.540:  25%|██▍       | 99/400 [00:17<00:51,  5.83it/s]Train -ELBO: 14.273, Val -ELBO: 14.660:  26%|██▋       | 105/400 [00:18<00:50,  5.83it/s]Train -ELBO: 14.443, Val -ELBO: 14.595:  28%|██▊       | 111/400 [00:19<00:49,  5.84it/s]Train -ELBO: 14.096, Val -ELBO: 14.641:  29%|██▉       | 117/400 [00:20<00:48,  5.85it/s]Train -ELBO: 13.858, Val -ELBO: 14.574:  31%|███       | 123/400 [00:21<00:47,  5.85it/s]Train -ELBO: 14.384, Val -ELBO: 14.554:  32%|███▏      | 129/400 [00:22<00:46,  5.86it/s]Train -ELBO: 13.672, Val -ELBO: 14.563:  34%|███▍      | 135/400 [00:23<00:45,  5.84it/s]Train -ELBO: 14.076, Val -ELBO: 14.600:  35%|███▌      | 141/400 [00:25<00:45,  5.74it/s]Epoch   142: reducing learning rate of group 0 to 1.0000e-05.
Train -ELBO: 13.857, Val -ELBO: 14.580:  37%|███▋      | 147/400 [00:26<00:45,  5.62it/s]Train -ELBO: 14.274, Val -ELBO: 14.547:  38%|███▊      | 153/400 [00:27<00:43,  5.69it/s]Train -ELBO: 14.255, Val -ELBO: 14.569:  40%|███▉      | 159/400 [00:28<00:42,  5.64it/s]Train -ELBO: 13.631, Val -ELBO: 14.600:  41%|████▏     | 165/400 [00:29<00:41,  5.68it/s]Train -ELBO: 13.820, Val -ELBO: 14.538:  43%|████▎     | 171/400 [00:30<00:40,  5.60it/s]Train -ELBO: 13.983, Val -ELBO: 14.598:  44%|████▍     | 177/400 [00:31<00:40,  5.52it/s]Train -ELBO: 14.080, Val -ELBO: 14.609:  46%|████▌     | 183/400 [00:32<00:39,  5.47it/s]Train -ELBO: 13.765, Val -ELBO: 14.510:  47%|████▋     | 189/400 [00:33<00:38,  5.55it/s]Train -ELBO: 14.183, Val -ELBO: 14.613:  49%|████▉     | 195/400 [00:34<00:36,  5.61it/s]Epoch   200: reducing learning rate of group 0 to 1.0000e-06.
Train -ELBO: 13.800, Val -ELBO: 14.511:  50%|█████     | 201/400 [00:35<00:35,  5.68it/s]Train -ELBO: 13.831, Val -ELBO: 14.608:  52%|█████▏    | 207/400 [00:36<00:33,  5.75it/s]Train -ELBO: 13.755, Val -ELBO: 14.636:  53%|█████▎    | 213/400 [00:37<00:32,  5.80it/s]Train -ELBO: 13.633, Val -ELBO: 14.587:  55%|█████▍    | 219/400 [00:38<00:31,  5.83it/s]Train -ELBO: 13.896, Val -ELBO: 14.582:  56%|█████▋    | 225/400 [00:39<00:29,  5.85it/s]Train -ELBO: 13.895, Val -ELBO: 14.623:  58%|█████▊    | 231/400 [00:40<00:28,  5.87it/s]Train -ELBO: 13.785, Val -ELBO: 14.541:  59%|█████▉    | 237/400 [00:41<00:27,  5.89it/s]Train -ELBO: 13.636, Val -ELBO: 14.562:  61%|██████    | 243/400 [00:42<00:26,  5.85it/s]Train -ELBO: 13.816, Val -ELBO: 14.578:  62%|██████▏   | 249/400 [00:43<00:25,  5.84it/s]Train -ELBO: 13.730, Val -ELBO: 14.567:  64%|██████▍   | 255/400 [00:44<00:24,  5.85it/s]Train -ELBO: 13.650, Val -ELBO: 14.562:  65%|██████▌   | 261/400 [00:45<00:23,  5.87it/s]Train -ELBO: 14.197, Val -ELBO: 14.484:  67%|██████▋   | 267/400 [00:46<00:22,  5.89it/s]Train -ELBO: 14.302, Val -ELBO: 14.629:  68%|██████▊   | 273/400 [00:47<00:21,  5.88it/s]Train -ELBO: 14.075, Val -ELBO: 14.556:  70%|██████▉   | 279/400 [00:49<00:20,  5.89it/s]Train -ELBO: 13.965, Val -ELBO: 14.652:  71%|███████▏  | 285/400 [00:50<00:19,  5.90it/s]Train -ELBO: 14.025, Val -ELBO: 14.536:  73%|███████▎  | 291/400 [00:51<00:19,  5.70it/s]Train -ELBO: 13.906, Val -ELBO: 14.624:  74%|███████▍  | 297/400 [00:52<00:17,  5.76it/s]Train -ELBO: 14.231, Val -ELBO: 14.472:  76%|███████▌  | 303/400 [00:53<00:16,  5.77it/s]Train -ELBO: 13.781, Val -ELBO: 14.608:  77%|███████▋  | 309/400 [00:54<00:15,  5.80it/s]Train -ELBO: 13.640, Val -ELBO: 14.577:  79%|███████▉  | 315/400 [00:55<00:14,  5.82it/s]Train -ELBO: 14.154, Val -ELBO: 14.514:  80%|████████  | 321/400 [00:56<00:13,  5.83it/s]Train -ELBO: 14.491, Val -ELBO: 14.518:  82%|████████▏ | 327/400 [00:57<00:12,  5.73it/s]Train -ELBO: 13.798, Val -ELBO: 14.571:  83%|████████▎ | 333/400 [00:58<00:11,  5.74it/s]Train -ELBO: 14.191, Val -ELBO: 14.666:  85%|████████▍ | 339/400 [00:59<00:10,  5.72it/s]Train -ELBO: 13.792, Val -ELBO: 14.569:  86%|████████▋ | 345/400 [01:00<00:09,  5.76it/s]Train -ELBO: 14.008, Val -ELBO: 14.606:  88%|████████▊ | 351/400 [01:01<00:08,  5.78it/s]Train -ELBO: 14.322, Val -ELBO: 14.617:  89%|████████▉ | 357/400 [01:02<00:07,  5.80it/s]Train -ELBO: 13.914, Val -ELBO: 14.566:  91%|█████████ | 363/400 [01:03<00:06,  5.74it/s]Train -ELBO: 13.988, Val -ELBO: 14.620:  92%|█████████▏| 369/400 [01:04<00:05,  5.67it/s]Train -ELBO: 13.951, Val -ELBO: 14.518:  94%|█████████▍| 375/400 [01:05<00:04,  5.63it/s]Train -ELBO: 13.949, Val -ELBO: 14.585:  95%|█████████▌| 381/400 [01:06<00:03,  5.60it/s]Train -ELBO: 14.090, Val -ELBO: 14.563:  97%|█████████▋| 387/400 [01:07<00:02,  5.60it/s]Train -ELBO: 14.354, Val -ELBO: 14.523:  98%|█████████▊| 393/400 [01:08<00:01,  5.64it/s]Train -ELBO: 13.816, Val -ELBO: 14.558: 100%|█████████▉| 399/400 [01:10<00:00,  5.57it/s]Train -ELBO: 13.909, Val -ELBO: 14.549: 100%|██████████| 400/400 [01:10<00:00,  5.69it/s]
