{
  "memory.usage": {
    "steps": [
      0,
      1,
      2,
      3,
      4,
      5,
      6,
      7,
      8,
      9,
      10,
      11,
      12,
      13,
      14,
      15,
      16,
      17,
      18,
      19,
      20,
      21,
      22,
      23,
      24,
      25,
      26,
      27,
      28,
      29,
      30,
      31,
      32,
      33,
      34,
      35,
      36,
      37,
      38,
      39,
      40,
      41,
      42,
      43,
      44,
      45,
      46,
      47,
      48,
      49,
      50,
      51,
      52,
      53,
      54,
      55,
      56,
      57,
      58,
      59,
      60,
      61,
      62,
      63,
      64,
      65,
      66,
      67,
      68,
      69,
      70,
      71,
      72,
      73,
      74,
      75,
      76,
      77,
      78,
      79,
      80,
      81,
      82,
      83,
      84,
      85,
      86,
      87,
      88,
      89,
      90,
      91,
      92,
      93,
      94,
      95,
      96,
      97,
      98,
      99,
      100,
      101,
      102,
      103,
      104,
      105,
      106,
      107,
      108,
      109,
      110,
      111,
      112,
      113,
      114,
      115,
      116,
      117,
      118,
      119,
      120,
      121,
      122,
      123,
      124,
      125,
      126,
      127,
      128,
      129,
      130,
      131,
      132,
      133,
      134,
      135,
      136,
      137,
      138,
      139,
      140,
      141,
      142,
      143,
      144,
      145,
      146,
      147,
      148,
      149,
      150,
      151,
      152,
      153,
      154,
      155,
      156,
      157,
      158,
      159,
      160,
      161,
      162,
      163,
      164,
      165,
      166,
      167,
      168,
      169,
      170,
      171,
      172,
      173,
      174,
      175,
      176,
      177,
      178,
      179,
      180,
      181,
      182,
      183,
      184,
      185,
      186,
      187,
      188,
      189,
      190,
      191,
      192,
      193,
      194,
      195,
      196,
      197,
      198,
      199
    ],
    "timestamps": [
      "2022-08-31T07:29:47.770570",
      "2022-08-31T07:29:50.857958",
      "2022-08-31T07:29:53.973905",
      "2022-08-31T07:29:57.093318",
      "2022-08-31T07:30:00.179356",
      "2022-08-31T07:30:03.289741",
      "2022-08-31T07:30:06.430618",
      "2022-08-31T07:30:09.513449",
      "2022-08-31T07:30:12.652743",
      "2022-08-31T07:30:15.821620",
      "2022-08-31T07:30:18.948667",
      "2022-08-31T07:30:22.048043",
      "2022-08-31T07:30:25.184987",
      "2022-08-31T07:30:28.275753",
      "2022-08-31T07:30:31.365026",
      "2022-08-31T07:30:34.551533",
      "2022-08-31T07:30:37.641467",
      "2022-08-31T07:30:40.741850",
      "2022-08-31T07:30:43.863888",
      "2022-08-31T07:30:46.977720",
      "2022-08-31T07:30:50.125243",
      "2022-08-31T07:30:53.208922",
      "2022-08-31T07:30:56.334005",
      "2022-08-31T07:30:59.421967",
      "2022-08-31T07:31:02.505701",
      "2022-08-31T07:31:05.668366",
      "2022-08-31T07:31:08.757568",
      "2022-08-31T07:31:11.855801",
      "2022-08-31T07:31:14.994209",
      "2022-08-31T07:31:18.082428",
      "2022-08-31T07:31:21.227245",
      "2022-08-31T07:31:24.315672",
      "2022-08-31T07:31:27.473812",
      "2022-08-31T07:31:30.562491",
      "2022-08-31T07:31:33.678724",
      "2022-08-31T07:31:36.795336",
      "2022-08-31T07:31:39.896236",
      "2022-08-31T07:31:43.006320",
      "2022-08-31T07:31:46.160095",
      "2022-08-31T07:31:49.259062",
      "2022-08-31T07:31:52.432456",
      "2022-08-31T07:31:55.530943",
      "2022-08-31T07:31:58.718854",
      "2022-08-31T07:32:01.805253",
      "2022-08-31T07:32:04.934601",
      "2022-08-31T07:32:08.038396",
      "2022-08-31T07:32:11.164198",
      "2022-08-31T07:32:14.302150",
      "2022-08-31T07:32:17.393881",
      "2022-08-31T07:32:20.479051",
      "2022-08-31T07:32:23.612142",
      "2022-08-31T07:32:26.701165",
      "2022-08-31T07:32:29.869300",
      "2022-08-31T07:32:32.947972",
      "2022-08-31T07:32:36.073494",
      "2022-08-31T07:32:39.160483",
      "2022-08-31T07:32:42.242483",
      "2022-08-31T07:32:45.415589",
      "2022-08-31T07:32:48.508429",
      "2022-08-31T07:32:51.591752",
      "2022-08-31T07:32:54.758607",
      "2022-08-31T07:32:57.853090",
      "2022-08-31T07:33:00.947112",
      "2022-08-31T07:33:04.067264",
      "2022-08-31T07:33:07.178977",
      "2022-08-31T07:33:10.279601",
      "2022-08-31T07:33:13.394003",
      "2022-08-31T07:33:16.498970",
      "2022-08-31T07:33:19.580240",
      "2022-08-31T07:33:22.670814",
      "2022-08-31T07:33:25.830198",
      "2022-08-31T07:33:28.920789",
      "2022-08-31T07:33:32.007273",
      "2022-08-31T07:33:35.171241",
      "2022-08-31T07:33:38.263917",
      "2022-08-31T07:33:41.346201",
      "2022-08-31T07:33:44.520172",
      "2022-08-31T07:33:47.604587",
      "2022-08-31T07:33:50.686504",
      "2022-08-31T07:33:53.806770",
      "2022-08-31T07:33:56.961104",
      "2022-08-31T07:34:00.101147",
      "2022-08-31T07:34:03.187617",
      "2022-08-31T07:34:06.311433",
      "2022-08-31T07:34:09.402144",
      "2022-08-31T07:34:12.492855",
      "2022-08-31T07:34:15.640923",
      "2022-08-31T07:34:18.720971",
      "2022-08-31T07:34:21.802083",
      "2022-08-31T07:34:25.003146",
      "2022-08-31T07:34:28.099671",
      "2022-08-31T07:34:31.230890",
      "2022-08-31T07:34:34.360255",
      "2022-08-31T07:34:37.481460",
      "2022-08-31T07:34:40.565895",
      "2022-08-31T07:34:43.693400",
      "2022-08-31T07:34:46.808743",
      "2022-08-31T07:34:49.897426",
      "2022-08-31T07:34:52.991363",
      "2022-08-31T07:34:56.144434",
      "2022-08-31T07:34:59.264424",
      "2022-08-31T07:35:02.394020",
      "2022-08-31T07:35:05.537457",
      "2022-08-31T07:35:08.627829",
      "2022-08-31T07:35:11.718749",
      "2022-08-31T07:35:14.878747",
      "2022-08-31T07:35:17.961655",
      "2022-08-31T07:35:21.051553",
      "2022-08-31T07:35:24.178319",
      "2022-08-31T07:35:27.283865",
      "2022-08-31T07:35:30.451915",
      "2022-08-31T07:35:33.543191",
      "2022-08-31T07:35:36.661669",
      "2022-08-31T07:35:39.752692",
      "2022-08-31T07:35:42.846478",
      "2022-08-31T07:35:46.005856",
      "2022-08-31T07:35:49.090751",
      "2022-08-31T07:35:52.171903",
      "2022-08-31T07:35:55.338057",
      "2022-08-31T07:35:58.420993",
      "2022-08-31T07:36:01.571534",
      "2022-08-31T07:36:04.673804",
      "2022-08-31T07:36:07.810307",
      "2022-08-31T07:36:10.900832",
      "2022-08-31T07:36:14.025013",
      "2022-08-31T07:36:17.133544",
      "2022-08-31T07:36:20.223743",
      "2022-08-31T07:36:23.317189",
      "2022-08-31T07:36:26.483803",
      "2022-08-31T07:36:29.568740",
      "2022-08-31T07:36:32.714209",
      "2022-08-31T07:36:35.795893",
      "2022-08-31T07:36:38.957127",
      "2022-08-31T07:36:42.045905",
      "2022-08-31T07:36:45.186160",
      "2022-08-31T07:36:48.297019",
      "2022-08-31T07:36:51.385727",
      "2022-08-31T07:36:54.538507",
      "2022-08-31T07:36:57.622534",
      "2022-08-31T07:37:00.706245",
      "2022-08-31T07:37:03.864130",
      "2022-08-31T07:37:06.949436",
      "2022-08-31T07:37:10.107124",
      "2022-08-31T07:37:13.189002",
      "2022-08-31T07:37:16.321897",
      "2022-08-31T07:37:19.414490",
      "2022-08-31T07:37:22.510536",
      "2022-08-31T07:37:25.659798",
      "2022-08-31T07:37:28.747192",
      "2022-08-31T07:37:31.830193",
      "2022-08-31T07:37:34.994334",
      "2022-08-31T07:37:38.087796",
      "2022-08-31T07:37:41.187244",
      "2022-08-31T07:37:44.326896",
      "2022-08-31T07:37:47.444872",
      "2022-08-31T07:37:50.536420",
      "2022-08-31T07:37:53.647951",
      "2022-08-31T07:37:56.773669",
      "2022-08-31T07:37:59.867810",
      "2022-08-31T07:38:02.952471",
      "2022-08-31T07:38:06.097864",
      "2022-08-31T07:38:09.187843",
      "2022-08-31T07:38:12.274986",
      "2022-08-31T07:38:15.434178",
      "2022-08-31T07:38:18.517386",
      "2022-08-31T07:38:21.611567",
      "2022-08-31T07:38:24.735685",
      "2022-08-31T07:38:27.824750",
      "2022-08-31T07:38:30.915816",
      "2022-08-31T07:38:34.064157",
      "2022-08-31T07:38:37.190897",
      "2022-08-31T07:38:40.339603",
      "2022-08-31T07:38:43.438055",
      "2022-08-31T07:38:46.570114",
      "2022-08-31T07:38:49.664053",
      "2022-08-31T07:38:52.771227",
      "2022-08-31T07:38:55.915609",
      "2022-08-31T07:38:59.009943",
      "2022-08-31T07:39:02.094629",
      "2022-08-31T07:39:05.251345",
      "2022-08-31T07:39:08.350676",
      "2022-08-31T07:39:11.518907",
      "2022-08-31T07:39:14.645284",
      "2022-08-31T07:39:17.759073",
      "2022-08-31T07:39:20.842929",
      "2022-08-31T07:39:23.957545",
      "2022-08-31T07:39:27.084870",
      "2022-08-31T07:39:30.175132",
      "2022-08-31T07:39:33.267720",
      "2022-08-31T07:39:36.398707",
      "2022-08-31T07:39:39.530209",
      "2022-08-31T07:39:42.647152",
      "2022-08-31T07:39:45.796128",
      "2022-08-31T07:39:48.922102",
      "2022-08-31T07:39:52.024875",
      "2022-08-31T07:39:55.195244",
      "2022-08-31T07:39:58.289277",
      "2022-08-31T07:40:01.369496",
      "2022-08-31T07:40:04.531149",
      "2022-08-31T07:40:07.629283"
    ],
    "values": [
      3.720192,
      3.723264,
      3.723264,
      3.723264,
      3.723264,
      3.723264,
      3.723264,
      3.723264,
      3.723264,
      3.723264,
      3.723264,
      3.723264,
      3.723264,
      3.723264,
      3.723264,
      3.723264,
      3.723264,
      3.723264,
      3.723264,
      3.723264,
      3.723264,
      3.723264,
      3.723264,
      3.723264,
      3.723264,
      3.723264,
      3.723264,
      3.723264,
      3.723264,
      3.723264,
      3.723264,
      3.723264,
      3.723264,
      3.723264,
      3.723264,
      3.723264,
      3.723264,
      3.723264,
      3.723264,
      3.723264,
      3.723264,
      3.723264,
      3.723264,
      3.723264,
      3.723264,
      3.723264,
      3.723264,
      3.723264,
      3.723264,
      3.723264,
      3.723264,
      3.723264,
      3.723264,
      3.723264,
      3.723264,
      3.723264,
      3.723264,
      3.723264,
      3.723264,
      3.723264,
      3.723264,
      3.723264,
      3.723264,
      3.723264,
      3.723264,
      3.723264,
      3.723264,
      3.723264,
      3.723264,
      3.723264,
      3.723264,
      3.723264,
      3.723264,
      3.723264,
      3.723264,
      3.723264,
      3.723264,
      3.723264,
      3.723264,
      3.723264,
      3.723264,
      3.723264,
      3.723264,
      3.723264,
      3.723264,
      3.723264,
      3.723264,
      3.723264,
      3.723264,
      3.723264,
      3.723264,
      3.723264,
      3.723264,
      3.723264,
      3.723264,
      3.723264,
      3.723264,
      3.723264,
      3.723264,
      3.723264,
      3.723264,
      3.723264,
      3.723264,
      3.723264,
      3.723264,
      3.723264,
      3.723264,
      3.723264,
      3.723264,
      3.723264,
      3.723264,
      3.723264,
      3.723264,
      3.723264,
      3.723264,
      3.723264,
      3.723264,
      3.723264,
      3.723264,
      3.723264,
      3.723264,
      3.723264,
      3.723264,
      3.723264,
      3.723264,
      3.723264,
      3.723264,
      3.723264,
      3.723264,
      3.723264,
      3.723264,
      3.723264,
      3.723264,
      3.723264,
      3.723264,
      3.723264,
      3.723264,
      3.723264,
      3.723264,
      3.723264,
      3.723264,
      3.723264,
      3.723264,
      3.723264,
      3.723264,
      3.723264,
      3.723264,
      3.723264,
      3.723264,
      3.723264,
      3.723264,
      3.723264,
      3.723264,
      3.723264,
      3.723264,
      3.723264,
      3.723264,
      3.723264,
      3.723264,
      3.723264,
      3.723264,
      3.723264,
      3.723264,
      3.723264,
      3.723264,
      3.723264,
      3.723264,
      3.723264,
      3.723264,
      3.723264,
      3.723264,
      3.723264,
      3.723264,
      3.723264,
      3.723264,
      3.723264,
      3.723264,
      3.723264,
      3.723264,
      3.723264,
      3.723264,
      3.723264,
      3.723264,
      3.723264,
      3.723264,
      3.723264,
      3.723264,
      3.723264,
      3.723264,
      3.723264,
      3.723264,
      3.723264,
      3.723264,
      3.723264,
      3.723264,
      3.723264,
      3.723264,
      3.723264,
      3.723264,
      3.723264
    ]
  },
  "train": {
    "steps": [
      0,
      1,
      2,
      3,
      4,
      5,
      6,
      7,
      8,
      9,
      10,
      11,
      12,
      13,
      14,
      15,
      16,
      17,
      18,
      19,
      20,
      21,
      22,
      23,
      24,
      25,
      26,
      27,
      28,
      29,
      30,
      31,
      32,
      33,
      34,
      35,
      36,
      37,
      38,
      39,
      40,
      41,
      42,
      43,
      44,
      45,
      46,
      47,
      48,
      49,
      50,
      51,
      52,
      53,
      54,
      55,
      56,
      57,
      58,
      59,
      60,
      61,
      62,
      63,
      64,
      65,
      66,
      67,
      68,
      69,
      70,
      71,
      72,
      73,
      74,
      75,
      76,
      77,
      78,
      79,
      80,
      81,
      82,
      83,
      84,
      85,
      86,
      87,
      88,
      89,
      90,
      91,
      92,
      93,
      94,
      95,
      96,
      97,
      98,
      99,
      100,
      101,
      102,
      103,
      104,
      105,
      106,
      107,
      108,
      109,
      110,
      111,
      112,
      113,
      114,
      115,
      116,
      117,
      118,
      119,
      120,
      121,
      122,
      123,
      124,
      125,
      126,
      127,
      128,
      129,
      130,
      131,
      132,
      133,
      134,
      135,
      136,
      137,
      138,
      139,
      140,
      141,
      142,
      143,
      144,
      145,
      146,
      147,
      148,
      149,
      150,
      151,
      152,
      153,
      154,
      155,
      156,
      157,
      158,
      159,
      160,
      161,
      162,
      163,
      164,
      165,
      166,
      167,
      168,
      169,
      170,
      171,
      172,
      173,
      174,
      175,
      176,
      177,
      178,
      179,
      180,
      181,
      182,
      183,
      184,
      185,
      186,
      187,
      188,
      189,
      190,
      191,
      192,
      193,
      194,
      195,
      196,
      197,
      198,
      199
    ],
    "timestamps": [
      "2022-08-31T07:29:47.770438",
      "2022-08-31T07:29:50.857844",
      "2022-08-31T07:29:53.973785",
      "2022-08-31T07:29:57.093198",
      "2022-08-31T07:30:00.179220",
      "2022-08-31T07:30:03.289604",
      "2022-08-31T07:30:06.430507",
      "2022-08-31T07:30:09.513331",
      "2022-08-31T07:30:12.652635",
      "2022-08-31T07:30:15.821502",
      "2022-08-31T07:30:18.948545",
      "2022-08-31T07:30:22.047931",
      "2022-08-31T07:30:25.184879",
      "2022-08-31T07:30:28.275639",
      "2022-08-31T07:30:31.364917",
      "2022-08-31T07:30:34.551407",
      "2022-08-31T07:30:37.641358",
      "2022-08-31T07:30:40.741743",
      "2022-08-31T07:30:43.863769",
      "2022-08-31T07:30:46.977581",
      "2022-08-31T07:30:50.125133",
      "2022-08-31T07:30:53.208793",
      "2022-08-31T07:30:56.333893",
      "2022-08-31T07:30:59.421856",
      "2022-08-31T07:31:02.505591",
      "2022-08-31T07:31:05.668254",
      "2022-08-31T07:31:08.757449",
      "2022-08-31T07:31:11.855690",
      "2022-08-31T07:31:14.994097",
      "2022-08-31T07:31:18.082320",
      "2022-08-31T07:31:21.227129",
      "2022-08-31T07:31:24.315562",
      "2022-08-31T07:31:27.473699",
      "2022-08-31T07:31:30.562381",
      "2022-08-31T07:31:33.678600",
      "2022-08-31T07:31:36.795217",
      "2022-08-31T07:31:39.896125",
      "2022-08-31T07:31:43.006193",
      "2022-08-31T07:31:46.159985",
      "2022-08-31T07:31:49.258945",
      "2022-08-31T07:31:52.432343",
      "2022-08-31T07:31:55.530832",
      "2022-08-31T07:31:58.718742",
      "2022-08-31T07:32:01.805116",
      "2022-08-31T07:32:04.934482",
      "2022-08-31T07:32:08.038281",
      "2022-08-31T07:32:11.164086",
      "2022-08-31T07:32:14.301978",
      "2022-08-31T07:32:17.393770",
      "2022-08-31T07:32:20.478940",
      "2022-08-31T07:32:23.612029",
      "2022-08-31T07:32:26.701053",
      "2022-08-31T07:32:29.869188",
      "2022-08-31T07:32:32.947862",
      "2022-08-31T07:32:36.073380",
      "2022-08-31T07:32:39.160373",
      "2022-08-31T07:32:42.242376",
      "2022-08-31T07:32:45.415477",
      "2022-08-31T07:32:48.508304",
      "2022-08-31T07:32:51.591641",
      "2022-08-31T07:32:54.758479",
      "2022-08-31T07:32:57.852978",
      "2022-08-31T07:33:00.947001",
      "2022-08-31T07:33:04.067145",
      "2022-08-31T07:33:07.178866",
      "2022-08-31T07:33:10.279487",
      "2022-08-31T07:33:13.393868",
      "2022-08-31T07:33:16.498860",
      "2022-08-31T07:33:19.580128",
      "2022-08-31T07:33:22.670702",
      "2022-08-31T07:33:25.830085",
      "2022-08-31T07:33:28.920678",
      "2022-08-31T07:33:32.007157",
      "2022-08-31T07:33:35.171125",
      "2022-08-31T07:33:38.263795",
      "2022-08-31T07:33:41.346090",
      "2022-08-31T07:33:44.520054",
      "2022-08-31T07:33:47.604474",
      "2022-08-31T07:33:50.686393",
      "2022-08-31T07:33:53.806651",
      "2022-08-31T07:33:56.960986",
      "2022-08-31T07:34:00.101032",
      "2022-08-31T07:34:03.187496",
      "2022-08-31T07:34:06.311318",
      "2022-08-31T07:34:09.402030",
      "2022-08-31T07:34:12.492743",
      "2022-08-31T07:34:15.640810",
      "2022-08-31T07:34:18.720853",
      "2022-08-31T07:34:21.801964",
      "2022-08-31T07:34:25.003036",
      "2022-08-31T07:34:28.099558",
      "2022-08-31T07:34:31.230780",
      "2022-08-31T07:34:34.360131",
      "2022-08-31T07:34:37.481348",
      "2022-08-31T07:34:40.565782",
      "2022-08-31T07:34:43.693280",
      "2022-08-31T07:34:46.808627",
      "2022-08-31T07:34:49.897312",
      "2022-08-31T07:34:52.991227",
      "2022-08-31T07:34:56.144321",
      "2022-08-31T07:34:59.264297",
      "2022-08-31T07:35:02.393909",
      "2022-08-31T07:35:05.537338",
      "2022-08-31T07:35:08.627718",
      "2022-08-31T07:35:11.718638",
      "2022-08-31T07:35:14.878637",
      "2022-08-31T07:35:17.961544",
      "2022-08-31T07:35:21.051441",
      "2022-08-31T07:35:24.178191",
      "2022-08-31T07:35:27.283729",
      "2022-08-31T07:35:30.451796",
      "2022-08-31T07:35:33.543079",
      "2022-08-31T07:35:36.661557",
      "2022-08-31T07:35:39.752578",
      "2022-08-31T07:35:42.846363",
      "2022-08-31T07:35:46.005745",
      "2022-08-31T07:35:49.090641",
      "2022-08-31T07:35:52.171795",
      "2022-08-31T07:35:55.337923",
      "2022-08-31T07:35:58.420882",
      "2022-08-31T07:36:01.571419",
      "2022-08-31T07:36:04.673692",
      "2022-08-31T07:36:07.810182",
      "2022-08-31T07:36:10.900719",
      "2022-08-31T07:36:14.024874",
      "2022-08-31T07:36:17.133428",
      "2022-08-31T07:36:20.223631",
      "2022-08-31T07:36:23.317076",
      "2022-08-31T07:36:26.483693",
      "2022-08-31T07:36:29.568627",
      "2022-08-31T07:36:32.714098",
      "2022-08-31T07:36:35.795777",
      "2022-08-31T07:36:38.957012",
      "2022-08-31T07:36:42.045792",
      "2022-08-31T07:36:45.186023",
      "2022-08-31T07:36:48.296904",
      "2022-08-31T07:36:51.385615",
      "2022-08-31T07:36:54.538397",
      "2022-08-31T07:36:57.622424",
      "2022-08-31T07:37:00.706125",
      "2022-08-31T07:37:03.864018",
      "2022-08-31T07:37:06.949324",
      "2022-08-31T07:37:10.107013",
      "2022-08-31T07:37:13.188893",
      "2022-08-31T07:37:16.321786",
      "2022-08-31T07:37:19.414376",
      "2022-08-31T07:37:22.510422",
      "2022-08-31T07:37:25.659683",
      "2022-08-31T07:37:28.747079",
      "2022-08-31T07:37:31.830078",
      "2022-08-31T07:37:34.994209",
      "2022-08-31T07:37:38.087676",
      "2022-08-31T07:37:41.187133",
      "2022-08-31T07:37:44.326743",
      "2022-08-31T07:37:47.444759",
      "2022-08-31T07:37:50.536309",
      "2022-08-31T07:37:53.647819",
      "2022-08-31T07:37:56.773555",
      "2022-08-31T07:37:59.867701",
      "2022-08-31T07:38:02.952360",
      "2022-08-31T07:38:06.097748",
      "2022-08-31T07:38:09.187722",
      "2022-08-31T07:38:12.274872",
      "2022-08-31T07:38:15.434051",
      "2022-08-31T07:38:18.517268",
      "2022-08-31T07:38:21.611453",
      "2022-08-31T07:38:24.735574",
      "2022-08-31T07:38:27.824632",
      "2022-08-31T07:38:30.915704",
      "2022-08-31T07:38:34.064036",
      "2022-08-31T07:38:37.190782",
      "2022-08-31T07:38:40.339487",
      "2022-08-31T07:38:43.437941",
      "2022-08-31T07:38:46.570001",
      "2022-08-31T07:38:49.663935",
      "2022-08-31T07:38:52.771075",
      "2022-08-31T07:38:55.915493",
      "2022-08-31T07:38:59.009823",
      "2022-08-31T07:39:02.094513",
      "2022-08-31T07:39:05.251232",
      "2022-08-31T07:39:08.350555",
      "2022-08-31T07:39:11.518791",
      "2022-08-31T07:39:14.645143",
      "2022-08-31T07:39:17.758956",
      "2022-08-31T07:39:20.842811",
      "2022-08-31T07:39:23.957413",
      "2022-08-31T07:39:27.084760",
      "2022-08-31T07:39:30.174999",
      "2022-08-31T07:39:33.267598",
      "2022-08-31T07:39:36.398597",
      "2022-08-31T07:39:39.529976",
      "2022-08-31T07:39:42.647041",
      "2022-08-31T07:39:45.796010",
      "2022-08-31T07:39:48.921991",
      "2022-08-31T07:39:52.024766",
      "2022-08-31T07:39:55.195132",
      "2022-08-31T07:39:58.289161",
      "2022-08-31T07:40:01.369385",
      "2022-08-31T07:40:04.531033",
      "2022-08-31T07:40:07.629172"
    ],
    "values": [
      3.00389568567276,
      2.1522754299640656,
      2.0565387916564943,
      1.9945477366447448,
      2.0017970311641693,
      1.980483809709549,
      1.9379813885688781,
      1.9387431299686433,
      1.9136583054065703,
      1.8958577239513397,
      1.8842372930049895,
      1.8783183109760284,
      1.884321004152298,
      1.9193366110324859,
      1.843298852443695,
      1.8499284267425538,
      1.888856019973755,
      1.8743595325946807,
      1.8935672068595886,
      1.8766106677055359,
      1.8571993613243103,
      1.8528343343734741,
      1.8378427720069885,
      1.8493596708774567,
      1.860238699913025,
      1.8456962823867797,
      1.8655664908885956,
      1.8513528418540954,
      1.8282492566108703,
      1.8346839582920074,
      1.8165363216400146,
      1.809467853307724,
      1.830360962152481,
      1.8293476605415344,
      1.8192320156097412,
      1.842338614463806,
      1.8225068485736846,
      1.8336147379875183,
      1.8484883952140807,
      1.8343988382816314,
      1.8278258371353149,
      1.8072657632827758,
      1.8053826868534089,
      1.814740048646927,
      1.820575853586197,
      1.8335835075378417,
      1.8269221270084381,
      1.8103216457366944,
      1.8553403282165528,
      1.8242072594165801,
      1.8348770999908448,
      1.8295762836933136,
      1.806006326675415,
      1.808020578622818,
      1.818687869310379,
      1.7938832068443298,
      1.8117272901535033,
      1.811153197288513,
      1.8258532655239106,
      1.8108512699604034,
      1.8038689112663269,
      1.81571475982666,
      1.8165520250797271,
      1.8127664005756379,
      1.8229215693473817,
      1.812424339056015,
      1.8102997708320618,
      1.8186249256134033,
      1.8247985172271728,
      1.8239685845375062,
      1.790984013080597,
      1.7970892512798309,
      1.7998950958251954,
      1.8201820838451386,
      1.8017768454551697,
      1.8148006987571716,
      1.792642627954483,
      1.8129803323745728,
      1.7957631385326385,
      1.8047930800914764,
      1.798617672920227,
      1.8234729826450349,
      1.7907488214969636,
      1.8392354083061218,
      1.7919272434711457,
      1.7951305890083313,
      1.8209483468532561,
      1.8271189951896667,
      1.8048629415035249,
      1.7975949954986572,
      1.7983878064155578,
      1.79755074262619,
      1.8076987326145173,
      1.792920423746109,
      1.8006171333789824,
      1.8150893604755403,
      1.807722327709198,
      1.7914733517169952,
      1.7967150688171387,
      1.7990052270889283,
      1.7986142182350158,
      1.804895386695862,
      1.804800410270691,
      1.8026082360744475,
      1.7501249754428863,
      1.734747611284256,
      1.7308916139602661,
      1.7251072573661803,
      1.7320181655883788,
      1.7233035969734192,
      1.7196152007579804,
      1.7232227146625518,
      1.7226669490337372,
      1.724755527973175,
      1.7324656701087953,
      1.7126617157459259,
      1.723691543340683,
      1.7127909135818482,
      1.7183373272418976,
      1.715072958469391,
      1.7188949978351593,
      1.719132432937622,
      1.7163060808181763,
      1.7208248579502106,
      1.723515032529831,
      1.717333070039749,
      1.721173676252365,
      1.7178054928779602,
      1.7182448208332062,
      1.7174763512611388,
      1.7151777637004852,
      1.717324641942978,
      1.7132896530628203,
      1.715796617269516,
      1.7130359768867494,
      1.7155145168304444,
      1.723180559873581,
      1.709929654598236,
      1.7069303035736083,
      1.710411866903305,
      1.7072624552249909,
      1.7001708662509918,
      1.7104557299613952,
      1.7026988792419433,
      1.7077238476276397,
      1.7061430716514587,
      1.706778769493103,
      1.7127511620521545,
      1.7097546637058259,
      1.7048026967048644,
      1.7090638184547424,
      1.715732181072235,
      1.7043625342845916,
      1.7136551904678345,
      1.7036899542808532,
      1.7075076234340667,
      1.7001884222030639,
      1.7070883786678315,
      1.7093218338489533,
      1.7030631005764008,
      1.7053718888759613,
      1.7009578382968902,
      1.7079180073738098,
      1.7080573010444642,
      1.703462427854538,
      1.7040706753730774,
      1.7061169528961182,
      1.704177588224411,
      1.7015658485889436,
      1.702427886724472,
      1.7052300071716309,
      1.7098558712005616,
      1.7008840584754943,
      1.7101269340515137,
      1.7087882053852081,
      1.706827882528305,
      1.7071890461444854,
      1.7057883608341218,
      1.7106142842769623,
      1.709701236486435,
      1.7073037147521972,
      1.7056426882743836,
      1.7076229059696197,
      1.7065213179588319,
      1.7049127912521362,
      1.7100763750076293,
      1.7062846803665161,
      1.714380043745041,
      1.7075919270515443,
      1.7074874007701875,
      1.7076675772666932,
      1.7084610569477081,
      1.7094618570804596,
      1.7018826448917388,
      1.7045729506015777,
      1.7079793179035188,
      1.698296834230423,
      1.703450666666031,
      1.7057130134105682,
      1.7019834232330322
    ]
  },
  "val": {
    "steps": [
      0,
      1,
      2,
      3,
      4,
      5,
      6,
      7,
      8,
      9,
      10,
      11,
      12,
      13,
      14,
      15,
      16,
      17,
      18,
      19,
      20,
      21,
      22,
      23,
      24,
      25,
      26,
      27,
      28,
      29,
      30,
      31,
      32,
      33,
      34,
      35,
      36,
      37,
      38,
      39,
      40,
      41,
      42,
      43,
      44,
      45,
      46,
      47,
      48,
      49,
      50,
      51,
      52,
      53,
      54,
      55,
      56,
      57,
      58,
      59,
      60,
      61,
      62,
      63,
      64,
      65,
      66,
      67,
      68,
      69,
      70,
      71,
      72,
      73,
      74,
      75,
      76,
      77,
      78,
      79,
      80,
      81,
      82,
      83,
      84,
      85,
      86,
      87,
      88,
      89,
      90,
      91,
      92,
      93,
      94,
      95,
      96,
      97,
      98,
      99,
      100,
      101,
      102,
      103,
      104,
      105,
      106,
      107,
      108,
      109,
      110,
      111,
      112,
      113,
      114,
      115,
      116,
      117,
      118,
      119,
      120,
      121,
      122,
      123,
      124,
      125,
      126,
      127,
      128,
      129,
      130,
      131,
      132,
      133,
      134,
      135,
      136,
      137,
      138,
      139,
      140,
      141,
      142,
      143,
      144,
      145,
      146,
      147,
      148,
      149,
      150,
      151,
      152,
      153,
      154,
      155,
      156,
      157,
      158,
      159,
      160,
      161,
      162,
      163,
      164,
      165,
      166,
      167,
      168,
      169,
      170,
      171,
      172,
      173,
      174,
      175,
      176,
      177,
      178,
      179,
      180,
      181,
      182,
      183,
      184,
      185,
      186,
      187,
      188,
      189,
      190,
      191,
      192,
      193,
      194,
      195,
      196,
      197,
      198,
      199
    ],
    "timestamps": [
      "2022-08-31T07:29:48.156206",
      "2022-08-31T07:29:51.244474",
      "2022-08-31T07:29:54.382978",
      "2022-08-31T07:29:57.479503",
      "2022-08-31T07:30:00.565685",
      "2022-08-31T07:30:03.686253",
      "2022-08-31T07:30:06.815973",
      "2022-08-31T07:30:09.906725",
      "2022-08-31T07:30:13.040054",
      "2022-08-31T07:30:16.209898",
      "2022-08-31T07:30:19.336910",
      "2022-08-31T07:30:22.437611",
      "2022-08-31T07:30:25.574392",
      "2022-08-31T07:30:28.663920",
      "2022-08-31T07:30:31.752071",
      "2022-08-31T07:30:34.939428",
      "2022-08-31T07:30:38.029634",
      "2022-08-31T07:30:41.130953",
      "2022-08-31T07:30:44.265691",
      "2022-08-31T07:30:47.364514",
      "2022-08-31T07:30:50.513027",
      "2022-08-31T07:30:53.598051",
      "2022-08-31T07:30:56.721050",
      "2022-08-31T07:30:59.809055",
      "2022-08-31T07:31:02.892639",
      "2022-08-31T07:31:06.054260",
      "2022-08-31T07:31:09.158738",
      "2022-08-31T07:31:12.245409",
      "2022-08-31T07:31:15.383324",
      "2022-08-31T07:31:18.471193",
      "2022-08-31T07:31:21.613091",
      "2022-08-31T07:31:24.701372",
      "2022-08-31T07:31:27.862059",
      "2022-08-31T07:31:30.948714",
      "2022-08-31T07:31:34.069377",
      "2022-08-31T07:31:37.183018",
      "2022-08-31T07:31:40.283351",
      "2022-08-31T07:31:43.400224",
      "2022-08-31T07:31:46.547828",
      "2022-08-31T07:31:49.646998",
      "2022-08-31T07:31:52.821658",
      "2022-08-31T07:31:55.976617",
      "2022-08-31T07:31:59.105152",
      "2022-08-31T07:32:02.191885",
      "2022-08-31T07:32:05.320241",
      "2022-08-31T07:32:08.427880",
      "2022-08-31T07:32:11.551780",
      "2022-08-31T07:32:14.693902",
      "2022-08-31T07:32:17.779979",
      "2022-08-31T07:32:20.865398",
      "2022-08-31T07:32:23.997834",
      "2022-08-31T07:32:27.087732",
      "2022-08-31T07:32:30.255713",
      "2022-08-31T07:32:33.341465",
      "2022-08-31T07:32:36.461486",
      "2022-08-31T07:32:39.548911",
      "2022-08-31T07:32:42.633155",
      "2022-08-31T07:32:45.801489",
      "2022-08-31T07:32:48.895550",
      "2022-08-31T07:32:51.977924",
      "2022-08-31T07:32:55.148526",
      "2022-08-31T07:32:58.242686",
      "2022-08-31T07:33:01.334522",
      "2022-08-31T07:33:04.474469",
      "2022-08-31T07:33:07.567119",
      "2022-08-31T07:33:10.667315",
      "2022-08-31T07:33:13.788127",
      "2022-08-31T07:33:16.884026",
      "2022-08-31T07:33:19.966859",
      "2022-08-31T07:33:23.061992",
      "2022-08-31T07:33:26.222290",
      "2022-08-31T07:33:29.311923",
      "2022-08-31T07:33:32.398911",
      "2022-08-31T07:33:35.560053",
      "2022-08-31T07:33:38.650835",
      "2022-08-31T07:33:41.732798",
      "2022-08-31T07:33:44.908453",
      "2022-08-31T07:33:47.992453",
      "2022-08-31T07:33:51.074484",
      "2022-08-31T07:33:54.201241",
      "2022-08-31T07:33:57.349628",
      "2022-08-31T07:34:00.489030",
      "2022-08-31T07:34:03.574724",
      "2022-08-31T07:34:06.697463",
      "2022-08-31T07:34:09.793666",
      "2022-08-31T07:34:12.887224",
      "2022-08-31T07:34:16.027434",
      "2022-08-31T07:34:19.109227",
      "2022-08-31T07:34:22.189318",
      "2022-08-31T07:34:25.394757",
      "2022-08-31T07:34:28.490503",
      "2022-08-31T07:34:31.618782",
      "2022-08-31T07:34:34.778906",
      "2022-08-31T07:34:37.867643",
      "2022-08-31T07:34:40.951425",
      "2022-08-31T07:34:44.086965",
      "2022-08-31T07:34:47.197058",
      "2022-08-31T07:34:50.285762",
      "2022-08-31T07:34:53.383801",
      "2022-08-31T07:34:56.531134",
      "2022-08-31T07:34:59.675396",
      "2022-08-31T07:35:02.782195",
      "2022-08-31T07:35:05.927320",
      "2022-08-31T07:35:09.022674",
      "2022-08-31T07:35:12.104703",
      "2022-08-31T07:35:15.264964",
      "2022-08-31T07:35:18.348724",
      "2022-08-31T07:35:21.438426",
      "2022-08-31T07:35:24.575287",
      "2022-08-31T07:35:27.670144",
      "2022-08-31T07:35:30.839214",
      "2022-08-31T07:35:33.934246",
      "2022-08-31T07:35:37.047087",
      "2022-08-31T07:35:40.139915",
      "2022-08-31T07:35:43.238027",
      "2022-08-31T07:35:46.393453",
      "2022-08-31T07:35:49.478413",
      "2022-08-31T07:35:52.564576",
      "2022-08-31T07:35:55.725361",
      "2022-08-31T07:35:58.809109",
      "2022-08-31T07:36:01.961776",
      "2022-08-31T07:36:05.067209",
      "2022-08-31T07:36:08.197548",
      "2022-08-31T07:36:11.288292",
      "2022-08-31T07:36:14.423122",
      "2022-08-31T07:36:17.520576",
      "2022-08-31T07:36:20.608745",
      "2022-08-31T07:36:23.734770",
      "2022-08-31T07:36:26.872125",
      "2022-08-31T07:36:29.956936",
      "2022-08-31T07:36:33.101292",
      "2022-08-31T07:36:36.186492",
      "2022-08-31T07:36:39.344764",
      "2022-08-31T07:36:42.435738",
      "2022-08-31T07:36:45.583355",
      "2022-08-31T07:36:48.685521",
      "2022-08-31T07:36:51.772906",
      "2022-08-31T07:36:54.926001",
      "2022-08-31T07:36:58.010333",
      "2022-08-31T07:37:01.094546",
      "2022-08-31T07:37:04.249644",
      "2022-08-31T07:37:07.336668",
      "2022-08-31T07:37:10.493873",
      "2022-08-31T07:37:13.588979",
      "2022-08-31T07:37:16.709641",
      "2022-08-31T07:37:19.801151",
      "2022-08-31T07:37:22.898837",
      "2022-08-31T07:37:26.046872",
      "2022-08-31T07:37:29.134892",
      "2022-08-31T07:37:32.217757",
      "2022-08-31T07:37:35.381358",
      "2022-08-31T07:37:38.476302",
      "2022-08-31T07:37:41.575899",
      "2022-08-31T07:37:44.728248",
      "2022-08-31T07:37:47.833899",
      "2022-08-31T07:37:50.923465",
      "2022-08-31T07:37:54.042700",
      "2022-08-31T07:37:57.161087",
      "2022-08-31T07:38:00.255056",
      "2022-08-31T07:38:03.339995",
      "2022-08-31T07:38:06.484427",
      "2022-08-31T07:38:09.575421",
      "2022-08-31T07:38:12.669152",
      "2022-08-31T07:38:15.821924",
      "2022-08-31T07:38:18.903913",
      "2022-08-31T07:38:21.999315",
      "2022-08-31T07:38:25.124367",
      "2022-08-31T07:38:28.212475",
      "2022-08-31T07:38:31.305156",
      "2022-08-31T07:38:34.481607",
      "2022-08-31T07:38:37.576664",
      "2022-08-31T07:38:40.728743",
      "2022-08-31T07:38:43.831348",
      "2022-08-31T07:38:46.959798",
      "2022-08-31T07:38:50.051126",
      "2022-08-31T07:38:53.161927",
      "2022-08-31T07:38:56.304204",
      "2022-08-31T07:38:59.396081",
      "2022-08-31T07:39:02.486629",
      "2022-08-31T07:39:05.641763",
      "2022-08-31T07:39:08.749939",
      "2022-08-31T07:39:11.906245",
      "2022-08-31T07:39:15.055977",
      "2022-08-31T07:39:18.145606",
      "2022-08-31T07:39:21.232270",
      "2022-08-31T07:39:24.359495",
      "2022-08-31T07:39:27.472119",
      "2022-08-31T07:39:30.562787",
      "2022-08-31T07:39:33.666371",
      "2022-08-31T07:39:36.785621",
      "2022-08-31T07:39:39.936849",
      "2022-08-31T07:39:43.033845",
      "2022-08-31T07:39:46.183035",
      "2022-08-31T07:39:49.317722",
      "2022-08-31T07:39:52.416997",
      "2022-08-31T07:39:55.584234",
      "2022-08-31T07:39:58.676105",
      "2022-08-31T07:40:01.756973",
      "2022-08-31T07:40:04.920444",
      "2022-08-31T07:40:08.019668"
    ],
    "values": [
      2.2467552065849303,
      2.0825690174102784,
      2.0565354657173156,
      1.9979847502708434,
      2.037617018222809,
      1.9997912287712096,
      1.9224337077140807,
      1.9213862133026123,
      1.9283567762374878,
      1.8985741686820985,
      1.8603286337852478,
      1.8988984727859497,
      1.8945223689079285,
      1.880349485874176,
      1.9694569659233094,
      1.8940474796295166,
      1.9220374250411987,
      1.885554621219635,
      1.925968828201294,
      1.89779869556427,
      1.8988464426994325,
      1.86158251285553,
      1.852832214832306,
      1.8298316144943236,
      1.801940109729767,
      1.886594958305359,
      1.9026077914237975,
      1.81685928106308,
      1.8707976245880127,
      1.8371572422981262,
      1.8109417939186097,
      1.8195807361602783,
      1.8714670968055724,
      1.8295358157157897,
      1.840998523235321,
      1.846750223636627,
      1.838929741382599,
      1.8392420887947083,
      1.855076494216919,
      1.8853167414665222,
      1.8293980884552001,
      1.8430883932113646,
      1.8202425527572632,
      1.815655975341797,
      1.8426982927322388,
      1.8467424297332764,
      1.8236275291442872,
      1.8744842171669007,
      1.842445077896118,
      1.8476018333435058,
      1.8713219332695008,
      1.8054312825202943,
      1.806022925376892,
      1.783771812915802,
      1.8008039975166321,
      1.8252633285522462,
      1.797762668132782,
      1.8128331184387207,
      1.8153915882110596,
      1.814034297466278,
      1.7987428879737855,
      1.8319401144981384,
      1.8480962133407592,
      1.7993300247192383,
      1.8234913325309754,
      1.8463301873207092,
      1.8283572506904602,
      1.833804259300232,
      1.8101881909370423,
      1.829256067276001,
      1.8044232392311097,
      1.7946186590194702,
      1.7923817539215088,
      1.8416020584106445,
      1.8203120923042297,
      1.8203851914405822,
      1.7936256504058838,
      1.8099795007705688,
      1.836953661441803,
      1.8195225095748901,
      1.8060752177238464,
      1.8241706466674805,
      1.8796757173538208,
      1.8532141709327699,
      1.806858603954315,
      1.8220038628578186,
      1.8555708837509155,
      1.8329961609840393,
      1.8009315896034241,
      1.8233536887168884,
      1.8100769019126892,
      1.804214861392975,
      1.8600155472755433,
      1.7973122096061707,
      1.8067108607292175,
      1.8145656418800353,
      1.8112112188339233,
      1.7938676476478577,
      1.919165759086609,
      1.7840862798690795,
      1.807627384662628,
      1.7732049584388734,
      1.819818902015686,
      1.8060616588592528,
      1.7521786761283875,
      1.7523898386955261,
      1.7388956332206726,
      1.7366905736923217,
      1.7396078634262084,
      1.738738214969635,
      1.7315861248970033,
      1.7494280934333801,
      1.7307846999168397,
      1.731393985748291,
      1.737147786617279,
      1.7420149540901184,
      1.7325886130332946,
      1.7375404047966003,
      1.731939287185669,
      1.7327939653396607,
      1.737239933013916,
      1.713197453022003,
      1.7373295903205872,
      1.7430521416664124,
      1.7309384799003602,
      1.7360630702972413,
      1.7396508073806762,
      1.7239666509628295,
      1.72774756193161,
      1.7349630665779114,
      1.7228830218315125,
      1.737069184780121,
      1.7300363564491272,
      1.7368500709533692,
      1.7269787526130675,
      1.7304081702232361,
      1.7262756609916687,
      1.713864233493805,
      1.710116810798645,
      1.72932767868042,
      1.719093487262726,
      1.7291313672065736,
      1.7116694331169129,
      1.7241804313659668,
      1.7207683038711548,
      1.7219239592552185,
      1.7124863624572755,
      1.7168035864830018,
      1.7202206611633302,
      1.7203779983520509,
      1.7257856607437134,
      1.7196238017082215,
      1.7304368805885315,
      1.7134210610389708,
      1.7183542895317077,
      1.7172498774528504,
      1.715812065601349,
      1.7254043674468995,
      1.7122268843650819,
      1.7158515167236328,
      1.7195668458938598,
      1.7172229051589967,
      1.7151125240325928,
      1.7201172828674316,
      1.71512686252594,
      1.715488531589508,
      1.7120538115501405,
      1.7208498764038085,
      1.71866051197052,
      1.7273961210250854,
      1.7213870859146119,
      1.7216861653327942,
      1.7166694068908692,
      1.7212046384811401,
      1.7098442339897155,
      1.7213444375991822,
      1.7206741237640382,
      1.7236303567886353,
      1.7154991436004638,
      1.714284896850586,
      1.7199859309196472,
      1.724717719554901,
      1.714382405281067,
      1.7210238599777221,
      1.715681939125061,
      1.7191168689727783,
      1.7172434043884277,
      1.7209253811836243,
      1.7217853021621705,
      1.7215798020362854,
      1.7216726279258727,
      1.7176097106933594,
      1.725055468082428,
      1.726873915195465,
      1.7169674396514893,
      1.702981173992157,
      1.7210803151130676,
      1.7229686951637269,
      1.7185382843017578,
      1.718060677051544
    ]
  }
}