INFO - siren_vae - Running command 'run'
INFO - siren_vae - Started run with ID "6"
[LOADING DATA] MEHRA
[ENCODED STRUCTURE] Using faithful BN structure.
[WARM-UP] Applied to ['z0', 'z1', 'z2']
[LOADING FROM CHECKPOINT] Start epoch: 700
  0%|          | 0/100 [00:00<?, ?it/s]Train -ELBO: 8.55725, Val -ELBO: 8.66292:   1%|          | 1/100 [00:02<04:27,  2.70s/it]Train -ELBO: 8.56654, Val -ELBO: 8.69367:   2%|▏         | 2/100 [00:04<03:51,  2.37s/it]Train -ELBO: 8.56638, Val -ELBO: 8.66207:   3%|▎         | 3/100 [00:06<03:37,  2.24s/it]Train -ELBO: 8.55951, Val -ELBO: 8.66786:   4%|▍         | 4/100 [00:08<03:23,  2.12s/it]Train -ELBO: 8.56925, Val -ELBO: 8.65969:   5%|▌         | 5/100 [00:10<03:13,  2.04s/it]Train -ELBO: 8.56243, Val -ELBO: 8.66109:   6%|▌         | 6/100 [00:12<03:06,  1.98s/it]Train -ELBO: 8.56750, Val -ELBO: 8.66142:   7%|▋         | 7/100 [00:14<02:59,  1.93s/it]Train -ELBO: 8.56054, Val -ELBO: 8.64696:   8%|▊         | 8/100 [00:16<02:54,  1.89s/it]Train -ELBO: 8.56446, Val -ELBO: 8.67404:   9%|▉         | 9/100 [00:18<02:49,  1.87s/it]Train -ELBO: 8.56562, Val -ELBO: 8.66260:  10%|█         | 10/100 [00:20<02:52,  1.91s/it]Train -ELBO: 8.56279, Val -ELBO: 8.66204:  11%|█         | 11/100 [00:21<02:48,  1.90s/it]Train -ELBO: 8.56582, Val -ELBO: 8.65862:  12%|█▏        | 12/100 [00:23<02:43,  1.86s/it]Train -ELBO: 8.56457, Val -ELBO: 8.66968:  13%|█▎        | 13/100 [00:25<02:41,  1.85s/it]Train -ELBO: 8.57258, Val -ELBO: 8.66705:  14%|█▍        | 14/100 [00:27<02:47,  1.95s/it]Train -ELBO: 8.57270, Val -ELBO: 8.67300:  15%|█▌        | 15/100 [00:30<03:09,  2.22s/it]Train -ELBO: 8.56759, Val -ELBO: 8.65317:  16%|█▌        | 16/100 [00:33<03:35,  2.56s/it]Train -ELBO: 8.56332, Val -ELBO: 8.67254:  17%|█▋        | 17/100 [00:37<03:48,  2.75s/it]Train -ELBO: 8.57091, Val -ELBO: 8.65981:  18%|█▊        | 18/100 [00:40<03:55,  2.87s/it]Train -ELBO: 8.56184, Val -ELBO: 8.66288:  19%|█▉        | 19/100 [00:43<04:05,  3.03s/it]Train -ELBO: 8.57099, Val -ELBO: 8.66876:  20%|██        | 20/100 [00:47<04:12,  3.16s/it]Train -ELBO: 8.56657, Val -ELBO: 8.66602:  21%|██        | 21/100 [00:50<04:15,  3.24s/it]Train -ELBO: 8.56503, Val -ELBO: 8.66407:  22%|██▏       | 22/100 [00:53<04:17,  3.30s/it]Train -ELBO: 8.56835, Val -ELBO: 8.65607:  23%|██▎       | 23/100 [00:57<04:19,  3.37s/it]Train -ELBO: 8.56714, Val -ELBO: 8.65547:  24%|██▍       | 24/100 [01:00<04:17,  3.39s/it]Train -ELBO: 8.56296, Val -ELBO: 8.66924:  25%|██▌       | 25/100 [01:04<04:14,  3.39s/it]Train -ELBO: 8.56901, Val -ELBO: 8.66023:  26%|██▌       | 26/100 [01:07<04:11,  3.41s/it]Train -ELBO: 8.56176, Val -ELBO: 8.66052:  27%|██▋       | 27/100 [01:11<04:07,  3.39s/it]Train -ELBO: 8.56356, Val -ELBO: 8.67641:  28%|██▊       | 28/100 [01:14<04:03,  3.38s/it]Train -ELBO: 8.56021, Val -ELBO: 8.65686:  29%|██▉       | 29/100 [01:17<04:00,  3.39s/it]Train -ELBO: 8.56766, Val -ELBO: 8.65771:  30%|███       | 30/100 [01:21<03:59,  3.42s/it]Train -ELBO: 8.56311, Val -ELBO: 8.66608:  31%|███       | 31/100 [01:24<03:56,  3.43s/it]Train -ELBO: 8.56319, Val -ELBO: 8.66500:  32%|███▏      | 32/100 [01:28<03:52,  3.42s/it]Train -ELBO: 8.56113, Val -ELBO: 8.65145:  33%|███▎      | 33/100 [01:31<03:48,  3.41s/it]Train -ELBO: 8.56267, Val -ELBO: 8.66178:  34%|███▍      | 34/100 [01:35<03:45,  3.41s/it]Train -ELBO: 8.57554, Val -ELBO: 8.66066:  35%|███▌      | 35/100 [01:38<03:41,  3.41s/it]Train -ELBO: 8.56320, Val -ELBO: 8.66265:  36%|███▌      | 36/100 [01:41<03:38,  3.41s/it]Train -ELBO: 8.55495, Val -ELBO: 8.66105:  37%|███▋      | 37/100 [01:45<03:36,  3.44s/it]Train -ELBO: 8.56251, Val -ELBO: 8.67555:  38%|███▊      | 38/100 [01:48<03:35,  3.47s/it]Train -ELBO: 8.56049, Val -ELBO: 8.65149:  39%|███▉      | 39/100 [01:52<03:33,  3.50s/it]Train -ELBO: 8.56236, Val -ELBO: 8.66089:  40%|████      | 40/100 [01:56<03:31,  3.53s/it]Train -ELBO: 8.56797, Val -ELBO: 8.66448:  41%|████      | 41/100 [01:59<03:27,  3.52s/it]Train -ELBO: 8.56526, Val -ELBO: 8.66202:  42%|████▏     | 42/100 [02:03<03:24,  3.53s/it]Train -ELBO: 8.57089, Val -ELBO: 8.67751:  43%|████▎     | 43/100 [02:06<03:21,  3.54s/it]Train -ELBO: 8.57033, Val -ELBO: 8.65891:  44%|████▍     | 44/100 [02:10<03:17,  3.53s/it]Train -ELBO: 8.56380, Val -ELBO: 8.65623:  45%|████▌     | 45/100 [02:13<03:12,  3.51s/it]Train -ELBO: 8.56328, Val -ELBO: 8.66845:  46%|████▌     | 46/100 [02:17<03:09,  3.51s/it]Train -ELBO: 8.56228, Val -ELBO: 8.66644:  47%|████▋     | 47/100 [02:20<03:06,  3.53s/it]Train -ELBO: 8.56957, Val -ELBO: 8.67784:  48%|████▊     | 48/100 [02:24<03:04,  3.55s/it]Train -ELBO: 8.56115, Val -ELBO: 8.65576:  49%|████▉     | 49/100 [02:27<03:01,  3.56s/it]Train -ELBO: 8.56731, Val -ELBO: 8.66126:  50%|█████     | 50/100 [02:31<02:57,  3.56s/it]Train -ELBO: 8.55923, Val -ELBO: 8.65890:  51%|█████     | 51/100 [02:35<02:54,  3.56s/it]Train -ELBO: 8.56246, Val -ELBO: 8.66757:  52%|█████▏    | 52/100 [02:38<02:50,  3.56s/it]Train -ELBO: 8.56240, Val -ELBO: 8.66044:  53%|█████▎    | 53/100 [02:42<02:46,  3.53s/it]Train -ELBO: 8.57108, Val -ELBO: 8.66669:  54%|█████▍    | 54/100 [02:45<02:43,  3.55s/it]Train -ELBO: 8.56281, Val -ELBO: 8.64647:  55%|█████▌    | 55/100 [02:49<02:38,  3.53s/it]Train -ELBO: 8.56954, Val -ELBO: 8.65572:  56%|█████▌    | 56/100 [02:52<02:36,  3.56s/it]Train -ELBO: 8.56911, Val -ELBO: 8.65957:  57%|█████▋    | 57/100 [02:56<02:33,  3.57s/it]Train -ELBO: 8.56466, Val -ELBO: 8.66977:  58%|█████▊    | 58/100 [03:00<02:30,  3.59s/it]Train -ELBO: 8.56565, Val -ELBO: 8.65667:  59%|█████▉    | 59/100 [03:03<02:27,  3.60s/it]Train -ELBO: 8.56094, Val -ELBO: 8.66809:  60%|██████    | 60/100 [03:07<02:23,  3.58s/it]Train -ELBO: 8.56768, Val -ELBO: 8.66538:  61%|██████    | 61/100 [03:10<02:19,  3.57s/it]Train -ELBO: 8.57077, Val -ELBO: 8.65065:  62%|██████▏   | 62/100 [03:14<02:15,  3.58s/it]Train -ELBO: 8.57243, Val -ELBO: 8.66531:  63%|██████▎   | 63/100 [03:17<02:11,  3.54s/it]Train -ELBO: 8.56668, Val -ELBO: 8.65769:  64%|██████▍   | 64/100 [03:21<02:08,  3.56s/it]Train -ELBO: 8.56135, Val -ELBO: 8.66057:  65%|██████▌   | 65/100 [03:25<02:05,  3.58s/it]Train -ELBO: 8.56399, Val -ELBO: 8.67496:  66%|██████▌   | 66/100 [03:28<02:01,  3.58s/it]Train -ELBO: 8.55773, Val -ELBO: 8.68623:  67%|██████▋   | 67/100 [03:32<01:58,  3.59s/it]Train -ELBO: 8.56559, Val -ELBO: 8.66010:  68%|██████▊   | 68/100 [03:35<01:55,  3.60s/it]Train -ELBO: 8.55982, Val -ELBO: 8.65984:  69%|██████▉   | 69/100 [03:39<01:51,  3.59s/it]Train -ELBO: 8.56218, Val -ELBO: 8.66441:  70%|███████   | 70/100 [03:43<01:48,  3.61s/it]Train -ELBO: 8.56401, Val -ELBO: 8.66370:  71%|███████   | 71/100 [03:46<01:45,  3.63s/it]Train -ELBO: 8.56479, Val -ELBO: 8.66958:  72%|███████▏  | 72/100 [03:50<01:41,  3.61s/it]Train -ELBO: 8.55839, Val -ELBO: 8.66367:  73%|███████▎  | 73/100 [03:53<01:37,  3.63s/it]Train -ELBO: 8.56272, Val -ELBO: 8.67218:  74%|███████▍  | 74/100 [03:57<01:33,  3.60s/it]Train -ELBO: 8.56258, Val -ELBO: 8.67006:  75%|███████▌  | 75/100 [04:01<01:29,  3.59s/it]Train -ELBO: 8.56099, Val -ELBO: 8.67866:  76%|███████▌  | 76/100 [04:04<01:26,  3.59s/it]Train -ELBO: 8.56040, Val -ELBO: 8.66013:  77%|███████▋  | 77/100 [04:08<01:22,  3.58s/it]Train -ELBO: 8.56764, Val -ELBO: 8.65378:  78%|███████▊  | 78/100 [04:11<01:18,  3.57s/it]Train -ELBO: 8.56945, Val -ELBO: 8.67235:  79%|███████▉  | 79/100 [04:15<01:15,  3.58s/it]Train -ELBO: 8.56162, Val -ELBO: 8.66217:  80%|████████  | 80/100 [04:19<01:11,  3.59s/it]Train -ELBO: 8.56460, Val -ELBO: 8.66441:  81%|████████  | 81/100 [04:22<01:08,  3.59s/it]Train -ELBO: 8.56451, Val -ELBO: 8.65869:  82%|████████▏ | 82/100 [04:26<01:04,  3.59s/it]Train -ELBO: 8.56090, Val -ELBO: 8.65466:  83%|████████▎ | 83/100 [04:29<01:01,  3.61s/it]Train -ELBO: 8.56693, Val -ELBO: 8.66370:  84%|████████▍ | 84/100 [04:33<00:57,  3.59s/it]Train -ELBO: 8.56056, Val -ELBO: 8.65952:  85%|████████▌ | 85/100 [04:37<00:54,  3.61s/it]Train -ELBO: 8.55864, Val -ELBO: 8.66832:  86%|████████▌ | 86/100 [04:40<00:50,  3.60s/it]Train -ELBO: 8.56098, Val -ELBO: 8.65530:  87%|████████▋ | 87/100 [04:44<00:46,  3.60s/it]Epoch   688: reducing learning rate of group 0 to 1.0000e-06.
Train -ELBO: 8.56359, Val -ELBO: 8.65855:  88%|████████▊ | 88/100 [04:47<00:43,  3.60s/it]Train -ELBO: 8.56623, Val -ELBO: 8.66610:  89%|████████▉ | 89/100 [04:51<00:39,  3.60s/it]Train -ELBO: 8.56106, Val -ELBO: 8.67084:  90%|█████████ | 90/100 [04:55<00:35,  3.60s/it]Train -ELBO: 8.56936, Val -ELBO: 8.65023:  91%|█████████ | 91/100 [04:58<00:32,  3.60s/it]Train -ELBO: 8.55710, Val -ELBO: 8.65059:  92%|█████████▏| 92/100 [05:02<00:28,  3.57s/it]Train -ELBO: 8.56659, Val -ELBO: 8.65238:  93%|█████████▎| 93/100 [05:05<00:25,  3.58s/it]Train -ELBO: 8.56433, Val -ELBO: 8.67002:  94%|█████████▍| 94/100 [05:09<00:21,  3.57s/it]Train -ELBO: 8.56223, Val -ELBO: 8.67328:  95%|█████████▌| 95/100 [05:12<00:17,  3.59s/it]Train -ELBO: 8.56358, Val -ELBO: 8.67052:  96%|█████████▌| 96/100 [05:16<00:14,  3.59s/it]Train -ELBO: 8.56604, Val -ELBO: 8.65076:  97%|█████████▋| 97/100 [05:20<00:10,  3.60s/it]Train -ELBO: 8.56945, Val -ELBO: 8.66715:  98%|█████████▊| 98/100 [05:23<00:07,  3.61s/it]Train -ELBO: 8.56058, Val -ELBO: 8.66720:  99%|█████████▉| 99/100 [05:27<00:03,  3.63s/it]Train -ELBO: 8.56393, Val -ELBO: 8.65469: 100%|██████████| 100/100 [05:31<00:00,  3.62s/it]Train -ELBO: 8.56393, Val -ELBO: 8.65469: 100%|██████████| 100/100 [05:31<00:00,  3.31s/it]
INFO - siren_vae - Completed after 0:05:33
