INFO - residual_nf - Running command 'run'
INFO - residual_nf - Started run with ID "5"
[CONFIG] {'bn': 'mehra-real', 'structure': 'faithful', 'coeff': 0.99, 'n_power_iterations': 5, 'num_blocks': 12, 'hidden_dims': [100], 'activation': 'tanh', 'grad_in_forward': True, 'batch_size': 100, 'num_train_samples': 10000, 'num_val_samples': 5000, 'num_epochs': 300, 'num_train_batches': 100, 'num_val_batches': 50, 'lr': 0.01, 'seed': 4, 'patience': 20, 'double': True, 'run': 1, 'checkpoint_n': 10, 'load_from_checkpoint': False, 'ex_name': 'residual_nf_density_estimation', 'sub_folder': 'faithful_99_tanh_12_[100]', 'path': './experiment_logs/residual_nf_density_estimation/mehra-real/faithful_99_tanh_12_[100]', 'bt_config': {'depth': 5, 'seed': 4}}
[DEVICE] cpu
[LOADING DATA] Mehra
[ENCODED STRUCTURE] Using faithful BN structure.
  0%|          | 0/300 [00:00<?, ?it/s]Train NLL: 12.547, Val NLL: 12.158:   0%|          | 1/300 [00:01<09:55,  1.99s/it]Train NLL: 11.888, Val NLL: 11.708:   1%|          | 2/300 [00:05<13:56,  2.81s/it]Train NLL: 11.536, Val NLL: 11.509:   1%|          | 3/300 [00:07<11:29,  2.32s/it]Train NLL: 11.471, Val NLL: 11.489:   1%|▏         | 4/300 [00:09<10:44,  2.18s/it]Train NLL: 11.411, Val NLL: 11.465:   2%|▏         | 5/300 [00:10<10:06,  2.06s/it]Train NLL: 11.360, Val NLL: 11.453:   2%|▏         | 6/300 [00:12<09:31,  1.94s/it]Train NLL: 11.323, Val NLL: 11.399:   2%|▏         | 7/300 [00:14<09:11,  1.88s/it]Train NLL: 11.289, Val NLL: 11.337:   3%|▎         | 8/300 [00:16<08:54,  1.83s/it]Train NLL: 11.297, Val NLL: 11.303:   3%|▎         | 9/300 [00:17<08:40,  1.79s/it]Train NLL: 11.257, Val NLL: 11.308:   3%|▎         | 10/300 [00:19<08:36,  1.78s/it]Train NLL: 11.246, Val NLL: 11.287:   4%|▎         | 11/300 [00:21<08:33,  1.78s/it]Train NLL: 11.229, Val NLL: 11.255:   4%|▍         | 12/300 [00:23<08:59,  1.87s/it]Train NLL: 11.252, Val NLL: 11.313:   4%|▍         | 13/300 [00:25<08:52,  1.86s/it]Train NLL: 11.223, Val NLL: 11.248:   5%|▍         | 14/300 [00:26<08:38,  1.81s/it]Train NLL: 11.194, Val NLL: 11.458:   5%|▌         | 15/300 [00:29<09:15,  1.95s/it]Train NLL: 11.225, Val NLL: 11.294:   5%|▌         | 16/300 [00:31<09:21,  1.98s/it]Train NLL: 11.189, Val NLL: 11.301:   6%|▌         | 17/300 [00:32<08:52,  1.88s/it]Train NLL: 11.179, Val NLL: 11.278:   6%|▌         | 18/300 [00:35<09:34,  2.04s/it]Train NLL: 11.177, Val NLL: 11.295:   6%|▋         | 19/300 [00:37<09:12,  1.97s/it]Train NLL: 11.182, Val NLL: 11.239:   7%|▋         | 20/300 [00:38<08:55,  1.91s/it]Train NLL: 11.161, Val NLL: 11.287:   7%|▋         | 21/300 [00:41<09:12,  1.98s/it]Train NLL: 11.157, Val NLL: 11.308:   7%|▋         | 22/300 [00:42<08:41,  1.88s/it]Train NLL: 11.155, Val NLL: 11.288:   8%|▊         | 23/300 [00:44<08:26,  1.83s/it]Train NLL: 11.172, Val NLL: 11.264:   8%|▊         | 24/300 [00:46<08:21,  1.82s/it]Train NLL: 11.162, Val NLL: 11.226:   8%|▊         | 25/300 [00:48<08:18,  1.81s/it]Train NLL: 11.116, Val NLL: 11.249:   9%|▊         | 26/300 [00:49<08:10,  1.79s/it]Train NLL: 11.140, Val NLL: 11.207:   9%|▉         | 27/300 [00:51<08:10,  1.80s/it]Train NLL: 11.138, Val NLL: 11.227:   9%|▉         | 28/300 [00:53<08:01,  1.77s/it]Train NLL: 11.126, Val NLL: 11.283:  10%|▉         | 29/300 [00:55<08:06,  1.79s/it]Train NLL: 11.148, Val NLL: 11.212:  10%|█         | 30/300 [00:57<08:42,  1.94s/it]Train NLL: 11.119, Val NLL: 11.206:  10%|█         | 31/300 [00:59<08:30,  1.90s/it]Train NLL: 11.119, Val NLL: 11.229:  11%|█         | 32/300 [01:01<08:25,  1.89s/it]Train NLL: 11.134, Val NLL: 11.166:  11%|█         | 33/300 [01:02<08:17,  1.86s/it]Train NLL: 11.121, Val NLL: 11.220:  11%|█▏        | 34/300 [01:04<07:58,  1.80s/it]Train NLL: 11.104, Val NLL: 11.185:  12%|█▏        | 35/300 [01:06<07:59,  1.81s/it]Train NLL: 11.108, Val NLL: 11.248:  12%|█▏        | 36/300 [01:08<07:55,  1.80s/it]Train NLL: 11.105, Val NLL: 11.199:  12%|█▏        | 37/300 [01:09<07:42,  1.76s/it]Train NLL: 11.101, Val NLL: 11.238:  13%|█▎        | 38/300 [01:11<07:55,  1.82s/it]Train NLL: 11.126, Val NLL: 11.202:  13%|█▎        | 39/300 [01:13<07:53,  1.81s/it]Train NLL: 11.095, Val NLL: 11.266:  13%|█▎        | 40/300 [01:15<07:44,  1.79s/it]Train NLL: 11.101, Val NLL: 11.179:  14%|█▎        | 41/300 [01:16<07:33,  1.75s/it]Train NLL: 11.093, Val NLL: 11.190:  14%|█▍        | 42/300 [01:19<08:04,  1.88s/it]Train NLL: 11.089, Val NLL: 11.214:  14%|█▍        | 43/300 [01:20<07:53,  1.84s/it]Train NLL: 11.103, Val NLL: 11.193:  15%|█▍        | 44/300 [01:22<07:57,  1.86s/it]Train NLL: 11.100, Val NLL: 11.161:  15%|█▌        | 45/300 [01:25<08:45,  2.06s/it]Train NLL: 11.102, Val NLL: 11.221:  15%|█▌        | 46/300 [01:27<08:16,  1.96s/it]Train NLL: 11.125, Val NLL: 11.240:  16%|█▌        | 47/300 [01:28<07:51,  1.86s/it]Train NLL: 11.123, Val NLL: 11.216:  16%|█▌        | 48/300 [01:30<07:34,  1.80s/it]Train NLL: 11.103, Val NLL: 11.188:  16%|█▋        | 49/300 [01:32<07:30,  1.80s/it]Train NLL: 11.120, Val NLL: 11.194:  17%|█▋        | 50/300 [01:33<07:33,  1.81s/it]Train NLL: 11.077, Val NLL: 11.172:  17%|█▋        | 51/300 [01:35<07:34,  1.82s/it]Train NLL: 11.088, Val NLL: 11.152:  17%|█▋        | 52/300 [01:37<07:48,  1.89s/it]Train NLL: 11.088, Val NLL: 11.149:  18%|█▊        | 53/300 [01:39<07:48,  1.90s/it]Train NLL: 11.079, Val NLL: 11.226:  18%|█▊        | 54/300 [01:41<07:43,  1.88s/it]Train NLL: 11.083, Val NLL: 11.196:  18%|█▊        | 55/300 [01:43<08:17,  2.03s/it]Train NLL: 11.079, Val NLL: 11.199:  19%|█▊        | 56/300 [01:45<07:57,  1.96s/it]Train NLL: 11.053, Val NLL: 11.169:  19%|█▉        | 57/300 [01:48<08:29,  2.10s/it]Train NLL: 11.092, Val NLL: 11.210:  19%|█▉        | 58/300 [01:50<08:44,  2.17s/it]Train NLL: 11.101, Val NLL: 11.205:  20%|█▉        | 59/300 [01:52<08:57,  2.23s/it]Train NLL: 11.071, Val NLL: 11.282:  20%|██        | 60/300 [01:55<08:59,  2.25s/it]Train NLL: 11.062, Val NLL: 11.144:  20%|██        | 61/300 [01:56<08:14,  2.07s/it]Train NLL: 11.062, Val NLL: 11.176:  21%|██        | 62/300 [01:59<08:27,  2.13s/it]Train NLL: 11.048, Val NLL: 11.145:  21%|██        | 63/300 [02:01<08:14,  2.09s/it]Train NLL: 11.059, Val NLL: 11.194:  21%|██▏       | 64/300 [02:02<07:46,  1.98s/it]Train NLL: 11.058, Val NLL: 11.130:  22%|██▏       | 65/300 [02:05<08:30,  2.17s/it]Train NLL: 11.055, Val NLL: 11.155:  22%|██▏       | 66/300 [02:07<08:16,  2.12s/it]Train NLL: 11.060, Val NLL: 11.161:  22%|██▏       | 67/300 [02:09<07:54,  2.04s/it]Train NLL: 11.075, Val NLL: 11.196:  23%|██▎       | 68/300 [02:11<07:31,  1.95s/it]Train NLL: 11.058, Val NLL: 11.209:  23%|██▎       | 69/300 [02:12<07:21,  1.91s/it]Train NLL: 11.050, Val NLL: 11.146:  23%|██▎       | 70/300 [02:14<07:10,  1.87s/it]Train NLL: 11.051, Val NLL: 11.210:  24%|██▎       | 71/300 [02:16<06:53,  1.81s/it]Train NLL: 11.051, Val NLL: 11.199:  24%|██▍       | 72/300 [02:18<07:30,  1.98s/it]Train NLL: 11.046, Val NLL: 11.189:  24%|██▍       | 73/300 [02:20<07:19,  1.93s/it]Train NLL: 11.061, Val NLL: 11.151:  25%|██▍       | 74/300 [02:22<07:08,  1.90s/it]Train NLL: 11.030, Val NLL: 11.125:  25%|██▌       | 75/300 [02:24<06:57,  1.86s/it]Train NLL: 11.047, Val NLL: 11.174:  25%|██▌       | 76/300 [02:25<06:48,  1.83s/it]Train NLL: 11.046, Val NLL: 11.131:  26%|██▌       | 77/300 [02:27<06:42,  1.81s/it]Train NLL: 11.037, Val NLL: 11.147:  26%|██▌       | 78/300 [02:29<06:38,  1.80s/it]Train NLL: 11.034, Val NLL: 11.151:  26%|██▋       | 79/300 [02:31<06:32,  1.78s/it]Train NLL: 11.038, Val NLL: 11.137:  27%|██▋       | 80/300 [02:32<06:27,  1.76s/it]Train NLL: 11.067, Val NLL: 11.151:  27%|██▋       | 81/300 [02:34<06:26,  1.76s/it]Train NLL: 11.042, Val NLL: 11.157:  27%|██▋       | 82/300 [02:36<06:22,  1.76s/it]Train NLL: 11.056, Val NLL: 11.167:  28%|██▊       | 83/300 [02:38<06:23,  1.77s/it]Train NLL: 11.049, Val NLL: 11.181:  28%|██▊       | 84/300 [02:40<06:41,  1.86s/it]Train NLL: 11.032, Val NLL: 11.132:  28%|██▊       | 85/300 [02:41<06:30,  1.82s/it]Train NLL: 11.053, Val NLL: 11.245:  29%|██▊       | 86/300 [02:43<06:30,  1.82s/it]Train NLL: 11.036, Val NLL: 11.156:  29%|██▉       | 87/300 [02:45<06:37,  1.86s/it]Train NLL: 11.059, Val NLL: 11.159:  29%|██▉       | 88/300 [02:47<06:37,  1.87s/it]Train NLL: 11.019, Val NLL: 11.126:  30%|██▉       | 89/300 [02:50<07:16,  2.07s/it]Train NLL: 11.037, Val NLL: 11.126:  30%|███       | 90/300 [02:51<06:58,  1.99s/it]Train NLL: 11.012, Val NLL: 11.171:  30%|███       | 91/300 [02:53<06:39,  1.91s/it]Train NLL: 11.031, Val NLL: 11.125:  31%|███       | 92/300 [02:55<06:42,  1.93s/it]Train NLL: 11.017, Val NLL: 11.123:  31%|███       | 93/300 [02:57<06:32,  1.90s/it]Train NLL: 11.021, Val NLL: 11.158:  31%|███▏      | 94/300 [02:59<06:19,  1.84s/it]Train NLL: 11.036, Val NLL: 11.122:  32%|███▏      | 95/300 [03:00<06:14,  1.83s/it]Train NLL: 11.025, Val NLL: 11.155:  32%|███▏      | 96/300 [03:02<06:12,  1.82s/it]Train NLL: 11.034, Val NLL: 11.161:  32%|███▏      | 97/300 [03:04<06:12,  1.84s/it]Train NLL: 11.028, Val NLL: 11.196:  33%|███▎      | 98/300 [03:06<06:07,  1.82s/it]Train NLL: 11.018, Val NLL: 11.118:  33%|███▎      | 99/300 [03:08<06:01,  1.80s/it]Train NLL: 11.005, Val NLL: 11.103:  33%|███▎      | 100/300 [03:10<06:05,  1.83s/it]Train NLL: 11.020, Val NLL: 11.185:  34%|███▎      | 101/300 [03:12<06:12,  1.87s/it]Train NLL: 11.012, Val NLL: 11.112:  34%|███▍      | 102/300 [03:13<06:10,  1.87s/it]Train NLL: 11.057, Val NLL: 11.144:  34%|███▍      | 103/300 [03:16<06:40,  2.03s/it]Train NLL: 11.029, Val NLL: 11.096:  35%|███▍      | 104/300 [03:18<06:54,  2.12s/it]Train NLL: 11.024, Val NLL: 11.139:  35%|███▌      | 105/300 [03:20<06:37,  2.04s/it]Train NLL: 11.018, Val NLL: 11.155:  35%|███▌      | 106/300 [03:22<06:24,  1.98s/it]Train NLL: 11.029, Val NLL: 11.161:  36%|███▌      | 107/300 [03:24<06:43,  2.09s/it]Train NLL: 11.031, Val NLL: 11.144:  36%|███▌      | 108/300 [03:26<06:31,  2.04s/it]Train NLL: 11.017, Val NLL: 11.120:  36%|███▋      | 109/300 [03:28<06:28,  2.03s/it]Train NLL: 11.045, Val NLL: 11.144:  37%|███▋      | 110/300 [03:30<06:20,  2.00s/it]Train NLL: 11.030, Val NLL: 11.131:  37%|███▋      | 111/300 [03:32<06:16,  1.99s/it]Train NLL: 11.014, Val NLL: 11.165:  37%|███▋      | 112/300 [03:34<06:07,  1.95s/it]Train NLL: 11.008, Val NLL: 11.163:  38%|███▊      | 113/300 [03:36<05:58,  1.92s/it]Train NLL: 11.032, Val NLL: 11.142:  38%|███▊      | 114/300 [03:37<05:46,  1.87s/it]Train NLL: 11.024, Val NLL: 11.119:  38%|███▊      | 115/300 [03:39<05:47,  1.88s/it]Train NLL: 11.004, Val NLL: 11.130:  39%|███▊      | 116/300 [03:42<06:01,  1.96s/it]Train NLL: 11.027, Val NLL: 11.179:  39%|███▉      | 117/300 [03:43<05:56,  1.95s/it]Train NLL: 11.019, Val NLL: 11.139:  39%|███▉      | 118/300 [03:45<05:44,  1.89s/it]Train NLL: 11.011, Val NLL: 11.161:  40%|███▉      | 119/300 [03:47<05:34,  1.85s/it]Train NLL: 11.004, Val NLL: 11.130:  40%|████      | 120/300 [03:49<05:23,  1.80s/it]Train NLL: 11.005, Val NLL: 11.207:  40%|████      | 121/300 [03:51<05:33,  1.86s/it]Train NLL: 11.024, Val NLL: 11.100:  41%|████      | 122/300 [03:52<05:25,  1.83s/it]Train NLL: 11.001, Val NLL: 11.119:  41%|████      | 123/300 [03:54<05:21,  1.82s/it]Train NLL: 11.015, Val NLL: 11.135:  41%|████▏     | 124/300 [03:57<05:47,  1.97s/it]Train NLL: 11.021, Val NLL: 11.136:  42%|████▏     | 125/300 [03:58<05:40,  1.94s/it]Train NLL: 11.015, Val NLL: 11.094:  42%|████▏     | 126/300 [04:00<05:29,  1.89s/it]Train NLL: 11.000, Val NLL: 11.116:  42%|████▏     | 127/300 [04:02<05:22,  1.87s/it]Train NLL: 10.998, Val NLL: 11.140:  43%|████▎     | 128/300 [04:04<05:13,  1.82s/it]Train NLL: 11.005, Val NLL: 11.157:  43%|████▎     | 129/300 [04:06<05:38,  1.98s/it]Train NLL: 11.031, Val NLL: 11.144:  43%|████▎     | 130/300 [04:08<05:51,  2.07s/it]Train NLL: 11.035, Val NLL: 11.267:  44%|████▎     | 131/300 [04:10<05:38,  2.00s/it]Train NLL: 11.033, Val NLL: 11.105:  44%|████▍     | 132/300 [04:12<05:50,  2.09s/it]Train NLL: 11.004, Val NLL: 11.127:  44%|████▍     | 133/300 [04:14<05:25,  1.95s/it]Train NLL: 10.999, Val NLL: 11.106:  45%|████▍     | 134/300 [04:16<05:14,  1.89s/it]Train NLL: 11.001, Val NLL: 11.126:  45%|████▌     | 135/300 [04:18<05:07,  1.86s/it]Train NLL: 11.008, Val NLL: 11.183:  45%|████▌     | 136/300 [04:19<05:04,  1.86s/it]Train NLL: 11.007, Val NLL: 11.130:  46%|████▌     | 137/300 [04:21<04:55,  1.81s/it]Train NLL: 11.011, Val NLL: 11.104:  46%|████▌     | 138/300 [04:23<05:05,  1.89s/it]Train NLL: 11.000, Val NLL: 11.114:  46%|████▋     | 139/300 [04:26<05:31,  2.06s/it]Train NLL: 11.007, Val NLL: 11.114:  47%|████▋     | 140/300 [04:28<05:26,  2.04s/it]Train NLL: 10.990, Val NLL: 11.142:  47%|████▋     | 141/300 [04:30<05:15,  1.99s/it]Train NLL: 11.046, Val NLL: 11.099:  47%|████▋     | 142/300 [04:31<04:59,  1.89s/it]Train NLL: 11.011, Val NLL: 11.154:  48%|████▊     | 143/300 [04:33<05:12,  1.99s/it]Train NLL: 11.002, Val NLL: 11.147:  48%|████▊     | 144/300 [04:36<05:16,  2.03s/it]Train NLL: 11.017, Val NLL: 11.167:  48%|████▊     | 145/300 [04:37<04:56,  1.91s/it]Train NLL: 11.043, Val NLL: 11.116:  49%|████▊     | 146/300 [04:39<05:06,  1.99s/it]Train NLL: 11.003, Val NLL: 11.114:  49%|████▉     | 147/300 [04:41<04:59,  1.96s/it]Train NLL: 11.010, Val NLL: 11.099:  49%|████▉     | 148/300 [04:43<04:51,  1.92s/it]Train NLL: 11.003, Val NLL: 11.141:  50%|████▉     | 149/300 [04:45<05:01,  2.00s/it]Train NLL: 11.044, Val NLL: 11.145:  50%|█████     | 150/300 [04:47<04:44,  1.90s/it]Train NLL: 11.007, Val NLL: 11.173:  50%|█████     | 151/300 [04:49<04:50,  1.95s/it]Train NLL: 11.001, Val NLL: 11.109:  51%|█████     | 152/300 [04:51<04:50,  1.96s/it]Train NLL: 11.001, Val NLL: 11.141:  51%|█████     | 153/300 [04:53<04:36,  1.88s/it]Train NLL: 10.991, Val NLL: 11.108:  51%|█████▏    | 154/300 [04:55<04:59,  2.05s/it]Train NLL: 11.044, Val NLL: 11.114:  52%|█████▏    | 155/300 [04:58<05:16,  2.18s/it]Train NLL: 11.030, Val NLL: 11.092:  52%|█████▏    | 156/300 [05:00<05:02,  2.10s/it]Train NLL: 10.997, Val NLL: 11.130:  52%|█████▏    | 157/300 [05:01<04:50,  2.03s/it]Train NLL: 11.005, Val NLL: 11.114:  53%|█████▎    | 158/300 [05:03<04:39,  1.97s/it]Train NLL: 10.984, Val NLL: 11.108:  53%|█████▎    | 159/300 [05:05<04:30,  1.92s/it]Train NLL: 10.983, Val NLL: 11.121:  53%|█████▎    | 160/300 [05:07<04:18,  1.85s/it]Train NLL: 11.013, Val NLL: 11.164:  54%|█████▎    | 161/300 [05:09<04:14,  1.83s/it]Train NLL: 10.997, Val NLL: 11.107:  54%|█████▍    | 162/300 [05:10<04:18,  1.87s/it]Train NLL: 10.997, Val NLL: 11.128:  54%|█████▍    | 163/300 [05:12<04:19,  1.89s/it]Train NLL: 10.992, Val NLL: 11.119:  55%|█████▍    | 164/300 [05:15<04:46,  2.10s/it]Train NLL: 10.989, Val NLL: 11.133:  55%|█████▌    | 165/300 [05:17<04:32,  2.02s/it]Train NLL: 11.012, Val NLL: 11.097:  55%|█████▌    | 166/300 [05:19<04:21,  1.96s/it]Train NLL: 10.991, Val NLL: 11.322:  56%|█████▌    | 167/300 [05:21<04:18,  1.94s/it]Train NLL: 11.072, Val NLL: 11.122:  56%|█████▌    | 168/300 [05:22<04:13,  1.92s/it]Train NLL: 11.013, Val NLL: 11.198:  56%|█████▋    | 169/300 [05:25<04:29,  2.06s/it]Train NLL: 11.015, Val NLL: 11.150:  57%|█████▋    | 170/300 [05:27<04:17,  1.98s/it]Train NLL: 11.000, Val NLL: 11.173:  57%|█████▋    | 171/300 [05:29<04:12,  1.96s/it]Train NLL: 10.999, Val NLL: 11.106:  57%|█████▋    | 172/300 [05:31<04:24,  2.07s/it]Train NLL: 10.997, Val NLL: 11.121:  58%|█████▊    | 173/300 [05:33<04:06,  1.94s/it]Train NLL: 10.996, Val NLL: 11.132:  58%|█████▊    | 174/300 [05:34<03:57,  1.88s/it]Train NLL: 10.993, Val NLL: 11.127:  58%|█████▊    | 175/300 [05:36<03:57,  1.90s/it]Train NLL: 10.985, Val NLL: 11.130:  59%|█████▊    | 176/300 [05:38<04:10,  2.02s/it]Train NLL: 11.007, Val NLL: 11.105:  59%|█████▉    | 177/300 [05:40<03:59,  1.95s/it]Train NLL: 10.991, Val NLL: 11.109:  59%|█████▉    | 178/300 [05:42<03:50,  1.89s/it]Train NLL: 10.982, Val NLL: 11.161:  60%|█████▉    | 179/300 [05:44<03:49,  1.90s/it]Train NLL: 10.994, Val NLL: 11.168:  60%|██████    | 180/300 [05:46<03:58,  1.99s/it]Epoch   181: reducing learning rate of group 0 to 1.0000e-03.
Train NLL: 10.997, Val NLL: 11.130:  60%|██████    | 181/300 [05:48<03:45,  1.89s/it]Train NLL: 10.931, Val NLL: 11.067:  61%|██████    | 182/300 [05:50<03:37,  1.84s/it]Train NLL: 10.918, Val NLL: 11.063:  61%|██████    | 183/300 [05:52<03:43,  1.91s/it]Train NLL: 10.918, Val NLL: 11.063:  61%|██████▏   | 184/300 [05:53<03:32,  1.83s/it]Train NLL: 10.918, Val NLL: 11.067:  62%|██████▏   | 185/300 [05:55<03:34,  1.87s/it]Train NLL: 10.915, Val NLL: 11.064:  62%|██████▏   | 186/300 [05:57<03:35,  1.89s/it]Train NLL: 10.915, Val NLL: 11.061:  62%|██████▏   | 187/300 [05:59<03:47,  2.01s/it]Train NLL: 10.916, Val NLL: 11.061:  63%|██████▎   | 188/300 [06:01<03:37,  1.94s/it]Train NLL: 10.915, Val NLL: 11.065:  63%|██████▎   | 189/300 [06:03<03:28,  1.88s/it]Train NLL: 10.914, Val NLL: 11.059:  63%|██████▎   | 190/300 [06:05<03:21,  1.83s/it]Train NLL: 10.917, Val NLL: 11.063:  64%|██████▎   | 191/300 [06:06<03:17,  1.82s/it]Train NLL: 10.916, Val NLL: 11.060:  64%|██████▍   | 192/300 [06:08<03:19,  1.85s/it]Train NLL: 10.916, Val NLL: 11.067:  64%|██████▍   | 193/300 [06:10<03:12,  1.80s/it]Train NLL: 10.915, Val NLL: 11.063:  65%|██████▍   | 194/300 [06:13<03:36,  2.04s/it]Train NLL: 10.917, Val NLL: 11.066:  65%|██████▌   | 195/300 [06:15<03:33,  2.03s/it]Train NLL: 10.918, Val NLL: 11.071:  65%|██████▌   | 196/300 [06:16<03:24,  1.96s/it]Train NLL: 10.918, Val NLL: 11.063:  66%|██████▌   | 197/300 [06:18<03:12,  1.87s/it]Train NLL: 10.915, Val NLL: 11.064:  66%|██████▌   | 198/300 [06:20<03:16,  1.93s/it]Train NLL: 10.914, Val NLL: 11.065:  66%|██████▋   | 199/300 [06:22<03:25,  2.04s/it]Train NLL: 10.917, Val NLL: 11.066:  67%|██████▋   | 200/300 [06:25<03:25,  2.05s/it]Train NLL: 10.916, Val NLL: 11.068:  67%|██████▋   | 201/300 [06:27<03:19,  2.02s/it]Train NLL: 10.923, Val NLL: 11.065:  67%|██████▋   | 202/300 [06:28<03:09,  1.93s/it]Train NLL: 10.918, Val NLL: 11.063:  68%|██████▊   | 203/300 [06:30<03:03,  1.89s/it]Train NLL: 10.914, Val NLL: 11.067:  68%|██████▊   | 204/300 [06:32<02:59,  1.87s/it]Train NLL: 10.914, Val NLL: 11.058:  68%|██████▊   | 205/300 [06:34<02:57,  1.86s/it]Train NLL: 10.917, Val NLL: 11.068:  69%|██████▊   | 206/300 [06:36<02:56,  1.88s/it]Train NLL: 10.914, Val NLL: 11.067:  69%|██████▉   | 207/300 [06:38<02:55,  1.89s/it]Train NLL: 10.914, Val NLL: 11.068:  69%|██████▉   | 208/300 [06:39<02:48,  1.84s/it]Train NLL: 10.911, Val NLL: 11.070:  70%|██████▉   | 209/300 [06:42<03:01,  1.99s/it]Train NLL: 10.915, Val NLL: 11.068:  70%|███████   | 210/300 [06:43<02:51,  1.91s/it]Train NLL: 10.913, Val NLL: 11.067:  70%|███████   | 211/300 [06:45<02:51,  1.92s/it]Train NLL: 10.917, Val NLL: 11.065:  71%|███████   | 212/300 [06:48<03:05,  2.10s/it]Train NLL: 10.915, Val NLL: 11.071:  71%|███████   | 213/300 [06:49<02:51,  1.97s/it]Train NLL: 10.917, Val NLL: 11.068:  71%|███████▏  | 214/300 [06:51<02:45,  1.92s/it]Train NLL: 10.913, Val NLL: 11.063:  72%|███████▏  | 215/300 [06:53<02:40,  1.89s/it]Train NLL: 10.918, Val NLL: 11.069:  72%|███████▏  | 216/300 [06:55<02:35,  1.86s/it]Train NLL: 10.914, Val NLL: 11.066:  72%|███████▏  | 217/300 [06:57<02:33,  1.84s/it]Train NLL: 10.914, Val NLL: 11.067:  73%|███████▎  | 218/300 [06:59<02:34,  1.89s/it]Train NLL: 10.913, Val NLL: 11.062:  73%|███████▎  | 219/300 [07:00<02:28,  1.84s/it]Train NLL: 10.912, Val NLL: 11.068:  73%|███████▎  | 220/300 [07:02<02:25,  1.82s/it]Train NLL: 10.912, Val NLL: 11.069:  74%|███████▎  | 221/300 [07:04<02:23,  1.81s/it]Train NLL: 10.919, Val NLL: 11.070:  74%|███████▍  | 222/300 [07:06<02:17,  1.76s/it]Train NLL: 10.915, Val NLL: 11.069:  74%|███████▍  | 223/300 [07:08<02:20,  1.82s/it]Train NLL: 10.915, Val NLL: 11.066:  75%|███████▍  | 224/300 [07:09<02:17,  1.82s/it]Train NLL: 10.913, Val NLL: 11.066:  75%|███████▌  | 225/300 [07:11<02:18,  1.85s/it]Train NLL: 10.913, Val NLL: 11.065:  75%|███████▌  | 226/300 [07:14<02:34,  2.09s/it]Train NLL: 10.913, Val NLL: 11.066:  76%|███████▌  | 227/300 [07:16<02:36,  2.14s/it]Train NLL: 10.913, Val NLL: 11.062:  76%|███████▌  | 228/300 [07:19<02:39,  2.22s/it]Train NLL: 10.914, Val NLL: 11.067:  76%|███████▋  | 229/300 [07:21<02:36,  2.20s/it]Epoch   230: reducing learning rate of group 0 to 1.0000e-04.
Train NLL: 10.914, Val NLL: 11.071:  77%|███████▋  | 230/300 [07:23<02:30,  2.15s/it]Train NLL: 10.906, Val NLL: 11.063:  77%|███████▋  | 231/300 [07:24<02:18,  2.01s/it]Train NLL: 10.903, Val NLL: 11.062:  77%|███████▋  | 232/300 [07:26<02:12,  1.95s/it]Train NLL: 10.903, Val NLL: 11.061:  78%|███████▊  | 233/300 [07:28<02:08,  1.91s/it]Train NLL: 10.903, Val NLL: 11.060:  78%|███████▊  | 234/300 [07:30<02:12,  2.01s/it]Train NLL: 10.902, Val NLL: 11.060:  78%|███████▊  | 235/300 [07:33<02:23,  2.20s/it]Train NLL: 10.903, Val NLL: 11.060:  79%|███████▊  | 236/300 [07:35<02:14,  2.09s/it]Train NLL: 10.902, Val NLL: 11.061:  79%|███████▉  | 237/300 [07:37<02:04,  1.98s/it]Train NLL: 10.902, Val NLL: 11.061:  79%|███████▉  | 238/300 [07:38<01:57,  1.89s/it]Train NLL: 10.902, Val NLL: 11.060:  80%|███████▉  | 239/300 [07:40<01:56,  1.91s/it]Train NLL: 10.903, Val NLL: 11.062:  80%|████████  | 240/300 [07:42<01:52,  1.87s/it]Train NLL: 10.902, Val NLL: 11.061:  80%|████████  | 241/300 [07:44<01:49,  1.86s/it]Train NLL: 10.902, Val NLL: 11.060:  81%|████████  | 242/300 [07:46<01:47,  1.85s/it]Train NLL: 10.902, Val NLL: 11.060:  81%|████████  | 243/300 [07:47<01:43,  1.82s/it]Train NLL: 10.902, Val NLL: 11.060:  81%|████████▏ | 244/300 [07:49<01:41,  1.80s/it]Train NLL: 10.902, Val NLL: 11.061:  82%|████████▏ | 245/300 [07:52<01:49,  1.99s/it]Train NLL: 10.903, Val NLL: 11.061:  82%|████████▏ | 246/300 [07:54<01:48,  2.00s/it]Train NLL: 10.902, Val NLL: 11.060:  82%|████████▏ | 247/300 [07:56<01:44,  1.97s/it]Train NLL: 10.902, Val NLL: 11.061:  83%|████████▎ | 248/300 [07:57<01:40,  1.94s/it]Train NLL: 10.902, Val NLL: 11.060:  83%|████████▎ | 249/300 [07:59<01:37,  1.91s/it]Train NLL: 10.902, Val NLL: 11.061:  83%|████████▎ | 250/300 [08:01<01:39,  2.00s/it]Train NLL: 10.902, Val NLL: 11.061:  84%|████████▎ | 251/300 [08:04<01:39,  2.03s/it]Train NLL: 10.902, Val NLL: 11.060:  84%|████████▍ | 252/300 [08:05<01:34,  1.98s/it]Train NLL: 10.902, Val NLL: 11.061:  84%|████████▍ | 253/300 [08:07<01:31,  1.95s/it]Train NLL: 10.903, Val NLL: 11.061:  85%|████████▍ | 254/300 [08:09<01:25,  1.87s/it]Train NLL: 10.902, Val NLL: 11.060:  85%|████████▌ | 255/300 [08:11<01:25,  1.91s/it]Epoch   256: reducing learning rate of group 0 to 1.0000e-05.
Train NLL: 10.902, Val NLL: 11.061:  85%|████████▌ | 256/300 [08:13<01:24,  1.93s/it]Train NLL: 10.901, Val NLL: 11.061:  86%|████████▌ | 257/300 [08:15<01:19,  1.85s/it]Train NLL: 10.901, Val NLL: 11.060:  86%|████████▌ | 258/300 [08:16<01:15,  1.79s/it]Train NLL: 10.901, Val NLL: 11.060:  86%|████████▋ | 259/300 [08:18<01:13,  1.78s/it]Train NLL: 10.901, Val NLL: 11.060:  87%|████████▋ | 260/300 [08:20<01:12,  1.81s/it]Train NLL: 10.901, Val NLL: 11.060:  87%|████████▋ | 261/300 [08:22<01:08,  1.76s/it]Train NLL: 10.901, Val NLL: 11.060:  87%|████████▋ | 262/300 [08:24<01:11,  1.87s/it]Train NLL: 10.901, Val NLL: 11.060:  88%|████████▊ | 263/300 [08:25<01:08,  1.84s/it]Train NLL: 10.901, Val NLL: 11.060:  88%|████████▊ | 264/300 [08:27<01:06,  1.84s/it]Train NLL: 10.901, Val NLL: 11.060:  88%|████████▊ | 265/300 [08:29<01:08,  1.95s/it]Train NLL: 10.901, Val NLL: 11.060:  89%|████████▊ | 266/300 [08:31<01:04,  1.89s/it]Train NLL: 10.901, Val NLL: 11.060:  89%|████████▉ | 267/300 [08:33<01:00,  1.84s/it]Train NLL: 10.901, Val NLL: 11.060:  89%|████████▉ | 268/300 [08:35<00:58,  1.83s/it]Train NLL: 10.901, Val NLL: 11.060:  90%|████████▉ | 269/300 [08:36<00:55,  1.80s/it]Train NLL: 10.901, Val NLL: 11.060:  90%|█████████ | 270/300 [08:39<00:56,  1.88s/it]Train NLL: 10.901, Val NLL: 11.060:  90%|█████████ | 271/300 [08:41<00:55,  1.90s/it]Train NLL: 10.901, Val NLL: 11.060:  91%|█████████ | 272/300 [08:43<00:57,  2.04s/it]Train NLL: 10.901, Val NLL: 11.060:  91%|█████████ | 273/300 [08:45<00:59,  2.19s/it]Train NLL: 10.901, Val NLL: 11.060:  91%|█████████▏| 274/300 [08:47<00:52,  2.03s/it]Train NLL: 10.901, Val NLL: 11.060:  92%|█████████▏| 275/300 [08:49<00:48,  1.94s/it]Train NLL: 10.901, Val NLL: 11.060:  92%|█████████▏| 276/300 [08:51<00:45,  1.91s/it]Train NLL: 10.901, Val NLL: 11.060:  92%|█████████▏| 277/300 [08:52<00:42,  1.84s/it]Epoch   278: reducing learning rate of group 0 to 1.0000e-06.
Train NLL: 10.901, Val NLL: 11.060:  93%|█████████▎| 278/300 [08:54<00:41,  1.88s/it]Train NLL: 10.901, Val NLL: 11.060:  93%|█████████▎| 279/300 [08:56<00:39,  1.90s/it]Train NLL: 10.901, Val NLL: 11.060:  93%|█████████▎| 280/300 [08:58<00:36,  1.83s/it]Train NLL: 10.901, Val NLL: 11.060:  94%|█████████▎| 281/300 [09:00<00:34,  1.80s/it]Train NLL: 10.901, Val NLL: 11.060:  94%|█████████▍| 282/300 [09:01<00:32,  1.81s/it]Train NLL: 10.901, Val NLL: 11.060:  94%|█████████▍| 283/300 [09:03<00:31,  1.83s/it]Train NLL: 10.901, Val NLL: 11.060:  95%|█████████▍| 284/300 [09:05<00:29,  1.87s/it]Train NLL: 10.901, Val NLL: 11.060:  95%|█████████▌| 285/300 [09:07<00:27,  1.84s/it]Train NLL: 10.901, Val NLL: 11.060:  95%|█████████▌| 286/300 [09:09<00:25,  1.79s/it]Train NLL: 10.901, Val NLL: 11.060:  96%|█████████▌| 287/300 [09:11<00:23,  1.78s/it]Train NLL: 10.901, Val NLL: 11.060:  96%|█████████▌| 288/300 [09:12<00:21,  1.79s/it]Train NLL: 10.901, Val NLL: 11.060:  96%|█████████▋| 289/300 [09:14<00:19,  1.80s/it]Train NLL: 10.901, Val NLL: 11.060:  97%|█████████▋| 290/300 [09:16<00:17,  1.76s/it]Train NLL: 10.901, Val NLL: 11.060:  97%|█████████▋| 291/300 [09:18<00:16,  1.80s/it]Train NLL: 10.901, Val NLL: 11.060:  97%|█████████▋| 292/300 [09:20<00:15,  1.88s/it]Train NLL: 10.901, Val NLL: 11.060:  98%|█████████▊| 293/300 [09:22<00:13,  1.91s/it]Train NLL: 10.901, Val NLL: 11.060:  98%|█████████▊| 294/300 [09:24<00:11,  1.91s/it]Train NLL: 10.901, Val NLL: 11.060:  98%|█████████▊| 295/300 [09:26<00:09,  1.90s/it]Train NLL: 10.901, Val NLL: 11.060:  99%|█████████▊| 296/300 [09:27<00:07,  1.83s/it]Train NLL: 10.901, Val NLL: 11.060:  99%|█████████▉| 297/300 [09:29<00:05,  1.82s/it]Train NLL: 10.901, Val NLL: 11.060:  99%|█████████▉| 298/300 [09:31<00:03,  1.86s/it]Train NLL: 10.901, Val NLL: 11.060: 100%|█████████▉| 299/300 [09:33<00:01,  1.80s/it]Train NLL: 10.901, Val NLL: 11.060: 100%|██████████| 300/300 [09:35<00:00,  1.91s/it]Train NLL: 10.901, Val NLL: 11.060: 100%|██████████| 300/300 [09:35<00:00,  1.92s/it]
INFO - residual_nf - Completed after 0:09:35
