{
  "memory.usage": {
    "steps": [
      0,
      1,
      2,
      3,
      0,
      1,
      2,
      3,
      4,
      5,
      6,
      7,
      8,
      9,
      10,
      0,
      1,
      2,
      3,
      4,
      5,
      6,
      7,
      8,
      9,
      10,
      11,
      12,
      13,
      14,
      15
    ],
    "timestamps": [
      "2022-10-17T06:32:03.553862",
      "2022-10-17T06:50:06.029248",
      "2022-10-17T07:08:59.381029",
      "2022-10-17T07:31:13.473315",
      "2022-10-18T12:55:55.393515",
      "2022-10-18T13:13:50.044185",
      "2022-10-18T13:32:13.729276",
      "2022-10-18T13:50:06.061443",
      "2022-10-18T14:07:54.392350",
      "2022-10-18T14:25:32.828692",
      "2022-10-18T14:42:53.310760",
      "2022-10-18T15:00:04.559059",
      "2022-10-18T15:17:18.628187",
      "2022-10-18T15:34:49.746711",
      "2022-10-18T15:52:46.453774",
      "2022-10-18T18:41:34.540557",
      "2022-10-18T18:58:34.732976",
      "2022-10-18T19:15:45.913216",
      "2022-10-18T19:33:14.160510",
      "2022-10-18T19:50:24.214129",
      "2022-10-18T20:07:38.310605",
      "2022-10-18T20:24:37.808550",
      "2022-10-18T20:41:42.193635",
      "2022-10-18T20:58:47.314648",
      "2022-10-18T21:16:01.285158",
      "2022-10-18T21:33:15.852039",
      "2022-10-18T21:50:29.908352",
      "2022-10-18T22:07:44.782267",
      "2022-10-18T22:24:59.707746",
      "2022-10-18T22:42:14.878516",
      "2022-10-18T22:59:29.957104"
    ],
    "values": [
      2422.969856,
      2726.596096,
      2726.596096,
      2756.95872,
      2756.95872,
      2756.95872,
      2756.95872,
      2756.95872,
      2756.95872,
      2756.95872,
      2756.95872,
      2756.95872,
      2756.95872,
      2756.95872,
      2756.95872,
      2665.870848,
      2665.870848,
      2665.870848,
      2665.870848,
      2665.870848,
      2665.870848,
      2665.870848,
      2665.870848,
      2665.870848,
      2665.870848,
      2665.870848,
      2665.870848,
      2665.870848,
      2665.870848,
      2665.870848,
      2665.870848
    ]
  },
  "train": {
    "steps": [
      0,
      1,
      2,
      3,
      4,
      5,
      6,
      7,
      8,
      9,
      10,
      11,
      12,
      13,
      14,
      15,
      16,
      17,
      18,
      19,
      20,
      21,
      22,
      23,
      24,
      25,
      26,
      27,
      28,
      29,
      0,
      1,
      0,
      1,
      2,
      3,
      4,
      5,
      6,
      7,
      8,
      9,
      10,
      11,
      12,
      13,
      14,
      15,
      16,
      17,
      18,
      19,
      20,
      21,
      22,
      23,
      24,
      25,
      26,
      27,
      28,
      29,
      30,
      31,
      32,
      33,
      34,
      35,
      36,
      37,
      38,
      39,
      40,
      41,
      42,
      43,
      44,
      45,
      46,
      47,
      48,
      49,
      50,
      51,
      52,
      53,
      54,
      55,
      56,
      57,
      58,
      59,
      60,
      61,
      62,
      63,
      64,
      65,
      66,
      67,
      68,
      69,
      70,
      71,
      72,
      73,
      74,
      75,
      76,
      77,
      78,
      79,
      80,
      81,
      82,
      83,
      84,
      85,
      86,
      87,
      88,
      89,
      90,
      91,
      92,
      93,
      94,
      95,
      96,
      97,
      98,
      99,
      100,
      101,
      102,
      103,
      104,
      105,
      106,
      107,
      0,
      1,
      2,
      3,
      4,
      5,
      6,
      7,
      8,
      9,
      10,
      11,
      12,
      13,
      14,
      15,
      16,
      17,
      18,
      19,
      20,
      21,
      22,
      23,
      24,
      25,
      26,
      27,
      28,
      29,
      30,
      31,
      32,
      33,
      34,
      35,
      36,
      37,
      38,
      39,
      40,
      41,
      42,
      43,
      44,
      45,
      46,
      47,
      48,
      49,
      50,
      51,
      52,
      53,
      54,
      55,
      56,
      57,
      58,
      59,
      60,
      61,
      62,
      63,
      64,
      65,
      66,
      67,
      68,
      69,
      70,
      71,
      72,
      73,
      74,
      75,
      76,
      77,
      78,
      79,
      80,
      81,
      82,
      83,
      84,
      85,
      86,
      87,
      88,
      89,
      90,
      91,
      92,
      93,
      94,
      95,
      96,
      97,
      98,
      99,
      100,
      101,
      102,
      103,
      104,
      105,
      106,
      107,
      108,
      109,
      110,
      111,
      112,
      113,
      114,
      115,
      116,
      117,
      118,
      119,
      120,
      121,
      122,
      123,
      124,
      125,
      126,
      127,
      128,
      129,
      130,
      131,
      132,
      133,
      134,
      135,
      136,
      137,
      138,
      139,
      140,
      141,
      142,
      143,
      144,
      145,
      146,
      147,
      148,
      149,
      150,
      151,
      152,
      153,
      154,
      155,
      156,
      157,
      158,
      159
    ],
    "timestamps": [
      "2022-10-17T06:32:03.552449",
      "2022-10-17T06:34:19.980656",
      "2022-10-17T06:36:01.128264",
      "2022-10-17T06:37:39.326990",
      "2022-10-17T06:39:18.218672",
      "2022-10-17T06:41:04.047701",
      "2022-10-17T06:43:07.843154",
      "2022-10-17T06:45:44.706401",
      "2022-10-17T06:47:39.557194",
      "2022-10-17T06:50:06.025770",
      "2022-10-17T06:52:28.244411",
      "2022-10-17T06:54:21.196039",
      "2022-10-17T06:56:13.550396",
      "2022-10-17T06:58:02.589127",
      "2022-10-17T06:59:51.505464",
      "2022-10-17T07:01:43.377580",
      "2022-10-17T07:03:32.648624",
      "2022-10-17T07:05:21.110834",
      "2022-10-17T07:07:10.271851",
      "2022-10-17T07:08:59.378547",
      "2022-10-17T07:11:00.738793",
      "2022-10-17T07:13:43.743269",
      "2022-10-17T07:15:29.763718",
      "2022-10-17T07:17:18.202659",
      "2022-10-17T07:19:30.100876",
      "2022-10-17T07:22:43.327194",
      "2022-10-17T07:25:37.873717",
      "2022-10-17T07:27:36.065871",
      "2022-10-17T07:29:24.803288",
      "2022-10-17T07:31:13.470745",
      "2022-10-17T08:27:27.297052",
      "2022-10-17T08:29:17.389697",
      "2022-10-18T12:43:14.973380",
      "2022-10-18T12:45:03.975405",
      "2022-10-18T12:46:51.655826",
      "2022-10-18T12:48:42.522702",
      "2022-10-18T12:50:30.787861",
      "2022-10-18T12:52:18.435557",
      "2022-10-18T12:54:06.556339",
      "2022-10-18T12:55:55.391292",
      "2022-10-18T12:57:44.592753",
      "2022-10-18T12:59:33.007345",
      "2022-10-18T13:01:22.058818",
      "2022-10-18T13:03:10.276306",
      "2022-10-18T13:04:56.476648",
      "2022-10-18T13:06:41.309144",
      "2022-10-18T13:08:26.438800",
      "2022-10-18T13:10:11.403002",
      "2022-10-18T13:11:59.319526",
      "2022-10-18T13:13:50.042076",
      "2022-10-18T13:15:40.565172",
      "2022-10-18T13:17:33.398972",
      "2022-10-18T13:19:23.521042",
      "2022-10-18T13:21:11.196577",
      "2022-10-18T13:23:00.685776",
      "2022-10-18T13:24:49.814182",
      "2022-10-18T13:26:38.166440",
      "2022-10-18T13:28:26.671951",
      "2022-10-18T13:30:20.263939",
      "2022-10-18T13:32:13.727050",
      "2022-10-18T13:34:03.507855",
      "2022-10-18T13:35:54.883859",
      "2022-10-18T13:37:45.135805",
      "2022-10-18T13:39:35.973993",
      "2022-10-18T13:41:26.074763",
      "2022-10-18T13:43:11.461649",
      "2022-10-18T13:44:54.465132",
      "2022-10-18T13:46:39.298197",
      "2022-10-18T13:48:22.043283",
      "2022-10-18T13:50:06.059014",
      "2022-10-18T13:51:52.012661",
      "2022-10-18T13:53:39.762304",
      "2022-10-18T13:55:28.944166",
      "2022-10-18T13:57:15.942627",
      "2022-10-18T13:58:59.873582",
      "2022-10-18T14:00:45.751090",
      "2022-10-18T14:02:33.717793",
      "2022-10-18T14:04:19.898192",
      "2022-10-18T14:06:07.362998",
      "2022-10-18T14:07:54.388893",
      "2022-10-18T14:09:41.036161",
      "2022-10-18T14:11:27.884020",
      "2022-10-18T14:13:14.531238",
      "2022-10-18T14:15:01.634177",
      "2022-10-18T14:16:45.826799",
      "2022-10-18T14:18:29.179090",
      "2022-10-18T14:20:13.209175",
      "2022-10-18T14:21:58.582650",
      "2022-10-18T14:23:45.731784",
      "2022-10-18T14:25:32.826677",
      "2022-10-18T14:27:16.945021",
      "2022-10-18T14:29:00.297136",
      "2022-10-18T14:30:44.037543",
      "2022-10-18T14:32:27.219881",
      "2022-10-18T14:34:11.776394",
      "2022-10-18T14:35:55.645175",
      "2022-10-18T14:37:41.701264",
      "2022-10-18T14:39:26.432966",
      "2022-10-18T14:41:10.027975",
      "2022-10-18T14:42:53.308131",
      "2022-10-18T14:44:36.737457",
      "2022-10-18T14:46:20.018746",
      "2022-10-18T14:48:03.490325",
      "2022-10-18T14:49:46.175289",
      "2022-10-18T14:51:28.714194",
      "2022-10-18T14:53:11.335223",
      "2022-10-18T14:54:53.958124",
      "2022-10-18T14:56:38.211407",
      "2022-10-18T14:58:21.266463",
      "2022-10-18T15:00:04.556258",
      "2022-10-18T15:01:47.207022",
      "2022-10-18T15:03:29.862985",
      "2022-10-18T15:05:12.429164",
      "2022-10-18T15:06:55.013480",
      "2022-10-18T15:08:37.862859",
      "2022-10-18T15:10:21.671843",
      "2022-10-18T15:12:05.658427",
      "2022-10-18T15:13:50.383835",
      "2022-10-18T15:15:34.577709",
      "2022-10-18T15:17:18.625926",
      "2022-10-18T15:19:03.745010",
      "2022-10-18T15:20:47.870697",
      "2022-10-18T15:22:33.297133",
      "2022-10-18T15:24:18.061162",
      "2022-10-18T15:26:02.260253",
      "2022-10-18T15:27:47.644020",
      "2022-10-18T15:29:32.098393",
      "2022-10-18T15:31:16.298451",
      "2022-10-18T15:33:03.964604",
      "2022-10-18T15:34:49.744605",
      "2022-10-18T15:36:34.972853",
      "2022-10-18T15:38:19.365028",
      "2022-10-18T15:40:07.331255",
      "2022-10-18T15:41:55.911710",
      "2022-10-18T15:43:43.508038",
      "2022-10-18T15:45:32.221720",
      "2022-10-18T15:47:22.361364",
      "2022-10-18T15:49:11.613485",
      "2022-10-18T15:50:59.381767",
      "2022-10-18T15:52:46.450866",
      "2022-10-18T18:26:11.026262",
      "2022-10-18T18:27:54.480388",
      "2022-10-18T18:29:37.049686",
      "2022-10-18T18:31:20.957601",
      "2022-10-18T18:33:04.382695",
      "2022-10-18T18:34:48.844202",
      "2022-10-18T18:36:29.944243",
      "2022-10-18T18:38:11.428981",
      "2022-10-18T18:39:54.408836",
      "2022-10-18T18:41:34.539150",
      "2022-10-18T18:43:15.765333",
      "2022-10-18T18:44:56.580355",
      "2022-10-18T18:46:36.552043",
      "2022-10-18T18:48:17.134050",
      "2022-10-18T18:49:58.257211",
      "2022-10-18T18:51:40.027779",
      "2022-10-18T18:53:22.631522",
      "2022-10-18T18:55:05.459743",
      "2022-10-18T18:56:50.711635",
      "2022-10-18T18:58:34.730543",
      "2022-10-18T19:00:17.081673",
      "2022-10-18T19:01:59.862598",
      "2022-10-18T19:03:43.068208",
      "2022-10-18T19:05:27.948215",
      "2022-10-18T19:07:11.917732",
      "2022-10-18T19:08:54.206934",
      "2022-10-18T19:10:36.754616",
      "2022-10-18T19:12:19.460760",
      "2022-10-18T19:14:03.944187",
      "2022-10-18T19:15:45.910635",
      "2022-10-18T19:17:28.703609",
      "2022-10-18T19:19:11.186384",
      "2022-10-18T19:20:54.528860",
      "2022-10-18T19:22:39.388335",
      "2022-10-18T19:24:25.821531",
      "2022-10-18T19:26:10.518290",
      "2022-10-18T19:27:55.388554",
      "2022-10-18T19:29:43.414779",
      "2022-10-18T19:31:30.375921",
      "2022-10-18T19:33:14.158663",
      "2022-10-18T19:34:57.211723",
      "2022-10-18T19:36:39.579605",
      "2022-10-18T19:38:23.429610",
      "2022-10-18T19:40:05.555891",
      "2022-10-18T19:41:45.624054",
      "2022-10-18T19:43:27.818238",
      "2022-10-18T19:45:11.792064",
      "2022-10-18T19:46:57.437241",
      "2022-10-18T19:48:40.884232",
      "2022-10-18T19:50:24.211613",
      "2022-10-18T19:52:08.602784",
      "2022-10-18T19:53:52.905122",
      "2022-10-18T19:55:34.611043",
      "2022-10-18T19:57:18.504688",
      "2022-10-18T19:59:02.666672",
      "2022-10-18T20:00:45.789612",
      "2022-10-18T20:02:28.340398",
      "2022-10-18T20:04:11.448880",
      "2022-10-18T20:05:55.246241",
      "2022-10-18T20:07:38.308432",
      "2022-10-18T20:09:19.678269",
      "2022-10-18T20:10:59.742502",
      "2022-10-18T20:12:40.849897",
      "2022-10-18T20:14:21.656515",
      "2022-10-18T20:16:04.908677",
      "2022-10-18T20:17:45.776168",
      "2022-10-18T20:19:28.526493",
      "2022-10-18T20:21:12.472658",
      "2022-10-18T20:22:54.103769",
      "2022-10-18T20:24:37.806985",
      "2022-10-18T20:26:21.458615",
      "2022-10-18T20:28:05.031980",
      "2022-10-18T20:29:47.912604",
      "2022-10-18T20:31:31.790366",
      "2022-10-18T20:33:14.306717",
      "2022-10-18T20:34:55.771455",
      "2022-10-18T20:36:37.316443",
      "2022-10-18T20:38:18.831040",
      "2022-10-18T20:40:00.616130",
      "2022-10-18T20:41:42.191366",
      "2022-10-18T20:43:23.754718",
      "2022-10-18T20:45:05.307501",
      "2022-10-18T20:46:47.105779",
      "2022-10-18T20:48:28.974930",
      "2022-10-18T20:50:11.040997",
      "2022-10-18T20:51:53.746319",
      "2022-10-18T20:53:37.201729",
      "2022-10-18T20:55:20.742232",
      "2022-10-18T20:57:04.103503",
      "2022-10-18T20:58:47.312186",
      "2022-10-18T21:00:30.775690",
      "2022-10-18T21:02:14.145456",
      "2022-10-18T21:03:57.529142",
      "2022-10-18T21:05:41.003432",
      "2022-10-18T21:07:24.454791",
      "2022-10-18T21:09:07.720978",
      "2022-10-18T21:10:51.300353",
      "2022-10-18T21:12:34.572319",
      "2022-10-18T21:14:17.897191",
      "2022-10-18T21:16:01.283573",
      "2022-10-18T21:17:44.799934",
      "2022-10-18T21:19:28.042154",
      "2022-10-18T21:21:11.652279",
      "2022-10-18T21:22:54.916939",
      "2022-10-18T21:24:38.286123",
      "2022-10-18T21:26:21.823628",
      "2022-10-18T21:28:05.311905",
      "2022-10-18T21:29:48.711921",
      "2022-10-18T21:31:32.439732",
      "2022-10-18T21:33:15.848422",
      "2022-10-18T21:34:59.201587",
      "2022-10-18T21:36:42.698120",
      "2022-10-18T21:38:26.012236",
      "2022-10-18T21:40:09.273680",
      "2022-10-18T21:41:52.795359",
      "2022-10-18T21:43:36.238737",
      "2022-10-18T21:45:19.553900",
      "2022-10-18T21:47:03.195623",
      "2022-10-18T21:48:46.557430",
      "2022-10-18T21:50:29.906020",
      "2022-10-18T21:52:13.368986",
      "2022-10-18T21:53:56.830543",
      "2022-10-18T21:55:40.358005",
      "2022-10-18T21:57:24.122555",
      "2022-10-18T21:59:07.517311",
      "2022-10-18T22:00:50.982220",
      "2022-10-18T22:02:34.601576",
      "2022-10-18T22:04:18.109310",
      "2022-10-18T22:06:01.345797",
      "2022-10-18T22:07:44.779637",
      "2022-10-18T22:09:28.255502",
      "2022-10-18T22:11:11.780118",
      "2022-10-18T22:12:55.351899",
      "2022-10-18T22:14:38.774657",
      "2022-10-18T22:16:22.092548",
      "2022-10-18T22:18:05.981022",
      "2022-10-18T22:19:49.483057",
      "2022-10-18T22:21:33.036187",
      "2022-10-18T22:23:16.312944",
      "2022-10-18T22:24:59.705316",
      "2022-10-18T22:26:43.360992",
      "2022-10-18T22:28:26.848765",
      "2022-10-18T22:30:10.357851",
      "2022-10-18T22:31:53.789333",
      "2022-10-18T22:33:37.333541",
      "2022-10-18T22:35:20.706333",
      "2022-10-18T22:37:04.482437",
      "2022-10-18T22:38:47.866722",
      "2022-10-18T22:40:31.207273",
      "2022-10-18T22:42:14.875847",
      "2022-10-18T22:43:58.462656",
      "2022-10-18T22:45:41.928414",
      "2022-10-18T22:47:25.397556",
      "2022-10-18T22:49:08.878336",
      "2022-10-18T22:50:52.321475",
      "2022-10-18T22:52:35.832359",
      "2022-10-18T22:54:19.337893",
      "2022-10-18T22:56:02.849918",
      "2022-10-18T22:57:46.376454",
      "2022-10-18T22:59:29.955285"
    ],
    "values": [
      729.8136472162398,
      190.51789240641995,
      151.52543412855437,
      109.35596254657406,
      74.09258338636216,
      56.438151551069915,
      45.697814160852666,
      39.81413611850425,
      34.50896083340952,
      32.781601606734846,
      31.49343650282591,
      30.872282749473232,
      30.090961622907084,
      31.937577801114323,
      29.27989715026883,
      29.140136077101747,
      28.67319062435261,
      30.554413972770067,
      28.30717526115888,
      28.233230020715524,
      28.394410754471846,
      28.26895395649717,
      38.09981940079918,
      30.35481884989218,
      32.03759797961792,
      29.58477712225168,
      29.133311930168983,
      28.993265613589173,
      28.820910076639755,
      28.79594336719091,
      28.727149530517103,
      30.614572103774353,
      29.396891388197265,
      28.961358020834513,
      28.830910957654904,
      28.882380777961476,
      35.800542973487644,
      32.91187739910045,
      32.07874758609257,
      31.80594669482175,
      32.252586664762454,
      31.812691830268008,
      31.886903068001697,
      31.694156892820793,
      52.73124567877081,
      38.089063106606524,
      36.532686407005,
      35.974317499241685,
      35.530454146762665,
      35.44245019271002,
      34.91448144596972,
      34.905471392122855,
      34.921357997062074,
      36.929276695408845,
      35.37602825834118,
      34.583963291948386,
      34.647224299315965,
      34.797525744287874,
      34.97519968934614,
      35.22550805169887,
      35.5366153316053,
      35.83473511658621,
      36.109760666812065,
      36.46800292475793,
      47.706258985446745,
      39.373232969179334,
      38.19491534193143,
      38.16502096979139,
      38.30577854947352,
      38.45286025488078,
      38.684191890091945,
      38.922506271283765,
      39.147098853045534,
      39.346250922796955,
      39.57686402883171,
      39.522701746035935,
      39.48552925163595,
      39.48596112658873,
      39.469688674700535,
      39.429440334808135,
      39.36703332500868,
      39.3690266754199,
      39.337438723714925,
      39.33088750704362,
      39.29078985524555,
      39.303077886715734,
      39.24211303567345,
      39.26959780849418,
      39.274771656197224,
      39.23281318832137,
      39.19540303246461,
      39.21923607409705,
      39.220776631917374,
      39.175789629249806,
      39.18811329509644,
      39.12718606159969,
      39.13625619155236,
      48.49922138082771,
      39.82521360525697,
      39.28465120673266,
      39.130001132720075,
      39.05635254636572,
      39.01549891993867,
      39.00357459011187,
      39.02037574580635,
      39.005939835226016,
      38.988981569270805,
      38.95762324686246,
      38.93461964508178,
      38.96974232739637,
      38.9813540487998,
      38.93302618219191,
      38.95518507155639,
      38.91462983263873,
      38.922988455041214,
      38.87881398750091,
      38.89806678970384,
      38.88678144833324,
      38.88747782123089,
      38.89844448589384,
      38.85888533721327,
      38.863844717809165,
      38.861841270951025,
      38.851296442613574,
      38.839639330455526,
      38.85231714309225,
      38.83347504143331,
      38.850750519367594,
      38.81464977782517,
      38.82120974579227,
      38.811524894922414,
      38.791487312171135,
      38.78485542011911,
      38.84938985460934,
      38.800641884458486,
      38.733497125892434,
      38.75367380503983,
      38.77303590670227,
      38.7268009039467,
      38.76078615179651,
      38.75095675197496,
      38.759366823692545,
      38.705564454923895,
      38.69622198371212,
      38.71573717565468,
      38.70640237037066,
      47.5727785030955,
      39.3327040669929,
      38.823593642241015,
      38.699715205371334,
      38.65282397110326,
      38.629937021770864,
      38.63275193361362,
      38.61223430211951,
      38.60124901443927,
      38.58197371293814,
      38.57277076141841,
      38.58050076354668,
      38.55570509655388,
      38.54591029477593,
      38.549006622208395,
      38.54512045332877,
      38.531803821996796,
      38.50259595394134,
      38.521204620641235,
      38.47444590028015,
      38.484586037141035,
      38.46583724495381,
      38.42782032430022,
      38.42884485137018,
      38.40935292166957,
      38.41103840114747,
      38.40065663241045,
      38.346507287444155,
      38.322825586297974,
      38.2868410056963,
      38.252801677651895,
      38.19663492839565,
      38.185240364826534,
      38.172028727627364,
      38.13501774316113,
      38.08179758918494,
      38.10561458879943,
      38.030872005152844,
      38.02585182609421,
      37.9938098234941,
      38.00171614506856,
      37.94360830803285,
      37.92818556709016,
      37.90767744519248,
      37.90830096466991,
      37.904204023233554,
      37.8750667403406,
      37.878606349744246,
      37.85248787967165,
      37.871557524638405,
      37.89777050402791,
      37.86272368197078,
      37.848741819843916,
      37.86414954088406,
      46.36176530729489,
      38.476314969297455,
      37.991376120321064,
      37.85134591214075,
      37.83527885113924,
      37.82373376840571,
      37.81946293738044,
      37.81232590380203,
      37.811969321106815,
      37.800140412843845,
      37.78856967878791,
      37.789790402880406,
      37.82590516636317,
      37.821034285236784,
      37.8161103110326,
      37.784365697069475,
      37.776361935017206,
      37.82164688391533,
      37.829208709698726,
      37.80383379811437,
      37.830027514130805,
      37.80075355474218,
      37.83432173758113,
      37.79427969067736,
      37.815274513643416,
      37.80848131756853,
      37.791621452172656,
      37.79866714169829,
      37.78853377400856,
      37.79739358105896,
      37.82167421022378,
      37.8187482894675,
      37.79173013110479,
      37.82746000927541,
      37.81593741192274,
      37.84345551284061,
      37.8100425568442,
      37.818765611453145,
      37.5995548412234,
      37.56285789781667,
      37.56108132612278,
      37.56019273936828,
      37.56638857140242,
      37.55840883643349,
      37.55470655596578,
      37.56591701369979,
      37.55869038374024,
      37.56166372143458,
      37.559081935839075,
      37.563477039209296,
      37.56117853106167,
      37.560737004183736,
      37.559137989715154,
      37.55917354085662,
      37.55881633762079,
      37.559714837264266,
      37.56559717810192,
      37.561703998873945,
      37.555806483777104,
      37.55569953123496,
      37.55915508499477,
      37.56657267936677,
      37.55810433771711,
      37.55626299978195,
      37.56275374931739,
      37.53260320784414,
      37.52544066548841,
      37.525152642719696,
      37.52300902591463,
      37.52453411434067,
      37.52638192909396,
      37.52759406860027,
      37.52515873273795,
      37.527705056609555,
      37.52730636925378,
      37.52594129315923,
      37.52456375270075,
      37.52284677911628,
      37.5300821944556,
      37.52327327280551,
      37.524112168725026,
      37.5287478971523,
      37.52710174183782,
      37.51887936024225,
      37.52647082743434,
      37.524324785506124,
      37.527176147409826,
      37.522868618395364,
      37.529128011659125,
      37.52774296440773,
      37.52085702883886,
      37.52745052188059,
      37.525445477031056,
      37.526358768360836,
      37.52619739755682,
      37.52190523627033,
      37.527830030839866,
      37.52541636255065,
      37.52785905545866,
      37.52823221141263
    ]
  },
  "val": {
    "steps": [
      0,
      1,
      2,
      3,
      4,
      5,
      6,
      7,
      8,
      9,
      10,
      11,
      12,
      13,
      14,
      15,
      16,
      17,
      18,
      19,
      20,
      21,
      22,
      23,
      24,
      25,
      26,
      27,
      28,
      29,
      0,
      1,
      0,
      1,
      2,
      3,
      4,
      5,
      6,
      7,
      8,
      9,
      10,
      11,
      12,
      13,
      14,
      15,
      16,
      17,
      18,
      19,
      20,
      21,
      22,
      23,
      24,
      25,
      26,
      27,
      28,
      29,
      30,
      31,
      32,
      33,
      34,
      35,
      36,
      37,
      38,
      39,
      40,
      41,
      42,
      43,
      44,
      45,
      46,
      47,
      48,
      49,
      50,
      51,
      52,
      53,
      54,
      55,
      56,
      57,
      58,
      59,
      60,
      61,
      62,
      63,
      64,
      65,
      66,
      67,
      68,
      69,
      70,
      71,
      72,
      73,
      74,
      75,
      76,
      77,
      78,
      79,
      80,
      81,
      82,
      83,
      84,
      85,
      86,
      87,
      88,
      89,
      90,
      91,
      92,
      93,
      94,
      95,
      96,
      97,
      98,
      99,
      100,
      101,
      102,
      103,
      104,
      105,
      106,
      107,
      0,
      1,
      2,
      3,
      4,
      5,
      6,
      7,
      8,
      9,
      10,
      11,
      12,
      13,
      14,
      15,
      16,
      17,
      18,
      19,
      20,
      21,
      22,
      23,
      24,
      25,
      26,
      27,
      28,
      29,
      30,
      31,
      32,
      33,
      34,
      35,
      36,
      37,
      38,
      39,
      40,
      41,
      42,
      43,
      44,
      45,
      46,
      47,
      48,
      49,
      50,
      51,
      52,
      53,
      54,
      55,
      56,
      57,
      58,
      59,
      60,
      61,
      62,
      63,
      64,
      65,
      66,
      67,
      68,
      69,
      70,
      71,
      72,
      73,
      74,
      75,
      76,
      77,
      78,
      79,
      80,
      81,
      82,
      83,
      84,
      85,
      86,
      87,
      88,
      89,
      90,
      91,
      92,
      93,
      94,
      95,
      96,
      97,
      98,
      99,
      100,
      101,
      102,
      103,
      104,
      105,
      106,
      107,
      108,
      109,
      110,
      111,
      112,
      113,
      114,
      115,
      116,
      117,
      118,
      119,
      120,
      121,
      122,
      123,
      124,
      125,
      126,
      127,
      128,
      129,
      130,
      131,
      132,
      133,
      134,
      135,
      136,
      137,
      138,
      139,
      140,
      141,
      142,
      143,
      144,
      145,
      146,
      147,
      148,
      149,
      150,
      151,
      152,
      153,
      154,
      155,
      156,
      157,
      158,
      159
    ],
    "timestamps": [
      "2022-10-17T06:32:14.481615",
      "2022-10-17T06:34:23.477393",
      "2022-10-17T06:36:04.675440",
      "2022-10-17T06:37:42.948152",
      "2022-10-17T06:39:22.195466",
      "2022-10-17T06:41:07.442527",
      "2022-10-17T06:43:18.743651",
      "2022-10-17T06:45:48.488460",
      "2022-10-17T06:47:42.899072",
      "2022-10-17T06:50:16.218119",
      "2022-10-17T06:52:32.194375",
      "2022-10-17T06:54:24.680004",
      "2022-10-17T06:56:17.255593",
      "2022-10-17T06:58:05.985015",
      "2022-10-17T06:59:55.425854",
      "2022-10-17T07:01:47.008502",
      "2022-10-17T07:03:35.952209",
      "2022-10-17T07:05:24.544722",
      "2022-10-17T07:07:14.001776",
      "2022-10-17T07:09:02.948325",
      "2022-10-17T07:11:12.205206",
      "2022-10-17T07:13:47.200865",
      "2022-10-17T07:15:33.098238",
      "2022-10-17T07:17:22.024097",
      "2022-10-17T07:19:41.977293",
      "2022-10-17T07:22:50.200494",
      "2022-10-17T07:25:47.176228",
      "2022-10-17T07:27:39.371331",
      "2022-10-17T07:29:28.467531",
      "2022-10-17T07:31:16.943629",
      "2022-10-17T08:27:30.756391",
      "2022-10-17T08:29:20.806905",
      "2022-10-18T12:43:18.277742",
      "2022-10-18T12:45:07.412574",
      "2022-10-18T12:46:55.463284",
      "2022-10-18T12:48:45.992195",
      "2022-10-18T12:50:34.272986",
      "2022-10-18T12:52:21.814000",
      "2022-10-18T12:54:09.882233",
      "2022-10-18T12:55:58.778945",
      "2022-10-18T12:57:47.962922",
      "2022-10-18T12:59:36.346184",
      "2022-10-18T13:01:25.430806",
      "2022-10-18T13:03:13.699559",
      "2022-10-18T13:04:59.816629",
      "2022-10-18T13:06:44.647468",
      "2022-10-18T13:08:29.830197",
      "2022-10-18T13:10:14.753436",
      "2022-10-18T13:12:03.881932",
      "2022-10-18T13:13:53.663993",
      "2022-10-18T13:15:43.955654",
      "2022-10-18T13:17:36.787214",
      "2022-10-18T13:19:26.860597",
      "2022-10-18T13:21:14.516973",
      "2022-10-18T13:23:04.034864",
      "2022-10-18T13:24:53.142503",
      "2022-10-18T13:26:41.570006",
      "2022-10-18T13:28:30.110016",
      "2022-10-18T13:30:24.051022",
      "2022-10-18T13:32:17.227823",
      "2022-10-18T13:34:06.868197",
      "2022-10-18T13:35:58.285197",
      "2022-10-18T13:37:48.861778",
      "2022-10-18T13:39:39.483011",
      "2022-10-18T13:41:29.795684",
      "2022-10-18T13:43:14.820402",
      "2022-10-18T13:44:57.829082",
      "2022-10-18T13:46:42.570682",
      "2022-10-18T13:48:25.338140",
      "2022-10-18T13:50:09.453714",
      "2022-10-18T13:51:55.551369",
      "2022-10-18T13:53:43.300223",
      "2022-10-18T13:55:32.511548",
      "2022-10-18T13:57:19.272808",
      "2022-10-18T13:59:03.187542",
      "2022-10-18T14:00:49.097173",
      "2022-10-18T14:02:37.090247",
      "2022-10-18T14:04:23.562661",
      "2022-10-18T14:06:11.092609",
      "2022-10-18T14:07:57.831176",
      "2022-10-18T14:09:44.719786",
      "2022-10-18T14:11:31.654756",
      "2022-10-18T14:13:17.963987",
      "2022-10-18T14:15:05.425767",
      "2022-10-18T14:16:49.163541",
      "2022-10-18T14:18:32.521518",
      "2022-10-18T14:20:16.886521",
      "2022-10-18T14:22:02.204394",
      "2022-10-18T14:23:49.388671",
      "2022-10-18T14:25:36.439946",
      "2022-10-18T14:27:20.194064",
      "2022-10-18T14:29:03.685861",
      "2022-10-18T14:30:47.438573",
      "2022-10-18T14:32:30.522711",
      "2022-10-18T14:34:15.136290",
      "2022-10-18T14:35:59.102808",
      "2022-10-18T14:37:45.636412",
      "2022-10-18T14:39:30.189346",
      "2022-10-18T14:41:13.399532",
      "2022-10-18T14:42:56.682501",
      "2022-10-18T14:44:40.106123",
      "2022-10-18T14:46:23.382470",
      "2022-10-18T14:48:06.990260",
      "2022-10-18T14:49:49.498330",
      "2022-10-18T14:51:32.020003",
      "2022-10-18T14:53:14.611874",
      "2022-10-18T14:54:57.247652",
      "2022-10-18T14:56:41.569218",
      "2022-10-18T14:58:24.520932",
      "2022-10-18T15:00:07.865585",
      "2022-10-18T15:01:50.534142",
      "2022-10-18T15:03:33.119848",
      "2022-10-18T15:05:15.788919",
      "2022-10-18T15:06:58.331117",
      "2022-10-18T15:08:41.197824",
      "2022-10-18T15:10:24.989477",
      "2022-10-18T15:12:09.360126",
      "2022-10-18T15:13:53.750256",
      "2022-10-18T15:15:38.057408",
      "2022-10-18T15:17:21.931875",
      "2022-10-18T15:19:07.648103",
      "2022-10-18T15:20:51.242230",
      "2022-10-18T15:22:36.610777",
      "2022-10-18T15:24:21.513152",
      "2022-10-18T15:26:05.694490",
      "2022-10-18T15:27:51.356266",
      "2022-10-18T15:29:35.447791",
      "2022-10-18T15:31:19.651189",
      "2022-10-18T15:33:07.688193",
      "2022-10-18T15:34:53.118038",
      "2022-10-18T15:36:38.682379",
      "2022-10-18T15:38:23.189953",
      "2022-10-18T15:40:11.206817",
      "2022-10-18T15:41:59.695529",
      "2022-10-18T15:43:47.384180",
      "2022-10-18T15:45:36.048303",
      "2022-10-18T15:47:26.182975",
      "2022-10-18T15:49:15.183176",
      "2022-10-18T15:51:03.258570",
      "2022-10-18T15:52:50.315903",
      "2022-10-18T18:26:14.470113",
      "2022-10-18T18:27:57.788371",
      "2022-10-18T18:29:40.344499",
      "2022-10-18T18:31:24.471811",
      "2022-10-18T18:33:08.002118",
      "2022-10-18T18:34:52.074769",
      "2022-10-18T18:36:33.360839",
      "2022-10-18T18:38:14.722103",
      "2022-10-18T18:39:57.882871",
      "2022-10-18T18:41:37.877801",
      "2022-10-18T18:43:19.090621",
      "2022-10-18T18:44:59.943951",
      "2022-10-18T18:46:40.307241",
      "2022-10-18T18:48:20.460191",
      "2022-10-18T18:50:01.594419",
      "2022-10-18T18:51:43.367689",
      "2022-10-18T18:53:25.926114",
      "2022-10-18T18:55:09.106504",
      "2022-10-18T18:56:54.462440",
      "2022-10-18T18:58:38.088831",
      "2022-10-18T19:00:20.511814",
      "2022-10-18T19:02:03.525649",
      "2022-10-18T19:03:46.590594",
      "2022-10-18T19:05:31.306032",
      "2022-10-18T19:07:15.256171",
      "2022-10-18T19:08:57.512405",
      "2022-10-18T19:10:40.184855",
      "2022-10-18T19:12:23.241714",
      "2022-10-18T19:14:07.578179",
      "2022-10-18T19:15:49.209399",
      "2022-10-18T19:17:32.043525",
      "2022-10-18T19:19:14.535558",
      "2022-10-18T19:20:58.032956",
      "2022-10-18T19:22:42.800590",
      "2022-10-18T19:24:29.147202",
      "2022-10-18T19:26:13.948075",
      "2022-10-18T19:27:58.871348",
      "2022-10-18T19:29:47.041870",
      "2022-10-18T19:31:33.687103",
      "2022-10-18T19:33:17.556833",
      "2022-10-18T19:35:00.554844",
      "2022-10-18T19:36:43.244254",
      "2022-10-18T19:38:26.711531",
      "2022-10-18T19:40:08.845224",
      "2022-10-18T19:41:49.532096",
      "2022-10-18T19:43:31.166024",
      "2022-10-18T19:45:15.330024",
      "2022-10-18T19:47:00.848926",
      "2022-10-18T19:48:44.532652",
      "2022-10-18T19:50:27.722198",
      "2022-10-18T19:52:12.279567",
      "2022-10-18T19:53:56.219126",
      "2022-10-18T19:55:37.954981",
      "2022-10-18T19:57:22.057690",
      "2022-10-18T19:59:06.247723",
      "2022-10-18T20:00:49.133781",
      "2022-10-18T20:02:31.686502",
      "2022-10-18T20:04:14.864213",
      "2022-10-18T20:05:58.672042",
      "2022-10-18T20:07:41.771898",
      "2022-10-18T20:09:23.382208",
      "2022-10-18T20:11:03.146377",
      "2022-10-18T20:12:44.187117",
      "2022-10-18T20:14:25.438248",
      "2022-10-18T20:16:08.743913",
      "2022-10-18T20:17:49.141884",
      "2022-10-18T20:19:32.293081",
      "2022-10-18T20:21:15.945835",
      "2022-10-18T20:22:57.456234",
      "2022-10-18T20:24:41.641263",
      "2022-10-18T20:26:25.086295",
      "2022-10-18T20:28:08.369018",
      "2022-10-18T20:29:51.259385",
      "2022-10-18T20:31:35.081619",
      "2022-10-18T20:33:17.569166",
      "2022-10-18T20:34:59.091003",
      "2022-10-18T20:36:40.702911",
      "2022-10-18T20:38:22.224940",
      "2022-10-18T20:40:03.930052",
      "2022-10-18T20:41:45.465832",
      "2022-10-18T20:43:27.062150",
      "2022-10-18T20:45:08.615897",
      "2022-10-18T20:46:50.490756",
      "2022-10-18T20:48:32.365174",
      "2022-10-18T20:50:14.317282",
      "2022-10-18T20:51:57.077615",
      "2022-10-18T20:53:40.565021",
      "2022-10-18T20:55:24.064357",
      "2022-10-18T20:57:07.430269",
      "2022-10-18T20:58:50.668303",
      "2022-10-18T21:00:34.133216",
      "2022-10-18T21:02:17.471013",
      "2022-10-18T21:04:00.893502",
      "2022-10-18T21:05:44.346497",
      "2022-10-18T21:07:27.778899",
      "2022-10-18T21:09:11.138069",
      "2022-10-18T21:10:54.619688",
      "2022-10-18T21:12:37.896589",
      "2022-10-18T21:14:21.294253",
      "2022-10-18T21:16:04.604816",
      "2022-10-18T21:17:48.119616",
      "2022-10-18T21:19:31.434837",
      "2022-10-18T21:21:14.972300",
      "2022-10-18T21:22:58.234798",
      "2022-10-18T21:24:41.692420",
      "2022-10-18T21:26:25.109319",
      "2022-10-18T21:28:08.637164",
      "2022-10-18T21:29:52.099548",
      "2022-10-18T21:31:35.727785",
      "2022-10-18T21:33:19.213337",
      "2022-10-18T21:35:02.607676",
      "2022-10-18T21:36:45.986877",
      "2022-10-18T21:38:29.333019",
      "2022-10-18T21:40:12.681907",
      "2022-10-18T21:41:56.106084",
      "2022-10-18T21:43:39.552497",
      "2022-10-18T21:45:22.974390",
      "2022-10-18T21:47:06.508570",
      "2022-10-18T21:48:49.876264",
      "2022-10-18T21:50:33.315443",
      "2022-10-18T21:52:16.684562",
      "2022-10-18T21:54:00.156151",
      "2022-10-18T21:55:43.766586",
      "2022-10-18T21:57:27.447067",
      "2022-10-18T21:59:10.836928",
      "2022-10-18T22:00:54.384844",
      "2022-10-18T22:02:37.936448",
      "2022-10-18T22:04:21.411060",
      "2022-10-18T22:06:04.731071",
      "2022-10-18T22:07:48.098451",
      "2022-10-18T22:09:31.578787",
      "2022-10-18T22:11:15.226739",
      "2022-10-18T22:12:58.664399",
      "2022-10-18T22:14:42.104450",
      "2022-10-18T22:16:25.486658",
      "2022-10-18T22:18:09.304241",
      "2022-10-18T22:19:52.894448",
      "2022-10-18T22:21:36.358917",
      "2022-10-18T22:23:19.624624",
      "2022-10-18T22:25:03.078353",
      "2022-10-18T22:26:46.692281",
      "2022-10-18T22:28:30.173357",
      "2022-10-18T22:30:13.752494",
      "2022-10-18T22:31:57.104265",
      "2022-10-18T22:33:40.659291",
      "2022-10-18T22:35:24.126277",
      "2022-10-18T22:37:07.804966",
      "2022-10-18T22:38:51.185477",
      "2022-10-18T22:40:34.611430",
      "2022-10-18T22:42:18.209404",
      "2022-10-18T22:44:01.809445",
      "2022-10-18T22:45:45.338495",
      "2022-10-18T22:47:28.725358",
      "2022-10-18T22:49:12.201835",
      "2022-10-18T22:50:55.657655",
      "2022-10-18T22:52:39.165011",
      "2022-10-18T22:54:22.718748",
      "2022-10-18T22:56:06.213645",
      "2022-10-18T22:57:49.693978",
      "2022-10-18T22:59:33.314677"
    ],
    "values": [
      500.66857334605965,
      200.80475960629065,
      144.77872447910545,
      102.9122856368418,
      80.22620393135752,
      68.85091104805174,
      62.043626081961065,
      56.672697889023475,
      55.19020635388298,
      53.4679721386771,
      53.80779286901964,
      52.54724628175617,
      51.84847594683821,
      49.92576943420705,
      49.43539346795771,
      48.44679556580481,
      51.06986170041617,
      47.508544036542204,
      47.15020843861213,
      49.324080327586195,
      48.27074142005612,
      45.44465881018885,
      46.63161124377436,
      45.37548147339705,
      43.8178528814047,
      44.1227210745649,
      44.10926269056119,
      43.9321231799957,
      43.769779703349926,
      43.210634316427466,
      43.020865970400074,
      43.954921930680555,
      43.01040702266754,
      42.66306656720809,
      42.41986799054602,
      42.42142528463822,
      47.766645574326375,
      44.88183072266787,
      44.101268196472155,
      43.77527531402285,
      43.272967919264026,
      43.17888858274997,
      43.42920445551074,
      42.599472797644175,
      47.773041226459064,
      44.862378586158975,
      44.33423751042873,
      43.77983265371044,
      43.06287941524784,
      42.77755172479684,
      42.79601337848264,
      42.464459527050074,
      41.922071115516545,
      42.73633469883287,
      41.09907728725083,
      40.82955884461196,
      40.995149291865935,
      40.697332139183494,
      40.48701605826812,
      40.83522743663805,
      40.54473389798519,
      40.35528693497236,
      40.56985515363448,
      40.37376824235939,
      43.41856469013185,
      40.43373130276662,
      40.13275382267389,
      40.12932122830806,
      39.92850545485009,
      39.94919556099537,
      39.816025648381036,
      39.71922145884258,
      39.639719233694194,
      39.63558902996851,
      39.632159291483724,
      39.584764371255595,
      39.55790560597881,
      39.52581889980409,
      39.42651536492262,
      39.4096733122671,
      39.43437025026735,
      39.397827826071605,
      39.34926629011892,
      39.4171737444844,
      39.39251435197536,
      39.35096266530889,
      39.33287697617263,
      39.28693183894711,
      39.37248581278165,
      39.22348205528054,
      39.30876266780692,
      39.24608030499745,
      39.24065737054734,
      39.26394110208231,
      39.22646167896263,
      39.20629234358194,
      39.138222362312916,
      40.689738351890966,
      39.446253637565206,
      39.19792278694275,
      39.094112918647845,
      39.12559226597055,
      39.04780035989103,
      39.03932147956208,
      39.116494588473415,
      39.05160951989742,
      38.9969228665,
      38.98439158738801,
      38.975622312189834,
      39.0599056017538,
      38.918494133370324,
      39.013366622479346,
      38.94873243826047,
      38.93132399319998,
      38.96611734653134,
      38.89275427954929,
      38.95894606094624,
      38.894530556677246,
      38.89690621762844,
      38.91192750308997,
      38.88819940481783,
      38.994903045065115,
      38.883978822602884,
      38.83304373459695,
      38.85593539510382,
      38.992927491687034,
      38.90416561830712,
      38.88504602374749,
      38.90273404855081,
      38.94294332939305,
      38.83699416588753,
      38.76988381421832,
      38.80416913561726,
      38.859977102443416,
      38.73865446159344,
      38.85149721286573,
      38.7989131992662,
      38.816386683224245,
      38.87815021411396,
      38.87279557573544,
      38.880389166650524,
      38.79196055124736,
      38.81299519305439,
      38.781379707683975,
      38.73144203940733,
      38.739050365257576,
      40.229621201894,
      39.01527262112467,
      38.77222306045645,
      38.7333611179422,
      38.71892323929232,
      38.675848253657115,
      38.66503452752146,
      38.64374544416524,
      38.63649420841776,
      38.70022885162345,
      38.60260081954374,
      38.61827126789097,
      38.586137154642586,
      38.68527198624403,
      38.54454899422201,
      38.60013932545796,
      38.64538061759284,
      38.58026723212847,
      38.54057017263609,
      38.47761220444427,
      38.55111120368454,
      38.48403151921108,
      38.4546163000068,
      38.513211854493086,
      38.47717458560289,
      38.48927584446911,
      38.410808482345175,
      38.454271937694486,
      38.352532990143786,
      38.49168159384157,
      38.266609324146046,
      38.29233337147782,
      38.230253935655625,
      38.19432843315124,
      38.14745307284583,
      38.11831836575426,
      38.22825788354962,
      38.06656676201602,
      38.1326529696818,
      38.06077400611481,
      37.99688802263129,
      38.02660984360293,
      38.00710119039704,
      37.94987526408271,
      37.98402669239525,
      38.02538182636778,
      37.98681010547853,
      38.004870893222225,
      37.97087334734626,
      37.92950903876106,
      38.00076653602347,
      37.91572498012276,
      37.95383214177518,
      37.914367927147836,
      39.52124186753812,
      38.22574287541408,
      38.007110385129835,
      37.91627114770463,
      37.89251516100822,
      37.91358431254203,
      37.847490061108225,
      37.84014380113871,
      37.884727576386,
      37.84961978754912,
      37.85780411036973,
      37.86125724076935,
      37.9335857248772,
      37.86479004683774,
      37.879721704810215,
      37.85744153780233,
      37.849781992655565,
      37.970700001494016,
      37.84332609550131,
      37.892962955463666,
      37.85759421255011,
      37.81396490297338,
      37.91639702086186,
      37.83703171549647,
      37.88610018993905,
      37.833663843099096,
      37.81229507692394,
      37.86292480177499,
      37.83188150801364,
      37.94851221176552,
      37.89517907412479,
      37.83295584975047,
      37.819504699305504,
      37.97634319025269,
      37.98349924745994,
      37.89369677418579,
      37.89752372871024,
      37.90833539938444,
      37.64825947114864,
      37.63785864523793,
      37.638518122838775,
      37.637503736875445,
      37.639735446612654,
      37.64212007909619,
      37.64315365239917,
      37.64693146779439,
      37.66894162930865,
      37.65661221280471,
      37.64615284906164,
      37.64701784699233,
      37.634976859411054,
      37.65230654835699,
      37.64667810506592,
      37.65294793880113,
      37.6428077573035,
      37.64842277413174,
      37.64812929231867,
      37.63599842742804,
      37.6377719180223,
      37.6486271172781,
      37.6442638482262,
      37.63820452392821,
      37.63557607330101,
      37.64484961600957,
      37.654501752304405,
      37.6279768906137,
      37.61879133545721,
      37.6160723321736,
      37.62284816082293,
      37.62281306109812,
      37.621861409117294,
      37.615682772284174,
      37.62430937077396,
      37.610453172408675,
      37.61911676336764,
      37.62140214828109,
      37.61683350009646,
      37.61739484200332,
      37.61956472810182,
      37.62128017140147,
      37.61250905445106,
      37.62524686753331,
      37.623985143403715,
      37.61667412765008,
      37.616348380027915,
      37.61765690723807,
      37.618135835784734,
      37.621787682024916,
      37.617411893807805,
      37.619517174124596,
      37.61467035355966,
      37.62360441722549,
      37.62068163287194,
      37.613228986306005,
      37.613094114517125,
      37.618246288506974,
      37.61757482109972,
      37.61514825881752,
      37.62504080243504,
      37.6167632329391
    ]
  }
}