INFO - siren_vae - Running command 'run'
INFO - siren_vae - Started run with ID "1"
[ENCODED STRUCTURE] Using faithful BN structure.
[MODEL TYPE] IW-SIReN-VAE with DReG (k=8)
[WARM-UP] Applied to ['z0', 'z3', 'z5', 'z7', 'z11', 'z12', 'z14', 'z18', 'z23', 'z27', 'z28', 'z30', 'z32', 'z34', 'z39']
  0%|          | 0/500 [00:00<?, ?it/s]Train -ELBO: 1044.744, Val -ELBO: 2089.168:   0%|          | 1/500 [01:13<10:15:16, 73.98s/it]Train -ELBO: 286.988, Val -ELBO: 298.672:   0%|          | 2/500 [02:39<11:07:58, 80.48s/it]  Train -ELBO: 200.768, Val -ELBO: 204.627:   1%|          | 3/500 [04:09<11:43:32, 84.94s/it]Train -ELBO: 173.032, Val -ELBO: 170.159:   1%|          | 4/500 [05:47<12:25:34, 90.19s/it]Train -ELBO: 147.608, Val -ELBO: 148.406:   1%|          | 5/500 [07:25<12:47:15, 93.00s/it]Train -ELBO: 124.716, Val -ELBO: 128.314:   1%|          | 6/500 [09:07<13:11:25, 96.12s/it]Train -ELBO: 103.812, Val -ELBO: 107.943:   1%|▏         | 7/500 [10:51<13:31:45, 98.79s/it]Train -ELBO: 83.645, Val -ELBO: 92.244:   2%|▏         | 8/500 [12:40<13:54:20, 101.75s/it] Train -ELBO: 69.721, Val -ELBO: 81.876:   2%|▏         | 9/500 [14:29<14:11:57, 104.11s/it]Train -ELBO: 60.076, Val -ELBO: 73.861:   2%|▏         | 10/500 [16:17<14:21:11, 105.45s/it]Train -ELBO: 52.337, Val -ELBO: 66.880:   2%|▏         | 11/500 [18:07<14:29:33, 106.69s/it]Train -ELBO: 46.426, Val -ELBO: 62.344:   2%|▏         | 12/500 [19:55<14:31:06, 107.10s/it]Train -ELBO: 42.330, Val -ELBO: 60.008:   3%|▎         | 13/500 [21:44<14:34:58, 107.80s/it]Train -ELBO: 39.683, Val -ELBO: 56.846:   3%|▎         | 14/500 [23:35<14:39:21, 108.56s/it]Train -ELBO: 37.980, Val -ELBO: 55.468:   3%|▎         | 15/500 [25:24<14:40:36, 108.94s/it]Train -ELBO: 36.887, Val -ELBO: 54.242:   3%|▎         | 16/500 [27:17<14:46:46, 109.93s/it]Train -ELBO: 36.172, Val -ELBO: 54.029:   3%|▎         | 17/500 [29:09<14:51:12, 110.71s/it]Train -ELBO: 35.601, Val -ELBO: 52.648:   4%|▎         | 18/500 [31:01<14:51:31, 110.98s/it]Train -ELBO: 35.176, Val -ELBO: 51.937:   4%|▍         | 19/500 [32:52<14:51:31, 111.21s/it]Train -ELBO: 34.519, Val -ELBO: 51.419:   4%|▍         | 20/500 [34:45<14:52:22, 111.55s/it]Train -ELBO: 35.082, Val -ELBO: 50.599:   4%|▍         | 21/500 [36:40<14:59:22, 112.66s/it]Train -ELBO: 33.755, Val -ELBO: 50.015:   4%|▍         | 22/500 [38:38<15:09:43, 114.19s/it]Train -ELBO: 33.571, Val -ELBO: 49.699:   5%|▍         | 23/500 [40:32<15:08:24, 114.26s/it]Train -ELBO: 33.335, Val -ELBO: 49.305:   5%|▍         | 24/500 [42:26<15:05:33, 114.15s/it]Train -ELBO: 33.395, Val -ELBO: 48.609:   5%|▌         | 25/500 [44:20<15:03:21, 114.11s/it]Train -ELBO: 33.125, Val -ELBO: 48.249:   5%|▌         | 26/500 [46:15<15:02:10, 114.20s/it]Train -ELBO: 32.912, Val -ELBO: 48.064:   5%|▌         | 27/500 [48:09<15:01:06, 114.30s/it]Train -ELBO: 32.776, Val -ELBO: 47.587:   6%|▌         | 28/500 [50:04<15:01:03, 114.54s/it]Train -ELBO: 32.969, Val -ELBO: 47.020:   6%|▌         | 29/500 [52:01<15:03:55, 115.15s/it]Train -ELBO: 32.623, Val -ELBO: 46.680:   6%|▌         | 30/500 [53:55<14:59:28, 114.83s/it]Train -ELBO: 38.123, Val -ELBO: 47.599:   6%|▌         | 31/500 [55:48<14:52:58, 114.24s/it]Train -ELBO: 33.835, Val -ELBO: 45.732:   6%|▋         | 32/500 [57:40<14:45:40, 113.55s/it]Train -ELBO: 32.713, Val -ELBO: 45.409:   7%|▋         | 33/500 [59:34<14:44:52, 113.69s/it]Train -ELBO: 32.559, Val -ELBO: 45.084:   7%|▋         | 34/500 [1:01:28<14:45:26, 114.01s/it]Train -ELBO: 32.515, Val -ELBO: 44.846:   7%|▋         | 35/500 [1:03:23<14:44:23, 114.12s/it]Train -ELBO: 32.623, Val -ELBO: 44.619:   7%|▋         | 36/500 [1:05:17<14:43:24, 114.23s/it]Train -ELBO: 32.425, Val -ELBO: 44.252:   7%|▋         | 37/500 [1:07:12<14:42:45, 114.40s/it]Train -ELBO: 32.587, Val -ELBO: 44.153:   8%|▊         | 38/500 [1:09:07<14:41:32, 114.48s/it]Train -ELBO: 32.650, Val -ELBO: 43.741:   8%|▊         | 39/500 [1:11:02<14:40:44, 114.63s/it]Train -ELBO: 32.734, Val -ELBO: 43.585:   8%|▊         | 40/500 [1:12:56<14:38:02, 114.53s/it]Train -ELBO: 32.767, Val -ELBO: 43.479:   8%|▊         | 41/500 [1:14:52<14:39:48, 115.01s/it]Train -ELBO: 32.906, Val -ELBO: 43.302:   8%|▊         | 42/500 [1:16:48<14:38:42, 115.11s/it]Train -ELBO: 33.165, Val -ELBO: 43.044:   9%|▊         | 43/500 [1:18:44<14:39:28, 115.47s/it]Train -ELBO: 38.529, Val -ELBO: 43.153:   9%|▉         | 44/500 [1:20:36<14:30:47, 114.58s/it]Train -ELBO: 34.005, Val -ELBO: 42.599:   9%|▉         | 45/500 [1:22:34<14:35:46, 115.49s/it]Train -ELBO: 33.566, Val -ELBO: 42.354:   9%|▉         | 46/500 [1:24:28<14:30:15, 115.01s/it]Train -ELBO: 33.580, Val -ELBO: 42.237:   9%|▉         | 47/500 [1:26:23<14:29:16, 115.14s/it]Train -ELBO: 33.698, Val -ELBO: 42.085:  10%|▉         | 48/500 [1:28:21<14:33:23, 115.94s/it]Train -ELBO: 33.840, Val -ELBO: 42.030:  10%|▉         | 49/500 [1:30:22<14:43:10, 117.50s/it]Train -ELBO: 34.102, Val -ELBO: 41.830:  10%|█         | 50/500 [1:32:24<14:50:55, 118.79s/it]Train -ELBO: 34.190, Val -ELBO: 41.681:  10%|█         | 51/500 [1:34:25<14:54:41, 119.56s/it]Train -ELBO: 34.442, Val -ELBO: 41.692:  10%|█         | 52/500 [1:36:25<14:52:15, 119.50s/it]Train -ELBO: 34.642, Val -ELBO: 41.768:  11%|█         | 53/500 [1:38:26<14:53:51, 119.98s/it]Train -ELBO: 34.884, Val -ELBO: 41.647:  11%|█         | 54/500 [1:40:27<14:54:52, 120.39s/it]Train -ELBO: 38.366, Val -ELBO: 48.114:  11%|█         | 55/500 [1:42:36<15:11:52, 122.95s/it]Train -ELBO: 36.820, Val -ELBO: 41.316:  11%|█         | 56/500 [1:44:38<15:07:16, 122.60s/it]Train -ELBO: 35.737, Val -ELBO: 41.198:  11%|█▏        | 57/500 [1:46:41<15:06:30, 122.78s/it]Train -ELBO: 35.839, Val -ELBO: 41.071:  12%|█▏        | 58/500 [1:48:38<14:52:13, 121.12s/it]Train -ELBO: 35.980, Val -ELBO: 40.979:  12%|█▏        | 59/500 [1:50:42<14:54:52, 121.75s/it]Train -ELBO: 36.215, Val -ELBO: 40.907:  12%|█▏        | 60/500 [1:52:55<15:19:39, 125.41s/it]Train -ELBO: 36.450, Val -ELBO: 40.795:  12%|█▏        | 61/500 [1:55:04<15:24:00, 126.29s/it]Train -ELBO: 36.671, Val -ELBO: 40.780:  12%|█▏        | 62/500 [1:57:11<15:23:36, 126.52s/it]Train -ELBO: 36.903, Val -ELBO: 40.881:  13%|█▎        | 63/500 [1:59:26<15:39:19, 128.97s/it]Train -ELBO: 37.189, Val -ELBO: 40.708:  13%|█▎        | 64/500 [2:01:40<15:49:37, 130.68s/it]Train -ELBO: 37.374, Val -ELBO: 40.572:  13%|█▎        | 65/500 [2:03:52<15:50:11, 131.06s/it]Train -ELBO: 42.044, Val -ELBO: 74.908:  13%|█▎        | 66/500 [2:06:00<15:41:44, 130.19s/it]Train -ELBO: 42.064, Val -ELBO: 40.854:  13%|█▎        | 67/500 [2:08:01<15:18:44, 127.31s/it]Train -ELBO: 38.695, Val -ELBO: 40.544:  14%|█▎        | 68/500 [2:10:02<15:04:04, 125.57s/it]Train -ELBO: 38.642, Val -ELBO: 40.393:  14%|█▍        | 69/500 [2:12:05<14:56:15, 124.77s/it]Train -ELBO: 38.811, Val -ELBO: 40.298:  14%|█▍        | 70/500 [2:14:08<14:49:04, 124.06s/it]Train -ELBO: 38.940, Val -ELBO: 40.270:  14%|█▍        | 71/500 [2:16:10<14:43:37, 123.58s/it]Train -ELBO: 39.163, Val -ELBO: 40.223:  14%|█▍        | 72/500 [2:18:12<14:38:22, 123.14s/it]Train -ELBO: 39.436, Val -ELBO: 40.253:  15%|█▍        | 73/500 [2:20:14<14:33:11, 122.70s/it]Train -ELBO: 39.627, Val -ELBO: 40.073:  15%|█▍        | 74/500 [2:22:15<14:28:00, 122.26s/it]Train -ELBO: 39.832, Val -ELBO: 40.104:  15%|█▌        | 75/500 [2:24:17<14:24:11, 122.00s/it]Train -ELBO: 40.052, Val -ELBO: 40.098:  15%|█▌        | 76/500 [2:26:18<14:21:03, 121.85s/it]Train -ELBO: 40.009, Val -ELBO: 40.082:  15%|█▌        | 77/500 [2:28:20<14:18:15, 121.74s/it]Train -ELBO: 39.980, Val -ELBO: 40.053:  16%|█▌        | 78/500 [2:30:21<14:15:48, 121.68s/it]Train -ELBO: 39.972, Val -ELBO: 39.974:  16%|█▌        | 79/500 [2:32:23<14:13:26, 121.63s/it]Train -ELBO: 39.930, Val -ELBO: 39.979:  16%|█▌        | 80/500 [2:34:24<14:11:17, 121.61s/it]Train -ELBO: 39.915, Val -ELBO: 39.908:  16%|█▌        | 81/500 [2:36:26<14:09:01, 121.58s/it]Train -ELBO: 39.880, Val -ELBO: 39.852:  16%|█▋        | 82/500 [2:38:27<14:05:35, 121.38s/it]Train -ELBO: 39.890, Val -ELBO: 39.917:  17%|█▋        | 83/500 [2:40:28<14:03:09, 121.32s/it]Train -ELBO: 39.806, Val -ELBO: 39.808:  17%|█▋        | 84/500 [2:42:31<14:04:08, 121.75s/it]Train -ELBO: 39.810, Val -ELBO: 39.862:  17%|█▋        | 85/500 [2:44:36<14:09:16, 122.79s/it]Train -ELBO: 39.763, Val -ELBO: 39.755:  17%|█▋        | 86/500 [2:46:50<14:31:05, 126.24s/it]Train -ELBO: 39.721, Val -ELBO: 39.743:  17%|█▋        | 87/500 [2:48:56<14:29:00, 126.25s/it]Train -ELBO: 39.719, Val -ELBO: 39.733:  18%|█▊        | 88/500 [2:51:25<15:12:51, 132.94s/it]Train -ELBO: 39.679, Val -ELBO: 39.674:  18%|█▊        | 89/500 [2:54:01<15:57:24, 139.77s/it]Train -ELBO: 39.654, Val -ELBO: 39.731:  18%|█▊        | 90/500 [2:56:07<15:27:35, 135.75s/it]Train -ELBO: 39.623, Val -ELBO: 39.739:  18%|█▊        | 91/500 [2:58:17<15:14:39, 134.18s/it]Train -ELBO: 39.611, Val -ELBO: 39.659:  18%|█▊        | 92/500 [3:00:53<15:55:02, 140.45s/it]Train -ELBO: 39.598, Val -ELBO: 39.673:  19%|█▊        | 93/500 [3:03:27<16:20:21, 144.52s/it]Train -ELBO: 39.572, Val -ELBO: 39.583:  19%|█▉        | 94/500 [3:05:40<15:55:09, 141.16s/it]Train -ELBO: 39.558, Val -ELBO: 39.637:  19%|█▉        | 95/500 [3:08:15<16:21:36, 145.42s/it]Train -ELBO: 39.555, Val -ELBO: 39.613:  19%|█▉        | 96/500 [3:10:30<15:58:15, 142.32s/it]Train -ELBO: 39.513, Val -ELBO: 39.505:  19%|█▉        | 97/500 [3:12:37<15:25:06, 137.73s/it]Train -ELBO: 39.506, Val -ELBO: 39.540:  20%|█▉        | 98/500 [3:14:35<14:43:20, 131.84s/it]Train -ELBO: 39.471, Val -ELBO: 39.464:  20%|█▉        | 99/500 [3:16:32<14:10:54, 127.32s/it]Train -ELBO: 39.483, Val -ELBO: 39.532:  20%|██        | 100/500 [3:18:28<13:45:53, 123.88s/it]Train -ELBO: 39.461, Val -ELBO: 39.451:  20%|██        | 101/500 [3:20:24<13:27:58, 121.50s/it]Train -ELBO: 39.404, Val -ELBO: 39.466:  20%|██        | 102/500 [3:22:27<13:28:09, 121.83s/it]Train -ELBO: 39.391, Val -ELBO: 39.395:  21%|██        | 103/500 [3:24:24<13:16:16, 120.34s/it]Train -ELBO: 39.351, Val -ELBO: 39.433:  21%|██        | 104/500 [3:26:25<13:17:04, 120.77s/it]Train -ELBO: 39.343, Val -ELBO: 39.347:  21%|██        | 105/500 [3:28:29<13:20:18, 121.57s/it]Train -ELBO: 39.363, Val -ELBO: 39.446:  21%|██        | 106/500 [3:30:33<13:23:49, 122.41s/it]Train -ELBO: 39.376, Val -ELBO: 39.425:  21%|██▏       | 107/500 [3:32:35<13:20:28, 122.21s/it]Train -ELBO: 39.291, Val -ELBO: 39.401:  22%|██▏       | 108/500 [3:34:36<13:16:57, 121.98s/it]Train -ELBO: 39.289, Val -ELBO: 39.377:  22%|██▏       | 109/500 [3:36:38<13:14:31, 121.92s/it]Train -ELBO: 39.284, Val -ELBO: 39.317:  22%|██▏       | 110/500 [3:38:40<13:12:18, 121.89s/it]Train -ELBO: 44.237, Val -ELBO: 48.289:  22%|██▏       | 111/500 [3:40:41<13:09:39, 121.80s/it]Train -ELBO: 40.733, Val -ELBO: 39.484:  22%|██▏       | 112/500 [3:42:43<13:06:39, 121.65s/it]Train -ELBO: 39.344, Val -ELBO: 39.312:  23%|██▎       | 113/500 [3:44:44<13:04:32, 121.63s/it]Train -ELBO: 39.232, Val -ELBO: 39.292:  23%|██▎       | 114/500 [3:46:46<13:02:14, 121.59s/it]Train -ELBO: 39.187, Val -ELBO: 39.257:  23%|██▎       | 115/500 [3:48:47<12:59:27, 121.48s/it]Train -ELBO: 39.185, Val -ELBO: 39.201:  23%|██▎       | 116/500 [3:50:47<12:54:57, 121.09s/it]Train -ELBO: 39.146, Val -ELBO: 39.253:  23%|██▎       | 117/500 [3:52:47<12:50:09, 120.65s/it]Train -ELBO: 39.143, Val -ELBO: 39.193:  24%|██▎       | 118/500 [3:54:46<12:45:45, 120.28s/it]Train -ELBO: 39.147, Val -ELBO: 39.180:  24%|██▍       | 119/500 [3:56:46<12:42:34, 120.09s/it]Train -ELBO: 39.122, Val -ELBO: 39.221:  24%|██▍       | 120/500 [3:58:46<12:39:45, 119.96s/it]Train -ELBO: 39.115, Val -ELBO: 39.173:  24%|██▍       | 121/500 [4:00:45<12:36:43, 119.80s/it]Train -ELBO: 39.115, Val -ELBO: 39.232:  24%|██▍       | 122/500 [4:02:45<12:34:10, 119.71s/it]Train -ELBO: 39.113, Val -ELBO: 39.171:  25%|██▍       | 123/500 [4:04:46<12:35:13, 120.20s/it]Train -ELBO: 39.094, Val -ELBO: 39.199:  25%|██▍       | 124/500 [4:06:43<12:26:40, 119.15s/it]Train -ELBO: 39.077, Val -ELBO: 39.143:  25%|██▌       | 125/500 [4:08:39<12:19:27, 118.31s/it]Train -ELBO: 39.073, Val -ELBO: 39.127:  25%|██▌       | 126/500 [4:10:35<12:14:11, 117.79s/it]Train -ELBO: 39.070, Val -ELBO: 39.146:  25%|██▌       | 127/500 [4:12:32<12:10:13, 117.46s/it]Train -ELBO: 39.053, Val -ELBO: 39.086:  26%|██▌       | 128/500 [4:14:29<12:06:35, 117.19s/it]Train -ELBO: 39.050, Val -ELBO: 39.115:  26%|██▌       | 129/500 [4:16:25<12:03:43, 117.04s/it]Train -ELBO: 39.049, Val -ELBO: 39.190:  26%|██▌       | 130/500 [4:18:21<11:59:23, 116.66s/it]Train -ELBO: 39.018, Val -ELBO: 39.071:  26%|██▌       | 131/500 [4:20:16<11:53:44, 116.06s/it]Train -ELBO: 39.034, Val -ELBO: 39.104:  26%|██▋       | 132/500 [4:22:10<11:49:12, 115.63s/it]Train -ELBO: 39.012, Val -ELBO: 39.021:  27%|██▋       | 133/500 [4:24:05<11:45:43, 115.38s/it]Train -ELBO: 39.023, Val -ELBO: 39.041:  27%|██▋       | 134/500 [4:26:01<11:44:26, 115.48s/it]Train -ELBO: 39.000, Val -ELBO: 39.036:  27%|██▋       | 135/500 [4:27:58<11:45:04, 115.90s/it]Train -ELBO: 38.977, Val -ELBO: 39.029:  27%|██▋       | 136/500 [4:29:54<11:44:21, 116.10s/it]Train -ELBO: 38.974, Val -ELBO: 38.999:  27%|██▋       | 137/500 [4:31:51<11:43:33, 116.29s/it]Train -ELBO: 38.963, Val -ELBO: 39.080:  28%|██▊       | 138/500 [4:33:48<11:42:14, 116.39s/it]Train -ELBO: 38.932, Val -ELBO: 38.998:  28%|██▊       | 139/500 [4:35:44<11:40:45, 116.47s/it]Train -ELBO: 38.954, Val -ELBO: 38.984:  28%|██▊       | 140/500 [4:37:41<11:38:58, 116.50s/it]Train -ELBO: 38.905, Val -ELBO: 38.954:  28%|██▊       | 141/500 [4:39:38<11:37:23, 116.56s/it]Train -ELBO: 38.923, Val -ELBO: 39.058:  28%|██▊       | 142/500 [4:41:34<11:35:21, 116.54s/it]Train -ELBO: 38.918, Val -ELBO: 38.928:  29%|██▊       | 143/500 [4:43:31<11:33:10, 116.50s/it]Train -ELBO: 38.912, Val -ELBO: 38.933:  29%|██▉       | 144/500 [4:45:28<11:32:06, 116.65s/it]Train -ELBO: 38.909, Val -ELBO: 38.874:  29%|██▉       | 145/500 [4:47:24<11:30:14, 116.66s/it]Train -ELBO: 48.231, Val -ELBO: 41.127:  29%|██▉       | 146/500 [4:49:17<11:21:52, 115.57s/it]Train -ELBO: 40.017, Val -ELBO: 39.371:  29%|██▉       | 147/500 [4:51:11<11:17:00, 115.07s/it]Train -ELBO: 39.108, Val -ELBO: 39.011:  30%|██▉       | 148/500 [4:53:06<11:13:49, 114.86s/it]Train -ELBO: 38.952, Val -ELBO: 38.932:  30%|██▉       | 149/500 [4:54:59<11:08:48, 114.32s/it]Train -ELBO: 38.886, Val -ELBO: 38.871:  30%|███       | 150/500 [4:56:51<11:03:55, 113.82s/it]Train -ELBO: 38.861, Val -ELBO: 38.936:  30%|███       | 151/500 [4:58:44<11:00:16, 113.51s/it]Train -ELBO: 38.855, Val -ELBO: 38.851:  30%|███       | 152/500 [5:00:37<10:57:19, 113.33s/it]Train -ELBO: 38.828, Val -ELBO: 38.894:  31%|███       | 153/500 [5:02:30<10:54:16, 113.13s/it]Train -ELBO: 38.822, Val -ELBO: 38.878:  31%|███       | 154/500 [5:04:22<10:51:35, 112.99s/it]Train -ELBO: 38.815, Val -ELBO: 38.823:  31%|███       | 155/500 [5:06:16<10:50:06, 113.06s/it]Train -ELBO: 38.789, Val -ELBO: 38.834:  31%|███       | 156/500 [5:08:08<10:47:53, 113.00s/it]Train -ELBO: 38.766, Val -ELBO: 38.794:  31%|███▏      | 157/500 [5:10:01<10:45:29, 112.91s/it]Train -ELBO: 38.779, Val -ELBO: 38.881:  32%|███▏      | 158/500 [5:11:54<10:43:17, 112.86s/it]Train -ELBO: 38.792, Val -ELBO: 38.806:  32%|███▏      | 159/500 [5:13:47<10:41:33, 112.89s/it]Train -ELBO: 38.787, Val -ELBO: 38.814:  32%|███▏      | 160/500 [5:15:40<10:39:40, 112.88s/it]Train -ELBO: 38.770, Val -ELBO: 38.787:  32%|███▏      | 161/500 [5:17:33<10:37:40, 112.86s/it]Train -ELBO: 38.786, Val -ELBO: 38.839:  32%|███▏      | 162/500 [5:19:25<10:35:50, 112.87s/it]Train -ELBO: 38.761, Val -ELBO: 38.775:  33%|███▎      | 163/500 [5:21:18<10:34:09, 112.91s/it]Train -ELBO: 38.760, Val -ELBO: 38.864:  33%|███▎      | 164/500 [5:23:11<10:32:14, 112.90s/it]Train -ELBO: 38.757, Val -ELBO: 38.853:  33%|███▎      | 165/500 [5:25:07<10:34:13, 113.59s/it]Train -ELBO: 38.753, Val -ELBO: 38.777:  33%|███▎      | 166/500 [5:27:00<10:31:23, 113.42s/it]Train -ELBO: 38.743, Val -ELBO: 38.763:  33%|███▎      | 167/500 [5:29:06<10:51:08, 117.32s/it]Train -ELBO: 38.730, Val -ELBO: 38.811:  34%|███▎      | 168/500 [5:31:00<10:43:58, 116.38s/it]Train -ELBO: 38.747, Val -ELBO: 38.849:  34%|███▍      | 169/500 [5:32:54<10:38:06, 115.67s/it]Train -ELBO: 38.730, Val -ELBO: 38.849:  34%|███▍      | 170/500 [5:34:49<10:34:58, 115.45s/it]Train -ELBO: 38.716, Val -ELBO: 38.738:  34%|███▍      | 171/500 [5:36:43<10:31:02, 115.08s/it]Train -ELBO: 38.707, Val -ELBO: 38.689:  34%|███▍      | 172/500 [5:38:37<10:26:49, 114.66s/it]Train -ELBO: 38.679, Val -ELBO: 38.725:  35%|███▍      | 173/500 [5:40:32<10:24:58, 114.67s/it]Train -ELBO: 38.707, Val -ELBO: 38.713:  35%|███▍      | 174/500 [5:42:26<10:22:24, 114.55s/it]Train -ELBO: 38.706, Val -ELBO: 38.798:  35%|███▌      | 175/500 [5:44:19<10:17:58, 114.09s/it]Train -ELBO: 38.728, Val -ELBO: 38.720:  35%|███▌      | 176/500 [5:46:13<10:16:04, 114.09s/it]Train -ELBO: 38.678, Val -ELBO: 38.697:  35%|███▌      | 177/500 [5:48:08<10:15:15, 114.29s/it]Train -ELBO: 38.655, Val -ELBO: 38.707:  36%|███▌      | 178/500 [5:50:02<10:13:57, 114.40s/it]Train -ELBO: 38.680, Val -ELBO: 38.713:  36%|███▌      | 179/500 [5:51:57<10:12:33, 114.50s/it]Train -ELBO: 38.677, Val -ELBO: 38.674:  36%|███▌      | 180/500 [5:53:52<10:11:11, 114.60s/it]Train -ELBO: 38.634, Val -ELBO: 38.709:  36%|███▌      | 181/500 [5:55:47<10:09:29, 114.64s/it]Train -ELBO: 38.637, Val -ELBO: 38.695:  36%|███▋      | 182/500 [5:57:42<10:07:59, 114.72s/it]Train -ELBO: 38.632, Val -ELBO: 38.686:  37%|███▋      | 183/500 [5:59:36<10:06:07, 114.72s/it]Train -ELBO: 38.611, Val -ELBO: 38.719:  37%|███▋      | 184/500 [6:01:31<10:04:25, 114.76s/it]Train -ELBO: 38.640, Val -ELBO: 38.622:  37%|███▋      | 185/500 [6:03:26<10:02:41, 114.80s/it]Train -ELBO: 38.582, Val -ELBO: 38.684:  37%|███▋      | 186/500 [6:05:21<10:00:48, 114.80s/it]Train -ELBO: 38.622, Val -ELBO: 38.706:  37%|███▋      | 187/500 [6:07:16<9:58:32, 114.74s/it] Train -ELBO: 38.590, Val -ELBO: 38.662:  38%|███▊      | 188/500 [6:09:10<9:56:58, 114.80s/it]Train -ELBO: 38.584, Val -ELBO: 38.643:  38%|███▊      | 189/500 [6:11:05<9:55:11, 114.83s/it]Train -ELBO: 38.579, Val -ELBO: 38.648:  38%|███▊      | 190/500 [6:13:00<9:52:53, 114.75s/it]Train -ELBO: 38.566, Val -ELBO: 38.570:  38%|███▊      | 191/500 [6:14:55<9:50:49, 114.72s/it]Train -ELBO: 38.542, Val -ELBO: 38.670:  38%|███▊      | 192/500 [6:16:49<9:48:55, 114.73s/it]Train -ELBO: 38.557, Val -ELBO: 38.598:  39%|███▊      | 193/500 [6:18:44<9:47:10, 114.76s/it]Train -ELBO: 38.547, Val -ELBO: 38.587:  39%|███▉      | 194/500 [6:20:39<9:45:10, 114.74s/it]Train -ELBO: 38.543, Val -ELBO: 38.587:  39%|███▉      | 195/500 [6:22:34<9:43:26, 114.78s/it]Train -ELBO: 38.505, Val -ELBO: 38.566:  39%|███▉      | 196/500 [6:24:29<9:41:34, 114.78s/it]Train -ELBO: 47.893, Val -ELBO: 40.195:  39%|███▉      | 197/500 [6:26:22<9:37:09, 114.29s/it]Train -ELBO: 39.364, Val -ELBO: 38.921:  40%|███▉      | 198/500 [6:28:16<9:35:55, 114.42s/it]Train -ELBO: 38.711, Val -ELBO: 38.625:  40%|███▉      | 199/500 [6:30:11<9:34:33, 114.53s/it]Train -ELBO: 38.548, Val -ELBO: 38.614:  40%|████      | 200/500 [6:32:06<9:33:06, 114.62s/it]Train -ELBO: 38.499, Val -ELBO: 38.554:  40%|████      | 201/500 [6:34:01<9:31:28, 114.68s/it]Train -ELBO: 38.462, Val -ELBO: 38.508:  40%|████      | 202/500 [6:35:56<9:29:45, 114.72s/it]Train -ELBO: 38.452, Val -ELBO: 38.491:  41%|████      | 203/500 [6:37:51<9:28:16, 114.80s/it]Train -ELBO: 38.401, Val -ELBO: 38.421:  41%|████      | 204/500 [6:39:45<9:26:09, 114.76s/it]Train -ELBO: 38.350, Val -ELBO: 38.421:  41%|████      | 205/500 [6:41:40<9:24:21, 114.78s/it]Train -ELBO: 38.345, Val -ELBO: 38.401:  41%|████      | 206/500 [6:43:35<9:22:26, 114.78s/it]Train -ELBO: 38.329, Val -ELBO: 38.416:  41%|████▏     | 207/500 [6:45:30<9:20:29, 114.78s/it]Train -ELBO: 38.308, Val -ELBO: 38.394:  42%|████▏     | 208/500 [6:47:24<9:18:31, 114.77s/it]Train -ELBO: 38.288, Val -ELBO: 38.327:  42%|████▏     | 209/500 [6:49:39<9:44:51, 120.59s/it]Train -ELBO: 38.261, Val -ELBO: 38.334:  42%|████▏     | 210/500 [6:51:34<9:34:49, 118.93s/it]Train -ELBO: 38.266, Val -ELBO: 38.244:  42%|████▏     | 211/500 [6:53:29<9:26:58, 117.71s/it]Train -ELBO: 38.227, Val -ELBO: 38.243:  42%|████▏     | 212/500 [6:55:23<9:20:58, 116.87s/it]Train -ELBO: 38.203, Val -ELBO: 38.195:  43%|████▎     | 213/500 [6:57:19<9:16:26, 116.33s/it]Train -ELBO: 38.172, Val -ELBO: 38.244:  43%|████▎     | 214/500 [6:59:13<9:12:21, 115.88s/it]Train -ELBO: 38.151, Val -ELBO: 38.246:  43%|████▎     | 215/500 [7:01:07<9:06:42, 115.10s/it]Train -ELBO: 38.131, Val -ELBO: 38.157:  43%|████▎     | 216/500 [7:03:01<9:03:34, 114.84s/it]Train -ELBO: 38.089, Val -ELBO: 38.157:  43%|████▎     | 217/500 [7:04:56<9:01:59, 114.91s/it]Train -ELBO: 38.073, Val -ELBO: 38.163:  44%|████▎     | 218/500 [7:06:51<9:00:19, 114.96s/it]Train -ELBO: 38.055, Val -ELBO: 38.105:  44%|████▍     | 219/500 [7:08:46<8:58:17, 114.94s/it]Train -ELBO: 38.015, Val -ELBO: 38.119:  44%|████▍     | 220/500 [7:10:41<8:56:25, 114.95s/it]Train -ELBO: 37.981, Val -ELBO: 38.027:  44%|████▍     | 221/500 [7:12:36<8:55:01, 115.06s/it]Train -ELBO: 37.978, Val -ELBO: 38.015:  44%|████▍     | 222/500 [7:14:31<8:52:55, 115.02s/it]Train -ELBO: 37.971, Val -ELBO: 37.976:  45%|████▍     | 223/500 [7:16:26<8:50:58, 115.01s/it]Train -ELBO: 37.950, Val -ELBO: 37.938:  45%|████▍     | 224/500 [7:18:21<8:48:59, 115.00s/it]Train -ELBO: 37.911, Val -ELBO: 37.966:  45%|████▌     | 225/500 [7:20:16<8:47:02, 114.99s/it]Train -ELBO: 37.864, Val -ELBO: 37.971:  45%|████▌     | 226/500 [7:22:11<8:45:14, 115.01s/it]Train -ELBO: 37.858, Val -ELBO: 37.911:  45%|████▌     | 227/500 [7:24:06<8:43:12, 114.99s/it]Train -ELBO: 37.889, Val -ELBO: 37.885:  46%|████▌     | 228/500 [7:26:01<8:41:27, 115.03s/it]Train -ELBO: 37.879, Val -ELBO: 37.888:  46%|████▌     | 229/500 [7:27:56<8:39:21, 114.99s/it]Train -ELBO: 37.862, Val -ELBO: 37.933:  46%|████▌     | 230/500 [7:29:51<8:37:26, 114.99s/it]Train -ELBO: 37.846, Val -ELBO: 37.884:  46%|████▌     | 231/500 [7:31:46<8:35:28, 114.98s/it]Train -ELBO: 37.828, Val -ELBO: 37.914:  46%|████▋     | 232/500 [7:33:41<8:33:43, 115.01s/it]Train -ELBO: 37.838, Val -ELBO: 37.935:  47%|████▋     | 233/500 [7:35:36<8:31:50, 115.02s/it]Train -ELBO: 37.799, Val -ELBO: 37.885:  47%|████▋     | 234/500 [7:37:32<8:30:40, 115.19s/it]Train -ELBO: 37.827, Val -ELBO: 37.926:  47%|████▋     | 235/500 [7:39:28<8:30:38, 115.62s/it]Train -ELBO: 37.799, Val -ELBO: 37.938:  47%|████▋     | 236/500 [7:41:25<8:30:25, 116.01s/it]Train -ELBO: 37.817, Val -ELBO: 37.880:  47%|████▋     | 237/500 [7:43:21<8:28:40, 116.05s/it]Train -ELBO: 37.820, Val -ELBO: 37.900:  48%|████▊     | 238/500 [7:45:16<8:25:13, 115.70s/it]Train -ELBO: 37.805, Val -ELBO: 37.871:  48%|████▊     | 239/500 [7:47:11<8:22:27, 115.51s/it]Train -ELBO: 37.813, Val -ELBO: 37.877:  48%|████▊     | 240/500 [7:49:06<8:19:49, 115.35s/it]Train -ELBO: 37.796, Val -ELBO: 37.879:  48%|████▊     | 241/500 [7:51:01<8:17:07, 115.16s/it]Train -ELBO: 37.815, Val -ELBO: 37.918:  48%|████▊     | 242/500 [7:52:55<8:13:52, 114.85s/it]Train -ELBO: 37.799, Val -ELBO: 37.888:  49%|████▊     | 243/500 [7:54:49<8:10:41, 114.56s/it]Train -ELBO: 37.786, Val -ELBO: 37.907:  49%|████▉     | 244/500 [7:56:43<8:07:30, 114.26s/it]Train -ELBO: 37.769, Val -ELBO: 37.888:  49%|████▉     | 245/500 [7:58:36<8:04:42, 114.05s/it]Train -ELBO: 37.788, Val -ELBO: 37.890:  49%|████▉     | 246/500 [8:00:30<8:02:27, 113.97s/it]Train -ELBO: 37.796, Val -ELBO: 37.888:  49%|████▉     | 247/500 [8:02:24<8:00:13, 113.89s/it]Train -ELBO: 37.796, Val -ELBO: 37.867:  50%|████▉     | 248/500 [8:04:17<7:58:11, 113.86s/it]Train -ELBO: 37.776, Val -ELBO: 37.812:  50%|████▉     | 249/500 [8:06:11<7:56:09, 113.82s/it]Train -ELBO: 37.755, Val -ELBO: 37.847:  50%|█████     | 250/500 [8:08:05<7:54:07, 113.79s/it]Train -ELBO: 37.772, Val -ELBO: 37.919:  50%|█████     | 251/500 [8:09:59<7:52:03, 113.75s/it]Train -ELBO: 37.759, Val -ELBO: 37.860:  50%|█████     | 252/500 [8:11:52<7:50:00, 113.71s/it]Train -ELBO: 37.769, Val -ELBO: 37.793:  51%|█████     | 253/500 [8:13:46<7:48:10, 113.72s/it]Train -ELBO: 44.185, Val -ELBO: 39.676:  51%|█████     | 254/500 [8:15:39<7:45:57, 113.65s/it]Train -ELBO: 38.509, Val -ELBO: 38.065:  51%|█████     | 255/500 [8:17:31<7:41:50, 113.10s/it]Train -ELBO: 37.886, Val -ELBO: 37.941:  51%|█████     | 256/500 [8:19:23<7:38:11, 112.67s/it]Train -ELBO: 37.837, Val -ELBO: 37.849:  51%|█████▏    | 257/500 [8:21:15<7:35:21, 112.44s/it]Train -ELBO: 37.792, Val -ELBO: 37.846:  52%|█████▏    | 258/500 [8:23:07<7:32:54, 112.29s/it]Train -ELBO: 37.760, Val -ELBO: 37.806:  52%|█████▏    | 259/500 [8:24:58<7:30:23, 112.13s/it]Train -ELBO: 37.750, Val -ELBO: 37.812:  52%|█████▏    | 260/500 [8:26:50<7:28:12, 112.05s/it]Train -ELBO: 37.751, Val -ELBO: 37.882:  52%|█████▏    | 261/500 [8:28:42<7:26:26, 112.08s/it]Train -ELBO: 37.759, Val -ELBO: 37.780:  52%|█████▏    | 262/500 [8:30:34<7:24:16, 112.00s/it]Train -ELBO: 37.748, Val -ELBO: 37.846:  53%|█████▎    | 263/500 [8:32:26<7:22:12, 111.95s/it]Train -ELBO: 37.737, Val -ELBO: 37.783:  53%|█████▎    | 264/500 [8:34:18<7:20:11, 111.91s/it]Train -ELBO: 37.739, Val -ELBO: 37.812:  53%|█████▎    | 265/500 [8:36:10<7:18:27, 111.95s/it]Train -ELBO: 37.718, Val -ELBO: 37.821:  53%|█████▎    | 266/500 [8:38:02<7:16:24, 111.90s/it]Train -ELBO: 37.729, Val -ELBO: 37.844:  53%|█████▎    | 267/500 [8:39:53<7:14:13, 111.82s/it]Train -ELBO: 37.729, Val -ELBO: 37.803:  54%|█████▎    | 268/500 [8:41:45<7:12:42, 111.91s/it]Train -ELBO: 37.730, Val -ELBO: 37.829:  54%|█████▍    | 269/500 [8:43:37<7:10:51, 111.91s/it]Train -ELBO: 37.742, Val -ELBO: 37.841:  54%|█████▍    | 270/500 [8:45:29<7:08:58, 111.91s/it]Train -ELBO: 37.752, Val -ELBO: 37.826:  54%|█████▍    | 271/500 [8:47:23<7:08:38, 112.31s/it]Train -ELBO: 37.747, Val -ELBO: 37.824:  54%|█████▍    | 272/500 [8:49:16<7:08:36, 112.79s/it]Train -ELBO: 37.736, Val -ELBO: 37.791:  55%|█████▍    | 273/500 [8:51:10<7:07:47, 113.07s/it]Train -ELBO: 37.724, Val -ELBO: 37.848:  55%|█████▍    | 274/500 [8:53:04<7:06:31, 113.24s/it]Train -ELBO: 37.755, Val -ELBO: 37.905:  55%|█████▌    | 275/500 [8:54:57<7:05:05, 113.36s/it]Train -ELBO: 37.753, Val -ELBO: 37.823:  55%|█████▌    | 276/500 [8:56:51<7:03:46, 113.51s/it]Train -ELBO: 37.731, Val -ELBO: 37.800:  55%|█████▌    | 277/500 [8:58:45<7:02:16, 113.61s/it]Train -ELBO: 37.746, Val -ELBO: 37.803:  56%|█████▌    | 278/500 [9:00:39<7:00:27, 113.64s/it]Train -ELBO: 37.739, Val -ELBO: 37.863:  56%|█████▌    | 279/500 [9:02:33<6:58:40, 113.67s/it]Train -ELBO: 37.723, Val -ELBO: 37.818:  56%|█████▌    | 280/500 [9:04:27<6:57:20, 113.82s/it]Train -ELBO: 37.730, Val -ELBO: 37.790:  56%|█████▌    | 281/500 [9:06:21<6:55:24, 113.81s/it]Train -ELBO: 37.732, Val -ELBO: 37.807:  56%|█████▋    | 282/500 [9:08:14<6:53:23, 113.78s/it]Train -ELBO: 37.750, Val -ELBO: 37.795:  57%|█████▋    | 283/500 [9:10:08<6:51:38, 113.82s/it]Train -ELBO: 37.744, Val -ELBO: 37.818:  57%|█████▋    | 284/500 [9:12:02<6:49:41, 113.80s/it]Train -ELBO: 37.721, Val -ELBO: 37.803:  57%|█████▋    | 285/500 [9:13:56<6:47:45, 113.79s/it]Train -ELBO: 37.718, Val -ELBO: 37.754:  57%|█████▋    | 286/500 [9:15:49<6:45:44, 113.76s/it]Epoch   212: reducing learning rate of group 0 to 1.0000e-04.
Train -ELBO: 37.762, Val -ELBO: 37.777:  57%|█████▋    | 287/500 [9:17:43<6:43:57, 113.79s/it]Train -ELBO: 37.574, Val -ELBO: 37.633:  58%|█████▊    | 288/500 [9:19:37<6:41:56, 113.76s/it]Train -ELBO: 37.552, Val -ELBO: 37.636:  58%|█████▊    | 289/500 [9:21:31<6:39:49, 113.70s/it]Train -ELBO: 37.555, Val -ELBO: 37.650:  58%|█████▊    | 290/500 [9:23:24<6:38:06, 113.74s/it]Train -ELBO: 37.553, Val -ELBO: 37.634:  58%|█████▊    | 291/500 [9:25:18<6:36:10, 113.74s/it]Train -ELBO: 37.551, Val -ELBO: 37.637:  58%|█████▊    | 292/500 [9:27:12<6:34:08, 113.69s/it]Train -ELBO: 37.548, Val -ELBO: 37.636:  59%|█████▊    | 293/500 [9:29:05<6:32:19, 113.72s/it]Train -ELBO: 37.548, Val -ELBO: 37.626:  59%|█████▉    | 294/500 [9:30:59<6:30:42, 113.80s/it]Train -ELBO: 37.547, Val -ELBO: 37.626:  59%|█████▉    | 295/500 [9:32:53<6:28:44, 113.78s/it]Train -ELBO: 37.552, Val -ELBO: 37.631:  59%|█████▉    | 296/500 [9:34:47<6:26:47, 113.76s/it]Train -ELBO: 37.552, Val -ELBO: 37.631:  59%|█████▉    | 297/500 [9:36:41<6:24:54, 113.77s/it]Train -ELBO: 37.548, Val -ELBO: 37.629:  60%|█████▉    | 298/500 [9:38:34<6:22:58, 113.76s/it]Train -ELBO: 37.546, Val -ELBO: 37.629:  60%|█████▉    | 299/500 [9:40:28<6:21:08, 113.78s/it]Train -ELBO: 37.546, Val -ELBO: 37.624:  60%|██████    | 300/500 [9:42:22<6:19:10, 113.75s/it]Train -ELBO: 37.550, Val -ELBO: 37.630:  60%|██████    | 301/500 [9:44:16<6:17:25, 113.79s/it]Train -ELBO: 37.548, Val -ELBO: 37.638:  60%|██████    | 302/500 [9:46:10<6:15:35, 113.82s/it]Train -ELBO: 37.550, Val -ELBO: 37.641:  61%|██████    | 303/500 [9:48:03<6:13:27, 113.74s/it]Train -ELBO: 37.544, Val -ELBO: 37.626:  61%|██████    | 304/500 [9:49:57<6:11:32, 113.74s/it]Train -ELBO: 37.546, Val -ELBO: 37.634:  61%|██████    | 305/500 [9:51:51<6:09:56, 113.83s/it]Train -ELBO: 37.548, Val -ELBO: 37.633:  61%|██████    | 306/500 [9:53:45<6:07:54, 113.78s/it]Train -ELBO: 37.544, Val -ELBO: 37.629:  61%|██████▏   | 307/500 [9:55:38<6:05:55, 113.76s/it]Train -ELBO: 37.546, Val -ELBO: 37.634:  62%|██████▏   | 308/500 [9:57:32<6:04:07, 113.79s/it]Train -ELBO: 37.544, Val -ELBO: 37.628:  62%|██████▏   | 309/500 [9:59:26<6:02:14, 113.79s/it]Train -ELBO: 37.547, Val -ELBO: 37.630:  62%|██████▏   | 310/500 [10:01:20<6:00:06, 113.72s/it]Train -ELBO: 37.547, Val -ELBO: 37.631:  62%|██████▏   | 311/500 [10:03:13<5:58:03, 113.67s/it]Train -ELBO: 37.551, Val -ELBO: 37.628:  62%|██████▏   | 312/500 [10:05:07<5:56:17, 113.71s/it]Train -ELBO: 37.548, Val -ELBO: 37.635:  63%|██████▎   | 313/500 [10:07:01<5:54:30, 113.74s/it]Train -ELBO: 37.546, Val -ELBO: 37.627:  63%|██████▎   | 314/500 [10:08:55<5:52:44, 113.79s/it]Train -ELBO: 37.547, Val -ELBO: 37.627:  63%|██████▎   | 315/500 [10:10:48<5:50:44, 113.75s/it]Train -ELBO: 37.547, Val -ELBO: 37.623:  63%|██████▎   | 316/500 [10:12:42<5:48:49, 113.75s/it]Train -ELBO: 37.545, Val -ELBO: 37.639:  63%|██████▎   | 317/500 [10:14:36<5:46:53, 113.73s/it]Train -ELBO: 37.547, Val -ELBO: 37.632:  64%|██████▎   | 318/500 [10:16:30<5:44:59, 113.73s/it]Train -ELBO: 37.541, Val -ELBO: 37.625:  64%|██████▍   | 319/500 [10:18:31<5:49:56, 116.00s/it]Train -ELBO: 37.544, Val -ELBO: 37.636:  64%|██████▍   | 320/500 [10:21:00<6:17:31, 125.84s/it]Train -ELBO: 37.550, Val -ELBO: 37.635:  64%|██████▍   | 321/500 [10:22:54<6:04:51, 122.30s/it]Train -ELBO: 37.549, Val -ELBO: 37.638:  64%|██████▍   | 322/500 [10:24:48<5:55:42, 119.90s/it]Train -ELBO: 37.542, Val -ELBO: 37.617:  65%|██████▍   | 323/500 [10:26:42<5:48:15, 118.05s/it]Train -ELBO: 37.539, Val -ELBO: 37.642:  65%|██████▍   | 324/500 [10:28:35<5:42:18, 116.70s/it]Train -ELBO: 37.546, Val -ELBO: 37.634:  65%|██████▌   | 325/500 [10:30:29<5:37:31, 115.72s/it]Train -ELBO: 37.547, Val -ELBO: 37.627:  65%|██████▌   | 326/500 [10:32:22<5:33:41, 115.07s/it]Train -ELBO: 37.543, Val -ELBO: 37.630:  65%|██████▌   | 327/500 [10:34:16<5:30:32, 114.64s/it]Train -ELBO: 37.543, Val -ELBO: 37.634:  66%|██████▌   | 328/500 [10:36:09<5:27:41, 114.31s/it]Train -ELBO: 37.541, Val -ELBO: 37.636:  66%|██████▌   | 329/500 [10:38:03<5:25:02, 114.05s/it]Train -ELBO: 37.537, Val -ELBO: 37.616:  66%|██████▌   | 330/500 [10:40:31<5:52:13, 124.31s/it]Train -ELBO: 37.544, Val -ELBO: 37.630:  66%|██████▌   | 331/500 [10:42:35<5:49:58, 124.25s/it]Train -ELBO: 37.543, Val -ELBO: 37.618:  66%|██████▋   | 332/500 [10:44:47<5:54:12, 126.50s/it]Train -ELBO: 37.540, Val -ELBO: 37.630:  67%|██████▋   | 333/500 [10:46:43<5:43:16, 123.33s/it]Train -ELBO: 37.540, Val -ELBO: 37.622:  67%|██████▋   | 334/500 [10:48:31<5:28:52, 118.87s/it]Train -ELBO: 37.541, Val -ELBO: 37.624:  67%|██████▋   | 335/500 [10:50:18<5:16:42, 115.17s/it]Train -ELBO: 37.542, Val -ELBO: 37.626:  67%|██████▋   | 336/500 [10:52:04<5:07:32, 112.52s/it]Train -ELBO: 37.547, Val -ELBO: 37.632:  67%|██████▋   | 337/500 [10:53:51<5:00:46, 110.72s/it]Train -ELBO: 37.544, Val -ELBO: 37.629:  68%|██████▊   | 338/500 [10:55:38<4:56:25, 109.78s/it]Train -ELBO: 37.543, Val -ELBO: 37.623:  68%|██████▊   | 339/500 [10:57:32<4:58:04, 111.08s/it]Train -ELBO: 37.540, Val -ELBO: 37.626:  68%|██████▊   | 340/500 [10:59:28<4:59:24, 112.28s/it]Train -ELBO: 37.533, Val -ELBO: 37.622:  68%|██████▊   | 341/500 [11:01:18<4:55:52, 111.65s/it]Train -ELBO: 37.538, Val -ELBO: 37.628:  68%|██████▊   | 342/500 [11:03:05<4:50:48, 110.44s/it]Train -ELBO: 37.538, Val -ELBO: 37.619:  69%|██████▊   | 343/500 [11:04:51<4:45:15, 109.01s/it]Train -ELBO: 37.537, Val -ELBO: 37.630:  69%|██████▉   | 344/500 [11:06:38<4:42:11, 108.54s/it]Train -ELBO: 37.537, Val -ELBO: 37.647:  69%|██████▉   | 345/500 [11:08:24<4:37:48, 107.54s/it]Train -ELBO: 37.541, Val -ELBO: 37.613:  69%|██████▉   | 346/500 [11:10:09<4:34:14, 106.85s/it]Train -ELBO: 37.537, Val -ELBO: 37.615:  69%|██████▉   | 347/500 [11:11:54<4:31:11, 106.35s/it]Train -ELBO: 37.538, Val -ELBO: 37.630:  70%|██████▉   | 348/500 [11:13:39<4:28:37, 106.03s/it]Train -ELBO: 37.536, Val -ELBO: 37.626:  70%|██████▉   | 349/500 [11:15:25<4:26:21, 105.83s/it]Train -ELBO: 37.538, Val -ELBO: 37.625:  70%|███████   | 350/500 [11:17:10<4:24:05, 105.64s/it]Train -ELBO: 37.535, Val -ELBO: 37.621:  70%|███████   | 351/500 [11:18:56<4:22:56, 105.88s/it]Train -ELBO: 37.535, Val -ELBO: 37.613:  70%|███████   | 352/500 [11:20:42<4:20:39, 105.67s/it]Train -ELBO: 37.537, Val -ELBO: 37.616:  71%|███████   | 353/500 [11:22:27<4:18:35, 105.55s/it]Train -ELBO: 37.540, Val -ELBO: 37.622:  71%|███████   | 354/500 [11:24:12<4:16:29, 105.41s/it]Train -ELBO: 37.540, Val -ELBO: 37.618:  71%|███████   | 355/500 [11:25:57<4:14:31, 105.32s/it]Train -ELBO: 37.534, Val -ELBO: 37.616:  71%|███████   | 356/500 [11:27:42<4:12:38, 105.27s/it]Train -ELBO: 37.539, Val -ELBO: 37.605:  71%|███████▏  | 357/500 [11:29:27<4:10:48, 105.23s/it]Train -ELBO: 37.534, Val -ELBO: 37.624:  72%|███████▏  | 358/500 [11:31:12<4:08:59, 105.21s/it]Train -ELBO: 37.536, Val -ELBO: 37.620:  72%|███████▏  | 359/500 [11:32:58<4:07:13, 105.20s/it]Train -ELBO: 37.534, Val -ELBO: 37.613:  72%|███████▏  | 360/500 [11:34:43<4:05:28, 105.20s/it]Train -ELBO: 37.538, Val -ELBO: 37.618:  72%|███████▏  | 361/500 [11:36:28<4:03:44, 105.22s/it]Epoch   287: reducing learning rate of group 0 to 1.0000e-05.
Train -ELBO: 37.541, Val -ELBO: 37.632:  72%|███████▏  | 362/500 [11:38:13<4:01:56, 105.19s/it]Train -ELBO: 37.518, Val -ELBO: 37.608:  73%|███████▎  | 363/500 [11:39:58<4:00:13, 105.21s/it]Train -ELBO: 37.515, Val -ELBO: 37.605:  73%|███████▎  | 364/500 [11:41:44<3:58:29, 105.21s/it]Train -ELBO: 37.512, Val -ELBO: 37.604:  73%|███████▎  | 365/500 [11:43:29<3:56:43, 105.21s/it]Train -ELBO: 37.510, Val -ELBO: 37.599:  73%|███████▎  | 366/500 [11:45:14<3:54:57, 105.21s/it]Train -ELBO: 37.512, Val -ELBO: 37.602:  73%|███████▎  | 367/500 [11:46:59<3:53:13, 105.21s/it]Train -ELBO: 37.510, Val -ELBO: 37.601:  74%|███████▎  | 368/500 [11:48:45<3:51:27, 105.21s/it]Train -ELBO: 37.514, Val -ELBO: 37.600:  74%|███████▍  | 369/500 [11:50:30<3:49:44, 105.23s/it]Train -ELBO: 37.512, Val -ELBO: 37.605:  74%|███████▍  | 370/500 [11:52:15<3:48:03, 105.26s/it]Train -ELBO: 37.510, Val -ELBO: 37.602:  74%|███████▍  | 371/500 [11:54:00<3:46:19, 105.27s/it]Train -ELBO: 37.512, Val -ELBO: 37.598:  74%|███████▍  | 372/500 [11:55:46<3:44:29, 105.23s/it]Train -ELBO: 37.511, Val -ELBO: 37.596:  75%|███████▍  | 373/500 [11:57:31<3:42:43, 105.22s/it]Train -ELBO: 37.510, Val -ELBO: 37.599:  75%|███████▍  | 374/500 [11:59:16<3:41:02, 105.26s/it]Train -ELBO: 37.515, Val -ELBO: 37.600:  75%|███████▌  | 375/500 [12:01:02<3:39:24, 105.32s/it]Train -ELBO: 37.513, Val -ELBO: 37.603:  75%|███████▌  | 376/500 [12:02:47<3:37:36, 105.29s/it]Train -ELBO: 37.507, Val -ELBO: 37.599:  75%|███████▌  | 377/500 [12:04:32<3:35:47, 105.27s/it]Train -ELBO: 37.510, Val -ELBO: 37.602:  76%|███████▌  | 378/500 [12:06:17<3:34:01, 105.26s/it]Train -ELBO: 37.510, Val -ELBO: 37.601:  76%|███████▌  | 379/500 [12:08:03<3:32:19, 105.29s/it]Train -ELBO: 37.509, Val -ELBO: 37.603:  76%|███████▌  | 380/500 [12:09:48<3:30:30, 105.26s/it]Train -ELBO: 37.512, Val -ELBO: 37.602:  76%|███████▌  | 381/500 [12:11:33<3:28:45, 105.25s/it]Train -ELBO: 37.507, Val -ELBO: 37.600:  76%|███████▋  | 382/500 [12:13:18<3:26:58, 105.24s/it]Train -ELBO: 37.511, Val -ELBO: 37.601:  77%|███████▋  | 383/500 [12:15:04<3:25:15, 105.26s/it]Train -ELBO: 37.513, Val -ELBO: 37.600:  77%|███████▋  | 384/500 [12:16:49<3:23:25, 105.22s/it]Train -ELBO: 37.509, Val -ELBO: 37.603:  77%|███████▋  | 385/500 [12:18:34<3:21:43, 105.25s/it]Train -ELBO: 37.513, Val -ELBO: 37.608:  77%|███████▋  | 386/500 [12:20:19<3:20:01, 105.28s/it]Train -ELBO: 37.514, Val -ELBO: 37.609:  77%|███████▋  | 387/500 [12:22:05<3:18:15, 105.27s/it]Train -ELBO: 37.513, Val -ELBO: 37.605:  78%|███████▊  | 388/500 [12:23:50<3:16:28, 105.25s/it]Train -ELBO: 37.511, Val -ELBO: 37.605:  78%|███████▊  | 389/500 [12:25:35<3:14:41, 105.24s/it]Train -ELBO: 37.513, Val -ELBO: 37.606:  78%|███████▊  | 390/500 [12:27:20<3:12:56, 105.24s/it]Train -ELBO: 37.509, Val -ELBO: 37.599:  78%|███████▊  | 391/500 [12:29:05<3:11:11, 105.24s/it]Train -ELBO: 37.511, Val -ELBO: 37.600:  78%|███████▊  | 392/500 [12:30:51<3:09:27, 105.25s/it]Train -ELBO: 37.510, Val -ELBO: 37.606:  79%|███████▊  | 393/500 [12:32:36<3:07:41, 105.25s/it]Train -ELBO: 37.512, Val -ELBO: 37.606:  79%|███████▉  | 394/500 [12:34:21<3:05:57, 105.26s/it]Train -ELBO: 37.507, Val -ELBO: 37.602:  79%|███████▉  | 395/500 [12:36:06<3:04:09, 105.24s/it]Train -ELBO: 37.508, Val -ELBO: 37.603:  79%|███████▉  | 396/500 [12:37:52<3:02:25, 105.25s/it]Train -ELBO: 37.510, Val -ELBO: 37.602:  79%|███████▉  | 397/500 [12:39:37<3:00:40, 105.25s/it]Epoch   323: reducing learning rate of group 0 to 1.0000e-06.
Train -ELBO: 37.509, Val -ELBO: 37.602:  80%|███████▉  | 398/500 [12:41:22<2:58:54, 105.24s/it]Train -ELBO: 37.508, Val -ELBO: 37.597:  80%|███████▉  | 399/500 [12:43:07<2:57:09, 105.25s/it]Train -ELBO: 37.505, Val -ELBO: 37.597:  80%|████████  | 400/500 [12:44:53<2:55:24, 105.24s/it]Train -ELBO: 37.506, Val -ELBO: 37.602:  80%|████████  | 401/500 [12:46:38<2:53:39, 105.25s/it]Train -ELBO: 37.508, Val -ELBO: 37.597:  80%|████████  | 402/500 [12:48:23<2:51:55, 105.26s/it]Train -ELBO: 37.506, Val -ELBO: 37.610:  81%|████████  | 403/500 [12:50:08<2:50:08, 105.24s/it]Train -ELBO: 37.507, Val -ELBO: 37.596:  81%|████████  | 404/500 [12:51:54<2:48:26, 105.28s/it]Train -ELBO: 37.505, Val -ELBO: 37.596:  81%|████████  | 405/500 [12:53:39<2:46:40, 105.27s/it]Train -ELBO: 37.509, Val -ELBO: 37.600:  81%|████████  | 406/500 [12:55:24<2:44:56, 105.28s/it]Train -ELBO: 37.505, Val -ELBO: 37.600:  81%|████████▏ | 407/500 [12:57:10<2:43:10, 105.28s/it]Train -ELBO: 37.504, Val -ELBO: 37.602:  82%|████████▏ | 408/500 [12:58:55<2:41:24, 105.26s/it]Train -ELBO: 37.507, Val -ELBO: 37.601:  82%|████████▏ | 409/500 [13:00:40<2:39:42, 105.30s/it]Train -ELBO: 37.503, Val -ELBO: 37.602:  82%|████████▏ | 410/500 [13:02:26<2:37:55, 105.28s/it]Train -ELBO: 37.504, Val -ELBO: 37.601:  82%|████████▏ | 411/500 [13:04:12<2:36:29, 105.50s/it]Train -ELBO: 37.508, Val -ELBO: 37.598:  82%|████████▏ | 412/500 [13:05:57<2:34:41, 105.48s/it]Train -ELBO: 37.505, Val -ELBO: 37.602:  83%|████████▎ | 413/500 [13:07:42<2:32:51, 105.41s/it]Train -ELBO: 37.507, Val -ELBO: 37.601:  83%|████████▎ | 414/500 [13:09:27<2:31:01, 105.37s/it]Train -ELBO: 37.505, Val -ELBO: 37.594:  83%|████████▎ | 415/500 [13:11:13<2:29:14, 105.35s/it]Train -ELBO: 37.505, Val -ELBO: 37.599:  83%|████████▎ | 416/500 [13:12:58<2:27:29, 105.35s/it]Train -ELBO: 37.505, Val -ELBO: 37.602:  83%|████████▎ | 417/500 [13:14:43<2:25:40, 105.31s/it]Train -ELBO: 37.506, Val -ELBO: 37.601:  84%|████████▎ | 418/500 [13:16:29<2:23:55, 105.31s/it]Train -ELBO: 37.506, Val -ELBO: 37.603:  84%|████████▍ | 419/500 [13:18:14<2:22:08, 105.29s/it]Train -ELBO: 37.508, Val -ELBO: 37.603:  84%|████████▍ | 420/500 [13:19:59<2:20:22, 105.28s/it]Train -ELBO: 37.508, Val -ELBO: 37.599:  84%|████████▍ | 421/500 [13:21:44<2:18:36, 105.28s/it]Train -ELBO: 37.504, Val -ELBO: 37.600:  84%|████████▍ | 422/500 [13:23:30<2:16:50, 105.26s/it]Train -ELBO: 37.506, Val -ELBO: 37.598:  85%|████████▍ | 423/500 [13:25:15<2:15:05, 105.27s/it]Train -ELBO: 37.506, Val -ELBO: 37.607:  85%|████████▍ | 424/500 [13:27:00<2:13:21, 105.28s/it]Train -ELBO: 37.508, Val -ELBO: 37.601:  85%|████████▌ | 425/500 [13:28:46<2:11:36, 105.29s/it]Train -ELBO: 37.506, Val -ELBO: 37.604:  85%|████████▌ | 426/500 [13:30:31<2:09:51, 105.29s/it]Train -ELBO: 37.507, Val -ELBO: 37.600:  85%|████████▌ | 427/500 [13:32:16<2:08:05, 105.28s/it]Train -ELBO: 37.506, Val -ELBO: 37.599:  86%|████████▌ | 428/500 [13:34:01<2:06:19, 105.26s/it]Train -ELBO: 37.505, Val -ELBO: 37.601:  86%|████████▌ | 429/500 [13:35:47<2:04:37, 105.31s/it]Train -ELBO: 37.504, Val -ELBO: 37.601:  86%|████████▌ | 430/500 [13:37:32<2:02:51, 105.31s/it]Train -ELBO: 37.506, Val -ELBO: 37.598:  86%|████████▌ | 431/500 [13:39:17<2:01:06, 105.31s/it]Train -ELBO: 37.505, Val -ELBO: 37.596:  86%|████████▋ | 432/500 [13:41:03<1:59:21, 105.32s/it]Train -ELBO: 37.504, Val -ELBO: 37.603:  87%|████████▋ | 433/500 [13:42:48<1:57:36, 105.32s/it]Train -ELBO: 37.504, Val -ELBO: 37.603:  87%|████████▋ | 434/500 [13:44:33<1:55:50, 105.31s/it]Train -ELBO: 37.507, Val -ELBO: 37.598:  87%|████████▋ | 435/500 [13:46:19<1:54:05, 105.32s/it]Train -ELBO: 37.504, Val -ELBO: 37.595:  87%|████████▋ | 436/500 [13:48:04<1:52:19, 105.30s/it]Train -ELBO: 37.504, Val -ELBO: 37.603:  87%|████████▋ | 437/500 [13:49:49<1:50:34, 105.31s/it]Train -ELBO: 37.505, Val -ELBO: 37.600:  88%|████████▊ | 438/500 [13:51:35<1:48:55, 105.41s/it]Train -ELBO: 37.508, Val -ELBO: 37.600:  88%|████████▊ | 439/500 [13:53:20<1:47:13, 105.47s/it]Train -ELBO: 37.508, Val -ELBO: 37.599:  88%|████████▊ | 440/500 [13:55:06<1:45:25, 105.43s/it]Train -ELBO: 37.506, Val -ELBO: 37.601:  88%|████████▊ | 441/500 [13:56:51<1:43:36, 105.37s/it]Train -ELBO: 37.506, Val -ELBO: 37.602:  88%|████████▊ | 442/500 [13:58:36<1:41:49, 105.33s/it]Train -ELBO: 37.506, Val -ELBO: 37.592:  89%|████████▊ | 443/500 [14:00:22<1:40:02, 105.30s/it]Train -ELBO: 37.507, Val -ELBO: 37.598:  89%|████████▉ | 444/500 [14:02:07<1:38:16, 105.29s/it]Train -ELBO: 37.509, Val -ELBO: 37.598:  89%|████████▉ | 445/500 [14:03:53<1:36:38, 105.42s/it]Train -ELBO: 37.505, Val -ELBO: 37.601:  89%|████████▉ | 446/500 [14:05:38<1:34:55, 105.46s/it]Train -ELBO: 37.504, Val -ELBO: 37.598:  89%|████████▉ | 447/500 [14:07:23<1:33:06, 105.41s/it]Train -ELBO: 37.506, Val -ELBO: 37.598:  90%|████████▉ | 448/500 [14:09:09<1:31:19, 105.38s/it]Train -ELBO: 37.506, Val -ELBO: 37.595:  90%|████████▉ | 449/500 [14:10:54<1:29:32, 105.33s/it]Train -ELBO: 37.503, Val -ELBO: 37.601:  90%|█████████ | 450/500 [14:12:39<1:27:45, 105.31s/it]Train -ELBO: 37.505, Val -ELBO: 37.600:  90%|█████████ | 451/500 [14:14:24<1:25:58, 105.27s/it]Train -ELBO: 37.507, Val -ELBO: 37.602:  90%|█████████ | 452/500 [14:16:10<1:24:12, 105.26s/it]Train -ELBO: 37.503, Val -ELBO: 37.599:  91%|█████████ | 453/500 [14:17:55<1:22:27, 105.26s/it]Train -ELBO: 37.507, Val -ELBO: 37.597:  91%|█████████ | 454/500 [14:19:40<1:20:42, 105.26s/it]Train -ELBO: 37.506, Val -ELBO: 37.602:  91%|█████████ | 455/500 [14:21:25<1:18:57, 105.27s/it]Train -ELBO: 37.511, Val -ELBO: 37.599:  91%|█████████ | 456/500 [14:23:11<1:17:11, 105.26s/it]Train -ELBO: 37.507, Val -ELBO: 37.602:  91%|█████████▏| 457/500 [14:24:56<1:15:25, 105.23s/it]Train -ELBO: 37.508, Val -ELBO: 37.600:  92%|█████████▏| 458/500 [14:26:41<1:13:41, 105.28s/it]Train -ELBO: 37.506, Val -ELBO: 37.597:  92%|█████████▏| 459/500 [14:28:26<1:11:56, 105.28s/it]Train -ELBO: 37.504, Val -ELBO: 37.604:  92%|█████████▏| 460/500 [14:30:12<1:10:11, 105.29s/it]Train -ELBO: 37.507, Val -ELBO: 37.596:  92%|█████████▏| 461/500 [14:31:57<1:08:23, 105.21s/it]Train -ELBO: 37.506, Val -ELBO: 37.602:  92%|█████████▏| 462/500 [14:33:42<1:06:38, 105.23s/it]Train -ELBO: 37.504, Val -ELBO: 37.604:  93%|█████████▎| 463/500 [14:35:27<1:04:54, 105.25s/it]Train -ELBO: 37.506, Val -ELBO: 37.601:  93%|█████████▎| 464/500 [14:37:13<1:03:08, 105.24s/it]Train -ELBO: 37.504, Val -ELBO: 37.600:  93%|█████████▎| 465/500 [14:38:58<1:01:22, 105.23s/it]Train -ELBO: 37.508, Val -ELBO: 37.602:  93%|█████████▎| 466/500 [14:40:43<59:38, 105.25s/it]  Train -ELBO: 37.507, Val -ELBO: 37.597:  93%|█████████▎| 467/500 [14:42:29<57:56, 105.34s/it]Train -ELBO: 37.507, Val -ELBO: 37.601:  94%|█████████▎| 468/500 [14:44:14<56:13, 105.42s/it]Train -ELBO: 37.506, Val -ELBO: 37.601:  94%|█████████▍| 469/500 [14:45:59<54:25, 105.34s/it]Train -ELBO: 37.507, Val -ELBO: 37.600:  94%|█████████▍| 470/500 [14:47:45<52:40, 105.34s/it]Train -ELBO: 37.510, Val -ELBO: 37.598:  94%|█████████▍| 471/500 [14:49:30<50:54, 105.34s/it]Train -ELBO: 37.510, Val -ELBO: 37.600:  94%|█████████▍| 472/500 [14:51:16<49:14, 105.53s/it]Train -ELBO: 37.507, Val -ELBO: 37.598:  95%|█████████▍| 473/500 [14:53:01<47:27, 105.47s/it]Train -ELBO: 37.508, Val -ELBO: 37.601:  95%|█████████▍| 474/500 [14:54:47<45:40, 105.40s/it]Train -ELBO: 37.504, Val -ELBO: 37.601:  95%|█████████▌| 475/500 [14:56:32<43:53, 105.35s/it]Train -ELBO: 37.506, Val -ELBO: 37.601:  95%|█████████▌| 476/500 [14:58:17<42:08, 105.34s/it]Train -ELBO: 37.506, Val -ELBO: 37.602:  95%|█████████▌| 477/500 [15:00:02<40:21, 105.29s/it]Train -ELBO: 37.506, Val -ELBO: 37.595:  96%|█████████▌| 478/500 [15:01:48<38:36, 105.28s/it]Train -ELBO: 37.506, Val -ELBO: 37.603:  96%|█████████▌| 479/500 [15:03:33<36:50, 105.26s/it]Train -ELBO: 37.506, Val -ELBO: 37.605:  96%|█████████▌| 480/500 [15:05:18<35:05, 105.26s/it]Train -ELBO: 37.501, Val -ELBO: 37.601:  96%|█████████▌| 481/500 [15:07:03<33:20, 105.30s/it]Train -ELBO: 37.507, Val -ELBO: 37.602:  96%|█████████▋| 482/500 [15:08:49<31:36, 105.39s/it]Train -ELBO: 37.507, Val -ELBO: 37.599:  97%|█████████▋| 483/500 [15:10:34<29:51, 105.37s/it]Train -ELBO: 37.507, Val -ELBO: 37.600:  97%|█████████▋| 484/500 [15:12:20<28:05, 105.35s/it]Train -ELBO: 37.507, Val -ELBO: 37.603:  97%|█████████▋| 485/500 [15:14:05<26:20, 105.34s/it]Train -ELBO: 37.504, Val -ELBO: 37.603:  97%|█████████▋| 486/500 [15:15:50<24:34, 105.32s/it]Train -ELBO: 37.504, Val -ELBO: 37.597:  97%|█████████▋| 487/500 [15:17:36<22:48, 105.29s/it]Train -ELBO: 37.505, Val -ELBO: 37.600:  98%|█████████▊| 488/500 [15:19:21<21:05, 105.45s/it]Train -ELBO: 37.506, Val -ELBO: 37.602:  98%|█████████▊| 489/500 [15:21:07<19:19, 105.40s/it]Train -ELBO: 37.505, Val -ELBO: 37.598:  98%|█████████▊| 490/500 [15:22:52<17:33, 105.39s/it]Train -ELBO: 37.506, Val -ELBO: 37.603:  98%|█████████▊| 491/500 [15:24:37<15:48, 105.37s/it]Train -ELBO: 37.504, Val -ELBO: 37.606:  98%|█████████▊| 492/500 [15:26:23<14:02, 105.33s/it]Train -ELBO: 37.502, Val -ELBO: 37.605:  99%|█████████▊| 493/500 [15:28:08<12:17, 105.33s/it]Train -ELBO: 37.506, Val -ELBO: 37.601:  99%|█████████▉| 494/500 [15:29:53<10:31, 105.32s/it]Train -ELBO: 37.508, Val -ELBO: 37.604:  99%|█████████▉| 495/500 [15:31:38<08:46, 105.32s/it]Train -ELBO: 37.507, Val -ELBO: 37.598:  99%|█████████▉| 496/500 [15:33:24<07:01, 105.34s/it]Train -ELBO: 37.502, Val -ELBO: 37.597:  99%|█████████▉| 497/500 [15:35:09<05:15, 105.32s/it]Train -ELBO: 37.509, Val -ELBO: 37.598: 100%|█████████▉| 498/500 [15:36:54<03:30, 105.32s/it]Train -ELBO: 37.507, Val -ELBO: 37.599: 100%|█████████▉| 499/500 [15:38:40<01:45, 105.31s/it]Train -ELBO: 37.505, Val -ELBO: 37.602: 100%|██████████| 500/500 [15:40:25<00:00, 105.28s/it]Train -ELBO: 37.505, Val -ELBO: 37.602: 100%|██████████| 500/500 [15:40:25<00:00, 112.85s/it]
