{
  "memory.usage": {
    "steps": [
      0,
      1,
      2,
      3,
      4,
      5,
      6,
      7,
      8,
      9,
      10,
      11,
      12,
      13,
      14,
      15,
      16,
      17,
      18,
      19,
      20,
      21,
      22,
      23,
      24,
      25,
      26,
      27,
      28,
      29,
      30,
      31,
      32,
      33,
      34,
      35,
      36,
      37,
      38,
      39,
      40,
      41,
      42,
      43,
      44,
      45,
      46,
      47,
      48,
      49,
      50,
      51,
      52,
      53,
      54,
      55,
      56,
      57,
      58,
      59,
      60,
      61,
      62,
      63,
      64,
      65,
      66,
      67,
      68,
      69,
      70,
      71,
      72,
      73,
      74,
      75,
      76,
      77,
      78,
      79,
      80,
      81,
      82,
      83,
      84,
      85,
      86,
      87,
      88,
      89,
      90,
      91,
      92,
      93,
      94,
      95,
      96,
      97,
      98,
      99,
      100,
      101,
      102,
      103,
      104,
      105,
      106,
      107,
      108,
      109,
      110,
      111,
      112,
      113,
      114,
      115,
      116,
      117,
      118,
      119,
      120,
      121,
      122,
      123,
      124,
      125,
      126,
      127,
      128,
      129,
      130,
      131,
      132,
      133,
      134,
      135,
      136,
      137,
      138,
      139,
      140,
      141,
      142,
      143,
      144,
      145,
      146,
      147,
      148,
      149,
      150,
      151,
      152,
      153,
      154,
      155,
      156,
      157,
      158,
      159,
      160,
      161,
      162,
      163,
      164,
      165,
      166,
      167,
      168,
      169,
      170,
      171,
      172,
      173,
      174,
      175,
      176,
      177,
      178,
      179,
      180,
      181,
      182,
      183,
      184,
      185,
      186,
      187,
      188,
      189,
      190,
      191,
      192,
      193,
      194,
      195,
      196,
      197,
      198,
      199
    ],
    "timestamps": [
      "2022-08-18T17:06:05.298613",
      "2022-08-18T17:06:06.564483",
      "2022-08-18T17:06:07.831098",
      "2022-08-18T17:06:09.099072",
      "2022-08-18T17:06:10.371713",
      "2022-08-18T17:06:11.635382",
      "2022-08-18T17:06:12.916291",
      "2022-08-18T17:06:14.221583",
      "2022-08-18T17:06:15.498732",
      "2022-08-18T17:06:16.765856",
      "2022-08-18T17:06:18.042606",
      "2022-08-18T17:06:19.339382",
      "2022-08-18T17:06:20.604346",
      "2022-08-18T17:06:21.869219",
      "2022-08-18T17:06:23.136845",
      "2022-08-18T17:06:24.421594",
      "2022-08-18T17:06:25.687317",
      "2022-08-18T17:06:26.952159",
      "2022-08-18T17:06:28.217839",
      "2022-08-18T17:06:29.484170",
      "2022-08-18T17:06:30.763552",
      "2022-08-18T17:06:32.064018",
      "2022-08-18T17:06:33.330101",
      "2022-08-18T17:06:34.599505",
      "2022-08-18T17:06:35.866412",
      "2022-08-18T17:06:37.151242",
      "2022-08-18T17:06:38.418854",
      "2022-08-18T17:06:39.687726",
      "2022-08-18T17:06:40.955181",
      "2022-08-18T17:06:42.224991",
      "2022-08-18T17:06:43.501749",
      "2022-08-18T17:06:44.789089",
      "2022-08-18T17:06:46.053387",
      "2022-08-18T17:06:47.318914",
      "2022-08-18T17:06:48.584536",
      "2022-08-18T17:06:49.851423",
      "2022-08-18T17:06:51.117004",
      "2022-08-18T17:06:52.384291",
      "2022-08-18T17:06:53.673363",
      "2022-08-18T17:06:54.940985",
      "2022-08-18T17:06:56.216174",
      "2022-08-18T17:06:57.483579",
      "2022-08-18T17:06:58.779409",
      "2022-08-18T17:07:00.047202",
      "2022-08-18T17:07:01.311093",
      "2022-08-18T17:07:02.582775",
      "2022-08-18T17:07:03.883691",
      "2022-08-18T17:07:05.153632",
      "2022-08-18T17:07:06.422411",
      "2022-08-18T17:07:07.691459",
      "2022-08-18T17:07:08.972576",
      "2022-08-18T17:07:10.256539",
      "2022-08-18T17:07:11.529413",
      "2022-08-18T17:07:12.800518",
      "2022-08-18T17:07:14.070642",
      "2022-08-18T17:07:15.364354",
      "2022-08-18T17:07:16.637360",
      "2022-08-18T17:07:17.902460",
      "2022-08-18T17:07:19.168366",
      "2022-08-18T17:07:20.435001",
      "2022-08-18T17:07:21.762034",
      "2022-08-18T17:07:23.049402",
      "2022-08-18T17:07:24.317782",
      "2022-08-18T17:07:25.589672",
      "2022-08-18T17:07:26.856234",
      "2022-08-18T17:07:28.138891",
      "2022-08-18T17:07:29.406496",
      "2022-08-18T17:07:30.671712",
      "2022-08-18T17:07:31.938980",
      "2022-08-18T17:07:33.220726",
      "2022-08-18T17:07:34.509822",
      "2022-08-18T17:07:35.778454",
      "2022-08-18T17:07:37.044622",
      "2022-08-18T17:07:38.326019",
      "2022-08-18T17:07:39.615820",
      "2022-08-18T17:07:40.882733",
      "2022-08-18T17:07:42.148541",
      "2022-08-18T17:07:43.429556",
      "2022-08-18T17:07:44.710722",
      "2022-08-18T17:07:45.978951",
      "2022-08-18T17:07:47.257503",
      "2022-08-18T17:07:48.546366",
      "2022-08-18T17:07:49.828668",
      "2022-08-18T17:07:51.095447",
      "2022-08-18T17:07:52.366069",
      "2022-08-18T17:07:53.644195",
      "2022-08-18T17:07:54.927343",
      "2022-08-18T17:07:56.195319",
      "2022-08-18T17:07:57.464087",
      "2022-08-18T17:07:58.735163",
      "2022-08-18T17:08:00.020254",
      "2022-08-18T17:08:01.303393",
      "2022-08-18T17:08:02.577981",
      "2022-08-18T17:08:03.848216",
      "2022-08-18T17:08:05.116828",
      "2022-08-18T17:08:06.405069",
      "2022-08-18T17:08:07.684853",
      "2022-08-18T17:08:08.957001",
      "2022-08-18T17:08:10.228042",
      "2022-08-18T17:08:11.495413",
      "2022-08-18T17:08:12.776020",
      "2022-08-18T17:08:14.068969",
      "2022-08-18T17:08:15.335489",
      "2022-08-18T17:08:16.599104",
      "2022-08-18T17:08:17.865009",
      "2022-08-18T17:08:19.132765",
      "2022-08-18T17:08:20.408349",
      "2022-08-18T17:08:21.687986",
      "2022-08-18T17:08:22.965818",
      "2022-08-18T17:08:24.256810",
      "2022-08-18T17:08:25.544476",
      "2022-08-18T17:08:26.810740",
      "2022-08-18T17:08:28.077977",
      "2022-08-18T17:08:29.371908",
      "2022-08-18T17:08:30.639297",
      "2022-08-18T17:08:31.904783",
      "2022-08-18T17:08:33.173956",
      "2022-08-18T17:08:34.460526",
      "2022-08-18T17:08:35.726156",
      "2022-08-18T17:08:36.992387",
      "2022-08-18T17:08:38.269273",
      "2022-08-18T17:08:39.557989",
      "2022-08-18T17:08:40.827660",
      "2022-08-18T17:08:42.097686",
      "2022-08-18T17:08:43.367184",
      "2022-08-18T17:08:44.678300",
      "2022-08-18T17:08:45.946453",
      "2022-08-18T17:08:47.213379",
      "2022-08-18T17:08:48.478166",
      "2022-08-18T17:08:49.746827",
      "2022-08-18T17:08:51.026957",
      "2022-08-18T17:08:52.326239",
      "2022-08-18T17:08:53.594053",
      "2022-08-18T17:08:54.865346",
      "2022-08-18T17:08:56.134865",
      "2022-08-18T17:08:57.420214",
      "2022-08-18T17:08:58.690559",
      "2022-08-18T17:08:59.960727",
      "2022-08-18T17:09:01.229499",
      "2022-08-18T17:09:02.503695",
      "2022-08-18T17:09:03.786207",
      "2022-08-18T17:09:05.080848",
      "2022-08-18T17:09:06.346739",
      "2022-08-18T17:09:07.613023",
      "2022-08-18T17:09:08.881134",
      "2022-08-18T17:09:10.160334",
      "2022-08-18T17:09:11.428788",
      "2022-08-18T17:09:12.713442",
      "2022-08-18T17:09:14.013343",
      "2022-08-18T17:09:15.279897",
      "2022-08-18T17:09:16.566334",
      "2022-08-18T17:09:17.834323",
      "2022-08-18T17:09:19.151264",
      "2022-08-18T17:09:20.420416",
      "2022-08-18T17:09:21.688207",
      "2022-08-18T17:09:22.961832",
      "2022-08-18T17:09:24.275630",
      "2022-08-18T17:09:25.542314",
      "2022-08-18T17:09:26.826035",
      "2022-08-18T17:09:28.100256",
      "2022-08-18T17:09:29.393247",
      "2022-08-18T17:09:30.681888",
      "2022-08-18T17:09:31.950659",
      "2022-08-18T17:09:33.220489",
      "2022-08-18T17:09:34.505358",
      "2022-08-18T17:09:35.794511",
      "2022-08-18T17:09:37.062764",
      "2022-08-18T17:09:38.338848",
      "2022-08-18T17:09:39.613533",
      "2022-08-18T17:09:40.880783",
      "2022-08-18T17:09:42.161166",
      "2022-08-18T17:09:43.459614",
      "2022-08-18T17:09:44.737479",
      "2022-08-18T17:09:46.003606",
      "2022-08-18T17:09:47.270866",
      "2022-08-18T17:09:48.537382",
      "2022-08-18T17:09:49.822612",
      "2022-08-18T17:09:51.106286",
      "2022-08-18T17:09:52.380871",
      "2022-08-18T17:09:53.677130",
      "2022-08-18T17:09:54.957945",
      "2022-08-18T17:09:56.227540",
      "2022-08-18T17:09:57.496647",
      "2022-08-18T17:09:58.806969",
      "2022-08-18T17:10:00.085995",
      "2022-08-18T17:10:01.353429",
      "2022-08-18T17:10:02.621111",
      "2022-08-18T17:10:03.908923",
      "2022-08-18T17:10:05.177621",
      "2022-08-18T17:10:06.445698",
      "2022-08-18T17:10:07.723387",
      "2022-08-18T17:10:09.028124",
      "2022-08-18T17:10:10.298213",
      "2022-08-18T17:10:11.564180",
      "2022-08-18T17:10:12.851575",
      "2022-08-18T17:10:14.151540",
      "2022-08-18T17:10:15.420231",
      "2022-08-18T17:10:16.686089",
      "2022-08-18T17:10:17.952929",
      "2022-08-18T17:10:19.221288"
    ],
    "values": [
      4.633088,
      4.63616,
      4.63616,
      4.63616,
      4.63616,
      4.63616,
      4.63616,
      4.63616,
      4.63616,
      4.63616,
      4.63616,
      4.63616,
      4.63616,
      4.63616,
      4.63616,
      4.63616,
      4.63616,
      4.63616,
      4.63616,
      4.63616,
      4.63616,
      4.63616,
      4.63616,
      4.63616,
      4.63616,
      4.63616,
      4.63616,
      4.63616,
      4.63616,
      4.63616,
      4.63616,
      4.63616,
      4.63616,
      4.63616,
      4.63616,
      4.63616,
      4.63616,
      4.63616,
      4.63616,
      4.63616,
      4.63616,
      4.63616,
      4.63616,
      4.63616,
      4.63616,
      4.63616,
      4.63616,
      4.63616,
      4.63616,
      4.63616,
      4.63616,
      4.63616,
      4.63616,
      4.63616,
      4.63616,
      4.63616,
      4.63616,
      4.63616,
      4.63616,
      4.63616,
      4.63616,
      4.63616,
      4.63616,
      4.63616,
      4.63616,
      4.63616,
      4.63616,
      4.63616,
      4.63616,
      4.63616,
      4.63616,
      4.63616,
      4.63616,
      4.63616,
      4.63616,
      4.63616,
      4.63616,
      4.63616,
      4.63616,
      4.63616,
      4.63616,
      4.63616,
      4.63616,
      4.63616,
      4.63616,
      4.63616,
      4.63616,
      4.63616,
      4.63616,
      4.63616,
      4.63616,
      4.63616,
      4.63616,
      4.63616,
      4.63616,
      4.63616,
      4.63616,
      4.63616,
      4.63616,
      4.63616,
      4.63616,
      4.63616,
      4.63616,
      4.63616,
      4.63616,
      4.63616,
      4.63616,
      4.63616,
      4.63616,
      4.63616,
      4.63616,
      4.63616,
      4.63616,
      4.63616,
      4.63616,
      4.63616,
      4.63616,
      4.63616,
      4.63616,
      4.63616,
      4.63616,
      4.63616,
      4.63616,
      4.63616,
      4.63616,
      4.63616,
      4.63616,
      4.63616,
      4.63616,
      4.63616,
      4.63616,
      4.63616,
      4.63616,
      4.63616,
      4.63616,
      4.63616,
      4.63616,
      4.63616,
      4.63616,
      4.63616,
      4.63616,
      4.63616,
      4.63616,
      4.63616,
      4.63616,
      4.63616,
      4.63616,
      4.63616,
      4.63616,
      4.63616,
      4.63616,
      4.63616,
      4.63616,
      4.63616,
      4.63616,
      4.63616,
      4.63616,
      4.63616,
      4.63616,
      4.63616,
      4.63616,
      4.63616,
      4.63616,
      4.63616,
      4.63616,
      4.63616,
      4.63616,
      4.63616,
      4.63616,
      4.63616,
      4.63616,
      4.63616,
      4.63616,
      4.63616,
      4.63616,
      4.63616,
      4.63616,
      4.63616,
      4.63616,
      4.63616,
      4.63616,
      4.63616,
      4.63616,
      4.63616,
      4.63616,
      4.63616,
      4.63616,
      4.63616,
      4.63616,
      4.63616,
      4.63616,
      4.63616,
      4.63616,
      4.63616,
      4.63616,
      4.63616,
      4.63616,
      4.63616,
      4.63616,
      4.63616
    ]
  },
  "train": {
    "steps": [
      0,
      1,
      2,
      3,
      4,
      5,
      6,
      7,
      8,
      9,
      10,
      11,
      12,
      13,
      14,
      15,
      16,
      17,
      18,
      19,
      20,
      21,
      22,
      23,
      24,
      25,
      26,
      27,
      28,
      29,
      30,
      31,
      32,
      33,
      34,
      35,
      36,
      37,
      38,
      39,
      40,
      41,
      42,
      43,
      44,
      45,
      46,
      47,
      48,
      49,
      50,
      51,
      52,
      53,
      54,
      55,
      56,
      57,
      58,
      59,
      60,
      61,
      62,
      63,
      64,
      65,
      66,
      67,
      68,
      69,
      70,
      71,
      72,
      73,
      74,
      75,
      76,
      77,
      78,
      79,
      80,
      81,
      82,
      83,
      84,
      85,
      86,
      87,
      88,
      89,
      90,
      91,
      92,
      93,
      94,
      95,
      96,
      97,
      98,
      99,
      100,
      101,
      102,
      103,
      104,
      105,
      106,
      107,
      108,
      109,
      110,
      111,
      112,
      113,
      114,
      115,
      116,
      117,
      118,
      119,
      120,
      121,
      122,
      123,
      124,
      125,
      126,
      127,
      128,
      129,
      130,
      131,
      132,
      133,
      134,
      135,
      136,
      137,
      138,
      139,
      140,
      141,
      142,
      143,
      144,
      145,
      146,
      147,
      148,
      149,
      150,
      151,
      152,
      153,
      154,
      155,
      156,
      157,
      158,
      159,
      160,
      161,
      162,
      163,
      164,
      165,
      166,
      167,
      168,
      169,
      170,
      171,
      172,
      173,
      174,
      175,
      176,
      177,
      178,
      179,
      180,
      181,
      182,
      183,
      184,
      185,
      186,
      187,
      188,
      189,
      190,
      191,
      192,
      193,
      194,
      195,
      196,
      197,
      198,
      199
    ],
    "timestamps": [
      "2022-08-18T17:06:05.298487",
      "2022-08-18T17:06:06.564366",
      "2022-08-18T17:06:07.830984",
      "2022-08-18T17:06:09.098959",
      "2022-08-18T17:06:10.371600",
      "2022-08-18T17:06:11.635267",
      "2022-08-18T17:06:12.916175",
      "2022-08-18T17:06:14.221471",
      "2022-08-18T17:06:15.498620",
      "2022-08-18T17:06:16.765745",
      "2022-08-18T17:06:18.042489",
      "2022-08-18T17:06:19.339265",
      "2022-08-18T17:06:20.604232",
      "2022-08-18T17:06:21.869105",
      "2022-08-18T17:06:23.136730",
      "2022-08-18T17:06:24.421483",
      "2022-08-18T17:06:25.687203",
      "2022-08-18T17:06:26.952039",
      "2022-08-18T17:06:28.217721",
      "2022-08-18T17:06:29.484056",
      "2022-08-18T17:06:30.763374",
      "2022-08-18T17:06:32.063903",
      "2022-08-18T17:06:33.329982",
      "2022-08-18T17:06:34.599388",
      "2022-08-18T17:06:35.866277",
      "2022-08-18T17:06:37.151122",
      "2022-08-18T17:06:38.418738",
      "2022-08-18T17:06:39.687611",
      "2022-08-18T17:06:40.955066",
      "2022-08-18T17:06:42.224880",
      "2022-08-18T17:06:43.501554",
      "2022-08-18T17:06:44.788971",
      "2022-08-18T17:06:46.053269",
      "2022-08-18T17:06:47.318796",
      "2022-08-18T17:06:48.584420",
      "2022-08-18T17:06:49.851304",
      "2022-08-18T17:06:51.116888",
      "2022-08-18T17:06:52.384174",
      "2022-08-18T17:06:53.673241",
      "2022-08-18T17:06:54.940869",
      "2022-08-18T17:06:56.216054",
      "2022-08-18T17:06:57.483461",
      "2022-08-18T17:06:58.779289",
      "2022-08-18T17:07:00.047084",
      "2022-08-18T17:07:01.310975",
      "2022-08-18T17:07:02.582664",
      "2022-08-18T17:07:03.883565",
      "2022-08-18T17:07:05.153510",
      "2022-08-18T17:07:06.422293",
      "2022-08-18T17:07:07.691345",
      "2022-08-18T17:07:08.972390",
      "2022-08-18T17:07:10.256423",
      "2022-08-18T17:07:11.529296",
      "2022-08-18T17:07:12.800401",
      "2022-08-18T17:07:14.070512",
      "2022-08-18T17:07:15.364237",
      "2022-08-18T17:07:16.637245",
      "2022-08-18T17:07:17.902346",
      "2022-08-18T17:07:19.168247",
      "2022-08-18T17:07:20.434885",
      "2022-08-18T17:07:21.761901",
      "2022-08-18T17:07:23.049288",
      "2022-08-18T17:07:24.317665",
      "2022-08-18T17:07:25.589552",
      "2022-08-18T17:07:26.856118",
      "2022-08-18T17:07:28.138776",
      "2022-08-18T17:07:29.406379",
      "2022-08-18T17:07:30.671598",
      "2022-08-18T17:07:31.938865",
      "2022-08-18T17:07:33.220607",
      "2022-08-18T17:07:34.509704",
      "2022-08-18T17:07:35.778336",
      "2022-08-18T17:07:37.044508",
      "2022-08-18T17:07:38.325898",
      "2022-08-18T17:07:39.615705",
      "2022-08-18T17:07:40.882617",
      "2022-08-18T17:07:42.148427",
      "2022-08-18T17:07:43.429433",
      "2022-08-18T17:07:44.710603",
      "2022-08-18T17:07:45.978834",
      "2022-08-18T17:07:47.257383",
      "2022-08-18T17:07:48.546238",
      "2022-08-18T17:07:49.828551",
      "2022-08-18T17:07:51.095331",
      "2022-08-18T17:07:52.365954",
      "2022-08-18T17:07:53.644076",
      "2022-08-18T17:07:54.927228",
      "2022-08-18T17:07:56.195203",
      "2022-08-18T17:07:57.463971",
      "2022-08-18T17:07:58.735049",
      "2022-08-18T17:08:00.020077",
      "2022-08-18T17:08:01.303272",
      "2022-08-18T17:08:02.577862",
      "2022-08-18T17:08:03.848097",
      "2022-08-18T17:08:05.116696",
      "2022-08-18T17:08:06.404954",
      "2022-08-18T17:08:07.684736",
      "2022-08-18T17:08:08.956879",
      "2022-08-18T17:08:10.227923",
      "2022-08-18T17:08:11.495295",
      "2022-08-18T17:08:12.775901",
      "2022-08-18T17:08:14.068853",
      "2022-08-18T17:08:15.335374",
      "2022-08-18T17:08:16.598985",
      "2022-08-18T17:08:17.864892",
      "2022-08-18T17:08:19.132645",
      "2022-08-18T17:08:20.408231",
      "2022-08-18T17:08:21.687871",
      "2022-08-18T17:08:22.965703",
      "2022-08-18T17:08:24.256694",
      "2022-08-18T17:08:25.544356",
      "2022-08-18T17:08:26.810621",
      "2022-08-18T17:08:28.077861",
      "2022-08-18T17:08:29.371789",
      "2022-08-18T17:08:30.639180",
      "2022-08-18T17:08:31.904663",
      "2022-08-18T17:08:33.173841",
      "2022-08-18T17:08:34.460409",
      "2022-08-18T17:08:35.726041",
      "2022-08-18T17:08:36.992269",
      "2022-08-18T17:08:38.269156",
      "2022-08-18T17:08:39.557870",
      "2022-08-18T17:08:40.827545",
      "2022-08-18T17:08:42.097570",
      "2022-08-18T17:08:43.367069",
      "2022-08-18T17:08:44.678184",
      "2022-08-18T17:08:45.946339",
      "2022-08-18T17:08:47.213266",
      "2022-08-18T17:08:48.478052",
      "2022-08-18T17:08:49.746707",
      "2022-08-18T17:08:51.026769",
      "2022-08-18T17:08:52.326121",
      "2022-08-18T17:08:53.593931",
      "2022-08-18T17:08:54.865222",
      "2022-08-18T17:08:56.134678",
      "2022-08-18T17:08:57.420093",
      "2022-08-18T17:08:58.690442",
      "2022-08-18T17:08:59.960608",
      "2022-08-18T17:09:01.229377",
      "2022-08-18T17:09:02.503576",
      "2022-08-18T17:09:03.786024",
      "2022-08-18T17:09:05.080732",
      "2022-08-18T17:09:06.346622",
      "2022-08-18T17:09:07.612909",
      "2022-08-18T17:09:08.881012",
      "2022-08-18T17:09:10.160217",
      "2022-08-18T17:09:11.428671",
      "2022-08-18T17:09:12.713323",
      "2022-08-18T17:09:14.013227",
      "2022-08-18T17:09:15.279781",
      "2022-08-18T17:09:16.566216",
      "2022-08-18T17:09:17.834205",
      "2022-08-18T17:09:19.151141",
      "2022-08-18T17:09:20.420295",
      "2022-08-18T17:09:21.688087",
      "2022-08-18T17:09:22.961713",
      "2022-08-18T17:09:24.275509",
      "2022-08-18T17:09:25.542195",
      "2022-08-18T17:09:26.825804",
      "2022-08-18T17:09:28.100137",
      "2022-08-18T17:09:29.393112",
      "2022-08-18T17:09:30.681773",
      "2022-08-18T17:09:31.950542",
      "2022-08-18T17:09:33.220370",
      "2022-08-18T17:09:34.505229",
      "2022-08-18T17:09:35.794392",
      "2022-08-18T17:09:37.062649",
      "2022-08-18T17:09:38.338733",
      "2022-08-18T17:09:39.613418",
      "2022-08-18T17:09:40.880666",
      "2022-08-18T17:09:42.161051",
      "2022-08-18T17:09:43.459494",
      "2022-08-18T17:09:44.737361",
      "2022-08-18T17:09:46.003488",
      "2022-08-18T17:09:47.270748",
      "2022-08-18T17:09:48.537264",
      "2022-08-18T17:09:49.822492",
      "2022-08-18T17:09:51.106168",
      "2022-08-18T17:09:52.380752",
      "2022-08-18T17:09:53.677010",
      "2022-08-18T17:09:54.957827",
      "2022-08-18T17:09:56.227420",
      "2022-08-18T17:09:57.496531",
      "2022-08-18T17:09:58.806850",
      "2022-08-18T17:10:00.085879",
      "2022-08-18T17:10:01.353310",
      "2022-08-18T17:10:02.620992",
      "2022-08-18T17:10:03.908805",
      "2022-08-18T17:10:05.177499",
      "2022-08-18T17:10:06.445577",
      "2022-08-18T17:10:07.723270",
      "2022-08-18T17:10:09.027982",
      "2022-08-18T17:10:10.298094",
      "2022-08-18T17:10:11.564063",
      "2022-08-18T17:10:12.851458",
      "2022-08-18T17:10:14.151401",
      "2022-08-18T17:10:15.420114",
      "2022-08-18T17:10:16.685971",
      "2022-08-18T17:10:17.952808",
      "2022-08-18T17:10:19.221170"
    ],
    "values": [
      5.2006141948699955,
      3.2205035710334777,
      2.9767698788642885,
      2.8391785502433775,
      2.784355721473694,
      2.710591835975647,
      2.7076269602775573,
      2.622484586238861,
      2.6806743001937865,
      2.688404335975647,
      2.617692551612854,
      2.635568075180054,
      2.6697126126289366,
      2.614242160320282,
      2.7575589203834534,
      2.5866798639297484,
      2.6401962304115294,
      2.6258599877357485,
      2.595253658294678,
      2.575343520641327,
      2.5790070366859434,
      2.579812903404236,
      2.55904091835022,
      2.5547514081001284,
      2.613315804004669,
      2.542442216873169,
      2.5803125858306886,
      2.5421499824523925,
      2.5367209243774416,
      2.5158152961730957,
      2.5099774837493896,
      2.574361457824707,
      2.5774323201179503,
      2.5713928747177124,
      2.574552879333496,
      2.5565648889541626,
      2.5229550445079805,
      2.558715009689331,
      2.548363468647003,
      2.5443780827522278,
      2.5609355640411375,
      2.55119259595871,
      2.5187863183021544,
      2.522004237174988,
      2.4927308416366576,
      2.496650552749634,
      2.5145770049095155,
      2.567055571079254,
      2.562924406528473,
      2.52296361207962,
      2.532399243116379,
      2.50506876707077,
      2.5338289737701416,
      2.4850444626808166,
      2.4917442297935484,
      2.52679328918457,
      2.528548471927643,
      2.4743015813827514,
      2.491706898212433,
      2.478162176609039,
      2.484621787071228,
      2.5197311878204345,
      2.499493772983551,
      2.4988899993896485,
      2.5258913111686705,
      2.479104073047638,
      2.4999243593215943,
      2.531448233127594,
      2.5139291954040526,
      2.485619559288025,
      2.4830651259422303,
      2.4940230441093445,
      2.4895783829689027,
      2.4608243322372436,
      2.503275876045227,
      2.5001513743400574,
      2.5187670612335205,
      2.4634704422950744,
      2.493243947029114,
      2.491437408924103,
      2.4630619883537292,
      2.4717400574684145,
      2.4717972683906555,
      2.447556712627411,
      2.450520513057709,
      2.49689608335495,
      2.516306309700012,
      2.494571249485016,
      2.499299132823944,
      2.5057029247283937,
      2.4752513909339906,
      2.4847231984138487,
      2.5017586016654967,
      2.4826908659935,
      2.4593095278739927,
      2.4729780340194703,
      2.465434019565582,
      2.4581537461280822,
      2.4712133193016053,
      2.491190507411957,
      2.46627432346344,
      2.444587869644165,
      2.440672745704651,
      2.46842798948288,
      2.486657428741455,
      2.4834843635559083,
      2.5067474961280825,
      2.523174513578415,
      2.471361031532288,
      2.52025093793869,
      2.5189437818527223,
      2.5277807331085205,
      2.464954571723938,
      2.497593891620636,
      2.443564616441727,
      2.5387061738967898,
      2.4329437446594238,
      2.4798024916648864,
      2.5121600461006164,
      2.5399275183677674,
      2.4987888252735138,
      2.4868126463890077,
      2.5354589581489564,
      2.548030536174774,
      2.467160050868988,
      2.47759060382843,
      2.475222487449646,
      2.4729158544540404,
      2.47407870054245,
      2.494124369621277,
      2.416868290901184,
      2.4496579360961914,
      2.4878380870819092,
      2.5106730556488035,
      2.4587725615501403,
      2.4791995787620547,
      2.502384729385376,
      2.493363401889801,
      2.4998858618736266,
      2.4704329419136046,
      2.521304771900177,
      2.4401125848293304,
      2.4859106087684633,
      2.4701376962661743,
      2.4614369797706606,
      2.4627272486686707,
      2.4569232082366943,
      2.442747719287872,
      2.508341360092163,
      2.4715874075889586,
      2.470191626548767,
      2.4626094818115236,
      2.3755045807361603,
      2.3450104856491087,
      2.3686734652519226,
      2.3472000777721407,
      2.320803737640381,
      2.3576036429405214,
      2.366539795398712,
      2.3443024873733522,
      2.3374420619010925,
      2.339638661146164,
      2.3202172350883483,
      2.341065629720688,
      2.345101544857025,
      2.3565780782699584,
      2.333117117881775,
      2.348842314481735,
      2.3445569038391114,
      2.343381414413452,
      2.3609346532821656,
      2.353484432697296,
      2.3171304416656495,
      2.322391753196716,
      2.342991178035736,
      2.3432561111450196,
      2.327734705209732,
      2.3245675909519194,
      2.349144926071167,
      2.327267669439316,
      2.338609046936035,
      2.3517964363098143,
      2.348010939359665,
      2.343957942724228,
      2.3516284894943236,
      2.328899028301239,
      2.3476541519165037,
      2.3262483716011046,
      2.335410525798798,
      2.347307634353638,
      2.3467664694786072,
      2.3335906624794007,
      2.348011634349823,
      2.323862147331238,
      2.320875940322876,
      2.327871844768524,
      2.3343024492263793,
      2.323161208629608,
      2.329148290157318,
      2.2959887313842775
    ]
  },
  "val": {
    "steps": [
      0,
      1,
      2,
      3,
      4,
      5,
      6,
      7,
      8,
      9,
      10,
      11,
      12,
      13,
      14,
      15,
      16,
      17,
      18,
      19,
      20,
      21,
      22,
      23,
      24,
      25,
      26,
      27,
      28,
      29,
      30,
      31,
      32,
      33,
      34,
      35,
      36,
      37,
      38,
      39,
      40,
      41,
      42,
      43,
      44,
      45,
      46,
      47,
      48,
      49,
      50,
      51,
      52,
      53,
      54,
      55,
      56,
      57,
      58,
      59,
      60,
      61,
      62,
      63,
      64,
      65,
      66,
      67,
      68,
      69,
      70,
      71,
      72,
      73,
      74,
      75,
      76,
      77,
      78,
      79,
      80,
      81,
      82,
      83,
      84,
      85,
      86,
      87,
      88,
      89,
      90,
      91,
      92,
      93,
      94,
      95,
      96,
      97,
      98,
      99,
      100,
      101,
      102,
      103,
      104,
      105,
      106,
      107,
      108,
      109,
      110,
      111,
      112,
      113,
      114,
      115,
      116,
      117,
      118,
      119,
      120,
      121,
      122,
      123,
      124,
      125,
      126,
      127,
      128,
      129,
      130,
      131,
      132,
      133,
      134,
      135,
      136,
      137,
      138,
      139,
      140,
      141,
      142,
      143,
      144,
      145,
      146,
      147,
      148,
      149,
      150,
      151,
      152,
      153,
      154,
      155,
      156,
      157,
      158,
      159,
      160,
      161,
      162,
      163,
      164,
      165,
      166,
      167,
      168,
      169,
      170,
      171,
      172,
      173,
      174,
      175,
      176,
      177,
      178,
      179,
      180,
      181,
      182,
      183,
      184,
      185,
      186,
      187,
      188,
      189,
      190,
      191,
      192,
      193,
      194,
      195,
      196,
      197,
      198,
      199
    ],
    "timestamps": [
      "2022-08-18T17:06:05.506122",
      "2022-08-18T17:06:06.772710",
      "2022-08-18T17:06:08.038408",
      "2022-08-18T17:06:09.306080",
      "2022-08-18T17:06:10.577963",
      "2022-08-18T17:06:11.841735",
      "2022-08-18T17:06:13.134642",
      "2022-08-18T17:06:14.429890",
      "2022-08-18T17:06:15.706970",
      "2022-08-18T17:06:16.973295",
      "2022-08-18T17:06:18.255120",
      "2022-08-18T17:06:19.546065",
      "2022-08-18T17:06:20.811355",
      "2022-08-18T17:06:22.078282",
      "2022-08-18T17:06:23.347682",
      "2022-08-18T17:06:24.628541",
      "2022-08-18T17:06:25.894198",
      "2022-08-18T17:06:27.158998",
      "2022-08-18T17:06:28.424798",
      "2022-08-18T17:06:29.690874",
      "2022-08-18T17:06:30.977430",
      "2022-08-18T17:06:32.271259",
      "2022-08-18T17:06:33.538647",
      "2022-08-18T17:06:34.807012",
      "2022-08-18T17:06:36.080963",
      "2022-08-18T17:06:37.358605",
      "2022-08-18T17:06:38.626223",
      "2022-08-18T17:06:39.895684",
      "2022-08-18T17:06:41.162789",
      "2022-08-18T17:06:42.431943",
      "2022-08-18T17:06:43.715294",
      "2022-08-18T17:06:44.995731",
      "2022-08-18T17:06:46.260702",
      "2022-08-18T17:06:47.525730",
      "2022-08-18T17:06:48.791980",
      "2022-08-18T17:06:50.058575",
      "2022-08-18T17:06:51.323621",
      "2022-08-18T17:06:52.590925",
      "2022-08-18T17:06:53.881584",
      "2022-08-18T17:06:55.147420",
      "2022-08-18T17:06:56.423000",
      "2022-08-18T17:06:57.690428",
      "2022-08-18T17:06:58.987047",
      "2022-08-18T17:07:00.254099",
      "2022-08-18T17:07:01.518317",
      "2022-08-18T17:07:02.789443",
      "2022-08-18T17:07:04.091349",
      "2022-08-18T17:07:05.361438",
      "2022-08-18T17:07:06.630381",
      "2022-08-18T17:07:07.899540",
      "2022-08-18T17:07:09.185125",
      "2022-08-18T17:07:10.463516",
      "2022-08-18T17:07:11.736093",
      "2022-08-18T17:07:13.007504",
      "2022-08-18T17:07:14.285159",
      "2022-08-18T17:07:15.571988",
      "2022-08-18T17:07:16.843939",
      "2022-08-18T17:07:18.109182",
      "2022-08-18T17:07:19.375042",
      "2022-08-18T17:07:20.641880",
      "2022-08-18T17:07:21.976063",
      "2022-08-18T17:07:23.256657",
      "2022-08-18T17:07:24.525020",
      "2022-08-18T17:07:25.796906",
      "2022-08-18T17:07:27.070388",
      "2022-08-18T17:07:28.346014",
      "2022-08-18T17:07:29.612885",
      "2022-08-18T17:07:30.878374",
      "2022-08-18T17:07:32.148645",
      "2022-08-18T17:07:33.432760",
      "2022-08-18T17:07:34.718363",
      "2022-08-18T17:07:35.985864",
      "2022-08-18T17:07:37.251449",
      "2022-08-18T17:07:38.548511",
      "2022-08-18T17:07:39.823329",
      "2022-08-18T17:07:41.089415",
      "2022-08-18T17:07:42.355571",
      "2022-08-18T17:07:43.643211",
      "2022-08-18T17:07:44.919288",
      "2022-08-18T17:07:46.186966",
      "2022-08-18T17:07:47.464908",
      "2022-08-18T17:07:48.760873",
      "2022-08-18T17:07:50.035965",
      "2022-08-18T17:07:51.303268",
      "2022-08-18T17:07:52.573334",
      "2022-08-18T17:07:53.857525",
      "2022-08-18T17:07:55.134632",
      "2022-08-18T17:07:56.403511",
      "2022-08-18T17:07:57.672046",
      "2022-08-18T17:07:58.943567",
      "2022-08-18T17:08:00.233121",
      "2022-08-18T17:08:01.510246",
      "2022-08-18T17:08:02.785595",
      "2022-08-18T17:08:04.055789",
      "2022-08-18T17:08:05.331766",
      "2022-08-18T17:08:06.613060",
      "2022-08-18T17:08:07.892866",
      "2022-08-18T17:08:09.164406",
      "2022-08-18T17:08:10.435577",
      "2022-08-18T17:08:11.702460",
      "2022-08-18T17:08:12.982856",
      "2022-08-18T17:08:14.275985",
      "2022-08-18T17:08:15.541487",
      "2022-08-18T17:08:16.806212",
      "2022-08-18T17:08:18.072064",
      "2022-08-18T17:08:19.339860",
      "2022-08-18T17:08:20.621937",
      "2022-08-18T17:08:21.895512",
      "2022-08-18T17:08:23.177859",
      "2022-08-18T17:08:24.464004",
      "2022-08-18T17:08:25.751784",
      "2022-08-18T17:08:27.018125",
      "2022-08-18T17:08:28.291204",
      "2022-08-18T17:08:29.578604",
      "2022-08-18T17:08:30.845651",
      "2022-08-18T17:08:32.114601",
      "2022-08-18T17:08:33.386194",
      "2022-08-18T17:08:34.667220",
      "2022-08-18T17:08:35.933054",
      "2022-08-18T17:08:37.199149",
      "2022-08-18T17:08:38.480346",
      "2022-08-18T17:08:39.766083",
      "2022-08-18T17:08:41.034684",
      "2022-08-18T17:08:42.305799",
      "2022-08-18T17:08:43.579230",
      "2022-08-18T17:08:44.885663",
      "2022-08-18T17:08:46.153277",
      "2022-08-18T17:08:47.419832",
      "2022-08-18T17:08:48.685013",
      "2022-08-18T17:08:49.953756",
      "2022-08-18T17:08:51.240931",
      "2022-08-18T17:08:52.534062",
      "2022-08-18T17:08:53.803586",
      "2022-08-18T17:08:55.072945",
      "2022-08-18T17:08:56.348814",
      "2022-08-18T17:08:57.628166",
      "2022-08-18T17:08:58.899302",
      "2022-08-18T17:09:00.169019",
      "2022-08-18T17:09:01.436742",
      "2022-08-18T17:09:02.711649",
      "2022-08-18T17:09:03.999905",
      "2022-08-18T17:09:05.287502",
      "2022-08-18T17:09:06.553888",
      "2022-08-18T17:09:07.819701",
      "2022-08-18T17:09:09.088612",
      "2022-08-18T17:09:10.368286",
      "2022-08-18T17:09:11.636368",
      "2022-08-18T17:09:12.920976",
      "2022-08-18T17:09:14.220045",
      "2022-08-18T17:09:15.486555",
      "2022-08-18T17:09:16.773005",
      "2022-08-18T17:09:18.041497",
      "2022-08-18T17:09:19.358852",
      "2022-08-18T17:09:20.628369",
      "2022-08-18T17:09:21.896254",
      "2022-08-18T17:09:23.168606",
      "2022-08-18T17:09:24.483010",
      "2022-08-18T17:09:25.748628",
      "2022-08-18T17:09:27.035038",
      "2022-08-18T17:09:28.307059",
      "2022-08-18T17:09:29.605443",
      "2022-08-18T17:09:30.888810",
      "2022-08-18T17:09:32.162048",
      "2022-08-18T17:09:33.427821",
      "2022-08-18T17:09:34.716301",
      "2022-08-18T17:09:36.002976",
      "2022-08-18T17:09:37.270745",
      "2022-08-18T17:09:38.548774",
      "2022-08-18T17:09:39.820643",
      "2022-08-18T17:09:41.088674",
      "2022-08-18T17:09:42.367716",
      "2022-08-18T17:09:43.668844",
      "2022-08-18T17:09:44.944484",
      "2022-08-18T17:09:46.210967",
      "2022-08-18T17:09:47.477849",
      "2022-08-18T17:09:48.744629",
      "2022-08-18T17:09:50.029586",
      "2022-08-18T17:09:51.313385",
      "2022-08-18T17:09:52.588418",
      "2022-08-18T17:09:53.886536",
      "2022-08-18T17:09:55.164628",
      "2022-08-18T17:09:56.435441",
      "2022-08-18T17:09:57.703898",
      "2022-08-18T17:09:59.016941",
      "2022-08-18T17:10:00.293894",
      "2022-08-18T17:10:01.560077",
      "2022-08-18T17:10:02.828105",
      "2022-08-18T17:10:04.116714",
      "2022-08-18T17:10:05.384910",
      "2022-08-18T17:10:06.653322",
      "2022-08-18T17:10:07.930709",
      "2022-08-18T17:10:09.237169",
      "2022-08-18T17:10:10.504496",
      "2022-08-18T17:10:11.771162",
      "2022-08-18T17:10:13.059492",
      "2022-08-18T17:10:14.361529",
      "2022-08-18T17:10:15.627057",
      "2022-08-18T17:10:16.893657",
      "2022-08-18T17:10:18.160228",
      "2022-08-18T17:10:19.428437"
    ],
    "values": [
      3.2441839027404784,
      3.1806681060791018,
      2.958362283706665,
      2.738514280319214,
      2.775115656852722,
      2.8224989366531372,
      2.766754117012024,
      2.6234711742401124,
      2.64902410030365,
      2.5945454168319704,
      2.8106854581832885,
      2.674916605949402,
      2.6395786571502686,
      2.6650826072692873,
      2.633414306640625,
      2.6496733713150022,
      2.66066219329834,
      2.552188401222229,
      2.5435783529281615,
      2.6328823947906494,
      2.6284746646881105,
      2.546470980644226,
      2.512844567298889,
      2.543054099082947,
      2.547062830924988,
      2.6041348123550416,
      2.6066266012191774,
      2.4798150396347047,
      2.581688346862793,
      2.5282959079742433,
      2.5659494972229004,
      2.566846375465393,
      2.5573487377166746,
      2.568436789512634,
      2.552439045906067,
      2.538809070587158,
      2.505506925582886,
      2.509761986732483,
      2.606281476020813,
      2.512066516876221,
      2.5690283250808714,
      2.480643491744995,
      2.5716941690444948,
      2.544193048477173,
      2.4810307025909424,
      2.5084840774536135,
      2.5509996604919434,
      2.5549159717559813,
      2.536717095375061,
      2.560089211463928,
      2.502936143875122,
      2.5341048002243043,
      2.5369895458221436,
      2.5866957664489747,
      2.5140805435180664,
      2.473248291015625,
      2.430503726005554,
      2.500964503288269,
      2.450518321990967,
      2.5557318258285524,
      2.455869607925415,
      2.4732875299453734,
      2.4848164892196656,
      2.509207935333252,
      2.459970464706421,
      2.5811080741882324,
      2.5168711662292482,
      2.5576711750030516,
      2.6586768579483033,
      2.449361882209778,
      2.4874156284332276,
      2.5043964910507204,
      2.4843448305130007,
      2.512742338180542,
      2.5053774452209474,
      2.4954179382324218,
      2.463097152709961,
      2.540113854408264,
      2.494904465675354,
      2.489917540550232,
      2.4636991024017334,
      2.4981198740005492,
      2.4684694147109987,
      2.538583164215088,
      2.489691123962402,
      2.465821523666382,
      2.5440267944335937,
      2.5359689664840697,
      2.4651296234130857,
      2.5302759265899657,
      2.5021317911148073,
      2.5054623174667356,
      2.4552711343765257,
      2.458643226623535,
      2.4476442527770996,
      2.4829524612426757,
      2.4462013339996336,
      2.4966655349731446,
      2.446388509273529,
      2.44938542842865,
      2.455853042602539,
      2.4057107973098755,
      2.4349739027023314,
      2.4378305578231814,
      2.6614846420288085,
      2.5123366069793702,
      2.619338207244873,
      2.5417505741119384,
      2.512346000671387,
      2.494806532859802,
      2.444901123046875,
      2.5458351469039915,
      2.5072241401672364,
      2.519114170074463,
      2.507609362602234,
      2.4526918649673464,
      2.465881485939026,
      2.553751492500305,
      2.478311824798584,
      2.52060845375061,
      2.5168725442886353,
      2.5458916330337527,
      2.7772652864456178,
      2.4452482986450197,
      2.434787220954895,
      2.5287202262878417,
      2.698670425415039,
      2.588178863525391,
      2.539541606903076,
      2.5815726280212403,
      2.437811450958252,
      2.474839985370636,
      2.476043267250061,
      2.534455032348633,
      2.4798657178878782,
      2.445856280326843,
      2.67405020236969,
      2.4517694425582888,
      2.455637321472168,
      2.5178015851974487,
      2.4355849838256836,
      2.494694781303406,
      2.43460994720459,
      2.5169852066040037,
      2.501785306930542,
      2.434374380111694,
      2.4137986135482787,
      2.4636185455322264,
      2.4876217079162597,
      2.4779076099395754,
      2.490978784561157,
      2.455619649887085,
      2.370384817123413,
      2.3335848665237426,
      2.3723164224624633,
      2.371846594810486,
      2.3948234033584597,
      2.3467818188667295,
      2.378901619911194,
      2.3468419122695923,
      2.345294301509857,
      2.3219703674316405,
      2.358658027648926,
      2.3405949687957763,
      2.3384893465042116,
      2.382403841018677,
      2.3353250646591186,
      2.3513293838500977,
      2.3639682054519655,
      2.3411503219604493,
      2.3899688148498535,
      2.3534490156173704,
      2.381566972732544,
      2.383282952308655,
      2.3626208400726316,
      2.342852087020874,
      2.3653719663619994,
      2.3352626395225524,
      2.3454753494262697,
      2.3246703243255613,
      2.375779287815094,
      2.3962249183654785,
      2.3671471548080443,
      2.3472192525863647,
      2.3496484422683714,
      2.340527925491333,
      2.330109186172485,
      2.347194781303406,
      2.3469752788543703,
      2.354297423362732,
      2.3268514323234557,
      2.3413611674308776,
      2.3633820962905885,
      2.3316140604019164,
      2.335259003639221,
      2.3440667939186097,
      2.3442095136642456,
      2.3347526168823243,
      2.3412922286987303,
      2.3039141511917114
    ]
  }
}