{
  "activation": "lipswish",
  "batch_size": 100,
  "bn": "arithmetic-circuit",
  "bt_config": {
    "depth": 5,
    "seed": 4
  },
  "checkpoint_n": 10,
  "coeff": 0.99,
  "double": true,
  "ex_name": "residual_nf",
  "grad_in_forward": true,
  "hidden_dims": [
    200
  ],
  "load_from_checkpoint": true,
  "lr": 0.01,
  "n_power_iterations": 5,
  "num_blocks": 17,
  "num_epochs": 500,
  "num_train_batches": 100,
  "num_train_samples": 10000,
  "num_val_batches": 50,
  "num_val_samples": 5000,
  "path": "./experiment_logs/residual_nf/arithmetic-circuit/faithful_99_lipswish_17_[200]",
  "patience": 20,
  "run": 8,
  "seed": 13,
  "structure": "faithful",
  "sub_folder": "faithful_99_lipswish_17_[200]"
}