{
  "memory.usage": {
    "steps": [
      0,
      1,
      2,
      3,
      4,
      5,
      6,
      7,
      8,
      9,
      10,
      11,
      12,
      13,
      14,
      15,
      16,
      17,
      18,
      19,
      20,
      21,
      22,
      23,
      24,
      25,
      26,
      27,
      28,
      29,
      30,
      31,
      32,
      33,
      34,
      35,
      36,
      37,
      38,
      39,
      40,
      41,
      42,
      43,
      44,
      45,
      46,
      47,
      48,
      49,
      50
    ],
    "timestamps": [
      "2022-11-11T17:14:38.439610",
      "2022-11-11T17:14:54.806599",
      "2022-11-11T17:15:13.161523",
      "2022-11-11T17:15:31.392154",
      "2022-11-11T17:15:49.624288",
      "2022-11-11T17:16:07.878485",
      "2022-11-11T17:16:26.155116",
      "2022-11-11T17:16:44.410131",
      "2022-11-11T17:17:02.661051",
      "2022-11-11T17:17:20.911949",
      "2022-11-11T17:17:39.178158",
      "2022-11-11T17:17:57.436235",
      "2022-11-11T17:18:15.700871",
      "2022-11-11T17:18:33.971167",
      "2022-11-11T17:18:52.221873",
      "2022-11-11T17:19:10.636564",
      "2022-11-11T17:19:28.922443",
      "2022-11-11T17:19:47.197272",
      "2022-11-11T17:20:05.461744",
      "2022-11-11T17:20:23.741455",
      "2022-11-11T17:20:41.992708",
      "2022-11-11T17:21:00.253562",
      "2022-11-11T17:21:18.514959",
      "2022-11-11T17:21:36.773031",
      "2022-11-11T17:21:55.032741",
      "2022-11-11T17:22:13.337234",
      "2022-11-11T17:22:31.619099",
      "2022-11-11T17:22:49.915226",
      "2022-11-11T17:23:08.158286",
      "2022-11-11T17:23:26.407378",
      "2022-11-11T17:23:44.661903",
      "2022-11-11T17:24:02.922977",
      "2022-11-11T17:24:21.157559",
      "2022-11-11T17:24:39.396544",
      "2022-11-11T17:24:57.622289",
      "2022-11-11T17:25:15.858232",
      "2022-11-11T17:25:34.109668",
      "2022-11-11T17:25:52.361148",
      "2022-11-11T17:26:10.601066",
      "2022-11-11T17:26:28.856280",
      "2022-11-11T17:26:47.094779",
      "2022-11-11T17:27:05.343353",
      "2022-11-11T17:27:23.618839",
      "2022-11-11T17:27:41.863631",
      "2022-11-11T17:28:00.120626",
      "2022-11-11T17:28:18.384229",
      "2022-11-11T17:28:36.631056",
      "2022-11-11T17:28:54.885452",
      "2022-11-11T17:29:13.154538",
      "2022-11-11T17:29:31.409840",
      "2022-11-11T17:29:49.654649"
    ],
    "values": [
      139.5584,
      139.5584,
      139.5584,
      139.5584,
      139.5584,
      139.5584,
      139.5584,
      139.5584,
      139.5584,
      139.5584,
      139.5584,
      139.5584,
      139.5584,
      139.5584,
      139.5584,
      139.5584,
      139.5584,
      139.5584,
      139.5584,
      139.5584,
      139.5584,
      139.5584,
      139.5584,
      139.5584,
      139.5584,
      139.5584,
      139.5584,
      139.5584,
      139.5584,
      139.5584,
      139.5584,
      139.5584,
      139.5584,
      139.5584,
      139.5584,
      139.5584,
      139.5584,
      139.5584,
      139.5584,
      139.5584,
      139.5584,
      139.5584,
      139.5584,
      139.5584,
      139.5584,
      139.5584,
      139.5584,
      139.5584,
      139.5584,
      139.5584,
      139.5584
    ]
  },
  "train": {
    "steps": [
      0,
      1,
      2,
      3,
      4,
      5,
      6,
      7,
      8,
      9,
      10,
      11,
      12,
      13,
      14,
      15,
      16,
      17,
      18,
      19,
      20,
      21,
      22,
      23,
      24,
      25,
      26,
      27,
      28,
      29,
      30,
      31,
      32,
      33,
      34,
      35,
      36,
      37,
      38,
      39,
      40,
      41,
      42,
      43,
      44,
      45,
      46,
      47,
      48,
      49,
      50,
      51,
      52,
      53,
      54,
      55,
      56,
      57,
      58,
      59,
      60,
      61,
      62,
      63,
      64,
      65,
      66,
      67,
      68,
      69,
      70,
      71,
      72,
      73,
      74,
      75,
      76,
      77,
      78,
      79,
      80,
      81,
      82,
      83,
      84,
      85,
      86,
      87,
      88,
      89,
      90,
      91,
      92,
      93,
      94,
      95,
      96,
      97,
      98,
      99,
      100,
      101,
      102,
      103,
      104,
      105,
      106,
      107,
      108,
      109,
      110,
      111,
      112,
      113,
      114,
      115,
      116,
      117,
      118,
      119,
      120,
      121,
      122,
      123,
      124,
      125,
      126,
      127,
      128,
      129,
      130,
      131,
      132,
      133,
      134,
      135,
      136,
      137,
      138,
      139,
      140,
      141,
      142,
      143,
      144,
      145,
      146,
      147,
      148,
      149,
      150,
      151,
      152,
      153,
      154,
      155,
      156,
      157,
      158,
      159,
      160,
      161,
      162,
      163,
      164,
      165,
      166,
      167,
      168,
      169,
      170,
      171,
      172,
      173,
      174,
      175,
      176,
      177,
      178,
      179,
      180,
      181,
      182,
      183,
      184,
      185,
      186,
      187,
      188,
      189,
      190,
      191,
      192,
      193,
      194,
      195,
      196,
      197,
      198,
      199,
      200,
      201,
      202,
      203,
      204,
      205,
      206,
      207,
      208,
      209,
      210,
      211,
      212,
      213,
      214,
      215,
      216,
      217,
      218,
      219,
      220,
      221,
      222,
      223,
      224,
      225,
      226,
      227,
      228,
      229,
      230,
      231,
      232,
      233,
      234,
      235,
      236,
      237,
      238,
      239,
      240,
      241,
      242,
      243,
      244,
      245,
      246,
      247,
      248,
      249,
      250,
      251,
      252,
      253,
      254,
      255,
      256,
      257,
      258,
      259,
      260,
      261,
      262,
      263,
      264,
      265,
      266,
      267,
      268,
      269,
      270,
      271,
      272,
      273,
      274,
      275,
      276,
      277,
      278,
      279,
      280,
      281,
      282,
      283,
      284,
      285,
      286,
      287,
      288,
      289,
      290,
      291,
      292,
      293,
      294,
      295,
      296,
      297,
      298,
      299,
      300,
      301,
      302,
      303,
      304,
      305,
      306,
      307,
      308,
      309,
      310,
      311,
      312,
      313,
      314,
      315,
      316,
      317,
      318,
      319,
      320,
      321,
      322,
      323,
      324,
      325,
      326,
      327,
      328,
      329,
      330,
      331,
      332,
      333,
      334,
      335,
      336,
      337,
      338,
      339,
      340,
      341,
      342,
      343,
      344,
      345,
      346,
      347,
      348,
      349,
      350,
      351,
      352,
      353,
      354,
      355,
      356,
      357,
      358,
      359,
      360,
      361,
      362,
      363,
      364,
      365,
      366,
      367,
      368,
      369,
      370,
      371,
      372,
      373,
      374,
      375,
      376,
      377,
      378,
      379,
      380,
      381,
      382,
      383,
      384,
      385,
      386,
      387,
      388,
      389,
      390,
      391,
      392,
      393,
      394,
      395,
      396,
      397,
      398,
      399,
      400,
      401,
      402,
      403,
      404,
      405,
      406,
      407,
      408,
      409,
      410,
      411,
      412,
      413,
      414,
      415,
      416,
      417,
      418,
      419,
      420,
      421,
      422,
      423,
      424,
      425,
      426,
      427,
      428,
      429,
      430,
      431,
      432,
      433,
      434,
      435,
      436,
      437,
      438,
      439,
      440,
      441,
      442,
      443,
      444,
      445,
      446,
      447,
      448,
      449,
      450,
      451,
      452,
      453,
      454,
      455,
      456,
      457,
      458,
      459,
      460,
      461,
      462,
      463,
      464,
      465,
      466,
      467,
      468,
      469,
      470,
      471,
      472,
      473,
      474,
      475,
      476,
      477,
      478,
      479,
      480,
      481,
      482,
      483,
      484,
      485,
      486,
      487,
      488,
      489,
      490,
      491,
      492,
      493,
      494,
      495,
      496,
      497,
      498,
      499
    ],
    "timestamps": [
      "2022-11-11T17:14:38.439258",
      "2022-11-11T17:14:40.257125",
      "2022-11-11T17:14:42.079771",
      "2022-11-11T17:14:43.899132",
      "2022-11-11T17:14:45.713567",
      "2022-11-11T17:14:47.533338",
      "2022-11-11T17:14:49.350145",
      "2022-11-11T17:14:51.163233",
      "2022-11-11T17:14:52.988463",
      "2022-11-11T17:14:54.806156",
      "2022-11-11T17:14:56.647606",
      "2022-11-11T17:14:58.482944",
      "2022-11-11T17:15:00.310932",
      "2022-11-11T17:15:02.132139",
      "2022-11-11T17:15:03.954050",
      "2022-11-11T17:15:05.773453",
      "2022-11-11T17:15:07.595811",
      "2022-11-11T17:15:09.444782",
      "2022-11-11T17:15:11.344775",
      "2022-11-11T17:15:13.161344",
      "2022-11-11T17:15:15.006642",
      "2022-11-11T17:15:16.824223",
      "2022-11-11T17:15:18.644348",
      "2022-11-11T17:15:20.462037",
      "2022-11-11T17:15:22.284023",
      "2022-11-11T17:15:24.105663",
      "2022-11-11T17:15:25.929454",
      "2022-11-11T17:15:27.749960",
      "2022-11-11T17:15:29.571105",
      "2022-11-11T17:15:31.391802",
      "2022-11-11T17:15:33.243506",
      "2022-11-11T17:15:35.060725",
      "2022-11-11T17:15:36.880413",
      "2022-11-11T17:15:38.700117",
      "2022-11-11T17:15:40.519688",
      "2022-11-11T17:15:42.344250",
      "2022-11-11T17:15:44.162475",
      "2022-11-11T17:15:45.981075",
      "2022-11-11T17:15:47.805491",
      "2022-11-11T17:15:49.623943",
      "2022-11-11T17:15:51.473625",
      "2022-11-11T17:15:53.298948",
      "2022-11-11T17:15:55.118682",
      "2022-11-11T17:15:56.943646",
      "2022-11-11T17:15:58.766464",
      "2022-11-11T17:16:00.587990",
      "2022-11-11T17:16:02.414085",
      "2022-11-11T17:16:04.234591",
      "2022-11-11T17:16:06.052771",
      "2022-11-11T17:16:07.878129",
      "2022-11-11T17:16:09.725779",
      "2022-11-11T17:16:11.549945",
      "2022-11-11T17:16:13.375412",
      "2022-11-11T17:16:15.223461",
      "2022-11-11T17:16:17.050200",
      "2022-11-11T17:16:18.871318",
      "2022-11-11T17:16:20.688440",
      "2022-11-11T17:16:22.512749",
      "2022-11-11T17:16:24.336059",
      "2022-11-11T17:16:26.154782",
      "2022-11-11T17:16:28.009411",
      "2022-11-11T17:16:29.832054",
      "2022-11-11T17:16:31.651328",
      "2022-11-11T17:16:33.475234",
      "2022-11-11T17:16:35.297298",
      "2022-11-11T17:16:37.117716",
      "2022-11-11T17:16:38.941335",
      "2022-11-11T17:16:40.758818",
      "2022-11-11T17:16:42.586473",
      "2022-11-11T17:16:44.409794",
      "2022-11-11T17:16:46.259879",
      "2022-11-11T17:16:48.083507",
      "2022-11-11T17:16:49.905602",
      "2022-11-11T17:16:51.723970",
      "2022-11-11T17:16:53.547340",
      "2022-11-11T17:16:55.371240",
      "2022-11-11T17:16:57.192682",
      "2022-11-11T17:16:59.017610",
      "2022-11-11T17:17:00.840536",
      "2022-11-11T17:17:02.660698",
      "2022-11-11T17:17:04.508970",
      "2022-11-11T17:17:06.327309",
      "2022-11-11T17:17:08.146774",
      "2022-11-11T17:17:09.964073",
      "2022-11-11T17:17:11.785705",
      "2022-11-11T17:17:13.608380",
      "2022-11-11T17:17:15.432805",
      "2022-11-11T17:17:17.265681",
      "2022-11-11T17:17:19.088902",
      "2022-11-11T17:17:20.911614",
      "2022-11-11T17:17:22.772700",
      "2022-11-11T17:17:24.600019",
      "2022-11-11T17:17:26.422671",
      "2022-11-11T17:17:28.244979",
      "2022-11-11T17:17:30.065713",
      "2022-11-11T17:17:31.887479",
      "2022-11-11T17:17:33.709935",
      "2022-11-11T17:17:35.532791",
      "2022-11-11T17:17:37.358005",
      "2022-11-11T17:17:39.177823",
      "2022-11-11T17:17:41.029938",
      "2022-11-11T17:17:42.857487",
      "2022-11-11T17:17:44.676052",
      "2022-11-11T17:17:46.498757",
      "2022-11-11T17:17:48.325751",
      "2022-11-11T17:17:50.144388",
      "2022-11-11T17:17:51.967319",
      "2022-11-11T17:17:53.790274",
      "2022-11-11T17:17:55.610729",
      "2022-11-11T17:17:57.435895",
      "2022-11-11T17:17:59.287280",
      "2022-11-11T17:18:01.110007",
      "2022-11-11T17:18:02.938273",
      "2022-11-11T17:18:04.760346",
      "2022-11-11T17:18:06.579930",
      "2022-11-11T17:18:08.405605",
      "2022-11-11T17:18:10.227965",
      "2022-11-11T17:18:12.053334",
      "2022-11-11T17:18:13.879883",
      "2022-11-11T17:18:15.700526",
      "2022-11-11T17:18:17.557933",
      "2022-11-11T17:18:19.386062",
      "2022-11-11T17:18:21.203600",
      "2022-11-11T17:18:23.038244",
      "2022-11-11T17:18:24.863548",
      "2022-11-11T17:18:26.684632",
      "2022-11-11T17:18:28.512328",
      "2022-11-11T17:18:30.330974",
      "2022-11-11T17:18:32.151137",
      "2022-11-11T17:18:33.970834",
      "2022-11-11T17:18:35.821471",
      "2022-11-11T17:18:37.643114",
      "2022-11-11T17:18:39.463249",
      "2022-11-11T17:18:41.282832",
      "2022-11-11T17:18:43.112091",
      "2022-11-11T17:18:44.933384",
      "2022-11-11T17:18:46.751085",
      "2022-11-11T17:18:48.574304",
      "2022-11-11T17:18:50.397291",
      "2022-11-11T17:18:52.221390",
      "2022-11-11T17:18:54.073450",
      "2022-11-11T17:18:55.897177",
      "2022-11-11T17:18:57.720226",
      "2022-11-11T17:18:59.542881",
      "2022-11-11T17:19:01.434393",
      "2022-11-11T17:19:03.316741",
      "2022-11-11T17:19:05.164557",
      "2022-11-11T17:19:06.987831",
      "2022-11-11T17:19:08.813739",
      "2022-11-11T17:19:10.636229",
      "2022-11-11T17:19:12.495951",
      "2022-11-11T17:19:14.319761",
      "2022-11-11T17:19:16.139650",
      "2022-11-11T17:19:17.962995",
      "2022-11-11T17:19:19.785495",
      "2022-11-11T17:19:21.610465",
      "2022-11-11T17:19:23.438226",
      "2022-11-11T17:19:25.269095",
      "2022-11-11T17:19:27.093308",
      "2022-11-11T17:19:28.922100",
      "2022-11-11T17:19:30.771236",
      "2022-11-11T17:19:32.597032",
      "2022-11-11T17:19:34.423692",
      "2022-11-11T17:19:36.246749",
      "2022-11-11T17:19:38.070507",
      "2022-11-11T17:19:39.896063",
      "2022-11-11T17:19:41.719882",
      "2022-11-11T17:19:43.548251",
      "2022-11-11T17:19:45.373204",
      "2022-11-11T17:19:47.196884",
      "2022-11-11T17:19:49.052416",
      "2022-11-11T17:19:50.876070",
      "2022-11-11T17:19:52.700479",
      "2022-11-11T17:19:54.525434",
      "2022-11-11T17:19:56.348336",
      "2022-11-11T17:19:58.171879",
      "2022-11-11T17:19:59.995300",
      "2022-11-11T17:20:01.818787",
      "2022-11-11T17:20:03.641590",
      "2022-11-11T17:20:05.461386",
      "2022-11-11T17:20:07.318279",
      "2022-11-11T17:20:09.138259",
      "2022-11-11T17:20:10.958388",
      "2022-11-11T17:20:12.786197",
      "2022-11-11T17:20:14.607705",
      "2022-11-11T17:20:16.430050",
      "2022-11-11T17:20:18.257506",
      "2022-11-11T17:20:20.081953",
      "2022-11-11T17:20:21.916168",
      "2022-11-11T17:20:23.741042",
      "2022-11-11T17:20:25.593054",
      "2022-11-11T17:20:27.417985",
      "2022-11-11T17:20:29.238141",
      "2022-11-11T17:20:31.058753",
      "2022-11-11T17:20:32.886259",
      "2022-11-11T17:20:34.705756",
      "2022-11-11T17:20:36.527427",
      "2022-11-11T17:20:38.352768",
      "2022-11-11T17:20:40.169760",
      "2022-11-11T17:20:41.992342",
      "2022-11-11T17:20:43.847197",
      "2022-11-11T17:20:45.667274",
      "2022-11-11T17:20:47.494933",
      "2022-11-11T17:20:49.320167",
      "2022-11-11T17:20:51.139641",
      "2022-11-11T17:20:52.967160",
      "2022-11-11T17:20:54.789707",
      "2022-11-11T17:20:56.608846",
      "2022-11-11T17:20:58.434496",
      "2022-11-11T17:21:00.253377",
      "2022-11-11T17:21:02.105614",
      "2022-11-11T17:21:03.928485",
      "2022-11-11T17:21:05.747641",
      "2022-11-11T17:21:07.569925",
      "2022-11-11T17:21:09.395300",
      "2022-11-11T17:21:11.216191",
      "2022-11-11T17:21:13.043260",
      "2022-11-11T17:21:14.865593",
      "2022-11-11T17:21:16.685091",
      "2022-11-11T17:21:18.514604",
      "2022-11-11T17:21:20.366838",
      "2022-11-11T17:21:22.194713",
      "2022-11-11T17:21:24.018976",
      "2022-11-11T17:21:25.844108",
      "2022-11-11T17:21:27.664314",
      "2022-11-11T17:21:29.489987",
      "2022-11-11T17:21:31.311774",
      "2022-11-11T17:21:33.134143",
      "2022-11-11T17:21:34.954625",
      "2022-11-11T17:21:36.772670",
      "2022-11-11T17:21:38.627233",
      "2022-11-11T17:21:40.446479",
      "2022-11-11T17:21:42.264920",
      "2022-11-11T17:21:44.087017",
      "2022-11-11T17:21:45.909042",
      "2022-11-11T17:21:47.730531",
      "2022-11-11T17:21:49.552824",
      "2022-11-11T17:21:51.373263",
      "2022-11-11T17:21:53.207285",
      "2022-11-11T17:21:55.032385",
      "2022-11-11T17:21:56.886707",
      "2022-11-11T17:21:58.713098",
      "2022-11-11T17:22:00.542834",
      "2022-11-11T17:22:02.372724",
      "2022-11-11T17:22:04.195484",
      "2022-11-11T17:22:06.019768",
      "2022-11-11T17:22:07.848495",
      "2022-11-11T17:22:09.670086",
      "2022-11-11T17:22:11.508124",
      "2022-11-11T17:22:13.336856",
      "2022-11-11T17:22:15.194442",
      "2022-11-11T17:22:17.027588",
      "2022-11-11T17:22:18.849637",
      "2022-11-11T17:22:20.667316",
      "2022-11-11T17:22:22.492900",
      "2022-11-11T17:22:24.317518",
      "2022-11-11T17:22:26.137693",
      "2022-11-11T17:22:27.965031",
      "2022-11-11T17:22:29.789889",
      "2022-11-11T17:22:31.618752",
      "2022-11-11T17:22:33.476777",
      "2022-11-11T17:22:35.306493",
      "2022-11-11T17:22:37.130775",
      "2022-11-11T17:22:38.966140",
      "2022-11-11T17:22:40.790734",
      "2022-11-11T17:22:42.625458",
      "2022-11-11T17:22:44.447723",
      "2022-11-11T17:22:46.268350",
      "2022-11-11T17:22:48.091561",
      "2022-11-11T17:22:49.914892",
      "2022-11-11T17:22:51.762320",
      "2022-11-11T17:22:53.585946",
      "2022-11-11T17:22:55.405140",
      "2022-11-11T17:22:57.225559",
      "2022-11-11T17:22:59.047244",
      "2022-11-11T17:23:00.869799",
      "2022-11-11T17:23:02.700699",
      "2022-11-11T17:23:04.521255",
      "2022-11-11T17:23:06.339979",
      "2022-11-11T17:23:08.157938",
      "2022-11-11T17:23:10.008753",
      "2022-11-11T17:23:11.829546",
      "2022-11-11T17:23:13.651457",
      "2022-11-11T17:23:15.473048",
      "2022-11-11T17:23:17.296118",
      "2022-11-11T17:23:19.117186",
      "2022-11-11T17:23:20.937742",
      "2022-11-11T17:23:22.763049",
      "2022-11-11T17:23:24.584641",
      "2022-11-11T17:23:26.407027",
      "2022-11-11T17:23:28.260692",
      "2022-11-11T17:23:30.080136",
      "2022-11-11T17:23:31.910162",
      "2022-11-11T17:23:33.730973",
      "2022-11-11T17:23:35.554298",
      "2022-11-11T17:23:37.379291",
      "2022-11-11T17:23:39.198224",
      "2022-11-11T17:23:41.019178",
      "2022-11-11T17:23:42.843672",
      "2022-11-11T17:23:44.661569",
      "2022-11-11T17:23:46.511627",
      "2022-11-11T17:23:48.336501",
      "2022-11-11T17:23:50.155549",
      "2022-11-11T17:23:51.983184",
      "2022-11-11T17:23:53.805761",
      "2022-11-11T17:23:55.623090",
      "2022-11-11T17:23:57.447998",
      "2022-11-11T17:23:59.271635",
      "2022-11-11T17:24:01.093512",
      "2022-11-11T17:24:02.922640",
      "2022-11-11T17:24:04.770424",
      "2022-11-11T17:24:06.588701",
      "2022-11-11T17:24:08.411511",
      "2022-11-11T17:24:10.229042",
      "2022-11-11T17:24:12.052582",
      "2022-11-11T17:24:13.874560",
      "2022-11-11T17:24:15.694778",
      "2022-11-11T17:24:17.519172",
      "2022-11-11T17:24:19.341167",
      "2022-11-11T17:24:21.157219",
      "2022-11-11T17:24:23.007866",
      "2022-11-11T17:24:24.827809",
      "2022-11-11T17:24:26.644391",
      "2022-11-11T17:24:28.468512",
      "2022-11-11T17:24:30.286015",
      "2022-11-11T17:24:32.107733",
      "2022-11-11T17:24:33.929486",
      "2022-11-11T17:24:35.749444",
      "2022-11-11T17:24:37.574299",
      "2022-11-11T17:24:39.396369",
      "2022-11-11T17:24:41.245638",
      "2022-11-11T17:24:43.066378",
      "2022-11-11T17:24:44.886224",
      "2022-11-11T17:24:46.705657",
      "2022-11-11T17:24:48.528065",
      "2022-11-11T17:24:50.347698",
      "2022-11-11T17:24:52.165034",
      "2022-11-11T17:24:53.984959",
      "2022-11-11T17:24:55.804092",
      "2022-11-11T17:24:57.622121",
      "2022-11-11T17:24:59.471381",
      "2022-11-11T17:25:01.289545",
      "2022-11-11T17:25:03.114336",
      "2022-11-11T17:25:04.933814",
      "2022-11-11T17:25:06.750662",
      "2022-11-11T17:25:08.572244",
      "2022-11-11T17:25:10.395630",
      "2022-11-11T17:25:12.219161",
      "2022-11-11T17:25:14.039051",
      "2022-11-11T17:25:15.857889",
      "2022-11-11T17:25:17.715407",
      "2022-11-11T17:25:19.536741",
      "2022-11-11T17:25:21.358175",
      "2022-11-11T17:25:23.183346",
      "2022-11-11T17:25:25.004250",
      "2022-11-11T17:25:26.824638",
      "2022-11-11T17:25:28.649685",
      "2022-11-11T17:25:30.467463",
      "2022-11-11T17:25:32.290173",
      "2022-11-11T17:25:34.109333",
      "2022-11-11T17:25:35.957843",
      "2022-11-11T17:25:37.779334",
      "2022-11-11T17:25:39.599508",
      "2022-11-11T17:25:41.420141",
      "2022-11-11T17:25:43.248618",
      "2022-11-11T17:25:45.068750",
      "2022-11-11T17:25:46.892610",
      "2022-11-11T17:25:48.714543",
      "2022-11-11T17:25:50.537041",
      "2022-11-11T17:25:52.360812",
      "2022-11-11T17:25:54.208418",
      "2022-11-11T17:25:56.027192",
      "2022-11-11T17:25:57.850539",
      "2022-11-11T17:25:59.668479",
      "2022-11-11T17:26:01.490092",
      "2022-11-11T17:26:03.318901",
      "2022-11-11T17:26:05.136048",
      "2022-11-11T17:26:06.953895",
      "2022-11-11T17:26:08.777827",
      "2022-11-11T17:26:10.600690",
      "2022-11-11T17:26:12.458944",
      "2022-11-11T17:26:14.281104",
      "2022-11-11T17:26:16.100546",
      "2022-11-11T17:26:17.925725",
      "2022-11-11T17:26:19.746519",
      "2022-11-11T17:26:21.566237",
      "2022-11-11T17:26:23.390247",
      "2022-11-11T17:26:25.209458",
      "2022-11-11T17:26:27.031762",
      "2022-11-11T17:26:28.855941",
      "2022-11-11T17:26:30.701935",
      "2022-11-11T17:26:32.526660",
      "2022-11-11T17:26:34.352265",
      "2022-11-11T17:26:36.168136",
      "2022-11-11T17:26:37.993472",
      "2022-11-11T17:26:39.814747",
      "2022-11-11T17:26:41.637197",
      "2022-11-11T17:26:43.456196",
      "2022-11-11T17:26:45.274407",
      "2022-11-11T17:26:47.094423",
      "2022-11-11T17:26:48.946922",
      "2022-11-11T17:26:50.765689",
      "2022-11-11T17:26:52.587800",
      "2022-11-11T17:26:54.410366",
      "2022-11-11T17:26:56.231514",
      "2022-11-11T17:26:58.055607",
      "2022-11-11T17:26:59.874786",
      "2022-11-11T17:27:01.693424",
      "2022-11-11T17:27:03.518217",
      "2022-11-11T17:27:05.342994",
      "2022-11-11T17:27:07.197744",
      "2022-11-11T17:27:09.026448",
      "2022-11-11T17:27:10.852382",
      "2022-11-11T17:27:12.679595",
      "2022-11-11T17:27:14.502869",
      "2022-11-11T17:27:16.327809",
      "2022-11-11T17:27:18.153487",
      "2022-11-11T17:27:19.973319",
      "2022-11-11T17:27:21.799251",
      "2022-11-11T17:27:23.618500",
      "2022-11-11T17:27:25.466436",
      "2022-11-11T17:27:27.288691",
      "2022-11-11T17:27:29.109547",
      "2022-11-11T17:27:30.930246",
      "2022-11-11T17:27:32.756642",
      "2022-11-11T17:27:34.578385",
      "2022-11-11T17:27:36.400461",
      "2022-11-11T17:27:38.219319",
      "2022-11-11T17:27:40.038263",
      "2022-11-11T17:27:41.863278",
      "2022-11-11T17:27:43.716128",
      "2022-11-11T17:27:45.536780",
      "2022-11-11T17:27:47.360757",
      "2022-11-11T17:27:49.179531",
      "2022-11-11T17:27:51.001067",
      "2022-11-11T17:27:52.826003",
      "2022-11-11T17:27:54.645336",
      "2022-11-11T17:27:56.469898",
      "2022-11-11T17:27:58.299814",
      "2022-11-11T17:28:00.120290",
      "2022-11-11T17:28:01.981680",
      "2022-11-11T17:28:03.806905",
      "2022-11-11T17:28:05.626222",
      "2022-11-11T17:28:07.451858",
      "2022-11-11T17:28:09.272045",
      "2022-11-11T17:28:11.091566",
      "2022-11-11T17:28:12.923323",
      "2022-11-11T17:28:14.741388",
      "2022-11-11T17:28:16.559103",
      "2022-11-11T17:28:18.383877",
      "2022-11-11T17:28:20.233050",
      "2022-11-11T17:28:22.053943",
      "2022-11-11T17:28:23.877501",
      "2022-11-11T17:28:25.694950",
      "2022-11-11T17:28:27.515862",
      "2022-11-11T17:28:29.337932",
      "2022-11-11T17:28:31.155941",
      "2022-11-11T17:28:32.984749",
      "2022-11-11T17:28:34.810374",
      "2022-11-11T17:28:36.630723",
      "2022-11-11T17:28:38.491514",
      "2022-11-11T17:28:40.319308",
      "2022-11-11T17:28:42.144055",
      "2022-11-11T17:28:43.965725",
      "2022-11-11T17:28:45.784003",
      "2022-11-11T17:28:47.603631",
      "2022-11-11T17:28:49.426186",
      "2022-11-11T17:28:51.244158",
      "2022-11-11T17:28:53.066138",
      "2022-11-11T17:28:54.885120",
      "2022-11-11T17:28:56.734460",
      "2022-11-11T17:28:58.559446",
      "2022-11-11T17:29:00.380784",
      "2022-11-11T17:29:02.208200",
      "2022-11-11T17:29:04.033889",
      "2022-11-11T17:29:05.855809",
      "2022-11-11T17:29:07.677014",
      "2022-11-11T17:29:09.500073",
      "2022-11-11T17:29:11.325398",
      "2022-11-11T17:29:13.154344",
      "2022-11-11T17:29:15.006791",
      "2022-11-11T17:29:16.830542",
      "2022-11-11T17:29:18.652726",
      "2022-11-11T17:29:20.474509",
      "2022-11-11T17:29:22.300512",
      "2022-11-11T17:29:24.120961",
      "2022-11-11T17:29:25.942916",
      "2022-11-11T17:29:27.766283",
      "2022-11-11T17:29:29.588736",
      "2022-11-11T17:29:31.409502",
      "2022-11-11T17:29:33.269233",
      "2022-11-11T17:29:35.092199",
      "2022-11-11T17:29:36.912981",
      "2022-11-11T17:29:38.734052",
      "2022-11-11T17:29:40.553246",
      "2022-11-11T17:29:42.380627",
      "2022-11-11T17:29:44.197189",
      "2022-11-11T17:29:46.016386",
      "2022-11-11T17:29:47.838307",
      "2022-11-11T17:29:49.654311"
    ],
    "values": [
      472.98398372578106,
      189.43890630507818,
      139.15784759900683,
      92.894616200144,
      72.86954755447861,
      62.67406806031477,
      57.34662223717898,
      54.942468806149805,
      52.211405177349974,
      51.23526927109843,
      50.984955088087645,
      48.96337011270169,
      48.537417053219755,
      48.24851792110955,
      47.60498395527948,
      46.82663210976846,
      46.983668192153424,
      46.086449490354894,
      45.93770513207329,
      45.74691866188675,
      45.78483357207073,
      45.21500010563685,
      45.30576740570048,
      44.992674183885626,
      44.86636027556637,
      44.96622448731803,
      45.30755448306348,
      44.42641066732357,
      44.9011640311968,
      44.823740907001934,
      44.32558922692926,
      44.77212966195037,
      43.870201773650614,
      44.475459571645686,
      44.25609425434,
      44.007866236889804,
      43.67663172045923,
      44.09554681657353,
      43.716274143775856,
      43.52460007223318,
      44.409907744687985,
      44.32686331220697,
      43.397131891595464,
      43.44680883167369,
      43.68963319700058,
      43.67893278356043,
      43.73894983719897,
      43.38944860649537,
      43.3094712362199,
      43.19586328333144,
      45.183217450157336,
      43.70471684448358,
      43.49410420216048,
      43.220276036290855,
      43.14974815211613,
      43.22696797838987,
      44.653186346965434,
      43.15399095304403,
      43.34383582146204,
      43.439831930194934,
      42.86718987336734,
      42.85932298595653,
      43.2742556408454,
      42.82874406897536,
      42.936318943793864,
      43.419913456654186,
      43.18066045592498,
      42.90166667660184,
      42.757411307289594,
      43.10660331974302,
      42.9587184982723,
      42.549692424106105,
      44.01070053253184,
      43.255003730334984,
      42.537545301579904,
      42.73716855538844,
      43.09663990621705,
      42.73279922621265,
      42.54790333334059,
      42.35509551976664,
      42.242769410417786,
      42.09886733035529,
      42.05106247442786,
      42.253306634990714,
      42.120156707834695,
      41.90710895632685,
      42.44765331420357,
      41.938181972146175,
      42.13197371330439,
      41.77926328219408,
      42.058349897993175,
      42.185419388652505,
      41.74381421695282,
      41.29861498937302,
      41.543958939696836,
      41.778497858509425,
      41.612579382229214,
      41.361031717980474,
      41.26482555062783,
      41.279200191478736,
      41.050152942689884,
      41.083844301462726,
      41.109448907454315,
      41.991594679299894,
      43.01307253773637,
      41.10013081429869,
      40.894935791200275,
      40.6808104505931,
      40.42615293041625,
      40.52485830033554,
      40.72777896647301,
      41.020675663323665,
      40.59088618818714,
      40.411915662204244,
      41.079298332142606,
      40.41155228101992,
      40.77714186062585,
      40.74713892478844,
      40.59100278946196,
      40.49335355522629,
      40.80172161131842,
      40.20486304564802,
      40.070761015420864,
      41.07846247514862,
      40.827645974528515,
      40.1517551507405,
      40.745531523415735,
      40.82633019487319,
      40.86374892016759,
      41.69570190860214,
      40.1926949769129,
      40.303560037507644,
      40.28604503245235,
      40.153817093551666,
      40.10249148408356,
      40.30387592929875,
      39.979289019879324,
      39.88105539112707,
      39.981761558734874,
      40.277995575287555,
      40.07288481355439,
      40.31301139414337,
      40.64464266735849,
      40.00887554535404,
      40.05232820644342,
      40.21392434724715,
      40.55585421000332,
      39.8746505969882,
      39.93134537268752,
      40.16613119420467,
      40.41470716355672,
      40.748960268539065,
      40.90388370081461,
      40.003924852697736,
      39.72243129680375,
      40.019107477703685,
      40.509752006173194,
      39.77877401010916,
      39.92897016022775,
      39.88732926809521,
      39.756007094187076,
      39.878647573113724,
      40.14731181434112,
      39.62567921779808,
      39.7469764262259,
      40.35487319820949,
      39.801008047690345,
      39.770042822484285,
      39.71931667155586,
      40.09171697651155,
      40.279114708652045,
      40.14048447212513,
      40.02392701217857,
      39.574028096766384,
      39.53897498783982,
      39.487776755225845,
      39.491254265578455,
      39.86394955360214,
      40.048146537920985,
      39.594073504240065,
      39.51197094155327,
      39.97161466339396,
      39.69106012320994,
      40.13024418280396,
      39.83588707984296,
      39.571918176758786,
      39.832144075636194,
      39.78010312017412,
      39.446894768853326,
      40.36221425224686,
      41.040552484285,
      39.40526292291555,
      39.3209782983538,
      39.5780998712896,
      39.684190599304685,
      39.962879807174765,
      39.997253326170856,
      39.66626588009143,
      39.4042164876763,
      39.59234875298486,
      39.55361591553262,
      39.57626724195241,
      39.493779770253,
      40.30011847071231,
      39.91295079972596,
      39.450765715887414,
      39.501689390432595,
      39.57423564660063,
      39.446081851519615,
      39.51171687089844,
      39.924893392584195,
      39.8367898546675,
      39.972269889301494,
      39.71058213992107,
      39.05599795932097,
      38.47373050131486,
      38.412633543116335,
      38.408194672632085,
      38.3951381185777,
      38.3839337429461,
      38.36076578494075,
      38.38177159126007,
      38.36480601984976,
      38.393946119121324,
      38.36589773290874,
      38.35974272029218,
      38.35164729580296,
      38.34271541817287,
      38.369096851447964,
      38.370158348424106,
      38.351802146249646,
      38.32896723124515,
      38.329210059986146,
      38.346647192978374,
      38.363122788017186,
      38.34153427902485,
      38.35500769511771,
      38.32828429124316,
      38.35496109807503,
      38.335326573082696,
      38.31814566992382,
      38.361110386114646,
      38.34582268569348,
      38.361661933439365,
      38.31698997769881,
      38.36416534041207,
      38.33522566155594,
      38.341452759112954,
      38.345334192636486,
      38.36599214783953,
      38.32254299780232,
      38.29446286239936,
      38.293153182449785,
      38.29358263638535,
      38.28950014619577,
      38.29820077846289,
      38.315723421256045,
      38.31864117424337,
      38.297325794155284,
      38.29480834588889,
      38.29486134971026,
      38.34774032336841,
      38.32936169288722,
      38.30498867137958,
      38.326181376983335,
      38.31689962485042,
      38.31505745964418,
      38.32082160602186,
      38.324955665579225,
      38.31218728675316,
      38.320467421218076,
      38.29947300473825,
      38.32244008714817,
      38.314526515682374,
      38.294409273135734,
      38.302341834046096,
      38.197279353550435,
      38.17626903504539,
      38.15953920834957,
      38.17265812172889,
      38.167178840948885,
      38.167662638545835,
      38.16403569459125,
      38.159101937612505,
      38.169324973188864,
      38.16957845807288,
      38.156975343447364,
      38.17578337656586,
      38.161391457011234,
      38.15020707323201,
      38.15133200450953,
      38.150384227879236,
      38.15374183770929,
      38.17476945964163,
      38.138501581650715,
      38.15253326588969,
      38.15286703096683,
      38.152984649791634,
      38.16781594691873,
      38.17113888402907,
      38.16173261576823,
      38.16765026600247,
      38.15688412937175,
      38.162225174092384,
      38.163534909293595,
      38.163389355663746,
      38.17091594323445,
      38.17293032119893,
      38.15891379882151,
      38.167953801310674,
      38.15789371941798,
      38.16915271295348,
      38.153794231443186,
      38.16784257830361,
      38.14918378155764,
      38.13914069135809,
      38.144509011802754,
      38.1343177489869,
      38.15580284179418,
      38.1390937002491,
      38.132752532009015,
      38.139792247886255,
      38.140367158875115,
      38.13963889611555,
      38.13977858034462,
      38.142655871746534,
      38.136258990114726,
      38.13956127844496,
      38.147834406950295,
      38.14613759042795,
      38.14858581215158,
      38.13155667014324,
      38.13487838137318,
      38.1411615504579,
      38.13923909920974,
      38.12666819629526,
      38.14979026734637,
      38.12516376879814,
      38.134017611841315,
      38.151940926365924,
      38.12842159180286,
      38.137911134585224,
      38.146865521985035,
      38.136495346855924,
      38.16201340015647,
      38.14295294076047,
      38.15100081902709,
      38.1490372241048,
      38.132580972770036,
      38.13789303536412,
      38.12838632457305,
      38.14106790714697,
      38.1430561668632,
      38.132205034401935,
      38.143856418506246,
      38.130797934051564,
      38.147313175740734,
      38.14406538850492,
      38.14394188845712,
      38.132749644424734,
      38.13830846110959,
      38.12898627752343,
      38.13877158689878,
      38.137072024713866,
      38.14574201206397,
      38.1476731251646,
      38.12345274010162,
      38.147062677632526,
      38.14968618188483,
      38.13953124309206,
      38.14706029010642,
      38.13269263481517,
      38.13057477926361,
      38.14097866610047,
      38.14521178285441,
      38.13435106038963,
      38.12364993339179,
      38.137564088897236,
      38.148955856586646,
      38.13194182270186,
      38.13068872057798,
      38.1214276633805,
      38.143132366351814,
      38.14441412116775,
      38.14030621281901,
      38.13775768372784,
      38.13685411419721,
      38.13655121686263,
      38.1423291018721,
      38.139226338993744,
      38.142308440542585,
      38.13881395544811,
      38.134394898940116,
      38.13231329465763,
      38.14439721359483,
      38.13280622156844,
      38.136780443089066,
      38.1576438132389,
      38.13830639343397,
      38.1294040479712,
      38.14811116826944,
      38.129802618755036,
      38.14030898788156,
      38.131917016533016,
      38.13967832238202,
      38.12620407271288,
      38.146392640015705,
      38.128932230460975,
      38.148692583459265,
      38.132681183855105,
      38.13404323817298,
      38.13304913003616,
      38.14951499835492,
      38.15431038535381,
      38.14102108534937,
      38.14159097113638,
      38.1400874951328,
      38.13372463220572,
      38.13362343366805,
      38.1506504666719,
      38.139146663363164,
      38.13032032995729,
      38.12783053664961,
      38.1365716516536,
      38.140299439399215,
      38.13390440705695,
      38.14519196426429,
      38.139059359527245,
      38.136915417769565,
      38.13560966286,
      38.13353337058619,
      38.13624322967047,
      38.12913838342217,
      38.13399412098021,
      38.12784576405016,
      38.13590641598937,
      38.13464798095869,
      38.13701908830666,
      38.143288290691075,
      38.11702747137656,
      38.14751562507968,
      38.13132124033378,
      38.12732395742344,
      38.13414380411848,
      38.132886647898836,
      38.142132078686686,
      38.141701807775334,
      38.13031723554338,
      38.12324402601285,
      38.142407210704384,
      38.142485889300744,
      38.14053238123346,
      38.13522412316145,
      38.13027979480024,
      38.144961340267905,
      38.144816751722914,
      38.12482238348764,
      38.133005702972355,
      38.14189321248003,
      38.137023227009344,
      38.138022078030474,
      38.126061773912525,
      38.12984132952971,
      38.12917198652959,
      38.12887484620554,
      38.15852137343093,
      38.12471807041014,
      38.14224600372489,
      38.14288976812616,
      38.13214741940059,
      38.13176445701737,
      38.14258643361875,
      38.14013591587147,
      38.132470459333085,
      38.11693746255006,
      38.13398223224917,
      38.12574745091926,
      38.13337648933892,
      38.13663269026488,
      38.1455981142312,
      38.13407656757342,
      38.11943306848943,
      38.1331276853337,
      38.1361255522889,
      38.13249225938287,
      38.139119397351514,
      38.13908760757995,
      38.130704949953696,
      38.130355676757475,
      38.149181962614556,
      38.132893817400934,
      38.1314381827266,
      38.129441784206286,
      38.12901838727726,
      38.12618402747741,
      38.146787763994475,
      38.137443729760925,
      38.12551144657008,
      38.13628637469978,
      38.128972165181324
    ]
  },
  "val": {
    "steps": [
      0,
      1,
      2,
      3,
      4,
      5,
      6,
      7,
      8,
      9,
      10,
      11,
      12,
      13,
      14,
      15,
      16,
      17,
      18,
      19,
      20,
      21,
      22,
      23,
      24,
      25,
      26,
      27,
      28,
      29,
      30,
      31,
      32,
      33,
      34,
      35,
      36,
      37,
      38,
      39,
      40,
      41,
      42,
      43,
      44,
      45,
      46,
      47,
      48,
      49,
      50,
      51,
      52,
      53,
      54,
      55,
      56,
      57,
      58,
      59,
      60,
      61,
      62,
      63,
      64,
      65,
      66,
      67,
      68,
      69,
      70,
      71,
      72,
      73,
      74,
      75,
      76,
      77,
      78,
      79,
      80,
      81,
      82,
      83,
      84,
      85,
      86,
      87,
      88,
      89,
      90,
      91,
      92,
      93,
      94,
      95,
      96,
      97,
      98,
      99,
      100,
      101,
      102,
      103,
      104,
      105,
      106,
      107,
      108,
      109,
      110,
      111,
      112,
      113,
      114,
      115,
      116,
      117,
      118,
      119,
      120,
      121,
      122,
      123,
      124,
      125,
      126,
      127,
      128,
      129,
      130,
      131,
      132,
      133,
      134,
      135,
      136,
      137,
      138,
      139,
      140,
      141,
      142,
      143,
      144,
      145,
      146,
      147,
      148,
      149,
      150,
      151,
      152,
      153,
      154,
      155,
      156,
      157,
      158,
      159,
      160,
      161,
      162,
      163,
      164,
      165,
      166,
      167,
      168,
      169,
      170,
      171,
      172,
      173,
      174,
      175,
      176,
      177,
      178,
      179,
      180,
      181,
      182,
      183,
      184,
      185,
      186,
      187,
      188,
      189,
      190,
      191,
      192,
      193,
      194,
      195,
      196,
      197,
      198,
      199,
      200,
      201,
      202,
      203,
      204,
      205,
      206,
      207,
      208,
      209,
      210,
      211,
      212,
      213,
      214,
      215,
      216,
      217,
      218,
      219,
      220,
      221,
      222,
      223,
      224,
      225,
      226,
      227,
      228,
      229,
      230,
      231,
      232,
      233,
      234,
      235,
      236,
      237,
      238,
      239,
      240,
      241,
      242,
      243,
      244,
      245,
      246,
      247,
      248,
      249,
      250,
      251,
      252,
      253,
      254,
      255,
      256,
      257,
      258,
      259,
      260,
      261,
      262,
      263,
      264,
      265,
      266,
      267,
      268,
      269,
      270,
      271,
      272,
      273,
      274,
      275,
      276,
      277,
      278,
      279,
      280,
      281,
      282,
      283,
      284,
      285,
      286,
      287,
      288,
      289,
      290,
      291,
      292,
      293,
      294,
      295,
      296,
      297,
      298,
      299,
      300,
      301,
      302,
      303,
      304,
      305,
      306,
      307,
      308,
      309,
      310,
      311,
      312,
      313,
      314,
      315,
      316,
      317,
      318,
      319,
      320,
      321,
      322,
      323,
      324,
      325,
      326,
      327,
      328,
      329,
      330,
      331,
      332,
      333,
      334,
      335,
      336,
      337,
      338,
      339,
      340,
      341,
      342,
      343,
      344,
      345,
      346,
      347,
      348,
      349,
      350,
      351,
      352,
      353,
      354,
      355,
      356,
      357,
      358,
      359,
      360,
      361,
      362,
      363,
      364,
      365,
      366,
      367,
      368,
      369,
      370,
      371,
      372,
      373,
      374,
      375,
      376,
      377,
      378,
      379,
      380,
      381,
      382,
      383,
      384,
      385,
      386,
      387,
      388,
      389,
      390,
      391,
      392,
      393,
      394,
      395,
      396,
      397,
      398,
      399,
      400,
      401,
      402,
      403,
      404,
      405,
      406,
      407,
      408,
      409,
      410,
      411,
      412,
      413,
      414,
      415,
      416,
      417,
      418,
      419,
      420,
      421,
      422,
      423,
      424,
      425,
      426,
      427,
      428,
      429,
      430,
      431,
      432,
      433,
      434,
      435,
      436,
      437,
      438,
      439,
      440,
      441,
      442,
      443,
      444,
      445,
      446,
      447,
      448,
      449,
      450,
      451,
      452,
      453,
      454,
      455,
      456,
      457,
      458,
      459,
      460,
      461,
      462,
      463,
      464,
      465,
      466,
      467,
      468,
      469,
      470,
      471,
      472,
      473,
      474,
      475,
      476,
      477,
      478,
      479,
      480,
      481,
      482,
      483,
      484,
      485,
      486,
      487,
      488,
      489,
      490,
      491,
      492,
      493,
      494,
      495,
      496,
      497,
      498,
      499
    ],
    "timestamps": [
      "2022-11-11T17:14:38.568335",
      "2022-11-11T17:14:40.387825",
      "2022-11-11T17:14:42.209144",
      "2022-11-11T17:14:44.027833",
      "2022-11-11T17:14:45.845067",
      "2022-11-11T17:14:47.662155",
      "2022-11-11T17:14:49.478855",
      "2022-11-11T17:14:51.293822",
      "2022-11-11T17:14:53.117460",
      "2022-11-11T17:14:54.935339",
      "2022-11-11T17:14:56.777445",
      "2022-11-11T17:14:58.611816",
      "2022-11-11T17:15:00.440013",
      "2022-11-11T17:15:02.262732",
      "2022-11-11T17:15:04.082881",
      "2022-11-11T17:15:05.904456",
      "2022-11-11T17:15:07.725700",
      "2022-11-11T17:15:09.576570",
      "2022-11-11T17:15:11.473665",
      "2022-11-11T17:15:13.292231",
      "2022-11-11T17:15:15.135200",
      "2022-11-11T17:15:16.953189",
      "2022-11-11T17:15:18.774524",
      "2022-11-11T17:15:20.590777",
      "2022-11-11T17:15:22.415694",
      "2022-11-11T17:15:24.235713",
      "2022-11-11T17:15:26.058636",
      "2022-11-11T17:15:27.881426",
      "2022-11-11T17:15:29.700557",
      "2022-11-11T17:15:31.521348",
      "2022-11-11T17:15:33.375206",
      "2022-11-11T17:15:35.190183",
      "2022-11-11T17:15:37.009525",
      "2022-11-11T17:15:38.832296",
      "2022-11-11T17:15:40.648746",
      "2022-11-11T17:15:42.473634",
      "2022-11-11T17:15:44.293888",
      "2022-11-11T17:15:46.110175",
      "2022-11-11T17:15:47.935398",
      "2022-11-11T17:15:49.754070",
      "2022-11-11T17:15:51.602992",
      "2022-11-11T17:15:53.429028",
      "2022-11-11T17:15:55.249132",
      "2022-11-11T17:15:57.072881",
      "2022-11-11T17:15:58.897878",
      "2022-11-11T17:16:00.716972",
      "2022-11-11T17:16:02.543409",
      "2022-11-11T17:16:04.366205",
      "2022-11-11T17:16:06.182124",
      "2022-11-11T17:16:08.007579",
      "2022-11-11T17:16:09.857627",
      "2022-11-11T17:16:11.679376",
      "2022-11-11T17:16:13.504951",
      "2022-11-11T17:16:15.359197",
      "2022-11-11T17:16:17.180020",
      "2022-11-11T17:16:19.000578",
      "2022-11-11T17:16:20.820879",
      "2022-11-11T17:16:22.641973",
      "2022-11-11T17:16:24.465563",
      "2022-11-11T17:16:26.285087",
      "2022-11-11T17:16:28.138715",
      "2022-11-11T17:16:29.961392",
      "2022-11-11T17:16:31.781793",
      "2022-11-11T17:16:33.604925",
      "2022-11-11T17:16:35.428025",
      "2022-11-11T17:16:37.248892",
      "2022-11-11T17:16:39.070411",
      "2022-11-11T17:16:40.890525",
      "2022-11-11T17:16:42.715532",
      "2022-11-11T17:16:44.539216",
      "2022-11-11T17:16:46.391217",
      "2022-11-11T17:16:48.213082",
      "2022-11-11T17:16:50.035068",
      "2022-11-11T17:16:51.855820",
      "2022-11-11T17:16:53.676688",
      "2022-11-11T17:16:55.500710",
      "2022-11-11T17:16:57.324911",
      "2022-11-11T17:16:59.146990",
      "2022-11-11T17:17:00.969718",
      "2022-11-11T17:17:02.791824",
      "2022-11-11T17:17:04.638102",
      "2022-11-11T17:17:06.456368",
      "2022-11-11T17:17:08.277489",
      "2022-11-11T17:17:10.093517",
      "2022-11-11T17:17:11.917193",
      "2022-11-11T17:17:13.738800",
      "2022-11-11T17:17:15.562292",
      "2022-11-11T17:17:17.397166",
      "2022-11-11T17:17:19.217891",
      "2022-11-11T17:17:21.040785",
      "2022-11-11T17:17:22.905482",
      "2022-11-11T17:17:24.730570",
      "2022-11-11T17:17:26.552103",
      "2022-11-11T17:17:28.376530",
      "2022-11-11T17:17:30.194733",
      "2022-11-11T17:17:32.016898",
      "2022-11-11T17:17:33.842144",
      "2022-11-11T17:17:35.662089",
      "2022-11-11T17:17:37.487314",
      "2022-11-11T17:17:39.310381",
      "2022-11-11T17:17:41.159171",
      "2022-11-11T17:17:42.986739",
      "2022-11-11T17:17:44.808841",
      "2022-11-11T17:17:46.627820",
      "2022-11-11T17:17:48.455789",
      "2022-11-11T17:17:50.274747",
      "2022-11-11T17:17:52.096581",
      "2022-11-11T17:17:53.921271",
      "2022-11-11T17:17:55.740924",
      "2022-11-11T17:17:57.565379",
      "2022-11-11T17:17:59.418960",
      "2022-11-11T17:18:01.240317",
      "2022-11-11T17:18:03.067576",
      "2022-11-11T17:18:04.892071",
      "2022-11-11T17:18:06.709012",
      "2022-11-11T17:18:08.535042",
      "2022-11-11T17:18:10.359862",
      "2022-11-11T17:18:12.183299",
      "2022-11-11T17:18:14.008684",
      "2022-11-11T17:18:15.833444",
      "2022-11-11T17:18:17.687270",
      "2022-11-11T17:18:19.515361",
      "2022-11-11T17:18:21.335310",
      "2022-11-11T17:18:23.167572",
      "2022-11-11T17:18:24.992906",
      "2022-11-11T17:18:26.818794",
      "2022-11-11T17:18:28.641347",
      "2022-11-11T17:18:30.460029",
      "2022-11-11T17:18:32.281969",
      "2022-11-11T17:18:34.100383",
      "2022-11-11T17:18:35.950983",
      "2022-11-11T17:18:37.773491",
      "2022-11-11T17:18:39.592536",
      "2022-11-11T17:18:41.416406",
      "2022-11-11T17:18:43.242373",
      "2022-11-11T17:18:45.062690",
      "2022-11-11T17:18:46.882512",
      "2022-11-11T17:18:48.703685",
      "2022-11-11T17:18:50.526604",
      "2022-11-11T17:18:52.354041",
      "2022-11-11T17:18:54.202456",
      "2022-11-11T17:18:56.026376",
      "2022-11-11T17:18:57.852073",
      "2022-11-11T17:18:59.671766",
      "2022-11-11T17:19:01.577580",
      "2022-11-11T17:19:03.446308",
      "2022-11-11T17:19:05.296418",
      "2022-11-11T17:19:07.117312",
      "2022-11-11T17:19:08.943044",
      "2022-11-11T17:19:10.766694",
      "2022-11-11T17:19:12.624975",
      "2022-11-11T17:19:14.449737",
      "2022-11-11T17:19:16.269719",
      "2022-11-11T17:19:18.092516",
      "2022-11-11T17:19:19.917251",
      "2022-11-11T17:19:21.740715",
      "2022-11-11T17:19:23.567427",
      "2022-11-11T17:19:25.400152",
      "2022-11-11T17:19:27.224258",
      "2022-11-11T17:19:29.051771",
      "2022-11-11T17:19:30.902819",
      "2022-11-11T17:19:32.727344",
      "2022-11-11T17:19:34.553345",
      "2022-11-11T17:19:36.378339",
      "2022-11-11T17:19:38.200168",
      "2022-11-11T17:19:40.025344",
      "2022-11-11T17:19:41.852556",
      "2022-11-11T17:19:43.677804",
      "2022-11-11T17:19:45.502942",
      "2022-11-11T17:19:47.330124",
      "2022-11-11T17:19:49.181231",
      "2022-11-11T17:19:51.005714",
      "2022-11-11T17:19:52.832792",
      "2022-11-11T17:19:54.654526",
      "2022-11-11T17:19:56.477350",
      "2022-11-11T17:19:58.304557",
      "2022-11-11T17:20:00.125314",
      "2022-11-11T17:20:01.948419",
      "2022-11-11T17:20:03.771718",
      "2022-11-11T17:20:05.590943",
      "2022-11-11T17:20:07.448593",
      "2022-11-11T17:20:09.268674",
      "2022-11-11T17:20:11.087712",
      "2022-11-11T17:20:12.917871",
      "2022-11-11T17:20:14.738000",
      "2022-11-11T17:20:16.559429",
      "2022-11-11T17:20:18.390087",
      "2022-11-11T17:20:20.211948",
      "2022-11-11T17:20:22.045854",
      "2022-11-11T17:20:23.872561",
      "2022-11-11T17:20:25.722933",
      "2022-11-11T17:20:27.547226",
      "2022-11-11T17:20:29.369414",
      "2022-11-11T17:20:31.188169",
      "2022-11-11T17:20:33.015455",
      "2022-11-11T17:20:34.838166",
      "2022-11-11T17:20:36.656543",
      "2022-11-11T17:20:38.482252",
      "2022-11-11T17:20:40.302121",
      "2022-11-11T17:20:42.121741",
      "2022-11-11T17:20:43.976666",
      "2022-11-11T17:20:45.799601",
      "2022-11-11T17:20:47.624557",
      "2022-11-11T17:20:49.449820",
      "2022-11-11T17:20:51.270021",
      "2022-11-11T17:20:53.096569",
      "2022-11-11T17:20:54.919678",
      "2022-11-11T17:20:56.738984",
      "2022-11-11T17:20:58.563540",
      "2022-11-11T17:21:00.384339",
      "2022-11-11T17:21:02.236123",
      "2022-11-11T17:21:04.058039",
      "2022-11-11T17:21:05.879154",
      "2022-11-11T17:21:07.699078",
      "2022-11-11T17:21:09.525070",
      "2022-11-11T17:21:11.348019",
      "2022-11-11T17:21:13.172603",
      "2022-11-11T17:21:14.995062",
      "2022-11-11T17:21:16.817547",
      "2022-11-11T17:21:18.643910",
      "2022-11-11T17:21:20.495934",
      "2022-11-11T17:21:22.326417",
      "2022-11-11T17:21:24.148438",
      "2022-11-11T17:21:25.973465",
      "2022-11-11T17:21:27.797204",
      "2022-11-11T17:21:29.619254",
      "2022-11-11T17:21:31.444209",
      "2022-11-11T17:21:33.264800",
      "2022-11-11T17:21:35.083988",
      "2022-11-11T17:21:36.904460",
      "2022-11-11T17:21:38.757547",
      "2022-11-11T17:21:40.575740",
      "2022-11-11T17:21:42.396227",
      "2022-11-11T17:21:44.216581",
      "2022-11-11T17:21:46.038589",
      "2022-11-11T17:21:47.862276",
      "2022-11-11T17:21:49.682361",
      "2022-11-11T17:21:51.506180",
      "2022-11-11T17:21:53.340742",
      "2022-11-11T17:21:55.161816",
      "2022-11-11T17:21:57.016090",
      "2022-11-11T17:21:58.846720",
      "2022-11-11T17:22:00.672000",
      "2022-11-11T17:22:02.502002",
      "2022-11-11T17:22:04.329186",
      "2022-11-11T17:22:06.149117",
      "2022-11-11T17:22:07.977751",
      "2022-11-11T17:22:09.803228",
      "2022-11-11T17:22:11.637317",
      "2022-11-11T17:22:13.466504",
      "2022-11-11T17:22:15.327681",
      "2022-11-11T17:22:17.157776",
      "2022-11-11T17:22:18.979181",
      "2022-11-11T17:22:20.799710",
      "2022-11-11T17:22:22.622270",
      "2022-11-11T17:22:24.446905",
      "2022-11-11T17:22:26.267928",
      "2022-11-11T17:22:28.094546",
      "2022-11-11T17:22:29.920478",
      "2022-11-11T17:22:31.749863",
      "2022-11-11T17:22:33.605920",
      "2022-11-11T17:22:35.435993",
      "2022-11-11T17:22:37.262898",
      "2022-11-11T17:22:39.095127",
      "2022-11-11T17:22:40.920823",
      "2022-11-11T17:22:42.755713",
      "2022-11-11T17:22:44.576885",
      "2022-11-11T17:22:46.399891",
      "2022-11-11T17:22:48.220982",
      "2022-11-11T17:22:50.044139",
      "2022-11-11T17:22:51.893648",
      "2022-11-11T17:22:53.714957",
      "2022-11-11T17:22:55.534474",
      "2022-11-11T17:22:57.357319",
      "2022-11-11T17:22:59.176562",
      "2022-11-11T17:23:00.998813",
      "2022-11-11T17:23:02.833578",
      "2022-11-11T17:23:04.650431",
      "2022-11-11T17:23:06.469453",
      "2022-11-11T17:23:08.289322",
      "2022-11-11T17:23:10.138139",
      "2022-11-11T17:23:11.958717",
      "2022-11-11T17:23:13.781504",
      "2022-11-11T17:23:15.602297",
      "2022-11-11T17:23:17.426059",
      "2022-11-11T17:23:19.247290",
      "2022-11-11T17:23:21.067072",
      "2022-11-11T17:23:22.894287",
      "2022-11-11T17:23:24.713871",
      "2022-11-11T17:23:26.536577",
      "2022-11-11T17:23:28.392348",
      "2022-11-11T17:23:30.209760",
      "2022-11-11T17:23:32.039365",
      "2022-11-11T17:23:33.862708",
      "2022-11-11T17:23:35.683816",
      "2022-11-11T17:23:37.508478",
      "2022-11-11T17:23:39.330066",
      "2022-11-11T17:23:41.148293",
      "2022-11-11T17:23:42.972658",
      "2022-11-11T17:23:44.793262",
      "2022-11-11T17:23:46.640691",
      "2022-11-11T17:23:48.465846",
      "2022-11-11T17:23:50.285839",
      "2022-11-11T17:23:52.112687",
      "2022-11-11T17:23:53.935614",
      "2022-11-11T17:23:55.753300",
      "2022-11-11T17:23:57.577417",
      "2022-11-11T17:23:59.403338",
      "2022-11-11T17:24:01.223944",
      "2022-11-11T17:24:03.052045",
      "2022-11-11T17:24:04.901906",
      "2022-11-11T17:24:06.718163",
      "2022-11-11T17:24:08.540896",
      "2022-11-11T17:24:10.360927",
      "2022-11-11T17:24:12.182236",
      "2022-11-11T17:24:14.004017",
      "2022-11-11T17:24:15.826932",
      "2022-11-11T17:24:17.648318",
      "2022-11-11T17:24:19.470371",
      "2022-11-11T17:24:21.287281",
      "2022-11-11T17:24:23.137081",
      "2022-11-11T17:24:24.957064",
      "2022-11-11T17:24:26.774721",
      "2022-11-11T17:24:28.598004",
      "2022-11-11T17:24:30.418034",
      "2022-11-11T17:24:32.238870",
      "2022-11-11T17:24:34.059181",
      "2022-11-11T17:24:35.881462",
      "2022-11-11T17:24:37.703274",
      "2022-11-11T17:24:39.525525",
      "2022-11-11T17:24:41.376605",
      "2022-11-11T17:24:43.195774",
      "2022-11-11T17:24:45.015612",
      "2022-11-11T17:24:46.837747",
      "2022-11-11T17:24:48.657545",
      "2022-11-11T17:24:50.476987",
      "2022-11-11T17:24:52.297532",
      "2022-11-11T17:24:54.114267",
      "2022-11-11T17:24:55.933494",
      "2022-11-11T17:24:57.752422",
      "2022-11-11T17:24:59.600766",
      "2022-11-11T17:25:01.420269",
      "2022-11-11T17:25:03.244523",
      "2022-11-11T17:25:05.062857",
      "2022-11-11T17:25:06.882286",
      "2022-11-11T17:25:08.701696",
      "2022-11-11T17:25:10.524553",
      "2022-11-11T17:25:12.351412",
      "2022-11-11T17:25:14.168108",
      "2022-11-11T17:25:15.987292",
      "2022-11-11T17:25:17.847784",
      "2022-11-11T17:25:19.665553",
      "2022-11-11T17:25:21.491336",
      "2022-11-11T17:25:23.315690",
      "2022-11-11T17:25:25.133453",
      "2022-11-11T17:25:26.954086",
      "2022-11-11T17:25:28.779863",
      "2022-11-11T17:25:30.596563",
      "2022-11-11T17:25:32.421109",
      "2022-11-11T17:25:34.239889",
      "2022-11-11T17:25:36.087051",
      "2022-11-11T17:25:37.910928",
      "2022-11-11T17:25:39.729555",
      "2022-11-11T17:25:41.553926",
      "2022-11-11T17:25:43.380015",
      "2022-11-11T17:25:45.198012",
      "2022-11-11T17:25:47.021855",
      "2022-11-11T17:25:48.846679",
      "2022-11-11T17:25:50.666383",
      "2022-11-11T17:25:52.490735",
      "2022-11-11T17:25:54.340534",
      "2022-11-11T17:25:56.156303",
      "2022-11-11T17:25:57.979705",
      "2022-11-11T17:25:59.800588",
      "2022-11-11T17:26:01.623713",
      "2022-11-11T17:26:03.448532",
      "2022-11-11T17:26:05.266145",
      "2022-11-11T17:26:07.082980",
      "2022-11-11T17:26:08.909497",
      "2022-11-11T17:26:10.731020",
      "2022-11-11T17:26:12.588144",
      "2022-11-11T17:26:14.412379",
      "2022-11-11T17:26:16.230504",
      "2022-11-11T17:26:18.055042",
      "2022-11-11T17:26:19.877794",
      "2022-11-11T17:26:21.695547",
      "2022-11-11T17:26:23.519588",
      "2022-11-11T17:26:25.341457",
      "2022-11-11T17:26:27.161564",
      "2022-11-11T17:26:28.985562",
      "2022-11-11T17:26:30.834254",
      "2022-11-11T17:26:32.656239",
      "2022-11-11T17:26:34.481552",
      "2022-11-11T17:26:36.300656",
      "2022-11-11T17:26:38.122881",
      "2022-11-11T17:26:39.944254",
      "2022-11-11T17:26:41.767268",
      "2022-11-11T17:26:43.585645",
      "2022-11-11T17:26:45.405420",
      "2022-11-11T17:26:47.225220",
      "2022-11-11T17:26:49.076408",
      "2022-11-11T17:26:50.896588",
      "2022-11-11T17:26:52.716957",
      "2022-11-11T17:26:54.539813",
      "2022-11-11T17:26:56.363025",
      "2022-11-11T17:26:58.184935",
      "2022-11-11T17:27:00.004096",
      "2022-11-11T17:27:01.826142",
      "2022-11-11T17:27:03.647396",
      "2022-11-11T17:27:05.472106",
      "2022-11-11T17:27:07.331650",
      "2022-11-11T17:27:09.155840",
      "2022-11-11T17:27:10.981341",
      "2022-11-11T17:27:12.813312",
      "2022-11-11T17:27:14.632234",
      "2022-11-11T17:27:16.457104",
      "2022-11-11T17:27:18.284016",
      "2022-11-11T17:27:20.102901",
      "2022-11-11T17:27:21.928640",
      "2022-11-11T17:27:23.748885",
      "2022-11-11T17:27:25.595736",
      "2022-11-11T17:27:27.419821",
      "2022-11-11T17:27:29.240167",
      "2022-11-11T17:27:31.059404",
      "2022-11-11T17:27:32.888083",
      "2022-11-11T17:27:34.707697",
      "2022-11-11T17:27:36.529798",
      "2022-11-11T17:27:38.351523",
      "2022-11-11T17:27:40.167314",
      "2022-11-11T17:27:41.992708",
      "2022-11-11T17:27:43.848515",
      "2022-11-11T17:27:45.666200",
      "2022-11-11T17:27:47.490425",
      "2022-11-11T17:27:49.311211",
      "2022-11-11T17:27:51.130378",
      "2022-11-11T17:27:52.955705",
      "2022-11-11T17:27:54.775409",
      "2022-11-11T17:27:56.599388",
      "2022-11-11T17:27:58.429485",
      "2022-11-11T17:28:00.250868",
      "2022-11-11T17:28:02.111426",
      "2022-11-11T17:28:03.936406",
      "2022-11-11T17:28:05.756386",
      "2022-11-11T17:28:07.581099",
      "2022-11-11T17:28:09.403401",
      "2022-11-11T17:28:11.220991",
      "2022-11-11T17:28:13.052987",
      "2022-11-11T17:28:14.872872",
      "2022-11-11T17:28:16.688378",
      "2022-11-11T17:28:18.513490",
      "2022-11-11T17:28:20.364718",
      "2022-11-11T17:28:22.183789",
      "2022-11-11T17:28:24.006649",
      "2022-11-11T17:28:25.827148",
      "2022-11-11T17:28:27.645118",
      "2022-11-11T17:28:29.467184",
      "2022-11-11T17:28:31.286047",
      "2022-11-11T17:28:33.114144",
      "2022-11-11T17:28:34.940214",
      "2022-11-11T17:28:36.761182",
      "2022-11-11T17:28:38.620701",
      "2022-11-11T17:28:40.448689",
      "2022-11-11T17:28:42.274842",
      "2022-11-11T17:28:44.094896",
      "2022-11-11T17:28:45.915517",
      "2022-11-11T17:28:47.733370",
      "2022-11-11T17:28:49.555500",
      "2022-11-11T17:28:51.376010",
      "2022-11-11T17:28:53.195248",
      "2022-11-11T17:28:55.014776",
      "2022-11-11T17:28:56.866020",
      "2022-11-11T17:28:58.688623",
      "2022-11-11T17:29:00.510271",
      "2022-11-11T17:29:02.341258",
      "2022-11-11T17:29:04.163464",
      "2022-11-11T17:29:05.984860",
      "2022-11-11T17:29:07.809056",
      "2022-11-11T17:29:09.629034",
      "2022-11-11T17:29:11.455007",
      "2022-11-11T17:29:13.284811",
      "2022-11-11T17:29:15.136138",
      "2022-11-11T17:29:16.959908",
      "2022-11-11T17:29:18.783398",
      "2022-11-11T17:29:20.603733",
      "2022-11-11T17:29:22.430515",
      "2022-11-11T17:29:24.251441",
      "2022-11-11T17:29:26.072489",
      "2022-11-11T17:29:27.897768",
      "2022-11-11T17:29:29.718481",
      "2022-11-11T17:29:31.538977",
      "2022-11-11T17:29:33.400970",
      "2022-11-11T17:29:35.221455",
      "2022-11-11T17:29:37.042253",
      "2022-11-11T17:29:38.865971",
      "2022-11-11T17:29:40.682891",
      "2022-11-11T17:29:42.509749",
      "2022-11-11T17:29:44.329446",
      "2022-11-11T17:29:46.145670",
      "2022-11-11T17:29:47.967696",
      "2022-11-11T17:29:49.784124"
    ],
    "values": [
      206.52085928049465,
      168.4713079015433,
      110.47245464971044,
      80.61431290812862,
      64.67350881162584,
      59.9070679217307,
      56.79457659503836,
      54.21663882765796,
      50.988544011111806,
      50.86696107270906,
      48.57954386898976,
      49.00750948638305,
      47.665653847010255,
      46.989974363457364,
      48.138067987760806,
      46.22533798193827,
      45.987478296582495,
      45.5255366285018,
      45.26317155871163,
      45.2752036927242,
      44.98306725598645,
      45.17185614473057,
      44.48579306303843,
      44.34347810590098,
      44.30446585876494,
      44.72359293839541,
      44.485595717190776,
      44.05458411972986,
      44.04482114019139,
      43.72651305932403,
      43.69626067865157,
      43.91673056550794,
      43.54357669931955,
      43.42205586999188,
      43.43177462277394,
      43.28548102947731,
      43.33442206246404,
      44.01289961024324,
      43.4402484774604,
      43.1430240251383,
      43.81000067042893,
      43.12713543309452,
      42.995744560064836,
      43.00180708707076,
      42.96669661194876,
      43.98348797686604,
      43.394297093973464,
      42.78016532566904,
      42.962993841274475,
      42.89131234891139,
      44.00549380138957,
      42.602519004081024,
      42.72572281166042,
      42.60672616544291,
      43.05662600126337,
      42.76495259691626,
      42.62591747395261,
      42.432447540013825,
      43.07183465925347,
      42.48685843980163,
      42.631794253336864,
      42.58957290491666,
      42.440026078119544,
      42.92019783418926,
      42.32005092197115,
      43.81950155302469,
      42.11617141464256,
      42.45634503813172,
      42.37208610634906,
      42.66515141999084,
      42.28919247098866,
      42.475844495906536,
      44.22767081598247,
      42.313348111358884,
      42.15113317512233,
      42.278311660049425,
      42.392921444822434,
      42.609728360259325,
      41.88635198121139,
      41.76107630065586,
      41.78780948921588,
      41.75954629215262,
      41.931262201547646,
      42.12343259284006,
      41.8426938174204,
      41.344917879459395,
      42.11691089447653,
      41.40309044427723,
      41.20998527001984,
      41.367809225479576,
      42.39841426729993,
      41.802427466959216,
      40.96884975031904,
      41.16325661507246,
      41.644212749168275,
      40.947630424599495,
      41.095057887313075,
      41.57191625481396,
      40.570474407532494,
      41.15754519556343,
      40.75593546308799,
      40.48943431645034,
      40.55683602515556,
      42.340141726060835,
      40.3750667158745,
      40.944210364948525,
      40.29527612691239,
      40.8264577707683,
      40.230367555781626,
      40.238943973585506,
      40.27477001440563,
      40.20134522499223,
      40.08239059619779,
      40.19481182044417,
      40.31702812034271,
      40.239462790285216,
      40.1262547281628,
      39.81725241639743,
      40.13848404868944,
      40.23326929265359,
      40.15459269665738,
      40.11836374665383,
      39.89152399777043,
      40.27700161857591,
      39.84865415674792,
      40.34353332373949,
      40.762393007791005,
      40.17399044782373,
      40.484240998325916,
      39.788651978656176,
      39.79105183857687,
      39.80654284616329,
      39.688978161424565,
      39.755842644335544,
      39.435602772055205,
      39.64874800657803,
      39.69197199249804,
      39.603599773161214,
      39.88232556579063,
      39.85304182345688,
      39.584809413161494,
      39.78919253273834,
      39.94572958786499,
      40.14683409583737,
      39.47148847448848,
      39.80285879183111,
      39.51874003736627,
      39.508825870159974,
      39.44238487931281,
      39.87542844872807,
      39.88669238809469,
      40.231071490522254,
      39.36177865281464,
      39.88810752557315,
      39.55625964701271,
      39.99270001238274,
      39.960841036011836,
      39.41436928992259,
      39.693420158522954,
      39.73131507246556,
      39.843115270401455,
      39.51012701632137,
      39.368466737009975,
      39.59142946713021,
      39.46340121969483,
      39.842040728606285,
      39.4773202422338,
      39.763599067897374,
      39.19157634895074,
      39.34007526470704,
      39.35082988399629,
      39.828724598401344,
      39.24659729120152,
      39.204409252975196,
      39.58539334721009,
      39.07826430147287,
      39.41590816583609,
      39.27563647889154,
      39.66856649079563,
      39.345201820109594,
      39.59312493414873,
      39.71502838434581,
      39.40855285266166,
      39.567597865905284,
      39.71349147538243,
      39.47595193654202,
      39.08614321275142,
      39.30888691334752,
      39.49966906937941,
      39.67359463318566,
      39.480826941669974,
      39.30173451324823,
      39.58508650374995,
      39.12322645578924,
      39.51105057397416,
      39.53126317419116,
      39.606323152546146,
      39.56086263306629,
      39.34242317013464,
      39.05347492702749,
      39.36192747368851,
      39.143847418100826,
      39.536018779859035,
      40.187567886867164,
      39.043903807292,
      39.22061291818835,
      39.07709707169554,
      39.17918973938615,
      39.05331180656728,
      39.72719380324046,
      39.13583260847193,
      39.508531318933095,
      39.70224043507217,
      39.45407932286899,
      38.36633832597575,
      38.36347643104788,
      38.30289206802053,
      38.29700116679587,
      38.33569635418268,
      38.297497425256445,
      38.34039092307069,
      38.34455889516,
      38.28046851037339,
      38.31009416515177,
      38.27753228504319,
      38.32957092670783,
      38.257014931887696,
      38.32997301870615,
      38.309609444618836,
      38.28138878715993,
      38.274593317163486,
      38.25077621334252,
      38.22504930997481,
      38.414212981913664,
      38.26035533125376,
      38.317289263570835,
      38.249082255589926,
      38.271818624340035,
      38.24231417519938,
      38.2700934584569,
      38.27684733758081,
      38.25627062350556,
      38.24420842832617,
      38.26708508598405,
      38.26670222104495,
      38.305389249102376,
      38.225773081896094,
      38.2262044644269,
      38.253237121030736,
      38.29281348889591,
      38.257917256577585,
      38.247735762116484,
      38.2403666396696,
      38.21253863832767,
      38.253560925092124,
      38.28244227020563,
      38.259280891389274,
      38.255639655908546,
      38.23511028979056,
      38.19960367411292,
      38.20138175896236,
      38.32510287381776,
      38.26174516210547,
      38.186851366653514,
      38.29370613073921,
      38.392369118694646,
      38.17838112172996,
      38.22305479935837,
      38.26447402470659,
      38.1683164111545,
      38.254529054628144,
      38.193582732351224,
      38.20149120111296,
      38.293116547893845,
      38.18754135287484,
      38.219710524411326,
      38.140829785989766,
      38.13032645284808,
      38.14809942167322,
      38.123091262892565,
      38.11225356219983,
      38.141417202413244,
      38.13122861746532,
      38.103784028563794,
      38.129754817787344,
      38.131294530966144,
      38.167340486479674,
      38.115653142252846,
      38.09149540258157,
      38.12110113533517,
      38.11559032240625,
      38.15222646066179,
      38.117667313540124,
      38.12562133989279,
      38.12662085343116,
      38.147575563308955,
      38.11280073229348,
      38.120363972862705,
      38.114472428546506,
      38.13081889373804,
      38.147698613026634,
      38.11230407186563,
      38.10619139681866,
      38.123753353060295,
      38.11343122593352,
      38.11042729358326,
      38.13058125574704,
      38.1152294943323,
      38.124690109165165,
      38.12531840514838,
      38.1338233726276,
      38.101406306913155,
      38.110177950181225,
      38.14028481669504,
      38.15990076549016,
      38.117849174275136,
      38.11340971935344,
      38.10892625176576,
      38.112671554749525,
      38.125816876051545,
      38.12136052259042,
      38.100282999124744,
      38.09511422330182,
      38.10350256187397,
      38.11176573725155,
      38.09049757580642,
      38.12656222592017,
      38.09112936614291,
      38.084748325312,
      38.12679269466748,
      38.10098949824882,
      38.08831097219054,
      38.08460601574435,
      38.10985114458071,
      38.120377284254424,
      38.12586998164439,
      38.09630426563432,
      38.111673542362915,
      38.129405595832516,
      38.124003713347776,
      38.11062647954893,
      38.10545929161099,
      38.12756351305828,
      38.137057966901885,
      38.12468746097993,
      38.103453863883445,
      38.10136536193896,
      38.09836269513294,
      38.13462697478619,
      38.112161438014574,
      38.093955285766306,
      38.099005925740265,
      38.11541710664505,
      38.13934713105219,
      38.13806461209593,
      38.13330063658164,
      38.1231756334187,
      38.08803274415883,
      38.06085076105802,
      38.09471230875499,
      38.08298885811145,
      38.10539886633099,
      38.10511045887134,
      38.10843636145287,
      38.125039443348854,
      38.109281657281905,
      38.093694981309895,
      38.124036017502775,
      38.09466289780398,
      38.10968995529639,
      38.10745521295134,
      38.10234431435521,
      38.1186525556622,
      38.12191479717867,
      38.102426399067696,
      38.07983934484584,
      38.113241095515505,
      38.098173090398085,
      38.10900889116734,
      38.12066754750224,
      38.08606096499168,
      38.09974007400906,
      38.13328533506234,
      38.10668086086273,
      38.11589930597343,
      38.07923970783133,
      38.11089963414134,
      38.119260524431795,
      38.150380513920574,
      38.10050074464139,
      38.09176694408294,
      38.138861625406015,
      38.10524836983368,
      38.07064042820998,
      38.11520230882702,
      38.10339157630939,
      38.10630731224638,
      38.101804715887106,
      38.09309057707151,
      38.116898204111294,
      38.09460517158524,
      38.11797259195834,
      38.101322597634564,
      38.1118381397108,
      38.10417214171777,
      38.121837881793496,
      38.07784355796813,
      38.106012041347974,
      38.07673693498305,
      38.104006978958,
      38.07144276303451,
      38.08543149791179,
      38.08993192234956,
      38.11166872057525,
      38.11395997794687,
      38.12070175517427,
      38.101974465354594,
      38.07940448734731,
      38.11324977223226,
      38.11683773521506,
      38.10281573192023,
      38.11213365028458,
      38.109929039033474,
      38.11052387341436,
      38.09713757700553,
      38.10400492580724,
      38.125552635690845,
      38.12218175670248,
      38.08719188436887,
      38.109067911510195,
      38.0888380849914,
      38.10072821948186,
      38.085377216260405,
      38.09132834760672,
      38.118643912692406,
      38.12328974970207,
      38.112759007395134,
      38.11703491184152,
      38.11193844059245,
      38.11727526887677,
      38.10396902623766,
      38.115324293464056,
      38.08394573059322,
      38.10441090237754,
      38.094539408136995,
      38.11165931140327,
      38.1049869339175,
      38.105505147941535,
      38.08018461084796,
      38.11506079176088,
      38.09378077014479,
      38.110963865344836,
      38.11590254399363,
      38.11020747802847,
      38.126320264200544,
      38.10207901215654,
      38.10820197143042,
      38.10560947591637,
      38.119725747955115,
      38.107916388880994,
      38.12317968361081,
      38.11144947724041,
      38.12102836902712,
      38.11624466741972,
      38.127511937570745,
      38.111799438645164,
      38.09340096241592,
      38.09664682603555,
      38.09977109709895,
      38.101710495757416,
      38.12006628074507,
      38.13087729880361,
      38.12623668058834,
      38.08976674527288,
      38.091329406587406,
      38.09730822678118,
      38.09396360824813,
      38.108687832746966,
      38.07856725396544,
      38.10291139925325,
      38.07327904185427,
      38.09163117097579,
      38.12335769301946,
      38.12408371803606,
      38.111151887099126,
      38.12546160049478,
      38.086916747921705,
      38.106717393478164,
      38.11908194502936,
      38.105497366482425,
      38.0821291713509,
      38.09789381314208,
      38.07862714328094,
      38.10269850317472,
      38.11941726626769,
      38.12173556939143,
      38.10486550772178,
      38.10502170897576,
      38.093705607063235,
      38.12381781124245
    ]
  }
}