{
  "artifacts": [],
  "command": "run",
  "experiment": {
    "base_dir": "/home/jmouton/Documents/MSc/Code/mouton-msc-code/src",
    "dependencies": [
      "numpy==1.21.2",
      "pandas==1.3.3",
      "sacred==0.8.2",
      "scikit-learn==1.0",
      "torch==1.9.1",
      "torchvision==0.2.2",
      "tqdm==4.62.3"
    ],
    "mainfile": "ex_maf_vae.py",
    "name": "maf_vae",
    "repositories": [
      {
        "commit": "449f6bd7788e4bc4c80b981fc8e461bd22782fd0",
        "dirty": true,
        "url": "git@git.cs.sun.ac.za:21054479/mouton-msc-code.git"
      },
      {
        "commit": "449f6bd7788e4bc4c80b981fc8e461bd22782fd0",
        "dirty": true,
        "url": "git@git.cs.sun.ac.za:21054479/mouton-msc-code.git"
      },
      {
        "commit": "449f6bd7788e4bc4c80b981fc8e461bd22782fd0",
        "dirty": true,
        "url": "git@git.cs.sun.ac.za:21054479/mouton-msc-code.git"
      },
      {
        "commit": "449f6bd7788e4bc4c80b981fc8e461bd22782fd0",
        "dirty": true,
        "url": "git@git.cs.sun.ac.za:21054479/mouton-msc-code.git"
      },
      {
        "commit": "449f6bd7788e4bc4c80b981fc8e461bd22782fd0",
        "dirty": true,
        "url": "git@git.cs.sun.ac.za:21054479/mouton-msc-code.git"
      },
      {
        "commit": "449f6bd7788e4bc4c80b981fc8e461bd22782fd0",
        "dirty": true,
        "url": "git@git.cs.sun.ac.za:21054479/mouton-msc-code.git"
      },
      {
        "commit": "449f6bd7788e4bc4c80b981fc8e461bd22782fd0",
        "dirty": true,
        "url": "git@git.cs.sun.ac.za:21054479/mouton-msc-code.git"
      },
      {
        "commit": "449f6bd7788e4bc4c80b981fc8e461bd22782fd0",
        "dirty": true,
        "url": "git@git.cs.sun.ac.za:21054479/mouton-msc-code.git"
      },
      {
        "commit": "449f6bd7788e4bc4c80b981fc8e461bd22782fd0",
        "dirty": true,
        "url": "git@git.cs.sun.ac.za:21054479/mouton-msc-code.git"
      },
      {
        "commit": "449f6bd7788e4bc4c80b981fc8e461bd22782fd0",
        "dirty": true,
        "url": "git@git.cs.sun.ac.za:21054479/mouton-msc-code.git"
      },
      {
        "commit": "449f6bd7788e4bc4c80b981fc8e461bd22782fd0",
        "dirty": true,
        "url": "git@git.cs.sun.ac.za:21054479/mouton-msc-code.git"
      },
      {
        "commit": "449f6bd7788e4bc4c80b981fc8e461bd22782fd0",
        "dirty": true,
        "url": "git@git.cs.sun.ac.za:21054479/mouton-msc-code.git"
      },
      {
        "commit": "449f6bd7788e4bc4c80b981fc8e461bd22782fd0",
        "dirty": true,
        "url": "git@git.cs.sun.ac.za:21054479/mouton-msc-code.git"
      },
      {
        "commit": "449f6bd7788e4bc4c80b981fc8e461bd22782fd0",
        "dirty": true,
        "url": "git@git.cs.sun.ac.za:21054479/mouton-msc-code.git"
      },
      {
        "commit": "449f6bd7788e4bc4c80b981fc8e461bd22782fd0",
        "dirty": true,
        "url": "git@git.cs.sun.ac.za:21054479/mouton-msc-code.git"
      },
      {
        "commit": "449f6bd7788e4bc4c80b981fc8e461bd22782fd0",
        "dirty": true,
        "url": "git@git.cs.sun.ac.za:21054479/mouton-msc-code.git"
      },
      {
        "commit": "449f6bd7788e4bc4c80b981fc8e461bd22782fd0",
        "dirty": true,
        "url": "git@git.cs.sun.ac.za:21054479/mouton-msc-code.git"
      },
      {
        "commit": "449f6bd7788e4bc4c80b981fc8e461bd22782fd0",
        "dirty": true,
        "url": "git@git.cs.sun.ac.za:21054479/mouton-msc-code.git"
      },
      {
        "commit": "449f6bd7788e4bc4c80b981fc8e461bd22782fd0",
        "dirty": true,
        "url": "git@git.cs.sun.ac.za:21054479/mouton-msc-code.git"
      },
      {
        "commit": "449f6bd7788e4bc4c80b981fc8e461bd22782fd0",
        "dirty": true,
        "url": "git@git.cs.sun.ac.za:21054479/mouton-msc-code.git"
      },
      {
        "commit": "449f6bd7788e4bc4c80b981fc8e461bd22782fd0",
        "dirty": true,
        "url": "git@git.cs.sun.ac.za:21054479/mouton-msc-code.git"
      },
      {
        "commit": "449f6bd7788e4bc4c80b981fc8e461bd22782fd0",
        "dirty": true,
        "url": "git@git.cs.sun.ac.za:21054479/mouton-msc-code.git"
      },
      {
        "commit": "449f6bd7788e4bc4c80b981fc8e461bd22782fd0",
        "dirty": true,
        "url": "git@git.cs.sun.ac.za:21054479/mouton-msc-code.git"
      },
      {
        "commit": "449f6bd7788e4bc4c80b981fc8e461bd22782fd0",
        "dirty": true,
        "url": "git@git.cs.sun.ac.za:21054479/mouton-msc-code.git"
      },
      {
        "commit": "449f6bd7788e4bc4c80b981fc8e461bd22782fd0",
        "dirty": true,
        "url": "git@git.cs.sun.ac.za:21054479/mouton-msc-code.git"
      },
      {
        "commit": "449f6bd7788e4bc4c80b981fc8e461bd22782fd0",
        "dirty": true,
        "url": "git@git.cs.sun.ac.za:21054479/mouton-msc-code.git"
      },
      {
        "commit": "449f6bd7788e4bc4c80b981fc8e461bd22782fd0",
        "dirty": true,
        "url": "git@git.cs.sun.ac.za:21054479/mouton-msc-code.git"
      }
    ],
    "sources": [
      [
        "data/load_data.py",
        "_sources/load_data_8a353d11ca4e2c0c7f00855ec5e0713e.py"
      ],
      [
        "ex_maf_vae.py",
        "_sources/ex_maf_vae_6d1ed4361b350bce98b297c6786d6040.py"
      ],
      [
        "ex_utils.py",
        "_sources/ex_utils_e801cd8e9e822240ea0ac103182a573b.py"
      ],
      [
        "graph/belief_network/__init__.py",
        "_sources/__init___28f74c83e5fc4adcc8214c9e6c61e39f.py"
      ],
      [
        "graph/belief_network/arithmetic_circuit.py",
        "_sources/arithmetic_circuit_ec0abd49c03618cf666a68ab74d2d95b.py"
      ],
      [
        "graph/belief_network/arithmetic_circuit2.py",
        "_sources/arithmetic_circuit2_766d490e9f4c762bd203e00feffc3a11.py"
      ],
      [
        "graph/belief_network/arth150.py",
        "_sources/arth150_c9149197fc30a8f259eda65dda82456f.py"
      ],
      [
        "graph/belief_network/bn.py",
        "_sources/bn_7907cdb518df03738b12cff9d1f3f47d.py"
      ],
      [
        "graph/belief_network/ecoli70.py",
        "_sources/ecoli70_be2340ea5a4ee6ecc9f914960e1be4fc.py"
      ],
      [
        "graph/belief_network/ecoli70_adapted.py",
        "_sources/ecoli70_adapted_1dd78385d082cbd6230e2c29b60bd764.py"
      ],
      [
        "graph/belief_network/ecoli70_adapted_transitive_min.py",
        "_sources/ecoli70_adapted_transitive_min_3b82e2381590fcc0025bf22218bb3420.py"
      ],
      [
        "graph/belief_network/ecoli70_adapted_transitive_random1.py",
        "_sources/ecoli70_adapted_transitive_random1_3f54678f5624121a65af8034800baaed.py"
      ],
      [
        "graph/belief_network/fc.py",
        "_sources/fc_1ac233dc0016001914a0e17c1c417554.py"
      ],
      [
        "graph/belief_network/gaussian_binary_tree.py",
        "_sources/gaussian_binary_tree_6a5e26bfdf8e2962214c17115673266e.py"
      ],
      [
        "graph/belief_network/gaussian_ternary_tree.py",
        "_sources/gaussian_ternary_tree_6b5d9696b413ef305c361599b94aa9e4.py"
      ],
      [
        "graph/belief_network/mehra.py",
        "_sources/mehra_f6166c6dfd1336019314b020fe5ca185.py"
      ],
      [
        "graph/belief_network/protein.py",
        "_sources/protein_c403264973b2532108b6aa9e8bfde266.py"
      ],
      [
        "graph/belief_network/protein_transitive_min.py",
        "_sources/protein_transitive_min_9d570b71d7fd5e9740b206053e96931b.py"
      ],
      [
        "graph/belief_network/protein_transitive_random1.py",
        "_sources/protein_transitive_random1_fef65ec71b91fd020abfa63458084bf0.py"
      ],
      [
        "graph/belief_network/random.py",
        "_sources/random_e6e07b421fbd5c0f440965559c376689.py"
      ],
      [
        "graph/belief_network/tree.py",
        "_sources/tree_a25706ba2a0e8c7754422109969d24e9.py"
      ],
      [
        "graph/belief_network/tree_transitive_min.py",
        "_sources/tree_transitive_min_460c4f80f094dedb93240eb47e91b199.py"
      ],
      [
        "graph/belief_network/tree_transitive_random1.py",
        "_sources/tree_transitive_random1_f6d9cb83f087e6b265e8f5af8a167244.py"
      ],
      [
        "graph/belief_network/two_spirals.py",
        "_sources/two_spirals_b64bc7d7f9bbb9f2952bac70c32ad669.py"
      ],
      [
        "graph/belief_network/vanilla.py",
        "_sources/vanilla_caf5c3d57d0fa511a34e0b85222ca9e4.py"
      ],
      [
        "modules/__init__.py",
        "_sources/__init___eac46f424a64c54c5d2650eae0c452ec.py"
      ],
      [
        "modules/factory.py",
        "_sources/factory_ab22ea416c168190466417ad3bc4e327.py"
      ]
    ]
  },
  "heartbeat": "2023-03-13T16:13:49.682637",
  "host": {
    "ENV": {},
    "cpu": "11th Gen Intel(R) Core(TM) i9-11900 @ 2.50GHz",
    "gpus": {
      "driver_version": "470.63.01",
      "gpus": [
        {
          "model": "NVIDIA GeForce RTX 3070",
          "persistence_mode": false,
          "total_memory": 7973
        }
      ]
    },
    "hostname": "clg-518788",
    "os": [
      "Linux",
      "Linux-5.11.0-37-generic-x86_64-with-glibc2.10"
    ],
    "python_version": "3.8.12"
  },
  "meta": {
    "command": "run",
    "options": {
      "--beat-interval": null,
      "--capture": null,
      "--comment": null,
      "--debug": false,
      "--enforce_clean": false,
      "--file_storage": null,
      "--force": false,
      "--help": false,
      "--loglevel": null,
      "--mongo_db": null,
      "--name": null,
      "--pdb": false,
      "--print-config": false,
      "--priority": null,
      "--queue": false,
      "--s3": null,
      "--sql": null,
      "--tiny_db": null,
      "--unobserved": false,
      "COMMAND": null,
      "UPDATE": [
        "bn=arithmetic-circuit2",
        "num_epochs=400",
        "lr=1e-3",
        "patience=10",
        "seed=1"
      ],
      "help": false,
      "with": true
    }
  },
  "resources": [],
  "result": null,
  "start_time": "2023-03-13T16:09:34.492453",
  "status": "COMPLETED",
  "stop_time": "2023-03-13T16:13:49.680983"
}