{
  "batch_size": 100,
  "bn": "arth150-synth",
  "checkpoint_n": 10,
  "condition_sigma": true,
  "decoder_hidden_dims": [
    200
  ],
  "dreg": false,
  "encoder_hidden_dims": [
    200
  ],
  "ex_name": "vanilla_vae",
  "iw": false,
  "k": 1,
  "load_from_checkpoint": true,
  "lr": 0.001,
  "normalize": false,
  "num_epochs": 1000,
  "num_train_batches": 100,
  "num_train_samples": 10000,
  "num_val_batches": 50,
  "num_val_samples": 5000,
  "path": "./experiment_logs/vanilla_vae/arth150-synth/[200]_[200]",
  "patience": 20,
  "plotting_range": null,
  "run": 8,
  "save_checkpoints": false,
  "seed": 7,
  "sub_folder": "[200]_[200]"
}