INFO - residual_nf - Running command 'run'
INFO - residual_nf - Started run with ID "3"
[CONFIG] {'bn': 'mehra-real', 'structure': 'faithful', 'coeff': 0.99, 'n_power_iterations': 5, 'num_blocks': 12, 'hidden_dims': [100], 'activation': 'lipswish', 'grad_in_forward': True, 'batch_size': 100, 'num_train_samples': 10000, 'num_val_samples': 5000, 'num_epochs': 300, 'num_train_batches': 100, 'num_val_batches': 50, 'lr': 0.01, 'seed': 2, 'patience': 20, 'double': True, 'run': 1, 'checkpoint_n': 10, 'load_from_checkpoint': False, 'ex_name': 'residual_nf_density_estimation', 'sub_folder': 'faithful_99_lipswish_12_[100]', 'path': './experiment_logs/residual_nf_density_estimation/mehra-real/faithful_99_lipswish_12_[100]', 'bt_config': {'depth': 5, 'seed': 4}}
[DEVICE] cpu
[LOADING DATA] Mehra
[ENCODED STRUCTURE] Using faithful BN structure.
  0%|          | 0/300 [00:00<?, ?it/s]Train NLL: 12.258, Val NLL: 11.718:   0%|          | 1/300 [00:03<15:36,  3.13s/it]Train NLL: 11.695, Val NLL: 11.588:   1%|          | 2/300 [00:05<13:03,  2.63s/it]Train NLL: 11.529, Val NLL: 11.366:   1%|          | 3/300 [00:07<11:43,  2.37s/it]Train NLL: 11.451, Val NLL: 11.325:   1%|▏         | 4/300 [00:09<11:05,  2.25s/it]Train NLL: 11.379, Val NLL: 11.317:   2%|▏         | 5/300 [00:11<11:03,  2.25s/it]Train NLL: 11.383, Val NLL: 11.324:   2%|▏         | 6/300 [00:14<11:18,  2.31s/it]Train NLL: 11.329, Val NLL: 11.195:   2%|▏         | 7/300 [00:16<10:53,  2.23s/it]Train NLL: 11.295, Val NLL: 11.180:   3%|▎         | 8/300 [00:18<10:32,  2.17s/it]Train NLL: 11.270, Val NLL: 11.323:   3%|▎         | 9/300 [00:20<10:35,  2.19s/it]Train NLL: 11.298, Val NLL: 11.165:   3%|▎         | 10/300 [00:23<11:13,  2.32s/it]Train NLL: 11.242, Val NLL: 11.142:   4%|▎         | 11/300 [00:25<11:40,  2.42s/it]Train NLL: 11.198, Val NLL: 11.130:   4%|▍         | 12/300 [00:28<11:49,  2.46s/it]Train NLL: 11.172, Val NLL: 11.074:   4%|▍         | 13/300 [00:30<11:34,  2.42s/it]Train NLL: 11.183, Val NLL: 11.118:   5%|▍         | 14/300 [00:33<11:22,  2.39s/it]Train NLL: 11.146, Val NLL: 11.050:   5%|▌         | 15/300 [00:35<11:19,  2.38s/it]Train NLL: 11.161, Val NLL: 11.057:   5%|▌         | 16/300 [00:37<10:58,  2.32s/it]Train NLL: 11.129, Val NLL: 11.080:   6%|▌         | 17/300 [00:39<10:46,  2.28s/it]Train NLL: 11.242, Val NLL: 11.202:   6%|▌         | 18/300 [00:42<11:17,  2.40s/it]Train NLL: 11.162, Val NLL: 11.084:   6%|▋         | 19/300 [00:45<11:41,  2.49s/it]Train NLL: 11.119, Val NLL: 11.055:   7%|▋         | 20/300 [00:47<11:49,  2.54s/it]Train NLL: 11.109, Val NLL: 11.057:   7%|▋         | 21/300 [00:49<11:21,  2.44s/it]Train NLL: 11.133, Val NLL: 11.048:   7%|▋         | 22/300 [00:52<11:01,  2.38s/it]Train NLL: 11.100, Val NLL: 11.048:   8%|▊         | 23/300 [00:54<10:35,  2.29s/it]Train NLL: 11.083, Val NLL: 11.075:   8%|▊         | 24/300 [00:57<11:45,  2.56s/it]Train NLL: 11.082, Val NLL: 10.989:   8%|▊         | 25/300 [00:59<11:02,  2.41s/it]Train NLL: 11.109, Val NLL: 11.075:   9%|▊         | 26/300 [01:01<10:40,  2.34s/it]Train NLL: 11.079, Val NLL: 11.076:   9%|▉         | 27/300 [01:03<10:25,  2.29s/it]Train NLL: 11.071, Val NLL: 11.014:   9%|▉         | 28/300 [01:05<09:59,  2.21s/it]Train NLL: 11.044, Val NLL: 11.042:  10%|▉         | 29/300 [01:07<09:42,  2.15s/it]Train NLL: 11.064, Val NLL: 11.035:  10%|█         | 30/300 [01:09<09:32,  2.12s/it]Train NLL: 11.065, Val NLL: 11.045:  10%|█         | 31/300 [01:12<10:14,  2.29s/it]Train NLL: 11.054, Val NLL: 11.016:  11%|█         | 32/300 [01:15<10:43,  2.40s/it]Train NLL: 11.078, Val NLL: 11.008:  11%|█         | 33/300 [01:17<10:52,  2.44s/it]Train NLL: 11.035, Val NLL: 11.048:  11%|█▏        | 34/300 [01:20<11:00,  2.48s/it]Train NLL: 11.043, Val NLL: 10.982:  12%|█▏        | 35/300 [01:23<11:15,  2.55s/it]Train NLL: 11.036, Val NLL: 10.982:  12%|█▏        | 36/300 [01:25<10:42,  2.43s/it]Train NLL: 11.048, Val NLL: 10.996:  12%|█▏        | 37/300 [01:27<10:25,  2.38s/it]Train NLL: 11.029, Val NLL: 10.988:  13%|█▎        | 38/300 [01:29<10:12,  2.34s/it]Train NLL: 11.030, Val NLL: 10.963:  13%|█▎        | 39/300 [01:32<10:12,  2.35s/it]Train NLL: 11.037, Val NLL: 10.956:  13%|█▎        | 40/300 [01:34<10:47,  2.49s/it]Train NLL: 11.043, Val NLL: 11.100:  14%|█▎        | 41/300 [01:37<10:20,  2.39s/it]Train NLL: 11.060, Val NLL: 10.993:  14%|█▍        | 42/300 [01:39<10:39,  2.48s/it]Train NLL: 11.040, Val NLL: 10.992:  14%|█▍        | 43/300 [01:41<10:10,  2.37s/it]Train NLL: 11.023, Val NLL: 10.976:  15%|█▍        | 44/300 [01:44<09:58,  2.34s/it]Train NLL: 11.016, Val NLL: 11.012:  15%|█▌        | 45/300 [01:46<09:40,  2.28s/it]Train NLL: 11.007, Val NLL: 10.971:  15%|█▌        | 46/300 [01:48<09:23,  2.22s/it]Train NLL: 11.032, Val NLL: 10.972:  16%|█▌        | 47/300 [01:50<09:12,  2.18s/it]Train NLL: 11.014, Val NLL: 10.936:  16%|█▌        | 48/300 [01:52<09:13,  2.20s/it]Train NLL: 11.005, Val NLL: 10.965:  16%|█▋        | 49/300 [01:54<09:13,  2.20s/it]Train NLL: 11.028, Val NLL: 10.975:  17%|█▋        | 50/300 [01:57<09:02,  2.17s/it]Train NLL: 11.007, Val NLL: 10.985:  17%|█▋        | 51/300 [01:59<09:14,  2.23s/it]Train NLL: 11.000, Val NLL: 10.947:  17%|█▋        | 52/300 [02:01<09:17,  2.25s/it]Train NLL: 11.015, Val NLL: 10.997:  18%|█▊        | 53/300 [02:03<09:03,  2.20s/it]Train NLL: 11.012, Val NLL: 10.953:  18%|█▊        | 54/300 [02:05<08:51,  2.16s/it]Train NLL: 10.986, Val NLL: 10.961:  18%|█▊        | 55/300 [02:08<08:54,  2.18s/it]Train NLL: 10.992, Val NLL: 10.942:  19%|█▊        | 56/300 [02:10<08:59,  2.21s/it]Train NLL: 10.982, Val NLL: 10.933:  19%|█▉        | 57/300 [02:12<09:09,  2.26s/it]Train NLL: 10.970, Val NLL: 10.947:  19%|█▉        | 58/300 [02:15<09:22,  2.33s/it]Train NLL: 11.011, Val NLL: 11.020:  20%|█▉        | 59/300 [02:17<09:02,  2.25s/it]Train NLL: 11.018, Val NLL: 10.961:  20%|██        | 60/300 [02:19<08:46,  2.19s/it]Train NLL: 10.991, Val NLL: 10.931:  20%|██        | 61/300 [02:21<08:46,  2.20s/it]Train NLL: 10.982, Val NLL: 10.923:  21%|██        | 62/300 [02:23<08:50,  2.23s/it]Train NLL: 10.990, Val NLL: 10.975:  21%|██        | 63/300 [02:25<08:37,  2.19s/it]Train NLL: 11.016, Val NLL: 11.052:  21%|██▏       | 64/300 [02:28<08:25,  2.14s/it]Train NLL: 10.986, Val NLL: 10.905:  22%|██▏       | 65/300 [02:30<08:18,  2.12s/it]Train NLL: 11.002, Val NLL: 10.931:  22%|██▏       | 66/300 [02:32<08:19,  2.13s/it]Train NLL: 10.989, Val NLL: 10.976:  22%|██▏       | 67/300 [02:34<08:25,  2.17s/it]Train NLL: 10.992, Val NLL: 10.945:  23%|██▎       | 68/300 [02:36<08:11,  2.12s/it]Train NLL: 10.988, Val NLL: 10.988:  23%|██▎       | 69/300 [02:38<08:01,  2.08s/it]Train NLL: 10.999, Val NLL: 10.936:  23%|██▎       | 70/300 [02:40<08:00,  2.09s/it]Train NLL: 10.974, Val NLL: 10.913:  24%|██▎       | 71/300 [02:42<08:07,  2.13s/it]Train NLL: 10.972, Val NLL: 10.923:  24%|██▍       | 72/300 [02:45<08:11,  2.15s/it]Train NLL: 10.977, Val NLL: 10.995:  24%|██▍       | 73/300 [02:47<08:00,  2.12s/it]Train NLL: 10.964, Val NLL: 10.940:  25%|██▍       | 74/300 [02:49<07:51,  2.08s/it]Train NLL: 10.966, Val NLL: 10.904:  25%|██▌       | 75/300 [02:51<07:45,  2.07s/it]Train NLL: 10.975, Val NLL: 10.947:  25%|██▌       | 76/300 [02:54<08:51,  2.37s/it]Train NLL: 10.973, Val NLL: 10.948:  26%|██▌       | 77/300 [02:56<08:27,  2.28s/it]Train NLL: 10.965, Val NLL: 10.981:  26%|██▌       | 78/300 [02:58<08:13,  2.22s/it]Train NLL: 10.963, Val NLL: 10.898:  26%|██▋       | 79/300 [03:00<08:02,  2.18s/it]Train NLL: 10.965, Val NLL: 10.940:  27%|██▋       | 80/300 [03:03<08:36,  2.35s/it]Train NLL: 10.949, Val NLL: 10.963:  27%|██▋       | 81/300 [03:05<08:22,  2.29s/it]Train NLL: 10.954, Val NLL: 10.908:  27%|██▋       | 82/300 [03:07<08:09,  2.24s/it]Train NLL: 10.949, Val NLL: 10.920:  28%|██▊       | 83/300 [03:10<08:38,  2.39s/it]Train NLL: 10.983, Val NLL: 10.931:  28%|██▊       | 84/300 [03:12<08:36,  2.39s/it]Train NLL: 10.965, Val NLL: 10.903:  28%|██▊       | 85/300 [03:14<08:23,  2.34s/it]Train NLL: 10.944, Val NLL: 10.908:  29%|██▊       | 86/300 [03:16<08:03,  2.26s/it]Train NLL: 10.949, Val NLL: 10.916:  29%|██▉       | 87/300 [03:18<07:50,  2.21s/it]Train NLL: 10.995, Val NLL: 10.911:  29%|██▉       | 88/300 [03:21<07:39,  2.17s/it]Train NLL: 10.954, Val NLL: 10.888:  30%|██▉       | 89/300 [03:23<07:43,  2.19s/it]Train NLL: 10.934, Val NLL: 10.919:  30%|███       | 90/300 [03:25<07:44,  2.21s/it]Train NLL: 10.947, Val NLL: 10.924:  30%|███       | 91/300 [03:27<07:38,  2.19s/it]Train NLL: 10.957, Val NLL: 10.966:  31%|███       | 92/300 [03:30<07:50,  2.26s/it]Train NLL: 10.968, Val NLL: 10.899:  31%|███       | 93/300 [03:32<07:55,  2.30s/it]Train NLL: 10.938, Val NLL: 10.918:  31%|███▏      | 94/300 [03:34<07:40,  2.24s/it]Train NLL: 10.970, Val NLL: 10.902:  32%|███▏      | 95/300 [03:36<07:27,  2.18s/it]Train NLL: 10.934, Val NLL: 10.927:  32%|███▏      | 96/300 [03:38<07:17,  2.14s/it]Train NLL: 10.953, Val NLL: 10.913:  32%|███▏      | 97/300 [03:40<07:08,  2.11s/it]Train NLL: 10.964, Val NLL: 10.890:  33%|███▎      | 98/300 [03:42<07:07,  2.12s/it]Train NLL: 10.931, Val NLL: 10.953:  33%|███▎      | 99/300 [03:45<07:09,  2.14s/it]Train NLL: 10.928, Val NLL: 10.903:  33%|███▎      | 100/300 [03:47<07:02,  2.11s/it]Train NLL: 10.949, Val NLL: 10.934:  34%|███▎      | 101/300 [03:49<06:56,  2.09s/it]Train NLL: 10.938, Val NLL: 10.895:  34%|███▍      | 102/300 [03:52<07:41,  2.33s/it]Train NLL: 10.929, Val NLL: 10.907:  34%|███▍      | 103/300 [03:54<07:46,  2.37s/it]Train NLL: 10.945, Val NLL: 11.011:  35%|███▍      | 104/300 [03:57<08:23,  2.57s/it]Train NLL: 10.966, Val NLL: 10.880:  35%|███▌      | 105/300 [03:59<08:04,  2.48s/it]Train NLL: 10.924, Val NLL: 10.894:  35%|███▌      | 106/300 [04:01<07:42,  2.38s/it]Train NLL: 10.940, Val NLL: 10.902:  36%|███▌      | 107/300 [04:04<07:30,  2.33s/it]Train NLL: 10.926, Val NLL: 10.916:  36%|███▌      | 108/300 [04:06<07:11,  2.25s/it]Train NLL: 10.938, Val NLL: 10.922:  36%|███▋      | 109/300 [04:08<06:57,  2.19s/it]Train NLL: 10.923, Val NLL: 10.885:  37%|███▋      | 110/300 [04:10<06:48,  2.15s/it]Train NLL: 10.930, Val NLL: 10.933:  37%|███▋      | 111/300 [04:12<06:45,  2.15s/it]Train NLL: 10.974, Val NLL: 10.941:  37%|███▋      | 112/300 [04:14<06:47,  2.17s/it]Train NLL: 10.938, Val NLL: 10.920:  38%|███▊      | 113/300 [04:16<06:44,  2.16s/it]Train NLL: 10.929, Val NLL: 10.957:  38%|███▊      | 114/300 [04:18<06:37,  2.14s/it]Train NLL: 10.944, Val NLL: 10.903:  38%|███▊      | 115/300 [04:21<06:35,  2.14s/it]Train NLL: 10.938, Val NLL: 10.920:  39%|███▊      | 116/300 [04:23<06:45,  2.21s/it]Train NLL: 10.934, Val NLL: 10.921:  39%|███▉      | 117/300 [04:25<06:51,  2.25s/it]Train NLL: 10.926, Val NLL: 10.910:  39%|███▉      | 118/300 [04:28<06:46,  2.24s/it]Train NLL: 10.946, Val NLL: 10.910:  40%|███▉      | 119/300 [04:30<06:42,  2.23s/it]Train NLL: 10.928, Val NLL: 10.890:  40%|████      | 120/300 [04:32<06:53,  2.30s/it]Train NLL: 10.976, Val NLL: 10.975:  40%|████      | 121/300 [04:35<06:54,  2.32s/it]Train NLL: 10.939, Val NLL: 10.911:  41%|████      | 122/300 [04:37<06:46,  2.29s/it]Train NLL: 10.920, Val NLL: 10.885:  41%|████      | 123/300 [04:39<06:47,  2.30s/it]Train NLL: 10.932, Val NLL: 10.914:  41%|████▏     | 124/300 [04:41<06:43,  2.29s/it]Train NLL: 10.910, Val NLL: 10.884:  42%|████▏     | 125/300 [04:44<07:13,  2.48s/it]Train NLL: 10.922, Val NLL: 10.882:  42%|████▏     | 126/300 [04:47<07:10,  2.47s/it]Train NLL: 10.922, Val NLL: 10.914:  42%|████▏     | 127/300 [04:49<07:07,  2.47s/it]Train NLL: 10.922, Val NLL: 10.932:  43%|████▎     | 128/300 [04:52<07:09,  2.50s/it]Train NLL: 10.946, Val NLL: 10.903:  43%|████▎     | 129/300 [04:54<07:02,  2.47s/it]Train NLL: 10.917, Val NLL: 10.911:  43%|████▎     | 130/300 [04:56<06:38,  2.34s/it]Train NLL: 10.929, Val NLL: 10.938:  44%|████▎     | 131/300 [04:58<06:24,  2.27s/it]Train NLL: 10.939, Val NLL: 10.972:  44%|████▍     | 132/300 [05:00<06:12,  2.22s/it]Train NLL: 10.939, Val NLL: 10.904:  44%|████▍     | 133/300 [05:03<06:04,  2.18s/it]Train NLL: 10.906, Val NLL: 10.898:  45%|████▍     | 134/300 [05:05<05:54,  2.13s/it]Train NLL: 10.911, Val NLL: 10.903:  45%|████▌     | 135/300 [05:07<05:56,  2.16s/it]Train NLL: 10.940, Val NLL: 10.922:  45%|████▌     | 136/300 [05:09<06:20,  2.32s/it]Train NLL: 10.927, Val NLL: 10.933:  46%|████▌     | 137/300 [05:12<06:32,  2.41s/it]Train NLL: 10.923, Val NLL: 10.914:  46%|████▌     | 138/300 [05:15<07:06,  2.63s/it]Train NLL: 10.916, Val NLL: 10.877:  46%|████▋     | 139/300 [05:17<06:41,  2.50s/it]Train NLL: 10.913, Val NLL: 10.869:  47%|████▋     | 140/300 [05:19<06:15,  2.35s/it]Train NLL: 10.931, Val NLL: 10.973:  47%|████▋     | 141/300 [05:21<05:58,  2.26s/it]Train NLL: 10.948, Val NLL: 10.965:  47%|████▋     | 142/300 [05:24<05:51,  2.23s/it]Train NLL: 10.910, Val NLL: 10.888:  48%|████▊     | 143/300 [05:26<05:37,  2.15s/it]Train NLL: 10.903, Val NLL: 10.899:  48%|████▊     | 144/300 [05:28<05:25,  2.09s/it]Train NLL: 10.888, Val NLL: 10.864:  48%|████▊     | 145/300 [05:29<05:17,  2.05s/it]Train NLL: 10.916, Val NLL: 10.942:  49%|████▊     | 146/300 [05:32<05:55,  2.31s/it]Train NLL: 10.921, Val NLL: 10.971:  49%|████▉     | 147/300 [05:35<06:08,  2.41s/it]Train NLL: 10.922, Val NLL: 10.963:  49%|████▉     | 148/300 [05:37<05:51,  2.31s/it]Train NLL: 10.920, Val NLL: 10.875:  50%|████▉     | 149/300 [05:39<05:34,  2.21s/it]Train NLL: 10.895, Val NLL: 10.864:  50%|█████     | 150/300 [05:41<05:24,  2.17s/it]Train NLL: 10.903, Val NLL: 10.880:  50%|█████     | 151/300 [05:43<05:20,  2.15s/it]Train NLL: 10.927, Val NLL: 10.894:  51%|█████     | 152/300 [05:45<05:12,  2.11s/it]Train NLL: 10.919, Val NLL: 10.932:  51%|█████     | 153/300 [05:47<05:04,  2.07s/it]Train NLL: 10.959, Val NLL: 10.925:  51%|█████▏    | 154/300 [05:49<04:58,  2.04s/it]Train NLL: 10.917, Val NLL: 10.925:  52%|█████▏    | 155/300 [05:51<04:59,  2.07s/it]Train NLL: 10.920, Val NLL: 10.913:  52%|█████▏    | 156/300 [05:54<05:13,  2.18s/it]Train NLL: 10.902, Val NLL: 10.902:  52%|█████▏    | 157/300 [05:56<05:07,  2.15s/it]Train NLL: 10.896, Val NLL: 10.897:  53%|█████▎    | 158/300 [05:58<04:59,  2.11s/it]Train NLL: 10.919, Val NLL: 10.922:  53%|█████▎    | 159/300 [06:00<05:01,  2.14s/it]Train NLL: 10.911, Val NLL: 10.876:  53%|█████▎    | 160/300 [06:03<05:21,  2.30s/it]Train NLL: 10.919, Val NLL: 10.895:  54%|█████▎    | 161/300 [06:05<05:30,  2.38s/it]Train NLL: 10.913, Val NLL: 10.982:  54%|█████▍    | 162/300 [06:08<05:32,  2.41s/it]Train NLL: 10.921, Val NLL: 10.887:  54%|█████▍    | 163/300 [06:10<05:34,  2.44s/it]Train NLL: 10.905, Val NLL: 10.949:  55%|█████▍    | 164/300 [06:13<05:37,  2.48s/it]Train NLL: 10.895, Val NLL: 10.895:  55%|█████▌    | 165/300 [06:16<05:51,  2.60s/it]Epoch   166: reducing learning rate of group 0 to 1.0000e-03.
Train NLL: 10.910, Val NLL: 10.911:  55%|█████▌    | 166/300 [06:19<06:03,  2.71s/it]Train NLL: 10.843, Val NLL: 10.842:  56%|█████▌    | 167/300 [06:21<05:35,  2.52s/it]Train NLL: 10.825, Val NLL: 10.851:  56%|█████▌    | 168/300 [06:23<05:20,  2.43s/it]Train NLL: 10.824, Val NLL: 10.839:  56%|█████▋    | 169/300 [06:25<05:08,  2.36s/it]Train NLL: 10.822, Val NLL: 10.838:  57%|█████▋    | 170/300 [06:27<04:58,  2.29s/it]Train NLL: 10.823, Val NLL: 10.838:  57%|█████▋    | 171/300 [06:30<05:08,  2.39s/it]Train NLL: 10.823, Val NLL: 10.833:  57%|█████▋    | 172/300 [06:33<05:19,  2.50s/it]Train NLL: 10.822, Val NLL: 10.834:  58%|█████▊    | 173/300 [06:35<05:17,  2.50s/it]Train NLL: 10.822, Val NLL: 10.837:  58%|█████▊    | 174/300 [06:37<05:01,  2.39s/it]Train NLL: 10.822, Val NLL: 10.834:  58%|█████▊    | 175/300 [06:40<05:02,  2.42s/it]Train NLL: 10.820, Val NLL: 10.835:  59%|█████▊    | 176/300 [06:42<04:47,  2.32s/it]Train NLL: 10.822, Val NLL: 10.832:  59%|█████▉    | 177/300 [06:44<04:34,  2.23s/it]Train NLL: 10.819, Val NLL: 10.841:  59%|█████▉    | 178/300 [06:47<04:46,  2.35s/it]Train NLL: 10.822, Val NLL: 10.834:  60%|█████▉    | 179/300 [06:49<04:47,  2.37s/it]Train NLL: 10.818, Val NLL: 10.838:  60%|██████    | 180/300 [06:51<04:35,  2.30s/it]Train NLL: 10.820, Val NLL: 10.834:  60%|██████    | 181/300 [06:53<04:21,  2.20s/it]Train NLL: 10.822, Val NLL: 10.836:  61%|██████    | 182/300 [06:56<04:52,  2.48s/it]Train NLL: 10.820, Val NLL: 10.836:  61%|██████    | 183/300 [06:59<04:47,  2.45s/it]Train NLL: 10.817, Val NLL: 10.832:  61%|██████▏   | 184/300 [07:01<04:38,  2.40s/it]Train NLL: 10.818, Val NLL: 10.833:  62%|██████▏   | 185/300 [07:03<04:30,  2.35s/it]Train NLL: 10.818, Val NLL: 10.834:  62%|██████▏   | 186/300 [07:05<04:22,  2.31s/it]Train NLL: 10.816, Val NLL: 10.833:  62%|██████▏   | 187/300 [07:08<04:16,  2.27s/it]Train NLL: 10.816, Val NLL: 10.831:  63%|██████▎   | 188/300 [07:10<04:13,  2.27s/it]Train NLL: 10.818, Val NLL: 10.829:  63%|██████▎   | 189/300 [07:12<04:10,  2.25s/it]Train NLL: 10.816, Val NLL: 10.836:  63%|██████▎   | 190/300 [07:14<04:07,  2.25s/it]Train NLL: 10.818, Val NLL: 10.834:  64%|██████▎   | 191/300 [07:16<03:59,  2.20s/it]Train NLL: 10.818, Val NLL: 10.828:  64%|██████▍   | 192/300 [07:19<04:26,  2.47s/it]Train NLL: 10.817, Val NLL: 10.831:  64%|██████▍   | 193/300 [07:22<04:25,  2.48s/it]Train NLL: 10.816, Val NLL: 10.834:  65%|██████▍   | 194/300 [07:25<04:39,  2.64s/it]Train NLL: 10.818, Val NLL: 10.834:  65%|██████▌   | 195/300 [07:27<04:17,  2.45s/it]Train NLL: 10.815, Val NLL: 10.834:  65%|██████▌   | 196/300 [07:29<04:01,  2.32s/it]Train NLL: 10.817, Val NLL: 10.832:  66%|██████▌   | 197/300 [07:31<03:49,  2.23s/it]Train NLL: 10.816, Val NLL: 10.830:  66%|██████▌   | 198/300 [07:33<03:44,  2.20s/it]Train NLL: 10.815, Val NLL: 10.837:  66%|██████▋   | 199/300 [07:35<03:38,  2.16s/it]Train NLL: 10.815, Val NLL: 10.832:  67%|██████▋   | 200/300 [07:37<03:31,  2.11s/it]Train NLL: 10.815, Val NLL: 10.836:  67%|██████▋   | 201/300 [07:39<03:33,  2.15s/it]Train NLL: 10.815, Val NLL: 10.832:  67%|██████▋   | 202/300 [07:42<03:31,  2.15s/it]Train NLL: 10.817, Val NLL: 10.834:  68%|██████▊   | 203/300 [07:44<03:24,  2.11s/it]Train NLL: 10.814, Val NLL: 10.838:  68%|██████▊   | 204/300 [07:47<03:51,  2.41s/it]Train NLL: 10.815, Val NLL: 10.836:  68%|██████▊   | 205/300 [07:49<03:39,  2.31s/it]Train NLL: 10.813, Val NLL: 10.831:  69%|██████▊   | 206/300 [07:51<03:28,  2.22s/it]Train NLL: 10.813, Val NLL: 10.833:  69%|██████▉   | 207/300 [07:53<03:22,  2.18s/it]Train NLL: 10.815, Val NLL: 10.832:  69%|██████▉   | 208/300 [07:55<03:27,  2.26s/it]Train NLL: 10.814, Val NLL: 10.831:  70%|██████▉   | 209/300 [07:57<03:18,  2.18s/it]Train NLL: 10.813, Val NLL: 10.833:  70%|███████   | 210/300 [07:59<03:11,  2.13s/it]Train NLL: 10.816, Val NLL: 10.830:  70%|███████   | 211/300 [08:02<03:10,  2.14s/it]Train NLL: 10.814, Val NLL: 10.827:  71%|███████   | 212/300 [08:04<03:13,  2.20s/it]Train NLL: 10.812, Val NLL: 10.838:  71%|███████   | 213/300 [08:06<03:06,  2.15s/it]Train NLL: 10.814, Val NLL: 10.836:  71%|███████▏  | 214/300 [08:08<03:00,  2.10s/it]Train NLL: 10.813, Val NLL: 10.831:  72%|███████▏  | 215/300 [08:10<02:55,  2.07s/it]Train NLL: 10.816, Val NLL: 10.835:  72%|███████▏  | 216/300 [08:12<02:57,  2.12s/it]Train NLL: 10.813, Val NLL: 10.830:  72%|███████▏  | 217/300 [08:14<02:56,  2.12s/it]Train NLL: 10.812, Val NLL: 10.840:  73%|███████▎  | 218/300 [08:16<02:49,  2.07s/it]Train NLL: 10.814, Val NLL: 10.833:  73%|███████▎  | 219/300 [08:18<02:47,  2.06s/it]Train NLL: 10.813, Val NLL: 10.832:  73%|███████▎  | 220/300 [08:21<02:55,  2.19s/it]Train NLL: 10.811, Val NLL: 10.836:  74%|███████▎  | 221/300 [08:23<02:53,  2.19s/it]Train NLL: 10.814, Val NLL: 10.832:  74%|███████▍  | 222/300 [08:25<02:48,  2.16s/it]Train NLL: 10.811, Val NLL: 10.829:  74%|███████▍  | 223/300 [08:27<02:46,  2.16s/it]Train NLL: 10.813, Val NLL: 10.831:  75%|███████▍  | 224/300 [08:29<02:39,  2.10s/it]Train NLL: 10.814, Val NLL: 10.828:  75%|███████▌  | 225/300 [08:31<02:40,  2.13s/it]Train NLL: 10.816, Val NLL: 10.835:  75%|███████▌  | 226/300 [08:34<02:41,  2.18s/it]Train NLL: 10.815, Val NLL: 10.833:  76%|███████▌  | 227/300 [08:36<02:34,  2.12s/it]Train NLL: 10.815, Val NLL: 10.832:  76%|███████▌  | 228/300 [08:38<02:37,  2.18s/it]Train NLL: 10.811, Val NLL: 10.830:  76%|███████▋  | 229/300 [08:40<02:32,  2.14s/it]Train NLL: 10.812, Val NLL: 10.825:  77%|███████▋  | 230/300 [08:42<02:30,  2.15s/it]Train NLL: 10.810, Val NLL: 10.831:  77%|███████▋  | 231/300 [08:44<02:28,  2.15s/it]Train NLL: 10.812, Val NLL: 10.830:  77%|███████▋  | 232/300 [08:46<02:23,  2.11s/it]Train NLL: 10.812, Val NLL: 10.831:  78%|███████▊  | 233/300 [08:48<02:21,  2.11s/it]Train NLL: 10.811, Val NLL: 10.830:  78%|███████▊  | 234/300 [08:50<02:18,  2.09s/it]Train NLL: 10.810, Val NLL: 10.831:  78%|███████▊  | 235/300 [08:53<02:21,  2.17s/it]Train NLL: 10.811, Val NLL: 10.832:  79%|███████▊  | 236/300 [08:55<02:18,  2.16s/it]Train NLL: 10.811, Val NLL: 10.827:  79%|███████▉  | 237/300 [08:57<02:12,  2.10s/it]Train NLL: 10.811, Val NLL: 10.831:  79%|███████▉  | 238/300 [08:59<02:07,  2.06s/it]Train NLL: 10.811, Val NLL: 10.830:  80%|███████▉  | 239/300 [09:01<02:06,  2.07s/it]Train NLL: 10.813, Val NLL: 10.830:  80%|████████  | 240/300 [09:04<02:23,  2.39s/it]Train NLL: 10.810, Val NLL: 10.831:  80%|████████  | 241/300 [09:06<02:14,  2.28s/it]Train NLL: 10.808, Val NLL: 10.821:  81%|████████  | 242/300 [09:08<02:06,  2.18s/it]Train NLL: 10.809, Val NLL: 10.831:  81%|████████  | 243/300 [09:10<02:01,  2.14s/it]Train NLL: 10.811, Val NLL: 10.824:  81%|████████▏ | 244/300 [09:12<02:00,  2.15s/it]Train NLL: 10.811, Val NLL: 10.829:  82%|████████▏ | 245/300 [09:14<01:55,  2.09s/it]Train NLL: 10.809, Val NLL: 10.833:  82%|████████▏ | 246/300 [09:17<01:56,  2.16s/it]Train NLL: 10.809, Val NLL: 10.830:  82%|████████▏ | 247/300 [09:19<01:59,  2.25s/it]Train NLL: 10.811, Val NLL: 10.824:  83%|████████▎ | 248/300 [09:22<02:01,  2.34s/it]Train NLL: 10.810, Val NLL: 10.833:  83%|████████▎ | 249/300 [09:25<02:08,  2.52s/it]Train NLL: 10.810, Val NLL: 10.828:  83%|████████▎ | 250/300 [09:27<01:59,  2.38s/it]Train NLL: 10.814, Val NLL: 10.832:  84%|████████▎ | 251/300 [09:29<01:51,  2.28s/it]Train NLL: 10.810, Val NLL: 10.833:  84%|████████▍ | 252/300 [09:31<01:50,  2.30s/it]Train NLL: 10.806, Val NLL: 10.832:  84%|████████▍ | 253/300 [09:33<01:46,  2.27s/it]Train NLL: 10.809, Val NLL: 10.829:  85%|████████▍ | 254/300 [09:35<01:40,  2.19s/it]Train NLL: 10.808, Val NLL: 10.827:  85%|████████▌ | 255/300 [09:37<01:35,  2.13s/it]Train NLL: 10.808, Val NLL: 10.826:  85%|████████▌ | 256/300 [09:39<01:32,  2.11s/it]Train NLL: 10.808, Val NLL: 10.835:  86%|████████▌ | 257/300 [09:42<01:32,  2.15s/it]Train NLL: 10.810, Val NLL: 10.832:  86%|████████▌ | 258/300 [09:44<01:31,  2.17s/it]Train NLL: 10.809, Val NLL: 10.831:  86%|████████▋ | 259/300 [09:46<01:26,  2.12s/it]Train NLL: 10.810, Val NLL: 10.826:  87%|████████▋ | 260/300 [09:48<01:23,  2.09s/it]Train NLL: 10.808, Val NLL: 10.826:  87%|████████▋ | 261/300 [09:50<01:21,  2.10s/it]Train NLL: 10.809, Val NLL: 10.824:  87%|████████▋ | 262/300 [09:52<01:24,  2.22s/it]Train NLL: 10.813, Val NLL: 10.829:  88%|████████▊ | 263/300 [09:54<01:19,  2.15s/it]Train NLL: 10.808, Val NLL: 10.831:  88%|████████▊ | 264/300 [09:57<01:17,  2.15s/it]Train NLL: 10.807, Val NLL: 10.828:  88%|████████▊ | 265/300 [09:59<01:13,  2.11s/it]Train NLL: 10.807, Val NLL: 10.858:  89%|████████▊ | 266/300 [10:00<01:10,  2.06s/it]Train NLL: 10.813, Val NLL: 10.826:  89%|████████▉ | 267/300 [10:03<01:08,  2.07s/it]Train NLL: 10.807, Val NLL: 10.830:  89%|████████▉ | 268/300 [10:05<01:07,  2.10s/it]Train NLL: 10.809, Val NLL: 10.834:  90%|████████▉ | 269/300 [10:07<01:03,  2.06s/it]Train NLL: 10.808, Val NLL: 10.831:  90%|█████████ | 270/300 [10:09<01:01,  2.04s/it]Train NLL: 10.807, Val NLL: 10.831:  90%|█████████ | 271/300 [10:11<00:59,  2.04s/it]Train NLL: 10.807, Val NLL: 10.829:  91%|█████████ | 272/300 [10:13<00:59,  2.13s/it]Train NLL: 10.806, Val NLL: 10.829:  91%|█████████ | 273/300 [10:15<00:56,  2.10s/it]Epoch   274: reducing learning rate of group 0 to 1.0000e-04.
Train NLL: 10.806, Val NLL: 10.827:  91%|█████████▏| 274/300 [10:17<00:54,  2.10s/it]Train NLL: 10.799, Val NLL: 10.822:  92%|█████████▏| 275/300 [10:19<00:52,  2.09s/it]Train NLL: 10.796, Val NLL: 10.822:  92%|█████████▏| 276/300 [10:22<00:52,  2.19s/it]Train NLL: 10.795, Val NLL: 10.823:  92%|█████████▏| 277/300 [10:25<00:56,  2.44s/it]Train NLL: 10.795, Val NLL: 10.822:  93%|█████████▎| 278/300 [10:27<00:51,  2.33s/it]Train NLL: 10.795, Val NLL: 10.823:  93%|█████████▎| 279/300 [10:29<00:46,  2.23s/it]Train NLL: 10.795, Val NLL: 10.823:  93%|█████████▎| 280/300 [10:31<00:43,  2.20s/it]Train NLL: 10.795, Val NLL: 10.823:  94%|█████████▎| 281/300 [10:33<00:40,  2.15s/it]Train NLL: 10.795, Val NLL: 10.823:  94%|█████████▍| 282/300 [10:35<00:37,  2.11s/it]Train NLL: 10.795, Val NLL: 10.822:  94%|█████████▍| 283/300 [10:37<00:35,  2.07s/it]Train NLL: 10.795, Val NLL: 10.823:  95%|█████████▍| 284/300 [10:39<00:32,  2.05s/it]Train NLL: 10.795, Val NLL: 10.823:  95%|█████████▌| 285/300 [10:41<00:30,  2.04s/it]Train NLL: 10.795, Val NLL: 10.823:  95%|█████████▌| 286/300 [10:43<00:28,  2.04s/it]Train NLL: 10.795, Val NLL: 10.823:  96%|█████████▌| 287/300 [10:45<00:26,  2.03s/it]Train NLL: 10.795, Val NLL: 10.823:  96%|█████████▌| 288/300 [10:47<00:24,  2.01s/it]Train NLL: 10.795, Val NLL: 10.823:  96%|█████████▋| 289/300 [10:49<00:22,  2.01s/it]Train NLL: 10.795, Val NLL: 10.823:  97%|█████████▋| 290/300 [10:51<00:20,  2.01s/it]Train NLL: 10.795, Val NLL: 10.823:  97%|█████████▋| 291/300 [10:53<00:17,  2.00s/it]Train NLL: 10.795, Val NLL: 10.823:  97%|█████████▋| 292/300 [10:55<00:15,  1.99s/it]Train NLL: 10.795, Val NLL: 10.823:  98%|█████████▊| 293/300 [10:57<00:13,  1.98s/it]Train NLL: 10.795, Val NLL: 10.823:  98%|█████████▊| 294/300 [10:59<00:11,  1.99s/it]Train NLL: 10.795, Val NLL: 10.823:  98%|█████████▊| 295/300 [11:01<00:09,  1.99s/it]Train NLL: 10.795, Val NLL: 10.823:  99%|█████████▊| 296/300 [11:03<00:07,  1.99s/it]Train NLL: 10.795, Val NLL: 10.823:  99%|█████████▉| 297/300 [11:05<00:05,  1.99s/it]Train NLL: 10.795, Val NLL: 10.823:  99%|█████████▉| 298/300 [11:07<00:03,  1.99s/it]Train NLL: 10.795, Val NLL: 10.823: 100%|█████████▉| 299/300 [11:09<00:01,  2.00s/it]Train NLL: 10.795, Val NLL: 10.823: 100%|██████████| 300/300 [11:11<00:00,  2.03s/it]Train NLL: 10.795, Val NLL: 10.823: 100%|██████████| 300/300 [11:11<00:00,  2.24s/it]
INFO - residual_nf - Completed after 0:11:12
