{
  "activation": "lipmish",
  "batch_size": 100,
  "bn": "arithmetic-circuit2",
  "checkpoint_n": 10,
  "coeff": 0.99,
  "decoder_hidden_dims": [
    100
  ],
  "double": true,
  "dreg": false,
  "ex_name": "siren_vae",
  "flow_hidden_dims": [
    100
  ],
  "iw": false,
  "k": 1,
  "legend": [
    "SIReN-VAE$_faith$",
    "SIReN-VAE$_fc$"
  ],
  "load_from_checkpoint": false,
  "lr": 0.001,
  "model_path": "arithmetic-circuit2_faithful_lipmish_5_[100]_[100]",
  "n_power_iterations": 5,
  "num_epochs": 200,
  "num_flow_steps": 5,
  "num_train_batches": 100,
  "num_train_samples": 10000,
  "num_val_batches": 50,
  "num_val_samples": 5000,
  "path": "./experiment_logs/siren_vae/arithmetic-circuit2/random_lipmish_5_[100]_[100]",
  "patience": 20,
  "run": 1,
  "seed": 2,
  "structure": "random",
  "sub_folder": "random_lipmish_5_[100]_[100]",
  "wu": false,
  "wu_N": 1,
  "wu_all": false,
  "ylims": [
    [
      9,
      14
    ],
    [
      9,
      14
    ]
  ]
}