{
  "memory.usage": {
    "steps": [
      0,
      1,
      2,
      3,
      4,
      5,
      6,
      7,
      8,
      9,
      10,
      11,
      12,
      13,
      14,
      15,
      16,
      17,
      18,
      19,
      20,
      21,
      22,
      23,
      24,
      25,
      26,
      27,
      28,
      29,
      30
    ],
    "timestamps": [
      "2022-11-11T12:42:00.972262",
      "2022-11-11T12:42:06.350177",
      "2022-11-11T12:42:10.324379",
      "2022-11-11T12:42:14.637299",
      "2022-11-11T12:42:18.421052",
      "2022-11-11T12:42:22.124138",
      "2022-11-11T12:42:25.815867",
      "2022-11-11T12:42:29.516974",
      "2022-11-11T12:42:33.216721",
      "2022-11-11T12:42:36.944826",
      "2022-11-11T12:42:40.645480",
      "2022-11-11T12:42:44.388399",
      "2022-11-11T12:42:48.085893",
      "2022-11-11T12:42:51.798131",
      "2022-11-11T12:42:55.848688",
      "2022-11-11T12:42:59.679325",
      "2022-11-11T12:43:03.387186",
      "2022-11-11T12:43:07.239910",
      "2022-11-11T12:43:11.408274",
      "2022-11-11T12:43:15.769269",
      "2022-11-11T12:43:19.624839",
      "2022-11-11T12:43:23.605362",
      "2022-11-11T12:43:27.530590",
      "2022-11-11T12:43:31.584779",
      "2022-11-11T12:43:35.505365",
      "2022-11-11T12:43:39.341211",
      "2022-11-11T12:43:43.201019",
      "2022-11-11T12:43:47.275793",
      "2022-11-11T12:43:51.284739",
      "2022-11-11T12:43:55.138141",
      "2022-11-11T12:43:58.859481"
    ],
    "values": [
      7.685632,
      7.685632,
      7.685632,
      7.685632,
      7.685632,
      7.685632,
      7.685632,
      7.685632,
      7.685632,
      7.685632,
      7.685632,
      7.685632,
      7.685632,
      7.685632,
      7.685632,
      7.685632,
      7.685632,
      7.685632,
      7.685632,
      7.685632,
      7.685632,
      7.685632,
      7.685632,
      7.685632,
      7.685632,
      7.685632,
      7.685632,
      7.685632,
      7.685632,
      7.685632,
      7.685632
    ]
  },
  "train": {
    "steps": [
      0,
      1,
      2,
      3,
      4,
      5,
      6,
      7,
      8,
      9,
      10,
      11,
      12,
      13,
      14,
      15,
      16,
      17,
      18,
      19,
      20,
      21,
      22,
      23,
      24,
      25,
      26,
      27,
      28,
      29,
      30,
      31,
      32,
      33,
      34,
      35,
      36,
      37,
      38,
      39,
      40,
      41,
      42,
      43,
      44,
      45,
      46,
      47,
      48,
      49,
      50,
      51,
      52,
      53,
      54,
      55,
      56,
      57,
      58,
      59,
      60,
      61,
      62,
      63,
      64,
      65,
      66,
      67,
      68,
      69,
      70,
      71,
      72,
      73,
      74,
      75,
      76,
      77,
      78,
      79,
      80,
      81,
      82,
      83,
      84,
      85,
      86,
      87,
      88,
      89,
      90,
      91,
      92,
      93,
      94,
      95,
      96,
      97,
      98,
      99,
      100,
      101,
      102,
      103,
      104,
      105,
      106,
      107,
      108,
      109,
      110,
      111,
      112,
      113,
      114,
      115,
      116,
      117,
      118,
      119,
      120,
      121,
      122,
      123,
      124,
      125,
      126,
      127,
      128,
      129,
      130,
      131,
      132,
      133,
      134,
      135,
      136,
      137,
      138,
      139,
      140,
      141,
      142,
      143,
      144,
      145,
      146,
      147,
      148,
      149,
      150,
      151,
      152,
      153,
      154,
      155,
      156,
      157,
      158,
      159,
      160,
      161,
      162,
      163,
      164,
      165,
      166,
      167,
      168,
      169,
      170,
      171,
      172,
      173,
      174,
      175,
      176,
      177,
      178,
      179,
      180,
      181,
      182,
      183,
      184,
      185,
      186,
      187,
      188,
      189,
      190,
      191,
      192,
      193,
      194,
      195,
      196,
      197,
      198,
      199,
      200,
      201,
      202,
      203,
      204,
      205,
      206,
      207,
      208,
      209,
      210,
      211,
      212,
      213,
      214,
      215,
      216,
      217,
      218,
      219,
      220,
      221,
      222,
      223,
      224,
      225,
      226,
      227,
      228,
      229,
      230,
      231,
      232,
      233,
      234,
      235,
      236,
      237,
      238,
      239,
      240,
      241,
      242,
      243,
      244,
      245,
      246,
      247,
      248,
      249,
      250,
      251,
      252,
      253,
      254,
      255,
      256,
      257,
      258,
      259,
      260,
      261,
      262,
      263,
      264,
      265,
      266,
      267,
      268,
      269,
      270,
      271,
      272,
      273,
      274,
      275,
      276,
      277,
      278,
      279,
      280,
      281,
      282,
      283,
      284,
      285,
      286,
      287,
      288,
      289,
      290,
      291,
      292,
      293,
      294,
      295,
      296,
      297,
      298,
      299
    ],
    "timestamps": [
      "2022-11-11T12:42:00.971854",
      "2022-11-11T12:42:01.462015",
      "2022-11-11T12:42:01.981647",
      "2022-11-11T12:42:02.544879",
      "2022-11-11T12:42:03.650278",
      "2022-11-11T12:42:04.674700",
      "2022-11-11T12:42:05.076302",
      "2022-11-11T12:42:05.496741",
      "2022-11-11T12:42:05.926409",
      "2022-11-11T12:42:06.350049",
      "2022-11-11T12:42:06.762265",
      "2022-11-11T12:42:07.131943",
      "2022-11-11T12:42:07.508625",
      "2022-11-11T12:42:07.933089",
      "2022-11-11T12:42:08.317584",
      "2022-11-11T12:42:08.693752",
      "2022-11-11T12:42:09.109908",
      "2022-11-11T12:42:09.513766",
      "2022-11-11T12:42:09.942448",
      "2022-11-11T12:42:10.324133",
      "2022-11-11T12:42:10.992900",
      "2022-11-11T12:42:11.528925",
      "2022-11-11T12:42:11.896625",
      "2022-11-11T12:42:12.263607",
      "2022-11-11T12:42:12.653201",
      "2022-11-11T12:42:13.043583",
      "2022-11-11T12:42:13.433165",
      "2022-11-11T12:42:13.841220",
      "2022-11-11T12:42:14.244691",
      "2022-11-11T12:42:14.637176",
      "2022-11-11T12:42:15.043005",
      "2022-11-11T12:42:15.410655",
      "2022-11-11T12:42:15.777949",
      "2022-11-11T12:42:16.149093",
      "2022-11-11T12:42:16.515141",
      "2022-11-11T12:42:16.886646",
      "2022-11-11T12:42:17.282599",
      "2022-11-11T12:42:17.672570",
      "2022-11-11T12:42:18.050427",
      "2022-11-11T12:42:18.420930",
      "2022-11-11T12:42:18.805266",
      "2022-11-11T12:42:19.172474",
      "2022-11-11T12:42:19.545087",
      "2022-11-11T12:42:19.912288",
      "2022-11-11T12:42:20.279305",
      "2022-11-11T12:42:20.650478",
      "2022-11-11T12:42:21.018269",
      "2022-11-11T12:42:21.385158",
      "2022-11-11T12:42:21.756543",
      "2022-11-11T12:42:22.124022",
      "2022-11-11T12:42:22.505885",
      "2022-11-11T12:42:22.875686",
      "2022-11-11T12:42:23.241658",
      "2022-11-11T12:42:23.607818",
      "2022-11-11T12:42:23.978192",
      "2022-11-11T12:42:24.344561",
      "2022-11-11T12:42:24.712428",
      "2022-11-11T12:42:25.082576",
      "2022-11-11T12:42:25.449168",
      "2022-11-11T12:42:25.815657",
      "2022-11-11T12:42:26.201269",
      "2022-11-11T12:42:26.568043",
      "2022-11-11T12:42:26.935588",
      "2022-11-11T12:42:27.305602",
      "2022-11-11T12:42:27.671514",
      "2022-11-11T12:42:28.038411",
      "2022-11-11T12:42:28.407877",
      "2022-11-11T12:42:28.777335",
      "2022-11-11T12:42:29.144409",
      "2022-11-11T12:42:29.516762",
      "2022-11-11T12:42:29.898981",
      "2022-11-11T12:42:30.265237",
      "2022-11-11T12:42:30.638012",
      "2022-11-11T12:42:31.005106",
      "2022-11-11T12:42:31.371590",
      "2022-11-11T12:42:31.742735",
      "2022-11-11T12:42:32.110230",
      "2022-11-11T12:42:32.479037",
      "2022-11-11T12:42:32.850282",
      "2022-11-11T12:42:33.216608",
      "2022-11-11T12:42:33.598439",
      "2022-11-11T12:42:33.969322",
      "2022-11-11T12:42:34.353171",
      "2022-11-11T12:42:34.722469",
      "2022-11-11T12:42:35.102464",
      "2022-11-11T12:42:35.471190",
      "2022-11-11T12:42:35.842588",
      "2022-11-11T12:42:36.212108",
      "2022-11-11T12:42:36.578112",
      "2022-11-11T12:42:36.944712",
      "2022-11-11T12:42:37.330455",
      "2022-11-11T12:42:37.697411",
      "2022-11-11T12:42:38.064573",
      "2022-11-11T12:42:38.434104",
      "2022-11-11T12:42:38.801092",
      "2022-11-11T12:42:39.169455",
      "2022-11-11T12:42:39.541695",
      "2022-11-11T12:42:39.908383",
      "2022-11-11T12:42:40.275165",
      "2022-11-11T12:42:40.645254",
      "2022-11-11T12:42:41.028502",
      "2022-11-11T12:42:41.394817",
      "2022-11-11T12:42:41.765431",
      "2022-11-11T12:42:42.131915",
      "2022-11-11T12:42:42.498902",
      "2022-11-11T12:42:42.885367",
      "2022-11-11T12:42:43.252709",
      "2022-11-11T12:42:43.634434",
      "2022-11-11T12:42:44.005808",
      "2022-11-11T12:42:44.388257",
      "2022-11-11T12:42:44.772450",
      "2022-11-11T12:42:45.143574",
      "2022-11-11T12:42:45.510416",
      "2022-11-11T12:42:45.877203",
      "2022-11-11T12:42:46.247548",
      "2022-11-11T12:42:46.614462",
      "2022-11-11T12:42:46.980880",
      "2022-11-11T12:42:47.351507",
      "2022-11-11T12:42:47.717934",
      "2022-11-11T12:42:48.085687",
      "2022-11-11T12:42:48.472457",
      "2022-11-11T12:42:48.842174",
      "2022-11-11T12:42:49.209427",
      "2022-11-11T12:42:49.582652",
      "2022-11-11T12:42:49.949239",
      "2022-11-11T12:42:50.316079",
      "2022-11-11T12:42:50.690666",
      "2022-11-11T12:42:51.057363",
      "2022-11-11T12:42:51.423471",
      "2022-11-11T12:42:51.798011",
      "2022-11-11T12:42:52.181229",
      "2022-11-11T12:42:52.548679",
      "2022-11-11T12:42:52.919829",
      "2022-11-11T12:42:53.285894",
      "2022-11-11T12:42:53.651831",
      "2022-11-11T12:42:54.022608",
      "2022-11-11T12:42:54.597118",
      "2022-11-11T12:42:55.110901",
      "2022-11-11T12:42:55.482083",
      "2022-11-11T12:42:55.848480",
      "2022-11-11T12:42:56.240038",
      "2022-11-11T12:42:56.632494",
      "2022-11-11T12:42:57.021146",
      "2022-11-11T12:42:57.411424",
      "2022-11-11T12:42:57.807570",
      "2022-11-11T12:42:58.191146",
      "2022-11-11T12:42:58.564301",
      "2022-11-11T12:42:58.946020",
      "2022-11-11T12:42:59.311620",
      "2022-11-11T12:42:59.679121",
      "2022-11-11T12:43:00.065121",
      "2022-11-11T12:43:00.432181",
      "2022-11-11T12:43:00.798483",
      "2022-11-11T12:43:01.171933",
      "2022-11-11T12:43:01.537644",
      "2022-11-11T12:43:01.903937",
      "2022-11-11T12:43:02.272871",
      "2022-11-11T12:43:02.648846",
      "2022-11-11T12:43:03.016067",
      "2022-11-11T12:43:03.387067",
      "2022-11-11T12:43:03.768507",
      "2022-11-11T12:43:04.135492",
      "2022-11-11T12:43:04.507521",
      "2022-11-11T12:43:04.874985",
      "2022-11-11T12:43:05.242545",
      "2022-11-11T12:43:05.652064",
      "2022-11-11T12:43:06.073443",
      "2022-11-11T12:43:06.492804",
      "2022-11-11T12:43:06.873892",
      "2022-11-11T12:43:07.239707",
      "2022-11-11T12:43:07.621920",
      "2022-11-11T12:43:07.992722",
      "2022-11-11T12:43:08.358480",
      "2022-11-11T12:43:08.727506",
      "2022-11-11T12:43:09.104649",
      "2022-11-11T12:43:09.496518",
      "2022-11-11T12:43:09.885942",
      "2022-11-11T12:43:10.311768",
      "2022-11-11T12:43:10.896285",
      "2022-11-11T12:43:11.408157",
      "2022-11-11T12:43:11.816653",
      "2022-11-11T12:43:12.244084",
      "2022-11-11T12:43:12.910429",
      "2022-11-11T12:43:13.432600",
      "2022-11-11T12:43:13.826836",
      "2022-11-11T12:43:14.224966",
      "2022-11-11T12:43:14.616365",
      "2022-11-11T12:43:15.000942",
      "2022-11-11T12:43:15.383495",
      "2022-11-11T12:43:15.769004",
      "2022-11-11T12:43:16.166241",
      "2022-11-11T12:43:16.549193",
      "2022-11-11T12:43:16.935150",
      "2022-11-11T12:43:17.315893",
      "2022-11-11T12:43:17.696271",
      "2022-11-11T12:43:18.082418",
      "2022-11-11T12:43:18.462360",
      "2022-11-11T12:43:18.850117",
      "2022-11-11T12:43:19.241434",
      "2022-11-11T12:43:19.624711",
      "2022-11-11T12:43:20.021619",
      "2022-11-11T12:43:20.406102",
      "2022-11-11T12:43:20.788782",
      "2022-11-11T12:43:21.171988",
      "2022-11-11T12:43:21.556025",
      "2022-11-11T12:43:21.942095",
      "2022-11-11T12:43:22.345467",
      "2022-11-11T12:43:22.769646",
      "2022-11-11T12:43:23.193343",
      "2022-11-11T12:43:23.605128",
      "2022-11-11T12:43:24.020797",
      "2022-11-11T12:43:24.408863",
      "2022-11-11T12:43:24.792206",
      "2022-11-11T12:43:25.175777",
      "2022-11-11T12:43:25.559823",
      "2022-11-11T12:43:25.980312",
      "2022-11-11T12:43:26.387613",
      "2022-11-11T12:43:26.765995",
      "2022-11-11T12:43:27.147189",
      "2022-11-11T12:43:27.530461",
      "2022-11-11T12:43:27.928856",
      "2022-11-11T12:43:28.365220",
      "2022-11-11T12:43:28.797496",
      "2022-11-11T12:43:29.228135",
      "2022-11-11T12:43:29.652647",
      "2022-11-11T12:43:30.042417",
      "2022-11-11T12:43:30.431781",
      "2022-11-11T12:43:30.812961",
      "2022-11-11T12:43:31.200412",
      "2022-11-11T12:43:31.584649",
      "2022-11-11T12:43:31.991488",
      "2022-11-11T12:43:32.385945",
      "2022-11-11T12:43:32.788437",
      "2022-11-11T12:43:33.202230",
      "2022-11-11T12:43:33.609520",
      "2022-11-11T12:43:33.987639",
      "2022-11-11T12:43:34.365278",
      "2022-11-11T12:43:34.747381",
      "2022-11-11T12:43:35.127788",
      "2022-11-11T12:43:35.505144",
      "2022-11-11T12:43:35.907845",
      "2022-11-11T12:43:36.291843",
      "2022-11-11T12:43:36.669382",
      "2022-11-11T12:43:37.051512",
      "2022-11-11T12:43:37.430891",
      "2022-11-11T12:43:37.811218",
      "2022-11-11T12:43:38.197821",
      "2022-11-11T12:43:38.574516",
      "2022-11-11T12:43:38.955729",
      "2022-11-11T12:43:39.341090",
      "2022-11-11T12:43:39.735687",
      "2022-11-11T12:43:40.124473",
      "2022-11-11T12:43:40.511062",
      "2022-11-11T12:43:40.890899",
      "2022-11-11T12:43:41.270160",
      "2022-11-11T12:43:41.655087",
      "2022-11-11T12:43:42.034077",
      "2022-11-11T12:43:42.413751",
      "2022-11-11T12:43:42.798251",
      "2022-11-11T12:43:43.200751",
      "2022-11-11T12:43:43.657072",
      "2022-11-11T12:43:44.081014",
      "2022-11-11T12:43:44.487780",
      "2022-11-11T12:43:44.884440",
      "2022-11-11T12:43:45.294692",
      "2022-11-11T12:43:45.675094",
      "2022-11-11T12:43:46.051653",
      "2022-11-11T12:43:46.458836",
      "2022-11-11T12:43:46.869068",
      "2022-11-11T12:43:47.275532",
      "2022-11-11T12:43:47.695919",
      "2022-11-11T12:43:48.107678",
      "2022-11-11T12:43:48.509233",
      "2022-11-11T12:43:48.924955",
      "2022-11-11T12:43:49.354105",
      "2022-11-11T12:43:49.764881",
      "2022-11-11T12:43:50.148569",
      "2022-11-11T12:43:50.526206",
      "2022-11-11T12:43:50.901297",
      "2022-11-11T12:43:51.284613",
      "2022-11-11T12:43:51.676710",
      "2022-11-11T12:43:52.051478",
      "2022-11-11T12:43:52.430328",
      "2022-11-11T12:43:52.805045",
      "2022-11-11T12:43:53.182536",
      "2022-11-11T12:43:53.561052",
      "2022-11-11T12:43:53.951437",
      "2022-11-11T12:43:54.359022",
      "2022-11-11T12:43:54.739597",
      "2022-11-11T12:43:55.137921",
      "2022-11-11T12:43:55.538599",
      "2022-11-11T12:43:55.910021",
      "2022-11-11T12:43:56.277213",
      "2022-11-11T12:43:56.643267",
      "2022-11-11T12:43:57.016245",
      "2022-11-11T12:43:57.382720",
      "2022-11-11T12:43:57.748958",
      "2022-11-11T12:43:58.121591",
      "2022-11-11T12:43:58.487479",
      "2022-11-11T12:43:58.859360"
    ],
    "values": [
      10.434416361457732,
      10.03914205117828,
      10.012929892582063,
      9.995636926363733,
      9.9954189946614,
      9.827647019113197,
      9.800453636278977,
      9.7073101424623,
      9.653741991271573,
      9.59245866735558,
      9.641369804440107,
      9.528571699572874,
      9.511977433576885,
      9.43394947433649,
      9.458357181367155,
      9.412244187874842,
      9.396398692321855,
      9.251157265417795,
      9.213983279645353,
      9.141645629862923,
      9.091260001599787,
      8.990396940211976,
      8.854180021491217,
      8.929299450756728,
      8.883377858138298,
      8.751131753477237,
      8.782195216487175,
      8.72741723766216,
      8.635201951710066,
      8.716879705154271,
      8.544229504333316,
      8.502206183631099,
      8.607644681232292,
      8.445958208654574,
      8.496815594071835,
      8.427401262996318,
      8.361943380033258,
      8.435890607160843,
      8.474859805453553,
      8.33440894002063,
      8.375372740977637,
      8.315936785222302,
      8.338392316201778,
      8.371361282841775,
      8.345528872888723,
      8.393974368303208,
      8.320039972027647,
      8.378180145371159,
      8.250125040390902,
      8.25392782387587,
      8.288090131823816,
      8.245405882279014,
      8.309149612354368,
      8.223665184852317,
      8.249097608656353,
      8.21097409037528,
      8.1849722987132,
      8.167692214100793,
      8.110534713615667,
      8.171759838781082,
      8.16029834208353,
      8.122917649446784,
      8.152962491438918,
      8.082955769416444,
      8.142211332079553,
      8.01078568224725,
      8.091335028298191,
      7.966986829542021,
      8.012022833921982,
      7.993307614925071,
      8.012008131511545,
      7.962803390012375,
      7.9591048318247015,
      7.9226456949650785,
      7.9692785772564045,
      7.8617336550697825,
      7.933052314912576,
      7.900079134028795,
      7.965194771089885,
      7.912704643891689,
      7.828322815666731,
      7.8430954847278,
      7.8336791102938745,
      7.866282601782342,
      7.857560627782927,
      7.8459521755296455,
      7.866875072479002,
      7.808498926601517,
      7.814341002878983,
      7.755515349797313,
      7.717651791369516,
      7.783473891341564,
      7.718889235839847,
      7.775679395948812,
      7.762074659154555,
      7.7651217119770575,
      7.741304028244279,
      7.720783386756823,
      7.709041701121951,
      7.762041507541321,
      7.732103442366029,
      7.716912480358752,
      7.772980440997135,
      7.760512500185601,
      7.672905404708028,
      7.682312355148331,
      7.701627821778903,
      7.691145113972054,
      7.695017884337061,
      7.730734671080426,
      7.695473393206995,
      7.705304386593596,
      7.701227147170326,
      7.6767954276379555,
      7.566370864384716,
      7.6685971482076924,
      7.620163220791001,
      7.657349961426297,
      7.629208464728361,
      7.655732133942607,
      7.674635444934291,
      7.669485397222731,
      7.692305303670024,
      7.699879324939478,
      7.6595863563017925,
      7.686067828671624,
      7.62436711388609,
      7.61997888846712,
      7.531444116477222,
      7.580589709476545,
      7.577678753789721,
      7.559481215622387,
      7.551652777022868,
      7.568035875728752,
      7.493026271474426,
      7.526419700330415,
      7.5384618973604915,
      7.57317211867282,
      7.509259753296703,
      7.516041163558858,
      7.56180063362477,
      7.54514176382186,
      7.545755571036057,
      7.539726241871602,
      7.524752869467138,
      7.5368279403438025,
      7.538481337464739,
      7.56311972721006,
      7.549570107545406,
      7.511300984262773,
      7.526385078003589,
      7.494032253143157,
      7.5293997303554,
      7.505433242106591,
      7.513336349011354,
      7.496819124395031,
      7.499556791346356,
      7.509346131620793,
      7.491931064103691,
      7.552008850717502,
      7.517846568800099,
      7.4856430301251455,
      7.533254326661558,
      7.5714825145551465,
      7.544553429860002,
      7.528205994589085,
      7.548024333242937,
      7.555738922950477,
      7.5316211225775636,
      7.548434253679458,
      7.574209533528079,
      7.4882090605604,
      7.512368155311457,
      7.535277864496939,
      7.566389302757428,
      7.456461289240959,
      7.571183410282451,
      7.450286457084041,
      7.501919065850967,
      7.522063776770805,
      7.48629153173278,
      7.498903428370906,
      7.517052564968384,
      7.528365675161424,
      7.495611154964769,
      7.523956494299995,
      7.536071053438512,
      7.51408152841492,
      7.586569155556488,
      7.521795746209432,
      7.553277284701384,
      7.504843870072634,
      7.541565078254512,
      7.575168948270303,
      7.528348084689568,
      7.560455562754118,
      7.524479925435376,
      7.503150122813439,
      7.519697438672688,
      7.5603171414255845,
      7.550481109075746,
      7.574862824294382,
      7.475861051213634,
      7.534266395934095,
      7.553646605704813,
      7.476562692823634,
      7.465717304469558,
      7.481196981414306,
      7.548016486349053,
      7.5364378004767225,
      7.540421895957624,
      7.527949735541391,
      7.55258374175223,
      7.5181670320454765,
      7.526642875655517,
      7.4971504904424355,
      7.501986110068063,
      7.576545875360297,
      7.531454628664985,
      7.578452073434251,
      7.454121843958947,
      7.505298797444662,
      7.459454843235395,
      7.527548728158992,
      7.542010117954291,
      7.556363221372735,
      7.534900259864553,
      7.548414103694764,
      7.560277258127095,
      7.536745937204909,
      7.532303255989778,
      7.567899931915341,
      7.534406638305789,
      7.501340383662388,
      7.534088183199756,
      7.5835613383065965,
      7.499934473730592,
      7.501232130205412,
      7.506603643178484,
      7.519329019312038,
      7.538254339689634,
      7.546924764732518,
      7.5051824501744635,
      7.571186919261881,
      7.536593798355732,
      7.569546977752996,
      7.504491620533788,
      7.529643990540447,
      7.47130804159482,
      7.522468820435087,
      7.54218866056682,
      7.51782314507393,
      7.484581415410843,
      7.561547522533798,
      7.509840279242351,
      7.51798404215467,
      7.541192952900516,
      7.577296600243191,
      7.453689665163629,
      7.52926317282771,
      7.539624767991117,
      7.506410159292197,
      7.555261859217778,
      7.52710985865712,
      7.532504731697044,
      7.520661113942198,
      7.5136612046499724,
      7.4780256915192815,
      7.510140964757635,
      7.550289517653679,
      7.524427367332363,
      7.5416927561658476,
      7.564646177173786,
      7.5120805580392895,
      7.580391426983983,
      7.5067498784981925,
      7.55775770242563,
      7.5213544642615355,
      7.5904747344375725,
      7.531237835284841,
      7.586042953978371,
      7.514319173700792,
      7.50477479080935,
      7.522602534796477,
      7.5105116426964145,
      7.498725263968465,
      7.505528953855225,
      7.527899040845185,
      7.5320100133394785,
      7.513637848634998,
      7.510090011349107,
      7.494439649409839,
      7.453660121493318,
      7.542270195820228,
      7.538753287476779,
      7.508896482159034,
      7.5543271347508565,
      7.5573939153106835,
      7.525740480346266,
      7.563030632736103
    ]
  },
  "val": {
    "steps": [
      0,
      1,
      2,
      3,
      4,
      5,
      6,
      7,
      8,
      9,
      10,
      11,
      12,
      13,
      14,
      15,
      16,
      17,
      18,
      19,
      20,
      21,
      22,
      23,
      24,
      25,
      26,
      27,
      28,
      29,
      30,
      31,
      32,
      33,
      34,
      35,
      36,
      37,
      38,
      39,
      40,
      41,
      42,
      43,
      44,
      45,
      46,
      47,
      48,
      49,
      50,
      51,
      52,
      53,
      54,
      55,
      56,
      57,
      58,
      59,
      60,
      61,
      62,
      63,
      64,
      65,
      66,
      67,
      68,
      69,
      70,
      71,
      72,
      73,
      74,
      75,
      76,
      77,
      78,
      79,
      80,
      81,
      82,
      83,
      84,
      85,
      86,
      87,
      88,
      89,
      90,
      91,
      92,
      93,
      94,
      95,
      96,
      97,
      98,
      99,
      100,
      101,
      102,
      103,
      104,
      105,
      106,
      107,
      108,
      109,
      110,
      111,
      112,
      113,
      114,
      115,
      116,
      117,
      118,
      119,
      120,
      121,
      122,
      123,
      124,
      125,
      126,
      127,
      128,
      129,
      130,
      131,
      132,
      133,
      134,
      135,
      136,
      137,
      138,
      139,
      140,
      141,
      142,
      143,
      144,
      145,
      146,
      147,
      148,
      149,
      150,
      151,
      152,
      153,
      154,
      155,
      156,
      157,
      158,
      159,
      160,
      161,
      162,
      163,
      164,
      165,
      166,
      167,
      168,
      169,
      170,
      171,
      172,
      173,
      174,
      175,
      176,
      177,
      178,
      179,
      180,
      181,
      182,
      183,
      184,
      185,
      186,
      187,
      188,
      189,
      190,
      191,
      192,
      193,
      194,
      195,
      196,
      197,
      198,
      199,
      200,
      201,
      202,
      203,
      204,
      205,
      206,
      207,
      208,
      209,
      210,
      211,
      212,
      213,
      214,
      215,
      216,
      217,
      218,
      219,
      220,
      221,
      222,
      223,
      224,
      225,
      226,
      227,
      228,
      229,
      230,
      231,
      232,
      233,
      234,
      235,
      236,
      237,
      238,
      239,
      240,
      241,
      242,
      243,
      244,
      245,
      246,
      247,
      248,
      249,
      250,
      251,
      252,
      253,
      254,
      255,
      256,
      257,
      258,
      259,
      260,
      261,
      262,
      263,
      264,
      265,
      266,
      267,
      268,
      269,
      270,
      271,
      272,
      273,
      274,
      275,
      276,
      277,
      278,
      279,
      280,
      281,
      282,
      283,
      284,
      285,
      286,
      287,
      288,
      289,
      290,
      291,
      292,
      293,
      294,
      295,
      296,
      297,
      298,
      299
    ],
    "timestamps": [
      "2022-11-11T12:42:01.112051",
      "2022-11-11T12:42:01.611921",
      "2022-11-11T12:42:02.160102",
      "2022-11-11T12:42:02.700742",
      "2022-11-11T12:42:04.248151",
      "2022-11-11T12:42:04.803794",
      "2022-11-11T12:42:05.203336",
      "2022-11-11T12:42:05.634369",
      "2022-11-11T12:42:06.055450",
      "2022-11-11T12:42:06.482218",
      "2022-11-11T12:42:06.879156",
      "2022-11-11T12:42:07.247068",
      "2022-11-11T12:42:07.659202",
      "2022-11-11T12:42:08.057381",
      "2022-11-11T12:42:08.432289",
      "2022-11-11T12:42:08.831587",
      "2022-11-11T12:42:09.236133",
      "2022-11-11T12:42:09.666917",
      "2022-11-11T12:42:10.057855",
      "2022-11-11T12:42:10.551540",
      "2022-11-11T12:42:11.215624",
      "2022-11-11T12:42:11.644685",
      "2022-11-11T12:42:12.012291",
      "2022-11-11T12:42:12.382687",
      "2022-11-11T12:42:12.776975",
      "2022-11-11T12:42:13.166367",
      "2022-11-11T12:42:13.556510",
      "2022-11-11T12:42:13.963785",
      "2022-11-11T12:42:14.368079",
      "2022-11-11T12:42:14.770896",
      "2022-11-11T12:42:15.158524",
      "2022-11-11T12:42:15.526330",
      "2022-11-11T12:42:15.893422",
      "2022-11-11T12:42:16.264067",
      "2022-11-11T12:42:16.630437",
      "2022-11-11T12:42:17.009747",
      "2022-11-11T12:42:17.405399",
      "2022-11-11T12:42:17.795202",
      "2022-11-11T12:42:18.165433",
      "2022-11-11T12:42:18.536598",
      "2022-11-11T12:42:18.920730",
      "2022-11-11T12:42:19.287840",
      "2022-11-11T12:42:19.660584",
      "2022-11-11T12:42:20.027767",
      "2022-11-11T12:42:20.394888",
      "2022-11-11T12:42:20.765970",
      "2022-11-11T12:42:21.133509",
      "2022-11-11T12:42:21.500615",
      "2022-11-11T12:42:21.872515",
      "2022-11-11T12:42:22.239336",
      "2022-11-11T12:42:22.620822",
      "2022-11-11T12:42:22.990969",
      "2022-11-11T12:42:23.356812",
      "2022-11-11T12:42:23.723209",
      "2022-11-11T12:42:24.093370",
      "2022-11-11T12:42:24.460685",
      "2022-11-11T12:42:24.827833",
      "2022-11-11T12:42:25.197699",
      "2022-11-11T12:42:25.564464",
      "2022-11-11T12:42:25.931070",
      "2022-11-11T12:42:26.316835",
      "2022-11-11T12:42:26.683411",
      "2022-11-11T12:42:27.051012",
      "2022-11-11T12:42:27.420646",
      "2022-11-11T12:42:27.786748",
      "2022-11-11T12:42:28.153402",
      "2022-11-11T12:42:28.523245",
      "2022-11-11T12:42:28.892774",
      "2022-11-11T12:42:29.259478",
      "2022-11-11T12:42:29.632191",
      "2022-11-11T12:42:30.014148",
      "2022-11-11T12:42:30.380389",
      "2022-11-11T12:42:30.753234",
      "2022-11-11T12:42:31.120357",
      "2022-11-11T12:42:31.486966",
      "2022-11-11T12:42:31.858240",
      "2022-11-11T12:42:32.225610",
      "2022-11-11T12:42:32.594232",
      "2022-11-11T12:42:32.965695",
      "2022-11-11T12:42:33.331759",
      "2022-11-11T12:42:33.713689",
      "2022-11-11T12:42:34.084676",
      "2022-11-11T12:42:34.469062",
      "2022-11-11T12:42:34.838037",
      "2022-11-11T12:42:35.219316",
      "2022-11-11T12:42:35.590066",
      "2022-11-11T12:42:35.957851",
      "2022-11-11T12:42:36.327126",
      "2022-11-11T12:42:36.693347",
      "2022-11-11T12:42:37.060239",
      "2022-11-11T12:42:37.446155",
      "2022-11-11T12:42:37.812719",
      "2022-11-11T12:42:38.179399",
      "2022-11-11T12:42:38.549414",
      "2022-11-11T12:42:38.917165",
      "2022-11-11T12:42:39.284616",
      "2022-11-11T12:42:39.657056",
      "2022-11-11T12:42:40.023322",
      "2022-11-11T12:42:40.390323",
      "2022-11-11T12:42:40.760477",
      "2022-11-11T12:42:41.143651",
      "2022-11-11T12:42:41.510058",
      "2022-11-11T12:42:41.880793",
      "2022-11-11T12:42:42.247429",
      "2022-11-11T12:42:42.613971",
      "2022-11-11T12:42:43.001408",
      "2022-11-11T12:42:43.367618",
      "2022-11-11T12:42:43.749629",
      "2022-11-11T12:42:44.120605",
      "2022-11-11T12:42:44.503833",
      "2022-11-11T12:42:44.887861",
      "2022-11-11T12:42:45.258632",
      "2022-11-11T12:42:45.625922",
      "2022-11-11T12:42:45.992116",
      "2022-11-11T12:42:46.362841",
      "2022-11-11T12:42:46.729643",
      "2022-11-11T12:42:47.096234",
      "2022-11-11T12:42:47.466818",
      "2022-11-11T12:42:47.834186",
      "2022-11-11T12:42:48.201159",
      "2022-11-11T12:42:48.590282",
      "2022-11-11T12:42:48.957551",
      "2022-11-11T12:42:49.324400",
      "2022-11-11T12:42:49.697756",
      "2022-11-11T12:42:50.064325",
      "2022-11-11T12:42:50.431417",
      "2022-11-11T12:42:50.805843",
      "2022-11-11T12:42:51.172341",
      "2022-11-11T12:42:51.538592",
      "2022-11-11T12:42:51.913358",
      "2022-11-11T12:42:52.296343",
      "2022-11-11T12:42:52.664043",
      "2022-11-11T12:42:53.034900",
      "2022-11-11T12:42:53.401016",
      "2022-11-11T12:42:53.767216",
      "2022-11-11T12:42:54.225153",
      "2022-11-11T12:42:54.832316",
      "2022-11-11T12:42:55.225652",
      "2022-11-11T12:42:55.597140",
      "2022-11-11T12:42:55.963454",
      "2022-11-11T12:42:56.361518",
      "2022-11-11T12:42:56.754691",
      "2022-11-11T12:42:57.144032",
      "2022-11-11T12:42:57.535631",
      "2022-11-11T12:42:57.930603",
      "2022-11-11T12:42:58.306161",
      "2022-11-11T12:42:58.682277",
      "2022-11-11T12:42:59.060961",
      "2022-11-11T12:42:59.427908",
      "2022-11-11T12:42:59.794387",
      "2022-11-11T12:43:00.180603",
      "2022-11-11T12:43:00.547341",
      "2022-11-11T12:43:00.914398",
      "2022-11-11T12:43:01.286885",
      "2022-11-11T12:43:01.652605",
      "2022-11-11T12:43:02.018392",
      "2022-11-11T12:43:02.387294",
      "2022-11-11T12:43:02.764464",
      "2022-11-11T12:43:03.131245",
      "2022-11-11T12:43:03.502036",
      "2022-11-11T12:43:03.883431",
      "2022-11-11T12:43:04.250333",
      "2022-11-11T12:43:04.622847",
      "2022-11-11T12:43:04.990094",
      "2022-11-11T12:43:05.357292",
      "2022-11-11T12:43:05.776920",
      "2022-11-11T12:43:06.195669",
      "2022-11-11T12:43:06.608224",
      "2022-11-11T12:43:06.988830",
      "2022-11-11T12:43:07.354655",
      "2022-11-11T12:43:07.736976",
      "2022-11-11T12:43:08.107539",
      "2022-11-11T12:43:08.472917",
      "2022-11-11T12:43:08.842587",
      "2022-11-11T12:43:09.226921",
      "2022-11-11T12:43:09.619734",
      "2022-11-11T12:43:10.007068",
      "2022-11-11T12:43:10.505978",
      "2022-11-11T12:43:11.100309",
      "2022-11-11T12:43:11.523336",
      "2022-11-11T12:43:11.946009",
      "2022-11-11T12:43:12.470512",
      "2022-11-11T12:43:13.129154",
      "2022-11-11T12:43:13.549933",
      "2022-11-11T12:43:13.950859",
      "2022-11-11T12:43:14.347607",
      "2022-11-11T12:43:14.737097",
      "2022-11-11T12:43:15.120345",
      "2022-11-11T12:43:15.502140",
      "2022-11-11T12:43:15.887043",
      "2022-11-11T12:43:16.287085",
      "2022-11-11T12:43:16.668268",
      "2022-11-11T12:43:17.052752",
      "2022-11-11T12:43:17.435142",
      "2022-11-11T12:43:17.815236",
      "2022-11-11T12:43:18.200292",
      "2022-11-11T12:43:18.584098",
      "2022-11-11T12:43:18.974659",
      "2022-11-11T12:43:19.359890",
      "2022-11-11T12:43:19.743406",
      "2022-11-11T12:43:20.139797",
      "2022-11-11T12:43:20.525353",
      "2022-11-11T12:43:20.906465",
      "2022-11-11T12:43:21.291012",
      "2022-11-11T12:43:21.676537",
      "2022-11-11T12:43:22.062332",
      "2022-11-11T12:43:22.479352",
      "2022-11-11T12:43:22.893034",
      "2022-11-11T12:43:23.322401",
      "2022-11-11T12:43:23.732756",
      "2022-11-11T12:43:24.140988",
      "2022-11-11T12:43:24.526822",
      "2022-11-11T12:43:24.910009",
      "2022-11-11T12:43:25.296800",
      "2022-11-11T12:43:25.683041",
      "2022-11-11T12:43:26.110398",
      "2022-11-11T12:43:26.505769",
      "2022-11-11T12:43:26.883542",
      "2022-11-11T12:43:27.264377",
      "2022-11-11T12:43:27.652117",
      "2022-11-11T12:43:28.056553",
      "2022-11-11T12:43:28.498183",
      "2022-11-11T12:43:28.933342",
      "2022-11-11T12:43:29.356930",
      "2022-11-11T12:43:29.770910",
      "2022-11-11T12:43:30.166703",
      "2022-11-11T12:43:30.549209",
      "2022-11-11T12:43:30.933659",
      "2022-11-11T12:43:31.318592",
      "2022-11-11T12:43:31.709075",
      "2022-11-11T12:43:32.114226",
      "2022-11-11T12:43:32.504914",
      "2022-11-11T12:43:32.916807",
      "2022-11-11T12:43:33.329433",
      "2022-11-11T12:43:33.727938",
      "2022-11-11T12:43:34.106297",
      "2022-11-11T12:43:34.483611",
      "2022-11-11T12:43:34.864524",
      "2022-11-11T12:43:35.244221",
      "2022-11-11T12:43:35.627083",
      "2022-11-11T12:43:36.026936",
      "2022-11-11T12:43:36.408643",
      "2022-11-11T12:43:36.787309",
      "2022-11-11T12:43:37.170287",
      "2022-11-11T12:43:37.548735",
      "2022-11-11T12:43:37.931610",
      "2022-11-11T12:43:38.314712",
      "2022-11-11T12:43:38.696365",
      "2022-11-11T12:43:39.075303",
      "2022-11-11T12:43:39.459464",
      "2022-11-11T12:43:39.864232",
      "2022-11-11T12:43:40.242051",
      "2022-11-11T12:43:40.630801",
      "2022-11-11T12:43:41.008671",
      "2022-11-11T12:43:41.387060",
      "2022-11-11T12:43:41.773572",
      "2022-11-11T12:43:42.153696",
      "2022-11-11T12:43:42.531092",
      "2022-11-11T12:43:42.915871",
      "2022-11-11T12:43:43.331369",
      "2022-11-11T12:43:43.788093",
      "2022-11-11T12:43:44.211652",
      "2022-11-11T12:43:44.610355",
      "2022-11-11T12:43:45.019837",
      "2022-11-11T12:43:45.413852",
      "2022-11-11T12:43:45.792019",
      "2022-11-11T12:43:46.169149",
      "2022-11-11T12:43:46.586640",
      "2022-11-11T12:43:46.994697",
      "2022-11-11T12:43:47.392842",
      "2022-11-11T12:43:47.822827",
      "2022-11-11T12:43:48.224757",
      "2022-11-11T12:43:48.630988",
      "2022-11-11T12:43:49.059802",
      "2022-11-11T12:43:49.499469",
      "2022-11-11T12:43:49.883598",
      "2022-11-11T12:43:50.265238",
      "2022-11-11T12:43:50.642733",
      "2022-11-11T12:43:51.019279",
      "2022-11-11T12:43:51.401549",
      "2022-11-11T12:43:51.793131",
      "2022-11-11T12:43:52.168293",
      "2022-11-11T12:43:52.546991",
      "2022-11-11T12:43:52.923064",
      "2022-11-11T12:43:53.300285",
      "2022-11-11T12:43:53.678363",
      "2022-11-11T12:43:54.071935",
      "2022-11-11T12:43:54.474950",
      "2022-11-11T12:43:54.864878",
      "2022-11-11T12:43:55.259059",
      "2022-11-11T12:43:55.653921",
      "2022-11-11T12:43:56.025219",
      "2022-11-11T12:43:56.392229",
      "2022-11-11T12:43:56.758394",
      "2022-11-11T12:43:57.131467",
      "2022-11-11T12:43:57.497811",
      "2022-11-11T12:43:57.865422",
      "2022-11-11T12:43:58.236588",
      "2022-11-11T12:43:58.606213",
      "2022-11-11T12:43:58.974974"
    ],
    "values": [
      10.17324736467344,
      10.07707436114165,
      10.000810575893814,
      9.9477908870795,
      9.88042203987158,
      9.812865366451707,
      9.7509810968348,
      9.727785183687752,
      9.745277259617938,
      9.709076957648936,
      9.560383526155775,
      9.514513981275574,
      9.463400574033084,
      9.433544950260192,
      9.433645906517787,
      9.384111628378525,
      9.302367574846944,
      9.326945470379579,
      9.232352308204685,
      9.174420636911481,
      9.112069691578736,
      9.068804550761861,
      9.02289847388623,
      8.907290770980534,
      8.899959590271019,
      8.891268867422998,
      8.91756900210423,
      8.850348820822438,
      8.845950138503511,
      8.83635607759157,
      8.765186285380079,
      8.739518527706116,
      8.712522250839475,
      8.686014549293425,
      8.589839029678974,
      8.60483234667213,
      8.627934138429495,
      8.612636304907468,
      8.585189210325105,
      8.586934221032077,
      8.593162439352788,
      8.599594305757726,
      8.57198619938311,
      8.583855773863377,
      8.60368842836631,
      8.535489743480799,
      8.566167672068321,
      8.564508625231863,
      8.491467355975914,
      8.508854134488963,
      8.513739433096031,
      8.516891477556587,
      8.467972523955972,
      8.449823159196734,
      8.470138667351923,
      8.408177223196585,
      8.432801734115397,
      8.452786450114422,
      8.416777370624576,
      8.333513460409574,
      8.382772316090955,
      8.376402940568486,
      8.36167158440254,
      8.332302297968416,
      8.37442397339665,
      8.311027510855558,
      8.314483101850666,
      8.292299004937547,
      8.364511804745343,
      8.285856551098924,
      8.246734905484066,
      8.235104278169192,
      8.201629838828511,
      8.195134129402438,
      8.171652871833464,
      8.147976106531653,
      8.171035201956752,
      8.15363631214889,
      8.114576803880816,
      8.124785307044045,
      8.231847466186354,
      8.095420478375079,
      8.120922197436428,
      8.126187277825363,
      8.097797198562654,
      8.043773717286106,
      8.083934159333323,
      8.053867183641362,
      8.082052375578234,
      8.11744535307302,
      8.073202070887522,
      8.068959243757153,
      8.024116234419687,
      8.035401556603919,
      8.06508388392169,
      7.9952811576128955,
      8.031431470490382,
      8.039883518659504,
      8.137295958679248,
      8.05182443866394,
      8.030972583874643,
      8.022941478236364,
      7.99593190997548,
      8.017929821998699,
      8.029852947974103,
      7.996729523279084,
      7.983463261111064,
      7.966606374380497,
      8.050743710972068,
      8.010013437664814,
      8.032797308121493,
      7.925022924204557,
      7.948723718476524,
      7.977033414226111,
      7.98772994635748,
      7.979384115737796,
      7.975684153011978,
      8.016122221852346,
      7.9372056868232495,
      8.025791076185602,
      7.938142999573438,
      7.931002084300792,
      7.971565216642112,
      8.001884487609995,
      7.96536883984368,
      7.898586050810839,
      7.913321154502912,
      7.917231083643242,
      7.938411343464191,
      7.923788546087008,
      7.876545540763208,
      7.910391951539275,
      7.876219298973078,
      7.891811815495603,
      7.8924875982581835,
      7.9177672926854585,
      7.875739142487573,
      7.898431010480531,
      7.846535641823539,
      7.884078930145468,
      7.877437023841049,
      7.905970488708275,
      7.884066093786386,
      7.866992192586298,
      7.874049196009745,
      7.847259335980229,
      7.882456816088388,
      7.864388303129138,
      7.8760482560106,
      7.85097443428055,
      7.931491767550146,
      7.87954897464617,
      7.903591107524912,
      7.8576186097535485,
      7.873295166608331,
      7.8777248315175,
      7.889156288677564,
      7.881868017902609,
      7.887769632543778,
      7.883525143462352,
      7.901285367503997,
      7.965693194766686,
      7.885243117902635,
      7.888585596990298,
      7.876230612148308,
      7.92749773219644,
      7.858923009879106,
      7.892780996821318,
      7.8742777338028205,
      7.888467890216686,
      7.8491148273244935,
      7.868091370404221,
      7.900358308677973,
      7.88123176133071,
      7.864323436422785,
      7.892328985888883,
      7.882878230695186,
      7.875701315119659,
      7.890818701397611,
      7.894796299188752,
      7.883490293156482,
      7.904761602252568,
      7.875916380386189,
      7.883225055078429,
      7.85761164367968,
      7.857886366475858,
      7.885587989644047,
      7.904271913014415,
      7.86990390830717,
      7.875412185844153,
      7.873248871664705,
      7.8783231819286685,
      7.882378922580207,
      7.855630545376952,
      7.885647055253536,
      7.86060668732379,
      7.87143997135738,
      7.865984346371933,
      7.855078692724045,
      7.899036192722237,
      7.854163597104481,
      7.890696144153564,
      7.886149619578914,
      7.856655783727831,
      7.869610350035124,
      7.817800393394525,
      7.865307828795312,
      7.924329390135469,
      7.839407858075832,
      7.883673982899866,
      7.852466400061357,
      7.880897274985233,
      7.844411445000499,
      7.844702783643477,
      7.900894251755075,
      7.922652532927941,
      7.869294733429731,
      7.869736813160498,
      7.842608023928564,
      7.8843983825327015,
      7.876444221579713,
      7.850259635629723,
      7.880492801093505,
      7.896944851700132,
      7.874729054767862,
      7.870701821679131,
      7.848379312310618,
      7.867362116380863,
      7.847699543819433,
      7.899918536091798,
      7.872603915594176,
      7.848951544198959,
      7.879914890121111,
      7.904463081232531,
      7.939112798432026,
      7.855248479752629,
      7.883748251042715,
      7.860753746851802,
      7.901454504127662,
      7.885037945670962,
      7.900810692979282,
      7.830904418019648,
      7.880130735727981,
      7.894434153424468,
      7.893207561970679,
      7.87108534479929,
      7.86041579804273,
      7.883993432875258,
      7.869408675293838,
      7.871401712972002,
      7.889212032095055,
      7.88811304113761,
      7.867551456681559,
      7.8724456896835,
      7.876209885474156,
      7.83945643780733,
      7.875817347365126,
      7.871174800869214,
      7.863147013524637,
      7.874186505724107,
      7.852294494661668,
      7.885644529900054,
      7.893390147760355,
      7.889418989498869,
      7.877556345466703,
      7.851591362888539,
      7.854944845788336,
      7.910255750720294,
      7.8717619872053834,
      7.902188125228006,
      7.860760810965179,
      7.900903263840391,
      7.871350088475585,
      7.908362704369121,
      7.919893078713672,
      7.863555643169102,
      7.888545871327767,
      7.888357216549932,
      7.89937574367814,
      7.885000592649369,
      7.887397929891955,
      7.919690744307718,
      7.892271387741817,
      7.886355603379042,
      7.885065167918862,
      7.891640683381591,
      7.8671574134873286,
      7.878496015451219,
      7.905732455866632,
      7.850846694652674,
      7.8892258420420465,
      7.889509072419559,
      7.888456318057837,
      7.886993475660899,
      7.90978811999863,
      7.882130788309361,
      7.893922579039997,
      7.863061143847284,
      7.898780275176148,
      7.8759950051230705
    ]
  }
}