{
  "memory.usage": {
    "steps": [
      0,
      1,
      2,
      3,
      4,
      5,
      6,
      7,
      8,
      9,
      10,
      11,
      12,
      13,
      14,
      15,
      16,
      17,
      18,
      19,
      20,
      21,
      22,
      23,
      24,
      25,
      26,
      27,
      28,
      29,
      30,
      0,
      1,
      2,
      3,
      4
    ],
    "timestamps": [
      "2022-11-08T04:46:51.725150",
      "2022-11-08T04:50:22.668935",
      "2022-11-08T04:54:17.130952",
      "2022-11-08T04:58:12.517151",
      "2022-11-08T05:02:07.167455",
      "2022-11-08T05:06:01.420389",
      "2022-11-08T05:09:56.382277",
      "2022-11-08T05:13:50.692906",
      "2022-11-08T05:17:45.382156",
      "2022-11-08T05:21:40.427791",
      "2022-11-08T05:25:35.534147",
      "2022-11-08T05:29:31.001420",
      "2022-11-08T05:33:26.132041",
      "2022-11-08T05:37:21.888821",
      "2022-11-08T05:41:17.396163",
      "2022-11-08T05:45:12.425637",
      "2022-11-08T05:49:08.016317",
      "2022-11-08T05:53:03.367332",
      "2022-11-08T05:56:58.272608",
      "2022-11-08T06:00:53.125321",
      "2022-11-08T06:04:47.896244",
      "2022-11-08T06:08:43.487769",
      "2022-11-08T06:12:38.723070",
      "2022-11-08T06:16:33.540873",
      "2022-11-08T06:20:28.272142",
      "2022-11-08T06:24:23.398214",
      "2022-11-08T06:28:18.376885",
      "2022-11-08T06:32:13.706370",
      "2022-11-08T06:36:08.603717",
      "2022-11-08T06:40:03.561326",
      "2022-11-08T06:43:58.464000",
      "2022-11-08T09:06:34.711517",
      "2022-11-08T09:10:39.544703",
      "2022-11-08T09:14:42.929629",
      "2022-11-08T09:18:43.836148",
      "2022-11-08T09:22:48.206603"
    ],
    "values": [
      249.337344,
      249.337344,
      249.337344,
      249.337344,
      249.337344,
      249.337344,
      249.337344,
      249.337344,
      249.337344,
      249.337344,
      249.337344,
      249.337344,
      249.337344,
      249.337344,
      249.337344,
      249.337344,
      249.337344,
      249.337344,
      249.337344,
      249.337344,
      249.337344,
      249.337344,
      249.337344,
      249.337344,
      249.337344,
      249.337344,
      249.337344,
      249.337344,
      249.337344,
      249.337344,
      249.337344,
      249.337344,
      249.337344,
      249.337344,
      249.337344,
      249.337344
    ]
  },
  "train": {
    "steps": [
      0,
      1,
      2,
      3,
      4,
      5,
      6,
      7,
      8,
      9,
      10,
      11,
      12,
      13,
      14,
      15,
      16,
      17,
      18,
      19,
      20,
      21,
      22,
      23,
      24,
      25,
      26,
      27,
      28,
      29,
      30,
      31,
      32,
      33,
      34,
      35,
      36,
      37,
      38,
      39,
      40,
      41,
      42,
      43,
      44,
      45,
      46,
      47,
      48,
      49,
      50,
      51,
      52,
      53,
      54,
      55,
      56,
      57,
      58,
      59,
      60,
      61,
      62,
      63,
      64,
      65,
      66,
      67,
      68,
      69,
      70,
      71,
      72,
      73,
      74,
      75,
      76,
      77,
      78,
      79,
      80,
      81,
      82,
      83,
      84,
      85,
      86,
      87,
      88,
      89,
      90,
      91,
      92,
      93,
      94,
      95,
      96,
      97,
      98,
      99,
      100,
      101,
      102,
      103,
      104,
      105,
      106,
      107,
      108,
      109,
      110,
      111,
      112,
      113,
      114,
      115,
      116,
      117,
      118,
      119,
      120,
      121,
      122,
      123,
      124,
      125,
      126,
      127,
      128,
      129,
      130,
      131,
      132,
      133,
      134,
      135,
      136,
      137,
      138,
      139,
      140,
      141,
      142,
      143,
      144,
      145,
      146,
      147,
      148,
      149,
      150,
      151,
      152,
      153,
      154,
      155,
      156,
      157,
      158,
      159,
      160,
      161,
      162,
      163,
      164,
      165,
      166,
      167,
      168,
      169,
      170,
      171,
      172,
      173,
      174,
      175,
      176,
      177,
      178,
      179,
      180,
      181,
      182,
      183,
      184,
      185,
      186,
      187,
      188,
      189,
      190,
      191,
      192,
      193,
      194,
      195,
      196,
      197,
      198,
      199,
      200,
      201,
      202,
      203,
      204,
      205,
      206,
      207,
      208,
      209,
      210,
      211,
      212,
      213,
      214,
      215,
      216,
      217,
      218,
      219,
      220,
      221,
      222,
      223,
      224,
      225,
      226,
      227,
      228,
      229,
      230,
      231,
      232,
      233,
      234,
      235,
      236,
      237,
      238,
      239,
      240,
      241,
      242,
      243,
      244,
      245,
      246,
      247,
      248,
      249,
      250,
      251,
      252,
      253,
      254,
      255,
      256,
      257,
      258,
      259,
      260,
      261,
      262,
      263,
      264,
      265,
      266,
      267,
      268,
      269,
      270,
      271,
      272,
      273,
      274,
      275,
      276,
      277,
      278,
      279,
      280,
      281,
      282,
      283,
      284,
      285,
      286,
      287,
      288,
      289,
      290,
      291,
      292,
      293,
      294,
      295,
      296,
      297,
      298,
      299,
      0,
      1,
      2,
      3,
      4,
      5,
      6,
      7,
      8,
      9,
      10,
      11,
      12,
      13,
      14,
      15,
      16,
      17,
      18,
      19,
      20,
      21,
      22,
      23,
      24,
      25,
      26,
      27,
      28,
      29,
      30,
      31,
      32,
      33,
      34,
      35,
      36,
      37,
      38,
      39,
      40,
      41,
      42,
      43,
      44,
      45,
      46,
      47,
      48,
      49
    ],
    "timestamps": [
      "2022-11-08T04:46:51.724980",
      "2022-11-08T04:47:15.271929",
      "2022-11-08T04:47:38.690429",
      "2022-11-08T04:48:02.139667",
      "2022-11-08T04:48:25.485231",
      "2022-11-08T04:48:48.827581",
      "2022-11-08T04:49:12.362180",
      "2022-11-08T04:49:35.718849",
      "2022-11-08T04:49:59.093247",
      "2022-11-08T04:50:22.668791",
      "2022-11-08T04:50:46.098105",
      "2022-11-08T04:51:09.506595",
      "2022-11-08T04:51:32.894585",
      "2022-11-08T04:51:56.331604",
      "2022-11-08T04:52:19.706263",
      "2022-11-08T04:52:43.145111",
      "2022-11-08T04:53:06.673987",
      "2022-11-08T04:53:30.297778",
      "2022-11-08T04:53:53.725920",
      "2022-11-08T04:54:17.130809",
      "2022-11-08T04:54:40.812964",
      "2022-11-08T04:55:04.277538",
      "2022-11-08T04:55:27.778420",
      "2022-11-08T04:55:51.303092",
      "2022-11-08T04:56:14.709304",
      "2022-11-08T04:56:38.192426",
      "2022-11-08T04:57:01.727575",
      "2022-11-08T04:57:25.292259",
      "2022-11-08T04:57:48.834223",
      "2022-11-08T04:58:12.517002",
      "2022-11-08T04:58:36.094663",
      "2022-11-08T04:58:59.634246",
      "2022-11-08T04:59:22.983362",
      "2022-11-08T04:59:46.341534",
      "2022-11-08T05:00:09.867149",
      "2022-11-08T05:00:33.206137",
      "2022-11-08T05:00:56.618627",
      "2022-11-08T05:01:20.281821",
      "2022-11-08T05:01:43.760284",
      "2022-11-08T05:02:07.167314",
      "2022-11-08T05:02:30.697322",
      "2022-11-08T05:02:54.063970",
      "2022-11-08T05:03:17.348124",
      "2022-11-08T05:03:40.901856",
      "2022-11-08T05:04:04.401747",
      "2022-11-08T05:04:27.659288",
      "2022-11-08T05:04:51.039666",
      "2022-11-08T05:05:14.465104",
      "2022-11-08T05:05:37.957228",
      "2022-11-08T05:06:01.420246",
      "2022-11-08T05:06:24.911012",
      "2022-11-08T05:06:48.327719",
      "2022-11-08T05:07:11.912952",
      "2022-11-08T05:07:35.349913",
      "2022-11-08T05:07:59.049669",
      "2022-11-08T05:08:22.475319",
      "2022-11-08T05:08:45.918276",
      "2022-11-08T05:09:09.428608",
      "2022-11-08T05:09:32.977893",
      "2022-11-08T05:09:56.382132",
      "2022-11-08T05:10:19.976663",
      "2022-11-08T05:10:43.246293",
      "2022-11-08T05:11:06.566713",
      "2022-11-08T05:11:29.995588",
      "2022-11-08T05:11:53.444912",
      "2022-11-08T05:12:16.774199",
      "2022-11-08T05:12:40.374443",
      "2022-11-08T05:13:03.855755",
      "2022-11-08T05:13:27.178627",
      "2022-11-08T05:13:50.692762",
      "2022-11-08T05:14:14.211581",
      "2022-11-08T05:14:37.639417",
      "2022-11-08T05:15:01.207973",
      "2022-11-08T05:15:24.677115",
      "2022-11-08T05:15:47.950376",
      "2022-11-08T05:16:11.530619",
      "2022-11-08T05:16:35.002169",
      "2022-11-08T05:16:58.360243",
      "2022-11-08T05:17:21.927148",
      "2022-11-08T05:17:45.382012",
      "2022-11-08T05:18:08.943160",
      "2022-11-08T05:18:32.449148",
      "2022-11-08T05:18:55.936413",
      "2022-11-08T05:19:19.333829",
      "2022-11-08T05:19:42.947211",
      "2022-11-08T05:20:06.333501",
      "2022-11-08T05:20:29.769866",
      "2022-11-08T05:20:53.260358",
      "2022-11-08T05:21:16.821171",
      "2022-11-08T05:21:40.427641",
      "2022-11-08T05:22:03.952097",
      "2022-11-08T05:22:27.398645",
      "2022-11-08T05:22:51.071870",
      "2022-11-08T05:23:14.508191",
      "2022-11-08T05:23:37.857655",
      "2022-11-08T05:24:01.468324",
      "2022-11-08T05:24:24.889937",
      "2022-11-08T05:24:48.363643",
      "2022-11-08T05:25:12.087272",
      "2022-11-08T05:25:35.534006",
      "2022-11-08T05:25:59.106159",
      "2022-11-08T05:26:22.779799",
      "2022-11-08T05:26:46.193723",
      "2022-11-08T05:27:09.630128",
      "2022-11-08T05:27:33.487600",
      "2022-11-08T05:27:56.889127",
      "2022-11-08T05:28:20.441358",
      "2022-11-08T05:28:43.990967",
      "2022-11-08T05:29:07.439047",
      "2022-11-08T05:29:31.001280",
      "2022-11-08T05:29:54.474850",
      "2022-11-08T05:30:17.759023",
      "2022-11-08T05:30:41.399114",
      "2022-11-08T05:31:04.927218",
      "2022-11-08T05:31:28.343328",
      "2022-11-08T05:31:52.167370",
      "2022-11-08T05:32:15.576028",
      "2022-11-08T05:32:38.967510",
      "2022-11-08T05:33:02.643014",
      "2022-11-08T05:33:26.131892",
      "2022-11-08T05:33:49.662867",
      "2022-11-08T05:34:13.241169",
      "2022-11-08T05:34:36.792513",
      "2022-11-08T05:35:00.539885",
      "2022-11-08T05:35:24.056677",
      "2022-11-08T05:35:47.710977",
      "2022-11-08T05:36:11.437105",
      "2022-11-08T05:36:34.846594",
      "2022-11-08T05:36:58.222361",
      "2022-11-08T05:37:21.888673",
      "2022-11-08T05:37:45.491755",
      "2022-11-08T05:38:08.996410",
      "2022-11-08T05:38:32.640412",
      "2022-11-08T05:38:56.070426",
      "2022-11-08T05:39:19.689515",
      "2022-11-08T05:39:43.236966",
      "2022-11-08T05:40:06.723843",
      "2022-11-08T05:40:30.373064",
      "2022-11-08T05:40:53.970066",
      "2022-11-08T05:41:17.396022",
      "2022-11-08T05:41:41.039717",
      "2022-11-08T05:42:04.378305",
      "2022-11-08T05:42:27.682420",
      "2022-11-08T05:42:51.231458",
      "2022-11-08T05:43:14.679471",
      "2022-11-08T05:43:38.049641",
      "2022-11-08T05:44:01.790608",
      "2022-11-08T05:44:25.201442",
      "2022-11-08T05:44:48.792602",
      "2022-11-08T05:45:12.425488",
      "2022-11-08T05:45:35.972675",
      "2022-11-08T05:45:59.470747",
      "2022-11-08T05:46:22.993567",
      "2022-11-08T05:46:46.432254",
      "2022-11-08T05:47:09.978575",
      "2022-11-08T05:47:33.669073",
      "2022-11-08T05:47:57.337642",
      "2022-11-08T05:48:21.167691",
      "2022-11-08T05:48:44.597730",
      "2022-11-08T05:49:08.016175",
      "2022-11-08T05:49:31.750315",
      "2022-11-08T05:49:55.272204",
      "2022-11-08T05:50:18.663951",
      "2022-11-08T05:50:42.286150",
      "2022-11-08T05:51:05.672477",
      "2022-11-08T05:51:29.199343",
      "2022-11-08T05:51:52.857270",
      "2022-11-08T05:52:16.338909",
      "2022-11-08T05:52:39.717494",
      "2022-11-08T05:53:03.367190",
      "2022-11-08T05:53:26.807706",
      "2022-11-08T05:53:50.441435",
      "2022-11-08T05:54:14.082392",
      "2022-11-08T05:54:37.442988",
      "2022-11-08T05:55:01.129691",
      "2022-11-08T05:55:24.552597",
      "2022-11-08T05:55:48.021288",
      "2022-11-08T05:56:11.558001",
      "2022-11-08T05:56:34.947859",
      "2022-11-08T05:56:58.272472",
      "2022-11-08T05:57:21.858585",
      "2022-11-08T05:57:45.175137",
      "2022-11-08T05:58:08.539544",
      "2022-11-08T05:58:32.105550",
      "2022-11-08T05:58:55.666780",
      "2022-11-08T05:59:19.130266",
      "2022-11-08T05:59:42.703173",
      "2022-11-08T06:00:06.145441",
      "2022-11-08T06:00:29.532517",
      "2022-11-08T06:00:53.125179",
      "2022-11-08T06:01:16.600428",
      "2022-11-08T06:01:39.947926",
      "2022-11-08T06:02:03.582266",
      "2022-11-08T06:02:26.988478",
      "2022-11-08T06:02:50.445594",
      "2022-11-08T06:03:13.977571",
      "2022-11-08T06:03:37.359962",
      "2022-11-08T06:04:00.967952",
      "2022-11-08T06:04:24.553403",
      "2022-11-08T06:04:47.896097",
      "2022-11-08T06:05:11.691222",
      "2022-11-08T06:05:35.101758",
      "2022-11-08T06:05:58.541619",
      "2022-11-08T06:06:22.263254",
      "2022-11-08T06:06:45.751553",
      "2022-11-08T06:07:09.375590",
      "2022-11-08T06:07:32.936498",
      "2022-11-08T06:07:56.324154",
      "2022-11-08T06:08:19.840000",
      "2022-11-08T06:08:43.487625",
      "2022-11-08T06:09:07.038670",
      "2022-11-08T06:09:30.639874",
      "2022-11-08T06:09:54.169541",
      "2022-11-08T06:10:17.708826",
      "2022-11-08T06:10:41.269577",
      "2022-11-08T06:11:04.742328",
      "2022-11-08T06:11:28.207001",
      "2022-11-08T06:11:51.917264",
      "2022-11-08T06:12:15.173238",
      "2022-11-08T06:12:38.722933",
      "2022-11-08T06:13:02.365234",
      "2022-11-08T06:13:25.819033",
      "2022-11-08T06:13:49.150578",
      "2022-11-08T06:14:12.764219",
      "2022-11-08T06:14:36.223891",
      "2022-11-08T06:14:59.607379",
      "2022-11-08T06:15:23.095776",
      "2022-11-08T06:15:46.332640",
      "2022-11-08T06:16:09.795034",
      "2022-11-08T06:16:33.540733",
      "2022-11-08T06:16:57.065578",
      "2022-11-08T06:17:20.675462",
      "2022-11-08T06:17:44.210882",
      "2022-11-08T06:18:07.586715",
      "2022-11-08T06:18:30.960212",
      "2022-11-08T06:18:54.467624",
      "2022-11-08T06:19:17.869639",
      "2022-11-08T06:19:41.308647",
      "2022-11-08T06:20:04.776212",
      "2022-11-08T06:20:28.271997",
      "2022-11-08T06:20:51.897186",
      "2022-11-08T06:21:15.181012",
      "2022-11-08T06:21:38.589836",
      "2022-11-08T06:22:02.179482",
      "2022-11-08T06:22:25.644691",
      "2022-11-08T06:22:49.199762",
      "2022-11-08T06:23:12.817783",
      "2022-11-08T06:23:36.460131",
      "2022-11-08T06:23:59.833110",
      "2022-11-08T06:24:23.398076",
      "2022-11-08T06:24:46.728499",
      "2022-11-08T06:25:10.177534",
      "2022-11-08T06:25:33.763387",
      "2022-11-08T06:25:57.244808",
      "2022-11-08T06:26:20.777110",
      "2022-11-08T06:26:44.193490",
      "2022-11-08T06:27:07.628597",
      "2022-11-08T06:27:31.244872",
      "2022-11-08T06:27:54.936209",
      "2022-11-08T06:28:18.376745",
      "2022-11-08T06:28:42.007405",
      "2022-11-08T06:29:05.519506",
      "2022-11-08T06:29:28.864252",
      "2022-11-08T06:29:52.580287",
      "2022-11-08T06:30:16.307320",
      "2022-11-08T06:30:39.764105",
      "2022-11-08T06:31:03.255903",
      "2022-11-08T06:31:26.655900",
      "2022-11-08T06:31:50.081205",
      "2022-11-08T06:32:13.706234",
      "2022-11-08T06:32:37.115865",
      "2022-11-08T06:33:00.757268",
      "2022-11-08T06:33:24.392527",
      "2022-11-08T06:33:47.597684",
      "2022-11-08T06:34:11.101729",
      "2022-11-08T06:34:34.754643",
      "2022-11-08T06:34:58.090880",
      "2022-11-08T06:35:21.721369",
      "2022-11-08T06:35:45.256068",
      "2022-11-08T06:36:08.603578",
      "2022-11-08T06:36:32.218791",
      "2022-11-08T06:36:55.555642",
      "2022-11-08T06:37:19.046735",
      "2022-11-08T06:37:42.741949",
      "2022-11-08T06:38:06.141826",
      "2022-11-08T06:38:29.556256",
      "2022-11-08T06:38:53.103108",
      "2022-11-08T06:39:16.504138",
      "2022-11-08T06:39:40.003153",
      "2022-11-08T06:40:03.561180",
      "2022-11-08T06:40:26.888034",
      "2022-11-08T06:40:50.323305",
      "2022-11-08T06:41:13.926833",
      "2022-11-08T06:41:37.302188",
      "2022-11-08T06:42:00.861080",
      "2022-11-08T06:42:24.525456",
      "2022-11-08T06:42:47.816772",
      "2022-11-08T06:43:11.247689",
      "2022-11-08T06:43:34.950492",
      "2022-11-08T06:43:58.463861",
      "2022-11-08T09:02:53.228140",
      "2022-11-08T09:03:17.755967",
      "2022-11-08T09:03:42.470128",
      "2022-11-08T09:04:06.983313",
      "2022-11-08T09:04:31.650043",
      "2022-11-08T09:04:57.746126",
      "2022-11-08T09:05:23.025650",
      "2022-11-08T09:05:47.765655",
      "2022-11-08T09:06:11.325802",
      "2022-11-08T09:06:34.711361",
      "2022-11-08T09:06:58.162578",
      "2022-11-08T09:07:21.458244",
      "2022-11-08T09:07:46.516454",
      "2022-11-08T09:08:10.295962",
      "2022-11-08T09:08:34.978492",
      "2022-11-08T09:08:59.971155",
      "2022-11-08T09:09:23.759036",
      "2022-11-08T09:09:48.680260",
      "2022-11-08T09:10:14.863531",
      "2022-11-08T09:10:39.544551",
      "2022-11-08T09:11:03.757342",
      "2022-11-08T09:11:28.482491",
      "2022-11-08T09:11:52.750290",
      "2022-11-08T09:12:17.492325",
      "2022-11-08T09:12:41.704834",
      "2022-11-08T09:13:06.043616",
      "2022-11-08T09:13:30.223626",
      "2022-11-08T09:13:54.449430",
      "2022-11-08T09:14:18.689566",
      "2022-11-08T09:14:42.929469",
      "2022-11-08T09:15:07.043136",
      "2022-11-08T09:15:31.050674",
      "2022-11-08T09:15:55.059812",
      "2022-11-08T09:16:19.098353",
      "2022-11-08T09:16:43.175959",
      "2022-11-08T09:17:07.351368",
      "2022-11-08T09:17:31.723663",
      "2022-11-08T09:17:55.730808",
      "2022-11-08T09:18:19.760610",
      "2022-11-08T09:18:43.835950",
      "2022-11-08T09:19:08.076846",
      "2022-11-08T09:19:32.262172",
      "2022-11-08T09:19:56.427632",
      "2022-11-08T09:20:20.715763",
      "2022-11-08T09:20:44.968077",
      "2022-11-08T09:21:09.039310",
      "2022-11-08T09:21:32.940253",
      "2022-11-08T09:21:58.292448",
      "2022-11-08T09:22:24.462337",
      "2022-11-08T09:22:48.206457"
    ],
    "values": [
      49.30778915252153,
      34.780122604691606,
      28.289520662966655,
      23.608994989721854,
      20.552212444518283,
      18.164310162174445,
      16.361002899481157,
      14.579906793593686,
      13.486309755916675,
      12.36023973092815,
      12.054041868494826,
      11.280003762282947,
      9.718829569770165,
      9.060701328657611,
      8.481358132040338,
      8.041588200582906,
      9.41430088219559,
      7.407470987452632,
      6.708637302204807,
      6.682663534081138,
      6.431738428077835,
      5.972732934921846,
      5.806143430929848,
      6.058069781775008,
      5.903516528988095,
      5.7290507848465495,
      5.853990605622943,
      5.675916888348204,
      6.100705487555486,
      6.383174914232326,
      6.027024106913709,
      6.301860458422367,
      6.526418890326243,
      6.910971889341264,
      7.134762999136395,
      7.522020002272765,
      7.366196635561835,
      7.994828743209548,
      9.056866373640496,
      8.86436431500585,
      8.719710415603886,
      9.411150235956141,
      9.61820354609972,
      9.89800053512766,
      10.798965333804063,
      10.724393232094625,
      11.117882841071753,
      11.500987597115145,
      12.232412092305248,
      12.511831325131237,
      12.789795385497127,
      13.294219878425974,
      13.535847595449194,
      13.91311089589635,
      14.73237190292838,
      14.833106477765382,
      15.571534466246828,
      15.905027764775571,
      16.52376186304453,
      16.839065712246267,
      17.20824348409263,
      17.611616548290538,
      18.293567305888242,
      18.81799699149251,
      19.14934961589782,
      19.790483683994463,
      20.077888448434763,
      20.654679009100064,
      20.959766435579546,
      21.76814399688041,
      22.03792265554229,
      22.520539062125717,
      23.161771733151955,
      23.394703623745517,
      23.96385820634487,
      24.486992215999273,
      24.9517881316139,
      25.515566841855165,
      25.928993318975945,
      26.441252326183175,
      26.927872919559196,
      27.518124886646515,
      27.90193022647619,
      28.379777179572514,
      28.909732475742256,
      29.229587626565614,
      29.852305030616453,
      30.25595820965332,
      30.7780284261572,
      31.13739806460097,
      31.646296968179485,
      32.10843924725393,
      32.5346377870542,
      33.03443733037082,
      33.41198360596913,
      33.7979606819479,
      34.26378338154659,
      34.5965029808068,
      34.96713357100789,
      35.30407706984025,
      35.29473953731067,
      35.271851637846375,
      35.27313454141495,
      35.256892761764995,
      35.24896929121593,
      35.25757858433131,
      35.23408303902367,
      35.22329136471375,
      35.221689533421404,
      35.22141235430246,
      35.21073812538884,
      35.21610678513859,
      35.21556533453169,
      35.200806344002046,
      35.198270408122305,
      35.1876335642117,
      35.18963058732241,
      35.17682403050567,
      35.17691538635943,
      35.17672092215778,
      35.17554947448859,
      35.17320053979699,
      35.16565437172237,
      35.161912075168054,
      35.16068094040425,
      35.15882478160697,
      35.1587177994364,
      35.13782810440962,
      35.12499285420497,
      35.12987915690087,
      35.124090318782436,
      35.13517587433959,
      35.122176463396,
      35.10771841006372,
      35.11163251467831,
      35.11191719976698,
      35.090164175233966,
      35.09207126825698,
      35.09136165107024,
      35.08648768513502,
      35.07299127326052,
      35.08348268231465,
      35.07753705857141,
      35.07157964041802,
      35.06224535032964,
      35.06530431439103,
      35.062851927298276,
      35.05546745142095,
      35.06066351403638,
      35.05702354072608,
      35.05533854058369,
      35.053822257305086,
      35.054079698868264,
      35.04960941508421,
      35.04092785287184,
      35.05352632163893,
      35.03963029200972,
      35.05286189521959,
      35.047224266677375,
      35.037849947671845,
      35.04545531860555,
      35.04361999609071,
      35.04915914669597,
      35.03034666814843,
      35.02612061197955,
      35.035512250786105,
      35.0307324231934,
      35.03210619119934,
      35.0445207453055,
      35.022806992496676,
      35.04545988985966,
      35.03275660204983,
      35.03203322578648,
      35.0252156813338,
      35.02384990794747,
      35.026443068871274,
      35.01805986294274,
      35.02933425116858,
      35.02897081608695,
      35.03016722336958,
      35.021482416246116,
      35.02014044164924,
      35.0107864895828,
      35.01427742782506,
      35.02201997040302,
      35.01780321979522,
      35.02081446922071,
      35.0114138082677,
      35.01575788877171,
      35.01795959301271,
      35.019885175285395,
      35.006404059123746,
      35.00364822830363,
      35.016078486447874,
      35.00640935147902,
      35.01362256540007,
      35.01215755377082,
      35.022790201803666,
      35.00861178949124,
      35.012253008017176,
      35.00477407752855,
      35.01192114770497,
      35.01709555937878,
      35.01379965469016,
      35.012502678742955,
      34.99438588082216,
      34.995430214100395,
      35.0004957046718,
      35.00958715859884,
      35.00398126206705,
      35.00869354890835,
      35.000671187529875,
      35.00383459732821,
      35.00444885569951,
      35.014859252971696,
      35.0088938768194,
      34.991951429358636,
      34.997105170767135,
      34.99328015034934,
      35.00383846369863,
      35.0154791832835,
      35.00300620691203,
      34.999807634672436,
      34.9893139478666,
      35.00557937363946,
      34.987127448251954,
      34.99718260518292,
      35.00371361000583,
      34.99897590273917,
      34.98307041315402,
      34.992575776953885,
      34.99560453637106,
      34.99953932107182,
      34.99179489042316,
      34.99390043304475,
      34.99081291484125,
      34.99291045537214,
      34.99221757688619,
      34.985406047316125,
      34.980555748350376,
      34.99554923285256,
      34.99450962192386,
      34.97698043528019,
      34.98478378255036,
      34.992595258208205,
      34.98869780441235,
      34.994725228117424,
      34.97986221603989,
      34.977246201106375,
      34.98412516786337,
      34.97821518455423,
      34.98293743590954,
      34.98160405305944,
      34.96524043245259,
      34.98065575412858,
      34.98282372774479,
      34.97595484401609,
      34.98198284480358,
      34.98042724052965,
      34.97201437333805,
      34.986672845014446,
      34.972292987450416,
      34.972213042651,
      34.97092784123446,
      34.97928304315349,
      34.97834256143847,
      34.968832678234,
      34.96697093966714,
      34.97645599050148,
      34.972237351597556,
      34.96913466643628,
      34.97394363582434,
      34.96639482988208,
      34.96624032888483,
      34.969131949012585,
      34.88436835274499,
      34.860277473727024,
      34.855803784836006,
      34.86271064770606,
      34.85773383632869,
      34.85646972220443,
      34.85127309899529,
      34.853325682445764,
      34.851540899278575,
      34.85578070311427,
      34.85385151329051,
      34.85580543925373,
      34.852873906846476,
      34.85110078256982,
      34.856727961809945,
      34.84988981483313,
      34.846275847788036,
      34.85060844319888,
      34.85173218292413,
      34.8514925274302,
      34.85109737762625,
      34.85003373693712,
      34.84852087250971,
      34.85167747703692,
      34.85412831390313,
      34.850528532684436,
      34.8518324321311,
      34.84979969234291,
      34.84955909437599,
      34.85163717113992,
      34.853076345328894,
      34.8455259652072,
      34.8551531244807,
      34.846454868030435,
      34.85345871682732,
      34.84489895180877,
      34.84786397230923,
      34.84377346450183,
      34.83596061160854,
      34.83699673532589,
      34.82951500840427,
      34.83512827629343,
      34.83857458362997,
      34.84237057925421,
      34.834472853382145,
      34.833312872268706,
      34.83234101220859,
      34.83622559404497,
      34.83447115900047,
      34.83290741953078,
      34.83658963598768,
      34.834748243157925,
      34.833347584668815,
      34.8344103233473,
      34.83698839482071,
      34.82869934704497,
      34.831202192644305,
      34.83611789312324,
      34.833216821707566,
      34.835631838265414,
      34.832542604791755,
      34.83191818802297,
      34.83315849420067,
      34.83298546341222,
      34.83593943659031,
      34.83246578978708,
      34.834319383610705,
      34.82903772862333,
      34.83041512804003,
      34.8301948633778,
      34.834142676448444,
      34.83342343861779,
      34.83359390060755,
      34.83421810952019,
      34.83145671189285
    ]
  },
  "val": {
    "steps": [
      0,
      1,
      2,
      3,
      4,
      5,
      6,
      7,
      8,
      9,
      10,
      11,
      12,
      13,
      14,
      15,
      16,
      17,
      18,
      19,
      20,
      21,
      22,
      23,
      24,
      25,
      26,
      27,
      28,
      29,
      30,
      31,
      32,
      33,
      34,
      35,
      36,
      37,
      38,
      39,
      40,
      41,
      42,
      43,
      44,
      45,
      46,
      47,
      48,
      49,
      50,
      51,
      52,
      53,
      54,
      55,
      56,
      57,
      58,
      59,
      60,
      61,
      62,
      63,
      64,
      65,
      66,
      67,
      68,
      69,
      70,
      71,
      72,
      73,
      74,
      75,
      76,
      77,
      78,
      79,
      80,
      81,
      82,
      83,
      84,
      85,
      86,
      87,
      88,
      89,
      90,
      91,
      92,
      93,
      94,
      95,
      96,
      97,
      98,
      99,
      100,
      101,
      102,
      103,
      104,
      105,
      106,
      107,
      108,
      109,
      110,
      111,
      112,
      113,
      114,
      115,
      116,
      117,
      118,
      119,
      120,
      121,
      122,
      123,
      124,
      125,
      126,
      127,
      128,
      129,
      130,
      131,
      132,
      133,
      134,
      135,
      136,
      137,
      138,
      139,
      140,
      141,
      142,
      143,
      144,
      145,
      146,
      147,
      148,
      149,
      150,
      151,
      152,
      153,
      154,
      155,
      156,
      157,
      158,
      159,
      160,
      161,
      162,
      163,
      164,
      165,
      166,
      167,
      168,
      169,
      170,
      171,
      172,
      173,
      174,
      175,
      176,
      177,
      178,
      179,
      180,
      181,
      182,
      183,
      184,
      185,
      186,
      187,
      188,
      189,
      190,
      191,
      192,
      193,
      194,
      195,
      196,
      197,
      198,
      199,
      200,
      201,
      202,
      203,
      204,
      205,
      206,
      207,
      208,
      209,
      210,
      211,
      212,
      213,
      214,
      215,
      216,
      217,
      218,
      219,
      220,
      221,
      222,
      223,
      224,
      225,
      226,
      227,
      228,
      229,
      230,
      231,
      232,
      233,
      234,
      235,
      236,
      237,
      238,
      239,
      240,
      241,
      242,
      243,
      244,
      245,
      246,
      247,
      248,
      249,
      250,
      251,
      252,
      253,
      254,
      255,
      256,
      257,
      258,
      259,
      260,
      261,
      262,
      263,
      264,
      265,
      266,
      267,
      268,
      269,
      270,
      271,
      272,
      273,
      274,
      275,
      276,
      277,
      278,
      279,
      280,
      281,
      282,
      283,
      284,
      285,
      286,
      287,
      288,
      289,
      290,
      291,
      292,
      293,
      294,
      295,
      296,
      297,
      298,
      299,
      0,
      1,
      2,
      3,
      4,
      5,
      6,
      7,
      8,
      9,
      10,
      11,
      12,
      13,
      14,
      15,
      16,
      17,
      18,
      19,
      20,
      21,
      22,
      23,
      24,
      25,
      26,
      27,
      28,
      29,
      30,
      31,
      32,
      33,
      34,
      35,
      36,
      37,
      38,
      39,
      40,
      41,
      42,
      43,
      44,
      45,
      46,
      47,
      48,
      49
    ],
    "timestamps": [
      "2022-11-08T04:46:54.913060",
      "2022-11-08T04:47:18.460462",
      "2022-11-08T04:47:41.990662",
      "2022-11-08T04:48:05.290401",
      "2022-11-08T04:48:28.683086",
      "2022-11-08T04:48:52.135576",
      "2022-11-08T04:49:15.509362",
      "2022-11-08T04:49:38.889635",
      "2022-11-08T04:50:02.386075",
      "2022-11-08T04:50:25.846437",
      "2022-11-08T04:50:49.295064",
      "2022-11-08T04:51:12.720469",
      "2022-11-08T04:51:36.077908",
      "2022-11-08T04:51:59.589048",
      "2022-11-08T04:52:22.973965",
      "2022-11-08T04:52:46.354693",
      "2022-11-08T04:53:10.049641",
      "2022-11-08T04:53:33.455219",
      "2022-11-08T04:53:56.919410",
      "2022-11-08T04:54:20.465314",
      "2022-11-08T04:54:43.971620",
      "2022-11-08T04:55:07.492462",
      "2022-11-08T04:55:31.047032",
      "2022-11-08T04:55:54.470376",
      "2022-11-08T04:56:17.912111",
      "2022-11-08T04:56:41.529662",
      "2022-11-08T04:57:04.907941",
      "2022-11-08T04:57:28.590053",
      "2022-11-08T04:57:52.149886",
      "2022-11-08T04:58:15.731745",
      "2022-11-08T04:58:39.341312",
      "2022-11-08T04:59:02.851058",
      "2022-11-08T04:59:26.139853",
      "2022-11-08T04:59:49.614489",
      "2022-11-08T05:00:13.017403",
      "2022-11-08T05:00:36.394489",
      "2022-11-08T05:01:00.006034",
      "2022-11-08T05:01:23.506540",
      "2022-11-08T05:01:46.966853",
      "2022-11-08T05:02:10.484453",
      "2022-11-08T05:02:33.852047",
      "2022-11-08T05:02:57.239231",
      "2022-11-08T05:03:20.691429",
      "2022-11-08T05:03:44.099813",
      "2022-11-08T05:04:07.592530",
      "2022-11-08T05:04:30.940962",
      "2022-11-08T05:04:54.190802",
      "2022-11-08T05:05:17.694893",
      "2022-11-08T05:05:41.294166",
      "2022-11-08T05:06:04.642298",
      "2022-11-08T05:06:28.097643",
      "2022-11-08T05:06:51.645598",
      "2022-11-08T05:07:15.091053",
      "2022-11-08T05:07:38.625535",
      "2022-11-08T05:08:02.339158",
      "2022-11-08T05:08:25.675396",
      "2022-11-08T05:08:49.121958",
      "2022-11-08T05:09:12.664915",
      "2022-11-08T05:09:36.186194",
      "2022-11-08T05:09:59.697724",
      "2022-11-08T05:10:23.228862",
      "2022-11-08T05:10:46.417570",
      "2022-11-08T05:11:09.848697",
      "2022-11-08T05:11:33.218127",
      "2022-11-08T05:11:56.631091",
      "2022-11-08T05:12:20.162996",
      "2022-11-08T05:12:43.580536",
      "2022-11-08T05:13:06.965255",
      "2022-11-08T05:13:30.535913",
      "2022-11-08T05:13:53.893459",
      "2022-11-08T05:14:17.408684",
      "2022-11-08T05:14:40.976458",
      "2022-11-08T05:15:04.397437",
      "2022-11-08T05:15:27.824990",
      "2022-11-08T05:15:51.322176",
      "2022-11-08T05:16:14.690177",
      "2022-11-08T05:16:38.245785",
      "2022-11-08T05:17:01.688113",
      "2022-11-08T05:17:25.079837",
      "2022-11-08T05:17:48.587768",
      "2022-11-08T05:18:12.277860",
      "2022-11-08T05:18:35.595345",
      "2022-11-08T05:18:59.121972",
      "2022-11-08T05:19:22.611476",
      "2022-11-08T05:19:46.111205",
      "2022-11-08T05:20:09.607761",
      "2022-11-08T05:20:33.063344",
      "2022-11-08T05:20:56.454279",
      "2022-11-08T05:21:20.109419",
      "2022-11-08T05:21:43.589261",
      "2022-11-08T05:22:07.191081",
      "2022-11-08T05:22:30.800339",
      "2022-11-08T05:22:54.258139",
      "2022-11-08T05:23:17.629034",
      "2022-11-08T05:23:41.184699",
      "2022-11-08T05:24:04.641051",
      "2022-11-08T05:24:28.087916",
      "2022-11-08T05:24:51.802980",
      "2022-11-08T05:25:15.297081",
      "2022-11-08T05:25:38.750761",
      "2022-11-08T05:26:02.475964",
      "2022-11-08T05:26:25.996011",
      "2022-11-08T05:26:49.439708",
      "2022-11-08T05:27:12.981854",
      "2022-11-08T05:27:36.676277",
      "2022-11-08T05:28:00.189907",
      "2022-11-08T05:28:23.654678",
      "2022-11-08T05:28:47.176627",
      "2022-11-08T05:29:10.835728",
      "2022-11-08T05:29:34.173909",
      "2022-11-08T05:29:57.578988",
      "2022-11-08T05:30:21.127939",
      "2022-11-08T05:30:44.645151",
      "2022-11-08T05:31:08.121735",
      "2022-11-08T05:31:31.726122",
      "2022-11-08T05:31:55.356827",
      "2022-11-08T05:32:18.788424",
      "2022-11-08T05:32:42.399151",
      "2022-11-08T05:33:05.862068",
      "2022-11-08T05:33:29.379782",
      "2022-11-08T05:33:52.937189",
      "2022-11-08T05:34:16.413110",
      "2022-11-08T05:34:40.150724",
      "2022-11-08T05:35:03.734525",
      "2022-11-08T05:35:27.327669",
      "2022-11-08T05:35:51.110200",
      "2022-11-08T05:36:14.635149",
      "2022-11-08T05:36:38.030229",
      "2022-11-08T05:37:01.671213",
      "2022-11-08T05:37:25.077357",
      "2022-11-08T05:37:48.712814",
      "2022-11-08T05:38:12.357222",
      "2022-11-08T05:38:35.867617",
      "2022-11-08T05:38:59.296530",
      "2022-11-08T05:39:23.003176",
      "2022-11-08T05:39:46.448733",
      "2022-11-08T05:40:09.995923",
      "2022-11-08T05:40:33.642848",
      "2022-11-08T05:40:57.174285",
      "2022-11-08T05:41:20.786268",
      "2022-11-08T05:41:44.282226",
      "2022-11-08T05:42:07.530280",
      "2022-11-08T05:42:31.030437",
      "2022-11-08T05:42:54.394734",
      "2022-11-08T05:43:17.807315",
      "2022-11-08T05:43:41.396163",
      "2022-11-08T05:44:05.022377",
      "2022-11-08T05:44:28.421606",
      "2022-11-08T05:44:52.243228",
      "2022-11-08T05:45:15.637760",
      "2022-11-08T05:45:39.175687",
      "2022-11-08T05:46:02.831441",
      "2022-11-08T05:46:26.145501",
      "2022-11-08T05:46:49.673830",
      "2022-11-08T05:47:13.282446",
      "2022-11-08T05:47:36.841053",
      "2022-11-08T05:48:00.737287",
      "2022-11-08T05:48:24.352475",
      "2022-11-08T05:48:47.805239",
      "2022-11-08T05:49:11.388589",
      "2022-11-08T05:49:34.949070",
      "2022-11-08T05:49:58.429290",
      "2022-11-08T05:50:22.044719",
      "2022-11-08T05:50:45.508137",
      "2022-11-08T05:51:08.865645",
      "2022-11-08T05:51:32.556675",
      "2022-11-08T05:51:55.994867",
      "2022-11-08T05:52:19.511541",
      "2022-11-08T05:52:43.004545",
      "2022-11-08T05:53:06.571490",
      "2022-11-08T05:53:30.038871",
      "2022-11-08T05:53:53.728587",
      "2022-11-08T05:54:17.240511",
      "2022-11-08T05:54:40.797180",
      "2022-11-08T05:55:04.297017",
      "2022-11-08T05:55:27.750035",
      "2022-11-08T05:55:51.363950",
      "2022-11-08T05:56:14.665832",
      "2022-11-08T05:56:38.132240",
      "2022-11-08T05:57:01.631665",
      "2022-11-08T05:57:25.031410",
      "2022-11-08T05:57:48.380950",
      "2022-11-08T05:58:11.890384",
      "2022-11-08T05:58:35.283678",
      "2022-11-08T05:58:58.860901",
      "2022-11-08T05:59:22.489314",
      "2022-11-08T05:59:45.875742",
      "2022-11-08T06:00:09.348026",
      "2022-11-08T06:00:32.880519",
      "2022-11-08T06:00:56.284686",
      "2022-11-08T06:01:19.733692",
      "2022-11-08T06:01:43.282271",
      "2022-11-08T06:02:06.758849",
      "2022-11-08T06:02:30.236685",
      "2022-11-08T06:02:53.729590",
      "2022-11-08T06:03:17.144662",
      "2022-11-08T06:03:40.667742",
      "2022-11-08T06:04:04.278667",
      "2022-11-08T06:04:27.741735",
      "2022-11-08T06:04:51.205566",
      "2022-11-08T06:05:14.867849",
      "2022-11-08T06:05:38.262890",
      "2022-11-08T06:06:01.923043",
      "2022-11-08T06:06:25.472416",
      "2022-11-08T06:06:48.985017",
      "2022-11-08T06:07:12.733678",
      "2022-11-08T06:07:36.132524",
      "2022-11-08T06:07:59.525783",
      "2022-11-08T06:08:23.250796",
      "2022-11-08T06:08:46.688179",
      "2022-11-08T06:09:10.284417",
      "2022-11-08T06:09:33.927931",
      "2022-11-08T06:09:57.342848",
      "2022-11-08T06:10:21.011920",
      "2022-11-08T06:10:44.468213",
      "2022-11-08T06:11:07.907390",
      "2022-11-08T06:11:31.692040",
      "2022-11-08T06:11:55.080085",
      "2022-11-08T06:12:18.344633",
      "2022-11-08T06:12:42.130236",
      "2022-11-08T06:13:05.604598",
      "2022-11-08T06:13:28.976637",
      "2022-11-08T06:13:52.567363",
      "2022-11-08T06:14:15.901355",
      "2022-11-08T06:14:39.350525",
      "2022-11-08T06:15:02.929021",
      "2022-11-08T06:15:26.238302",
      "2022-11-08T06:15:49.574300",
      "2022-11-08T06:16:13.180622",
      "2022-11-08T06:16:36.751376",
      "2022-11-08T06:17:00.327877",
      "2022-11-08T06:17:23.987175",
      "2022-11-08T06:17:47.439819",
      "2022-11-08T06:18:10.864939",
      "2022-11-08T06:18:34.212971",
      "2022-11-08T06:18:57.620796",
      "2022-11-08T06:19:21.144277",
      "2022-11-08T06:19:44.539579",
      "2022-11-08T06:20:07.962829",
      "2022-11-08T06:20:31.646844",
      "2022-11-08T06:20:55.117659",
      "2022-11-08T06:21:18.344919",
      "2022-11-08T06:21:41.947444",
      "2022-11-08T06:22:05.413782",
      "2022-11-08T06:22:28.875260",
      "2022-11-08T06:22:52.590877",
      "2022-11-08T06:23:15.983684",
      "2022-11-08T06:23:39.609488",
      "2022-11-08T06:24:03.124820",
      "2022-11-08T06:24:26.583559",
      "2022-11-08T06:24:49.902465",
      "2022-11-08T06:25:13.537328",
      "2022-11-08T06:25:36.989682",
      "2022-11-08T06:26:00.460930",
      "2022-11-08T06:26:24.051794",
      "2022-11-08T06:26:47.355009",
      "2022-11-08T06:27:10.895308",
      "2022-11-08T06:27:34.502138",
      "2022-11-08T06:27:58.070781",
      "2022-11-08T06:28:21.729889",
      "2022-11-08T06:28:45.185649",
      "2022-11-08T06:29:08.680792",
      "2022-11-08T06:29:32.247661",
      "2022-11-08T06:29:55.787311",
      "2022-11-08T06:30:19.495012",
      "2022-11-08T06:30:43.109018",
      "2022-11-08T06:31:06.481676",
      "2022-11-08T06:31:29.844612",
      "2022-11-08T06:31:53.416435",
      "2022-11-08T06:32:16.850748",
      "2022-11-08T06:32:40.250406",
      "2022-11-08T06:33:04.115224",
      "2022-11-08T06:33:27.543189",
      "2022-11-08T06:33:50.800460",
      "2022-11-08T06:34:14.468907",
      "2022-11-08T06:34:37.905799",
      "2022-11-08T06:35:01.405462",
      "2022-11-08T06:35:25.019850",
      "2022-11-08T06:35:48.414270",
      "2022-11-08T06:36:11.913110",
      "2022-11-08T06:36:35.374331",
      "2022-11-08T06:36:58.711190",
      "2022-11-08T06:37:22.438648",
      "2022-11-08T06:37:45.902638",
      "2022-11-08T06:38:09.375592",
      "2022-11-08T06:38:32.936564",
      "2022-11-08T06:38:56.272530",
      "2022-11-08T06:39:19.668641",
      "2022-11-08T06:39:43.403994",
      "2022-11-08T06:40:06.748691",
      "2022-11-08T06:40:30.034384",
      "2022-11-08T06:40:53.631610",
      "2022-11-08T06:41:17.061375",
      "2022-11-08T06:41:40.495178",
      "2022-11-08T06:42:04.250089",
      "2022-11-08T06:42:27.728254",
      "2022-11-08T06:42:51.046925",
      "2022-11-08T06:43:14.624428",
      "2022-11-08T06:43:38.155541",
      "2022-11-08T06:44:01.773151",
      "2022-11-08T09:02:56.795606",
      "2022-11-08T09:03:21.175808",
      "2022-11-08T09:03:45.701301",
      "2022-11-08T09:04:10.362556",
      "2022-11-08T09:04:35.038909",
      "2022-11-08T09:05:01.217595",
      "2022-11-08T09:05:26.576601",
      "2022-11-08T09:05:51.006587",
      "2022-11-08T09:06:14.547520",
      "2022-11-08T09:06:37.945147",
      "2022-11-08T09:07:01.360977",
      "2022-11-08T09:07:25.089907",
      "2022-11-08T09:07:49.836681",
      "2022-11-08T09:08:13.811985",
      "2022-11-08T09:08:38.252419",
      "2022-11-08T09:09:03.395304",
      "2022-11-08T09:09:27.318626",
      "2022-11-08T09:09:52.346092",
      "2022-11-08T09:10:18.276000",
      "2022-11-08T09:10:42.935617",
      "2022-11-08T09:11:07.329658",
      "2022-11-08T09:11:31.807746",
      "2022-11-08T09:11:56.120430",
      "2022-11-08T09:12:20.855721",
      "2022-11-08T09:12:45.058898",
      "2022-11-08T09:13:09.407811",
      "2022-11-08T09:13:33.590189",
      "2022-11-08T09:13:57.812668",
      "2022-11-08T09:14:22.053178",
      "2022-11-08T09:14:46.282792",
      "2022-11-08T09:15:10.397723",
      "2022-11-08T09:15:34.360918",
      "2022-11-08T09:15:58.365434",
      "2022-11-08T09:16:22.367039",
      "2022-11-08T09:16:46.490425",
      "2022-11-08T09:17:10.701781",
      "2022-11-08T09:17:35.030060",
      "2022-11-08T09:17:59.033599",
      "2022-11-08T09:18:23.072512",
      "2022-11-08T09:18:47.196726",
      "2022-11-08T09:19:11.427133",
      "2022-11-08T09:19:35.608399",
      "2022-11-08T09:19:59.786871",
      "2022-11-08T09:20:24.087383",
      "2022-11-08T09:20:48.250147",
      "2022-11-08T09:21:12.310179",
      "2022-11-08T09:21:36.403519",
      "2022-11-08T09:22:01.806595",
      "2022-11-08T09:22:27.769272",
      "2022-11-08T09:22:51.609564"
    ],
    "values": [
      45.946786549456995,
      38.34709870028632,
      37.70435953340687,
      38.62706310011971,
      39.70160803012932,
      39.36963994594236,
      39.78120689581177,
      39.96287899538826,
      39.675856544207306,
      40.01744886005529,
      40.57010116417308,
      39.93438030563823,
      40.25341296427633,
      39.9074895419395,
      39.94133852128968,
      39.62616404826485,
      39.94349000269685,
      39.51762655418028,
      39.60684423769214,
      40.576674180746934,
      39.253492005025684,
      39.54036800127994,
      39.28179250060189,
      40.12912031775661,
      39.66638743977473,
      39.04353827439889,
      39.34697314446769,
      38.74125652036667,
      39.1805151384348,
      38.65802290700812,
      38.36813910873503,
      38.930986213644104,
      38.48266056102111,
      38.994905283107194,
      38.37500284241053,
      38.820710217479345,
      38.336549649135094,
      38.26281302809359,
      39.05626549222463,
      38.071237434374424,
      38.703814932191364,
      38.505407968345516,
      38.373840207282626,
      38.03462112458396,
      37.50100500304801,
      38.107301853047346,
      37.3344079008043,
      38.07379027750638,
      37.879122454119674,
      37.612415743014616,
      37.64415050144473,
      37.5590649831388,
      37.52038430433626,
      37.50510266301744,
      37.839960375476835,
      37.417415724082545,
      37.46376925125702,
      37.08790866167704,
      37.05844859505912,
      37.14260694703831,
      36.944947060643486,
      37.09074075894919,
      37.27273824744707,
      37.10438377283157,
      36.908872165638265,
      36.54659090552946,
      37.51014124754892,
      36.800952837677734,
      36.86722800051025,
      37.11603757154463,
      36.86773681809483,
      36.72168563246566,
      36.51890641833484,
      36.55785141180691,
      36.50622449003891,
      36.51851815497776,
      36.27111025052127,
      36.46598032600402,
      36.52768749942597,
      36.52038768695365,
      36.170287440433555,
      36.17451007107874,
      36.08378297967274,
      36.06381483373818,
      35.917910794967895,
      36.131723801749146,
      36.108741008054096,
      36.05714486733625,
      36.137062244271725,
      35.874078055842645,
      35.88186731058032,
      35.75932726591132,
      35.94781503714662,
      35.81337375558388,
      35.74030648501541,
      35.7742176184334,
      35.650400259289285,
      35.524007061611094,
      35.56940035695505,
      35.49033515455353,
      35.499753260163416,
      35.503642606922455,
      35.46672255947797,
      35.466103153699095,
      35.48037960457377,
      35.53074355232426,
      35.48878598588426,
      35.42828201660963,
      35.458303552769955,
      35.43538393740219,
      35.425282731265824,
      35.46050147165823,
      35.43116222681525,
      35.408815689399695,
      35.41155517006908,
      35.45094479557442,
      35.41808016228897,
      35.40337223092874,
      35.41716648811899,
      35.378101637717414,
      35.421445311625895,
      35.355541296051555,
      35.398280061825915,
      35.37135801262287,
      35.392657983165186,
      35.385065741966095,
      35.39623066471255,
      35.36270198636949,
      35.36246788148864,
      35.31959847059547,
      35.3418745941668,
      35.343566876608364,
      35.31725971027952,
      35.34007962148485,
      35.32877224756037,
      35.31617384446072,
      35.296796049653956,
      35.28805183393621,
      35.30286584674078,
      35.272886796231234,
      35.27773171392069,
      35.303651589411345,
      35.29102822568558,
      35.30250466963553,
      35.28053765709413,
      35.321129643341116,
      35.29112682529811,
      35.249127228376366,
      35.27664375250165,
      35.25838981975982,
      35.28731931846706,
      35.27143670826269,
      35.286145434204805,
      35.28775785015289,
      35.25888372926672,
      35.2436558418436,
      35.25162400860402,
      35.25019322671786,
      35.23847747762046,
      35.28030816264648,
      35.26203607195168,
      35.28247857874556,
      35.24299777858132,
      35.281714400633525,
      35.21447271445763,
      35.26616120253643,
      35.25845511052398,
      35.24360941056547,
      35.22403272918682,
      35.28613419965702,
      35.23786668010081,
      35.2492756879405,
      35.225231051392186,
      35.21512410593758,
      35.249440647431996,
      35.25027153382434,
      35.238613850109125,
      35.22580190078818,
      35.25057982718577,
      35.26564009310325,
      35.213889605091985,
      35.21740806921364,
      35.21866521518589,
      35.23256074358207,
      35.22677076566732,
      35.19120414948493,
      35.22327681886524,
      35.231114122016514,
      35.23234600710281,
      35.22345385645121,
      35.21445839548305,
      35.199151392585684,
      35.257894707234826,
      35.24157686052156,
      35.1986091057848,
      35.2308007549917,
      35.203388629226225,
      35.1958956106363,
      35.22556189370331,
      35.21727183161787,
      35.20047141211706,
      35.23342129090593,
      35.24253154698138,
      35.23707138047559,
      35.21717925908787,
      35.217925062515725,
      35.2023758350241,
      35.24991863181679,
      35.231055493340854,
      35.232506075918614,
      35.18332767895669,
      35.21037622668852,
      35.215832351169404,
      35.252709871770364,
      35.18021936446557,
      35.23133893225243,
      35.201699285403926,
      35.188543672224576,
      35.24709602401915,
      35.212218866025594,
      35.215872267175826,
      35.196382110785265,
      35.185246599179045,
      35.225050682966824,
      35.19068700838134,
      35.18650939507989,
      35.24125522324787,
      35.19059303483934,
      35.19539142357478,
      35.20153119855031,
      35.207993984461254,
      35.20023612421784,
      35.20395303767256,
      35.20845687431223,
      35.213101962857365,
      35.21274592584645,
      35.2041227492303,
      35.18590392598323,
      35.21941598372311,
      35.21610309711987,
      35.20794779404211,
      35.20563369539943,
      35.20566921284814,
      35.253964030442845,
      35.206481521063814,
      35.181804989827654,
      35.201564259550416,
      35.1942483513807,
      35.18087539403266,
      35.213065859373074,
      35.18980044343051,
      35.19977422732593,
      35.19345107045802,
      35.21953606207814,
      35.20428247514964,
      35.19078281351994,
      35.21708185838274,
      35.191170374712186,
      35.19526173387741,
      35.183179189262,
      35.20388780776282,
      35.20742188585374,
      35.20348859227715,
      35.215939466959014,
      35.22212543415836,
      35.182353946007495,
      35.17786879602897,
      35.189293998312934,
      35.216437832406356,
      35.1953760539951,
      35.2044871274897,
      35.20283922325481,
      35.20320369943773,
      35.20588266305688,
      35.20107196761474,
      35.13579202989431,
      35.127782038578985,
      35.12815690529892,
      35.12377120292093,
      35.12057512160127,
      35.11967303766323,
      35.13116113744858,
      35.12867659672737,
      35.12060722615106,
      35.1300581727192,
      35.13045898286765,
      35.11904755515599,
      35.1217306732478,
      35.127168276798834,
      35.12569647188412,
      35.1230008813333,
      35.1329850205647,
      35.11735309548127,
      35.12265045692192,
      35.133647647547406,
      35.128933138435265,
      35.12898944462494,
      35.12363510513822,
      35.13249926337401,
      35.13141159822101,
      35.130077890488835,
      35.12878008461243,
      35.12363240486551,
      35.130271851363744,
      35.125017061079994,
      35.13246642279967,
      35.12610255416206,
      35.121280624100365,
      35.12692414304439,
      35.12511520978499,
      35.1228940670962,
      35.13478866430206,
      35.12664261360646,
      35.122285199166924,
      35.127075167591855,
      35.125985028861265,
      35.12937895717545,
      35.12378933598992,
      35.12193646087975,
      35.12997064438069,
      35.124331744565545,
      35.125980106208374,
      35.12693350880841,
      35.12296040545859,
      35.12429977832947,
      35.12495219692051,
      35.12295443672993,
      35.12501777309343,
      35.12038705485517,
      35.12489126174037,
      35.1195376792072,
      35.12134956999313,
      35.1278479437605,
      35.12366750770243,
      35.12384835528408,
      35.12104810546568,
      35.11732446585992,
      35.122565313570846,
      35.124555329236,
      35.12305850569852,
      35.1196734808054,
      35.12129962160574,
      35.12384427632308,
      35.1249555847929,
      35.12259747570943,
      35.12621595399312,
      35.1188469478328,
      35.11940273442938,
      35.12079559781228,
      35.11912376912253
    ]
  }
}