INFO - discrete_nf - Running command 'run'
INFO - discrete_nf - Started run with ID "7"
[1]: test 3.394687800561475, train 6.349514185837023
[2]: test 2.6443509139334935, train 3.174793992637727
[3]: test 2.919217388583863, train 3.021993824246928
[4]: test 3.020511168518066, train 2.9338948190735294
[5]: test 2.7055823696731394, train 2.844094997516639
[6]: test 2.7065955929545638, train 2.8201810612689617
[7]: test 2.616404503879016, train 2.80030765734102
[8]: test 2.4530093102644854, train 2.7752526117977294
[9]: test 2.6753611908356567, train 2.734417902232467
[10]: test 3.146286132194629, train 2.7523225324008216
[11]: test 2.717181301108483, train 2.7410456966790053
[12]: test 2.432249424153104, train 2.673309415572067
[13]: test 2.866696927746301, train 2.647155043809828
[14]: test 2.724728934269786, train 2.6700853391618984
[15]: test 2.8012668698953918, train 2.650242350708486
[16]: test 2.653173741730569, train 2.68211754717924
[17]: test 2.7549462669367815, train 2.62357256335487
[18]: test 2.5785832017948414, train 2.6545736220303926
[19]: test 2.88796522948832, train 2.6685805395760784
[20]: test 2.849038372138518, train 2.6852231309135663
[21]: test 2.550023762194007, train 2.6315410237793704
[22]: test 2.6493587668494043, train 2.634432451468423
[23]: test 2.6705785064263607, train 2.656979101361967
[24]: test 2.7175733629367897, train 2.62273746470772
[25]: test 2.655509350044351, train 2.674359063081548
[26]: test 2.3865980706486303, train 2.6671730682973362
[27]: test 2.395011490359461, train 2.6036847798726432
[28]: test 2.7337301574006347, train 2.589586992063875
[29]: test 2.3236703557923515, train 2.6352556092728543
[30]: test 2.2717451212198054, train 2.652437724918747
[31]: test 2.4825795487148286, train 2.617163444657332
[32]: test 2.4762410761200724, train 2.5815428552148814
[33]: test 2.4579511007371972, train 2.6243234527917445
[34]: test 2.4969013074911337, train 2.59433522571784
[35]: test 2.484584576839942, train 2.55796686940648
[36]: test 2.8357283656595067, train 2.6459475751801955
[37]: test 2.781092403696038, train 2.625188057389016
[38]: test 2.457399254707611, train 2.6258845436171625
[39]: test 2.5351322165334667, train 2.606387513910686
[40]: test 2.6842394483103402, train 2.599475591384513
[41]: test 2.5910501508996626, train 2.6299849977329903
[42]: test 2.485869520626574, train 2.616563085641331
[43]: test 2.5602272415887257, train 2.6193015345738377
[44]: test 2.4348947775301, train 2.57744462270462
[45]: test 2.777275696348327, train 2.5935807233190884
Epoch    46: reducing learning rate of group 0 to 1.0000e-03.
[46]: test 2.4938652094644813, train 2.596150344807194
[47]: test 2.4781756135710857, train 2.535948804046136
[48]: test 2.585748121848825, train 2.493722922934716
[49]: test 2.581623902249046, train 2.480132151173319
[50]: test 2.4644903594035075, train 2.4847356112480936
[51]: test 2.5243604229857306, train 2.495787607786566
[52]: test 2.558643383512302, train 2.468528106319967
[53]: test 2.296392143599886, train 2.501254846269855
[54]: test 2.3125753641534526, train 2.4438234059886974
[55]: test 2.389695632444404, train 2.4831581884342713
[56]: test 2.3101067522472363, train 2.493495776591227
[57]: test 2.581965766043749, train 2.4872174165184777
[58]: test 2.4834198892976223, train 2.4836293376059286
[59]: test 2.548060394895702, train 2.4614738420567197
[60]: test 2.5560728631157286, train 2.4815135320800805
[61]: test 2.5880242074845614, train 2.4812405391293866
[62]: test 2.673417516429219, train 2.492122250105026
[63]: test 2.311423615864683, train 2.4778955271787018
[64]: test 2.6306100957020884, train 2.4739581725661792
Epoch    65: reducing learning rate of group 0 to 1.0000e-04.
[65]: test 2.4613256991233734, train 2.487319912398951
[66]: test 2.5017857170096813, train 2.45257176120253
[67]: test 2.2245301664858816, train 2.4659836938984223
[68]: test 2.230293270179366, train 2.4379557360498247
[69]: test 2.479208889965061, train 2.4584382789087202
[70]: test 2.5972902235086934, train 2.467858319339094
[71]: test 2.6745894841374955, train 2.468187168338965
[72]: test 2.713729004471202, train 2.4581802499534984
[73]: test 2.4766997564334257, train 2.454416795611992
[74]: test 2.3321434300410417, train 2.4810505563978142
[75]: test 2.71251995554651, train 2.482532231094833
[76]: test 2.3211763545687303, train 2.4608856820473326
[77]: test 2.343169293813346, train 2.4414345898042114
[78]: test 2.637246782255385, train 2.4501831175500883
Epoch    79: reducing learning rate of group 0 to 1.0000e-05.
[79]: test 2.36702256710578, train 2.480754696127928
[80]: test 2.1611228971249457, train 2.465986130862275
[81]: test 2.4182680816210778, train 2.4428558207653905
[82]: test 2.2533965337386737, train 2.4559597527250414
[83]: test 2.448542448326497, train 2.4350447926864494
[84]: test 2.4651272946314835, train 2.4645395194862267
[85]: test 2.2066777478393163, train 2.4811914941851074
[86]: test 2.7944219880435237, train 2.440140247896131
[87]: test 2.484932299067023, train 2.4463097325201755
[88]: test 2.2902075335937275, train 2.4598020118685424
[89]: test 2.4039252667134825, train 2.4356218023696914
[90]: test 2.451416518035376, train 2.455889444879955
[91]: test 2.3878193413983215, train 2.459923590034805
[92]: test 2.4783029759705197, train 2.4836942843014227
[93]: test 2.5367103739642896, train 2.4661887117756605
Epoch    94: reducing learning rate of group 0 to 1.0000e-06.
[94]: test 2.2415895806201873, train 2.465770354033508
[95]: test 2.3588527145824014, train 2.461004973271658
[96]: test 2.455793981952881, train 2.4525854680442163
[97]: test 2.4984754210557623, train 2.476577030904447
[98]: test 2.2162397522527444, train 2.435736356400916
[99]: test 2.3627778405724076, train 2.4501258736664187
[100]: test 2.2334144554824737, train 2.4658005794014435
[101]: test 2.3672618570457398, train 2.4486927995168273
[102]: test 2.4125264937691413, train 2.446217051328724
[103]: test 2.350195370115795, train 2.489624934732278
[104]: test 2.4290934912040387, train 2.457649467545542
[105]: test 2.408108760931834, train 2.4631922082040068
[106]: test 2.3154839827084754, train 2.4707632929961965
[107]: test 2.179078708991001, train 2.4876756139440506
[108]: test 2.4220464105224724, train 2.471696577004132
[109]: test 2.433042748430745, train 2.4667681612267924
[110]: test 2.555983098883724, train 2.4639298160068286
[111]: test 2.6813354044486237, train 2.4674098807016045
[112]: test 2.624202114875977, train 2.5012146776213964
[113]: test 2.5750769855221063, train 2.4789807533455264
[114]: test 2.5497517389663322, train 2.4410133705354666
[115]: test 2.3032731374789215, train 2.456500927209828
[116]: test 2.386912783912127, train 2.458067972588722
[117]: test 2.4293891530086773, train 2.439687577603833
[118]: test 2.725935535401819, train 2.453752357322465
[119]: test 2.8639350629603686, train 2.4369835826891584
[120]: test 2.6121622470754247, train 2.4761890803627553
[121]: test 2.5083923992923403, train 2.452350570275856
[122]: test 2.4863425368338925, train 2.4560438140168945
[123]: test 2.4166731802553647, train 2.4674400329901
[124]: test 2.4442602018229076, train 2.4428434751324213
[125]: test 2.5352177753944476, train 2.462580466616163
[126]: test 2.5756881018316427, train 2.4713817080173337
[127]: test 2.472780518996412, train 2.4530074146200334
[128]: test 2.266067100864333, train 2.4773057902567697
[129]: test 2.4816511037985127, train 2.454374995112003
[130]: test 2.4452534987006347, train 2.4677465237077003
[131]: test 2.4569292764368025, train 2.4510968109882616
[132]: test 2.755322213296451, train 2.462472761564795
[133]: test 2.5371912141054676, train 2.436659091406829
[134]: test 2.3688433161172893, train 2.442086601102062
[135]: test 2.378759045297895, train 2.4395679499996175
[136]: test 2.5872098468230775, train 2.4879796452937586
[137]: test 2.2500631071527, train 2.4583572834960883
[138]: test 2.492312824323208, train 2.4477692318796027
[139]: test 2.629357064204312, train 2.465227859550512
[140]: test 2.2347134865652465, train 2.456447109573092
[141]: test 2.5375273416185036, train 2.460234148809133
[142]: test 2.75192525865867, train 2.450972071041521
[143]: test 2.59488007777492, train 2.47829092913191
[144]: test 2.53220694944352, train 2.4779375285111245
[145]: test 2.3377430661660976, train 2.4649761891925883
[146]: test 2.451019574644067, train 2.4884214441142016
[147]: test 2.5048187599464997, train 2.472991998074279
[148]: test 2.4903208525040728, train 2.4474288586638933
[149]: test 2.4685924991615154, train 2.4566285169639928
[150]: test 2.5731710027743975, train 2.4839760522760166
[151]: test 2.4850662954376834, train 2.4465497227340878
[152]: test 2.412093006681512, train 2.4435312668923967
[153]: test 2.4328884010784524, train 2.449724338992743
[154]: test 2.559443638855876, train 2.4755162164338453
[155]: test 2.3658636276400777, train 2.434542685404396
[156]: test 2.5282319930264707, train 2.4563022057450574
[157]: test 2.46742555078066, train 2.4587274169388293
[158]: test 2.4701835593011836, train 2.455173650501822
[159]: test 2.4291060689126334, train 2.4860444173033964
[160]: test 2.351670603076859, train 2.4693326622390304
[161]: test 2.324084174204749, train 2.463353329705388
[162]: test 2.569688818772106, train 2.456301508226627
[163]: test 2.4456790459353015, train 2.452903806335783
[164]: test 2.47274550618033, train 2.451479444629741
[165]: test 2.554706706374993, train 2.467113864776144
[166]: test 2.5662428817631, train 2.46600486971327
[167]: test 2.503508732697878, train 2.464060420801163
[168]: test 2.491318536577272, train 2.458240804225138
[169]: test 2.32440322413992, train 2.4349966896409967
[170]: test 2.290053341560501, train 2.4466885467941157
[171]: test 2.4047563107430534, train 2.47839141213759
[172]: test 2.9137078644670256, train 2.454492340173873
[173]: test 2.623208088708077, train 2.4940615009639755
[174]: test 2.3785442251661526, train 2.451209761318134
[175]: test 2.5077538184217, train 2.473737211235657
[176]: test 2.1775041783556417, train 2.4844511991672893
[177]: test 2.252269644251206, train 2.4513691675722615
[178]: test 2.4771975315372825, train 2.446544088066969
[179]: test 2.618859098856689, train 2.470686819037065
[180]: test 2.3846897088725325, train 2.46558717690723
[181]: test 2.6065346562304588, train 2.443025860525937
[182]: test 2.6243310187301394, train 2.4645290414502306
[183]: test 2.466073166038009, train 2.469818438909574
[184]: test 2.2175704707430763, train 2.477078610894706
[185]: test 2.3917471590274886, train 2.4598971943278656
[186]: test 2.337462625427674, train 2.4693585663159694
[187]: test 2.6046511994902417, train 2.4334671177227056
[188]: test 2.322804080847316, train 2.4516088821516626
[189]: test 2.634619533092932, train 2.455256236383369
[190]: test 2.1741172080394855, train 2.4702522230364856
[191]: test 2.4557017815718196, train 2.4597416477595875
[192]: test 2.4692345397516204, train 2.4757441264342104
[193]: test 2.443361051170981, train 2.4636984732554468
[194]: test 2.382074939876382, train 2.4710617192425803
[195]: test 2.4866240358712903, train 2.470304210982596
[196]: test 2.4004044838622844, train 2.464116116547731
[197]: test 2.485664452875915, train 2.4811112482062616
[198]: test 2.4417852000737073, train 2.4587091870144246
[199]: test 2.400079631153321, train 2.477359547683511
[200]: test 2.263818784105262, train 2.460654157778414
