{
  "memory.usage": {
    "steps": [
      0,
      1,
      2,
      3,
      4,
      5,
      6,
      7,
      8,
      9,
      10,
      11,
      12,
      13,
      14,
      15,
      16,
      17,
      18,
      19,
      20,
      21,
      22,
      23,
      24,
      25,
      26,
      27,
      28,
      29,
      30,
      31,
      32,
      33,
      34,
      35,
      36,
      37,
      38,
      39,
      40,
      41,
      42,
      43,
      44,
      45,
      46,
      47,
      48,
      49,
      50,
      51,
      52,
      53,
      54,
      55,
      56,
      57,
      58,
      59,
      60,
      61,
      62,
      63,
      64,
      65,
      66,
      67,
      68,
      69,
      70,
      71,
      72,
      73,
      74,
      75,
      76,
      77,
      78,
      79,
      80,
      81,
      82,
      83,
      84,
      85,
      86,
      87,
      88,
      89,
      90,
      91,
      92,
      93,
      94,
      95,
      96,
      97,
      98,
      99,
      100,
      101,
      102,
      103,
      104,
      105,
      106,
      107,
      108,
      109,
      110,
      111,
      112,
      113,
      114,
      115,
      116,
      117,
      118,
      119,
      120,
      121,
      122,
      123,
      124,
      125,
      126,
      127,
      128,
      129,
      130,
      131,
      132,
      133,
      134,
      135,
      136,
      137,
      138,
      139,
      140,
      141,
      142,
      143,
      144,
      145,
      146,
      147,
      148,
      149,
      150,
      151,
      152,
      153,
      154,
      155,
      156,
      157,
      158,
      159,
      160,
      161,
      162,
      163,
      164,
      165,
      166,
      167,
      168,
      169,
      170,
      171,
      172,
      173,
      174,
      175,
      176,
      177,
      178,
      179,
      180,
      181,
      182,
      183,
      184,
      185,
      186,
      187,
      188,
      189,
      190,
      191,
      192,
      193,
      194,
      195,
      196,
      197,
      198,
      199,
      200,
      201,
      202,
      203,
      204,
      205,
      206,
      207,
      208,
      209,
      210,
      211,
      212,
      213,
      214,
      215,
      216,
      217,
      218,
      219,
      220,
      221,
      222,
      223,
      224,
      225,
      226,
      227,
      228,
      229,
      230,
      231,
      232,
      233,
      234,
      235,
      236,
      237,
      238,
      239,
      240,
      241,
      242,
      243,
      244,
      245,
      246,
      247,
      248,
      249,
      250,
      251,
      252,
      253,
      254,
      255,
      256,
      257,
      258,
      259,
      260,
      261,
      262,
      263,
      264,
      265,
      266,
      267,
      268,
      269,
      270,
      271,
      272,
      273,
      274,
      275,
      276,
      277,
      278,
      279,
      280,
      281,
      282,
      283,
      284,
      285,
      286,
      287,
      288,
      289,
      290,
      291,
      292,
      293,
      294,
      295,
      296,
      297,
      298,
      299,
      300,
      301,
      302,
      303,
      304,
      305,
      306,
      307,
      308,
      309,
      310,
      311,
      312,
      313,
      314,
      315,
      316,
      317,
      318,
      319,
      320,
      321,
      322,
      323,
      324,
      325,
      326,
      327,
      328,
      329,
      330,
      331,
      332,
      333,
      334,
      335,
      336,
      337,
      338,
      339,
      340,
      341,
      342,
      343,
      344,
      345,
      346,
      347,
      348,
      349,
      350,
      351,
      352,
      353,
      354,
      355,
      356,
      357,
      358,
      359,
      360,
      361,
      362,
      363,
      364,
      365,
      366,
      367,
      368,
      369,
      370,
      371,
      372,
      373,
      374,
      375,
      376,
      377,
      378,
      379,
      380,
      381,
      382,
      383,
      384,
      385,
      386,
      387,
      388,
      389,
      390,
      391,
      392,
      393,
      394,
      395,
      396,
      397,
      398,
      399
    ],
    "timestamps": [
      "2022-06-21T22:01:06.430058",
      "2022-06-21T22:01:08.507840",
      "2022-06-21T22:01:10.588008",
      "2022-06-21T22:01:12.666763",
      "2022-06-21T22:01:14.772163",
      "2022-06-21T22:01:16.854081",
      "2022-06-21T22:01:18.932833",
      "2022-06-21T22:01:21.013439",
      "2022-06-21T22:01:23.141215",
      "2022-06-21T22:01:25.243986",
      "2022-06-21T22:01:27.333269",
      "2022-06-21T22:01:29.417467",
      "2022-06-21T22:01:31.505526",
      "2022-06-21T22:01:33.596419",
      "2022-06-21T22:01:35.691299",
      "2022-06-21T22:01:37.772895",
      "2022-06-21T22:01:39.857185",
      "2022-06-21T22:01:41.941730",
      "2022-06-21T22:01:44.041357",
      "2022-06-21T22:01:46.126995",
      "2022-06-21T22:01:48.211301",
      "2022-06-21T22:01:50.295939",
      "2022-06-21T22:01:52.383331",
      "2022-06-21T22:01:54.485533",
      "2022-06-21T22:01:56.570136",
      "2022-06-21T22:01:58.651549",
      "2022-06-21T22:02:00.741001",
      "2022-06-21T22:02:02.822879",
      "2022-06-21T22:02:04.950546",
      "2022-06-21T22:02:07.046527",
      "2022-06-21T22:02:09.140672",
      "2022-06-21T22:02:11.224658",
      "2022-06-21T22:02:13.305406",
      "2022-06-21T22:02:15.418295",
      "2022-06-21T22:02:17.500947",
      "2022-06-21T22:02:19.583592",
      "2022-06-21T22:02:21.668200",
      "2022-06-21T22:02:23.783903",
      "2022-06-21T22:02:25.880178",
      "2022-06-21T22:02:27.965417",
      "2022-06-21T22:02:30.049405",
      "2022-06-21T22:02:32.134557",
      "2022-06-21T22:02:34.245587",
      "2022-06-21T22:02:36.329900",
      "2022-06-21T22:02:38.414050",
      "2022-06-21T22:02:40.498931",
      "2022-06-21T22:02:42.583759",
      "2022-06-21T22:02:44.708059",
      "2022-06-21T22:02:46.790629",
      "2022-06-21T22:02:48.870138",
      "2022-06-21T22:02:50.954482",
      "2022-06-21T22:02:53.034524",
      "2022-06-21T22:02:55.137627",
      "2022-06-21T22:02:57.219981",
      "2022-06-21T22:02:59.302072",
      "2022-06-21T22:03:01.384024",
      "2022-06-21T22:03:03.481891",
      "2022-06-21T22:03:05.583316",
      "2022-06-21T22:03:07.663647",
      "2022-06-21T22:03:09.743126",
      "2022-06-21T22:03:11.828450",
      "2022-06-21T22:03:13.949643",
      "2022-06-21T22:03:16.037811",
      "2022-06-21T22:03:18.120064",
      "2022-06-21T22:03:20.200938",
      "2022-06-21T22:03:22.283753",
      "2022-06-21T22:03:24.397453",
      "2022-06-21T22:03:26.481060",
      "2022-06-21T22:03:28.561582",
      "2022-06-21T22:03:30.643688",
      "2022-06-21T22:03:32.729105",
      "2022-06-21T22:03:34.833676",
      "2022-06-21T22:03:36.914442",
      "2022-06-21T22:03:39.039224",
      "2022-06-21T22:03:41.121630",
      "2022-06-21T22:03:43.204588",
      "2022-06-21T22:03:45.301869",
      "2022-06-21T22:03:47.382853",
      "2022-06-21T22:03:49.461174",
      "2022-06-21T22:03:51.541469",
      "2022-06-21T22:03:53.632954",
      "2022-06-21T22:03:55.723024",
      "2022-06-21T22:03:57.802453",
      "2022-06-21T22:03:59.880851",
      "2022-06-21T22:04:01.961770",
      "2022-06-21T22:04:04.070842",
      "2022-06-21T22:04:06.156768",
      "2022-06-21T22:04:08.236846",
      "2022-06-21T22:04:10.316305",
      "2022-06-21T22:04:12.400742",
      "2022-06-21T22:04:14.503685",
      "2022-06-21T22:04:16.587625",
      "2022-06-21T22:04:18.675430",
      "2022-06-21T22:04:20.756752",
      "2022-06-21T22:04:22.842793",
      "2022-06-21T22:04:24.949101",
      "2022-06-21T22:04:27.029644",
      "2022-06-21T22:04:29.109771",
      "2022-06-21T22:04:31.188850",
      "2022-06-21T22:04:33.283293",
      "2022-06-21T22:04:35.408320",
      "2022-06-21T22:04:37.487247",
      "2022-06-21T22:04:39.566354",
      "2022-06-21T22:04:41.647178",
      "2022-06-21T22:04:43.737050",
      "2022-06-21T22:04:45.824803",
      "2022-06-21T22:04:47.903815",
      "2022-06-21T22:04:50.032262",
      "2022-06-21T22:04:52.110726",
      "2022-06-21T22:04:54.220264",
      "2022-06-21T22:04:56.301183",
      "2022-06-21T22:04:58.380903",
      "2022-06-21T22:05:00.463092",
      "2022-06-21T22:05:02.546921",
      "2022-06-21T22:05:04.654168",
      "2022-06-21T22:05:06.739251",
      "2022-06-21T22:05:08.817209",
      "2022-06-21T22:05:10.918586",
      "2022-06-21T22:05:13.001268",
      "2022-06-21T22:05:15.101167",
      "2022-06-21T22:05:17.182287",
      "2022-06-21T22:05:19.273387",
      "2022-06-21T22:05:21.354643",
      "2022-06-21T22:05:23.437698",
      "2022-06-21T22:05:25.545713",
      "2022-06-21T22:05:27.633756",
      "2022-06-21T22:05:29.714754",
      "2022-06-21T22:05:31.795753",
      "2022-06-21T22:05:33.896980",
      "2022-06-21T22:05:35.986270",
      "2022-06-21T22:05:38.065351",
      "2022-06-21T22:05:40.143350",
      "2022-06-21T22:05:42.223816",
      "2022-06-21T22:05:44.337547",
      "2022-06-21T22:05:46.418499",
      "2022-06-21T22:05:48.498455",
      "2022-06-21T22:05:50.577711",
      "2022-06-21T22:05:52.657071",
      "2022-06-21T22:05:54.764654",
      "2022-06-21T22:05:56.848937",
      "2022-06-21T22:05:58.944258",
      "2022-06-21T22:06:01.025768",
      "2022-06-21T22:06:03.109719",
      "2022-06-21T22:06:05.221075",
      "2022-06-21T22:06:07.303238",
      "2022-06-21T22:06:09.383189",
      "2022-06-21T22:06:11.469557",
      "2022-06-21T22:06:13.562853",
      "2022-06-21T22:06:15.662618",
      "2022-06-21T22:06:17.743660",
      "2022-06-21T22:06:19.826384",
      "2022-06-21T22:06:21.915963",
      "2022-06-21T22:06:24.016856",
      "2022-06-21T22:06:26.105996",
      "2022-06-21T22:06:28.185741",
      "2022-06-21T22:06:30.266606",
      "2022-06-21T22:06:32.347441",
      "2022-06-21T22:06:34.465376",
      "2022-06-21T22:06:36.550711",
      "2022-06-21T22:06:38.632449",
      "2022-06-21T22:06:40.715807",
      "2022-06-21T22:06:42.799463",
      "2022-06-21T22:06:44.924860",
      "2022-06-21T22:06:47.009017",
      "2022-06-21T22:06:49.091791",
      "2022-06-21T22:06:51.173349",
      "2022-06-21T22:06:53.261635",
      "2022-06-21T22:06:55.369821",
      "2022-06-21T22:06:57.452520",
      "2022-06-21T22:06:59.531479",
      "2022-06-21T22:07:01.613232",
      "2022-06-21T22:07:03.708358",
      "2022-06-21T22:07:05.819993",
      "2022-06-21T22:07:07.902612",
      "2022-06-21T22:07:09.985626",
      "2022-06-21T22:07:12.071020",
      "2022-06-21T22:07:14.180786",
      "2022-06-21T22:07:16.263286",
      "2022-06-21T22:07:18.342838",
      "2022-06-21T22:07:20.424199",
      "2022-06-21T22:07:22.507157",
      "2022-06-21T22:07:24.609120",
      "2022-06-21T22:07:26.696441",
      "2022-06-21T22:07:28.777555",
      "2022-06-21T22:07:30.859116",
      "2022-06-21T22:07:32.944428",
      "2022-06-21T22:07:35.048786",
      "2022-06-21T22:07:37.136265",
      "2022-06-21T22:07:39.237815",
      "2022-06-21T22:07:41.318934",
      "2022-06-21T22:07:43.409257",
      "2022-06-21T22:07:45.517577",
      "2022-06-21T22:07:47.598512",
      "2022-06-21T22:07:49.677223",
      "2022-06-21T22:07:51.759615",
      "2022-06-21T22:07:53.897202",
      "2022-06-21T22:07:55.982305",
      "2022-06-21T22:07:58.064837",
      "2022-06-21T22:08:00.145240",
      "2022-06-21T22:08:02.227562",
      "2022-06-21T22:08:04.337466",
      "2022-06-21T22:08:06.427300",
      "2022-06-21T22:08:08.509292",
      "2022-06-21T22:08:10.603320",
      "2022-06-21T22:08:12.690184",
      "2022-06-21T22:08:14.790864",
      "2022-06-21T22:08:16.876681",
      "2022-06-21T22:08:18.957135",
      "2022-06-21T22:08:21.037456",
      "2022-06-21T22:08:23.122397",
      "2022-06-21T22:08:25.229752",
      "2022-06-21T22:08:27.313648",
      "2022-06-21T22:08:29.397035",
      "2022-06-21T22:08:31.481208",
      "2022-06-21T22:08:33.582286",
      "2022-06-21T22:08:35.680793",
      "2022-06-21T22:08:37.764074",
      "2022-06-21T22:08:39.846752",
      "2022-06-21T22:08:41.936949",
      "2022-06-21T22:08:44.039011",
      "2022-06-21T22:08:46.126311",
      "2022-06-21T22:08:48.206929",
      "2022-06-21T22:08:50.287785",
      "2022-06-21T22:08:52.369302",
      "2022-06-21T22:08:54.491284",
      "2022-06-21T22:08:56.576914",
      "2022-06-21T22:08:58.660345",
      "2022-06-21T22:09:00.743934",
      "2022-06-21T22:09:02.830105",
      "2022-06-21T22:09:04.939014",
      "2022-06-21T22:09:07.026723",
      "2022-06-21T22:09:09.108640",
      "2022-06-21T22:09:11.192094",
      "2022-06-21T22:09:13.274093",
      "2022-06-21T22:09:15.377691",
      "2022-06-21T22:09:17.462523",
      "2022-06-21T22:09:19.543232",
      "2022-06-21T22:09:21.623149",
      "2022-06-21T22:09:23.742173",
      "2022-06-21T22:09:25.834278",
      "2022-06-21T22:09:27.914907",
      "2022-06-21T22:09:29.995994",
      "2022-06-21T22:09:32.079927",
      "2022-06-21T22:09:34.194877",
      "2022-06-21T22:09:36.278937",
      "2022-06-21T22:09:38.360748",
      "2022-06-21T22:09:40.443257",
      "2022-06-21T22:09:42.528288",
      "2022-06-21T22:09:44.634852",
      "2022-06-21T22:09:46.725401",
      "2022-06-21T22:09:48.808830",
      "2022-06-21T22:09:50.892582",
      "2022-06-21T22:09:52.987649",
      "2022-06-21T22:09:55.096872",
      "2022-06-21T22:09:57.178943",
      "2022-06-21T22:09:59.259571",
      "2022-06-21T22:10:01.340924",
      "2022-06-21T22:10:03.421678",
      "2022-06-21T22:10:05.522794",
      "2022-06-21T22:10:07.605379",
      "2022-06-21T22:10:09.687861",
      "2022-06-21T22:10:11.771723",
      "2022-06-21T22:10:13.865009",
      "2022-06-21T22:10:15.961941",
      "2022-06-21T22:10:18.043900",
      "2022-06-21T22:10:20.124741",
      "2022-06-21T22:10:22.207556",
      "2022-06-21T22:10:24.326325",
      "2022-06-21T22:10:26.412065",
      "2022-06-21T22:10:28.493143",
      "2022-06-21T22:10:30.575964",
      "2022-06-21T22:10:32.661047",
      "2022-06-21T22:10:34.779797",
      "2022-06-21T22:10:36.861655",
      "2022-06-21T22:10:38.940684",
      "2022-06-21T22:10:41.022306",
      "2022-06-21T22:10:43.106475",
      "2022-06-21T22:10:45.214261",
      "2022-06-21T22:10:47.298963",
      "2022-06-21T22:10:49.380956",
      "2022-06-21T22:10:51.464649",
      "2022-06-21T22:10:53.549686",
      "2022-06-21T22:10:55.653620",
      "2022-06-21T22:10:57.735215",
      "2022-06-21T22:10:59.814036",
      "2022-06-21T22:11:01.895269",
      "2022-06-21T22:11:04.005011",
      "2022-06-21T22:11:06.095689",
      "2022-06-21T22:11:08.175478",
      "2022-06-21T22:11:10.257034",
      "2022-06-21T22:11:12.338372",
      "2022-06-21T22:11:14.452208",
      "2022-06-21T22:11:16.533903",
      "2022-06-21T22:11:18.615587",
      "2022-06-21T22:11:20.698483",
      "2022-06-21T22:11:22.784969",
      "2022-06-21T22:11:24.900358",
      "2022-06-21T22:11:26.983281",
      "2022-06-21T22:11:29.063075",
      "2022-06-21T22:11:31.144645",
      "2022-06-21T22:11:33.228855",
      "2022-06-21T22:11:35.346251",
      "2022-06-21T22:11:37.427211",
      "2022-06-21T22:11:39.507122",
      "2022-06-21T22:11:41.589848",
      "2022-06-21T22:11:43.685141",
      "2022-06-21T22:11:45.776469",
      "2022-06-21T22:11:47.858209",
      "2022-06-21T22:11:49.938488",
      "2022-06-21T22:11:52.021635",
      "2022-06-21T22:11:54.131842",
      "2022-06-21T22:11:56.220513",
      "2022-06-21T22:11:58.300586",
      "2022-06-21T22:12:00.380569",
      "2022-06-21T22:12:02.460002",
      "2022-06-21T22:12:04.566410",
      "2022-06-21T22:12:06.650124",
      "2022-06-21T22:12:08.727873",
      "2022-06-21T22:12:10.810238",
      "2022-06-21T22:12:12.889918",
      "2022-06-21T22:12:15.005946",
      "2022-06-21T22:12:17.090321",
      "2022-06-21T22:12:19.172760",
      "2022-06-21T22:12:21.254826",
      "2022-06-21T22:12:23.336344",
      "2022-06-21T22:12:25.439585",
      "2022-06-21T22:12:27.524675",
      "2022-06-21T22:12:29.605613",
      "2022-06-21T22:12:31.689706",
      "2022-06-21T22:12:33.782277",
      "2022-06-21T22:12:35.877866",
      "2022-06-21T22:12:37.961061",
      "2022-06-21T22:12:40.042603",
      "2022-06-21T22:12:42.124853",
      "2022-06-21T22:12:44.237755",
      "2022-06-21T22:12:46.325790",
      "2022-06-21T22:12:48.409909",
      "2022-06-21T22:12:50.495809",
      "2022-06-21T22:12:52.584351",
      "2022-06-21T22:12:54.697087",
      "2022-06-21T22:12:56.786243",
      "2022-06-21T22:12:58.871516",
      "2022-06-21T22:13:00.958140",
      "2022-06-21T22:13:03.050292",
      "2022-06-21T22:13:05.158970",
      "2022-06-21T22:13:07.251357",
      "2022-06-21T22:13:09.334740",
      "2022-06-21T22:13:11.425176",
      "2022-06-21T22:13:13.523223",
      "2022-06-21T22:13:15.636734",
      "2022-06-21T22:13:17.720854",
      "2022-06-21T22:13:19.804794",
      "2022-06-21T22:13:21.890080",
      "2022-06-21T22:13:23.990195",
      "2022-06-21T22:13:26.080431",
      "2022-06-21T22:13:28.165044",
      "2022-06-21T22:13:30.247351",
      "2022-06-21T22:13:32.331413",
      "2022-06-21T22:13:34.453937",
      "2022-06-21T22:13:36.541409",
      "2022-06-21T22:13:38.633695",
      "2022-06-21T22:13:40.721446",
      "2022-06-21T22:13:42.814678",
      "2022-06-21T22:13:44.928383",
      "2022-06-21T22:13:47.024738",
      "2022-06-21T22:13:49.105196",
      "2022-06-21T22:13:51.186304",
      "2022-06-21T22:13:53.266601",
      "2022-06-21T22:13:55.375550",
      "2022-06-21T22:13:57.456739",
      "2022-06-21T22:13:59.539759",
      "2022-06-21T22:14:01.625467",
      "2022-06-21T22:14:03.726673",
      "2022-06-21T22:14:05.835353",
      "2022-06-21T22:14:07.918475",
      "2022-06-21T22:14:10.002516",
      "2022-06-21T22:14:12.086792",
      "2022-06-21T22:14:14.207999",
      "2022-06-21T22:14:16.302336",
      "2022-06-21T22:14:18.383919",
      "2022-06-21T22:14:20.466391",
      "2022-06-21T22:14:22.548908",
      "2022-06-21T22:14:24.661960",
      "2022-06-21T22:14:26.747317",
      "2022-06-21T22:14:28.829613",
      "2022-06-21T22:14:30.910832",
      "2022-06-21T22:14:32.996639",
      "2022-06-21T22:14:35.111299",
      "2022-06-21T22:14:37.194736",
      "2022-06-21T22:14:39.285407",
      "2022-06-21T22:14:41.367212",
      "2022-06-21T22:14:43.459016",
      "2022-06-21T22:14:45.564694",
      "2022-06-21T22:14:47.645243",
      "2022-06-21T22:14:49.723886",
      "2022-06-21T22:14:51.805852",
      "2022-06-21T22:14:53.895837",
      "2022-06-21T22:14:55.996151",
      "2022-06-21T22:14:58.077221",
      "2022-06-21T22:15:00.159345"
    ],
    "values": [
      31.918592,
      31.918592,
      31.918592,
      31.918592,
      31.918592,
      31.918592,
      31.918592,
      31.918592,
      31.918592,
      31.918592,
      31.918592,
      31.918592,
      31.918592,
      31.918592,
      31.918592,
      31.918592,
      31.918592,
      31.918592,
      31.918592,
      31.918592,
      31.918592,
      31.918592,
      31.918592,
      31.918592,
      31.918592,
      31.918592,
      31.918592,
      31.918592,
      31.918592,
      31.918592,
      31.918592,
      31.918592,
      31.918592,
      31.918592,
      31.918592,
      31.918592,
      31.918592,
      31.918592,
      31.918592,
      31.918592,
      31.918592,
      31.918592,
      31.918592,
      31.918592,
      31.918592,
      31.918592,
      31.918592,
      31.918592,
      31.918592,
      31.918592,
      31.918592,
      31.918592,
      31.918592,
      31.918592,
      31.918592,
      31.918592,
      31.918592,
      31.918592,
      31.918592,
      31.918592,
      31.918592,
      31.918592,
      31.918592,
      31.918592,
      31.918592,
      31.918592,
      31.918592,
      31.918592,
      31.918592,
      31.918592,
      31.918592,
      31.918592,
      31.918592,
      31.918592,
      31.918592,
      31.918592,
      31.918592,
      31.918592,
      31.918592,
      31.918592,
      31.918592,
      31.918592,
      31.918592,
      31.918592,
      31.918592,
      31.918592,
      31.918592,
      31.918592,
      31.918592,
      31.918592,
      31.918592,
      31.918592,
      31.918592,
      31.918592,
      31.918592,
      31.918592,
      31.918592,
      31.918592,
      31.918592,
      31.918592,
      31.918592,
      31.918592,
      31.918592,
      31.918592,
      31.918592,
      31.918592,
      31.918592,
      31.918592,
      31.918592,
      31.918592,
      31.918592,
      31.918592,
      31.918592,
      31.918592,
      31.918592,
      31.918592,
      31.918592,
      31.918592,
      31.918592,
      31.918592,
      31.918592,
      31.918592,
      31.918592,
      31.918592,
      31.918592,
      31.918592,
      31.918592,
      31.918592,
      31.918592,
      31.918592,
      31.918592,
      31.918592,
      31.918592,
      31.918592,
      31.918592,
      31.918592,
      31.918592,
      31.918592,
      31.918592,
      31.918592,
      31.918592,
      31.918592,
      31.918592,
      31.918592,
      31.918592,
      31.918592,
      31.918592,
      31.918592,
      31.918592,
      31.918592,
      31.918592,
      31.918592,
      31.918592,
      31.918592,
      31.918592,
      31.918592,
      31.918592,
      31.918592,
      31.918592,
      31.918592,
      31.918592,
      31.918592,
      31.918592,
      31.918592,
      31.918592,
      31.918592,
      31.918592,
      31.918592,
      31.918592,
      31.918592,
      31.918592,
      31.918592,
      31.918592,
      31.918592,
      31.918592,
      31.918592,
      31.918592,
      31.918592,
      31.918592,
      31.918592,
      31.918592,
      31.918592,
      31.918592,
      31.918592,
      31.918592,
      31.918592,
      31.918592,
      31.918592,
      31.918592,
      31.918592,
      31.918592,
      31.918592,
      31.918592,
      31.918592,
      31.918592,
      31.918592,
      31.918592,
      31.918592,
      31.918592,
      31.918592,
      31.918592,
      31.918592,
      31.918592,
      31.918592,
      31.918592,
      31.918592,
      31.918592,
      31.918592,
      31.918592,
      31.918592,
      31.918592,
      31.918592,
      31.918592,
      31.918592,
      31.918592,
      31.918592,
      31.918592,
      31.918592,
      31.918592,
      31.918592,
      31.918592,
      31.918592,
      31.918592,
      31.918592,
      31.918592,
      31.918592,
      31.918592,
      31.918592,
      31.918592,
      31.918592,
      31.918592,
      31.918592,
      31.918592,
      31.918592,
      31.918592,
      31.918592,
      31.918592,
      31.918592,
      31.918592,
      31.918592,
      31.918592,
      31.918592,
      31.918592,
      31.918592,
      31.918592,
      31.918592,
      31.918592,
      31.918592,
      31.918592,
      31.918592,
      31.918592,
      31.918592,
      31.918592,
      31.918592,
      31.918592,
      31.918592,
      31.918592,
      31.918592,
      31.918592,
      31.918592,
      31.918592,
      31.918592,
      31.918592,
      31.918592,
      31.918592,
      31.918592,
      31.918592,
      31.918592,
      31.918592,
      31.918592,
      31.918592,
      31.918592,
      31.918592,
      31.918592,
      31.918592,
      31.918592,
      31.918592,
      31.918592,
      31.918592,
      31.918592,
      31.918592,
      31.918592,
      31.918592,
      31.918592,
      31.918592,
      31.918592,
      31.918592,
      31.918592,
      31.918592,
      31.918592,
      31.918592,
      31.918592,
      31.918592,
      31.918592,
      31.918592,
      31.918592,
      31.918592,
      31.918592,
      31.918592,
      31.918592,
      31.918592,
      31.918592,
      31.918592,
      31.918592,
      31.918592,
      31.918592,
      31.918592,
      31.918592,
      31.918592,
      31.918592,
      31.918592,
      31.918592,
      31.918592,
      31.918592,
      31.918592,
      31.918592,
      31.918592,
      31.918592,
      31.918592,
      31.918592,
      31.918592,
      31.918592,
      31.918592,
      31.918592,
      31.918592,
      31.918592,
      31.918592,
      31.918592,
      31.918592,
      31.918592,
      31.918592,
      31.918592,
      31.918592,
      31.918592,
      31.918592,
      31.918592,
      31.918592,
      31.918592,
      31.918592,
      31.918592,
      31.918592,
      31.918592,
      31.918592,
      31.918592,
      31.918592,
      31.918592,
      31.918592,
      31.918592,
      31.918592,
      31.918592,
      31.918592,
      31.918592,
      31.918592,
      31.918592,
      31.918592,
      31.918592,
      31.918592,
      31.918592,
      31.918592,
      31.918592,
      31.918592,
      31.918592,
      31.918592,
      31.918592,
      31.918592,
      31.918592,
      31.918592,
      31.918592,
      31.918592,
      31.918592,
      31.918592,
      31.918592,
      31.918592,
      31.918592,
      31.918592,
      31.918592,
      31.918592,
      31.918592,
      31.918592,
      31.918592,
      31.918592,
      31.918592,
      31.918592,
      31.918592,
      31.918592,
      31.918592,
      31.918592,
      31.918592,
      31.918592,
      31.918592,
      31.918592,
      31.918592,
      31.918592,
      31.918592,
      31.918592,
      31.918592,
      31.918592,
      31.918592,
      31.918592,
      31.918592
    ]
  },
  "test": {
    "steps": [
      0
    ],
    "timestamps": [
      "2022-06-21T22:15:00.640067"
    ],
    "values": [
      40.008240418200884
    ]
  },
  "train": {
    "steps": [
      0,
      1,
      2,
      3,
      4,
      5,
      6,
      7,
      8,
      9,
      10,
      11,
      12,
      13,
      14,
      15,
      16,
      17,
      18,
      19,
      20,
      21,
      22,
      23,
      24,
      25,
      26,
      27,
      28,
      29,
      30,
      31,
      32,
      33,
      34,
      35,
      36,
      37,
      38,
      39,
      40,
      41,
      42,
      43,
      44,
      45,
      46,
      47,
      48,
      49,
      50,
      51,
      52,
      53,
      54,
      55,
      56,
      57,
      58,
      59,
      60,
      61,
      62,
      63,
      64,
      65,
      66,
      67,
      68,
      69,
      70,
      71,
      72,
      73,
      74,
      75,
      76,
      77,
      78,
      79,
      80,
      81,
      82,
      83,
      84,
      85,
      86,
      87,
      88,
      89,
      90,
      91,
      92,
      93,
      94,
      95,
      96,
      97,
      98,
      99,
      100,
      101,
      102,
      103,
      104,
      105,
      106,
      107,
      108,
      109,
      110,
      111,
      112,
      113,
      114,
      115,
      116,
      117,
      118,
      119,
      120,
      121,
      122,
      123,
      124,
      125,
      126,
      127,
      128,
      129,
      130,
      131,
      132,
      133,
      134,
      135,
      136,
      137,
      138,
      139,
      140,
      141,
      142,
      143,
      144,
      145,
      146,
      147,
      148,
      149,
      150,
      151,
      152,
      153,
      154,
      155,
      156,
      157,
      158,
      159,
      160,
      161,
      162,
      163,
      164,
      165,
      166,
      167,
      168,
      169,
      170,
      171,
      172,
      173,
      174,
      175,
      176,
      177,
      178,
      179,
      180,
      181,
      182,
      183,
      184,
      185,
      186,
      187,
      188,
      189,
      190,
      191,
      192,
      193,
      194,
      195,
      196,
      197,
      198,
      199,
      200,
      201,
      202,
      203,
      204,
      205,
      206,
      207,
      208,
      209,
      210,
      211,
      212,
      213,
      214,
      215,
      216,
      217,
      218,
      219,
      220,
      221,
      222,
      223,
      224,
      225,
      226,
      227,
      228,
      229,
      230,
      231,
      232,
      233,
      234,
      235,
      236,
      237,
      238,
      239,
      240,
      241,
      242,
      243,
      244,
      245,
      246,
      247,
      248,
      249,
      250,
      251,
      252,
      253,
      254,
      255,
      256,
      257,
      258,
      259,
      260,
      261,
      262,
      263,
      264,
      265,
      266,
      267,
      268,
      269,
      270,
      271,
      272,
      273,
      274,
      275,
      276,
      277,
      278,
      279,
      280,
      281,
      282,
      283,
      284,
      285,
      286,
      287,
      288,
      289,
      290,
      291,
      292,
      293,
      294,
      295,
      296,
      297,
      298,
      299,
      300,
      301,
      302,
      303,
      304,
      305,
      306,
      307,
      308,
      309,
      310,
      311,
      312,
      313,
      314,
      315,
      316,
      317,
      318,
      319,
      320,
      321,
      322,
      323,
      324,
      325,
      326,
      327,
      328,
      329,
      330,
      331,
      332,
      333,
      334,
      335,
      336,
      337,
      338,
      339,
      340,
      341,
      342,
      343,
      344,
      345,
      346,
      347,
      348,
      349,
      350,
      351,
      352,
      353,
      354,
      355,
      356,
      357,
      358,
      359,
      360,
      361,
      362,
      363,
      364,
      365,
      366,
      367,
      368,
      369,
      370,
      371,
      372,
      373,
      374,
      375,
      376,
      377,
      378,
      379,
      380,
      381,
      382,
      383,
      384,
      385,
      386,
      387,
      388,
      389,
      390,
      391,
      392,
      393,
      394,
      395,
      396,
      397,
      398,
      399
    ],
    "timestamps": [
      "2022-06-21T22:01:06.429922",
      "2022-06-21T22:01:08.507718",
      "2022-06-21T22:01:10.587881",
      "2022-06-21T22:01:12.666637",
      "2022-06-21T22:01:14.772038",
      "2022-06-21T22:01:16.853955",
      "2022-06-21T22:01:18.932707",
      "2022-06-21T22:01:21.013314",
      "2022-06-21T22:01:23.141092",
      "2022-06-21T22:01:25.243864",
      "2022-06-21T22:01:27.333144",
      "2022-06-21T22:01:29.417346",
      "2022-06-21T22:01:31.505398",
      "2022-06-21T22:01:33.596289",
      "2022-06-21T22:01:35.691176",
      "2022-06-21T22:01:37.772772",
      "2022-06-21T22:01:39.857063",
      "2022-06-21T22:01:41.941606",
      "2022-06-21T22:01:44.041233",
      "2022-06-21T22:01:46.126873",
      "2022-06-21T22:01:48.211180",
      "2022-06-21T22:01:50.295812",
      "2022-06-21T22:01:52.383217",
      "2022-06-21T22:01:54.485407",
      "2022-06-21T22:01:56.570012",
      "2022-06-21T22:01:58.651427",
      "2022-06-21T22:02:00.740877",
      "2022-06-21T22:02:02.822756",
      "2022-06-21T22:02:04.950421",
      "2022-06-21T22:02:07.046404",
      "2022-06-21T22:02:09.140550",
      "2022-06-21T22:02:11.224534",
      "2022-06-21T22:02:13.305293",
      "2022-06-21T22:02:15.418171",
      "2022-06-21T22:02:17.500825",
      "2022-06-21T22:02:19.583473",
      "2022-06-21T22:02:21.668078",
      "2022-06-21T22:02:23.783727",
      "2022-06-21T22:02:25.880054",
      "2022-06-21T22:02:27.965291",
      "2022-06-21T22:02:30.049282",
      "2022-06-21T22:02:32.134435",
      "2022-06-21T22:02:34.245461",
      "2022-06-21T22:02:36.329776",
      "2022-06-21T22:02:38.413928",
      "2022-06-21T22:02:40.498809",
      "2022-06-21T22:02:42.583637",
      "2022-06-21T22:02:44.707936",
      "2022-06-21T22:02:46.790520",
      "2022-06-21T22:02:48.870015",
      "2022-06-21T22:02:50.954358",
      "2022-06-21T22:02:53.034404",
      "2022-06-21T22:02:55.137503",
      "2022-06-21T22:02:57.219858",
      "2022-06-21T22:02:59.301950",
      "2022-06-21T22:03:01.383900",
      "2022-06-21T22:03:03.481707",
      "2022-06-21T22:03:05.583190",
      "2022-06-21T22:03:07.663524",
      "2022-06-21T22:03:09.743004",
      "2022-06-21T22:03:11.828329",
      "2022-06-21T22:03:13.949516",
      "2022-06-21T22:03:16.037687",
      "2022-06-21T22:03:18.119943",
      "2022-06-21T22:03:20.200815",
      "2022-06-21T22:03:22.283630",
      "2022-06-21T22:03:24.397330",
      "2022-06-21T22:03:26.480935",
      "2022-06-21T22:03:28.561456",
      "2022-06-21T22:03:30.643564",
      "2022-06-21T22:03:32.728983",
      "2022-06-21T22:03:34.833554",
      "2022-06-21T22:03:36.914319",
      "2022-06-21T22:03:39.039097",
      "2022-06-21T22:03:41.121504",
      "2022-06-21T22:03:43.204476",
      "2022-06-21T22:03:45.301746",
      "2022-06-21T22:03:47.382728",
      "2022-06-21T22:03:49.461051",
      "2022-06-21T22:03:51.541344",
      "2022-06-21T22:03:53.632819",
      "2022-06-21T22:03:55.722900",
      "2022-06-21T22:03:57.802330",
      "2022-06-21T22:03:59.880730",
      "2022-06-21T22:04:01.961648",
      "2022-06-21T22:04:04.070717",
      "2022-06-21T22:04:06.156645",
      "2022-06-21T22:04:08.236724",
      "2022-06-21T22:04:10.316182",
      "2022-06-21T22:04:12.400627",
      "2022-06-21T22:04:14.503561",
      "2022-06-21T22:04:16.587499",
      "2022-06-21T22:04:18.675307",
      "2022-06-21T22:04:20.756627",
      "2022-06-21T22:04:22.842668",
      "2022-06-21T22:04:24.948978",
      "2022-06-21T22:04:27.029520",
      "2022-06-21T22:04:29.109649",
      "2022-06-21T22:04:31.188726",
      "2022-06-21T22:04:33.283170",
      "2022-06-21T22:04:35.408186",
      "2022-06-21T22:04:37.487124",
      "2022-06-21T22:04:39.566231",
      "2022-06-21T22:04:41.647052",
      "2022-06-21T22:04:43.736868",
      "2022-06-21T22:04:45.824682",
      "2022-06-21T22:04:47.903692",
      "2022-06-21T22:04:50.032139",
      "2022-06-21T22:04:52.110603",
      "2022-06-21T22:04:54.220142",
      "2022-06-21T22:04:56.301059",
      "2022-06-21T22:04:58.380779",
      "2022-06-21T22:05:00.462967",
      "2022-06-21T22:05:02.546799",
      "2022-06-21T22:05:04.654046",
      "2022-06-21T22:05:06.739128",
      "2022-06-21T22:05:08.817086",
      "2022-06-21T22:05:10.918459",
      "2022-06-21T22:05:13.001142",
      "2022-06-21T22:05:15.101039",
      "2022-06-21T22:05:17.182166",
      "2022-06-21T22:05:19.273265",
      "2022-06-21T22:05:21.354519",
      "2022-06-21T22:05:23.437575",
      "2022-06-21T22:05:25.545588",
      "2022-06-21T22:05:27.633634",
      "2022-06-21T22:05:29.714628",
      "2022-06-21T22:05:31.795629",
      "2022-06-21T22:05:33.896850",
      "2022-06-21T22:05:35.986143",
      "2022-06-21T22:05:38.065226",
      "2022-06-21T22:05:40.143226",
      "2022-06-21T22:05:42.223693",
      "2022-06-21T22:05:44.337417",
      "2022-06-21T22:05:46.418369",
      "2022-06-21T22:05:48.498333",
      "2022-06-21T22:05:50.577583",
      "2022-06-21T22:05:52.656951",
      "2022-06-21T22:05:54.764541",
      "2022-06-21T22:05:56.848811",
      "2022-06-21T22:05:58.944132",
      "2022-06-21T22:06:01.025644",
      "2022-06-21T22:06:03.109593",
      "2022-06-21T22:06:05.220954",
      "2022-06-21T22:06:07.303115",
      "2022-06-21T22:06:09.383066",
      "2022-06-21T22:06:11.469427",
      "2022-06-21T22:06:13.562727",
      "2022-06-21T22:06:15.662494",
      "2022-06-21T22:06:17.743537",
      "2022-06-21T22:06:19.826263",
      "2022-06-21T22:06:21.915839",
      "2022-06-21T22:06:24.016717",
      "2022-06-21T22:06:26.105868",
      "2022-06-21T22:06:28.185616",
      "2022-06-21T22:06:30.266485",
      "2022-06-21T22:06:32.347317",
      "2022-06-21T22:06:34.465251",
      "2022-06-21T22:06:36.550585",
      "2022-06-21T22:06:38.632325",
      "2022-06-21T22:06:40.715681",
      "2022-06-21T22:06:42.799339",
      "2022-06-21T22:06:44.924736",
      "2022-06-21T22:06:47.008895",
      "2022-06-21T22:06:49.091668",
      "2022-06-21T22:06:51.173227",
      "2022-06-21T22:06:53.261512",
      "2022-06-21T22:06:55.369692",
      "2022-06-21T22:06:57.452393",
      "2022-06-21T22:06:59.531354",
      "2022-06-21T22:07:01.613107",
      "2022-06-21T22:07:03.708224",
      "2022-06-21T22:07:05.819863",
      "2022-06-21T22:07:07.902486",
      "2022-06-21T22:07:09.985499",
      "2022-06-21T22:07:12.070895",
      "2022-06-21T22:07:14.180665",
      "2022-06-21T22:07:16.263163",
      "2022-06-21T22:07:18.342715",
      "2022-06-21T22:07:20.424070",
      "2022-06-21T22:07:22.507047",
      "2022-06-21T22:07:24.608998",
      "2022-06-21T22:07:26.696318",
      "2022-06-21T22:07:28.777428",
      "2022-06-21T22:07:30.858993",
      "2022-06-21T22:07:32.944302",
      "2022-06-21T22:07:35.048662",
      "2022-06-21T22:07:37.136139",
      "2022-06-21T22:07:39.237690",
      "2022-06-21T22:07:41.318809",
      "2022-06-21T22:07:43.409133",
      "2022-06-21T22:07:45.517445",
      "2022-06-21T22:07:47.598384",
      "2022-06-21T22:07:49.677099",
      "2022-06-21T22:07:51.759487",
      "2022-06-21T22:07:53.897045",
      "2022-06-21T22:07:55.982180",
      "2022-06-21T22:07:58.064714",
      "2022-06-21T22:08:00.145119",
      "2022-06-21T22:08:02.227439",
      "2022-06-21T22:08:04.337344",
      "2022-06-21T22:08:06.427175",
      "2022-06-21T22:08:08.509157",
      "2022-06-21T22:08:10.603203",
      "2022-06-21T22:08:12.690060",
      "2022-06-21T22:08:14.790738",
      "2022-06-21T22:08:16.876553",
      "2022-06-21T22:08:18.957012",
      "2022-06-21T22:08:21.037331",
      "2022-06-21T22:08:23.122270",
      "2022-06-21T22:08:25.229623",
      "2022-06-21T22:08:27.313525",
      "2022-06-21T22:08:29.396911",
      "2022-06-21T22:08:31.481082",
      "2022-06-21T22:08:33.582131",
      "2022-06-21T22:08:35.680668",
      "2022-06-21T22:08:37.763950",
      "2022-06-21T22:08:39.846628",
      "2022-06-21T22:08:41.936826",
      "2022-06-21T22:08:44.038883",
      "2022-06-21T22:08:46.126185",
      "2022-06-21T22:08:48.206805",
      "2022-06-21T22:08:50.287660",
      "2022-06-21T22:08:52.369176",
      "2022-06-21T22:08:54.491160",
      "2022-06-21T22:08:56.576782",
      "2022-06-21T22:08:58.660220",
      "2022-06-21T22:09:00.743808",
      "2022-06-21T22:09:02.829979",
      "2022-06-21T22:09:04.938886",
      "2022-06-21T22:09:07.026595",
      "2022-06-21T22:09:09.108518",
      "2022-06-21T22:09:11.191970",
      "2022-06-21T22:09:13.273968",
      "2022-06-21T22:09:15.377569",
      "2022-06-21T22:09:17.462401",
      "2022-06-21T22:09:19.543108",
      "2022-06-21T22:09:21.623026",
      "2022-06-21T22:09:23.742034",
      "2022-06-21T22:09:25.834153",
      "2022-06-21T22:09:27.914785",
      "2022-06-21T22:09:29.995869",
      "2022-06-21T22:09:32.079801",
      "2022-06-21T22:09:34.194752",
      "2022-06-21T22:09:36.278810",
      "2022-06-21T22:09:38.360623",
      "2022-06-21T22:09:40.443128",
      "2022-06-21T22:09:42.528159",
      "2022-06-21T22:09:44.634724",
      "2022-06-21T22:09:46.725270",
      "2022-06-21T22:09:48.808706",
      "2022-06-21T22:09:50.892455",
      "2022-06-21T22:09:52.987544",
      "2022-06-21T22:09:55.096746",
      "2022-06-21T22:09:57.178834",
      "2022-06-21T22:09:59.259445",
      "2022-06-21T22:10:01.340800",
      "2022-06-21T22:10:03.421554",
      "2022-06-21T22:10:05.522669",
      "2022-06-21T22:10:07.605256",
      "2022-06-21T22:10:09.687733",
      "2022-06-21T22:10:11.771599",
      "2022-06-21T22:10:13.864866",
      "2022-06-21T22:10:15.961817",
      "2022-06-21T22:10:18.043774",
      "2022-06-21T22:10:20.124614",
      "2022-06-21T22:10:22.207428",
      "2022-06-21T22:10:24.326197",
      "2022-06-21T22:10:26.411939",
      "2022-06-21T22:10:28.493018",
      "2022-06-21T22:10:30.575836",
      "2022-06-21T22:10:32.660923",
      "2022-06-21T22:10:34.779674",
      "2022-06-21T22:10:36.861530",
      "2022-06-21T22:10:38.940562",
      "2022-06-21T22:10:41.022182",
      "2022-06-21T22:10:43.106350",
      "2022-06-21T22:10:45.214137",
      "2022-06-21T22:10:47.298838",
      "2022-06-21T22:10:49.380834",
      "2022-06-21T22:10:51.464523",
      "2022-06-21T22:10:53.549559",
      "2022-06-21T22:10:55.653494",
      "2022-06-21T22:10:57.735090",
      "2022-06-21T22:10:59.813910",
      "2022-06-21T22:11:01.895144",
      "2022-06-21T22:11:04.004883",
      "2022-06-21T22:11:06.095582",
      "2022-06-21T22:11:08.175361",
      "2022-06-21T22:11:10.256909",
      "2022-06-21T22:11:12.338246",
      "2022-06-21T22:11:14.452100",
      "2022-06-21T22:11:16.533777",
      "2022-06-21T22:11:18.615462",
      "2022-06-21T22:11:20.698357",
      "2022-06-21T22:11:22.784844",
      "2022-06-21T22:11:24.900234",
      "2022-06-21T22:11:26.983157",
      "2022-06-21T22:11:29.062951",
      "2022-06-21T22:11:31.144522",
      "2022-06-21T22:11:33.228732",
      "2022-06-21T22:11:35.346131",
      "2022-06-21T22:11:37.427089",
      "2022-06-21T22:11:39.506997",
      "2022-06-21T22:11:41.589723",
      "2022-06-21T22:11:43.684976",
      "2022-06-21T22:11:45.776342",
      "2022-06-21T22:11:47.858081",
      "2022-06-21T22:11:49.938363",
      "2022-06-21T22:11:52.021506",
      "2022-06-21T22:11:54.131714",
      "2022-06-21T22:11:56.220388",
      "2022-06-21T22:11:58.300460",
      "2022-06-21T22:12:00.380442",
      "2022-06-21T22:12:02.459876",
      "2022-06-21T22:12:04.566285",
      "2022-06-21T22:12:06.650000",
      "2022-06-21T22:12:08.727749",
      "2022-06-21T22:12:10.810110",
      "2022-06-21T22:12:12.889791",
      "2022-06-21T22:12:15.005821",
      "2022-06-21T22:12:17.090195",
      "2022-06-21T22:12:19.172636",
      "2022-06-21T22:12:21.254700",
      "2022-06-21T22:12:23.336232",
      "2022-06-21T22:12:25.439455",
      "2022-06-21T22:12:27.524548",
      "2022-06-21T22:12:29.605484",
      "2022-06-21T22:12:31.689578",
      "2022-06-21T22:12:33.782125",
      "2022-06-21T22:12:35.877738",
      "2022-06-21T22:12:37.960933",
      "2022-06-21T22:12:40.042476",
      "2022-06-21T22:12:42.124724",
      "2022-06-21T22:12:44.237627",
      "2022-06-21T22:12:46.325665",
      "2022-06-21T22:12:48.409786",
      "2022-06-21T22:12:50.495681",
      "2022-06-21T22:12:52.584234",
      "2022-06-21T22:12:54.696963",
      "2022-06-21T22:12:56.786119",
      "2022-06-21T22:12:58.871410",
      "2022-06-21T22:13:00.958014",
      "2022-06-21T22:13:03.050159",
      "2022-06-21T22:13:05.158842",
      "2022-06-21T22:13:07.251222",
      "2022-06-21T22:13:09.334614",
      "2022-06-21T22:13:11.425037",
      "2022-06-21T22:13:13.523094",
      "2022-06-21T22:13:15.636605",
      "2022-06-21T22:13:17.720728",
      "2022-06-21T22:13:19.804667",
      "2022-06-21T22:13:21.889951",
      "2022-06-21T22:13:23.990055",
      "2022-06-21T22:13:26.080278",
      "2022-06-21T22:13:28.164920",
      "2022-06-21T22:13:30.247225",
      "2022-06-21T22:13:32.331287",
      "2022-06-21T22:13:34.453808",
      "2022-06-21T22:13:36.541283",
      "2022-06-21T22:13:38.633571",
      "2022-06-21T22:13:40.721319",
      "2022-06-21T22:13:42.814545",
      "2022-06-21T22:13:44.928259",
      "2022-06-21T22:13:47.024611",
      "2022-06-21T22:13:49.105071",
      "2022-06-21T22:13:51.186176",
      "2022-06-21T22:13:53.266473",
      "2022-06-21T22:13:55.375424",
      "2022-06-21T22:13:57.456611",
      "2022-06-21T22:13:59.539633",
      "2022-06-21T22:14:01.625339",
      "2022-06-21T22:14:03.726502",
      "2022-06-21T22:14:05.835223",
      "2022-06-21T22:14:07.918349",
      "2022-06-21T22:14:10.002387",
      "2022-06-21T22:14:12.086665",
      "2022-06-21T22:14:14.207869",
      "2022-06-21T22:14:16.302210",
      "2022-06-21T22:14:18.383795",
      "2022-06-21T22:14:20.466262",
      "2022-06-21T22:14:22.548782",
      "2022-06-21T22:14:24.661850",
      "2022-06-21T22:14:26.747192",
      "2022-06-21T22:14:28.829488",
      "2022-06-21T22:14:30.910705",
      "2022-06-21T22:14:32.996528",
      "2022-06-21T22:14:35.111171",
      "2022-06-21T22:14:37.194611",
      "2022-06-21T22:14:39.285278",
      "2022-06-21T22:14:41.367082",
      "2022-06-21T22:14:43.458897",
      "2022-06-21T22:14:45.564560",
      "2022-06-21T22:14:47.645115",
      "2022-06-21T22:14:49.723758",
      "2022-06-21T22:14:51.805723",
      "2022-06-21T22:14:53.895703",
      "2022-06-21T22:14:55.996025",
      "2022-06-21T22:14:58.077097",
      "2022-06-21T22:15:00.159220"
    ],
    "values": [
      60.93473001836398,
      41.798555050050545,
      41.00375603858652,
      40.829221984194504,
      40.706614764550324,
      40.670862282433426,
      40.63165567106243,
      40.59969813796748,
      40.55076322684891,
      40.52897265739606,
      40.52645133472497,
      40.55100217284267,
      40.51259326586365,
      40.510853123129586,
      40.490909223447886,
      40.46186439818391,
      40.45999739334258,
      40.46022247419816,
      40.456661733817874,
      40.454916522006144,
      40.446587555470934,
      40.45788141818217,
      40.426833134427305,
      40.458414202975845,
      40.45281830613551,
      40.443579289934526,
      40.4284442711867,
      40.43806570863836,
      40.430248815738395,
      40.41807131740336,
      40.46110314426316,
      40.42794570566076,
      40.41785907623286,
      40.41982963616261,
      40.433985915247824,
      40.407167953775286,
      40.41417532283183,
      40.416347157136315,
      40.41020624711051,
      40.411025891500636,
      40.37559636205495,
      40.37734147760699,
      40.40460335798544,
      40.41848904290761,
      40.384835103573145,
      40.38938166093674,
      40.41511106196201,
      40.37881586981031,
      40.399407393763155,
      40.374313978923716,
      40.38772150282103,
      40.35952286194638,
      40.393039310851016,
      40.39273606856618,
      40.393152394043895,
      40.3921885505322,
      40.383031033121014,
      40.387119795836355,
      40.38209775164451,
      40.37390905026129,
      40.397359579948024,
      40.383987853308646,
      40.36523001049541,
      40.391500760913274,
      40.391878347883306,
      40.368241303461,
      40.37189264818117,
      40.38008870139783,
      40.36765150644296,
      40.36332953254495,
      40.36740197508448,
      40.35998202220153,
      40.37016856553669,
      40.22079314242929,
      40.19380065891396,
      40.1898737205696,
      40.18853372469498,
      40.189160275732554,
      40.18689451431938,
      40.189319384196864,
      40.186795193338874,
      40.18758851121287,
      40.188102317718794,
      40.189836251572466,
      40.18775806871307,
      40.18792642451768,
      40.19148040841792,
      40.189195531217855,
      40.18948654773121,
      40.191489578529016,
      40.18871219200906,
      40.189271100196194,
      40.18844422309921,
      40.18807710607807,
      40.186820674063625,
      40.18379187356708,
      40.18651937572488,
      40.188507498532736,
      40.188441103573005,
      40.18581412398315,
      40.18668006651734,
      40.18617750563868,
      40.186525799228555,
      40.18945520883887,
      40.1878908228806,
      40.183416249676284,
      40.18733970055795,
      40.18755808772876,
      40.18997651433962,
      40.18289215856859,
      40.186553333434084,
      40.187391668671346,
      40.185120028311104,
      40.18664005915304,
      40.18645654393348,
      40.18410606516893,
      40.184964503063526,
      40.16587287506969,
      40.16130800927199,
      40.16019111477674,
      40.160590011552095,
      40.16010941046717,
      40.160035751485786,
      40.16004730495276,
      40.15992369596988,
      40.15935773262586,
      40.16002272691537,
      40.160100344945164,
      40.159677391569474,
      40.159844096599535,
      40.15998570595442,
      40.159574412563636,
      40.160009787575156,
      40.16005709396998,
      40.15926989692832,
      40.15941557407205,
      40.159418477428204,
      40.15990841466402,
      40.159086955170494,
      40.1597751324546,
      40.156448920496906,
      40.156373373718374,
      40.15653501812422,
      40.1565107094453,
      40.15642132097915,
      40.156354125501345,
      40.15635613951149,
      40.156360297179084,
      40.15631118623803,
      40.156285812363414,
      40.15628735829623,
      40.15627171032413,
      40.15623697283236,
      40.15620690112662,
      40.15621531827267,
      40.15618822733362,
      40.1562153724645,
      40.15616849154687,
      40.15613157511438,
      40.15621796230897,
      40.15617598951952,
      40.15620100745817,
      40.15582471218387,
      40.155827181382875,
      40.15582685140625,
      40.155833128111674,
      40.15582803626417,
      40.15582897124959,
      40.15582954665859,
      40.15582736528277,
      40.15582880645309,
      40.15582644505281,
      40.155822258503946,
      40.15582202731619,
      40.15582282926307,
      40.15581789338084,
      40.15582252694806,
      40.15581743574212,
      40.15582117086799,
      40.15581699620276,
      40.15581199588892,
      40.15580696182617,
      40.15581626648912,
      40.155814832007856,
      40.15581257946931,
      40.15581272529312,
      40.15580944334327,
      40.155806901136124,
      40.1558119895536,
      40.155809437034485,
      40.15580933592219,
      40.1558059540386,
      40.15580474891505,
      40.15580493468062,
      40.15580494206326,
      40.15580330883395,
      40.155802962191935,
      40.15580153743723,
      40.15579897693986,
      40.155801160364824,
      40.15579940866453,
      40.15580319570174,
      40.1558009640214,
      40.15579590562348,
      40.15580116858634,
      40.15580044044857,
      40.155799328462265,
      40.15579976689179,
      40.155798484727086,
      40.15579565306254,
      40.15579948512807,
      40.155793590565594,
      40.15579675030377,
      40.15578661092795,
      40.155794933129,
      40.15579306882506,
      40.155790183386245,
      40.15579149068663,
      40.15578892220183,
      40.155787725113306,
      40.15578907483365,
      40.15578719628677,
      40.15578499010334,
      40.15578112913833,
      40.15578554964256,
      40.15578961741714,
      40.15578200354737,
      40.15578332241396,
      40.155784571344185,
      40.15578290914536,
      40.1557799520765,
      40.15578291848019,
      40.155783041251844,
      40.155782451770754,
      40.15578363480708,
      40.15578373700754,
      40.15578540554266,
      40.155783124631164,
      40.15578105311717,
      40.15577520208976,
      40.15578469357757,
      40.15577922679538,
      40.15578203706274,
      40.1557839338386,
      40.155777507178435,
      40.155778229474976,
      40.15577345279567,
      40.15577677317058,
      40.15577221765382,
      40.15577106945486,
      40.15577602532114,
      40.15576911201318,
      40.15577374277321,
      40.155776998663306,
      40.15577200671682,
      40.15577381195052,
      40.15577294065521,
      40.15577054290054,
      40.155770392775885,
      40.155769507262484,
      40.15576848143705,
      40.155773216292026,
      40.155770328835175,
      40.15576821804059,
      40.15576925687495,
      40.15577300334214,
      40.15576849669264,
      40.15576609063179,
      40.15576581095824,
      40.15576805188156,
      40.15576377619398,
      40.15576555458281,
      40.155769594598,
      40.155769038416885,
      40.15576932225079,
      40.155763952610734,
      40.15577021214696,
      40.15576527350925,
      40.155763453442475,
      40.15576731896877,
      40.15576204104784,
      40.15576100886104,
      40.15576573283638,
      40.15576030587501,
      40.15576306214349,
      40.15576156508082,
      40.155760232921295,
      40.15576273623799,
      40.155754814841146,
      40.15575650511689,
      40.15576018717847,
      40.15575643574728,
      40.15575322076996,
      40.15575324437995,
      40.15575343928817,
      40.1557610957711,
      40.155757052554456,
      40.15575558249,
      40.1557536307331,
      40.15575451972475,
      40.15575615017462,
      40.15575843413721,
      40.155756495386534,
      40.15575526075337,
      40.15575549707864,
      40.15575179214562,
      40.155755071919394,
      40.15575374477849,
      40.15575678321657,
      40.155755347221906,
      40.15575236803398,
      40.15575346349699,
      40.15575143777375,
      40.1557554266144,
      40.155747538622634,
      40.155746963784324,
      40.155751243698646,
      40.15575089990419,
      40.15575716216077,
      40.1557551772964,
      40.15575630022758,
      40.155745918166815,
      40.155751315244004,
      40.155749139607536,
      40.15575449966959,
      40.15574536304053,
      40.15574635534973,
      40.15574833786885,
      40.155743245778034,
      40.15574549307196,
      40.155741173261056,
      40.15574289568439,
      40.155742959111315,
      40.15574521052951,
      40.1557460958878,
      40.15574449266784,
      40.155742622880666,
      40.155741964167035,
      40.155740434658235,
      40.15574230487768,
      40.155739844467995,
      40.15573852591067,
      40.15574274751642,
      40.1557387835992,
      40.15574143292684,
      40.155743012703354,
      40.15573969602377,
      40.1557413143832,
      40.15574352392185,
      40.15574422422047,
      40.155741354252925,
      40.15574033431711,
      40.15574259605166,
      40.15573822129078,
      40.15574176786448,
      40.15573962065065,
      40.155735653464696,
      40.15573750471823,
      40.15573704006667,
      40.15574182022555,
      40.155733983259864,
      40.15573208288901,
      40.155737543552135,
      40.15573608949222,
      40.15573971136835,
      40.15573530887421,
      40.15573848078652,
      40.1557338177528,
      40.155735179595,
      40.15573111425553,
      40.15573755718508,
      40.15573559264128,
      40.15573127234269,
      40.15573109874512,
      40.15573155927146,
      40.15572814257141,
      40.15573327878075,
      40.155729179003146,
      40.155731756584785,
      40.15573005958822,
      40.15573105819448,
      40.15573342347231,
      40.15573234295028,
      40.155727209835845,
      40.15572725117419,
      40.15573154260074,
      40.15572779021843,
      40.1557265021558,
      40.1557270761506,
      40.15572762818109,
      40.15573501335029,
      40.1557272569379,
      40.155725593431384,
      40.15572787510165,
      40.155722203676774,
      40.15572186561927,
      40.155723058637356,
      40.155728053121564,
      40.15572526295182,
      40.155726534508084
    ]
  },
  "val": {
    "steps": [
      0,
      1,
      2,
      3,
      4,
      5,
      6,
      7,
      8,
      9,
      10,
      11,
      12,
      13,
      14,
      15,
      16,
      17,
      18,
      19,
      20,
      21,
      22,
      23,
      24,
      25,
      26,
      27,
      28,
      29,
      30,
      31,
      32,
      33,
      34,
      35,
      36,
      37,
      38,
      39,
      40,
      41,
      42,
      43,
      44,
      45,
      46,
      47,
      48,
      49,
      50,
      51,
      52,
      53,
      54,
      55,
      56,
      57,
      58,
      59,
      60,
      61,
      62,
      63,
      64,
      65,
      66,
      67,
      68,
      69,
      70,
      71,
      72,
      73,
      74,
      75,
      76,
      77,
      78,
      79,
      80,
      81,
      82,
      83,
      84,
      85,
      86,
      87,
      88,
      89,
      90,
      91,
      92,
      93,
      94,
      95,
      96,
      97,
      98,
      99,
      100,
      101,
      102,
      103,
      104,
      105,
      106,
      107,
      108,
      109,
      110,
      111,
      112,
      113,
      114,
      115,
      116,
      117,
      118,
      119,
      120,
      121,
      122,
      123,
      124,
      125,
      126,
      127,
      128,
      129,
      130,
      131,
      132,
      133,
      134,
      135,
      136,
      137,
      138,
      139,
      140,
      141,
      142,
      143,
      144,
      145,
      146,
      147,
      148,
      149,
      150,
      151,
      152,
      153,
      154,
      155,
      156,
      157,
      158,
      159,
      160,
      161,
      162,
      163,
      164,
      165,
      166,
      167,
      168,
      169,
      170,
      171,
      172,
      173,
      174,
      175,
      176,
      177,
      178,
      179,
      180,
      181,
      182,
      183,
      184,
      185,
      186,
      187,
      188,
      189,
      190,
      191,
      192,
      193,
      194,
      195,
      196,
      197,
      198,
      199,
      200,
      201,
      202,
      203,
      204,
      205,
      206,
      207,
      208,
      209,
      210,
      211,
      212,
      213,
      214,
      215,
      216,
      217,
      218,
      219,
      220,
      221,
      222,
      223,
      224,
      225,
      226,
      227,
      228,
      229,
      230,
      231,
      232,
      233,
      234,
      235,
      236,
      237,
      238,
      239,
      240,
      241,
      242,
      243,
      244,
      245,
      246,
      247,
      248,
      249,
      250,
      251,
      252,
      253,
      254,
      255,
      256,
      257,
      258,
      259,
      260,
      261,
      262,
      263,
      264,
      265,
      266,
      267,
      268,
      269,
      270,
      271,
      272,
      273,
      274,
      275,
      276,
      277,
      278,
      279,
      280,
      281,
      282,
      283,
      284,
      285,
      286,
      287,
      288,
      289,
      290,
      291,
      292,
      293,
      294,
      295,
      296,
      297,
      298,
      299,
      300,
      301,
      302,
      303,
      304,
      305,
      306,
      307,
      308,
      309,
      310,
      311,
      312,
      313,
      314,
      315,
      316,
      317,
      318,
      319,
      320,
      321,
      322,
      323,
      324,
      325,
      326,
      327,
      328,
      329,
      330,
      331,
      332,
      333,
      334,
      335,
      336,
      337,
      338,
      339,
      340,
      341,
      342,
      343,
      344,
      345,
      346,
      347,
      348,
      349,
      350,
      351,
      352,
      353,
      354,
      355,
      356,
      357,
      358,
      359,
      360,
      361,
      362,
      363,
      364,
      365,
      366,
      367,
      368,
      369,
      370,
      371,
      372,
      373,
      374,
      375,
      376,
      377,
      378,
      379,
      380,
      381,
      382,
      383,
      384,
      385,
      386,
      387,
      388,
      389,
      390,
      391,
      392,
      393,
      394,
      395,
      396,
      397,
      398,
      399
    ],
    "timestamps": [
      "2022-06-21T22:01:06.663523",
      "2022-06-21T22:01:08.740820",
      "2022-06-21T22:01:10.820987",
      "2022-06-21T22:01:12.900638",
      "2022-06-21T22:01:15.006043",
      "2022-06-21T22:01:17.087512",
      "2022-06-21T22:01:19.166800",
      "2022-06-21T22:01:21.251823",
      "2022-06-21T22:01:23.374505",
      "2022-06-21T22:01:25.477564",
      "2022-06-21T22:01:27.567792",
      "2022-06-21T22:01:29.651102",
      "2022-06-21T22:01:31.739378",
      "2022-06-21T22:01:33.832091",
      "2022-06-21T22:01:35.925144",
      "2022-06-21T22:01:38.006723",
      "2022-06-21T22:01:40.090430",
      "2022-06-21T22:01:42.175762",
      "2022-06-21T22:01:44.275015",
      "2022-06-21T22:01:46.361106",
      "2022-06-21T22:01:48.445637",
      "2022-06-21T22:01:50.530251",
      "2022-06-21T22:01:52.616152",
      "2022-06-21T22:01:54.719034",
      "2022-06-21T22:01:56.804028",
      "2022-06-21T22:01:58.885814",
      "2022-06-21T22:02:00.974308",
      "2022-06-21T22:02:03.056195",
      "2022-06-21T22:02:05.188103",
      "2022-06-21T22:02:07.282220",
      "2022-06-21T22:02:09.373160",
      "2022-06-21T22:02:11.458246",
      "2022-06-21T22:02:13.543379",
      "2022-06-21T22:02:15.652041",
      "2022-06-21T22:02:17.734402",
      "2022-06-21T22:02:19.817261",
      "2022-06-21T22:02:21.901990",
      "2022-06-21T22:02:24.022656",
      "2022-06-21T22:02:26.114262",
      "2022-06-21T22:02:28.198888",
      "2022-06-21T22:02:30.282258",
      "2022-06-21T22:02:32.370225",
      "2022-06-21T22:02:34.479226",
      "2022-06-21T22:02:36.565314",
      "2022-06-21T22:02:38.648328",
      "2022-06-21T22:02:40.732985",
      "2022-06-21T22:02:42.817125",
      "2022-06-21T22:02:44.941509",
      "2022-06-21T22:02:47.024652",
      "2022-06-21T22:02:49.106347",
      "2022-06-21T22:02:51.187620",
      "2022-06-21T22:02:53.268724",
      "2022-06-21T22:02:55.371639",
      "2022-06-21T22:02:57.454127",
      "2022-06-21T22:02:59.536001",
      "2022-06-21T22:03:01.618957",
      "2022-06-21T22:03:03.718145",
      "2022-06-21T22:03:05.816842",
      "2022-06-21T22:03:07.897585",
      "2022-06-21T22:03:09.978090",
      "2022-06-21T22:03:12.062118",
      "2022-06-21T22:03:14.187977",
      "2022-06-21T22:03:16.271955",
      "2022-06-21T22:03:18.354050",
      "2022-06-21T22:03:20.435540",
      "2022-06-21T22:03:22.519677",
      "2022-06-21T22:03:24.631184",
      "2022-06-21T22:03:26.714451",
      "2022-06-21T22:03:28.795030",
      "2022-06-21T22:03:30.877234",
      "2022-06-21T22:03:32.963029",
      "2022-06-21T22:03:35.067038",
      "2022-06-21T22:03:37.148042",
      "2022-06-21T22:03:39.272324",
      "2022-06-21T22:03:41.355204",
      "2022-06-21T22:03:43.440911",
      "2022-06-21T22:03:45.536301",
      "2022-06-21T22:03:47.616148",
      "2022-06-21T22:03:49.693976",
      "2022-06-21T22:03:51.774074",
      "2022-06-21T22:03:53.871505",
      "2022-06-21T22:03:55.956532",
      "2022-06-21T22:03:58.036460",
      "2022-06-21T22:04:00.114645",
      "2022-06-21T22:04:02.195771",
      "2022-06-21T22:04:04.305061",
      "2022-06-21T22:04:06.390268",
      "2022-06-21T22:04:08.470889",
      "2022-06-21T22:04:10.550252",
      "2022-06-21T22:04:12.634364",
      "2022-06-21T22:04:14.737581",
      "2022-06-21T22:04:16.821941",
      "2022-06-21T22:04:18.909109",
      "2022-06-21T22:04:20.990809",
      "2022-06-21T22:04:23.076647",
      "2022-06-21T22:04:25.182439",
      "2022-06-21T22:04:27.263548",
      "2022-06-21T22:04:29.343038",
      "2022-06-21T22:04:31.421623",
      "2022-06-21T22:04:33.522953",
      "2022-06-21T22:04:35.642008",
      "2022-06-21T22:04:37.721085",
      "2022-06-21T22:04:39.799878",
      "2022-06-21T22:04:41.881062",
      "2022-06-21T22:04:43.975296",
      "2022-06-21T22:04:46.057542",
      "2022-06-21T22:04:48.188217",
      "2022-06-21T22:04:50.265402",
      "2022-06-21T22:04:52.343331",
      "2022-06-21T22:04:54.453870",
      "2022-06-21T22:04:56.534827",
      "2022-06-21T22:04:58.614579",
      "2022-06-21T22:05:00.696887",
      "2022-06-21T22:05:02.780233",
      "2022-06-21T22:05:04.887422",
      "2022-06-21T22:05:06.972237",
      "2022-06-21T22:05:09.050317",
      "2022-06-21T22:05:11.152012",
      "2022-06-21T22:05:13.234145",
      "2022-06-21T22:05:15.334089",
      "2022-06-21T22:05:17.415558",
      "2022-06-21T22:05:19.507139",
      "2022-06-21T22:05:21.588681",
      "2022-06-21T22:05:23.680394",
      "2022-06-21T22:05:25.778943",
      "2022-06-21T22:05:27.867743",
      "2022-06-21T22:05:29.947644",
      "2022-06-21T22:05:32.029635",
      "2022-06-21T22:05:34.133256",
      "2022-06-21T22:05:36.219210",
      "2022-06-21T22:05:38.298154",
      "2022-06-21T22:05:40.376505",
      "2022-06-21T22:05:42.460817",
      "2022-06-21T22:05:44.570664",
      "2022-06-21T22:05:46.652264",
      "2022-06-21T22:05:48.731686",
      "2022-06-21T22:05:50.811070",
      "2022-06-21T22:05:52.891259",
      "2022-06-21T22:05:54.997742",
      "2022-06-21T22:05:57.083264",
      "2022-06-21T22:05:59.178243",
      "2022-06-21T22:06:01.259049",
      "2022-06-21T22:06:03.343080",
      "2022-06-21T22:06:05.454951",
      "2022-06-21T22:06:07.536724",
      "2022-06-21T22:06:09.617047",
      "2022-06-21T22:06:11.703494",
      "2022-06-21T22:06:13.798830",
      "2022-06-21T22:06:15.896029",
      "2022-06-21T22:06:17.978541",
      "2022-06-21T22:06:20.060693",
      "2022-06-21T22:06:22.149150",
      "2022-06-21T22:06:24.252537",
      "2022-06-21T22:06:26.339230",
      "2022-06-21T22:06:28.419974",
      "2022-06-21T22:06:30.500947",
      "2022-06-21T22:06:32.583881",
      "2022-06-21T22:06:34.699874",
      "2022-06-21T22:06:36.784531",
      "2022-06-21T22:06:38.865907",
      "2022-06-21T22:06:40.950198",
      "2022-06-21T22:06:43.033615",
      "2022-06-21T22:06:45.158500",
      "2022-06-21T22:06:47.243279",
      "2022-06-21T22:06:49.325769",
      "2022-06-21T22:06:51.406686",
      "2022-06-21T22:06:53.499030",
      "2022-06-21T22:06:55.603870",
      "2022-06-21T22:06:57.685775",
      "2022-06-21T22:06:59.764747",
      "2022-06-21T22:07:01.846447",
      "2022-06-21T22:07:03.958168",
      "2022-06-21T22:07:06.055292",
      "2022-06-21T22:07:08.137283",
      "2022-06-21T22:07:10.219426",
      "2022-06-21T22:07:12.304698",
      "2022-06-21T22:07:14.414185",
      "2022-06-21T22:07:16.496752",
      "2022-06-21T22:07:18.576421",
      "2022-06-21T22:07:20.657518",
      "2022-06-21T22:07:22.740730",
      "2022-06-21T22:07:24.842261",
      "2022-06-21T22:07:26.930974",
      "2022-06-21T22:07:29.011230",
      "2022-06-21T22:07:31.092402",
      "2022-06-21T22:07:33.179019",
      "2022-06-21T22:07:35.282961",
      "2022-06-21T22:07:37.369911",
      "2022-06-21T22:07:39.471591",
      "2022-06-21T22:07:41.552384",
      "2022-06-21T22:07:43.647517",
      "2022-06-21T22:07:45.751111",
      "2022-06-21T22:07:47.831441",
      "2022-06-21T22:07:49.911117",
      "2022-06-21T22:07:51.992810",
      "2022-06-21T22:07:54.133274",
      "2022-06-21T22:07:56.216020",
      "2022-06-21T22:07:58.298215",
      "2022-06-21T22:08:00.379784",
      "2022-06-21T22:08:02.465071",
      "2022-06-21T22:08:04.572170",
      "2022-06-21T22:08:06.661896",
      "2022-06-21T22:08:08.743930",
      "2022-06-21T22:08:10.837193",
      "2022-06-21T22:08:12.924023",
      "2022-06-21T22:08:15.023874",
      "2022-06-21T22:08:17.110530",
      "2022-06-21T22:08:19.190549",
      "2022-06-21T22:08:21.270238",
      "2022-06-21T22:08:23.355635",
      "2022-06-21T22:08:25.464052",
      "2022-06-21T22:08:27.548727",
      "2022-06-21T22:08:29.630942",
      "2022-06-21T22:08:31.714670",
      "2022-06-21T22:08:33.819063",
      "2022-06-21T22:08:35.915175",
      "2022-06-21T22:08:37.997754",
      "2022-06-21T22:08:40.081019",
      "2022-06-21T22:08:42.170622",
      "2022-06-21T22:08:44.275156",
      "2022-06-21T22:08:46.360132",
      "2022-06-21T22:08:48.440504",
      "2022-06-21T22:08:50.522344",
      "2022-06-21T22:08:52.606324",
      "2022-06-21T22:08:54.724919",
      "2022-06-21T22:08:56.810881",
      "2022-06-21T22:08:58.894692",
      "2022-06-21T22:09:00.978368",
      "2022-06-21T22:09:03.064160",
      "2022-06-21T22:09:05.172914",
      "2022-06-21T22:09:07.260644",
      "2022-06-21T22:09:09.342453",
      "2022-06-21T22:09:11.425054",
      "2022-06-21T22:09:13.508089",
      "2022-06-21T22:09:15.611292",
      "2022-06-21T22:09:17.696493",
      "2022-06-21T22:09:19.776516",
      "2022-06-21T22:09:21.856921",
      "2022-06-21T22:09:23.982058",
      "2022-06-21T22:09:26.068505",
      "2022-06-21T22:09:28.149292",
      "2022-06-21T22:09:30.230345",
      "2022-06-21T22:09:32.315857",
      "2022-06-21T22:09:34.429108",
      "2022-06-21T22:09:36.513688",
      "2022-06-21T22:09:38.594349",
      "2022-06-21T22:09:40.677480",
      "2022-06-21T22:09:42.762141",
      "2022-06-21T22:09:44.868392",
      "2022-06-21T22:09:46.960179",
      "2022-06-21T22:09:49.042809",
      "2022-06-21T22:09:51.126291",
      "2022-06-21T22:09:53.221744",
      "2022-06-21T22:09:55.330412",
      "2022-06-21T22:09:57.412593",
      "2022-06-21T22:09:59.493106",
      "2022-06-21T22:10:01.574407",
      "2022-06-21T22:10:03.661507",
      "2022-06-21T22:10:05.757115",
      "2022-06-21T22:10:07.839903",
      "2022-06-21T22:10:09.922048",
      "2022-06-21T22:10:12.004816",
      "2022-06-21T22:10:14.107293",
      "2022-06-21T22:10:16.195565",
      "2022-06-21T22:10:18.277871",
      "2022-06-21T22:10:20.358918",
      "2022-06-21T22:10:22.441813",
      "2022-06-21T22:10:24.559820",
      "2022-06-21T22:10:26.646103",
      "2022-06-21T22:10:28.727190",
      "2022-06-21T22:10:30.808970",
      "2022-06-21T22:10:32.895473",
      "2022-06-21T22:10:35.012897",
      "2022-06-21T22:10:37.094843",
      "2022-06-21T22:10:39.174653",
      "2022-06-21T22:10:41.255678",
      "2022-06-21T22:10:43.340061",
      "2022-06-21T22:10:45.450026",
      "2022-06-21T22:10:47.533214",
      "2022-06-21T22:10:49.614285",
      "2022-06-21T22:10:51.698588",
      "2022-06-21T22:10:53.788675",
      "2022-06-21T22:10:55.888077",
      "2022-06-21T22:10:57.968055",
      "2022-06-21T22:11:00.047401",
      "2022-06-21T22:11:02.129154",
      "2022-06-21T22:11:04.241075",
      "2022-06-21T22:11:06.328717",
      "2022-06-21T22:11:08.408942",
      "2022-06-21T22:11:10.491036",
      "2022-06-21T22:11:12.575812",
      "2022-06-21T22:11:14.685546",
      "2022-06-21T22:11:16.767295",
      "2022-06-21T22:11:18.850161",
      "2022-06-21T22:11:20.931961",
      "2022-06-21T22:11:23.019318",
      "2022-06-21T22:11:25.133608",
      "2022-06-21T22:11:27.217287",
      "2022-06-21T22:11:29.296854",
      "2022-06-21T22:11:31.377462",
      "2022-06-21T22:11:33.462268",
      "2022-06-21T22:11:35.580653",
      "2022-06-21T22:11:37.661223",
      "2022-06-21T22:11:39.741385",
      "2022-06-21T22:11:41.823476",
      "2022-06-21T22:11:43.920620",
      "2022-06-21T22:11:46.010855",
      "2022-06-21T22:11:48.091491",
      "2022-06-21T22:11:50.172719",
      "2022-06-21T22:11:52.255354",
      "2022-06-21T22:11:54.368805",
      "2022-06-21T22:11:56.453903",
      "2022-06-21T22:11:58.534380",
      "2022-06-21T22:12:00.614604",
      "2022-06-21T22:12:02.697558",
      "2022-06-21T22:12:04.800265",
      "2022-06-21T22:12:06.882885",
      "2022-06-21T22:12:08.961555",
      "2022-06-21T22:12:11.043472",
      "2022-06-21T22:12:13.123037",
      "2022-06-21T22:12:15.239781",
      "2022-06-21T22:12:17.324363",
      "2022-06-21T22:12:19.406719",
      "2022-06-21T22:12:21.488746",
      "2022-06-21T22:12:23.570154",
      "2022-06-21T22:12:25.674564",
      "2022-06-21T22:12:27.758825",
      "2022-06-21T22:12:29.839293",
      "2022-06-21T22:12:31.923254",
      "2022-06-21T22:12:34.025100",
      "2022-06-21T22:12:36.111894",
      "2022-06-21T22:12:38.194393",
      "2022-06-21T22:12:40.275763",
      "2022-06-21T22:12:42.358803",
      "2022-06-21T22:12:44.471446",
      "2022-06-21T22:12:46.560761",
      "2022-06-21T22:12:48.643379",
      "2022-06-21T22:12:50.729688",
      "2022-06-21T22:12:52.818945",
      "2022-06-21T22:12:54.932624",
      "2022-06-21T22:12:57.019781",
      "2022-06-21T22:12:59.105698",
      "2022-06-21T22:13:01.192530",
      "2022-06-21T22:13:03.283646",
      "2022-06-21T22:13:05.395562",
      "2022-06-21T22:13:07.485060",
      "2022-06-21T22:13:09.568737",
      "2022-06-21T22:13:11.659623",
      "2022-06-21T22:13:13.761329",
      "2022-06-21T22:13:15.870834",
      "2022-06-21T22:13:17.954452",
      "2022-06-21T22:13:20.039729",
      "2022-06-21T22:13:22.123739",
      "2022-06-21T22:13:24.226175",
      "2022-06-21T22:13:26.314534",
      "2022-06-21T22:13:28.398532",
      "2022-06-21T22:13:30.481338",
      "2022-06-21T22:13:32.565347",
      "2022-06-21T22:13:34.687854",
      "2022-06-21T22:13:36.775170",
      "2022-06-21T22:13:38.866663",
      "2022-06-21T22:13:40.954859",
      "2022-06-21T22:13:43.048218",
      "2022-06-21T22:13:45.162332",
      "2022-06-21T22:13:47.258780",
      "2022-06-21T22:13:49.339130",
      "2022-06-21T22:13:51.418867",
      "2022-06-21T22:13:53.500013",
      "2022-06-21T22:13:55.609314",
      "2022-06-21T22:13:57.690613",
      "2022-06-21T22:13:59.773665",
      "2022-06-21T22:14:01.859105",
      "2022-06-21T22:14:03.964065",
      "2022-06-21T22:14:06.068860",
      "2022-06-21T22:14:08.152761",
      "2022-06-21T22:14:10.235517",
      "2022-06-21T22:14:12.320516",
      "2022-06-21T22:14:14.445584",
      "2022-06-21T22:14:16.535902",
      "2022-06-21T22:14:18.617988",
      "2022-06-21T22:14:20.700379",
      "2022-06-21T22:14:22.787513",
      "2022-06-21T22:14:24.895389",
      "2022-06-21T22:14:26.981639",
      "2022-06-21T22:14:29.063624",
      "2022-06-21T22:14:31.144111",
      "2022-06-21T22:14:33.230525",
      "2022-06-21T22:14:35.344643",
      "2022-06-21T22:14:37.427890",
      "2022-06-21T22:14:39.518887",
      "2022-06-21T22:14:41.601155",
      "2022-06-21T22:14:43.697558",
      "2022-06-21T22:14:45.798241",
      "2022-06-21T22:14:47.878593",
      "2022-06-21T22:14:49.957608",
      "2022-06-21T22:14:52.039087",
      "2022-06-21T22:14:54.141794",
      "2022-06-21T22:14:56.229498",
      "2022-06-21T22:14:58.310694",
      "2022-06-21T22:15:00.393158"
    ],
    "values": [
      43.61950443883371,
      40.95692069889261,
      40.76260679501763,
      40.6947867620776,
      40.53864425965553,
      40.54485129400154,
      40.531629193545086,
      40.35942048074096,
      40.38159487777563,
      40.3580056477486,
      40.36356478196445,
      40.37899425214186,
      40.34695129404286,
      40.32758715204192,
      40.32594295867578,
      40.29130112374887,
      40.3100754413062,
      40.329974956198065,
      40.32807226308674,
      40.31139852601759,
      40.327883170026816,
      40.39219360035178,
      40.34621815213556,
      40.33185613457161,
      40.40611002926817,
      40.25992848073884,
      40.318341476093245,
      40.31053017010672,
      40.29962503729748,
      40.33064996457753,
      40.29556940745082,
      40.23437591944416,
      40.37343211228096,
      40.29827194508923,
      40.33427234081614,
      40.2881461857992,
      40.317819218555904,
      40.270941779633766,
      40.299659172560794,
      40.23005642328023,
      40.236650041137416,
      40.319024863661014,
      40.348626477482746,
      40.31419080931199,
      40.28872826543548,
      40.32371418184541,
      40.36517383172573,
      40.29798873858694,
      40.23704374296452,
      40.23159131638351,
      40.25867274259556,
      40.2865646814809,
      40.26178316510147,
      40.24526458033116,
      40.23873382570564,
      40.3223385511801,
      40.268892612084976,
      40.31471548506499,
      40.33543545342827,
      40.25053754130904,
      40.36209397956421,
      40.23940851468611,
      40.22909617248619,
      40.322064411462904,
      40.29816298627078,
      40.205691348688966,
      40.27834569912777,
      40.23543232127644,
      40.2491740343426,
      40.30528548127928,
      40.248217057441835,
      40.28009319327411,
      40.30363293013542,
      40.10586226578914,
      40.10067839167738,
      40.1018137313983,
      40.101536994800306,
      40.09862317049802,
      40.10173560646489,
      40.099792085626035,
      40.103624948522956,
      40.097999432994854,
      40.09967016519758,
      40.12089190872104,
      40.098663026643436,
      40.113387865508216,
      40.09764665941544,
      40.102642181830085,
      40.102313433343134,
      40.10035556961418,
      40.108319182224015,
      40.095879543326134,
      40.10187602652435,
      40.095157832571914,
      40.095978817019066,
      40.104756318656825,
      40.102990566619425,
      40.09466908067654,
      40.096275202550494,
      40.10206737047712,
      40.09799222043823,
      40.09804680621065,
      40.10614843547594,
      40.092950185214384,
      40.09611630223005,
      40.09554306276084,
      40.11235527407423,
      40.09369463974335,
      40.10079664276805,
      40.101289941866156,
      40.096363151997394,
      40.11363462827527,
      40.09970137158474,
      40.10776252079929,
      40.09651515609185,
      40.09849516274389,
      40.09646776595524,
      40.08351573881325,
      40.08046160918183,
      40.0806388799335,
      40.08010863282031,
      40.079696191415195,
      40.07957945221649,
      40.07967914371714,
      40.08067882652536,
      40.08071424955292,
      40.07978568018394,
      40.07940561417515,
      40.079829103854784,
      40.080629551436026,
      40.07995757391021,
      40.079705552274156,
      40.080995763843866,
      40.08084500168709,
      40.08022543370699,
      40.08015097028853,
      40.080449247322036,
      40.08023775983093,
      40.081320576994564,
      40.07937921637318,
      40.07944549191318,
      40.07949789806364,
      40.07962729348947,
      40.07951370058906,
      40.079430664866074,
      40.07945698118361,
      40.0794538018086,
      40.07948634188276,
      40.0794745893313,
      40.07953573565375,
      40.07946118390849,
      40.07950818071527,
      40.07947564092022,
      40.0794191884973,
      40.079383386245844,
      40.079413069152686,
      40.07940417378132,
      40.07945369688095,
      40.07947757527546,
      40.07944321388331,
      40.079417964260344,
      40.07950754911844,
      40.07950834584657,
      40.07951425394275,
      40.07951877776514,
      40.079527648956315,
      40.07952430442148,
      40.0795142423102,
      40.07952475022354,
      40.079523638467236,
      40.07950842323925,
      40.07951364382665,
      40.07951818066621,
      40.07950473929742,
      40.07951432953806,
      40.07951378847387,
      40.079504327786815,
      40.07950671137668,
      40.07950671046747,
      40.07950433931577,
      40.07950296017233,
      40.079505087162396,
      40.07950509241634,
      40.0795043133695,
      40.07949825567173,
      40.07949285747713,
      40.079499751545924,
      40.079494950315436,
      40.079491052280616,
      40.07949893778588,
      40.07950081573186,
      40.079496025398235,
      40.07949667797574,
      40.07950036112607,
      40.07948560600519,
      40.07949130982963,
      40.0794864356574,
      40.07949309115193,
      40.07949310237699,
      40.07948938404511,
      40.07949020715233,
      40.07948436850301,
      40.079491627591786,
      40.07948746292926,
      40.07947919834507,
      40.079485028577004,
      40.07948733692709,
      40.079481993213506,
      40.07947914192457,
      40.07948657727952,
      40.07948174569803,
      40.07946901617747,
      40.0794756419539,
      40.079474770516086,
      40.079480467576644,
      40.07946844833792,
      40.079471074486705,
      40.07948011509982,
      40.0794690140358,
      40.07946242224055,
      40.07947014232933,
      40.07947099318385,
      40.07946590710638,
      40.079466224907065,
      40.07945864555304,
      40.079468116037035,
      40.07946784447694,
      40.079465400884104,
      40.079461684017886,
      40.07946925909157,
      40.07946443641607,
      40.07945547946236,
      40.0794685317327,
      40.079467850474096,
      40.07946429073629,
      40.07945937831208,
      40.079470773442964,
      40.07945796068824,
      40.07946821479362,
      40.079462131325684,
      40.07946991189921,
      40.07945817218367,
      40.07946304099224,
      40.07946091488651,
      40.07945037059899,
      40.07945870533903,
      40.07945977911981,
      40.07944626890618,
      40.07945079880866,
      40.079448565295976,
      40.0794444791449,
      40.07945803188952,
      40.0794408272977,
      40.07945471235045,
      40.079450667872194,
      40.07944674846948,
      40.079452167391175,
      40.07944878399718,
      40.079446943410865,
      40.07944584429001,
      40.07944514794913,
      40.07943800511201,
      40.07944081046043,
      40.07944591807263,
      40.07944205234463,
      40.07943566208961,
      40.079446663655894,
      40.07945044669601,
      40.07943837258111,
      40.07944406645274,
      40.079437072785844,
      40.079444818601004,
      40.07943764787565,
      40.07943828686336,
      40.079445025575936,
      40.07943367921873,
      40.07943639735867,
      40.07943547875937,
      40.07943342442335,
      40.07943271544021,
      40.07943310358649,
      40.07943082806809,
      40.07943042567408,
      40.07942771757757,
      40.07942193852693,
      40.0794302679856,
      40.079418421636,
      40.079431131249024,
      40.07942359963502,
      40.079429653047676,
      40.07941937239018,
      40.07943224556498,
      40.07943070862868,
      40.0794289779503,
      40.07942820653733,
      40.07942849158796,
      40.07942554546577,
      40.079425611319884,
      40.07942544324836,
      40.079417417011335,
      40.079416167498145,
      40.07942824701558,
      40.07942770611052,
      40.07942681535906,
      40.079429254925955,
      40.07942336780378,
      40.07941910028078,
      40.079421091121546,
      40.079420398971244,
      40.07942771705544,
      40.07942137146397,
      40.079417985794656,
      40.07942137935303,
      40.079418738597845,
      40.07941571467675,
      40.079424772740346,
      40.079421791482396,
      40.07942740862604,
      40.07942856108727,
      40.07941595181521,
      40.07941913244595,
      40.07942364123407,
      40.079405647478424,
      40.079419838615294,
      40.0794169483095,
      40.079420916178066,
      40.07941581733146,
      40.079407938115835,
      40.07941688479286,
      40.07941604883793,
      40.079411351319095,
      40.07941192516885,
      40.07941174288363,
      40.07940814788276,
      40.07941316028704,
      40.07940633453292,
      40.07941066301962,
      40.079409708881705,
      40.07940378308318,
      40.07940895062088,
      40.07940191241548,
      40.07939996103574,
      40.079406941068605,
      40.07939913950516,
      40.07940595140079,
      40.079393664142636,
      40.07940160845945,
      40.07941166534222,
      40.07940236271426,
      40.07939335877745,
      40.07939950935351,
      40.07939834268966,
      40.07940486824564,
      40.07939903288979,
      40.07939759430364,
      40.07940482668757,
      40.079397549894296,
      40.07940403095648,
      40.07939935791586,
      40.079404502659976,
      40.07940479086767,
      40.07941140756925,
      40.079400242678844,
      40.079407425440685,
      40.07939637472322,
      40.079400213476774,
      40.07940338243122,
      40.07940323891955,
      40.079399191780894,
      40.07940983754176,
      40.07941087624279,
      40.07939979140517,
      40.079404571607256,
      40.07939848824677,
      40.079406441028624,
      40.07940463331935,
      40.079401041656375,
      40.07940510856027,
      40.07939721314222,
      40.0794021720783,
      40.07939806789164,
      40.07940879428495,
      40.079399002020935,
      40.07939433417892,
      40.079410298527165,
      40.079401449843026,
      40.079402212656625,
      40.07940207496835,
      40.079404715217386,
      40.07939877806566,
      40.079402990473234,
      40.07939460590013,
      40.07940525933907,
      40.07940741343749,
      40.07939755247736,
      40.07939909815365,
      40.07939433072696,
      40.07939915816344,
      40.079396000535056,
      40.07939345635523
    ]
  }
}