{
  "batch_size": 100,
  "bn": "tree2",
  "bt_config": {
    "depth": 5,
    "seed": 4
  },
  "cond_size": 10,
  "conditioner_type": "dag-masked",
  "ex_name": "discrete_nf",
  "hidden_dims": [
    200
  ],
  "int_net_final_activation": "elu",
  "int_net_hidden": [
    100
  ],
  "lr": 0.01,
  "lr_decay": 0.1,
  "lr_decay_step_size": 40,
  "mono_num_steps": 15,
  "mono_solver": "CC",
  "normalizer_type": "affine",
  "num_flow_steps": 4,
  "num_steps": 200,
  "num_test_batches": 50,
  "num_test_samples": 5000,
  "num_train_batches": 100,
  "num_train_samples": 10000,
  "path": "./experiment_logs/discrete_nf/tree2_dag-masked_affine_4_[200]",
  "seed": 0,
  "sub_folder": "tree2_dag-masked_affine_4_[200]"
}