INFO - residual_nf - Running command 'run'
INFO - residual_nf - Started run with ID "1"
[CONFIG] {'bn': 'mehra-real', 'structure': 'faithful', 'coeff': 0.99, 'n_power_iterations': 5, 'num_blocks': 3, 'hidden_dims': [100], 'activation': 'lipmish', 'grad_in_forward': True, 'batch_size': 100, 'num_train_samples': 10000, 'num_val_samples': 5000, 'num_epochs': 300, 'num_train_batches': 100, 'num_val_batches': 50, 'lr': 0.01, 'seed': 0, 'patience': 20, 'double': True, 'run': 1, 'checkpoint_n': 10, 'load_from_checkpoint': False, 'ex_name': 'residual_nf_density_estimation', 'sub_folder': 'faithful_99_lipmish_3_[100]', 'path': './experiment_logs/residual_nf_density_estimation/mehra-real/faithful_99_lipmish_3_[100]', 'bt_config': {'depth': 5, 'seed': 4}}
[DEVICE] cpu
[LOADING DATA] Mehra
[ENCODED STRUCTURE] Using faithful BN structure.
  0%|          | 0/300 [00:00<?, ?it/s]Train NLL: 11.651, Val NLL: 11.372:   1%|          | 2/300 [00:01<03:08,  1.58it/s]Train NLL: 11.427, Val NLL: 11.208:   1%|▏         | 4/300 [00:02<03:02,  1.62it/s]Train NLL: 11.337, Val NLL: 11.149:   2%|▏         | 6/300 [00:03<02:53,  1.69it/s]Train NLL: 11.273, Val NLL: 11.119:   3%|▎         | 9/300 [00:05<02:35,  1.87it/s]Train NLL: 11.239, Val NLL: 11.066:   4%|▍         | 12/300 [00:06<02:26,  1.97it/s]Train NLL: 11.213, Val NLL: 11.064:   5%|▌         | 15/300 [00:07<02:22,  2.00it/s]Train NLL: 11.221, Val NLL: 11.072:   6%|▌         | 17/300 [00:08<02:22,  1.99it/s]Train NLL: 11.204, Val NLL: 11.046:   7%|▋         | 20/300 [00:10<02:21,  1.98it/s]Train NLL: 11.203, Val NLL: 11.037:   8%|▊         | 23/300 [00:11<02:16,  2.02it/s]Train NLL: 11.210, Val NLL: 11.066:   9%|▊         | 26/300 [00:13<02:13,  2.06it/s]Train NLL: 11.193, Val NLL: 11.034:  10%|▉         | 29/300 [00:14<02:16,  1.99it/s]Train NLL: 11.193, Val NLL: 11.070:  10%|█         | 31/300 [00:15<02:16,  1.97it/s]Train NLL: 11.192, Val NLL: 11.043:  11%|█         | 33/300 [00:16<02:15,  1.98it/s]Train NLL: 11.189, Val NLL: 11.047:  12%|█▏        | 35/300 [00:19<03:12,  1.38it/s]Train NLL: 11.187, Val NLL: 11.061:  12%|█▏        | 37/300 [00:20<03:02,  1.44it/s]Train NLL: 11.188, Val NLL: 11.027:  13%|█▎        | 39/300 [00:22<02:53,  1.50it/s]Train NLL: 11.186, Val NLL: 11.038:  14%|█▎        | 41/300 [00:23<02:42,  1.59it/s]Train NLL: 11.180, Val NLL: 11.028:  14%|█▍        | 43/300 [00:24<02:34,  1.67it/s]Train NLL: 11.190, Val NLL: 11.044:  15%|█▌        | 45/300 [00:25<02:29,  1.71it/s]Train NLL: 11.180, Val NLL: 11.023:  16%|█▌        | 47/300 [00:26<02:29,  1.69it/s]Train NLL: 11.185, Val NLL: 11.028:  16%|█▋        | 49/300 [00:27<02:25,  1.72it/s]Train NLL: 11.185, Val NLL: 11.021:  17%|█▋        | 51/300 [00:28<02:19,  1.78it/s]Train NLL: 11.167, Val NLL: 11.024:  18%|█▊        | 53/300 [00:29<02:15,  1.83it/s]Train NLL: 11.179, Val NLL: 11.046:  18%|█▊        | 55/300 [00:30<02:17,  1.78it/s]Train NLL: 11.174, Val NLL: 11.033:  19%|█▉        | 57/300 [00:31<02:17,  1.77it/s]Train NLL: 11.176, Val NLL: 11.046:  20%|█▉        | 59/300 [00:33<02:16,  1.77it/s]Train NLL: 11.168, Val NLL: 11.022:  20%|██        | 61/300 [00:34<02:13,  1.79it/s]Train NLL: 11.170, Val NLL: 11.025:  21%|██        | 63/300 [00:35<02:11,  1.80it/s]Train NLL: 11.174, Val NLL: 11.039:  22%|██▏       | 65/300 [00:36<02:10,  1.80it/s]Train NLL: 11.176, Val NLL: 11.013:  22%|██▏       | 67/300 [00:37<02:11,  1.77it/s]Train NLL: 11.165, Val NLL: 11.023:  23%|██▎       | 69/300 [00:38<02:08,  1.79it/s]Train NLL: 11.164, Val NLL: 11.021:  24%|██▎       | 71/300 [00:39<02:05,  1.82it/s]Train NLL: 11.169, Val NLL: 11.036:  24%|██▍       | 73/300 [00:40<02:03,  1.84it/s]Train NLL: 11.161, Val NLL: 11.018:  25%|██▌       | 75/300 [00:42<02:14,  1.67it/s]Train NLL: 11.162, Val NLL: 11.016:  26%|██▌       | 77/300 [00:43<02:25,  1.53it/s]Train NLL: 11.165, Val NLL: 11.009:  26%|██▋       | 79/300 [00:44<02:18,  1.59it/s]Train NLL: 11.166, Val NLL: 11.015:  27%|██▋       | 81/300 [00:46<02:13,  1.64it/s]Train NLL: 11.162, Val NLL: 10.999:  28%|██▊       | 83/300 [00:47<02:09,  1.67it/s]Train NLL: 11.163, Val NLL: 11.028:  28%|██▊       | 85/300 [00:48<02:07,  1.69it/s]Train NLL: 11.158, Val NLL: 11.028:  29%|██▉       | 87/300 [00:49<02:01,  1.76it/s]Train NLL: 11.157, Val NLL: 11.014:  30%|██▉       | 89/300 [00:50<02:01,  1.73it/s]Train NLL: 11.159, Val NLL: 11.014:  30%|███       | 91/300 [00:51<01:57,  1.78it/s]Train NLL: 11.162, Val NLL: 11.032:  31%|███       | 93/300 [00:52<01:56,  1.77it/s]Train NLL: 11.165, Val NLL: 11.004:  32%|███▏      | 95/300 [00:53<01:57,  1.74it/s]Train NLL: 11.153, Val NLL: 11.016:  32%|███▏      | 97/300 [00:55<01:53,  1.80it/s]Train NLL: 11.158, Val NLL: 11.040:  33%|███▎      | 99/300 [00:56<01:51,  1.81it/s]Train NLL: 11.166, Val NLL: 11.029:  34%|███▎      | 101/300 [00:57<01:49,  1.81it/s]Train NLL: 11.163, Val NLL: 11.002:  34%|███▍      | 103/300 [00:58<01:51,  1.77it/s]Train NLL: 11.161, Val NLL: 11.026:  35%|███▌      | 105/300 [00:59<01:50,  1.77it/s]Train NLL: 11.154, Val NLL: 11.007:  36%|███▌      | 107/300 [01:00<01:49,  1.76it/s]Train NLL: 11.171, Val NLL: 11.038:  36%|███▋      | 109/300 [01:01<01:47,  1.78it/s]Train NLL: 11.161, Val NLL: 11.039:  37%|███▋      | 111/300 [01:02<01:47,  1.76it/s]Train NLL: 11.160, Val NLL: 11.035:  38%|███▊      | 113/300 [01:04<01:47,  1.74it/s]Train NLL: 11.157, Val NLL: 11.023:  38%|███▊      | 115/300 [01:05<01:45,  1.75it/s]Train NLL: 11.161, Val NLL: 11.010:  39%|███▉      | 117/300 [01:06<01:42,  1.78it/s]Epoch   118: reducing learning rate of group 0 to 1.0000e-03.
Train NLL: 11.136, Val NLL: 10.990:  40%|███▉      | 119/300 [01:07<01:41,  1.79it/s]Train NLL: 11.120, Val NLL: 10.994:  40%|████      | 121/300 [01:08<01:38,  1.82it/s]Train NLL: 11.118, Val NLL: 10.992:  41%|████      | 123/300 [01:09<01:42,  1.72it/s]Train NLL: 11.117, Val NLL: 10.988:  42%|████▏     | 125/300 [01:11<01:49,  1.60it/s]Train NLL: 11.117, Val NLL: 10.987:  42%|████▏     | 127/300 [01:12<01:45,  1.64it/s]Train NLL: 11.117, Val NLL: 10.987:  43%|████▎     | 129/300 [01:13<01:41,  1.69it/s]Train NLL: 11.116, Val NLL: 10.988:  44%|████▎     | 131/300 [01:14<01:38,  1.71it/s]Train NLL: 11.116, Val NLL: 10.988:  44%|████▍     | 133/300 [01:15<01:36,  1.72it/s]Train NLL: 11.117, Val NLL: 10.988:  45%|████▌     | 135/300 [01:16<01:35,  1.72it/s]Train NLL: 11.115, Val NLL: 10.988:  46%|████▌     | 137/300 [01:17<01:32,  1.77it/s]Train NLL: 11.116, Val NLL: 10.985:  46%|████▋     | 139/300 [01:19<01:29,  1.81it/s]Train NLL: 11.115, Val NLL: 10.987:  47%|████▋     | 141/300 [01:20<01:31,  1.73it/s]Train NLL: 11.115, Val NLL: 10.984:  48%|████▊     | 143/300 [01:21<01:40,  1.56it/s]Train NLL: 11.114, Val NLL: 10.984:  48%|████▊     | 145/300 [01:22<01:34,  1.63it/s]Train NLL: 11.116, Val NLL: 10.987:  49%|████▉     | 147/300 [01:24<01:30,  1.69it/s]Train NLL: 11.115, Val NLL: 10.984:  50%|████▉     | 149/300 [01:25<01:27,  1.72it/s]Train NLL: 11.116, Val NLL: 10.987:  50%|█████     | 151/300 [01:26<01:26,  1.73it/s]Train NLL: 11.115, Val NLL: 10.986:  51%|█████     | 153/300 [01:27<01:25,  1.71it/s]Train NLL: 11.115, Val NLL: 10.985:  52%|█████▏    | 155/300 [01:28<01:24,  1.73it/s]Train NLL: 11.115, Val NLL: 10.984:  52%|█████▏    | 157/300 [01:29<01:20,  1.79it/s]Train NLL: 11.114, Val NLL: 10.984:  53%|█████▎    | 159/300 [01:30<01:23,  1.69it/s]Train NLL: 11.114, Val NLL: 10.988:  54%|█████▎    | 161/300 [01:32<01:22,  1.68it/s]Train NLL: 11.115, Val NLL: 10.987:  54%|█████▍    | 163/300 [01:33<01:19,  1.73it/s]Train NLL: 11.115, Val NLL: 10.987:  55%|█████▌    | 165/300 [01:34<01:17,  1.74it/s]Epoch   166: reducing learning rate of group 0 to 1.0000e-04.
Train NLL: 11.113, Val NLL: 10.987:  56%|█████▌    | 167/300 [01:35<01:18,  1.70it/s]Train NLL: 11.110, Val NLL: 10.985:  56%|█████▋    | 169/300 [01:37<01:26,  1.52it/s]Train NLL: 11.110, Val NLL: 10.985:  57%|█████▋    | 171/300 [01:38<01:29,  1.43it/s]Train NLL: 11.109, Val NLL: 10.984:  58%|█████▊    | 173/300 [01:39<01:21,  1.55it/s]Train NLL: 11.109, Val NLL: 10.984:  58%|█████▊    | 175/300 [01:41<01:20,  1.55it/s]Train NLL: 11.109, Val NLL: 10.983:  59%|█████▉    | 177/300 [01:42<01:26,  1.42it/s]Train NLL: 11.109, Val NLL: 10.984:  60%|█████▉    | 179/300 [01:44<01:20,  1.50it/s]Train NLL: 11.109, Val NLL: 10.984:  60%|██████    | 181/300 [01:45<01:15,  1.58it/s]Train NLL: 11.109, Val NLL: 10.984:  61%|██████    | 183/300 [01:46<01:11,  1.63it/s]Train NLL: 11.108, Val NLL: 10.984:  62%|██████▏   | 185/300 [01:47<01:09,  1.66it/s]Train NLL: 11.109, Val NLL: 10.983:  62%|██████▏   | 187/300 [01:48<01:05,  1.72it/s]Train NLL: 11.108, Val NLL: 10.983:  63%|██████▎   | 189/300 [01:49<01:02,  1.78it/s]Train NLL: 11.108, Val NLL: 10.984:  64%|██████▎   | 191/300 [01:50<00:59,  1.82it/s]Epoch   193: reducing learning rate of group 0 to 1.0000e-05.
Train NLL: 11.109, Val NLL: 10.984:  64%|██████▍   | 193/300 [01:51<00:58,  1.82it/s]Train NLL: 11.108, Val NLL: 10.984:  65%|██████▌   | 195/300 [01:52<00:58,  1.80it/s]Train NLL: 11.108, Val NLL: 10.984:  66%|██████▌   | 197/300 [01:53<00:57,  1.80it/s]Train NLL: 11.108, Val NLL: 10.984:  66%|██████▋   | 199/300 [01:54<00:55,  1.82it/s]Train NLL: 11.108, Val NLL: 10.984:  67%|██████▋   | 201/300 [01:56<00:54,  1.81it/s]Train NLL: 11.108, Val NLL: 10.984:  68%|██████▊   | 203/300 [01:57<00:54,  1.77it/s]Train NLL: 11.108, Val NLL: 10.984:  68%|██████▊   | 205/300 [01:58<00:55,  1.72it/s]Train NLL: 11.108, Val NLL: 10.984:  69%|██████▉   | 207/300 [01:59<00:54,  1.72it/s]Train NLL: 11.108, Val NLL: 10.984:  70%|██████▉   | 209/300 [02:00<00:52,  1.74it/s]Train NLL: 11.108, Val NLL: 10.984:  70%|███████   | 211/300 [02:01<00:50,  1.77it/s]Train NLL: 11.108, Val NLL: 10.984:  71%|███████   | 213/300 [02:03<00:50,  1.73it/s]Epoch   215: reducing learning rate of group 0 to 1.0000e-06.
Train NLL: 11.108, Val NLL: 10.984:  72%|███████▏  | 215/300 [02:04<00:49,  1.71it/s]Train NLL: 11.108, Val NLL: 10.984:  72%|███████▏  | 217/300 [02:05<00:46,  1.78it/s]Train NLL: 11.108, Val NLL: 10.984:  73%|███████▎  | 219/300 [02:06<00:44,  1.82it/s]Train NLL: 11.108, Val NLL: 10.984:  74%|███████▎  | 221/300 [02:07<00:43,  1.83it/s]Train NLL: 11.108, Val NLL: 10.984:  74%|███████▍  | 223/300 [02:08<00:42,  1.83it/s]Train NLL: 11.108, Val NLL: 10.984:  75%|███████▌  | 225/300 [02:09<00:40,  1.83it/s]Train NLL: 11.108, Val NLL: 10.984:  76%|███████▌  | 227/300 [02:10<00:39,  1.86it/s]Train NLL: 11.108, Val NLL: 10.984:  76%|███████▋  | 229/300 [02:11<00:37,  1.89it/s]Train NLL: 11.108, Val NLL: 10.984:  77%|███████▋  | 231/300 [02:12<00:36,  1.88it/s]Train NLL: 11.108, Val NLL: 10.984:  78%|███████▊  | 233/300 [02:13<00:36,  1.86it/s]Train NLL: 11.108, Val NLL: 10.984:  78%|███████▊  | 235/300 [02:14<00:35,  1.84it/s]Train NLL: 11.108, Val NLL: 10.984:  79%|███████▉  | 237/300 [02:16<00:33,  1.86it/s]Train NLL: 11.108, Val NLL: 10.984:  80%|███████▉  | 239/300 [02:17<00:32,  1.88it/s]Train NLL: 11.108, Val NLL: 10.984:  80%|████████  | 241/300 [02:18<00:32,  1.84it/s]Train NLL: 11.108, Val NLL: 10.984:  81%|████████  | 243/300 [02:19<00:32,  1.73it/s]Train NLL: 11.108, Val NLL: 10.984:  82%|████████▏ | 245/300 [02:20<00:30,  1.78it/s]Train NLL: 11.108, Val NLL: 10.984:  82%|████████▏ | 247/300 [02:21<00:29,  1.80it/s]Train NLL: 11.108, Val NLL: 10.984:  83%|████████▎ | 249/300 [02:22<00:28,  1.82it/s]Train NLL: 11.108, Val NLL: 10.984:  84%|████████▎ | 251/300 [02:24<00:28,  1.71it/s]Train NLL: 11.108, Val NLL: 10.984:  84%|████████▍ | 253/300 [02:25<00:27,  1.73it/s]Train NLL: 11.108, Val NLL: 10.984:  85%|████████▌ | 255/300 [02:26<00:25,  1.76it/s]Train NLL: 11.108, Val NLL: 10.984:  86%|████████▌ | 257/300 [02:27<00:24,  1.79it/s]Train NLL: 11.108, Val NLL: 10.984:  86%|████████▋ | 259/300 [02:28<00:22,  1.79it/s]Train NLL: 11.108, Val NLL: 10.984:  87%|████████▋ | 261/300 [02:29<00:21,  1.78it/s]Train NLL: 11.108, Val NLL: 10.984:  88%|████████▊ | 263/300 [02:30<00:20,  1.78it/s]Train NLL: 11.108, Val NLL: 10.984:  88%|████████▊ | 265/300 [02:31<00:19,  1.82it/s]Train NLL: 11.108, Val NLL: 10.984:  89%|████████▉ | 267/300 [02:32<00:17,  1.84it/s]Train NLL: 11.108, Val NLL: 10.984:  90%|████████▉ | 269/300 [02:33<00:16,  1.86it/s]Train NLL: 11.108, Val NLL: 10.984:  90%|█████████ | 271/300 [02:34<00:15,  1.87it/s]Train NLL: 11.108, Val NLL: 10.984:  91%|█████████ | 273/300 [02:35<00:14,  1.90it/s]Train NLL: 11.108, Val NLL: 10.984:  92%|█████████▏| 275/300 [02:36<00:13,  1.91it/s]Train NLL: 11.108, Val NLL: 10.984:  92%|█████████▏| 277/300 [02:38<00:11,  1.92it/s]Train NLL: 11.108, Val NLL: 10.984:  93%|█████████▎| 279/300 [02:39<00:10,  1.93it/s]Train NLL: 11.108, Val NLL: 10.984:  94%|█████████▎| 281/300 [02:40<00:09,  1.93it/s]Train NLL: 11.108, Val NLL: 10.984:  94%|█████████▍| 283/300 [02:41<00:08,  1.93it/s]Train NLL: 11.108, Val NLL: 10.984:  95%|█████████▌| 285/300 [02:42<00:07,  1.94it/s]Train NLL: 11.108, Val NLL: 10.984:  96%|█████████▌| 287/300 [02:43<00:06,  1.95it/s]Train NLL: 11.108, Val NLL: 10.984:  96%|█████████▋| 289/300 [02:44<00:05,  1.93it/s]Train NLL: 11.108, Val NLL: 10.984:  97%|█████████▋| 291/300 [02:45<00:04,  1.90it/s]Train NLL: 11.108, Val NLL: 10.984:  98%|█████████▊| 293/300 [02:46<00:03,  1.91it/s]Train NLL: 11.108, Val NLL: 10.984:  98%|█████████▊| 295/300 [02:47<00:02,  1.92it/s]Train NLL: 11.108, Val NLL: 10.984:  99%|█████████▉| 297/300 [02:48<00:01,  1.93it/s]Train NLL: 11.108, Val NLL: 10.984: 100%|█████████▉| 299/300 [02:49<00:00,  1.93it/s]Train NLL: 11.108, Val NLL: 10.984: 100%|██████████| 300/300 [02:49<00:00,  1.77it/s]
