{
  "test": {
    "steps": [
      0,
      0
    ],
    "timestamps": [
      "2022-08-14T16:04:51.932796",
      "2022-08-14T18:01:38.032974"
    ],
    "values": [
      1.25594671809984,
      1.2485870279296347
    ]
  },
  "train": {
    "steps": [
      0,
      1,
      2,
      3,
      4,
      5,
      6,
      7,
      8,
      9,
      10,
      11,
      12,
      13,
      14,
      15,
      16,
      17,
      18,
      19,
      20,
      21,
      22,
      23,
      24,
      25,
      26,
      27,
      28,
      29,
      30,
      31,
      32,
      33,
      34,
      35,
      36,
      37,
      38,
      39,
      40,
      41,
      42,
      43,
      44,
      45,
      46,
      47,
      48,
      49,
      50,
      51,
      52,
      53,
      54,
      55,
      56,
      57,
      58,
      59,
      60,
      61,
      62,
      63,
      64,
      65,
      66,
      67,
      68,
      69,
      70,
      71,
      72,
      73,
      74,
      75,
      76,
      77,
      78,
      79,
      80,
      81,
      82,
      83,
      84,
      85,
      86,
      87,
      88,
      89,
      90,
      91,
      92,
      93,
      94,
      95,
      96,
      97,
      98,
      99,
      100,
      101,
      102,
      103,
      104,
      105,
      106,
      107,
      108,
      109,
      110,
      111,
      112,
      113,
      114,
      115,
      116,
      117,
      118,
      119,
      120,
      121,
      122,
      123,
      124,
      125,
      126,
      127,
      128,
      129,
      130,
      131,
      132,
      133,
      134,
      135,
      136,
      137,
      138,
      139,
      140,
      141,
      142,
      143,
      144,
      145,
      146,
      147,
      148,
      149,
      150,
      151,
      152,
      153,
      154,
      155,
      156,
      157,
      158,
      159,
      160,
      161,
      162,
      163,
      164,
      165,
      166,
      167,
      168,
      169,
      170,
      171,
      172,
      173,
      174,
      175,
      176,
      177,
      178,
      179,
      180,
      181,
      182,
      183,
      184,
      185,
      186,
      187,
      188,
      189,
      190,
      191,
      192,
      193,
      194,
      195,
      196,
      197,
      198,
      199,
      200,
      201,
      202,
      203,
      204,
      205,
      206,
      207,
      208,
      209,
      210,
      211,
      212,
      213,
      214,
      215,
      216,
      217,
      218,
      219,
      220,
      221,
      222,
      223,
      224,
      225,
      226,
      227,
      228,
      229,
      230,
      231,
      232,
      233,
      234,
      235,
      236,
      237,
      238,
      239,
      240,
      241,
      242,
      243,
      244,
      245,
      246,
      247,
      248,
      249,
      250,
      251,
      252,
      253,
      254,
      255,
      256,
      257,
      258,
      259,
      260,
      261,
      262,
      263,
      264,
      265,
      266,
      267,
      268,
      269,
      270,
      271,
      272,
      273,
      274,
      275,
      276,
      277,
      278,
      279,
      280,
      281,
      282,
      283,
      284,
      285,
      286,
      287,
      288,
      289,
      290,
      291,
      292,
      293,
      294,
      295,
      296,
      297,
      298,
      299,
      0,
      1,
      2,
      3,
      4,
      5,
      6,
      7,
      8,
      9,
      10,
      11,
      12,
      13,
      14,
      15,
      16,
      17,
      18,
      19,
      20,
      21,
      22,
      23,
      24,
      25,
      26,
      27,
      28,
      29,
      30,
      31,
      32,
      33,
      34,
      35,
      36,
      37,
      38,
      39,
      40,
      41,
      42,
      43,
      44,
      45,
      46,
      47,
      48,
      49,
      50,
      51,
      52,
      53,
      54,
      55,
      56,
      57,
      58,
      59,
      60,
      61,
      62,
      63,
      64,
      65,
      66,
      67,
      68,
      69,
      70,
      71,
      72,
      73,
      74,
      75,
      76,
      77,
      78,
      79,
      80,
      81,
      82,
      83,
      84,
      85,
      86,
      87,
      88,
      89,
      90,
      91,
      92,
      93,
      94,
      95,
      96,
      97,
      98,
      99
    ],
    "timestamps": [
      "2022-08-14T15:48:26.223228",
      "2022-08-14T15:48:29.098271",
      "2022-08-14T15:48:32.246421",
      "2022-08-14T15:48:35.237692",
      "2022-08-14T15:48:38.428070",
      "2022-08-14T15:48:41.506102",
      "2022-08-14T15:48:44.572806",
      "2022-08-14T15:48:49.416419",
      "2022-08-14T15:48:52.763557",
      "2022-08-14T15:48:56.272211",
      "2022-08-14T15:48:59.394065",
      "2022-08-14T15:49:03.136297",
      "2022-08-14T15:49:06.338288",
      "2022-08-14T15:49:09.731623",
      "2022-08-14T15:49:13.095827",
      "2022-08-14T15:49:16.308804",
      "2022-08-14T15:49:19.728288",
      "2022-08-14T15:49:22.897417",
      "2022-08-14T15:49:26.467005",
      "2022-08-14T15:49:30.488904",
      "2022-08-14T15:49:33.934379",
      "2022-08-14T15:49:37.648617",
      "2022-08-14T15:49:41.089444",
      "2022-08-14T15:49:44.530981",
      "2022-08-14T15:49:48.117016",
      "2022-08-14T15:49:51.605801",
      "2022-08-14T15:49:55.060071",
      "2022-08-14T15:49:58.570000",
      "2022-08-14T15:50:02.249880",
      "2022-08-14T15:50:05.694845",
      "2022-08-14T15:50:09.165336",
      "2022-08-14T15:50:12.705012",
      "2022-08-14T15:50:16.482654",
      "2022-08-14T15:50:19.832112",
      "2022-08-14T15:50:22.880535",
      "2022-08-14T15:50:25.956376",
      "2022-08-14T15:50:29.108056",
      "2022-08-14T15:50:32.276130",
      "2022-08-14T15:50:35.396486",
      "2022-08-14T15:50:38.534147",
      "2022-08-14T15:50:41.663907",
      "2022-08-14T15:50:44.808499",
      "2022-08-14T15:50:47.917053",
      "2022-08-14T15:50:51.037509",
      "2022-08-14T15:50:54.157918",
      "2022-08-14T15:50:57.288815",
      "2022-08-14T15:51:00.435661",
      "2022-08-14T15:51:03.565083",
      "2022-08-14T15:51:06.695398",
      "2022-08-14T15:51:09.831136",
      "2022-08-14T15:51:13.021143",
      "2022-08-14T15:51:16.113128",
      "2022-08-14T15:51:19.167533",
      "2022-08-14T15:51:22.290242",
      "2022-08-14T15:51:25.351998",
      "2022-08-14T15:51:28.427208",
      "2022-08-14T15:51:31.483878",
      "2022-08-14T15:51:34.534336",
      "2022-08-14T15:51:37.610254",
      "2022-08-14T15:51:40.661658",
      "2022-08-14T15:51:43.775518",
      "2022-08-14T15:51:46.847370",
      "2022-08-14T15:51:49.973041",
      "2022-08-14T15:51:53.265920",
      "2022-08-14T15:51:56.439180",
      "2022-08-14T15:51:59.600699",
      "2022-08-14T15:52:02.877873",
      "2022-08-14T15:52:06.018458",
      "2022-08-14T15:52:09.157827",
      "2022-08-14T15:52:12.268218",
      "2022-08-14T15:52:15.340002",
      "2022-08-14T15:52:18.416038",
      "2022-08-14T15:52:21.511335",
      "2022-08-14T15:52:24.634519",
      "2022-08-14T15:52:27.756554",
      "2022-08-14T15:52:30.853769",
      "2022-08-14T15:52:33.953329",
      "2022-08-14T15:52:37.044927",
      "2022-08-14T15:52:40.114031",
      "2022-08-14T15:52:43.202350",
      "2022-08-14T15:52:46.315907",
      "2022-08-14T15:52:49.401581",
      "2022-08-14T15:52:52.494597",
      "2022-08-14T15:52:55.593696",
      "2022-08-14T15:52:58.674813",
      "2022-08-14T15:53:01.759827",
      "2022-08-14T15:53:04.859407",
      "2022-08-14T15:53:07.922080",
      "2022-08-14T15:53:11.088440",
      "2022-08-14T15:53:14.185285",
      "2022-08-14T15:53:17.266531",
      "2022-08-14T15:53:20.373125",
      "2022-08-14T15:53:23.461614",
      "2022-08-14T15:53:26.580408",
      "2022-08-14T15:53:29.643474",
      "2022-08-14T15:53:32.729732",
      "2022-08-14T15:53:35.860369",
      "2022-08-14T15:53:38.957556",
      "2022-08-14T15:53:42.042126",
      "2022-08-14T15:53:45.152183",
      "2022-08-14T15:53:48.255466",
      "2022-08-14T15:53:51.331904",
      "2022-08-14T15:53:54.426345",
      "2022-08-14T15:53:57.519598",
      "2022-08-14T15:54:00.619853",
      "2022-08-14T15:54:03.717026",
      "2022-08-14T15:54:06.819178",
      "2022-08-14T15:54:09.927744",
      "2022-08-14T15:54:13.084276",
      "2022-08-14T15:54:16.202288",
      "2022-08-14T15:54:19.318588",
      "2022-08-14T15:54:22.431560",
      "2022-08-14T15:54:25.498645",
      "2022-08-14T15:54:28.578320",
      "2022-08-14T15:54:31.785910",
      "2022-08-14T15:54:34.888460",
      "2022-08-14T15:54:37.993626",
      "2022-08-14T15:54:41.084851",
      "2022-08-14T15:54:44.158945",
      "2022-08-14T15:54:47.250462",
      "2022-08-14T15:54:50.382812",
      "2022-08-14T15:54:53.550681",
      "2022-08-14T15:54:56.672243",
      "2022-08-14T15:54:59.765255",
      "2022-08-14T15:55:02.867542",
      "2022-08-14T15:55:05.968813",
      "2022-08-14T15:55:09.079355",
      "2022-08-14T15:55:12.181639",
      "2022-08-14T15:55:15.323039",
      "2022-08-14T15:55:18.394757",
      "2022-08-14T15:55:21.486878",
      "2022-08-14T15:55:24.589361",
      "2022-08-14T15:55:27.684829",
      "2022-08-14T15:55:30.765250",
      "2022-08-14T15:55:33.838246",
      "2022-08-14T15:55:36.877144",
      "2022-08-14T15:55:39.949964",
      "2022-08-14T15:55:43.022594",
      "2022-08-14T15:55:46.078584",
      "2022-08-14T15:55:49.105273",
      "2022-08-14T15:55:52.127822",
      "2022-08-14T15:55:55.243459",
      "2022-08-14T15:55:58.286287",
      "2022-08-14T15:56:01.325814",
      "2022-08-14T15:56:04.564881",
      "2022-08-14T15:56:08.305359",
      "2022-08-14T15:56:11.529173",
      "2022-08-14T15:56:14.660532",
      "2022-08-14T15:56:17.880145",
      "2022-08-14T15:56:20.891534",
      "2022-08-14T15:56:24.138555",
      "2022-08-14T15:56:27.585126",
      "2022-08-14T15:56:30.715309",
      "2022-08-14T15:56:33.927708",
      "2022-08-14T15:56:37.147373",
      "2022-08-14T15:56:40.199137",
      "2022-08-14T15:56:43.394495",
      "2022-08-14T15:56:46.476607",
      "2022-08-14T15:56:49.541014",
      "2022-08-14T15:56:52.643580",
      "2022-08-14T15:56:55.798051",
      "2022-08-14T15:56:58.953441",
      "2022-08-14T15:57:02.007699",
      "2022-08-14T15:57:05.095274",
      "2022-08-14T15:57:08.316317",
      "2022-08-14T15:57:11.685220",
      "2022-08-14T15:57:14.740353",
      "2022-08-14T15:57:17.761606",
      "2022-08-14T15:57:20.771934",
      "2022-08-14T15:57:23.781544",
      "2022-08-14T15:57:26.801851",
      "2022-08-14T15:57:29.817136",
      "2022-08-14T15:57:32.839339",
      "2022-08-14T15:57:35.855678",
      "2022-08-14T15:57:38.866311",
      "2022-08-14T15:57:41.870599",
      "2022-08-14T15:57:44.908786",
      "2022-08-14T15:57:47.923835",
      "2022-08-14T15:57:50.974190",
      "2022-08-14T15:57:54.003047",
      "2022-08-14T15:57:57.033912",
      "2022-08-14T15:58:00.075667",
      "2022-08-14T15:58:03.115252",
      "2022-08-14T15:58:06.149304",
      "2022-08-14T15:58:09.197829",
      "2022-08-14T15:58:12.479414",
      "2022-08-14T15:58:15.613315",
      "2022-08-14T15:58:18.843841",
      "2022-08-14T15:58:21.966724",
      "2022-08-14T15:58:25.024347",
      "2022-08-14T15:58:28.057472",
      "2022-08-14T15:58:31.083004",
      "2022-08-14T15:58:34.107424",
      "2022-08-14T15:58:37.281455",
      "2022-08-14T15:58:40.303745",
      "2022-08-14T15:58:43.321767",
      "2022-08-14T15:58:46.333609",
      "2022-08-14T15:58:49.372447",
      "2022-08-14T15:58:52.581953",
      "2022-08-14T15:58:55.837150",
      "2022-08-14T15:58:58.913585",
      "2022-08-14T15:59:01.912026",
      "2022-08-14T15:59:04.956615",
      "2022-08-14T15:59:08.030975",
      "2022-08-14T15:59:11.036313",
      "2022-08-14T15:59:14.082814",
      "2022-08-14T15:59:17.134634",
      "2022-08-14T15:59:20.208733",
      "2022-08-14T15:59:23.606330",
      "2022-08-14T15:59:26.691415",
      "2022-08-14T15:59:29.840559",
      "2022-08-14T15:59:33.156384",
      "2022-08-14T15:59:36.226728",
      "2022-08-14T15:59:39.303324",
      "2022-08-14T15:59:42.351821",
      "2022-08-14T15:59:45.440355",
      "2022-08-14T15:59:48.543354",
      "2022-08-14T15:59:51.599827",
      "2022-08-14T15:59:54.659428",
      "2022-08-14T15:59:57.727198",
      "2022-08-14T16:00:00.810609",
      "2022-08-14T16:00:03.887470",
      "2022-08-14T16:00:06.945203",
      "2022-08-14T16:00:10.014197",
      "2022-08-14T16:00:13.079667",
      "2022-08-14T16:00:16.148549",
      "2022-08-14T16:00:19.234650",
      "2022-08-14T16:00:22.366402",
      "2022-08-14T16:00:25.465196",
      "2022-08-14T16:00:28.568641",
      "2022-08-14T16:00:31.672840",
      "2022-08-14T16:00:35.089846",
      "2022-08-14T16:00:38.183655",
      "2022-08-14T16:00:41.439569",
      "2022-08-14T16:00:44.683813",
      "2022-08-14T16:00:47.824579",
      "2022-08-14T16:00:50.937346",
      "2022-08-14T16:00:54.016841",
      "2022-08-14T16:00:57.084585",
      "2022-08-14T16:01:00.376751",
      "2022-08-14T16:01:03.483529",
      "2022-08-14T16:01:06.655076",
      "2022-08-14T16:01:09.930424",
      "2022-08-14T16:01:13.124356",
      "2022-08-14T16:01:16.324362",
      "2022-08-14T16:01:19.425155",
      "2022-08-14T16:01:22.530131",
      "2022-08-14T16:01:25.674450",
      "2022-08-14T16:01:28.719969",
      "2022-08-14T16:01:31.781475",
      "2022-08-14T16:01:34.845055",
      "2022-08-14T16:01:38.063005",
      "2022-08-14T16:01:41.245373",
      "2022-08-14T16:01:44.481715",
      "2022-08-14T16:01:48.636294",
      "2022-08-14T16:01:52.540725",
      "2022-08-14T16:01:58.329754",
      "2022-08-14T16:02:04.066103",
      "2022-08-14T16:02:08.484165",
      "2022-08-14T16:02:11.709667",
      "2022-08-14T16:02:15.504372",
      "2022-08-14T16:02:20.132324",
      "2022-08-14T16:02:27.637724",
      "2022-08-14T16:02:32.232816",
      "2022-08-14T16:02:37.212855",
      "2022-08-14T16:02:41.800041",
      "2022-08-14T16:02:46.820158",
      "2022-08-14T16:02:52.364210",
      "2022-08-14T16:02:58.013347",
      "2022-08-14T16:03:03.643877",
      "2022-08-14T16:03:08.368331",
      "2022-08-14T16:03:12.909409",
      "2022-08-14T16:03:17.532646",
      "2022-08-14T16:03:22.155830",
      "2022-08-14T16:03:27.662892",
      "2022-08-14T16:03:31.944409",
      "2022-08-14T16:03:35.017050",
      "2022-08-14T16:03:38.145582",
      "2022-08-14T16:03:42.024985",
      "2022-08-14T16:03:45.305364",
      "2022-08-14T16:03:48.617510",
      "2022-08-14T16:03:51.759275",
      "2022-08-14T16:03:54.888307",
      "2022-08-14T16:03:58.266848",
      "2022-08-14T16:04:01.499443",
      "2022-08-14T16:04:04.694572",
      "2022-08-14T16:04:08.160380",
      "2022-08-14T16:04:11.730637",
      "2022-08-14T16:04:14.954219",
      "2022-08-14T16:04:18.038844",
      "2022-08-14T16:04:21.191966",
      "2022-08-14T16:04:24.671054",
      "2022-08-14T16:04:28.055123",
      "2022-08-14T16:04:31.405364",
      "2022-08-14T16:04:34.588584",
      "2022-08-14T16:04:37.725575",
      "2022-08-14T16:04:40.878571",
      "2022-08-14T16:04:43.967539",
      "2022-08-14T16:04:47.363725",
      "2022-08-14T16:04:50.819214",
      "2022-08-14T17:53:37.991073",
      "2022-08-14T17:53:42.689748",
      "2022-08-14T17:53:47.787647",
      "2022-08-14T17:53:53.070310",
      "2022-08-14T17:53:57.857822",
      "2022-08-14T17:54:02.450146",
      "2022-08-14T17:54:07.027271",
      "2022-08-14T17:54:12.010235",
      "2022-08-14T17:54:16.894276",
      "2022-08-14T17:54:22.016175",
      "2022-08-14T17:54:27.014064",
      "2022-08-14T17:54:31.859514",
      "2022-08-14T17:54:36.456784",
      "2022-08-14T17:54:41.115081",
      "2022-08-14T17:54:46.090767",
      "2022-08-14T17:54:51.189798",
      "2022-08-14T17:54:55.889052",
      "2022-08-14T17:55:00.548132",
      "2022-08-14T17:55:05.259683",
      "2022-08-14T17:55:09.926825",
      "2022-08-14T17:55:14.609366",
      "2022-08-14T17:55:19.257123",
      "2022-08-14T17:55:23.926860",
      "2022-08-14T17:55:28.633351",
      "2022-08-14T17:55:33.300384",
      "2022-08-14T17:55:37.983973",
      "2022-08-14T17:55:42.628742",
      "2022-08-14T17:55:47.266247",
      "2022-08-14T17:55:51.922946",
      "2022-08-14T17:55:56.613802",
      "2022-08-14T17:56:01.711931",
      "2022-08-14T17:56:07.473850",
      "2022-08-14T17:56:13.274591",
      "2022-08-14T17:56:19.062650",
      "2022-08-14T17:56:24.802040",
      "2022-08-14T17:56:30.536399",
      "2022-08-14T17:56:36.947963",
      "2022-08-14T17:56:42.022500",
      "2022-08-14T17:56:47.040883",
      "2022-08-14T17:56:51.703480",
      "2022-08-14T17:56:56.357570",
      "2022-08-14T17:57:01.008268",
      "2022-08-14T17:57:05.612280",
      "2022-08-14T17:57:10.229937",
      "2022-08-14T17:57:14.861604",
      "2022-08-14T17:57:19.488906",
      "2022-08-14T17:57:24.129121",
      "2022-08-14T17:57:28.780063",
      "2022-08-14T17:57:33.723624",
      "2022-08-14T17:57:38.889960",
      "2022-08-14T17:57:43.652469",
      "2022-08-14T17:57:48.258217",
      "2022-08-14T17:57:53.193975",
      "2022-08-14T17:57:57.808539",
      "2022-08-14T17:58:02.449282",
      "2022-08-14T17:58:07.064732",
      "2022-08-14T17:58:11.672722",
      "2022-08-14T17:58:16.320008",
      "2022-08-14T17:58:20.986285",
      "2022-08-14T17:58:25.706085",
      "2022-08-14T17:58:30.419909",
      "2022-08-14T17:58:35.098342",
      "2022-08-14T17:58:39.805667",
      "2022-08-14T17:58:44.444291",
      "2022-08-14T17:58:49.079004",
      "2022-08-14T17:58:53.673650",
      "2022-08-14T17:58:58.300419",
      "2022-08-14T17:59:02.938860",
      "2022-08-14T17:59:07.562113",
      "2022-08-14T17:59:12.224023",
      "2022-08-14T17:59:16.871574",
      "2022-08-14T17:59:21.655917",
      "2022-08-14T17:59:26.308435",
      "2022-08-14T17:59:31.005847",
      "2022-08-14T17:59:35.654363",
      "2022-08-14T17:59:40.412096",
      "2022-08-14T17:59:45.102647",
      "2022-08-14T17:59:49.763707",
      "2022-08-14T17:59:54.469621",
      "2022-08-14T17:59:59.143611",
      "2022-08-14T18:00:04.095274",
      "2022-08-14T18:00:08.716893",
      "2022-08-14T18:00:13.379317",
      "2022-08-14T18:00:18.045412",
      "2022-08-14T18:00:22.750667",
      "2022-08-14T18:00:27.381965",
      "2022-08-14T18:00:32.344457",
      "2022-08-14T18:00:38.206547",
      "2022-08-14T18:00:43.481202",
      "2022-08-14T18:00:48.799585",
      "2022-08-14T18:00:53.658958",
      "2022-08-14T18:00:58.335369",
      "2022-08-14T18:01:03.477257",
      "2022-08-14T18:01:09.063835",
      "2022-08-14T18:01:13.698665",
      "2022-08-14T18:01:18.295270",
      "2022-08-14T18:01:22.949431",
      "2022-08-14T18:01:27.524669",
      "2022-08-14T18:01:32.156024",
      "2022-08-14T18:01:36.736405"
    ],
    "values": [
      17.41013699561956,
      7.485773851128003,
      5.5349122013466685,
      4.552852771407348,
      3.8912520139405014,
      3.43894423670163,
      3.510163789228889,
      2.940780117501934,
      2.8715881054914005,
      2.77218532283802,
      2.6527457648514807,
      2.8604198976972985,
      2.607362802234933,
      2.3350248336622816,
      2.3048847054528054,
      2.3001435707028275,
      2.260841694001387,
      2.2233628474788505,
      2.247389958279344,
      2.2501920316820327,
      2.35895262924583,
      2.122129131204612,
      2.114930228334221,
      2.1052048829463628,
      2.113468534209313,
      2.0084600682835303,
      2.248526747362811,
      2.0421452453823163,
      2.043910139880724,
      1.9518776905305624,
      2.0978882959366474,
      1.9554041090280123,
      1.9909402432346122,
      1.9146371024269648,
      2.0185891731579155,
      1.9883128515793167,
      1.9292805371105288,
      1.9662424845679798,
      1.9340251206524919,
      1.8554065874621468,
      1.820638580913997,
      1.8550098514207463,
      1.8829572053198964,
      2.0743382392288754,
      1.8773085320054537,
      1.8160871439667576,
      1.8553963567036014,
      1.8857025962931826,
      1.8359056357273316,
      1.8705840076406495,
      1.8832523662184477,
      1.8412631945774287,
      1.9881198316037174,
      1.779826391196731,
      1.7706441509569857,
      1.776356439616057,
      1.8310441003154878,
      1.7661438367416995,
      1.7526953234932348,
      1.7568629962081985,
      1.8599936868010587,
      1.7685135500764084,
      1.7473409922663408,
      1.7553366848204233,
      1.8312503126332427,
      1.8373855698184791,
      1.8405343133555503,
      1.6751439759523208,
      1.7338295072926757,
      1.747362057449831,
      1.6791128293333535,
      1.7603548317968238,
      1.7907692508340989,
      1.8796464869793252,
      1.7459606320900738,
      1.7490799526268084,
      1.795552430520308,
      1.760980045729576,
      1.813696166289946,
      1.7119695622915843,
      1.7149841291551633,
      1.6681774525231772,
      1.7347307961513718,
      1.7627096424383617,
      1.714611575153023,
      1.6781312619685596,
      1.7507490619467319,
      1.6815791309760888,
      1.767305192185748,
      1.710420363726121,
      1.7292566459262637,
      1.6794431212018153,
      1.739282794856881,
      1.7506859258912915,
      1.7294429871851542,
      1.6908764234553382,
      1.7180678709709405,
      1.7895886779256083,
      1.657768573823682,
      1.6581103992282828,
      1.81698776824529,
      1.6708147520163963,
      1.628499071551709,
      1.7672561358506504,
      1.6580184464153513,
      1.7066434259770202,
      1.7494971332966163,
      1.7065502214806738,
      1.663206742144906,
      1.6168402921633327,
      1.636169015947381,
      1.6497969257245573,
      1.7159668938489439,
      1.731984862885174,
      1.6557180440265262,
      1.642685890218575,
      1.7462700104059672,
      1.633179197399775,
      1.655899047075946,
      1.7443352259822078,
      1.705304617924466,
      1.7160292598025437,
      1.5915079312271638,
      1.6476442809633076,
      1.6138292345127778,
      1.6557866394672005,
      1.6999499616635478,
      1.706561093059399,
      1.6350144278529164,
      1.6503145178712533,
      1.551263049399382,
      1.67105914412972,
      1.5987727761374158,
      1.6662194209165149,
      1.5695680480732719,
      1.7043124523381317,
      1.7526047861166438,
      1.5966958782638876,
      1.5766438398366551,
      1.6213076192137144,
      1.6636576796209481,
      1.5727608993516713,
      1.6468700541571304,
      1.7085038085341395,
      1.6352118492146812,
      1.6658375275250519,
      1.5766193976836067,
      1.630020159053906,
      1.6381217875514176,
      1.6795120773464078,
      1.577656247434173,
      1.614048338432965,
      1.3526296498351247,
      1.3272483074672101,
      1.320324485461757,
      1.320687459021491,
      1.3187427135939356,
      1.323797711237127,
      1.3173673998909887,
      1.3126146483980738,
      1.3184951680974273,
      1.3123164366179234,
      1.3261175420813802,
      1.3246059348215218,
      1.3280135277246035,
      1.3421562557459321,
      1.3190558851487895,
      1.3131433688620477,
      1.319970820174444,
      1.319191212676882,
      1.3147394529308087,
      1.3110934064810085,
      1.3175733305992758,
      1.321727025481807,
      1.3189195099539974,
      1.3227855448591956,
      1.3200379476509776,
      1.322753911341575,
      1.317832326077745,
      1.3320381452175283,
      1.3158115522537082,
      1.3131311482005819,
      1.3229957883695547,
      1.3112005004898282,
      1.3211119550665191,
      1.3184010534229174,
      1.3119286575387001,
      1.315636927496641,
      1.3259058444161496,
      1.3117677894145654,
      1.3205968892830386,
      1.322639242468608,
      1.317485947771,
      1.2778641952346061,
      1.270529220874395,
      1.2737076624690484,
      1.2719866747179835,
      1.2712277748594374,
      1.2705750495896582,
      1.2704051345642327,
      1.2705899193586592,
      1.270465460910416,
      1.2707514959144788,
      1.2713103044337155,
      1.2712101142143652,
      1.269452186692201,
      1.2695592140695124,
      1.2699132274124658,
      1.2706677092286698,
      1.270205206617642,
      1.271045821336619,
      1.2708160582890775,
      1.2689307264709433,
      1.2692195165024611,
      1.2704369291417306,
      1.2709987996658834,
      1.2694241601415737,
      1.2711494944186474,
      1.2718995491249905,
      1.269035660191402,
      1.2689376495457088,
      1.2703110729549714,
      1.2692706415496604,
      1.268544018667888,
      1.2698964064945422,
      1.2686175212266455,
      1.2685158320360246,
      1.2668194464332287,
      1.2680269467012706,
      1.2674485559869881,
      1.2677113155559012,
      1.268326563453103,
      1.2681341629021534,
      1.267800799781828,
      1.2687808109439798,
      1.2713132284540407,
      1.2699763597861178,
      1.2682229329714922,
      1.2697191318371024,
      1.269870109758474,
      1.268270248583174,
      1.2670693535226532,
      1.2693834575728602,
      1.2677622678985763,
      1.266357874546872,
      1.267625530843586,
      1.2658025347743562,
      1.265910443070272,
      1.2660306803350447,
      1.2672549783243066,
      1.2654074236020638,
      1.2673428273162899,
      1.2676897469948907,
      1.2674014212031244,
      1.2688157721237738,
      1.2660542538751434,
      1.266019622955787,
      1.268233781662108,
      1.266775611013568,
      1.2644919789044742,
      1.2658368224381804,
      1.2645609999709755,
      1.2667940207691961,
      1.2660557061918458,
      1.2671183067849987,
      1.2670494482660413,
      1.265819259662915,
      1.26540138382539,
      1.2669648690513953,
      1.2649886909383463,
      1.2649066864054914,
      1.2676754626332527,
      1.2654328223733098,
      1.2646024931131479,
      1.2660119090126456,
      1.2655166026692348,
      1.2637858551694676,
      1.26503362371707,
      1.2643185406575093,
      1.263188842828313,
      1.2667102460806594,
      1.265279174224573,
      1.2682585441370637,
      1.2647826507092912,
      1.2639454802414691,
      1.2630449271935311,
      1.2651810490558928,
      1.2654641761580716,
      1.2645683875087235,
      1.2643111269057616,
      1.2637974693854686,
      1.2671582825726164,
      1.2656359568150266,
      1.2654826834805266,
      1.2649810968223079,
      1.2633015607853704,
      1.2625761666653899,
      1.264880144566323,
      1.2616097831650301,
      1.2639980814293925,
      1.2635386686587433,
      1.26277100789975,
      1.2636846719682289,
      1.2634575730337736,
      1.2658304583362472,
      1.26352730874956,
      1.2638962150488142,
      1.2631339473293053,
      1.2626016020833042,
      1.2622458200382747,
      1.261845016225479,
      1.2632648675477829,
      1.2632356905515203,
      1.2637018476621773,
      1.261650677023819,
      1.261969270209719,
      1.2597454974337026,
      1.2646186850903616,
      1.2619228850014306,
      1.2614272462699219,
      1.260792449152799,
      1.2621810661993038,
      1.2640853284201041,
      1.2608274876821586,
      1.2608582248322637,
      1.261466772203199,
      1.2614965448122426,
      1.2610616832303905,
      1.2610652305823171,
      1.2619526783731487,
      1.262515744551884,
      1.2617518182873249,
      1.261433389246233,
      1.260007956890053,
      1.261308898280358,
      1.263400201488967,
      1.2597625330051256,
      1.2602925256130826,
      1.2563587281173578,
      1.255989370566169,
      1.2554919415429457,
      1.2555712753406671,
      1.255336439384695,
      1.2552653346732312,
      1.254688568627501,
      1.2552051940035778,
      1.255039800865462,
      1.2550331683493732,
      1.2553123168821074,
      1.2549452068769522,
      1.2550110719780188,
      1.25484801603912,
      1.2548473573886405,
      1.2548054966045183,
      1.2546033072218297,
      1.2546673823266226,
      1.2547874603161897,
      1.2545821250726374,
      1.2546621040824655,
      1.2545319114828013,
      1.2546661045537075,
      1.2545695445536267,
      1.254698294814432,
      1.2544817991842387,
      1.2544879911944309,
      1.2544836461928752,
      1.2543920713901207,
      1.2542669728983817,
      1.2548985006492304,
      1.2547094089863737,
      1.2548060434495216,
      1.2548695945837962,
      1.2545118208706867,
      1.2543271561553375,
      1.2544176128152023,
      1.2548599851796964,
      1.2544182891472389,
      1.2542860674939416,
      1.2544199864191108,
      1.2544172778101554,
      1.2546228121263656,
      1.2538872768373364,
      1.2546633491015742,
      1.2542852023997646,
      1.2545028497363802,
      1.2545012487538652,
      1.254326366596216,
      1.2542976079648813,
      1.254309188410291,
      1.2542447896277482,
      1.2542777558877776,
      1.25422581599771,
      1.2542717350237689,
      1.2540116542396262,
      1.2541706441737224,
      1.2546495156626039,
      1.254554740554078,
      1.2543313163355017,
      1.2541669132905104,
      1.2544093375967629
    ]
  },
  "val": {
    "steps": [
      0,
      1,
      2,
      3,
      4,
      5,
      6,
      7,
      8,
      9,
      10,
      11,
      12,
      13,
      14,
      15,
      16,
      17,
      18,
      19,
      20,
      21,
      22,
      23,
      24,
      25,
      26,
      27,
      28,
      29,
      30,
      31,
      32,
      33,
      34,
      35,
      36,
      37,
      38,
      39,
      40,
      41,
      42,
      43,
      44,
      45,
      46,
      47,
      48,
      49,
      50,
      51,
      52,
      53,
      54,
      55,
      56,
      57,
      58,
      59,
      60,
      61,
      62,
      63,
      64,
      65,
      66,
      67,
      68,
      69,
      70,
      71,
      72,
      73,
      74,
      75,
      76,
      77,
      78,
      79,
      80,
      81,
      82,
      83,
      84,
      85,
      86,
      87,
      88,
      89,
      90,
      91,
      92,
      93,
      94,
      95,
      96,
      97,
      98,
      99,
      100,
      101,
      102,
      103,
      104,
      105,
      106,
      107,
      108,
      109,
      110,
      111,
      112,
      113,
      114,
      115,
      116,
      117,
      118,
      119,
      120,
      121,
      122,
      123,
      124,
      125,
      126,
      127,
      128,
      129,
      130,
      131,
      132,
      133,
      134,
      135,
      136,
      137,
      138,
      139,
      140,
      141,
      142,
      143,
      144,
      145,
      146,
      147,
      148,
      149,
      150,
      151,
      152,
      153,
      154,
      155,
      156,
      157,
      158,
      159,
      160,
      161,
      162,
      163,
      164,
      165,
      166,
      167,
      168,
      169,
      170,
      171,
      172,
      173,
      174,
      175,
      176,
      177,
      178,
      179,
      180,
      181,
      182,
      183,
      184,
      185,
      186,
      187,
      188,
      189,
      190,
      191,
      192,
      193,
      194,
      195,
      196,
      197,
      198,
      199,
      200,
      201,
      202,
      203,
      204,
      205,
      206,
      207,
      208,
      209,
      210,
      211,
      212,
      213,
      214,
      215,
      216,
      217,
      218,
      219,
      220,
      221,
      222,
      223,
      224,
      225,
      226,
      227,
      228,
      229,
      230,
      231,
      232,
      233,
      234,
      235,
      236,
      237,
      238,
      239,
      240,
      241,
      242,
      243,
      244,
      245,
      246,
      247,
      248,
      249,
      250,
      251,
      252,
      253,
      254,
      255,
      256,
      257,
      258,
      259,
      260,
      261,
      262,
      263,
      264,
      265,
      266,
      267,
      268,
      269,
      270,
      271,
      272,
      273,
      274,
      275,
      276,
      277,
      278,
      279,
      280,
      281,
      282,
      283,
      284,
      285,
      286,
      287,
      288,
      289,
      290,
      291,
      292,
      293,
      294,
      295,
      296,
      297,
      298,
      299,
      0,
      1,
      2,
      3,
      4,
      5,
      6,
      7,
      8,
      9,
      10,
      11,
      12,
      13,
      14,
      15,
      16,
      17,
      18,
      19,
      20,
      21,
      22,
      23,
      24,
      25,
      26,
      27,
      28,
      29,
      30,
      31,
      32,
      33,
      34,
      35,
      36,
      37,
      38,
      39,
      40,
      41,
      42,
      43,
      44,
      45,
      46,
      47,
      48,
      49,
      50,
      51,
      52,
      53,
      54,
      55,
      56,
      57,
      58,
      59,
      60,
      61,
      62,
      63,
      64,
      65,
      66,
      67,
      68,
      69,
      70,
      71,
      72,
      73,
      74,
      75,
      76,
      77,
      78,
      79,
      80,
      81,
      82,
      83,
      84,
      85,
      86,
      87,
      88,
      89,
      90,
      91,
      92,
      93,
      94,
      95,
      96,
      97,
      98,
      99
    ],
    "timestamps": [
      "2022-08-14T15:48:26.620903",
      "2022-08-14T15:48:29.484396",
      "2022-08-14T15:48:32.623722",
      "2022-08-14T15:48:35.634798",
      "2022-08-14T15:48:38.822631",
      "2022-08-14T15:48:41.948961",
      "2022-08-14T15:48:45.553886",
      "2022-08-14T15:48:49.865437",
      "2022-08-14T15:48:53.192500",
      "2022-08-14T15:48:56.684140",
      "2022-08-14T15:48:59.850316",
      "2022-08-14T15:49:03.572600",
      "2022-08-14T15:49:06.778158",
      "2022-08-14T15:49:10.190221",
      "2022-08-14T15:49:13.523116",
      "2022-08-14T15:49:16.751897",
      "2022-08-14T15:49:20.171484",
      "2022-08-14T15:49:23.308488",
      "2022-08-14T15:49:27.056697",
      "2022-08-14T15:49:30.935815",
      "2022-08-14T15:49:34.449366",
      "2022-08-14T15:49:38.095252",
      "2022-08-14T15:49:41.529526",
      "2022-08-14T15:49:45.002803",
      "2022-08-14T15:49:48.637645",
      "2022-08-14T15:49:52.061890",
      "2022-08-14T15:49:55.557919",
      "2022-08-14T15:49:59.086544",
      "2022-08-14T15:50:02.712092",
      "2022-08-14T15:50:06.134602",
      "2022-08-14T15:50:09.613088",
      "2022-08-14T15:50:13.246693",
      "2022-08-14T15:50:16.926811",
      "2022-08-14T15:50:20.257656",
      "2022-08-14T15:50:23.298941",
      "2022-08-14T15:50:26.372144",
      "2022-08-14T15:50:29.551193",
      "2022-08-14T15:50:32.696577",
      "2022-08-14T15:50:35.821028",
      "2022-08-14T15:50:38.959399",
      "2022-08-14T15:50:42.085304",
      "2022-08-14T15:50:45.232586",
      "2022-08-14T15:50:48.346221",
      "2022-08-14T15:50:51.461677",
      "2022-08-14T15:50:54.579917",
      "2022-08-14T15:50:57.715085",
      "2022-08-14T15:51:00.857947",
      "2022-08-14T15:51:03.986721",
      "2022-08-14T15:51:07.121214",
      "2022-08-14T15:51:10.262302",
      "2022-08-14T15:51:13.443208",
      "2022-08-14T15:51:16.530088",
      "2022-08-14T15:51:19.591175",
      "2022-08-14T15:51:22.706916",
      "2022-08-14T15:51:25.761949",
      "2022-08-14T15:51:28.840338",
      "2022-08-14T15:51:31.901471",
      "2022-08-14T15:51:34.945578",
      "2022-08-14T15:51:38.021455",
      "2022-08-14T15:51:41.070194",
      "2022-08-14T15:51:44.204141",
      "2022-08-14T15:51:47.257058",
      "2022-08-14T15:51:50.384099",
      "2022-08-14T15:51:53.726132",
      "2022-08-14T15:51:56.863687",
      "2022-08-14T15:52:00.052298",
      "2022-08-14T15:52:03.309019",
      "2022-08-14T15:52:06.449832",
      "2022-08-14T15:52:09.574923",
      "2022-08-14T15:52:12.688353",
      "2022-08-14T15:52:15.757475",
      "2022-08-14T15:52:18.831798",
      "2022-08-14T15:52:21.933619",
      "2022-08-14T15:52:25.056017",
      "2022-08-14T15:52:28.181495",
      "2022-08-14T15:52:31.273973",
      "2022-08-14T15:52:34.371020",
      "2022-08-14T15:52:37.463952",
      "2022-08-14T15:52:40.530850",
      "2022-08-14T15:52:43.623420",
      "2022-08-14T15:52:46.734023",
      "2022-08-14T15:52:49.817997",
      "2022-08-14T15:52:52.913645",
      "2022-08-14T15:52:56.010603",
      "2022-08-14T15:52:59.095658",
      "2022-08-14T15:53:02.177656",
      "2022-08-14T15:53:05.276830",
      "2022-08-14T15:53:08.366156",
      "2022-08-14T15:53:11.509053",
      "2022-08-14T15:53:14.600855",
      "2022-08-14T15:53:17.683981",
      "2022-08-14T15:53:20.792417",
      "2022-08-14T15:53:23.898111",
      "2022-08-14T15:53:26.997307",
      "2022-08-14T15:53:30.060865",
      "2022-08-14T15:53:33.147649",
      "2022-08-14T15:53:36.278996",
      "2022-08-14T15:53:39.375974",
      "2022-08-14T15:53:42.460551",
      "2022-08-14T15:53:45.580363",
      "2022-08-14T15:53:48.674562",
      "2022-08-14T15:53:51.750110",
      "2022-08-14T15:53:54.844894",
      "2022-08-14T15:53:57.936996",
      "2022-08-14T15:54:01.039487",
      "2022-08-14T15:54:04.141256",
      "2022-08-14T15:54:07.234602",
      "2022-08-14T15:54:10.350705",
      "2022-08-14T15:54:13.508510",
      "2022-08-14T15:54:16.617668",
      "2022-08-14T15:54:19.746227",
      "2022-08-14T15:54:22.848393",
      "2022-08-14T15:54:25.912541",
      "2022-08-14T15:54:28.996058",
      "2022-08-14T15:54:32.202665",
      "2022-08-14T15:54:35.306026",
      "2022-08-14T15:54:38.420167",
      "2022-08-14T15:54:41.498756",
      "2022-08-14T15:54:44.574388",
      "2022-08-14T15:54:47.669883",
      "2022-08-14T15:54:50.806718",
      "2022-08-14T15:54:53.965694",
      "2022-08-14T15:54:57.088478",
      "2022-08-14T15:55:00.187772",
      "2022-08-14T15:55:03.296150",
      "2022-08-14T15:55:06.387396",
      "2022-08-14T15:55:09.496769",
      "2022-08-14T15:55:12.600283",
      "2022-08-14T15:55:15.735997",
      "2022-08-14T15:55:18.810630",
      "2022-08-14T15:55:21.904272",
      "2022-08-14T15:55:25.006900",
      "2022-08-14T15:55:28.102095",
      "2022-08-14T15:55:31.187887",
      "2022-08-14T15:55:34.254308",
      "2022-08-14T15:55:37.289012",
      "2022-08-14T15:55:40.361187",
      "2022-08-14T15:55:43.440247",
      "2022-08-14T15:55:46.489262",
      "2022-08-14T15:55:49.517684",
      "2022-08-14T15:55:52.543486",
      "2022-08-14T15:55:55.667475",
      "2022-08-14T15:55:58.696055",
      "2022-08-14T15:56:01.788988",
      "2022-08-14T15:56:04.985118",
      "2022-08-14T15:56:08.772167",
      "2022-08-14T15:56:11.949669",
      "2022-08-14T15:56:15.075726",
      "2022-08-14T15:56:18.289573",
      "2022-08-14T15:56:21.302506",
      "2022-08-14T15:56:24.566409",
      "2022-08-14T15:56:27.999243",
      "2022-08-14T15:56:31.147827",
      "2022-08-14T15:56:34.344225",
      "2022-08-14T15:56:37.576777",
      "2022-08-14T15:56:40.614962",
      "2022-08-14T15:56:43.818871",
      "2022-08-14T15:56:46.889359",
      "2022-08-14T15:56:49.957490",
      "2022-08-14T15:56:53.067921",
      "2022-08-14T15:56:56.213812",
      "2022-08-14T15:56:59.368806",
      "2022-08-14T15:57:02.418888",
      "2022-08-14T15:57:05.516803",
      "2022-08-14T15:57:08.746574",
      "2022-08-14T15:57:12.099425",
      "2022-08-14T15:57:15.153996",
      "2022-08-14T15:57:18.174135",
      "2022-08-14T15:57:21.181296",
      "2022-08-14T15:57:24.191466",
      "2022-08-14T15:57:27.215220",
      "2022-08-14T15:57:30.230130",
      "2022-08-14T15:57:33.256026",
      "2022-08-14T15:57:36.264041",
      "2022-08-14T15:57:39.278620",
      "2022-08-14T15:57:42.279716",
      "2022-08-14T15:57:45.320251",
      "2022-08-14T15:57:48.335214",
      "2022-08-14T15:57:51.385556",
      "2022-08-14T15:57:54.412099",
      "2022-08-14T15:57:57.449124",
      "2022-08-14T15:58:00.491987",
      "2022-08-14T15:58:03.534211",
      "2022-08-14T15:58:06.565037",
      "2022-08-14T15:58:09.619705",
      "2022-08-14T15:58:12.902706",
      "2022-08-14T15:58:16.030435",
      "2022-08-14T15:58:19.314512",
      "2022-08-14T15:58:22.395733",
      "2022-08-14T15:58:25.437585",
      "2022-08-14T15:58:28.471077",
      "2022-08-14T15:58:31.495463",
      "2022-08-14T15:58:34.519283",
      "2022-08-14T15:58:37.693449",
      "2022-08-14T15:58:40.715626",
      "2022-08-14T15:58:43.738126",
      "2022-08-14T15:58:46.743936",
      "2022-08-14T15:58:49.807811",
      "2022-08-14T15:58:53.012336",
      "2022-08-14T15:58:56.249575",
      "2022-08-14T15:58:59.323281",
      "2022-08-14T15:59:02.320270",
      "2022-08-14T15:59:05.366708",
      "2022-08-14T15:59:08.442403",
      "2022-08-14T15:59:11.448583",
      "2022-08-14T15:59:14.491419",
      "2022-08-14T15:59:17.544691",
      "2022-08-14T15:59:20.618091",
      "2022-08-14T15:59:24.032388",
      "2022-08-14T15:59:27.105111",
      "2022-08-14T15:59:30.258912",
      "2022-08-14T15:59:33.568789",
      "2022-08-14T15:59:36.651032",
      "2022-08-14T15:59:39.718874",
      "2022-08-14T15:59:42.768501",
      "2022-08-14T15:59:45.861229",
      "2022-08-14T15:59:48.960432",
      "2022-08-14T15:59:52.019550",
      "2022-08-14T15:59:55.077778",
      "2022-08-14T15:59:58.147362",
      "2022-08-14T16:00:01.229177",
      "2022-08-14T16:00:04.306226",
      "2022-08-14T16:00:07.361776",
      "2022-08-14T16:00:10.429946",
      "2022-08-14T16:00:13.498827",
      "2022-08-14T16:00:16.568099",
      "2022-08-14T16:00:19.652549",
      "2022-08-14T16:00:22.782721",
      "2022-08-14T16:00:25.903958",
      "2022-08-14T16:00:28.985932",
      "2022-08-14T16:00:32.104773",
      "2022-08-14T16:00:35.507951",
      "2022-08-14T16:00:38.627302",
      "2022-08-14T16:00:41.854072",
      "2022-08-14T16:00:45.103186",
      "2022-08-14T16:00:48.261005",
      "2022-08-14T16:00:51.351611",
      "2022-08-14T16:00:54.432042",
      "2022-08-14T16:00:57.510652",
      "2022-08-14T16:01:00.794658",
      "2022-08-14T16:01:03.905628",
      "2022-08-14T16:01:07.086537",
      "2022-08-14T16:01:10.348153",
      "2022-08-14T16:01:13.566140",
      "2022-08-14T16:01:16.742186",
      "2022-08-14T16:01:19.846842",
      "2022-08-14T16:01:22.945354",
      "2022-08-14T16:01:26.084108",
      "2022-08-14T16:01:29.135525",
      "2022-08-14T16:01:32.195484",
      "2022-08-14T16:01:35.258047",
      "2022-08-14T16:01:38.478651",
      "2022-08-14T16:01:41.659621",
      "2022-08-14T16:01:45.044142",
      "2022-08-14T16:01:49.130322",
      "2022-08-14T16:01:53.695976",
      "2022-08-14T16:01:59.102468",
      "2022-08-14T16:02:04.750143",
      "2022-08-14T16:02:08.900563",
      "2022-08-14T16:02:12.164290",
      "2022-08-14T16:02:15.978950",
      "2022-08-14T16:02:21.909907",
      "2022-08-14T16:02:28.238121",
      "2022-08-14T16:02:32.951560",
      "2022-08-14T16:02:37.828740",
      "2022-08-14T16:02:42.408244",
      "2022-08-14T16:02:47.557966",
      "2022-08-14T16:02:53.103769",
      "2022-08-14T16:02:58.756627",
      "2022-08-14T16:03:04.387776",
      "2022-08-14T16:03:08.969956",
      "2022-08-14T16:03:13.515533",
      "2022-08-14T16:03:18.131793",
      "2022-08-14T16:03:22.796701",
      "2022-08-14T16:03:28.293442",
      "2022-08-14T16:03:32.378640",
      "2022-08-14T16:03:35.425585",
      "2022-08-14T16:03:38.695266",
      "2022-08-14T16:03:42.470875",
      "2022-08-14T16:03:45.738539",
      "2022-08-14T16:03:49.036355",
      "2022-08-14T16:03:52.175406",
      "2022-08-14T16:03:55.302797",
      "2022-08-14T16:03:58.684434",
      "2022-08-14T16:04:01.913837",
      "2022-08-14T16:04:05.100013",
      "2022-08-14T16:04:08.638457",
      "2022-08-14T16:04:12.199271",
      "2022-08-14T16:04:15.378174",
      "2022-08-14T16:04:18.451585",
      "2022-08-14T16:04:21.673251",
      "2022-08-14T16:04:25.106827",
      "2022-08-14T16:04:28.594940",
      "2022-08-14T16:04:31.829491",
      "2022-08-14T16:04:35.007307",
      "2022-08-14T16:04:38.143687",
      "2022-08-14T16:04:41.295719",
      "2022-08-14T16:04:44.394304",
      "2022-08-14T16:04:47.794528",
      "2022-08-14T16:04:51.370503",
      "2022-08-14T17:53:38.605751",
      "2022-08-14T17:53:43.386770",
      "2022-08-14T17:53:48.595799",
      "2022-08-14T17:53:53.703999",
      "2022-08-14T17:53:58.477472",
      "2022-08-14T17:54:03.066926",
      "2022-08-14T17:54:07.650983",
      "2022-08-14T17:54:12.673308",
      "2022-08-14T17:54:17.579404",
      "2022-08-14T17:54:22.637220",
      "2022-08-14T17:54:27.618121",
      "2022-08-14T17:54:32.486945",
      "2022-08-14T17:54:37.066362",
      "2022-08-14T17:54:41.791996",
      "2022-08-14T17:54:46.831618",
      "2022-08-14T17:54:51.816339",
      "2022-08-14T17:54:56.511565",
      "2022-08-14T17:55:01.177522",
      "2022-08-14T17:55:05.877230",
      "2022-08-14T17:55:10.556428",
      "2022-08-14T17:55:15.234302",
      "2022-08-14T17:55:19.895496",
      "2022-08-14T17:55:24.547272",
      "2022-08-14T17:55:29.250780",
      "2022-08-14T17:55:33.923730",
      "2022-08-14T17:55:38.604213",
      "2022-08-14T17:55:43.252231",
      "2022-08-14T17:55:47.885954",
      "2022-08-14T17:55:52.542167",
      "2022-08-14T17:55:57.237244",
      "2022-08-14T17:56:02.475003",
      "2022-08-14T17:56:08.243219",
      "2022-08-14T17:56:14.041783",
      "2022-08-14T17:56:19.834407",
      "2022-08-14T17:56:25.566441",
      "2022-08-14T17:56:31.307182",
      "2022-08-14T17:56:37.577352",
      "2022-08-14T17:56:42.638954",
      "2022-08-14T17:56:47.649675",
      "2022-08-14T17:56:52.314070",
      "2022-08-14T17:56:56.971016",
      "2022-08-14T17:57:01.617295",
      "2022-08-14T17:57:06.225261",
      "2022-08-14T17:57:10.837031",
      "2022-08-14T17:57:15.476620",
      "2022-08-14T17:57:20.104733",
      "2022-08-14T17:57:24.741812",
      "2022-08-14T17:57:29.399144",
      "2022-08-14T17:57:34.541283",
      "2022-08-14T17:57:39.532632",
      "2022-08-14T17:57:44.273995",
      "2022-08-14T17:57:48.945368",
      "2022-08-14T17:57:53.826373",
      "2022-08-14T17:57:58.427985",
      "2022-08-14T17:58:03.065382",
      "2022-08-14T17:58:07.675855",
      "2022-08-14T17:58:12.291672",
      "2022-08-14T17:58:16.938691",
      "2022-08-14T17:58:21.627119",
      "2022-08-14T17:58:26.330334",
      "2022-08-14T17:58:31.047945",
      "2022-08-14T17:58:35.737416",
      "2022-08-14T17:58:40.426493",
      "2022-08-14T17:58:45.066557",
      "2022-08-14T17:58:49.695455",
      "2022-08-14T17:58:54.291039",
      "2022-08-14T17:58:58.917310",
      "2022-08-14T17:59:03.551710",
      "2022-08-14T17:59:08.190053",
      "2022-08-14T17:59:12.835536",
      "2022-08-14T17:59:17.496193",
      "2022-08-14T17:59:22.277105",
      "2022-08-14T17:59:26.927609",
      "2022-08-14T17:59:31.628453",
      "2022-08-14T17:59:36.270612",
      "2022-08-14T17:59:41.035274",
      "2022-08-14T17:59:45.718004",
      "2022-08-14T17:59:50.392354",
      "2022-08-14T17:59:55.090428",
      "2022-08-14T17:59:59.763077",
      "2022-08-14T18:00:04.705033",
      "2022-08-14T18:00:09.329819",
      "2022-08-14T18:00:13.997715",
      "2022-08-14T18:00:18.655675",
      "2022-08-14T18:00:23.357624",
      "2022-08-14T18:00:27.989264",
      "2022-08-14T18:00:33.176431",
      "2022-08-14T18:00:38.961096",
      "2022-08-14T18:00:44.106709",
      "2022-08-14T18:00:49.549342",
      "2022-08-14T18:00:54.280802",
      "2022-08-14T18:00:58.962062",
      "2022-08-14T18:01:04.245634",
      "2022-08-14T18:01:09.673225",
      "2022-08-14T18:01:14.312280",
      "2022-08-14T18:01:18.903904",
      "2022-08-14T18:01:23.551688",
      "2022-08-14T18:01:28.128963",
      "2022-08-14T18:01:32.758675",
      "2022-08-14T18:01:37.363349"
    ],
    "values": [
      8.255428785772414,
      6.557703086215987,
      4.941647045304081,
      4.10310684198601,
      3.26078271507044,
      3.8683897499214375,
      3.1809870083932306,
      2.8076029180077815,
      2.884360371947096,
      2.446503634758651,
      2.620334066688427,
      2.5034311574464105,
      2.282522658139998,
      2.293939898440575,
      2.354355880422149,
      2.1666108740411496,
      2.096849825659402,
      2.157745248088932,
      2.1325920552434985,
      2.3716933803703073,
      1.9633603518560068,
      1.9939273101234332,
      1.8995155496217107,
      2.2100511642186618,
      2.2080190327627585,
      2.0617965169786485,
      1.9059228224134719,
      1.9786454105543507,
      1.92786689820487,
      2.190222642034902,
      1.9918112098776661,
      1.9831144323805387,
      1.8737029216098193,
      1.9299505045631384,
      2.5985395781496305,
      1.9088949417540788,
      1.9358156737123133,
      1.9535094891546323,
      1.8458928360444662,
      1.8538153505731916,
      1.9642348802839509,
      2.066406535718609,
      1.76550544831058,
      1.9357257244341601,
      1.7352015014532731,
      1.701442999554373,
      2.175852541980882,
      1.7457882402411915,
      1.8118972715535389,
      1.8115752375183178,
      1.9031123284399925,
      1.7098003362167264,
      1.848306387213315,
      1.7875576872219898,
      1.8055283352722296,
      1.7236638153454071,
      1.7304018313547673,
      1.9659867186679116,
      1.7195655785676391,
      2.054659701050566,
      1.8426083486666005,
      1.7132841424575675,
      1.6613073922496644,
      1.6889161298770592,
      1.771385404477677,
      1.83353220278006,
      1.67115821896136,
      1.6475262618439865,
      1.7548889510504102,
      1.8124733458677336,
      1.6428318989836483,
      1.6304044364862087,
      1.562881964166462,
      1.7344612901182124,
      1.9041181936276985,
      1.9142541912820843,
      1.6157564465743157,
      1.8126619060272453,
      1.5615618495890238,
      1.794489431294278,
      1.5823991065621061,
      1.9116661606795118,
      1.8395006831323346,
      1.690066173862054,
      1.8916044544100439,
      1.6722295648552734,
      1.83350002400055,
      1.626926557602032,
      1.659940760728596,
      1.5950267190626741,
      1.6303206985901404,
      1.5856597630789542,
      1.5972308647026188,
      1.9717835498417815,
      1.625420943210029,
      1.557745007765022,
      1.6100717459857758,
      1.6455781079934975,
      1.7803594170081949,
      1.6351017267772834,
      1.7044192471732926,
      1.6091738624082002,
      1.5037319489088634,
      1.8631420101632543,
      1.5559337321597488,
      1.7082986370954634,
      1.5802368373344233,
      1.6081130614690702,
      1.6350323999709695,
      1.545663308756353,
      1.6974284161390403,
      1.9430268095814134,
      1.6355692414846106,
      1.663186460965291,
      1.6055923370655674,
      1.5477086880153634,
      2.0899727478022623,
      1.4914813174979276,
      1.646207731599831,
      1.5892061645258357,
      1.7384771522227016,
      1.7166241800385365,
      1.6395174019443166,
      1.4906496267895308,
      1.7441748404551765,
      1.6455559322471132,
      1.7807681647868154,
      1.744125091754631,
      1.5197162733097103,
      1.545227532557208,
      1.6581665440507865,
      1.662685723106816,
      1.6025848514178695,
      1.5745133921992314,
      1.5398303197418814,
      1.7449268314485098,
      1.641344471338138,
      1.606715787777518,
      1.5082835773709022,
      1.6413170972478406,
      1.5429191688212247,
      1.6558993071163923,
      1.637893523859533,
      1.6686310636392607,
      1.541607870470277,
      1.5159219405008457,
      1.498500741888609,
      1.7912921101229384,
      1.6360469703048344,
      1.5936025352367513,
      1.81537635461834,
      1.5334212912112646,
      1.4015528113881863,
      1.3972780558701123,
      1.3973682156056628,
      1.3761243557463474,
      1.3896612951668796,
      1.379213374239991,
      1.3777997134719981,
      1.3800714957385898,
      1.3749730612465998,
      1.3798259335436038,
      1.4094532860266802,
      1.4081701615754818,
      1.3930101470878662,
      1.3934690327051293,
      1.3838035545148668,
      1.3787325669731683,
      1.419591797132557,
      1.3938132945682877,
      1.3793731826658118,
      1.4031338925004744,
      1.401001192286272,
      1.373968304444021,
      1.4004009356695877,
      1.3682510605302776,
      1.4213315249595078,
      1.3945261872515387,
      1.4021278864600726,
      1.3771718373240196,
      1.397255944269479,
      1.3785972590553208,
      1.4433509579812749,
      1.3700513701630237,
      1.373948486322395,
      1.3768900065295104,
      1.3794944740781208,
      1.3836775014785123,
      1.365361722260746,
      1.3689628438470833,
      1.4024900402762497,
      1.3755104057571221,
      1.3795902891482459,
      1.3439336196257272,
      1.3460834602045122,
      1.3446889886399285,
      1.3429015485784819,
      1.34232889270167,
      1.34255401005045,
      1.3423160980953952,
      1.344630396567745,
      1.3411000458246185,
      1.3416696833865487,
      1.3421157514046482,
      1.3457743326231772,
      1.3445633914841923,
      1.3511000297331819,
      1.3437353431123191,
      1.3432399629630725,
      1.3459738835791775,
      1.3427290292453784,
      1.3422454916229731,
      1.3394812549032904,
      1.3391719633139483,
      1.342159250423221,
      1.3408172256179733,
      1.342312915373637,
      1.344723827308952,
      1.3407410490776162,
      1.3444113321554017,
      1.3423355871099643,
      1.3450019596325224,
      1.3409069743770308,
      1.3419129391463054,
      1.3376770256167476,
      1.3404764682195036,
      1.3426261945973195,
      1.347689828493934,
      1.338956306888299,
      1.345047693559166,
      1.340261005891368,
      1.3419660068203043,
      1.3415475219051098,
      1.339762916994518,
      1.3388243535589817,
      1.3381154791731646,
      1.3391931606747276,
      1.3450102955239793,
      1.3372924554030845,
      1.3434257529049183,
      1.3384741591708058,
      1.3474641541026864,
      1.339764242781076,
      1.3423273502158253,
      1.3372618793840665,
      1.343131612525051,
      1.3382426625726964,
      1.3374551185911256,
      1.3396778495103063,
      1.343148261542419,
      1.3388827278592148,
      1.3371433340476204,
      1.338619338564871,
      1.3393927125801102,
      1.3372086228438502,
      1.3384785505386438,
      1.3406258616562936,
      1.349972972302456,
      1.3397814563379031,
      1.3408462418821265,
      1.3413195609325785,
      1.3369015074409407,
      1.341718135464787,
      1.3345193752694617,
      1.3426701381052546,
      1.3419347849790855,
      1.3393307050860788,
      1.339602179227564,
      1.3398752659515836,
      1.3382440264995445,
      1.3382244222759672,
      1.335620782314082,
      1.3350663620866208,
      1.3456713886145375,
      1.3394713127391062,
      1.3349775162275646,
      1.3430853572562709,
      1.33500872526687,
      1.3360875209644403,
      1.3410314311388163,
      1.3432863279149083,
      1.33581623871428,
      1.3443223438298415,
      1.3400674618920367,
      1.3359664841425127,
      1.3367030008523988,
      1.3338458451457302,
      1.3359632405798236,
      1.3381374088758917,
      1.3339733714187967,
      1.334746239394792,
      1.3416093386831227,
      1.3412481051366536,
      1.3359773558977144,
      1.3368700393762052,
      1.338991358336706,
      1.3366068904057231,
      1.3314667795102886,
      1.3391966469262298,
      1.3347771310531065,
      1.3362485803524802,
      1.3352855442289246,
      1.3356852857893682,
      1.337563418645588,
      1.3408626017486487,
      1.3364078677850586,
      1.3427972955538225,
      1.3319510985554168,
      1.3357414800813041,
      1.3370260217037027,
      1.3388823659078466,
      1.3317452010136668,
      1.3326499134414425,
      1.33397750567599,
      1.3352179053499762,
      1.3323231846412538,
      1.3342615271086566,
      1.3384771984094672,
      1.333377555961161,
      1.3323093127537466,
      1.3336477937571842,
      1.3399235383574626,
      1.330941098975149,
      1.3347606899044784,
      1.3334720321003428,
      1.3347098640661006,
      1.3329721301677824,
      1.336192804716608,
      1.3374962106013886,
      1.33334005631493,
      1.3320775727331327,
      1.3339931656868742,
      1.3300475215692906,
      1.3375261650583141,
      1.3348225875674162,
      1.3301991887661264,
      1.3317593156973808,
      1.3301476803782495,
      1.3293051248138459,
      1.3290918706217254,
      1.3290335440336427,
      1.3289968824796787,
      1.3290368404559443,
      1.3289801886692585,
      1.3295410582155194,
      1.3288639997995255,
      1.3291824315065919,
      1.329158490697609,
      1.3291745768242493,
      1.3294615055332333,
      1.3291377089478735,
      1.3299943619982,
      1.3292094469794418,
      1.3288967008050714,
      1.3290151717699303,
      1.3289177908781489,
      1.3289772490255047,
      1.3292151425019096,
      1.3287771844332574,
      1.3295446422330977,
      1.3290883033251961,
      1.3299015657423217,
      1.3290661702228022,
      1.3287179099458077,
      1.3289783372597872,
      1.3291319945067264,
      1.3294226675075922,
      1.328572754232931,
      1.329443817030666,
      1.3289386512625327,
      1.3294292786449795,
      1.329262514178137,
      1.3287788892949919,
      1.329059327048385,
      1.3292457043320356,
      1.3288924144440022,
      1.3288791531393331,
      1.3292076308196143,
      1.3291660467474822,
      1.3289701716707807,
      1.3289202499333443,
      1.3298833465360747,
      1.3294461313773323,
      1.3285515701132429,
      1.3287880020862692,
      1.3287967426943892,
      1.3287802918965037,
      1.3294070961724764,
      1.3291343814768277,
      1.3290070899077295,
      1.3294702760760182,
      1.3287648232241034,
      1.3287600488242886,
      1.3285563411234167,
      1.328617055648567,
      1.3290434826269313,
      1.328780017924893,
      1.3287299334732416,
      1.3287455619566035,
      1.3283718476789397
    ]
  }
}