INFO - residual_nf - Running command 'run'
INFO - residual_nf - Started run with ID "1"
[CONFIG] {'bn': 'tree', 'structure': 'faithful', 'coeff': 0.99, 'n_power_iterations': 5, 'num_blocks': 9, 'hidden_dims': [100], 'activation': 'tanh', 'grad_in_forward': True, 'batch_size': 100, 'num_train_samples': 10000, 'num_val_samples': 5000, 'num_epochs': 400, 'num_train_batches': 100, 'num_val_batches': 50, 'lr': 0.01, 'seed': 0, 'patience': 20, 'run': 1, 'ex_name': 'residual_nf_density_estimation', 'sub_folder': 'faithful_99_tanh_9_[100]', 'path': './experiment_logs/residual_nf_density_estimation/tree/faithful_99_tanh_9_[100]', 'bt_config': {'depth': 5, 'seed': 4}}
[ENCODED STRUCTURE] Using faithful BN structure.
  0%|          | 0/400 [00:00<?, ?it/s]Train NLL: 9.918, Val NLL: 9.524:   0%|          | 1/400 [00:04<27:03,  4.07s/it]Train NLL: 9.141, Val NLL: 8.939:   0%|          | 2/400 [00:07<22:44,  3.43s/it]Train NLL: 8.875, Val NLL: 8.802:   1%|          | 3/400 [00:10<23:29,  3.55s/it]Train NLL: 8.817, Val NLL: 8.783:   1%|          | 4/400 [00:13<21:58,  3.33s/it]Train NLL: 8.803, Val NLL: 8.743:   1%|▏         | 5/400 [00:16<19:50,  3.01s/it]Train NLL: 8.758, Val NLL: 8.755:   2%|▏         | 6/400 [00:18<18:59,  2.89s/it]Train NLL: 8.734, Val NLL: 8.725:   2%|▏         | 7/400 [00:21<18:29,  2.82s/it]Train NLL: 8.727, Val NLL: 8.716:   2%|▏         | 8/400 [00:24<18:02,  2.76s/it]Train NLL: 8.732, Val NLL: 8.717:   2%|▏         | 9/400 [00:26<18:03,  2.77s/it]Train NLL: 8.723, Val NLL: 8.710:   2%|▎         | 10/400 [00:29<17:55,  2.76s/it]Train NLL: 8.718, Val NLL: 8.706:   3%|▎         | 11/400 [00:32<18:14,  2.81s/it]Train NLL: 8.710, Val NLL: 8.704:   3%|▎         | 12/400 [00:35<18:11,  2.81s/it]Train NLL: 8.704, Val NLL: 8.692:   3%|▎         | 13/400 [00:38<18:23,  2.85s/it]Train NLL: 8.697, Val NLL: 8.690:   4%|▎         | 14/400 [00:41<18:22,  2.86s/it]Train NLL: 8.702, Val NLL: 8.711:   4%|▍         | 15/400 [00:43<17:54,  2.79s/it]Train NLL: 8.707, Val NLL: 8.681:   4%|▍         | 16/400 [00:46<17:31,  2.74s/it]Train NLL: 8.700, Val NLL: 8.720:   4%|▍         | 17/400 [00:48<17:01,  2.67s/it]Train NLL: 8.703, Val NLL: 8.704:   4%|▍         | 18/400 [00:51<16:38,  2.61s/it]Train NLL: 8.696, Val NLL: 8.702:   5%|▍         | 19/400 [00:53<16:23,  2.58s/it]Train NLL: 8.694, Val NLL: 8.689:   5%|▌         | 20/400 [00:56<16:41,  2.64s/it]Train NLL: 8.688, Val NLL: 8.690:   5%|▌         | 21/400 [00:59<16:27,  2.61s/it]Train NLL: 8.691, Val NLL: 8.699:   6%|▌         | 22/400 [01:02<16:42,  2.65s/it]Train NLL: 8.698, Val NLL: 8.705:   6%|▌         | 23/400 [01:04<16:33,  2.64s/it]Train NLL: 8.688, Val NLL: 8.693:   6%|▌         | 24/400 [01:07<16:40,  2.66s/it]Train NLL: 8.693, Val NLL: 8.680:   6%|▋         | 25/400 [01:10<17:07,  2.74s/it]Train NLL: 8.688, Val NLL: 8.675:   6%|▋         | 26/400 [01:12<17:00,  2.73s/it]Train NLL: 8.695, Val NLL: 8.734:   7%|▋         | 27/400 [01:15<16:45,  2.70s/it]Train NLL: 8.697, Val NLL: 8.684:   7%|▋         | 28/400 [01:18<16:27,  2.65s/it]Train NLL: 8.681, Val NLL: 8.670:   7%|▋         | 29/400 [01:20<16:12,  2.62s/it]Train NLL: 8.683, Val NLL: 8.714:   8%|▊         | 30/400 [01:23<17:12,  2.79s/it]Train NLL: 8.680, Val NLL: 8.692:   8%|▊         | 31/400 [01:26<17:23,  2.83s/it]Train NLL: 8.677, Val NLL: 8.676:   8%|▊         | 32/400 [01:29<17:16,  2.82s/it]Train NLL: 8.683, Val NLL: 8.685:   8%|▊         | 33/400 [01:32<17:35,  2.88s/it]Train NLL: 8.678, Val NLL: 8.681:   8%|▊         | 34/400 [01:35<17:21,  2.85s/it]Train NLL: 8.672, Val NLL: 8.713:   9%|▉         | 35/400 [01:38<17:16,  2.84s/it]Train NLL: 8.675, Val NLL: 8.681:   9%|▉         | 36/400 [01:41<17:08,  2.83s/it]Train NLL: 8.674, Val NLL: 8.686:   9%|▉         | 37/400 [01:43<16:38,  2.75s/it]Train NLL: 8.668, Val NLL: 8.683:  10%|▉         | 38/400 [01:46<16:20,  2.71s/it]Train NLL: 8.666, Val NLL: 8.672:  10%|▉         | 39/400 [01:48<16:08,  2.68s/it]Train NLL: 8.671, Val NLL: 8.672:  10%|█         | 40/400 [01:51<16:20,  2.72s/it]Train NLL: 8.683, Val NLL: 8.694:  10%|█         | 41/400 [01:54<16:18,  2.73s/it]Train NLL: 8.665, Val NLL: 8.707:  10%|█         | 42/400 [01:57<16:13,  2.72s/it]Train NLL: 8.681, Val NLL: 8.669:  11%|█         | 43/400 [01:59<15:52,  2.67s/it]Train NLL: 8.667, Val NLL: 8.700:  11%|█         | 44/400 [02:02<15:31,  2.62s/it]Train NLL: 8.675, Val NLL: 8.691:  11%|█▏        | 45/400 [02:04<15:17,  2.58s/it]Train NLL: 8.672, Val NLL: 8.676:  12%|█▏        | 46/400 [02:07<15:04,  2.55s/it]Train NLL: 8.671, Val NLL: 8.723:  12%|█▏        | 47/400 [02:10<15:46,  2.68s/it]Train NLL: 8.674, Val NLL: 8.710:  12%|█▏        | 48/400 [02:12<15:46,  2.69s/it]Train NLL: 8.670, Val NLL: 8.664:  12%|█▏        | 49/400 [02:15<15:37,  2.67s/it]Train NLL: 8.660, Val NLL: 8.677:  12%|█▎        | 50/400 [02:17<15:18,  2.62s/it]Train NLL: 8.667, Val NLL: 8.682:  13%|█▎        | 51/400 [02:20<15:08,  2.60s/it]Train NLL: 8.667, Val NLL: 8.665:  13%|█▎        | 52/400 [02:22<14:50,  2.56s/it]Train NLL: 8.667, Val NLL: 8.661:  13%|█▎        | 53/400 [02:25<14:56,  2.58s/it]Train NLL: 8.662, Val NLL: 8.666:  14%|█▎        | 54/400 [02:28<14:47,  2.57s/it]Train NLL: 8.658, Val NLL: 8.665:  14%|█▍        | 55/400 [02:31<15:19,  2.67s/it]Train NLL: 8.661, Val NLL: 8.687:  14%|█▍        | 56/400 [02:33<15:17,  2.67s/it]Train NLL: 8.670, Val NLL: 8.657:  14%|█▍        | 57/400 [02:36<14:56,  2.61s/it]Train NLL: 8.666, Val NLL: 8.663:  14%|█▍        | 58/400 [02:38<14:44,  2.59s/it]Train NLL: 8.670, Val NLL: 8.658:  15%|█▍        | 59/400 [02:41<14:41,  2.59s/it]Train NLL: 8.670, Val NLL: 8.724:  15%|█▌        | 60/400 [02:43<14:38,  2.59s/it]Train NLL: 8.675, Val NLL: 8.704:  15%|█▌        | 61/400 [02:46<14:33,  2.58s/it]Train NLL: 8.669, Val NLL: 8.680:  16%|█▌        | 62/400 [02:49<14:40,  2.60s/it]Train NLL: 8.660, Val NLL: 8.664:  16%|█▌        | 63/400 [02:51<14:31,  2.59s/it]Train NLL: 8.655, Val NLL: 8.655:  16%|█▌        | 64/400 [02:54<14:18,  2.56s/it]Train NLL: 8.670, Val NLL: 8.700:  16%|█▋        | 65/400 [02:56<14:07,  2.53s/it]Train NLL: 8.675, Val NLL: 8.707:  16%|█▋        | 66/400 [02:59<14:00,  2.52s/it]Train NLL: 8.676, Val NLL: 8.673:  17%|█▋        | 67/400 [03:01<13:54,  2.51s/it]Train NLL: 8.660, Val NLL: 8.659:  17%|█▋        | 68/400 [03:04<13:47,  2.49s/it]Train NLL: 8.659, Val NLL: 8.670:  17%|█▋        | 69/400 [03:06<13:43,  2.49s/it]Train NLL: 8.661, Val NLL: 8.688:  18%|█▊        | 70/400 [03:08<13:39,  2.48s/it]Train NLL: 8.666, Val NLL: 8.723:  18%|█▊        | 71/400 [03:11<13:35,  2.48s/it]Train NLL: 8.667, Val NLL: 8.676:  18%|█▊        | 72/400 [03:13<13:31,  2.48s/it]Train NLL: 8.667, Val NLL: 8.682:  18%|█▊        | 73/400 [03:16<13:28,  2.47s/it]Train NLL: 8.665, Val NLL: 8.693:  18%|█▊        | 74/400 [03:18<13:27,  2.48s/it]Train NLL: 8.662, Val NLL: 8.673:  19%|█▉        | 75/400 [03:21<13:33,  2.50s/it]Train NLL: 8.664, Val NLL: 8.657:  19%|█▉        | 76/400 [03:24<13:39,  2.53s/it]Train NLL: 8.663, Val NLL: 8.653:  19%|█▉        | 77/400 [03:26<13:34,  2.52s/it]Train NLL: 8.658, Val NLL: 8.668:  20%|█▉        | 78/400 [03:29<13:35,  2.53s/it]Train NLL: 8.659, Val NLL: 8.666:  20%|█▉        | 79/400 [03:31<13:40,  2.56s/it]Train NLL: 8.659, Val NLL: 8.694:  20%|██        | 80/400 [03:34<13:27,  2.52s/it]Train NLL: 8.663, Val NLL: 8.671:  20%|██        | 81/400 [03:36<13:31,  2.54s/it]Train NLL: 8.667, Val NLL: 8.674:  20%|██        | 82/400 [03:39<13:27,  2.54s/it]Train NLL: 8.663, Val NLL: 8.663:  21%|██        | 83/400 [03:41<13:43,  2.60s/it]Train NLL: 8.657, Val NLL: 8.661:  21%|██        | 84/400 [03:44<14:01,  2.66s/it]Epoch    85: reducing learning rate of group 0 to 1.0000e-03.
Train NLL: 8.665, Val NLL: 8.670:  21%|██▏       | 85/400 [03:47<13:43,  2.61s/it]Train NLL: 8.626, Val NLL: 8.640:  22%|██▏       | 86/400 [03:49<13:29,  2.58s/it]Train NLL: 8.621, Val NLL: 8.641:  22%|██▏       | 87/400 [03:52<13:17,  2.55s/it]Train NLL: 8.621, Val NLL: 8.639:  22%|██▏       | 88/400 [03:54<13:05,  2.52s/it]Train NLL: 8.621, Val NLL: 8.640:  22%|██▏       | 89/400 [03:57<12:55,  2.49s/it]Train NLL: 8.620, Val NLL: 8.639:  22%|██▎       | 90/400 [03:59<12:48,  2.48s/it]Train NLL: 8.621, Val NLL: 8.638:  23%|██▎       | 91/400 [04:02<12:49,  2.49s/it]Train NLL: 8.620, Val NLL: 8.640:  23%|██▎       | 92/400 [04:04<12:44,  2.48s/it]Train NLL: 8.620, Val NLL: 8.638:  23%|██▎       | 93/400 [04:07<12:38,  2.47s/it]Train NLL: 8.619, Val NLL: 8.637:  24%|██▎       | 94/400 [04:09<12:42,  2.49s/it]Train NLL: 8.620, Val NLL: 8.637:  24%|██▍       | 95/400 [04:11<12:34,  2.48s/it]Train NLL: 8.619, Val NLL: 8.639:  24%|██▍       | 96/400 [04:14<12:50,  2.53s/it]Train NLL: 8.620, Val NLL: 8.641:  24%|██▍       | 97/400 [04:17<12:41,  2.51s/it]Train NLL: 8.620, Val NLL: 8.637:  24%|██▍       | 98/400 [04:19<12:34,  2.50s/it]Train NLL: 8.620, Val NLL: 8.638:  25%|██▍       | 99/400 [04:22<12:40,  2.53s/it]Train NLL: 8.620, Val NLL: 8.638:  25%|██▌       | 100/400 [04:24<12:47,  2.56s/it]Train NLL: 8.620, Val NLL: 8.638:  25%|██▌       | 101/400 [04:27<12:40,  2.54s/it]Train NLL: 8.622, Val NLL: 8.640:  26%|██▌       | 102/400 [04:29<12:31,  2.52s/it]Train NLL: 8.619, Val NLL: 8.637:  26%|██▌       | 103/400 [04:32<12:25,  2.51s/it]Train NLL: 8.619, Val NLL: 8.637:  26%|██▌       | 104/400 [04:34<12:22,  2.51s/it]Train NLL: 8.620, Val NLL: 8.638:  26%|██▋       | 105/400 [04:37<12:17,  2.50s/it]Train NLL: 8.619, Val NLL: 8.643:  26%|██▋       | 106/400 [04:39<12:13,  2.49s/it]Train NLL: 8.620, Val NLL: 8.639:  27%|██▋       | 107/400 [04:42<12:08,  2.49s/it]Train NLL: 8.621, Val NLL: 8.638:  27%|██▋       | 108/400 [04:44<12:04,  2.48s/it]Train NLL: 8.619, Val NLL: 8.642:  27%|██▋       | 109/400 [04:47<12:01,  2.48s/it]Train NLL: 8.620, Val NLL: 8.638:  28%|██▊       | 110/400 [04:49<12:09,  2.52s/it]Train NLL: 8.620, Val NLL: 8.636:  28%|██▊       | 111/400 [04:52<12:23,  2.57s/it]Train NLL: 8.620, Val NLL: 8.639:  28%|██▊       | 112/400 [04:55<12:28,  2.60s/it]Train NLL: 8.619, Val NLL: 8.638:  28%|██▊       | 113/400 [04:57<12:33,  2.62s/it]Train NLL: 8.620, Val NLL: 8.639:  28%|██▊       | 114/400 [05:00<12:23,  2.60s/it]Epoch   115: reducing learning rate of group 0 to 1.0000e-04.
Train NLL: 8.619, Val NLL: 8.639:  29%|██▉       | 115/400 [05:02<12:19,  2.60s/it]Train NLL: 8.616, Val NLL: 8.636:  29%|██▉       | 116/400 [05:05<12:14,  2.59s/it]Train NLL: 8.615, Val NLL: 8.636:  29%|██▉       | 117/400 [05:08<12:17,  2.60s/it]Train NLL: 8.614, Val NLL: 8.636:  30%|██▉       | 118/400 [05:10<12:28,  2.66s/it]Train NLL: 8.614, Val NLL: 8.635:  30%|██▉       | 119/400 [05:13<12:25,  2.65s/it]Train NLL: 8.614, Val NLL: 8.635:  30%|███       | 120/400 [05:16<12:37,  2.71s/it]Train NLL: 8.614, Val NLL: 8.636:  30%|███       | 121/400 [05:19<12:58,  2.79s/it]Train NLL: 8.614, Val NLL: 8.636:  30%|███       | 122/400 [05:21<12:29,  2.70s/it]Train NLL: 8.614, Val NLL: 8.636:  31%|███       | 123/400 [05:24<12:20,  2.67s/it]Train NLL: 8.614, Val NLL: 8.636:  31%|███       | 124/400 [05:26<12:00,  2.61s/it]Train NLL: 8.614, Val NLL: 8.636:  31%|███▏      | 125/400 [05:29<11:45,  2.57s/it]Train NLL: 8.614, Val NLL: 8.636:  32%|███▏      | 126/400 [05:31<11:38,  2.55s/it]Train NLL: 8.614, Val NLL: 8.636:  32%|███▏      | 127/400 [05:34<11:34,  2.55s/it]Train NLL: 8.614, Val NLL: 8.636:  32%|███▏      | 128/400 [05:37<11:40,  2.58s/it]Train NLL: 8.614, Val NLL: 8.636:  32%|███▏      | 129/400 [05:39<11:38,  2.58s/it]Train NLL: 8.614, Val NLL: 8.636:  32%|███▎      | 130/400 [05:42<11:32,  2.57s/it]Train NLL: 8.614, Val NLL: 8.636:  33%|███▎      | 131/400 [05:44<11:27,  2.56s/it]Train NLL: 8.614, Val NLL: 8.636:  33%|███▎      | 132/400 [05:47<11:30,  2.58s/it]Train NLL: 8.614, Val NLL: 8.636:  33%|███▎      | 133/400 [05:49<11:23,  2.56s/it]Train NLL: 8.614, Val NLL: 8.636:  34%|███▎      | 134/400 [05:52<11:14,  2.54s/it]Train NLL: 8.614, Val NLL: 8.636:  34%|███▍      | 135/400 [05:54<11:10,  2.53s/it]Train NLL: 8.614, Val NLL: 8.636:  34%|███▍      | 136/400 [05:57<11:07,  2.53s/it]Train NLL: 8.614, Val NLL: 8.635:  34%|███▍      | 137/400 [06:00<11:26,  2.61s/it]Epoch   138: reducing learning rate of group 0 to 1.0000e-05.
Train NLL: 8.614, Val NLL: 8.635:  34%|███▍      | 138/400 [06:02<11:26,  2.62s/it]Train NLL: 8.613, Val NLL: 8.636:  35%|███▍      | 139/400 [06:05<11:41,  2.69s/it]Train NLL: 8.613, Val NLL: 8.636:  35%|███▌      | 140/400 [06:08<11:47,  2.72s/it]Train NLL: 8.613, Val NLL: 8.636:  35%|███▌      | 141/400 [06:11<12:10,  2.82s/it]Train NLL: 8.613, Val NLL: 8.636:  36%|███▌      | 142/400 [06:14<12:49,  2.98s/it]Train NLL: 8.613, Val NLL: 8.636:  36%|███▌      | 143/400 [06:17<12:43,  2.97s/it]Train NLL: 8.613, Val NLL: 8.636:  36%|███▌      | 144/400 [06:20<12:42,  2.98s/it]Train NLL: 8.613, Val NLL: 8.636:  36%|███▋      | 145/400 [06:23<12:29,  2.94s/it]Train NLL: 8.613, Val NLL: 8.636:  36%|███▋      | 146/400 [06:26<12:03,  2.85s/it]Train NLL: 8.613, Val NLL: 8.636:  37%|███▋      | 147/400 [06:29<12:00,  2.85s/it]Train NLL: 8.613, Val NLL: 8.636:  37%|███▋      | 148/400 [06:32<12:03,  2.87s/it]Train NLL: 8.613, Val NLL: 8.636:  37%|███▋      | 149/400 [06:35<12:08,  2.90s/it]Train NLL: 8.613, Val NLL: 8.636:  38%|███▊      | 150/400 [06:38<12:05,  2.90s/it]Train NLL: 8.613, Val NLL: 8.636:  38%|███▊      | 151/400 [06:40<11:57,  2.88s/it]Train NLL: 8.613, Val NLL: 8.636:  38%|███▊      | 152/400 [06:44<12:17,  2.97s/it]Train NLL: 8.613, Val NLL: 8.636:  38%|███▊      | 153/400 [06:47<12:28,  3.03s/it]Train NLL: 8.613, Val NLL: 8.636:  38%|███▊      | 154/400 [06:49<12:05,  2.95s/it]Train NLL: 8.613, Val NLL: 8.636:  39%|███▉      | 155/400 [06:53<12:14,  3.00s/it]Train NLL: 8.613, Val NLL: 8.636:  39%|███▉      | 156/400 [06:55<11:58,  2.94s/it]Train NLL: 8.613, Val NLL: 8.636:  39%|███▉      | 157/400 [06:58<11:47,  2.91s/it]Train NLL: 8.613, Val NLL: 8.636:  40%|███▉      | 158/400 [07:01<12:05,  3.00s/it]Train NLL: 8.613, Val NLL: 8.636:  40%|███▉      | 159/400 [07:04<11:52,  2.95s/it]Epoch   160: reducing learning rate of group 0 to 1.0000e-06.
Train NLL: 8.613, Val NLL: 8.636:  40%|████      | 160/400 [07:07<11:59,  3.00s/it]Train NLL: 8.613, Val NLL: 8.636:  40%|████      | 161/400 [07:10<11:57,  3.00s/it]Train NLL: 8.613, Val NLL: 8.636:  40%|████      | 162/400 [07:13<12:00,  3.03s/it]Train NLL: 8.613, Val NLL: 8.636:  41%|████      | 163/400 [07:17<12:28,  3.16s/it]Train NLL: 8.613, Val NLL: 8.636:  41%|████      | 164/400 [07:20<12:41,  3.23s/it]Train NLL: 8.613, Val NLL: 8.636:  41%|████▏     | 165/400 [07:23<12:17,  3.14s/it]Train NLL: 8.613, Val NLL: 8.636:  42%|████▏     | 166/400 [07:26<11:35,  2.97s/it]Train NLL: 8.613, Val NLL: 8.636:  42%|████▏     | 167/400 [07:28<11:07,  2.86s/it]Train NLL: 8.613, Val NLL: 8.636:  42%|████▏     | 168/400 [07:31<10:39,  2.76s/it]Train NLL: 8.613, Val NLL: 8.636:  42%|████▏     | 169/400 [07:33<10:20,  2.69s/it]Train NLL: 8.613, Val NLL: 8.636:  42%|████▎     | 170/400 [07:36<10:06,  2.64s/it]Train NLL: 8.613, Val NLL: 8.636:  43%|████▎     | 171/400 [07:39<10:31,  2.76s/it]Train NLL: 8.613, Val NLL: 8.636:  43%|████▎     | 172/400 [07:42<10:21,  2.72s/it]Train NLL: 8.613, Val NLL: 8.636:  43%|████▎     | 173/400 [07:44<10:09,  2.68s/it]Train NLL: 8.613, Val NLL: 8.636:  44%|████▎     | 174/400 [07:47<09:53,  2.63s/it]Train NLL: 8.613, Val NLL: 8.636:  44%|████▍     | 175/400 [07:49<09:41,  2.58s/it]Train NLL: 8.613, Val NLL: 8.636:  44%|████▍     | 176/400 [07:52<09:33,  2.56s/it]Train NLL: 8.613, Val NLL: 8.636:  44%|████▍     | 177/400 [07:54<09:28,  2.55s/it]Train NLL: 8.613, Val NLL: 8.636:  44%|████▍     | 178/400 [07:57<09:21,  2.53s/it]Train NLL: 8.613, Val NLL: 8.636:  45%|████▍     | 179/400 [07:59<09:23,  2.55s/it]Train NLL: 8.613, Val NLL: 8.636:  45%|████▌     | 180/400 [08:02<09:48,  2.68s/it]Train NLL: 8.613, Val NLL: 8.636:  45%|████▌     | 181/400 [08:05<10:14,  2.81s/it]Train NLL: 8.613, Val NLL: 8.636:  46%|████▌     | 182/400 [08:08<10:23,  2.86s/it]Train NLL: 8.613, Val NLL: 8.636:  46%|████▌     | 183/400 [08:12<10:38,  2.94s/it]Train NLL: 8.613, Val NLL: 8.636:  46%|████▌     | 184/400 [08:14<10:30,  2.92s/it]Train NLL: 8.613, Val NLL: 8.636:  46%|████▋     | 185/400 [08:18<10:41,  2.98s/it]Train NLL: 8.613, Val NLL: 8.636:  46%|████▋     | 186/400 [08:21<10:39,  2.99s/it]Train NLL: 8.613, Val NLL: 8.636:  47%|████▋     | 187/400 [08:23<10:24,  2.93s/it]Train NLL: 8.613, Val NLL: 8.636:  47%|████▋     | 188/400 [08:26<10:24,  2.95s/it]Train NLL: 8.613, Val NLL: 8.636:  47%|████▋     | 189/400 [08:29<10:30,  2.99s/it]Train NLL: 8.613, Val NLL: 8.636:  48%|████▊     | 190/400 [08:32<10:30,  3.00s/it]Train NLL: 8.613, Val NLL: 8.636:  48%|████▊     | 191/400 [08:35<10:20,  2.97s/it]Train NLL: 8.613, Val NLL: 8.636:  48%|████▊     | 192/400 [08:38<09:59,  2.88s/it]Train NLL: 8.613, Val NLL: 8.636:  48%|████▊     | 193/400 [08:41<10:05,  2.92s/it]Train NLL: 8.613, Val NLL: 8.636:  48%|████▊     | 194/400 [08:44<10:17,  3.00s/it]Train NLL: 8.613, Val NLL: 8.636:  49%|████▉     | 195/400 [08:47<10:29,  3.07s/it]Train NLL: 8.613, Val NLL: 8.636:  49%|████▉     | 196/400 [08:50<10:17,  3.03s/it]Train NLL: 8.613, Val NLL: 8.636:  49%|████▉     | 197/400 [08:54<10:23,  3.07s/it]Train NLL: 8.613, Val NLL: 8.636:  50%|████▉     | 198/400 [08:57<10:15,  3.05s/it]Train NLL: 8.613, Val NLL: 8.636:  50%|████▉     | 199/400 [09:00<10:07,  3.02s/it]Train NLL: 8.613, Val NLL: 8.636:  50%|█████     | 200/400 [09:02<09:53,  2.97s/it]Train NLL: 8.613, Val NLL: 8.636:  50%|█████     | 201/400 [09:05<09:36,  2.90s/it]Train NLL: 8.613, Val NLL: 8.636:  50%|█████     | 202/400 [09:08<09:24,  2.85s/it]Train NLL: 8.613, Val NLL: 8.636:  51%|█████     | 203/400 [09:11<09:14,  2.81s/it]Train NLL: 8.613, Val NLL: 8.636:  51%|█████     | 204/400 [09:13<09:01,  2.76s/it]Train NLL: 8.613, Val NLL: 8.636:  51%|█████▏    | 205/400 [09:16<08:49,  2.72s/it]Train NLL: 8.613, Val NLL: 8.636:  52%|█████▏    | 206/400 [09:19<08:49,  2.73s/it]Train NLL: 8.613, Val NLL: 8.636:  52%|█████▏    | 207/400 [09:21<08:53,  2.77s/it]Train NLL: 8.613, Val NLL: 8.636:  52%|█████▏    | 208/400 [09:25<09:10,  2.87s/it]Train NLL: 8.613, Val NLL: 8.636:  52%|█████▏    | 209/400 [09:27<08:56,  2.81s/it]Train NLL: 8.613, Val NLL: 8.636:  52%|█████▎    | 210/400 [09:30<08:45,  2.77s/it]Train NLL: 8.613, Val NLL: 8.636:  53%|█████▎    | 211/400 [09:33<08:45,  2.78s/it]Train NLL: 8.613, Val NLL: 8.636:  53%|█████▎    | 212/400 [09:35<08:36,  2.75s/it]Train NLL: 8.613, Val NLL: 8.636:  53%|█████▎    | 213/400 [09:38<08:31,  2.74s/it]Train NLL: 8.613, Val NLL: 8.636:  54%|█████▎    | 214/400 [09:41<08:25,  2.72s/it]Train NLL: 8.613, Val NLL: 8.636:  54%|█████▍    | 215/400 [09:43<08:21,  2.71s/it]Train NLL: 8.613, Val NLL: 8.636:  54%|█████▍    | 216/400 [09:46<08:11,  2.67s/it]Train NLL: 8.613, Val NLL: 8.636:  54%|█████▍    | 217/400 [09:49<08:08,  2.67s/it]Train NLL: 8.613, Val NLL: 8.636:  55%|█████▍    | 218/400 [09:52<08:19,  2.75s/it]Train NLL: 8.613, Val NLL: 8.636:  55%|█████▍    | 219/400 [09:55<08:30,  2.82s/it]Train NLL: 8.613, Val NLL: 8.636:  55%|█████▌    | 220/400 [09:57<08:24,  2.80s/it]Train NLL: 8.613, Val NLL: 8.636:  55%|█████▌    | 221/400 [10:00<08:24,  2.82s/it]Train NLL: 8.613, Val NLL: 8.636:  56%|█████▌    | 222/400 [10:03<08:13,  2.77s/it]Train NLL: 8.613, Val NLL: 8.636:  56%|█████▌    | 223/400 [10:06<08:03,  2.73s/it]Train NLL: 8.613, Val NLL: 8.636:  56%|█████▌    | 224/400 [10:09<08:15,  2.81s/it]Train NLL: 8.613, Val NLL: 8.636:  56%|█████▋    | 225/400 [10:11<08:04,  2.77s/it]Train NLL: 8.613, Val NLL: 8.636:  56%|█████▋    | 226/400 [10:14<08:07,  2.80s/it]Train NLL: 8.613, Val NLL: 8.636:  57%|█████▋    | 227/400 [10:17<08:24,  2.92s/it]Train NLL: 8.613, Val NLL: 8.636:  57%|█████▋    | 228/400 [10:20<08:16,  2.88s/it]Train NLL: 8.613, Val NLL: 8.636:  57%|█████▋    | 229/400 [10:23<08:06,  2.85s/it]Train NLL: 8.613, Val NLL: 8.636:  57%|█████▊    | 230/400 [10:26<08:32,  3.01s/it]Train NLL: 8.613, Val NLL: 8.636:  58%|█████▊    | 231/400 [10:29<08:06,  2.88s/it]Train NLL: 8.613, Val NLL: 8.636:  58%|█████▊    | 232/400 [10:31<07:49,  2.80s/it]Train NLL: 8.613, Val NLL: 8.636:  58%|█████▊    | 233/400 [10:34<07:40,  2.76s/it]Train NLL: 8.613, Val NLL: 8.636:  58%|█████▊    | 234/400 [10:37<07:28,  2.70s/it]Train NLL: 8.613, Val NLL: 8.636:  59%|█████▉    | 235/400 [10:39<07:18,  2.66s/it]Train NLL: 8.613, Val NLL: 8.636:  59%|█████▉    | 236/400 [10:42<07:31,  2.75s/it]Train NLL: 8.613, Val NLL: 8.636:  59%|█████▉    | 237/400 [10:45<07:21,  2.71s/it]Train NLL: 8.613, Val NLL: 8.636:  60%|█████▉    | 238/400 [10:47<07:15,  2.69s/it]Train NLL: 8.613, Val NLL: 8.636:  60%|█████▉    | 239/400 [10:50<07:17,  2.72s/it]Train NLL: 8.613, Val NLL: 8.636:  60%|██████    | 240/400 [10:53<07:38,  2.87s/it]Train NLL: 8.613, Val NLL: 8.636:  60%|██████    | 241/400 [10:56<07:46,  2.93s/it]Train NLL: 8.613, Val NLL: 8.636:  60%|██████    | 242/400 [11:00<08:30,  3.23s/it]Train NLL: 8.613, Val NLL: 8.636:  61%|██████    | 243/400 [11:04<09:03,  3.46s/it]Train NLL: 8.613, Val NLL: 8.636:  61%|██████    | 244/400 [11:07<08:36,  3.31s/it]Train NLL: 8.613, Val NLL: 8.636:  61%|██████▏   | 245/400 [11:10<08:18,  3.22s/it]Train NLL: 8.613, Val NLL: 8.636:  62%|██████▏   | 246/400 [11:14<08:13,  3.20s/it]Train NLL: 8.613, Val NLL: 8.636:  62%|██████▏   | 247/400 [11:16<07:51,  3.08s/it]Train NLL: 8.613, Val NLL: 8.636:  62%|██████▏   | 248/400 [11:19<07:23,  2.92s/it]Train NLL: 8.613, Val NLL: 8.636:  62%|██████▏   | 249/400 [11:21<07:02,  2.80s/it]Train NLL: 8.613, Val NLL: 8.636:  62%|██████▎   | 250/400 [11:24<06:44,  2.69s/it]Train NLL: 8.613, Val NLL: 8.636:  63%|██████▎   | 251/400 [11:26<06:34,  2.65s/it]Train NLL: 8.613, Val NLL: 8.636:  63%|██████▎   | 252/400 [11:29<06:29,  2.63s/it]Train NLL: 8.613, Val NLL: 8.636:  63%|██████▎   | 253/400 [11:32<06:22,  2.60s/it]Train NLL: 8.613, Val NLL: 8.636:  64%|██████▎   | 254/400 [11:34<06:29,  2.67s/it]Train NLL: 8.613, Val NLL: 8.636:  64%|██████▍   | 255/400 [11:38<07:06,  2.94s/it]Train NLL: 8.613, Val NLL: 8.636:  64%|██████▍   | 256/400 [11:41<07:07,  2.97s/it]Train NLL: 8.613, Val NLL: 8.636:  64%|██████▍   | 257/400 [11:44<07:04,  2.97s/it]Train NLL: 8.613, Val NLL: 8.636:  64%|██████▍   | 258/400 [11:47<06:55,  2.93s/it]Train NLL: 8.613, Val NLL: 8.636:  65%|██████▍   | 259/400 [11:49<06:42,  2.86s/it]Train NLL: 8.613, Val NLL: 8.636:  65%|██████▌   | 260/400 [11:52<06:37,  2.84s/it]Train NLL: 8.613, Val NLL: 8.636:  65%|██████▌   | 261/400 [11:55<06:37,  2.86s/it]Train NLL: 8.613, Val NLL: 8.636:  66%|██████▌   | 262/400 [11:58<06:45,  2.94s/it]Train NLL: 8.613, Val NLL: 8.636:  66%|██████▌   | 263/400 [12:02<07:14,  3.17s/it]Train NLL: 8.613, Val NLL: 8.636:  66%|██████▌   | 264/400 [12:05<07:16,  3.21s/it]Train NLL: 8.613, Val NLL: 8.636:  66%|██████▋   | 265/400 [12:09<07:16,  3.23s/it]Train NLL: 8.613, Val NLL: 8.636:  66%|██████▋   | 266/400 [12:12<07:27,  3.34s/it]Train NLL: 8.613, Val NLL: 8.636:  67%|██████▋   | 267/400 [12:15<07:05,  3.20s/it]Train NLL: 8.613, Val NLL: 8.636:  67%|██████▋   | 268/400 [12:18<06:50,  3.11s/it]Train NLL: 8.613, Val NLL: 8.636:  67%|██████▋   | 269/400 [12:21<06:39,  3.05s/it]Train NLL: 8.613, Val NLL: 8.636:  68%|██████▊   | 270/400 [12:24<06:30,  3.01s/it]Train NLL: 8.613, Val NLL: 8.636:  68%|██████▊   | 271/400 [12:27<06:24,  2.98s/it]Train NLL: 8.613, Val NLL: 8.636:  68%|██████▊   | 272/400 [12:30<06:30,  3.05s/it]Train NLL: 8.613, Val NLL: 8.636:  68%|██████▊   | 273/400 [12:33<06:28,  3.06s/it]Train NLL: 8.613, Val NLL: 8.636:  68%|██████▊   | 274/400 [12:36<06:11,  2.95s/it]Train NLL: 8.613, Val NLL: 8.636:  69%|██████▉   | 275/400 [12:38<05:50,  2.80s/it]Train NLL: 8.613, Val NLL: 8.636:  69%|██████▉   | 276/400 [12:41<05:34,  2.70s/it]Train NLL: 8.613, Val NLL: 8.636:  69%|██████▉   | 277/400 [12:43<05:28,  2.67s/it]Train NLL: 8.613, Val NLL: 8.636:  70%|██████▉   | 278/400 [12:46<05:24,  2.66s/it]Train NLL: 8.613, Val NLL: 8.636:  70%|██████▉   | 279/400 [12:48<05:20,  2.65s/it]Train NLL: 8.613, Val NLL: 8.636:  70%|███████   | 280/400 [12:51<05:30,  2.75s/it]Train NLL: 8.613, Val NLL: 8.636:  70%|███████   | 281/400 [12:54<05:33,  2.81s/it]Train NLL: 8.613, Val NLL: 8.636:  70%|███████   | 282/400 [12:57<05:31,  2.81s/it]Train NLL: 8.613, Val NLL: 8.636:  71%|███████   | 283/400 [13:00<05:27,  2.80s/it]Train NLL: 8.613, Val NLL: 8.636:  71%|███████   | 284/400 [13:03<05:18,  2.75s/it]Train NLL: 8.613, Val NLL: 8.636:  71%|███████▏  | 285/400 [13:05<05:12,  2.71s/it]Train NLL: 8.613, Val NLL: 8.636:  72%|███████▏  | 286/400 [13:08<05:05,  2.68s/it]Train NLL: 8.613, Val NLL: 8.636:  72%|███████▏  | 287/400 [13:11<05:24,  2.87s/it]Train NLL: 8.613, Val NLL: 8.636:  72%|███████▏  | 288/400 [13:14<05:17,  2.84s/it]Train NLL: 8.613, Val NLL: 8.636:  72%|███████▏  | 289/400 [13:17<05:11,  2.80s/it]Train NLL: 8.613, Val NLL: 8.636:  72%|███████▎  | 290/400 [13:19<05:03,  2.76s/it]Train NLL: 8.613, Val NLL: 8.636:  73%|███████▎  | 291/400 [13:22<04:55,  2.71s/it]Train NLL: 8.613, Val NLL: 8.636:  73%|███████▎  | 292/400 [13:24<04:43,  2.62s/it]Train NLL: 8.613, Val NLL: 8.636:  73%|███████▎  | 293/400 [13:27<04:37,  2.59s/it]Train NLL: 8.613, Val NLL: 8.636:  74%|███████▎  | 294/400 [13:29<04:35,  2.60s/it]Train NLL: 8.613, Val NLL: 8.636:  74%|███████▍  | 295/400 [13:32<04:34,  2.61s/it]Train NLL: 8.613, Val NLL: 8.636:  74%|███████▍  | 296/400 [13:35<04:32,  2.62s/it]Train NLL: 8.613, Val NLL: 8.636:  74%|███████▍  | 297/400 [13:37<04:26,  2.59s/it]Train NLL: 8.613, Val NLL: 8.636:  74%|███████▍  | 298/400 [13:40<04:35,  2.70s/it]Train NLL: 8.613, Val NLL: 8.636:  75%|███████▍  | 299/400 [13:44<04:52,  2.90s/it]Train NLL: 8.613, Val NLL: 8.636:  75%|███████▌  | 300/400 [13:47<05:08,  3.08s/it]Train NLL: 8.613, Val NLL: 8.636:  75%|███████▌  | 301/400 [13:50<05:12,  3.15s/it]Train NLL: 8.613, Val NLL: 8.636:  76%|███████▌  | 302/400 [13:53<05:05,  3.12s/it]Train NLL: 8.613, Val NLL: 8.636:  76%|███████▌  | 303/400 [13:57<05:08,  3.19s/it]Train NLL: 8.613, Val NLL: 8.636:  76%|███████▌  | 304/400 [14:00<05:18,  3.32s/it]Train NLL: 8.613, Val NLL: 8.636:  76%|███████▋  | 305/400 [14:03<05:08,  3.25s/it]Train NLL: 8.613, Val NLL: 8.636:  76%|███████▋  | 306/400 [14:06<04:53,  3.13s/it]Train NLL: 8.613, Val NLL: 8.636:  77%|███████▋  | 307/400 [14:09<04:47,  3.10s/it]Train NLL: 8.613, Val NLL: 8.636:  77%|███████▋  | 308/400 [14:12<04:27,  2.91s/it]Train NLL: 8.613, Val NLL: 8.636:  77%|███████▋  | 309/400 [14:14<04:16,  2.82s/it]Train NLL: 8.613, Val NLL: 8.636:  78%|███████▊  | 310/400 [14:17<04:06,  2.74s/it]Train NLL: 8.613, Val NLL: 8.636:  78%|███████▊  | 311/400 [14:20<04:08,  2.80s/it]Train NLL: 8.613, Val NLL: 8.636:  78%|███████▊  | 312/400 [14:23<04:23,  3.00s/it]Train NLL: 8.613, Val NLL: 8.636:  78%|███████▊  | 313/400 [14:26<04:21,  3.00s/it]Train NLL: 8.613, Val NLL: 8.636:  78%|███████▊  | 314/400 [14:29<04:18,  3.00s/it]Train NLL: 8.613, Val NLL: 8.636:  79%|███████▉  | 315/400 [14:32<04:15,  3.01s/it]Train NLL: 8.613, Val NLL: 8.636:  79%|███████▉  | 316/400 [14:36<04:18,  3.08s/it]Train NLL: 8.613, Val NLL: 8.636:  79%|███████▉  | 317/400 [14:39<04:14,  3.07s/it]Train NLL: 8.613, Val NLL: 8.636:  80%|███████▉  | 318/400 [14:42<04:15,  3.12s/it]Train NLL: 8.613, Val NLL: 8.636:  80%|███████▉  | 319/400 [14:46<04:32,  3.37s/it]Train NLL: 8.613, Val NLL: 8.636:  80%|████████  | 320/400 [14:49<04:23,  3.30s/it]Train NLL: 8.613, Val NLL: 8.636:  80%|████████  | 321/400 [14:52<04:14,  3.23s/it]Train NLL: 8.613, Val NLL: 8.636:  80%|████████  | 322/400 [14:55<04:00,  3.08s/it]Train NLL: 8.613, Val NLL: 8.636:  81%|████████  | 323/400 [14:58<04:00,  3.13s/it]Train NLL: 8.613, Val NLL: 8.636:  81%|████████  | 324/400 [15:01<03:57,  3.12s/it]Train NLL: 8.613, Val NLL: 8.636:  81%|████████▏ | 325/400 [15:04<03:45,  3.00s/it]Train NLL: 8.613, Val NLL: 8.636:  82%|████████▏ | 326/400 [15:07<03:34,  2.90s/it]Train NLL: 8.613, Val NLL: 8.636:  82%|████████▏ | 327/400 [15:09<03:26,  2.83s/it]Train NLL: 8.613, Val NLL: 8.636:  82%|████████▏ | 328/400 [15:12<03:25,  2.86s/it]Train NLL: 8.613, Val NLL: 8.636:  82%|████████▏ | 329/400 [15:15<03:19,  2.80s/it]Train NLL: 8.613, Val NLL: 8.636:  82%|████████▎ | 330/400 [15:18<03:19,  2.85s/it]Train NLL: 8.613, Val NLL: 8.636:  83%|████████▎ | 331/400 [15:20<03:12,  2.79s/it]Train NLL: 8.613, Val NLL: 8.636:  83%|████████▎ | 332/400 [15:23<03:07,  2.75s/it]Train NLL: 8.613, Val NLL: 8.636:  83%|████████▎ | 333/400 [15:26<03:03,  2.74s/it]Train NLL: 8.613, Val NLL: 8.636:  84%|████████▎ | 334/400 [15:29<03:02,  2.77s/it]Train NLL: 8.613, Val NLL: 8.636:  84%|████████▍ | 335/400 [15:31<02:55,  2.70s/it]Train NLL: 8.613, Val NLL: 8.636:  84%|████████▍ | 336/400 [15:34<02:54,  2.73s/it]Train NLL: 8.613, Val NLL: 8.636:  84%|████████▍ | 337/400 [15:37<02:50,  2.70s/it]Train NLL: 8.613, Val NLL: 8.636:  84%|████████▍ | 338/400 [15:39<02:45,  2.67s/it]Train NLL: 8.613, Val NLL: 8.636:  85%|████████▍ | 339/400 [15:42<02:50,  2.79s/it]Train NLL: 8.613, Val NLL: 8.636:  85%|████████▌ | 340/400 [15:46<02:58,  2.97s/it]Train NLL: 8.613, Val NLL: 8.636:  85%|████████▌ | 341/400 [15:50<03:15,  3.32s/it]Train NLL: 8.613, Val NLL: 8.636:  86%|████████▌ | 342/400 [15:54<03:26,  3.55s/it]Train NLL: 8.613, Val NLL: 8.636:  86%|████████▌ | 343/400 [15:58<03:28,  3.66s/it]Train NLL: 8.613, Val NLL: 8.636:  86%|████████▌ | 344/400 [16:01<03:13,  3.46s/it]Train NLL: 8.613, Val NLL: 8.636:  86%|████████▋ | 345/400 [16:04<03:00,  3.28s/it]Train NLL: 8.613, Val NLL: 8.636:  86%|████████▋ | 346/400 [16:07<02:50,  3.16s/it]Train NLL: 8.613, Val NLL: 8.636:  87%|████████▋ | 347/400 [16:09<02:41,  3.05s/it]Train NLL: 8.613, Val NLL: 8.636:  87%|████████▋ | 348/400 [16:12<02:38,  3.04s/it]Train NLL: 8.613, Val NLL: 8.636:  87%|████████▋ | 349/400 [16:15<02:32,  3.00s/it]Train NLL: 8.613, Val NLL: 8.636:  88%|████████▊ | 350/400 [16:18<02:30,  3.01s/it]Train NLL: 8.613, Val NLL: 8.636:  88%|████████▊ | 351/400 [16:21<02:27,  3.02s/it]Train NLL: 8.613, Val NLL: 8.636:  88%|████████▊ | 352/400 [16:24<02:21,  2.94s/it]Train NLL: 8.613, Val NLL: 8.636:  88%|████████▊ | 353/400 [16:27<02:14,  2.87s/it]Train NLL: 8.613, Val NLL: 8.636:  88%|████████▊ | 354/400 [16:30<02:10,  2.84s/it]Train NLL: 8.613, Val NLL: 8.636:  89%|████████▉ | 355/400 [16:32<02:05,  2.79s/it]Train NLL: 8.613, Val NLL: 8.636:  89%|████████▉ | 356/400 [16:35<02:04,  2.84s/it]Train NLL: 8.613, Val NLL: 8.636:  89%|████████▉ | 357/400 [16:38<02:01,  2.82s/it]Train NLL: 8.613, Val NLL: 8.636:  90%|████████▉ | 358/400 [16:41<01:56,  2.77s/it]Train NLL: 8.613, Val NLL: 8.636:  90%|████████▉ | 359/400 [16:43<01:53,  2.78s/it]Train NLL: 8.613, Val NLL: 8.636:  90%|█████████ | 360/400 [16:46<01:52,  2.80s/it]Train NLL: 8.613, Val NLL: 8.636:  90%|█████████ | 361/400 [16:49<01:52,  2.88s/it]Train NLL: 8.613, Val NLL: 8.636:  90%|█████████ | 362/400 [16:52<01:50,  2.91s/it]Train NLL: 8.613, Val NLL: 8.636:  91%|█████████ | 363/400 [16:55<01:49,  2.97s/it]Train NLL: 8.613, Val NLL: 8.636:  91%|█████████ | 364/400 [16:58<01:46,  2.96s/it]Train NLL: 8.613, Val NLL: 8.636:  91%|█████████▏| 365/400 [17:01<01:41,  2.89s/it]Train NLL: 8.613, Val NLL: 8.636:  92%|█████████▏| 366/400 [17:04<01:38,  2.90s/it]Train NLL: 8.613, Val NLL: 8.636:  92%|█████████▏| 367/400 [17:07<01:35,  2.88s/it]Train NLL: 8.613, Val NLL: 8.636:  92%|█████████▏| 368/400 [17:10<01:32,  2.88s/it]Train NLL: 8.613, Val NLL: 8.636:  92%|█████████▏| 369/400 [17:13<01:30,  2.93s/it]Train NLL: 8.613, Val NLL: 8.636:  92%|█████████▎| 370/400 [17:16<01:28,  2.96s/it]Train NLL: 8.613, Val NLL: 8.636:  93%|█████████▎| 371/400 [17:19<01:26,  2.97s/it]Train NLL: 8.613, Val NLL: 8.636:  93%|█████████▎| 372/400 [17:22<01:22,  2.94s/it]Train NLL: 8.613, Val NLL: 8.636:  93%|█████████▎| 373/400 [17:24<01:17,  2.87s/it]Train NLL: 8.613, Val NLL: 8.636:  94%|█████████▎| 374/400 [17:27<01:13,  2.84s/it]Train NLL: 8.613, Val NLL: 8.636:  94%|█████████▍| 375/400 [17:30<01:09,  2.79s/it]Train NLL: 8.613, Val NLL: 8.636:  94%|█████████▍| 376/400 [17:32<01:05,  2.71s/it]Train NLL: 8.613, Val NLL: 8.636:  94%|█████████▍| 377/400 [17:35<01:00,  2.64s/it]Train NLL: 8.613, Val NLL: 8.636:  94%|█████████▍| 378/400 [17:37<00:56,  2.58s/it]Train NLL: 8.613, Val NLL: 8.636:  95%|█████████▍| 379/400 [17:40<00:53,  2.56s/it]Train NLL: 8.613, Val NLL: 8.636:  95%|█████████▌| 380/400 [17:42<00:50,  2.55s/it]Train NLL: 8.613, Val NLL: 8.636:  95%|█████████▌| 381/400 [17:45<00:47,  2.52s/it]Train NLL: 8.613, Val NLL: 8.636:  96%|█████████▌| 382/400 [17:47<00:45,  2.50s/it]Train NLL: 8.613, Val NLL: 8.636:  96%|█████████▌| 383/400 [17:50<00:42,  2.50s/it]Train NLL: 8.613, Val NLL: 8.636:  96%|█████████▌| 384/400 [17:52<00:39,  2.50s/it]Train NLL: 8.613, Val NLL: 8.636:  96%|█████████▋| 385/400 [17:55<00:37,  2.49s/it]Train NLL: 8.613, Val NLL: 8.636:  96%|█████████▋| 386/400 [17:57<00:35,  2.50s/it]Train NLL: 8.613, Val NLL: 8.636:  97%|█████████▋| 387/400 [18:00<00:32,  2.50s/it]Train NLL: 8.613, Val NLL: 8.636:  97%|█████████▋| 388/400 [18:02<00:29,  2.49s/it]Train NLL: 8.613, Val NLL: 8.636:  97%|█████████▋| 389/400 [18:05<00:27,  2.48s/it]Train NLL: 8.613, Val NLL: 8.636:  98%|█████████▊| 390/400 [18:07<00:24,  2.48s/it]Train NLL: 8.613, Val NLL: 8.636:  98%|█████████▊| 391/400 [18:10<00:22,  2.49s/it]Train NLL: 8.613, Val NLL: 8.636:  98%|█████████▊| 392/400 [18:12<00:19,  2.49s/it]Train NLL: 8.613, Val NLL: 8.636:  98%|█████████▊| 393/400 [18:15<00:17,  2.50s/it]Train NLL: 8.613, Val NLL: 8.636:  98%|█████████▊| 394/400 [18:17<00:14,  2.49s/it]Train NLL: 8.613, Val NLL: 8.636:  99%|█████████▉| 395/400 [18:20<00:12,  2.49s/it]Train NLL: 8.613, Val NLL: 8.636:  99%|█████████▉| 396/400 [18:22<00:09,  2.49s/it]Train NLL: 8.613, Val NLL: 8.636:  99%|█████████▉| 397/400 [18:25<00:07,  2.50s/it]Train NLL: 8.613, Val NLL: 8.636: 100%|█████████▉| 398/400 [18:27<00:05,  2.52s/it]Train NLL: 8.613, Val NLL: 8.636: 100%|█████████▉| 399/400 [18:30<00:02,  2.50s/it]Train NLL: 8.613, Val NLL: 8.636: 100%|██████████| 400/400 [18:32<00:00,  2.49s/it]Train NLL: 8.613, Val NLL: 8.636: 100%|██████████| 400/400 [18:32<00:00,  2.78s/it]
INFO - residual_nf - Completed after 0:18:35
