{
  "batch_size": 100,
  "bn": "ecoli70-alt",
  "decoder_hidden_dims": [
    100
  ],
  "encoder_hidden_dims": [
    100
  ],
  "ex_name": "vanilla_vae",
  "lr": 0.001,
  "normalize": false,
  "num_epochs": 200,
  "num_train_batches": 100,
  "num_train_samples": 10000,
  "num_val_batches": 50,
  "num_val_samples": 5000,
  "path": "./experiment_logs/vanilla_vae/ecoli70-alt/[100]_[100]",
  "patience": 20,
  "plotting_range": null,
  "seed": 0,
  "sub_folder": "[100]_[100]"
}