INFO - continuous_nf - Running command 'run'
INFO - continuous_nf - Started run with ID "3"
Initializing step:
In 7 Out 125
Initializing step:
In 125 Out 125
Initializing step:
In 125 Out 6
  0%|          | 0/150 [00:00<?, ?it/s]Train: 4.362, Val: 3.767:   1%|          | 1/150 [00:05<13:34,  5.47s/it]Train: 3.264, Val: 2.936:   1%|▏         | 2/150 [00:14<18:54,  7.67s/it]Train: 2.590, Val: 2.443:   2%|▏         | 3/150 [00:25<21:59,  8.98s/it]Train: 2.478, Val: 2.369:   3%|▎         | 4/150 [00:36<24:11,  9.94s/it]Train: 2.120, Val: 2.134:   3%|▎         | 5/150 [00:47<25:03, 10.37s/it]Train: 2.066, Val: 1.999:   4%|▍         | 6/150 [01:00<27:00, 11.25s/it]Train: 1.915, Val: 2.030:   5%|▍         | 7/150 [01:13<28:16, 11.87s/it]Train: 1.986, Val: 1.949:   5%|▌         | 8/150 [01:27<29:41, 12.55s/it]Train: 1.946, Val: 1.885:   6%|▌         | 9/150 [01:42<31:06, 13.24s/it]Train: 1.896, Val: 1.875:   7%|▋         | 10/150 [01:56<31:12, 13.38s/it]Train: 1.846, Val: 1.923:   7%|▋         | 11/150 [02:10<31:44, 13.70s/it]Train: 1.940, Val: 1.983:   8%|▊         | 12/150 [02:26<32:39, 14.20s/it]Train: 1.859, Val: 1.831:   9%|▊         | 13/150 [02:41<33:19, 14.59s/it]Train: 1.886, Val: 1.897:   9%|▉         | 14/150 [02:56<33:17, 14.69s/it]Train: 1.838, Val: 1.945:  10%|█         | 15/150 [03:12<34:01, 15.12s/it]Train: 1.882, Val: 1.818:  11%|█         | 16/150 [03:29<34:55, 15.64s/it]Train: 1.821, Val: 1.831:  11%|█▏        | 17/150 [03:45<35:10, 15.87s/it]Train: 1.902, Val: 1.959:  12%|█▏        | 18/150 [04:02<35:16, 16.03s/it]Train: 1.853, Val: 1.870:  13%|█▎        | 19/150 [04:17<34:28, 15.79s/it]Train: 1.852, Val: 1.799:  13%|█▎        | 20/150 [04:33<34:28, 15.91s/it]Train: 1.862, Val: 1.894:  14%|█▍        | 21/150 [04:51<35:19, 16.43s/it]Train: 1.858, Val: 1.861:  15%|█▍        | 22/150 [05:07<34:48, 16.32s/it]Train: 1.847, Val: 1.839:  15%|█▌        | 23/150 [05:23<34:08, 16.13s/it]Train: 1.860, Val: 1.981:  16%|█▌        | 24/150 [05:40<34:55, 16.63s/it]Train: 1.878, Val: 1.879:  17%|█▋        | 25/150 [05:58<35:30, 17.04s/it]Train: 1.826, Val: 1.792:  17%|█▋        | 26/150 [06:15<35:03, 16.96s/it]Train: 1.823, Val: 1.729:  18%|█▊        | 27/150 [06:32<34:53, 17.02s/it]Train: 1.759, Val: 1.798:  19%|█▊        | 28/150 [06:47<33:18, 16.38s/it]Train: 1.812, Val: 1.783:  19%|█▉        | 29/150 [07:03<32:31, 16.13s/it]Train: 1.821, Val: 1.956:  20%|██        | 30/150 [07:20<32:44, 16.37s/it]Train: 1.868, Val: 1.757:  21%|██        | 31/150 [07:36<32:33, 16.42s/it]Train: 1.839, Val: 1.867:  21%|██▏       | 32/150 [07:54<33:10, 16.87s/it]Train: 1.816, Val: 1.869:  22%|██▏       | 33/150 [08:12<33:27, 17.16s/it]Train: 1.912, Val: 1.765:  23%|██▎       | 34/150 [08:29<32:52, 17.01s/it]Train: 1.855, Val: 1.706:  23%|██▎       | 35/150 [08:47<33:11, 17.32s/it]Train: 1.791, Val: 1.863:  24%|██▍       | 36/150 [09:04<33:03, 17.40s/it]Train: 1.794, Val: 1.887:  25%|██▍       | 37/150 [09:23<33:45, 17.92s/it]Train: 1.804, Val: 1.831:  25%|██▌       | 38/150 [09:40<32:32, 17.44s/it]Train: 1.897, Val: 1.770:  26%|██▌       | 39/150 [09:57<32:24, 17.52s/it]Train: 1.825, Val: 1.839:  27%|██▋       | 40/150 [10:14<31:39, 17.27s/it]Train: 1.823, Val: 1.763:  27%|██▋       | 41/150 [10:31<31:16, 17.21s/it]Train: 1.817, Val: 1.812:  28%|██▊       | 42/150 [10:48<30:51, 17.14s/it]Train: 1.767, Val: 1.782:  29%|██▊       | 43/150 [11:05<30:35, 17.16s/it]Train: 1.841, Val: 1.848:  29%|██▉       | 44/150 [11:23<30:27, 17.24s/it]Train: 1.832, Val: 1.831:  30%|███       | 45/150 [11:41<30:31, 17.44s/it]Train: 1.794, Val: 1.747:  31%|███       | 46/150 [11:59<30:39, 17.69s/it]Train: 1.847, Val: 1.880:  31%|███▏      | 47/150 [12:17<30:40, 17.87s/it]Train: 1.774, Val: 1.764:  32%|███▏      | 48/150 [12:35<30:27, 17.92s/it]Epoch    49: reducing learning rate of group 0 to 1.0000e-03.
Train: 1.893, Val: 1.796:  33%|███▎      | 49/150 [12:54<30:20, 18.02s/it]Train: 1.853, Val: 1.980:  33%|███▎      | 50/150 [13:12<30:10, 18.11s/it]Train: 1.825, Val: 1.841:  34%|███▍      | 51/150 [13:30<29:53, 18.11s/it]Train: 1.792, Val: 1.825:  35%|███▍      | 52/150 [13:48<29:29, 18.06s/it]Train: 1.759, Val: 1.822:  35%|███▌      | 53/150 [14:06<29:14, 18.09s/it]Train: 1.786, Val: 1.736:  36%|███▌      | 54/150 [14:24<28:56, 18.09s/it]Train: 1.778, Val: 1.719:  37%|███▋      | 55/150 [14:42<28:44, 18.15s/it]Train: 1.765, Val: 1.753:  37%|███▋      | 56/150 [15:01<28:24, 18.13s/it]Train: 1.702, Val: 1.809:  38%|███▊      | 57/150 [15:18<27:51, 17.98s/it]Train: 1.811, Val: 1.798:  39%|███▊      | 58/150 [15:36<27:35, 17.99s/it]Train: 1.783, Val: 1.757:  39%|███▉      | 59/150 [15:54<27:12, 17.93s/it]Train: 1.782, Val: 1.808:  40%|████      | 60/150 [16:12<26:59, 18.00s/it]Train: 1.740, Val: 1.713:  41%|████      | 61/150 [16:30<26:44, 18.03s/it]Train: 1.767, Val: 1.779:  41%|████▏     | 62/150 [16:49<26:34, 18.12s/it]Train: 1.732, Val: 1.830:  42%|████▏     | 63/150 [17:07<26:13, 18.09s/it]Train: 1.736, Val: 1.756:  43%|████▎     | 64/150 [17:25<25:57, 18.11s/it]Train: 1.812, Val: 1.693:  43%|████▎     | 65/150 [17:43<25:33, 18.04s/it]Train: 1.783, Val: 1.750:  44%|████▍     | 66/150 [18:00<25:09, 17.97s/it]Train: 1.693, Val: 1.733:  45%|████▍     | 67/150 [18:18<24:51, 17.97s/it]Train: 1.704, Val: 1.689:  45%|████▌     | 68/150 [18:37<24:38, 18.03s/it]Train: 1.790, Val: 1.739:  46%|████▌     | 69/150 [18:55<24:24, 18.08s/it]Train: 1.735, Val: 1.824:  47%|████▋     | 70/150 [19:13<24:05, 18.07s/it]Train: 1.759, Val: 1.794:  47%|████▋     | 71/150 [19:31<23:57, 18.19s/it]Train: 1.743, Val: 1.714:  48%|████▊     | 72/150 [19:49<23:34, 18.13s/it]Train: 1.773, Val: 1.784:  49%|████▊     | 73/150 [20:08<23:20, 18.19s/it]Train: 1.771, Val: 1.727:  49%|████▉     | 74/150 [20:26<23:07, 18.26s/it]Train: 1.743, Val: 1.696:  50%|█████     | 75/150 [20:44<22:48, 18.25s/it]Train: 1.724, Val: 1.773:  51%|█████     | 76/150 [21:03<22:34, 18.30s/it]Train: 1.747, Val: 1.770:  51%|█████▏    | 77/150 [21:21<22:26, 18.45s/it]Train: 1.726, Val: 1.814:  52%|█████▏    | 78/150 [21:40<22:14, 18.54s/it]Train: 1.741, Val: 1.739:  53%|█████▎    | 79/150 [21:59<21:53, 18.50s/it]Train: 1.775, Val: 1.781:  53%|█████▎    | 80/150 [22:17<21:35, 18.51s/it]Train: 1.707, Val: 1.757:  54%|█████▍    | 81/150 [22:36<21:21, 18.57s/it]Train: 1.694, Val: 1.812:  55%|█████▍    | 82/150 [22:55<21:05, 18.62s/it]Train: 1.746, Val: 1.721:  55%|█████▌    | 83/150 [23:13<20:48, 18.64s/it]Train: 1.730, Val: 1.732:  56%|█████▌    | 84/150 [23:32<20:23, 18.54s/it]Train: 1.708, Val: 1.747:  57%|█████▋    | 85/150 [23:50<20:05, 18.55s/it]Train: 1.747, Val: 1.746:  57%|█████▋    | 86/150 [24:09<19:45, 18.52s/it]Train: 1.737, Val: 1.761:  58%|█████▊    | 87/150 [24:27<19:20, 18.42s/it]Epoch    88: reducing learning rate of group 0 to 1.0000e-04.
Train: 1.705, Val: 1.670:  59%|█████▊    | 88/150 [24:45<18:58, 18.36s/it]Train: 1.703, Val: 1.674:  59%|█████▉    | 89/150 [25:04<18:43, 18.42s/it]Train: 1.763, Val: 1.710:  60%|██████    | 90/150 [25:22<18:20, 18.34s/it]Train: 1.700, Val: 1.711:  61%|██████    | 91/150 [25:40<18:03, 18.37s/it]Train: 1.708, Val: 1.715:  61%|██████▏   | 92/150 [25:59<17:45, 18.37s/it]Train: 1.755, Val: 1.693:  62%|██████▏   | 93/150 [26:17<17:34, 18.51s/it]Train: 1.783, Val: 1.692:  63%|██████▎   | 94/150 [26:36<17:13, 18.46s/it]Train: 1.733, Val: 1.712:  63%|██████▎   | 95/150 [26:54<16:58, 18.52s/it]Train: 1.688, Val: 1.742:  64%|██████▍   | 96/150 [27:13<16:43, 18.58s/it]Train: 1.726, Val: 1.714:  65%|██████▍   | 97/150 [27:32<16:23, 18.55s/it]Train: 1.761, Val: 1.701:  65%|██████▌   | 98/150 [27:50<16:05, 18.58s/it]Train: 1.739, Val: 1.746:  66%|██████▌   | 99/150 [28:09<15:45, 18.53s/it]Train: 1.715, Val: 1.685:  67%|██████▋   | 100/150 [28:27<15:28, 18.58s/it]Train: 1.714, Val: 1.729:  67%|██████▋   | 101/150 [28:46<15:07, 18.52s/it]Train: 1.699, Val: 1.713:  68%|██████▊   | 102/150 [29:04<14:45, 18.44s/it]Train: 1.744, Val: 1.713:  69%|██████▊   | 103/150 [29:22<14:23, 18.37s/it]Train: 1.711, Val: 1.739:  69%|██████▉   | 104/150 [29:41<14:06, 18.39s/it]Train: 1.712, Val: 1.699:  70%|███████   | 105/150 [29:58<13:40, 18.23s/it]Train: 1.752, Val: 1.661:  71%|███████   | 106/150 [30:17<13:20, 18.18s/it]Train: 1.749, Val: 1.761:  71%|███████▏  | 107/150 [30:35<13:04, 18.24s/it]Train: 1.721, Val: 1.795:  72%|███████▏  | 108/150 [30:53<12:45, 18.22s/it]Train: 1.758, Val: 1.768:  73%|███████▎  | 109/150 [31:12<12:29, 18.28s/it]Train: 1.686, Val: 1.652:  73%|███████▎  | 110/150 [31:30<12:14, 18.37s/it]Train: 1.716, Val: 1.739:  74%|███████▍  | 111/150 [31:48<11:55, 18.34s/it]Train: 1.710, Val: 1.694:  75%|███████▍  | 112/150 [32:07<11:37, 18.36s/it]Train: 1.761, Val: 1.666:  75%|███████▌  | 113/150 [32:25<11:20, 18.40s/it]Train: 1.730, Val: 1.706:  76%|███████▌  | 114/150 [32:44<11:05, 18.49s/it]Train: 1.688, Val: 1.732:  77%|███████▋  | 115/150 [33:02<10:46, 18.46s/it]Train: 1.728, Val: 1.773:  77%|███████▋  | 116/150 [33:21<10:26, 18.42s/it]Train: 1.721, Val: 1.722:  78%|███████▊  | 117/150 [33:39<10:08, 18.43s/it]Train: 1.701, Val: 1.669:  79%|███████▊  | 118/150 [33:58<09:50, 18.44s/it]Train: 1.781, Val: 1.719:  79%|███████▉  | 119/150 [34:16<09:30, 18.41s/it]Train: 1.712, Val: 1.701:  80%|████████  | 120/150 [34:34<09:13, 18.45s/it]Train: 1.722, Val: 1.652:  81%|████████  | 121/150 [34:53<08:57, 18.53s/it]Train: 1.674, Val: 1.743:  81%|████████▏ | 122/150 [35:12<08:39, 18.54s/it]Train: 1.733, Val: 1.735:  82%|████████▏ | 123/150 [35:30<08:18, 18.45s/it]Train: 1.717, Val: 1.737:  83%|████████▎ | 124/150 [35:48<07:58, 18.39s/it]Train: 1.760, Val: 1.665:  83%|████████▎ | 125/150 [36:06<07:38, 18.34s/it]Train: 1.714, Val: 1.721:  84%|████████▍ | 126/150 [36:25<07:21, 18.40s/it]Train: 1.718, Val: 1.694:  85%|████████▍ | 127/150 [36:43<07:03, 18.42s/it]Train: 1.665, Val: 1.770:  85%|████████▌ | 128/150 [37:02<06:42, 18.31s/it]Train: 1.713, Val: 1.698:  86%|████████▌ | 129/150 [37:20<06:23, 18.26s/it]Train: 1.729, Val: 1.766:  87%|████████▋ | 130/150 [37:38<06:05, 18.26s/it]Train: 1.713, Val: 1.711:  87%|████████▋ | 131/150 [37:56<05:45, 18.18s/it]Train: 1.777, Val: 1.732:  88%|████████▊ | 132/150 [38:14<05:27, 18.17s/it]Train: 1.749, Val: 1.751:  89%|████████▊ | 133/150 [38:32<05:09, 18.21s/it]Train: 1.700, Val: 1.758:  89%|████████▉ | 134/150 [38:51<04:53, 18.37s/it]Train: 1.758, Val: 1.766:  90%|█████████ | 135/150 [39:10<04:36, 18.46s/it]Train: 1.717, Val: 1.759:  91%|█████████ | 136/150 [39:29<04:19, 18.54s/it]Train: 1.758, Val: 1.735:  91%|█████████▏| 137/150 [39:47<04:00, 18.54s/it]Train: 1.724, Val: 1.711:  92%|█████████▏| 138/150 [40:06<03:42, 18.57s/it]Train: 1.671, Val: 1.730:  93%|█████████▎| 139/150 [40:24<03:23, 18.48s/it]Train: 1.703, Val: 1.795:  93%|█████████▎| 140/150 [40:42<03:04, 18.49s/it]Train: 1.643, Val: 1.676:  94%|█████████▍| 141/150 [41:01<02:46, 18.48s/it]Train: 1.694, Val: 1.746:  95%|█████████▍| 142/150 [41:19<02:28, 18.50s/it]Train: 1.750, Val: 1.804:  95%|█████████▌| 143/150 [41:38<02:09, 18.47s/it]Train: 1.743, Val: 1.713:  96%|█████████▌| 144/150 [41:56<01:50, 18.46s/it]Train: 1.698, Val: 1.735:  97%|█████████▋| 145/150 [42:15<01:32, 18.50s/it]Train: 1.745, Val: 1.742:  97%|█████████▋| 146/150 [42:34<01:14, 18.55s/it]Train: 1.689, Val: 1.752:  98%|█████████▊| 147/150 [42:52<00:55, 18.49s/it]Train: 1.735, Val: 1.795:  99%|█████████▊| 148/150 [43:10<00:37, 18.50s/it]Train: 1.691, Val: 1.688:  99%|█████████▉| 149/150 [43:29<00:18, 18.49s/it]Train: 1.726, Val: 1.759: 100%|██████████| 150/150 [43:47<00:00, 18.46s/it]Train: 1.726, Val: 1.759: 100%|██████████| 150/150 [43:47<00:00, 17.52s/it]
