{
  "test": {
    "steps": [
      0
    ],
    "timestamps": [
      "2022-07-05T11:09:04.559223"
    ],
    "values": [
      8.62555805154867
    ]
  },
  "train": {
    "steps": [
      0,
      1,
      2,
      3,
      4,
      5,
      6,
      7,
      8,
      9,
      10,
      11,
      12,
      13,
      14,
      15,
      16,
      17,
      18,
      19,
      20,
      21,
      22,
      23,
      24,
      25,
      26,
      27,
      28,
      29,
      30,
      31,
      32,
      33,
      34,
      35,
      36,
      37,
      38,
      39,
      40,
      41,
      42,
      43,
      44,
      45,
      46,
      47,
      48,
      49,
      50,
      51,
      52,
      53,
      54,
      55,
      56,
      57,
      58,
      59,
      60,
      61,
      62,
      63,
      64,
      65,
      66,
      67,
      68,
      69,
      70,
      71,
      72,
      73,
      74,
      75,
      76,
      77,
      78,
      79,
      80,
      81,
      82,
      83,
      84,
      85,
      86,
      87,
      88,
      89,
      90,
      91,
      92,
      93,
      94,
      95,
      96,
      97,
      98,
      99,
      100,
      101,
      102,
      103,
      104,
      105,
      106,
      107,
      108,
      109,
      110,
      111,
      112,
      113,
      114,
      115,
      116,
      117,
      118,
      119,
      120,
      121,
      122,
      123,
      124,
      125,
      126,
      127,
      128,
      129,
      130,
      131,
      132,
      133,
      134,
      135,
      136,
      137,
      138,
      139,
      140,
      141,
      142,
      143,
      144,
      145,
      146,
      147,
      148,
      149,
      150,
      151,
      152,
      153,
      154,
      155,
      156,
      157,
      158,
      159,
      160,
      161,
      162,
      163,
      164,
      165,
      166,
      167,
      168,
      169,
      170,
      171,
      172,
      173,
      174,
      175,
      176,
      177,
      178,
      179,
      180,
      181,
      182,
      183,
      184,
      185,
      186,
      187,
      188,
      189,
      190,
      191,
      192,
      193,
      194,
      195,
      196,
      197,
      198,
      199,
      200,
      201,
      202,
      203,
      204,
      205,
      206,
      207,
      208,
      209,
      210,
      211,
      212,
      213,
      214,
      215,
      216,
      217,
      218,
      219,
      220,
      221,
      222,
      223,
      224,
      225,
      226,
      227,
      228,
      229,
      230,
      231,
      232,
      233,
      234,
      235,
      236,
      237,
      238,
      239,
      240,
      241,
      242,
      243,
      244,
      245,
      246,
      247,
      248,
      249
    ],
    "timestamps": [
      "2022-07-05T10:54:21.226147",
      "2022-07-05T10:54:24.441974",
      "2022-07-05T10:54:27.669488",
      "2022-07-05T10:54:30.929759",
      "2022-07-05T10:54:34.335054",
      "2022-07-05T10:54:37.692897",
      "2022-07-05T10:54:41.138398",
      "2022-07-05T10:54:45.093243",
      "2022-07-05T10:54:48.603469",
      "2022-07-05T10:54:52.067508",
      "2022-07-05T10:54:55.400435",
      "2022-07-05T10:54:58.591557",
      "2022-07-05T10:55:01.786779",
      "2022-07-05T10:55:05.016329",
      "2022-07-05T10:55:08.346885",
      "2022-07-05T10:55:11.677397",
      "2022-07-05T10:55:14.956451",
      "2022-07-05T10:55:18.470353",
      "2022-07-05T10:55:22.000138",
      "2022-07-05T10:55:25.419153",
      "2022-07-05T10:55:28.930977",
      "2022-07-05T10:55:32.130891",
      "2022-07-05T10:55:35.311957",
      "2022-07-05T10:55:38.530526",
      "2022-07-05T10:55:42.663241",
      "2022-07-05T10:55:47.708209",
      "2022-07-05T10:55:51.825882",
      "2022-07-05T10:55:55.870261",
      "2022-07-05T10:55:59.299042",
      "2022-07-05T10:56:02.830538",
      "2022-07-05T10:56:06.277875",
      "2022-07-05T10:56:09.682873",
      "2022-07-05T10:56:13.605148",
      "2022-07-05T10:56:17.260308",
      "2022-07-05T10:56:20.681694",
      "2022-07-05T10:56:24.099462",
      "2022-07-05T10:56:27.539459",
      "2022-07-05T10:56:30.967572",
      "2022-07-05T10:56:34.903619",
      "2022-07-05T10:56:38.365013",
      "2022-07-05T10:56:42.366429",
      "2022-07-05T10:56:46.455272",
      "2022-07-05T10:56:50.337661",
      "2022-07-05T10:56:54.439500",
      "2022-07-05T10:56:58.178610",
      "2022-07-05T10:57:01.816699",
      "2022-07-05T10:57:05.594918",
      "2022-07-05T10:57:09.484822",
      "2022-07-05T10:57:12.693051",
      "2022-07-05T10:57:15.953548",
      "2022-07-05T10:57:19.184149",
      "2022-07-05T10:57:22.373797",
      "2022-07-05T10:57:25.567687",
      "2022-07-05T10:57:28.744753",
      "2022-07-05T10:57:32.068122",
      "2022-07-05T10:57:35.242244",
      "2022-07-05T10:57:38.430007",
      "2022-07-05T10:57:41.605819",
      "2022-07-05T10:57:44.780258",
      "2022-07-05T10:57:47.949342",
      "2022-07-05T10:57:51.132222",
      "2022-07-05T10:57:54.384486",
      "2022-07-05T10:57:57.613055",
      "2022-07-05T10:58:00.881160",
      "2022-07-05T10:58:04.105781",
      "2022-07-05T10:58:07.339524",
      "2022-07-05T10:58:10.556744",
      "2022-07-05T10:58:13.791067",
      "2022-07-05T10:58:17.028115",
      "2022-07-05T10:58:20.266658",
      "2022-07-05T10:58:23.493834",
      "2022-07-05T10:58:26.730363",
      "2022-07-05T10:58:29.966242",
      "2022-07-05T10:58:33.190706",
      "2022-07-05T10:58:36.452057",
      "2022-07-05T10:58:39.662155",
      "2022-07-05T10:58:42.996526",
      "2022-07-05T10:58:46.198007",
      "2022-07-05T10:58:49.358945",
      "2022-07-05T10:58:52.583394",
      "2022-07-05T10:58:55.768995",
      "2022-07-05T10:58:58.930682",
      "2022-07-05T10:59:02.098407",
      "2022-07-05T10:59:05.346000",
      "2022-07-05T10:59:08.561857",
      "2022-07-05T10:59:11.764738",
      "2022-07-05T10:59:14.993564",
      "2022-07-05T10:59:18.178703",
      "2022-07-05T10:59:21.334908",
      "2022-07-05T10:59:24.543315",
      "2022-07-05T10:59:27.789034",
      "2022-07-05T10:59:31.146172",
      "2022-07-05T10:59:34.306917",
      "2022-07-05T10:59:37.473576",
      "2022-07-05T10:59:40.634558",
      "2022-07-05T10:59:43.844676",
      "2022-07-05T10:59:47.002561",
      "2022-07-05T10:59:50.347756",
      "2022-07-05T10:59:53.504745",
      "2022-07-05T10:59:56.668743",
      "2022-07-05T11:00:00.355835",
      "2022-07-05T11:00:03.602222",
      "2022-07-05T11:00:06.825477",
      "2022-07-05T11:00:10.090213",
      "2022-07-05T11:00:13.514600",
      "2022-07-05T11:00:17.518237",
      "2022-07-05T11:00:22.312411",
      "2022-07-05T11:00:25.549825",
      "2022-07-05T11:00:29.083388",
      "2022-07-05T11:00:32.399673",
      "2022-07-05T11:00:35.700461",
      "2022-07-05T11:00:39.206229",
      "2022-07-05T11:00:42.523683",
      "2022-07-05T11:00:45.859609",
      "2022-07-05T11:00:49.635496",
      "2022-07-05T11:00:54.213874",
      "2022-07-05T11:00:57.612759",
      "2022-07-05T11:01:00.962037",
      "2022-07-05T11:01:04.402593",
      "2022-07-05T11:01:07.824371",
      "2022-07-05T11:01:11.247791",
      "2022-07-05T11:01:14.651991",
      "2022-07-05T11:01:18.114191",
      "2022-07-05T11:01:21.350287",
      "2022-07-05T11:01:24.748139",
      "2022-07-05T11:01:29.322062",
      "2022-07-05T11:01:34.111370",
      "2022-07-05T11:01:38.331939",
      "2022-07-05T11:01:42.643139",
      "2022-07-05T11:01:46.839538",
      "2022-07-05T11:01:51.108459",
      "2022-07-05T11:01:55.222995",
      "2022-07-05T11:01:58.990230",
      "2022-07-05T11:02:02.572710",
      "2022-07-05T11:02:06.276676",
      "2022-07-05T11:02:10.232556",
      "2022-07-05T11:02:14.306567",
      "2022-07-05T11:02:18.514646",
      "2022-07-05T11:02:22.764156",
      "2022-07-05T11:02:27.398605",
      "2022-07-05T11:02:31.294490",
      "2022-07-05T11:02:34.789244",
      "2022-07-05T11:02:38.707864",
      "2022-07-05T11:02:42.349311",
      "2022-07-05T11:02:46.164085",
      "2022-07-05T11:02:50.510580",
      "2022-07-05T11:02:54.782238",
      "2022-07-05T11:02:58.981884",
      "2022-07-05T11:03:02.612382",
      "2022-07-05T11:03:06.444350",
      "2022-07-05T11:03:10.044490",
      "2022-07-05T11:03:13.792899",
      "2022-07-05T11:03:18.235886",
      "2022-07-05T11:03:22.145453",
      "2022-07-05T11:03:25.989668",
      "2022-07-05T11:03:30.157595",
      "2022-07-05T11:03:33.530702",
      "2022-07-05T11:03:37.021179",
      "2022-07-05T11:03:40.859784",
      "2022-07-05T11:03:44.529342",
      "2022-07-05T11:03:48.698845",
      "2022-07-05T11:03:52.941171",
      "2022-07-05T11:03:57.127088",
      "2022-07-05T11:04:01.322958",
      "2022-07-05T11:04:05.476927",
      "2022-07-05T11:04:09.675973",
      "2022-07-05T11:04:13.359412",
      "2022-07-05T11:04:16.834193",
      "2022-07-05T11:04:20.303922",
      "2022-07-05T11:04:23.766617",
      "2022-07-05T11:04:27.217716",
      "2022-07-05T11:04:30.750996",
      "2022-07-05T11:04:34.193790",
      "2022-07-05T11:04:37.640256",
      "2022-07-05T11:04:41.155482",
      "2022-07-05T11:04:44.587176",
      "2022-07-05T11:04:48.091094",
      "2022-07-05T11:04:51.613115",
      "2022-07-05T11:04:55.056944",
      "2022-07-05T11:04:58.468961",
      "2022-07-05T11:05:01.997357",
      "2022-07-05T11:05:05.444186",
      "2022-07-05T11:05:08.945301",
      "2022-07-05T11:05:12.552064",
      "2022-07-05T11:05:16.004729",
      "2022-07-05T11:05:19.596886",
      "2022-07-05T11:05:23.072202",
      "2022-07-05T11:05:26.517928",
      "2022-07-05T11:05:30.055579",
      "2022-07-05T11:05:33.597237",
      "2022-07-05T11:05:37.041549",
      "2022-07-05T11:05:40.555051",
      "2022-07-05T11:05:43.997301",
      "2022-07-05T11:05:47.445908",
      "2022-07-05T11:05:50.922597",
      "2022-07-05T11:05:54.363354",
      "2022-07-05T11:05:57.800590",
      "2022-07-05T11:06:01.420460",
      "2022-07-05T11:06:04.914266",
      "2022-07-05T11:06:08.340867",
      "2022-07-05T11:06:11.822749",
      "2022-07-05T11:06:15.278704",
      "2022-07-05T11:06:18.745757",
      "2022-07-05T11:06:22.327284",
      "2022-07-05T11:06:25.776740",
      "2022-07-05T11:06:29.216595",
      "2022-07-05T11:06:32.862753",
      "2022-07-05T11:06:36.409922",
      "2022-07-05T11:06:39.962058",
      "2022-07-05T11:06:43.545160",
      "2022-07-05T11:06:47.093848",
      "2022-07-05T11:06:50.616743",
      "2022-07-05T11:06:54.072185",
      "2022-07-05T11:06:57.520092",
      "2022-07-05T11:07:01.133009",
      "2022-07-05T11:07:04.580866",
      "2022-07-05T11:07:08.043735",
      "2022-07-05T11:07:12.168607",
      "2022-07-05T11:07:15.622441",
      "2022-07-05T11:07:19.055127",
      "2022-07-05T11:07:22.643629",
      "2022-07-05T11:07:26.058092",
      "2022-07-05T11:07:29.649593",
      "2022-07-05T11:07:33.111463",
      "2022-07-05T11:07:36.524762",
      "2022-07-05T11:07:39.997502",
      "2022-07-05T11:07:43.419016",
      "2022-07-05T11:07:46.836611",
      "2022-07-05T11:07:50.318550",
      "2022-07-05T11:07:53.736796",
      "2022-07-05T11:07:57.151919",
      "2022-07-05T11:08:00.663070",
      "2022-07-05T11:08:04.173533",
      "2022-07-05T11:08:07.714459",
      "2022-07-05T11:08:11.273137",
      "2022-07-05T11:08:14.796572",
      "2022-07-05T11:08:18.283391",
      "2022-07-05T11:08:21.828986",
      "2022-07-05T11:08:25.235417",
      "2022-07-05T11:08:28.676031",
      "2022-07-05T11:08:32.192029",
      "2022-07-05T11:08:35.941985",
      "2022-07-05T11:08:39.442278",
      "2022-07-05T11:08:42.982158",
      "2022-07-05T11:08:46.619226",
      "2022-07-05T11:08:50.179360",
      "2022-07-05T11:08:53.547568",
      "2022-07-05T11:08:56.937652",
      "2022-07-05T11:09:00.371597",
      "2022-07-05T11:09:03.747814"
    ],
    "values": [
      9.92066890838302,
      9.584735348387689,
      9.015741634436651,
      8.862123981782952,
      8.815508633223104,
      8.78854818008465,
      8.776352108920964,
      8.744526220907701,
      8.750042832283777,
      8.736325142453145,
      8.730426969558792,
      8.718094158229347,
      8.726624199425201,
      8.712610709929699,
      8.718110392500128,
      8.721909483027593,
      8.71438608825358,
      8.707060419490178,
      8.70848420488933,
      8.70191735116389,
      8.690813617380254,
      8.70083853060421,
      8.696696171991507,
      8.688191151368786,
      8.684282180582038,
      8.68726651523053,
      8.695929370113731,
      8.679148166202497,
      8.683459606426592,
      8.694025777566964,
      8.688058326481107,
      8.687973114159805,
      8.678979227004561,
      8.685596612794091,
      8.691720142327808,
      8.682242877314579,
      8.677949493303062,
      8.678931321256455,
      8.671341616867673,
      8.676638136807846,
      8.683723107182884,
      8.670378970228434,
      8.66495067851747,
      8.685621165295986,
      8.67649494714802,
      8.666937237100846,
      8.670358548184248,
      8.674000649757982,
      8.670225452422265,
      8.674714720814588,
      8.675721053581558,
      8.675040057462004,
      8.67552377708234,
      8.673173854347606,
      8.671268975409411,
      8.66990571274961,
      8.667684668861213,
      8.667732434397374,
      8.669002262545602,
      8.667239107987587,
      8.65519806558293,
      8.665214475217367,
      8.669367838664437,
      8.66664591861542,
      8.669299688454242,
      8.66526956654355,
      8.661046146912826,
      8.661761836796,
      8.67055502714174,
      8.66632897553916,
      8.663753952561237,
      8.664090411286544,
      8.676373051352096,
      8.653717558375918,
      8.674468987199727,
      8.662138064411323,
      8.666984090636266,
      8.671670447771337,
      8.664497836489994,
      8.663137752002442,
      8.660955241859481,
      8.65704675153839,
      8.657421429573631,
      8.65922151902776,
      8.662640905719805,
      8.670824326707729,
      8.654910632302165,
      8.656626569345544,
      8.662775171481284,
      8.663507594314455,
      8.658033575675093,
      8.667936107987185,
      8.66322566338999,
      8.661158174850977,
      8.660498624362756,
      8.623510881660554,
      8.615957913750748,
      8.616249072436364,
      8.616672266572321,
      8.615697296366232,
      8.614231171673934,
      8.615275986459274,
      8.615069459830591,
      8.614537796488957,
      8.61310069852817,
      8.614737257650665,
      8.615621081070007,
      8.613254004902014,
      8.614017124602073,
      8.614374101589288,
      8.612752982388894,
      8.614001723299731,
      8.614094691085935,
      8.61408489463868,
      8.613795463628216,
      8.61439740436919,
      8.614236706829805,
      8.613356095882821,
      8.613459955626809,
      8.612669364285486,
      8.612729483259734,
      8.613624161926577,
      8.613121199603485,
      8.613302996821277,
      8.61409296485463,
      8.612959077417027,
      8.607895189367365,
      8.606946773618866,
      8.606835718597349,
      8.60689082270345,
      8.606858853183262,
      8.60670695313359,
      8.606802216349388,
      8.606552849783894,
      8.606515940527576,
      8.606663759144991,
      8.60663609589518,
      8.606594380057572,
      8.606684477836179,
      8.606473113476975,
      8.606572056375748,
      8.606484562599716,
      8.606582044568453,
      8.606474655862021,
      8.606725456560094,
      8.606514093445588,
      8.606492382103044,
      8.606523069030533,
      8.60640773400023,
      8.605788700715166,
      8.605752510082935,
      8.605760842771968,
      8.605747249589164,
      8.605753443047348,
      8.60573194984925,
      8.605725234481861,
      8.605719755578537,
      8.605718873513243,
      8.605715333924145,
      8.605696349274936,
      8.60570282454772,
      8.605699323414633,
      8.605704568089394,
      8.605694225504239,
      8.60567742277373,
      8.605702243532058,
      8.605709838736988,
      8.605690003699522,
      8.605691321541661,
      8.605688873355904,
      8.605688376665425,
      8.605599161785898,
      8.605602456264794,
      8.605600047070366,
      8.605598768828633,
      8.605598255346123,
      8.605600472942987,
      8.605598012603469,
      8.605598935439735,
      8.6055973742874,
      8.605596946969102,
      8.605597408137767,
      8.605598336982267,
      8.605596658238207,
      8.60559718230123,
      8.60559672392396,
      8.605597502578464,
      8.605596917778854,
      8.605596207021739,
      8.60559716070435,
      8.605596336818977,
      8.605595998521618,
      8.605595026315058,
      8.605595879428032,
      8.605594791124314,
      8.605594482166202,
      8.605594275768414,
      8.605593907405254,
      8.605591159596434,
      8.605591341958911,
      8.605592710852134,
      8.605590709554551,
      8.60559003102211,
      8.605590820982506,
      8.60558840724861,
      8.60558964642171,
      8.60558958996868,
      8.605588973674298,
      8.605587466755741,
      8.605587826319228,
      8.605587937714532,
      8.60558641742592,
      8.605585971226404,
      8.605584657600751,
      8.605585225323857,
      8.605584877225919,
      8.60558533318972,
      8.605583483718398,
      8.605584829032818,
      8.60558342132524,
      8.605586671294217,
      8.605588478605348,
      8.605588763096469,
      8.605587839832987,
      8.605585763063221,
      8.605586225623298,
      8.605588486293318,
      8.60558661069702,
      8.605585480701842,
      8.605585100501006,
      8.605584340561906,
      8.605585432724919,
      8.60558550493445,
      8.605584813103555,
      8.605585711714395,
      8.605585071237407,
      8.60558267528109,
      8.605582714137727,
      8.605582747080541,
      8.605583366520715,
      8.605582212348859,
      8.605581622841457,
      8.605580397861253,
      8.605582190380002,
      8.605581292441114,
      8.605581746027116,
      8.605579623970241,
      8.605579328170215,
      8.605579988526214,
      8.60557780068049
    ]
  },
  "val": {
    "steps": [
      0,
      1,
      2,
      3,
      4,
      5,
      6,
      7,
      8,
      9,
      10,
      11,
      12,
      13,
      14,
      15,
      16,
      17,
      18,
      19,
      20,
      21,
      22,
      23,
      24,
      25,
      26,
      27,
      28,
      29,
      30,
      31,
      32,
      33,
      34,
      35,
      36,
      37,
      38,
      39,
      40,
      41,
      42,
      43,
      44,
      45,
      46,
      47,
      48,
      49,
      50,
      51,
      52,
      53,
      54,
      55,
      56,
      57,
      58,
      59,
      60,
      61,
      62,
      63,
      64,
      65,
      66,
      67,
      68,
      69,
      70,
      71,
      72,
      73,
      74,
      75,
      76,
      77,
      78,
      79,
      80,
      81,
      82,
      83,
      84,
      85,
      86,
      87,
      88,
      89,
      90,
      91,
      92,
      93,
      94,
      95,
      96,
      97,
      98,
      99,
      100,
      101,
      102,
      103,
      104,
      105,
      106,
      107,
      108,
      109,
      110,
      111,
      112,
      113,
      114,
      115,
      116,
      117,
      118,
      119,
      120,
      121,
      122,
      123,
      124,
      125,
      126,
      127,
      128,
      129,
      130,
      131,
      132,
      133,
      134,
      135,
      136,
      137,
      138,
      139,
      140,
      141,
      142,
      143,
      144,
      145,
      146,
      147,
      148,
      149,
      150,
      151,
      152,
      153,
      154,
      155,
      156,
      157,
      158,
      159,
      160,
      161,
      162,
      163,
      164,
      165,
      166,
      167,
      168,
      169,
      170,
      171,
      172,
      173,
      174,
      175,
      176,
      177,
      178,
      179,
      180,
      181,
      182,
      183,
      184,
      185,
      186,
      187,
      188,
      189,
      190,
      191,
      192,
      193,
      194,
      195,
      196,
      197,
      198,
      199,
      200,
      201,
      202,
      203,
      204,
      205,
      206,
      207,
      208,
      209,
      210,
      211,
      212,
      213,
      214,
      215,
      216,
      217,
      218,
      219,
      220,
      221,
      222,
      223,
      224,
      225,
      226,
      227,
      228,
      229,
      230,
      231,
      232,
      233,
      234,
      235,
      236,
      237,
      238,
      239,
      240,
      241,
      242,
      243,
      244,
      245,
      246,
      247,
      248,
      249
    ],
    "timestamps": [
      "2022-07-05T10:54:21.605994",
      "2022-07-05T10:54:24.826136",
      "2022-07-05T10:54:28.055635",
      "2022-07-05T10:54:31.314567",
      "2022-07-05T10:54:34.741310",
      "2022-07-05T10:54:38.084246",
      "2022-07-05T10:54:41.654661",
      "2022-07-05T10:54:45.561478",
      "2022-07-05T10:54:49.020522",
      "2022-07-05T10:54:52.449112",
      "2022-07-05T10:54:55.784961",
      "2022-07-05T10:54:58.974141",
      "2022-07-05T10:55:02.170852",
      "2022-07-05T10:55:05.400013",
      "2022-07-05T10:55:08.737735",
      "2022-07-05T10:55:12.072693",
      "2022-07-05T10:55:15.348855",
      "2022-07-05T10:55:18.935570",
      "2022-07-05T10:55:22.384116",
      "2022-07-05T10:55:25.835716",
      "2022-07-05T10:55:29.313002",
      "2022-07-05T10:55:32.511489",
      "2022-07-05T10:55:35.696899",
      "2022-07-05T10:55:38.981449",
      "2022-07-05T10:55:43.165916",
      "2022-07-05T10:55:48.143473",
      "2022-07-05T10:55:52.326222",
      "2022-07-05T10:55:56.302177",
      "2022-07-05T10:55:59.709224",
      "2022-07-05T10:56:03.244804",
      "2022-07-05T10:56:06.683822",
      "2022-07-05T10:56:10.094481",
      "2022-07-05T10:56:14.133383",
      "2022-07-05T10:56:17.672665",
      "2022-07-05T10:56:21.095077",
      "2022-07-05T10:56:24.515218",
      "2022-07-05T10:56:27.952849",
      "2022-07-05T10:56:31.422639",
      "2022-07-05T10:56:35.314877",
      "2022-07-05T10:56:38.892085",
      "2022-07-05T10:56:42.868476",
      "2022-07-05T10:56:47.023064",
      "2022-07-05T10:56:50.855094",
      "2022-07-05T10:56:54.834918",
      "2022-07-05T10:56:58.683637",
      "2022-07-05T10:57:02.226089",
      "2022-07-05T10:57:06.195620",
      "2022-07-05T10:57:09.877422",
      "2022-07-05T10:57:13.074039",
      "2022-07-05T10:57:16.350478",
      "2022-07-05T10:57:19.567315",
      "2022-07-05T10:57:22.755716",
      "2022-07-05T10:57:25.946679",
      "2022-07-05T10:57:29.124823",
      "2022-07-05T10:57:32.448061",
      "2022-07-05T10:57:35.624910",
      "2022-07-05T10:57:38.811106",
      "2022-07-05T10:57:41.988430",
      "2022-07-05T10:57:45.159365",
      "2022-07-05T10:57:48.330734",
      "2022-07-05T10:57:51.514075",
      "2022-07-05T10:57:54.771070",
      "2022-07-05T10:57:57.999674",
      "2022-07-05T10:58:01.258470",
      "2022-07-05T10:58:04.492665",
      "2022-07-05T10:58:07.721171",
      "2022-07-05T10:58:10.942345",
      "2022-07-05T10:58:14.172547",
      "2022-07-05T10:58:17.413479",
      "2022-07-05T10:58:20.648758",
      "2022-07-05T10:58:23.876292",
      "2022-07-05T10:58:27.114903",
      "2022-07-05T10:58:30.348854",
      "2022-07-05T10:58:33.571988",
      "2022-07-05T10:58:36.835223",
      "2022-07-05T10:58:40.044308",
      "2022-07-05T10:58:43.371905",
      "2022-07-05T10:58:46.572435",
      "2022-07-05T10:58:49.743445",
      "2022-07-05T10:58:52.962262",
      "2022-07-05T10:58:56.143380",
      "2022-07-05T10:58:59.307553",
      "2022-07-05T10:59:02.472617",
      "2022-07-05T10:59:05.727719",
      "2022-07-05T10:59:08.942857",
      "2022-07-05T10:59:12.139042",
      "2022-07-05T10:59:15.396734",
      "2022-07-05T10:59:18.553875",
      "2022-07-05T10:59:21.770435",
      "2022-07-05T10:59:24.922332",
      "2022-07-05T10:59:28.213018",
      "2022-07-05T10:59:31.524568",
      "2022-07-05T10:59:34.680784",
      "2022-07-05T10:59:37.849716",
      "2022-07-05T10:59:41.013620",
      "2022-07-05T10:59:44.220839",
      "2022-07-05T10:59:47.390313",
      "2022-07-05T10:59:50.726541",
      "2022-07-05T10:59:53.879440",
      "2022-07-05T10:59:57.045898",
      "2022-07-05T11:00:00.743524",
      "2022-07-05T11:00:03.982128",
      "2022-07-05T11:00:07.221148",
      "2022-07-05T11:00:10.502751",
      "2022-07-05T11:00:13.960563",
      "2022-07-05T11:00:17.945217",
      "2022-07-05T11:00:22.697927",
      "2022-07-05T11:00:25.945700",
      "2022-07-05T11:00:29.476803",
      "2022-07-05T11:00:32.776495",
      "2022-07-05T11:00:36.142832",
      "2022-07-05T11:00:39.592711",
      "2022-07-05T11:00:42.941106",
      "2022-07-05T11:00:46.236248",
      "2022-07-05T11:00:50.150058",
      "2022-07-05T11:00:54.746598",
      "2022-07-05T11:00:58.060218",
      "2022-07-05T11:01:01.346774",
      "2022-07-05T11:01:04.839760",
      "2022-07-05T11:01:08.210373",
      "2022-07-05T11:01:11.641546",
      "2022-07-05T11:01:15.040066",
      "2022-07-05T11:01:18.519109",
      "2022-07-05T11:01:21.732220",
      "2022-07-05T11:01:25.270011",
      "2022-07-05T11:01:30.025564",
      "2022-07-05T11:01:34.668641",
      "2022-07-05T11:01:38.838907",
      "2022-07-05T11:01:43.077148",
      "2022-07-05T11:01:47.408669",
      "2022-07-05T11:01:51.627572",
      "2022-07-05T11:01:55.647519",
      "2022-07-05T11:01:59.421554",
      "2022-07-05T11:02:03.056105",
      "2022-07-05T11:02:06.682205",
      "2022-07-05T11:02:10.645046",
      "2022-07-05T11:02:14.744610",
      "2022-07-05T11:02:19.056616",
      "2022-07-05T11:02:23.262610",
      "2022-07-05T11:02:27.898374",
      "2022-07-05T11:02:31.696468",
      "2022-07-05T11:02:35.303573",
      "2022-07-05T11:02:39.120591",
      "2022-07-05T11:02:42.746496",
      "2022-07-05T11:02:46.708725",
      "2022-07-05T11:02:51.014174",
      "2022-07-05T11:02:55.308627",
      "2022-07-05T11:02:59.431958",
      "2022-07-05T11:03:03.082674",
      "2022-07-05T11:03:06.851877",
      "2022-07-05T11:03:10.472974",
      "2022-07-05T11:03:14.240226",
      "2022-07-05T11:03:18.795899",
      "2022-07-05T11:03:22.551273",
      "2022-07-05T11:03:26.472763",
      "2022-07-05T11:03:30.571499",
      "2022-07-05T11:03:33.932720",
      "2022-07-05T11:03:37.536408",
      "2022-07-05T11:03:41.271637",
      "2022-07-05T11:03:45.036387",
      "2022-07-05T11:03:49.196721",
      "2022-07-05T11:03:53.417374",
      "2022-07-05T11:03:57.595600",
      "2022-07-05T11:04:01.830801",
      "2022-07-05T11:04:05.989449",
      "2022-07-05T11:04:10.229831",
      "2022-07-05T11:04:13.771705",
      "2022-07-05T11:04:17.245343",
      "2022-07-05T11:04:20.718537",
      "2022-07-05T11:04:24.179021",
      "2022-07-05T11:04:27.629948",
      "2022-07-05T11:04:31.160586",
      "2022-07-05T11:04:34.615838",
      "2022-07-05T11:04:38.053130",
      "2022-07-05T11:04:41.566137",
      "2022-07-05T11:04:44.998354",
      "2022-07-05T11:04:48.493919",
      "2022-07-05T11:04:52.022886",
      "2022-07-05T11:04:55.456771",
      "2022-07-05T11:04:58.882438",
      "2022-07-05T11:05:02.412172",
      "2022-07-05T11:05:05.860474",
      "2022-07-05T11:05:09.376420",
      "2022-07-05T11:05:12.969589",
      "2022-07-05T11:05:16.421085",
      "2022-07-05T11:05:20.035431",
      "2022-07-05T11:05:23.486137",
      "2022-07-05T11:05:26.932105",
      "2022-07-05T11:05:30.477046",
      "2022-07-05T11:05:34.016331",
      "2022-07-05T11:05:37.453227",
      "2022-07-05T11:05:40.965481",
      "2022-07-05T11:05:44.410898",
      "2022-07-05T11:05:47.857320",
      "2022-07-05T11:05:51.331984",
      "2022-07-05T11:05:54.778311",
      "2022-07-05T11:05:58.212873",
      "2022-07-05T11:06:01.836136",
      "2022-07-05T11:06:05.325470",
      "2022-07-05T11:06:08.746502",
      "2022-07-05T11:06:12.233881",
      "2022-07-05T11:06:15.695122",
      "2022-07-05T11:06:19.158735",
      "2022-07-05T11:06:22.737988",
      "2022-07-05T11:06:26.186040",
      "2022-07-05T11:06:29.697546",
      "2022-07-05T11:06:33.279312",
      "2022-07-05T11:06:36.820349",
      "2022-07-05T11:06:40.430033",
      "2022-07-05T11:06:43.962760",
      "2022-07-05T11:06:47.507532",
      "2022-07-05T11:06:51.032341",
      "2022-07-05T11:06:54.487302",
      "2022-07-05T11:06:57.931747",
      "2022-07-05T11:07:01.544978",
      "2022-07-05T11:07:05.000381",
      "2022-07-05T11:07:08.457436",
      "2022-07-05T11:07:12.574963",
      "2022-07-05T11:07:16.031164",
      "2022-07-05T11:07:19.500379",
      "2022-07-05T11:07:23.052876",
      "2022-07-05T11:07:26.457626",
      "2022-07-05T11:07:30.077425",
      "2022-07-05T11:07:33.523942",
      "2022-07-05T11:07:36.934384",
      "2022-07-05T11:07:40.405843",
      "2022-07-05T11:07:43.828873",
      "2022-07-05T11:07:47.243881",
      "2022-07-05T11:07:50.745270",
      "2022-07-05T11:07:54.143727",
      "2022-07-05T11:07:57.564027",
      "2022-07-05T11:08:01.072694",
      "2022-07-05T11:08:04.585492",
      "2022-07-05T11:08:08.126384",
      "2022-07-05T11:08:11.681969",
      "2022-07-05T11:08:15.206625",
      "2022-07-05T11:08:18.692584",
      "2022-07-05T11:08:22.236665",
      "2022-07-05T11:08:25.640104",
      "2022-07-05T11:08:29.088175",
      "2022-07-05T11:08:32.694260",
      "2022-07-05T11:08:36.428878",
      "2022-07-05T11:08:39.901695",
      "2022-07-05T11:08:43.390154",
      "2022-07-05T11:08:47.030565",
      "2022-07-05T11:08:50.574601",
      "2022-07-05T11:08:53.946643",
      "2022-07-05T11:08:57.336448",
      "2022-07-05T11:09:00.771826",
      "2022-07-05T11:09:04.146424"
    ],
    "values": [
      9.813869920263533,
      9.236406189652255,
      8.880869198226934,
      8.860954898720786,
      8.775082622005755,
      8.785024519129824,
      8.770191204468388,
      8.737332771634351,
      8.726512228987957,
      8.747296337165139,
      8.731327486305078,
      8.726028917234268,
      8.718065876169499,
      8.710553395972383,
      8.729010506937355,
      8.692475408746365,
      8.702121759324216,
      8.702651288309129,
      8.683349034206756,
      8.695304193052557,
      8.684831580982687,
      8.71093424303168,
      8.739554347704393,
      8.702575218017122,
      8.706917469135746,
      8.72829489361842,
      8.687469343298607,
      8.68915005402146,
      8.68463584881146,
      8.717318792855531,
      8.72383269148422,
      8.684211152715616,
      8.708128609223307,
      8.729641681071593,
      8.702263461265375,
      8.679365456458541,
      8.697900840025582,
      8.678434583986395,
      8.678188739214308,
      8.731773225192928,
      8.69506790036779,
      8.68290347776559,
      8.755182816847608,
      8.685197284939926,
      8.68553519702904,
      8.694175058499017,
      8.716888406254265,
      8.685126528425185,
      8.688910204449206,
      8.69198335582,
      8.708273279134772,
      8.71597647318694,
      8.678005469601288,
      8.700785258231742,
      8.678926043101272,
      8.730602038908664,
      8.682593143604873,
      8.692832427122289,
      8.682924362599495,
      8.702383299495441,
      8.695736097525588,
      8.674241649092998,
      8.697642747986308,
      8.691912773540913,
      8.670885066284589,
      8.714082982856437,
      8.70434329335146,
      8.686698151338055,
      8.708306910142303,
      8.694286810651795,
      8.679079440182205,
      8.690394050690992,
      8.691611970902805,
      8.695247187490775,
      8.68620365018307,
      8.697840004351757,
      8.709336337825414,
      8.681793583469226,
      8.696289518996906,
      8.681484781018458,
      8.701006460100858,
      8.673123191535815,
      8.677078454004542,
      8.66823078135464,
      8.706557409929088,
      8.686708464164763,
      8.67862272895006,
      8.685067586364646,
      8.685359624378936,
      8.703807182255842,
      8.688617751726621,
      8.67929945473925,
      8.70226877749969,
      8.682054883427263,
      8.69868934516226,
      8.656329710556323,
      8.65535902880844,
      8.655406747170492,
      8.654708999133659,
      8.653097425246786,
      8.655934552793275,
      8.650537394061331,
      8.6527010700598,
      8.651632055894066,
      8.652646462806898,
      8.657114297794678,
      8.651452179542318,
      8.657910526329905,
      8.651904047288054,
      8.652111246595746,
      8.655277492657497,
      8.655382820494985,
      8.651855086039616,
      8.653859103188449,
      8.651430173243554,
      8.65482169940724,
      8.652785764544964,
      8.652388009368261,
      8.65438289202162,
      8.65329538625464,
      8.653350957118317,
      8.65520233092284,
      8.6530719125934,
      8.649690540442025,
      8.65339826191981,
      8.653749164773462,
      8.650378272717623,
      8.650341801817518,
      8.649635613733338,
      8.649787203760221,
      8.649721496050308,
      8.649660394242142,
      8.649575659948546,
      8.650387296136094,
      8.650093481468097,
      8.650084982252677,
      8.649697496219074,
      8.650115363204582,
      8.649899780584258,
      8.649732696280019,
      8.649740600655038,
      8.650221356258447,
      8.650224540386034,
      8.650100003395163,
      8.65057175478705,
      8.650080496600115,
      8.650870406987172,
      8.650183292062088,
      8.650356824534361,
      8.650305521998627,
      8.650174810457736,
      8.650093387785873,
      8.650060541042391,
      8.650020243989408,
      8.650015737570639,
      8.650024378757367,
      8.650055823659786,
      8.650029811536866,
      8.650040467082741,
      8.65000856392108,
      8.650001200665443,
      8.650029745036694,
      8.650035868592209,
      8.649976435788021,
      8.65001629724185,
      8.649988781646172,
      8.649979025211383,
      8.650031466318342,
      8.650016503495303,
      8.650010682553123,
      8.650031315765267,
      8.650031912242751,
      8.650031164075632,
      8.650032420849575,
      8.6500294170755,
      8.650031780595471,
      8.650026972632789,
      8.65003193090945,
      8.650034991757742,
      8.650032003437694,
      8.650031918906656,
      8.650027967171962,
      8.650025826668289,
      8.650028342492469,
      8.650024160847018,
      8.650021632469816,
      8.650020036370858,
      8.650020369528544,
      8.650026929258203,
      8.650017194535781,
      8.650026862606028,
      8.650026025910313,
      8.650025697250033,
      8.650025347604641,
      8.65002545562303,
      8.650023188912478,
      8.650024762125947,
      8.650023458053269,
      8.650025392476444,
      8.65002411423972,
      8.65002168269759,
      8.65002628027812,
      8.650026221724632,
      8.650025650948045,
      8.650028277156588,
      8.650027127341097,
      8.65003185062727,
      8.650024784593963,
      8.650025632463857,
      8.650031911785797,
      8.650030823986372,
      8.650027858376333,
      8.650031571685508,
      8.650032028359067,
      8.650026181729107,
      8.650035846157069,
      8.650032307845771,
      8.650030861160934,
      8.650030186342903,
      8.650033696492848,
      8.650029980185717,
      8.650033438485673,
      8.650039154451363,
      8.650038002091783,
      8.650034787194919,
      8.650032611309637,
      8.65003487224695,
      8.650034784264275,
      8.650042029800714,
      8.65003603157371,
      8.650036542873652,
      8.6500378073187,
      8.650041006060736,
      8.650034336370808,
      8.65003986416518,
      8.650039934404756,
      8.65003565822153,
      8.650037204136844,
      8.650040729851167,
      8.650039762485873,
      8.65003842742737,
      8.650035150008021,
      8.65004257539531,
      8.650038457926442,
      8.650039752220293,
      8.650040164587805,
      8.650035981603226,
      8.65004152934978,
      8.650041410476152,
      8.650040315857908
    ]
  }
}