{
  "test": {
    "steps": [
      0,
      0
    ],
    "timestamps": [
      "2022-08-17T05:50:15.610677",
      "2022-08-17T07:10:53.137849"
    ],
    "values": [
      40.38302345275879,
      40.15097511291504
    ]
  },
  "train": {
    "steps": [
      0,
      1,
      2,
      3,
      4,
      5,
      6,
      7,
      8,
      9,
      10,
      11,
      12,
      13,
      14,
      15,
      16,
      17,
      18,
      19,
      20,
      21,
      22,
      23,
      24,
      25,
      26,
      27,
      28,
      29,
      30,
      31,
      32,
      33,
      34,
      35,
      36,
      37,
      38,
      39,
      40,
      41,
      42,
      43,
      44,
      45,
      46,
      47,
      48,
      49,
      50,
      51,
      52,
      53,
      54,
      55,
      56,
      57,
      58,
      59,
      60,
      61,
      62,
      63,
      64,
      65,
      66,
      67,
      68,
      69,
      70,
      71,
      72,
      73,
      74,
      75,
      76,
      77,
      78,
      79,
      80,
      81,
      82,
      83,
      84,
      85,
      86,
      87,
      88,
      89,
      90,
      91,
      92,
      93,
      94,
      95,
      96,
      97,
      98,
      99,
      0,
      1,
      2,
      3,
      4,
      5,
      6,
      7,
      8,
      9,
      10,
      11,
      12,
      13,
      14,
      15,
      16,
      17,
      18,
      19,
      20,
      21,
      22,
      23,
      24,
      25,
      26,
      27,
      28,
      29,
      30,
      31,
      32,
      33,
      34,
      35,
      36,
      37,
      38,
      39,
      40,
      41,
      42,
      43,
      44,
      45,
      46,
      47,
      48,
      49,
      50,
      51,
      52,
      53,
      54,
      55,
      56,
      57,
      58,
      59,
      60,
      61,
      62,
      63,
      64,
      65,
      66,
      67,
      68,
      69,
      70,
      71,
      72,
      73,
      74,
      75,
      76,
      77,
      78,
      79,
      80,
      81,
      82,
      83,
      84,
      85,
      86,
      87,
      88,
      89,
      90,
      91,
      92,
      93,
      94,
      95,
      96,
      97,
      98,
      99
    ],
    "timestamps": [
      "2022-08-17T05:05:42.538610",
      "2022-08-17T05:05:53.448670",
      "2022-08-17T05:06:05.676355",
      "2022-08-17T05:06:19.197959",
      "2022-08-17T05:06:34.816629",
      "2022-08-17T05:06:51.866024",
      "2022-08-17T05:07:12.118210",
      "2022-08-17T05:07:35.354933",
      "2022-08-17T05:07:57.220123",
      "2022-08-17T05:08:19.493573",
      "2022-08-17T05:08:42.924962",
      "2022-08-17T05:09:06.600037",
      "2022-08-17T05:09:30.081220",
      "2022-08-17T05:09:55.548067",
      "2022-08-17T05:10:22.314973",
      "2022-08-17T05:10:48.454427",
      "2022-08-17T05:11:15.129073",
      "2022-08-17T05:11:40.271585",
      "2022-08-17T05:12:06.859610",
      "2022-08-17T05:12:34.798370",
      "2022-08-17T05:13:00.803693",
      "2022-08-17T05:13:25.451110",
      "2022-08-17T05:13:50.343987",
      "2022-08-17T05:14:15.486147",
      "2022-08-17T05:14:40.911455",
      "2022-08-17T05:15:06.385480",
      "2022-08-17T05:15:32.005096",
      "2022-08-17T05:15:57.672170",
      "2022-08-17T05:16:23.240561",
      "2022-08-17T05:16:49.307261",
      "2022-08-17T05:17:15.346816",
      "2022-08-17T05:17:41.973803",
      "2022-08-17T05:18:08.818417",
      "2022-08-17T05:18:35.924623",
      "2022-08-17T05:19:03.040122",
      "2022-08-17T05:19:30.278858",
      "2022-08-17T05:19:57.349111",
      "2022-08-17T05:20:24.825159",
      "2022-08-17T05:20:52.664489",
      "2022-08-17T05:21:20.769801",
      "2022-08-17T05:21:49.101536",
      "2022-08-17T05:22:17.125100",
      "2022-08-17T05:22:45.074907",
      "2022-08-17T05:23:13.207588",
      "2022-08-17T05:23:41.494013",
      "2022-08-17T05:24:09.409932",
      "2022-08-17T05:24:37.613798",
      "2022-08-17T05:25:05.821557",
      "2022-08-17T05:25:33.856745",
      "2022-08-17T05:26:01.987991",
      "2022-08-17T05:26:30.165839",
      "2022-08-17T05:26:58.133364",
      "2022-08-17T05:27:26.060700",
      "2022-08-17T05:27:53.853686",
      "2022-08-17T05:28:21.975930",
      "2022-08-17T05:28:50.048818",
      "2022-08-17T05:29:18.056851",
      "2022-08-17T05:29:46.103155",
      "2022-08-17T05:30:14.121857",
      "2022-08-17T05:30:42.318936",
      "2022-08-17T05:31:10.522801",
      "2022-08-17T05:31:38.549719",
      "2022-08-17T05:32:06.658512",
      "2022-08-17T05:32:34.926584",
      "2022-08-17T05:33:03.210124",
      "2022-08-17T05:33:31.072547",
      "2022-08-17T05:33:58.724885",
      "2022-08-17T05:34:26.379959",
      "2022-08-17T05:34:53.865791",
      "2022-08-17T05:35:21.402651",
      "2022-08-17T05:35:49.346335",
      "2022-08-17T05:36:17.254275",
      "2022-08-17T05:36:44.938143",
      "2022-08-17T05:37:12.893532",
      "2022-08-17T05:37:40.969579",
      "2022-08-17T05:38:08.881643",
      "2022-08-17T05:38:36.911666",
      "2022-08-17T05:39:05.282428",
      "2022-08-17T05:39:34.263456",
      "2022-08-17T05:40:03.267475",
      "2022-08-17T05:40:32.331443",
      "2022-08-17T05:41:01.832491",
      "2022-08-17T05:41:31.865620",
      "2022-08-17T05:42:01.629940",
      "2022-08-17T05:42:31.214351",
      "2022-08-17T05:43:01.002773",
      "2022-08-17T05:43:30.819696",
      "2022-08-17T05:44:00.693716",
      "2022-08-17T05:44:30.971490",
      "2022-08-17T05:45:01.052131",
      "2022-08-17T05:45:31.109122",
      "2022-08-17T05:46:01.534501",
      "2022-08-17T05:46:32.281025",
      "2022-08-17T05:47:02.802519",
      "2022-08-17T05:47:33.150658",
      "2022-08-17T05:48:03.670102",
      "2022-08-17T05:48:34.442689",
      "2022-08-17T05:49:05.398485",
      "2022-08-17T05:49:36.835083",
      "2022-08-17T05:50:08.213157",
      "2022-08-17T06:06:07.103715",
      "2022-08-17T06:06:45.487503",
      "2022-08-17T06:07:22.142758",
      "2022-08-17T06:08:01.027226",
      "2022-08-17T06:08:37.833199",
      "2022-08-17T06:09:16.488483",
      "2022-08-17T06:09:53.244894",
      "2022-08-17T06:10:30.402736",
      "2022-08-17T06:11:08.231313",
      "2022-08-17T06:11:45.903761",
      "2022-08-17T06:12:22.771279",
      "2022-08-17T06:12:59.182525",
      "2022-08-17T06:13:36.248888",
      "2022-08-17T06:14:16.340306",
      "2022-08-17T06:14:54.470802",
      "2022-08-17T06:15:35.990493",
      "2022-08-17T06:16:14.203875",
      "2022-08-17T06:16:52.827544",
      "2022-08-17T06:17:33.360420",
      "2022-08-17T06:18:10.908835",
      "2022-08-17T06:18:48.838440",
      "2022-08-17T06:19:28.620163",
      "2022-08-17T06:20:06.805878",
      "2022-08-17T06:20:45.141758",
      "2022-08-17T06:21:24.214683",
      "2022-08-17T06:22:03.041810",
      "2022-08-17T06:22:44.096213",
      "2022-08-17T06:23:24.020875",
      "2022-08-17T06:24:03.853330",
      "2022-08-17T06:24:42.381186",
      "2022-08-17T06:25:22.063478",
      "2022-08-17T06:26:01.608587",
      "2022-08-17T06:26:42.366699",
      "2022-08-17T06:27:22.369274",
      "2022-08-17T06:28:01.015942",
      "2022-08-17T06:28:37.713538",
      "2022-08-17T06:29:13.630935",
      "2022-08-17T06:29:49.444104",
      "2022-08-17T06:30:25.477239",
      "2022-08-17T06:31:00.835359",
      "2022-08-17T06:31:36.062314",
      "2022-08-17T06:32:11.128787",
      "2022-08-17T06:32:46.552758",
      "2022-08-17T06:33:22.576235",
      "2022-08-17T06:33:58.089392",
      "2022-08-17T06:34:33.331960",
      "2022-08-17T06:35:09.032483",
      "2022-08-17T06:35:44.620579",
      "2022-08-17T06:36:19.843729",
      "2022-08-17T06:36:56.895375",
      "2022-08-17T06:37:33.334448",
      "2022-08-17T06:38:09.400240",
      "2022-08-17T06:38:45.929707",
      "2022-08-17T06:39:23.012628",
      "2022-08-17T06:40:06.138110",
      "2022-08-17T06:40:46.179906",
      "2022-08-17T06:41:26.917949",
      "2022-08-17T06:42:07.113932",
      "2022-08-17T06:42:47.951049",
      "2022-08-17T06:43:27.758173",
      "2022-08-17T06:44:09.174035",
      "2022-08-17T06:44:50.327340",
      "2022-08-17T06:45:30.625607",
      "2022-08-17T06:46:10.795192",
      "2022-08-17T06:46:52.751787",
      "2022-08-17T06:47:33.548870",
      "2022-08-17T06:48:13.679487",
      "2022-08-17T06:48:54.443527",
      "2022-08-17T06:49:33.614696",
      "2022-08-17T06:50:12.169794",
      "2022-08-17T06:50:53.609082",
      "2022-08-17T06:51:34.580408",
      "2022-08-17T06:52:16.748757",
      "2022-08-17T06:52:58.771657",
      "2022-08-17T06:53:37.484386",
      "2022-08-17T06:54:19.038159",
      "2022-08-17T06:55:01.903558",
      "2022-08-17T06:55:42.031165",
      "2022-08-17T06:56:22.933257",
      "2022-08-17T06:57:07.803322",
      "2022-08-17T06:57:50.963624",
      "2022-08-17T06:58:34.542599",
      "2022-08-17T06:59:17.400122",
      "2022-08-17T06:59:59.551451",
      "2022-08-17T07:00:39.916005",
      "2022-08-17T07:01:21.942579",
      "2022-08-17T07:02:01.638738",
      "2022-08-17T07:02:43.727101",
      "2022-08-17T07:03:25.357335",
      "2022-08-17T07:04:04.854514",
      "2022-08-17T07:04:45.403227",
      "2022-08-17T07:05:24.723363",
      "2022-08-17T07:06:04.060050",
      "2022-08-17T07:06:42.696846",
      "2022-08-17T07:07:22.571058",
      "2022-08-17T07:08:04.017302",
      "2022-08-17T07:08:42.704683",
      "2022-08-17T07:09:23.683497",
      "2022-08-17T07:10:03.892320",
      "2022-08-17T07:10:44.066662"
    ],
    "values": [
      54.119193954467775,
      43.279563446044925,
      42.82068683624268,
      42.34890472412109,
      42.41439796447754,
      41.83858379364014,
      41.93756469726563,
      41.46706699371338,
      41.29715824127197,
      41.33936717987061,
      41.30527042388916,
      41.248999481201174,
      41.14662586212158,
      40.97566375732422,
      41.07937713623047,
      40.91005645751953,
      41.341730461120605,
      40.96621326446533,
      40.705979118347166,
      40.654120903015134,
      40.83600563049316,
      40.701745147705076,
      40.57365028381348,
      40.85759223937988,
      40.98030742645264,
      40.783073921203616,
      40.84548748016358,
      40.76118854522705,
      40.53818687438965,
      40.484055519104004,
      40.69007736206055,
      40.83240520477295,
      40.67775302886963,
      40.415749626159666,
      40.57301044464111,
      40.623650016784666,
      40.5862979888916,
      40.69338092803955,
      40.73070178985596,
      40.65771842956543,
      40.49582233428955,
      40.593039436340334,
      40.71138210296631,
      40.48991004943848,
      40.493347358703616,
      40.65315029144287,
      40.580384407043454,
      40.528597869873046,
      40.68212375640869,
      40.29763759613037,
      40.483761901855466,
      40.50888362884521,
      40.63077480316162,
      40.51233406066895,
      40.44358467102051,
      40.475118217468264,
      40.40981704711914,
      40.57014064788818,
      40.40057975769043,
      40.53891967773438,
      40.480415687561035,
      40.51637474060058,
      40.590806007385254,
      40.41029476165772,
      40.4667643737793,
      40.565502395629885,
      40.291261444091795,
      40.39248584747315,
      40.575630569458006,
      40.56411781311035,
      40.40731937408447,
      40.45448009490967,
      40.516930694580076,
      40.465466346740726,
      40.28622497558594,
      40.31830955505371,
      40.33182460784912,
      40.55781257629395,
      40.49208683013916,
      40.32422737121582,
      40.42279132843018,
      40.4163122177124,
      40.396946563720704,
      40.42385765075684,
      40.36533634185791,
      40.41978584289551,
      40.28241203308105,
      40.54305541992188,
      40.256972274780274,
      40.5597159576416,
      40.387794494628906,
      40.55564563751221,
      40.48708332061768,
      40.36101661682129,
      40.576273155212405,
      40.42347915649414,
      40.42840732574463,
      40.46914112091064,
      40.32803745269776,
      40.36922519683838,
      40.52500442504883,
      40.36344451904297,
      40.32356002807617,
      40.19631980895996,
      40.560293998718265,
      40.23790161132813,
      40.58108375549316,
      40.23854907989502,
      40.221400032043455,
      40.349728202819826,
      40.40886489868164,
      40.39860492706299,
      40.37202091217041,
      40.23990646362304,
      40.39320549011231,
      40.24956432342529,
      40.7547539138794,
      40.3698607635498,
      40.13799182891846,
      40.126809730529786,
      40.33233657836914,
      40.22398895263672,
      40.14497997283936,
      40.431838531494144,
      40.5860673904419,
      40.38117530822754,
      40.463809928894044,
      40.404394721984865,
      40.19163028717041,
      40.16134128570557,
      40.40087112426758,
      40.54282726287842,
      40.387701187133786,
      40.14702377319336,
      40.31237342834473,
      40.366952400207516,
      40.343008842468265,
      40.45525524139404,
      40.51577857971191,
      40.42879638671875,
      40.293740844726564,
      40.23717544555664,
      40.336462593078615,
      40.14614669799805,
      40.12776176452637,
      40.305786781311035,
      40.1986296081543,
      40.1821399307251,
      40.330842094421385,
      39.95084373474121,
      40.13136375427246,
      40.18319465637207,
      40.28737689971924,
      40.17231227874756,
      40.12809886932373,
      40.15312576293945,
      40.09498191833496,
      40.257917671203614,
      40.108138961791994,
      40.23804080963135,
      40.163863792419434,
      40.18932796478271,
      40.29463996887207,
      40.10639194488525,
      40.167201347351075,
      40.25641128540039,
      39.99911334991455,
      40.10206069946289,
      40.29070915222168,
      40.2838830947876,
      40.12781467437744,
      40.177085647583006,
      40.24145553588867,
      40.16091068267822,
      39.97487117767334,
      40.02344844818115,
      40.021123008728026,
      40.26051055908203,
      40.20331386566162,
      40.03116271972656,
      40.12485137939453,
      40.128122596740724,
      40.13027210235596,
      40.15071224212647,
      40.087366256713864,
      40.14111034393311,
      40.00566352844238,
      40.28315746307373,
      39.98133358001709,
      40.262826194763186,
      40.1246940612793,
      40.28180564880371,
      40.22149143218994,
      40.098665466308596,
      40.325268249511716,
      40.16995220184326,
      40.17401988983154,
      40.18967319488525,
      40.075392417907715,
      40.09009937286377
    ]
  },
  "val": {
    "steps": [
      0,
      1,
      2,
      3,
      4,
      5,
      6,
      7,
      8,
      9,
      10,
      11,
      12,
      13,
      14,
      15,
      16,
      17,
      18,
      19,
      20,
      21,
      22,
      23,
      24,
      25,
      26,
      27,
      28,
      29,
      30,
      31,
      32,
      33,
      34,
      35,
      36,
      37,
      38,
      39,
      40,
      41,
      42,
      43,
      44,
      45,
      46,
      47,
      48,
      49,
      50,
      51,
      52,
      53,
      54,
      55,
      56,
      57,
      58,
      59,
      60,
      61,
      62,
      63,
      64,
      65,
      66,
      67,
      68,
      69,
      70,
      71,
      72,
      73,
      74,
      75,
      76,
      77,
      78,
      79,
      80,
      81,
      82,
      83,
      84,
      85,
      86,
      87,
      88,
      89,
      90,
      91,
      92,
      93,
      94,
      95,
      96,
      97,
      98,
      99,
      0,
      1,
      2,
      3,
      4,
      5,
      6,
      7,
      8,
      9,
      10,
      11,
      12,
      13,
      14,
      15,
      16,
      17,
      18,
      19,
      20,
      21,
      22,
      23,
      24,
      25,
      26,
      27,
      28,
      29,
      30,
      31,
      32,
      33,
      34,
      35,
      36,
      37,
      38,
      39,
      40,
      41,
      42,
      43,
      44,
      45,
      46,
      47,
      48,
      49,
      50,
      51,
      52,
      53,
      54,
      55,
      56,
      57,
      58,
      59,
      60,
      61,
      62,
      63,
      64,
      65,
      66,
      67,
      68,
      69,
      70,
      71,
      72,
      73,
      74,
      75,
      76,
      77,
      78,
      79,
      80,
      81,
      82,
      83,
      84,
      85,
      86,
      87,
      88,
      89,
      90,
      91,
      92,
      93,
      94,
      95,
      96,
      97,
      98,
      99
    ],
    "timestamps": [
      "2022-08-17T05:05:43.912229",
      "2022-08-17T05:05:54.776132",
      "2022-08-17T05:06:07.182205",
      "2022-08-17T05:06:20.608860",
      "2022-08-17T05:06:36.480602",
      "2022-08-17T05:06:54.263818",
      "2022-08-17T05:07:14.405713",
      "2022-08-17T05:07:37.859799",
      "2022-08-17T05:07:59.420597",
      "2022-08-17T05:08:22.345433",
      "2022-08-17T05:08:45.385102",
      "2022-08-17T05:09:09.356843",
      "2022-08-17T05:09:33.110287",
      "2022-08-17T05:09:59.060635",
      "2022-08-17T05:10:25.064838",
      "2022-08-17T05:10:52.203551",
      "2022-08-17T05:11:18.244536",
      "2022-08-17T05:11:43.962731",
      "2022-08-17T05:12:09.920661",
      "2022-08-17T05:12:37.787227",
      "2022-08-17T05:13:03.693304",
      "2022-08-17T05:13:28.294330",
      "2022-08-17T05:13:53.205660",
      "2022-08-17T05:14:18.401172",
      "2022-08-17T05:14:43.890274",
      "2022-08-17T05:15:09.303698",
      "2022-08-17T05:15:35.061112",
      "2022-08-17T05:16:00.606279",
      "2022-08-17T05:16:26.279054",
      "2022-08-17T05:16:52.416559",
      "2022-08-17T05:17:18.504122",
      "2022-08-17T05:17:45.121132",
      "2022-08-17T05:18:12.075575",
      "2022-08-17T05:18:39.178227",
      "2022-08-17T05:19:06.258583",
      "2022-08-17T05:19:33.519681",
      "2022-08-17T05:20:00.589289",
      "2022-08-17T05:20:28.091797",
      "2022-08-17T05:20:55.905014",
      "2022-08-17T05:21:24.049752",
      "2022-08-17T05:21:52.349399",
      "2022-08-17T05:22:20.325618",
      "2022-08-17T05:22:48.284544",
      "2022-08-17T05:23:16.435727",
      "2022-08-17T05:23:44.689745",
      "2022-08-17T05:24:12.600875",
      "2022-08-17T05:24:40.756642",
      "2022-08-17T05:25:08.965280",
      "2022-08-17T05:25:36.981374",
      "2022-08-17T05:26:05.147156",
      "2022-08-17T05:26:33.228825",
      "2022-08-17T05:27:01.218047",
      "2022-08-17T05:27:29.079875",
      "2022-08-17T05:27:56.864499",
      "2022-08-17T05:28:25.054555",
      "2022-08-17T05:28:53.103537",
      "2022-08-17T05:29:21.143541",
      "2022-08-17T05:29:49.144236",
      "2022-08-17T05:30:17.170274",
      "2022-08-17T05:30:45.407039",
      "2022-08-17T05:31:13.585196",
      "2022-08-17T05:31:41.652158",
      "2022-08-17T05:32:09.832168",
      "2022-08-17T05:32:38.147018",
      "2022-08-17T05:33:06.369865",
      "2022-08-17T05:33:34.291204",
      "2022-08-17T05:34:01.849471",
      "2022-08-17T05:34:29.539683",
      "2022-08-17T05:34:57.034441",
      "2022-08-17T05:35:24.659572",
      "2022-08-17T05:35:52.607775",
      "2022-08-17T05:36:20.484371",
      "2022-08-17T05:36:48.227811",
      "2022-08-17T05:37:16.136425",
      "2022-08-17T05:37:44.263331",
      "2022-08-17T05:38:12.107422",
      "2022-08-17T05:38:40.188125",
      "2022-08-17T05:39:08.647912",
      "2022-08-17T05:39:37.516670",
      "2022-08-17T05:40:06.537647",
      "2022-08-17T05:40:35.628921",
      "2022-08-17T05:41:05.240764",
      "2022-08-17T05:41:35.273605",
      "2022-08-17T05:42:04.991301",
      "2022-08-17T05:42:34.602360",
      "2022-08-17T05:43:04.346678",
      "2022-08-17T05:43:34.231101",
      "2022-08-17T05:44:04.169853",
      "2022-08-17T05:44:34.400309",
      "2022-08-17T05:45:04.526015",
      "2022-08-17T05:45:34.552891",
      "2022-08-17T05:46:05.399891",
      "2022-08-17T05:46:35.811058",
      "2022-08-17T05:47:06.347103",
      "2022-08-17T05:47:36.785955",
      "2022-08-17T05:48:07.264249",
      "2022-08-17T05:48:37.989553",
      "2022-08-17T05:49:09.062330",
      "2022-08-17T05:49:40.558357",
      "2022-08-17T05:50:11.847693",
      "2022-08-17T06:06:10.665510",
      "2022-08-17T06:06:49.529356",
      "2022-08-17T06:07:26.996184",
      "2022-08-17T06:08:05.464305",
      "2022-08-17T06:08:41.890505",
      "2022-08-17T06:09:20.649454",
      "2022-08-17T06:09:57.408093",
      "2022-08-17T06:10:34.766096",
      "2022-08-17T06:11:13.075287",
      "2022-08-17T06:11:50.484981",
      "2022-08-17T06:12:26.969190",
      "2022-08-17T06:13:03.534837",
      "2022-08-17T06:13:40.558102",
      "2022-08-17T06:14:20.698278",
      "2022-08-17T06:14:58.556213",
      "2022-08-17T06:15:40.148790",
      "2022-08-17T06:16:18.663299",
      "2022-08-17T06:16:57.260427",
      "2022-08-17T06:17:37.588637",
      "2022-08-17T06:18:15.615839",
      "2022-08-17T06:18:53.757377",
      "2022-08-17T06:19:33.484572",
      "2022-08-17T06:20:11.003255",
      "2022-08-17T06:20:49.560625",
      "2022-08-17T06:21:28.587519",
      "2022-08-17T06:22:08.573442",
      "2022-08-17T06:22:48.566390",
      "2022-08-17T06:23:28.778902",
      "2022-08-17T06:24:08.063373",
      "2022-08-17T06:24:47.410502",
      "2022-08-17T06:25:26.574546",
      "2022-08-17T06:26:07.088078",
      "2022-08-17T06:26:47.406580",
      "2022-08-17T06:27:26.696529",
      "2022-08-17T06:28:05.892446",
      "2022-08-17T06:28:42.077937",
      "2022-08-17T06:29:17.799939",
      "2022-08-17T06:29:53.892071",
      "2022-08-17T06:30:29.527594",
      "2022-08-17T06:31:05.157180",
      "2022-08-17T06:31:40.189122",
      "2022-08-17T06:32:15.397360",
      "2022-08-17T06:32:50.671352",
      "2022-08-17T06:33:26.786018",
      "2022-08-17T06:34:02.260814",
      "2022-08-17T06:34:37.441286",
      "2022-08-17T06:35:13.308327",
      "2022-08-17T06:35:48.737718",
      "2022-08-17T06:36:24.735455",
      "2022-08-17T06:37:01.128697",
      "2022-08-17T06:37:37.516935",
      "2022-08-17T06:38:13.803908",
      "2022-08-17T06:38:50.130236",
      "2022-08-17T06:39:27.311177",
      "2022-08-17T06:40:11.106161",
      "2022-08-17T06:40:51.307105",
      "2022-08-17T06:41:31.255276",
      "2022-08-17T06:42:12.295108",
      "2022-08-17T06:42:53.433421",
      "2022-08-17T06:43:32.392587",
      "2022-08-17T06:44:14.317540",
      "2022-08-17T06:44:55.249546",
      "2022-08-17T06:45:35.440269",
      "2022-08-17T06:46:16.333223",
      "2022-08-17T06:46:57.408579",
      "2022-08-17T06:47:39.362801",
      "2022-08-17T06:48:18.049314",
      "2022-08-17T06:48:58.841317",
      "2022-08-17T06:49:38.195042",
      "2022-08-17T06:50:17.930145",
      "2022-08-17T06:50:58.263105",
      "2022-08-17T06:51:40.556846",
      "2022-08-17T06:52:21.248519",
      "2022-08-17T06:53:03.159865",
      "2022-08-17T06:53:42.047945",
      "2022-08-17T06:54:24.175703",
      "2022-08-17T06:55:06.888662",
      "2022-08-17T06:55:46.701534",
      "2022-08-17T06:56:28.275878",
      "2022-08-17T06:57:12.368242",
      "2022-08-17T06:57:55.526447",
      "2022-08-17T06:58:39.837120",
      "2022-08-17T06:59:22.530528",
      "2022-08-17T07:00:04.314677",
      "2022-08-17T07:00:45.026286",
      "2022-08-17T07:01:26.715255",
      "2022-08-17T07:02:07.209877",
      "2022-08-17T07:02:48.402526",
      "2022-08-17T07:03:29.944034",
      "2022-08-17T07:04:09.192679",
      "2022-08-17T07:04:49.965211",
      "2022-08-17T07:05:29.176981",
      "2022-08-17T07:06:08.720628",
      "2022-08-17T07:06:47.478681",
      "2022-08-17T07:07:28.008983",
      "2022-08-17T07:08:08.980527",
      "2022-08-17T07:08:47.969858",
      "2022-08-17T07:09:28.285438",
      "2022-08-17T07:10:08.867684",
      "2022-08-17T07:10:48.571425"
    ],
    "values": [
      43.90910293579102,
      43.25905387878418,
      42.51846336364746,
      42.33528083801269,
      42.31061058044433,
      41.90692031860352,
      41.71162139892578,
      41.73676902770996,
      41.32254364013672,
      41.43284400939942,
      41.52242012023926,
      41.099721908569336,
      41.18337074279785,
      41.25378997802734,
      40.901040115356444,
      40.853505783081054,
      40.75913040161133,
      41.06565803527832,
      40.844245758056644,
      41.046113662719726,
      41.04485694885254,
      40.87353141784668,
      40.69271606445312,
      40.90553115844727,
      40.75230857849121,
      40.77482063293457,
      40.82566680908203,
      40.42047798156738,
      40.690032958984375,
      40.44359573364258,
      40.42882354736328,
      40.46334266662598,
      40.51411178588867,
      40.775517578125,
      40.79316459655762,
      40.76948387145996,
      40.36094856262207,
      40.67974014282227,
      40.68149169921875,
      40.76078964233398,
      40.64284431457519,
      40.50867073059082,
      40.489750671386716,
      40.27787628173828,
      40.47891479492188,
      40.7698681640625,
      40.761251525878905,
      40.39397750854492,
      40.6456209564209,
      40.30973770141602,
      40.44997367858887,
      40.52950019836426,
      40.686416473388675,
      40.34502960205078,
      40.4652864074707,
      40.18141540527344,
      40.43092208862305,
      40.81474258422852,
      40.44794120788574,
      40.26696929931641,
      40.69293884277344,
      40.53912353515625,
      40.2898274230957,
      40.56680541992188,
      40.49752716064453,
      40.466587142944334,
      40.489138488769534,
      40.26152313232422,
      40.32990036010742,
      40.41868797302246,
      40.50859497070312,
      40.39223205566406,
      40.50545547485351,
      40.19354606628418,
      40.5451277923584,
      40.428792800903324,
      40.34790824890137,
      40.55222129821777,
      40.70167106628418,
      40.45766021728516,
      40.779114990234376,
      40.80995994567871,
      40.40880592346191,
      40.34348403930664,
      40.38742660522461,
      40.46085304260254,
      40.41336044311524,
      40.45398452758789,
      40.46904945373535,
      40.40553848266602,
      40.28069412231445,
      40.595795211791994,
      40.37452293395996,
      40.281936492919925,
      40.53223709106445,
      40.70970100402832,
      40.46441513061524,
      40.47153778076172,
      40.42640686035156,
      40.37295967102051,
      40.52263877868652,
      40.46733238220215,
      40.22149795532226,
      40.375067977905275,
      40.605636520385744,
      40.49237434387207,
      40.37516479492187,
      40.593371887207034,
      40.18702484130859,
      40.547885208129884,
      40.596096954345704,
      40.26647117614746,
      40.47659942626953,
      40.50949447631836,
      40.28225242614746,
      40.24930183410645,
      40.22345443725586,
      40.461894836425785,
      40.282245559692385,
      40.480513153076174,
      40.528391952514646,
      40.44934143066406,
      40.30540214538574,
      40.47651321411133,
      40.376855087280276,
      40.44769241333008,
      40.44089584350586,
      40.10558143615722,
      40.34610359191895,
      40.16984733581543,
      40.15160209655762,
      40.2785880279541,
      40.25789894104004,
      40.53110588073731,
      40.62739852905273,
      40.56494079589844,
      40.17412879943848,
      40.508841094970705,
      40.49615165710449,
      40.60452384948731,
      40.46715042114258,
      40.15086181640625,
      40.148350372314454,
      39.97553512573242,
      40.07268241882324,
      40.459897918701174,
      40.44077972412109,
      40.11103553771973,
      40.28361206054687,
      39.98005088806153,
      40.172163543701174,
      40.21236083984375,
      40.38615104675293,
      40.06148017883301,
      40.24887657165527,
      39.84285385131836,
      40.179190444946286,
      40.45533325195313,
      40.20222885131836,
      40.03553741455078,
      40.39663024902344,
      40.310488586425784,
      40.040906829833986,
      40.274060287475585,
      40.23372116088867,
      40.16676788330078,
      40.23458587646484,
      40.06162551879883,
      40.08408592224121,
      40.17118522644043,
      40.234239959716795,
      40.146051483154295,
      40.27482849121094,
      39.91289611816406,
      40.31480262756347,
      40.19893310546875,
      40.09418434143066,
      40.284191589355466,
      40.43486282348633,
      40.19681297302246,
      40.4849641418457,
      40.51852798461914,
      40.19310272216797,
      40.111369934082035,
      40.154426193237306,
      40.2327847290039,
      40.1557470703125,
      40.228601150512695,
      40.23625564575195,
      40.15325096130371,
      40.03891418457031,
      40.412427520751955,
      40.147586822509766,
      40.090397872924804,
      40.25355094909668,
      40.48133712768555,
      40.23924682617187,
      40.23590034484863,
      40.159110107421874,
      40.111265411376955
    ]
  }
}