{
  "test": {
    "steps": [
      0
    ],
    "timestamps": [
      "2022-07-07T16:03:11.279364"
    ],
    "values": [
      41.50736092913894
    ]
  },
  "train": {
    "steps": [
      0,
      1,
      2,
      3,
      4,
      5,
      6,
      7,
      8,
      9,
      10,
      11,
      12,
      13,
      14,
      15,
      16,
      17,
      18,
      19,
      20,
      21,
      22,
      23,
      24,
      25,
      26,
      27,
      28,
      29,
      30,
      31,
      32,
      33,
      34,
      35,
      36,
      37,
      38,
      39,
      40,
      41,
      42,
      43,
      44,
      45,
      46,
      47,
      48,
      49,
      50,
      51,
      52,
      53,
      54,
      55,
      56,
      57,
      58,
      59,
      60,
      61,
      62,
      63,
      64,
      65,
      66,
      67,
      68,
      69,
      70,
      71,
      72,
      73,
      74,
      75,
      76,
      77,
      78,
      79,
      80,
      81,
      82,
      83,
      84,
      85,
      86,
      87,
      88,
      89,
      90,
      91,
      92,
      93,
      94,
      95,
      96,
      97,
      98,
      99,
      100,
      101,
      102,
      103,
      104,
      105,
      106,
      107,
      108,
      109,
      110,
      111,
      112,
      113,
      114,
      115,
      116,
      117,
      118,
      119,
      120,
      121,
      122,
      123,
      124,
      125,
      126,
      127,
      128,
      129,
      130,
      131,
      132,
      133,
      134,
      135,
      136,
      137,
      138,
      139,
      140,
      141,
      142,
      143,
      144,
      145,
      146,
      147,
      148,
      149,
      150,
      151,
      152,
      153,
      154,
      155,
      156,
      157,
      158,
      159,
      160,
      161,
      162,
      163,
      164,
      165,
      166,
      167,
      168,
      169,
      170,
      171,
      172,
      173,
      174,
      175,
      176,
      177,
      178,
      179,
      180,
      181,
      182,
      183,
      184,
      185,
      186,
      187,
      188,
      189,
      190,
      191,
      192,
      193,
      194,
      195,
      196,
      197,
      198,
      199,
      200,
      201,
      202,
      203,
      204,
      205,
      206,
      207,
      208,
      209,
      210,
      211,
      212,
      213,
      214,
      215,
      216,
      217,
      218,
      219,
      220,
      221,
      222,
      223,
      224,
      225,
      226,
      227,
      228,
      229,
      230,
      231,
      232,
      233,
      234,
      235,
      236,
      237,
      238,
      239,
      240,
      241,
      242,
      243,
      244,
      245,
      246,
      247,
      248,
      249,
      250,
      251,
      252,
      253,
      254,
      255,
      256,
      257,
      258,
      259,
      260,
      261,
      262,
      263,
      264,
      265,
      266,
      267,
      268,
      269,
      270,
      271,
      272,
      273,
      274,
      275,
      276,
      277,
      278,
      279,
      280,
      281,
      282,
      283,
      284,
      285,
      286,
      287,
      288,
      289,
      290,
      291,
      292,
      293,
      294,
      295,
      296,
      297,
      298,
      299
    ],
    "timestamps": [
      "2022-07-07T15:53:10.943761",
      "2022-07-07T15:53:13.425223",
      "2022-07-07T15:53:15.286619",
      "2022-07-07T15:53:17.039577",
      "2022-07-07T15:53:18.779941",
      "2022-07-07T15:53:20.658754",
      "2022-07-07T15:53:22.504799",
      "2022-07-07T15:53:24.259694",
      "2022-07-07T15:53:26.032822",
      "2022-07-07T15:53:27.810876",
      "2022-07-07T15:53:29.591660",
      "2022-07-07T15:53:32.713778",
      "2022-07-07T15:53:34.986182",
      "2022-07-07T15:53:36.919252",
      "2022-07-07T15:53:38.861423",
      "2022-07-07T15:53:40.863692",
      "2022-07-07T15:53:42.806870",
      "2022-07-07T15:53:44.848515",
      "2022-07-07T15:53:46.896130",
      "2022-07-07T15:53:48.833575",
      "2022-07-07T15:53:50.848244",
      "2022-07-07T15:53:52.855886",
      "2022-07-07T15:53:54.962121",
      "2022-07-07T15:53:56.918265",
      "2022-07-07T15:53:58.890011",
      "2022-07-07T15:54:00.928294",
      "2022-07-07T15:54:03.001295",
      "2022-07-07T15:54:04.988203",
      "2022-07-07T15:54:07.088802",
      "2022-07-07T15:54:09.056767",
      "2022-07-07T15:54:11.048051",
      "2022-07-07T15:54:13.092438",
      "2022-07-07T15:54:15.112185",
      "2022-07-07T15:54:17.127144",
      "2022-07-07T15:54:19.173591",
      "2022-07-07T15:54:21.246712",
      "2022-07-07T15:54:23.187125",
      "2022-07-07T15:54:25.237923",
      "2022-07-07T15:54:27.200186",
      "2022-07-07T15:54:29.165383",
      "2022-07-07T15:54:31.226170",
      "2022-07-07T15:54:33.205673",
      "2022-07-07T15:54:35.146592",
      "2022-07-07T15:54:37.092040",
      "2022-07-07T15:54:39.085369",
      "2022-07-07T15:54:41.188570",
      "2022-07-07T15:54:43.150843",
      "2022-07-07T15:54:45.183745",
      "2022-07-07T15:54:47.131098",
      "2022-07-07T15:54:48.961602",
      "2022-07-07T15:54:50.837641",
      "2022-07-07T15:54:52.795511",
      "2022-07-07T15:54:54.625058",
      "2022-07-07T15:54:56.489797",
      "2022-07-07T15:54:58.346526",
      "2022-07-07T15:55:00.234850",
      "2022-07-07T15:55:02.201574",
      "2022-07-07T15:55:04.129930",
      "2022-07-07T15:55:06.037035",
      "2022-07-07T15:55:07.918466",
      "2022-07-07T15:55:09.804565",
      "2022-07-07T15:55:11.775997",
      "2022-07-07T15:55:13.634672",
      "2022-07-07T15:55:15.512961",
      "2022-07-07T15:55:17.638341",
      "2022-07-07T15:55:19.759325",
      "2022-07-07T15:55:21.873677",
      "2022-07-07T15:55:23.845675",
      "2022-07-07T15:55:25.788143",
      "2022-07-07T15:55:27.904793",
      "2022-07-07T15:55:30.151795",
      "2022-07-07T15:55:32.247155",
      "2022-07-07T15:55:34.318465",
      "2022-07-07T15:55:36.441596",
      "2022-07-07T15:55:38.549984",
      "2022-07-07T15:55:40.640633",
      "2022-07-07T15:55:42.693614",
      "2022-07-07T15:55:44.774152",
      "2022-07-07T15:55:46.980581",
      "2022-07-07T15:55:49.099419",
      "2022-07-07T15:55:51.172361",
      "2022-07-07T15:55:53.243158",
      "2022-07-07T15:55:55.320162",
      "2022-07-07T15:55:57.417518",
      "2022-07-07T15:55:59.514720",
      "2022-07-07T15:56:01.569742",
      "2022-07-07T15:56:03.656822",
      "2022-07-07T15:56:05.975953",
      "2022-07-07T15:56:07.970385",
      "2022-07-07T15:56:10.036656",
      "2022-07-07T15:56:12.149092",
      "2022-07-07T15:56:14.088351",
      "2022-07-07T15:56:16.119651",
      "2022-07-07T15:56:18.156939",
      "2022-07-07T15:56:20.058386",
      "2022-07-07T15:56:22.066473",
      "2022-07-07T15:56:23.892309",
      "2022-07-07T15:56:25.950463",
      "2022-07-07T15:56:27.865957",
      "2022-07-07T15:56:29.908574",
      "2022-07-07T15:56:32.013593",
      "2022-07-07T15:56:33.986456",
      "2022-07-07T15:56:36.000114",
      "2022-07-07T15:56:38.069411",
      "2022-07-07T15:56:40.005872",
      "2022-07-07T15:56:42.278896",
      "2022-07-07T15:56:44.172183",
      "2022-07-07T15:56:46.056426",
      "2022-07-07T15:56:47.968326",
      "2022-07-07T15:56:49.834835",
      "2022-07-07T15:56:52.118614",
      "2022-07-07T15:56:53.986519",
      "2022-07-07T15:56:55.870790",
      "2022-07-07T15:56:57.750746",
      "2022-07-07T15:56:59.665826",
      "2022-07-07T15:57:01.732326",
      "2022-07-07T15:57:03.620574",
      "2022-07-07T15:57:05.516595",
      "2022-07-07T15:57:07.452758",
      "2022-07-07T15:57:09.459551",
      "2022-07-07T15:57:11.446759",
      "2022-07-07T15:57:13.433698",
      "2022-07-07T15:57:15.353456",
      "2022-07-07T15:57:17.256317",
      "2022-07-07T15:57:19.184069",
      "2022-07-07T15:57:21.076814",
      "2022-07-07T15:57:22.980652",
      "2022-07-07T15:57:25.099978",
      "2022-07-07T15:57:27.039499",
      "2022-07-07T15:57:28.989225",
      "2022-07-07T15:57:31.298879",
      "2022-07-07T15:57:33.248236",
      "2022-07-07T15:57:35.190857",
      "2022-07-07T15:57:37.171834",
      "2022-07-07T15:57:39.032799",
      "2022-07-07T15:57:40.996436",
      "2022-07-07T15:57:42.912877",
      "2022-07-07T15:57:44.771122",
      "2022-07-07T15:57:46.644214",
      "2022-07-07T15:57:48.500332",
      "2022-07-07T15:57:50.465139",
      "2022-07-07T15:57:52.455606",
      "2022-07-07T15:57:54.338911",
      "2022-07-07T15:57:56.429965",
      "2022-07-07T15:57:58.605116",
      "2022-07-07T15:58:00.668993",
      "2022-07-07T15:58:02.682040",
      "2022-07-07T15:58:04.592900",
      "2022-07-07T15:58:06.569906",
      "2022-07-07T15:58:08.737680",
      "2022-07-07T15:58:10.630821",
      "2022-07-07T15:58:12.570203",
      "2022-07-07T15:58:14.820219",
      "2022-07-07T15:58:16.784916",
      "2022-07-07T15:58:18.676940",
      "2022-07-07T15:58:20.623870",
      "2022-07-07T15:58:22.538921",
      "2022-07-07T15:58:24.543787",
      "2022-07-07T15:58:26.438688",
      "2022-07-07T15:58:28.420528",
      "2022-07-07T15:58:30.373025",
      "2022-07-07T15:58:32.585242",
      "2022-07-07T15:58:34.555479",
      "2022-07-07T15:58:36.600120",
      "2022-07-07T15:58:38.503271",
      "2022-07-07T15:58:40.409672",
      "2022-07-07T15:58:42.397026",
      "2022-07-07T15:58:44.326271",
      "2022-07-07T15:58:46.291260",
      "2022-07-07T15:58:48.187024",
      "2022-07-07T15:58:50.143461",
      "2022-07-07T15:58:52.219324",
      "2022-07-07T15:58:54.199310",
      "2022-07-07T15:58:56.123353",
      "2022-07-07T15:58:58.153059",
      "2022-07-07T15:59:00.094276",
      "2022-07-07T15:59:02.071876",
      "2022-07-07T15:59:03.968012",
      "2022-07-07T15:59:05.985960",
      "2022-07-07T15:59:07.938280",
      "2022-07-07T15:59:09.871424",
      "2022-07-07T15:59:12.161834",
      "2022-07-07T15:59:14.234188",
      "2022-07-07T15:59:16.163047",
      "2022-07-07T15:59:18.127807",
      "2022-07-07T15:59:20.211078",
      "2022-07-07T15:59:22.338715",
      "2022-07-07T15:59:24.321694",
      "2022-07-07T15:59:26.349508",
      "2022-07-07T15:59:28.391813",
      "2022-07-07T15:59:30.476480",
      "2022-07-07T15:59:32.676406",
      "2022-07-07T15:59:34.692634",
      "2022-07-07T15:59:36.854701",
      "2022-07-07T15:59:38.885096",
      "2022-07-07T15:59:41.042580",
      "2022-07-07T15:59:43.076498",
      "2022-07-07T15:59:45.079041",
      "2022-07-07T15:59:47.211852",
      "2022-07-07T15:59:49.342087",
      "2022-07-07T15:59:51.420126",
      "2022-07-07T15:59:53.487611",
      "2022-07-07T15:59:55.435514",
      "2022-07-07T15:59:57.818451",
      "2022-07-07T15:59:59.761396",
      "2022-07-07T16:00:01.963843",
      "2022-07-07T16:00:04.006660",
      "2022-07-07T16:00:05.933133",
      "2022-07-07T16:00:08.175896",
      "2022-07-07T16:00:10.080520",
      "2022-07-07T16:00:12.014745",
      "2022-07-07T16:00:13.991804",
      "2022-07-07T16:00:15.915440",
      "2022-07-07T16:00:17.823780",
      "2022-07-07T16:00:19.934548",
      "2022-07-07T16:00:22.162003",
      "2022-07-07T16:00:24.119483",
      "2022-07-07T16:00:26.043357",
      "2022-07-07T16:00:27.992089",
      "2022-07-07T16:00:29.962910",
      "2022-07-07T16:00:32.192132",
      "2022-07-07T16:00:34.234046",
      "2022-07-07T16:00:36.194444",
      "2022-07-07T16:00:38.283460",
      "2022-07-07T16:00:40.412486",
      "2022-07-07T16:00:42.392350",
      "2022-07-07T16:00:44.385710",
      "2022-07-07T16:00:46.477903",
      "2022-07-07T16:00:48.534460",
      "2022-07-07T16:00:50.657536",
      "2022-07-07T16:00:53.030402",
      "2022-07-07T16:00:55.073874",
      "2022-07-07T16:00:57.086834",
      "2022-07-07T16:00:59.053770",
      "2022-07-07T16:01:01.005043",
      "2022-07-07T16:01:02.937199",
      "2022-07-07T16:01:04.888895",
      "2022-07-07T16:01:06.838478",
      "2022-07-07T16:01:08.849843",
      "2022-07-07T16:01:10.813810",
      "2022-07-07T16:01:12.718470",
      "2022-07-07T16:01:14.751066",
      "2022-07-07T16:01:16.699767",
      "2022-07-07T16:01:18.689777",
      "2022-07-07T16:01:20.783725",
      "2022-07-07T16:01:22.909869",
      "2022-07-07T16:01:24.996216",
      "2022-07-07T16:01:27.077715",
      "2022-07-07T16:01:29.215703",
      "2022-07-07T16:01:31.428360",
      "2022-07-07T16:01:33.404544",
      "2022-07-07T16:01:35.500496",
      "2022-07-07T16:01:37.514969",
      "2022-07-07T16:01:39.578576",
      "2022-07-07T16:01:41.705259",
      "2022-07-07T16:01:43.634328",
      "2022-07-07T16:01:45.595618",
      "2022-07-07T16:01:47.536217",
      "2022-07-07T16:01:49.521279",
      "2022-07-07T16:01:51.691746",
      "2022-07-07T16:01:53.626024",
      "2022-07-07T16:01:55.627773",
      "2022-07-07T16:01:57.535239",
      "2022-07-07T16:01:59.432428",
      "2022-07-07T16:02:01.668640",
      "2022-07-07T16:02:03.650878",
      "2022-07-07T16:02:05.607561",
      "2022-07-07T16:02:07.596429",
      "2022-07-07T16:02:09.511834",
      "2022-07-07T16:02:11.554280",
      "2022-07-07T16:02:13.503002",
      "2022-07-07T16:02:15.464992",
      "2022-07-07T16:02:17.383554",
      "2022-07-07T16:02:19.239469",
      "2022-07-07T16:02:21.362481",
      "2022-07-07T16:02:23.304125",
      "2022-07-07T16:02:25.206057",
      "2022-07-07T16:02:27.124514",
      "2022-07-07T16:02:29.113984",
      "2022-07-07T16:02:31.075263",
      "2022-07-07T16:02:33.110931",
      "2022-07-07T16:02:34.999129",
      "2022-07-07T16:02:36.983254",
      "2022-07-07T16:02:38.931775",
      "2022-07-07T16:02:40.881175",
      "2022-07-07T16:02:42.821459",
      "2022-07-07T16:02:44.737947",
      "2022-07-07T16:02:46.709017",
      "2022-07-07T16:02:48.639103",
      "2022-07-07T16:02:50.635649",
      "2022-07-07T16:02:52.702802",
      "2022-07-07T16:02:54.588573",
      "2022-07-07T16:02:56.519129",
      "2022-07-07T16:02:58.400506",
      "2022-07-07T16:03:00.373086",
      "2022-07-07T16:03:02.442939",
      "2022-07-07T16:03:04.373808",
      "2022-07-07T16:03:06.448114",
      "2022-07-07T16:03:08.601667",
      "2022-07-07T16:03:10.828870"
    ],
    "values": [
      60.85232457445691,
      44.4225042166321,
      43.20797378899874,
      42.85087472868277,
      42.751726044797834,
      42.650829475655,
      42.51002601195995,
      42.48044652855933,
      42.467064077323315,
      42.357305555819686,
      42.44819594680602,
      42.3953955593526,
      42.34281630113812,
      42.35535450847987,
      42.31772553092089,
      42.34547530220365,
      42.342983457307426,
      42.30815667189339,
      42.29759445673976,
      42.32948887583418,
      42.2846613681597,
      42.31429181387909,
      42.233123363368264,
      42.22672183493386,
      42.279981594066776,
      42.236461761352345,
      42.24585457938864,
      42.212109954857354,
      42.22930789056909,
      42.25246580286373,
      42.22422389603346,
      42.220040541709224,
      42.180574845236414,
      42.19027010693679,
      42.16817010819198,
      42.175649365455484,
      42.185218774025564,
      42.16522232490951,
      42.18696772306106,
      42.15268817783536,
      42.20392338483121,
      42.173488986374544,
      42.16114566308531,
      42.16215487526969,
      42.154095786194254,
      42.15082121990665,
      42.131201379302375,
      42.09490887547259,
      42.152518338321435,
      42.15623416013542,
      42.12250107066376,
      42.135290171827634,
      42.14044346725959,
      42.13908041200386,
      42.13358262490735,
      42.107492880201505,
      42.11094605535781,
      42.11662695746827,
      42.11420193526219,
      42.09519923930361,
      42.135529856352996,
      42.11141051690302,
      42.09231159100413,
      42.11071748236343,
      42.068315647950584,
      42.077400821494095,
      42.09791427344222,
      42.09546070333158,
      42.09171370032149,
      42.11522934168457,
      42.089836484503024,
      42.09965543297244,
      42.13477006779301,
      42.06892492384972,
      42.11837683185161,
      42.06892275013067,
      42.08156823431117,
      42.07095868712921,
      42.0541668101987,
      42.07916422743014,
      42.06110669376839,
      42.095676582317125,
      42.097944628594675,
      42.106061956699286,
      42.06519977175855,
      42.067834321938975,
      42.062657559791226,
      42.04858664927905,
      42.048695154022234,
      42.06088694670802,
      42.0353989735657,
      42.05306830656874,
      42.025216264185346,
      42.037762565074566,
      42.070435340262236,
      42.077174826606935,
      42.00403092692591,
      42.04371432597969,
      42.08130776432432,
      42.007730043845775,
      42.026844258992895,
      42.01713217435412,
      42.07353780559763,
      42.04420179454265,
      41.99032705314439,
      42.031650449508064,
      42.03269645647006,
      42.01627766106853,
      42.04090964120469,
      42.011374976139386,
      42.04208516940221,
      42.039041168397155,
      42.04546695032374,
      42.0179180318996,
      42.009897559808245,
      42.01443297425037,
      42.01594571428333,
      42.03643568556104,
      42.00549870323777,
      41.996185464210114,
      42.02932958011535,
      42.01728915138951,
      42.03143419761075,
      42.002990908251405,
      42.03172580298181,
      42.02796367297717,
      41.853570196942,
      41.75791310749276,
      41.73753413494437,
      41.728503724038035,
      41.715503916583195,
      41.715429173199084,
      41.707082777670195,
      41.70590863682063,
      41.7076603276491,
      41.70267978775557,
      41.7159236020206,
      41.705128120776855,
      41.7117684200623,
      41.70533804817794,
      41.71380635140255,
      41.70062606623735,
      41.708205109229056,
      41.70290218639834,
      41.706821504213366,
      41.71029314659631,
      41.704915602974886,
      41.700625355314685,
      41.70084809215431,
      41.71171569555155,
      41.701657967992524,
      41.69994839837341,
      41.70264860952811,
      41.706352256713195,
      41.70378874317978,
      41.700613095338014,
      41.707643592569326,
      41.704932833059445,
      41.68675969409754,
      41.675237060397315,
      41.67041665234317,
      41.66938306839368,
      41.66393660028969,
      41.667744391138974,
      41.65954092767638,
      41.668751340675264,
      41.660991189930364,
      41.6615958917327,
      41.66122294185369,
      41.66461520309756,
      41.660897441994564,
      41.66299365525386,
      41.663460687066745,
      41.6614375882207,
      41.66211706529501,
      41.66220637666995,
      41.66107481052426,
      41.66338706627025,
      41.657591572704725,
      41.66396468877929,
      41.66383360832917,
      41.660555602675494,
      41.66224911745413,
      41.66089529324957,
      41.66168385616838,
      41.66234035619716,
      41.66698263215003,
      41.668096950374135,
      41.66702556727024,
      41.66506488681243,
      41.66190814284671,
      41.66024166642646,
      41.66119542109358,
      41.660299588046264,
      41.658341295085556,
      41.65799076794493,
      41.658427477099046,
      41.658860152542296,
      41.659187841906196,
      41.6582418107299,
      41.657650525206364,
      41.65752352599336,
      41.65773051201845,
      41.65692735173538,
      41.65711393246338,
      41.6572358700048,
      41.6572527956741,
      41.65841137891714,
      41.660253490687865,
      41.6608379938667,
      41.66084899387184,
      41.660658043837,
      41.66041793163876,
      41.66021260515483,
      41.66002000838324,
      41.659788145294634,
      41.659512270758135,
      41.6592156391095,
      41.658918137088584,
      41.65863359881232,
      41.65837940716947,
      41.65817854413478,
      41.65802100907282,
      41.657872395320695,
      41.65770785620063,
      41.657534453891,
      41.65738649506449,
      41.65725741654781,
      41.657145910235734,
      41.65707574775329,
      41.657108215782884,
      41.65735545661282,
      41.65773149084556,
      41.65795237779388,
      41.65800383487938,
      41.657986973046164,
      41.65796130224777,
      41.657929693134314,
      41.65788221047781,
      41.657811703684246,
      41.65772025125762,
      41.657628497064515,
      41.657549560848494,
      41.65749915698038,
      41.65746444892445,
      41.6574305032058,
      41.657392546176936,
      41.65735691098237,
      41.65736778653404,
      41.65739900008237,
      41.65740636371311,
      41.65742685866495,
      41.657512539729254,
      41.657679009667746,
      41.65787179865785,
      41.65795857583242,
      41.65788267753657,
      41.65768418643207,
      41.65745581775633,
      41.65725550973492,
      41.65712166439945,
      41.65708928496756,
      41.65715999541478,
      41.65734833965676,
      41.65760227475418,
      41.657806304004914,
      41.657882859558285,
      41.65780755896351,
      41.657645895920794,
      41.65745452269064,
      41.65729275981795,
      41.657212726185044,
      41.657214953467516,
      41.65723260250746,
      41.65719816110517,
      41.65714653177754,
      41.657122948515955,
      41.657123228177895,
      41.65710527184377,
      41.65708122645554,
      41.657110757146754,
      41.657269069099975,
      41.65756484272713,
      41.65783721681867,
      41.657937199401715,
      41.657875147144466,
      41.65774866441253,
      41.65759183398229,
      41.65742383998149,
      41.65726488334999,
      41.65714886469267,
      41.65708998213234,
      41.65706376247539,
      41.65706108161819,
      41.65706933175111,
      41.65705638416147,
      41.657099425457865,
      41.65732632121417,
      41.657730460632116,
      41.65802919939622
    ]
  },
  "val": {
    "steps": [
      0,
      1,
      2,
      3,
      4,
      5,
      6,
      7,
      8,
      9,
      10,
      11,
      12,
      13,
      14,
      15,
      16,
      17,
      18,
      19,
      20,
      21,
      22,
      23,
      24,
      25,
      26,
      27,
      28,
      29,
      30,
      31,
      32,
      33,
      34,
      35,
      36,
      37,
      38,
      39,
      40,
      41,
      42,
      43,
      44,
      45,
      46,
      47,
      48,
      49,
      50,
      51,
      52,
      53,
      54,
      55,
      56,
      57,
      58,
      59,
      60,
      61,
      62,
      63,
      64,
      65,
      66,
      67,
      68,
      69,
      70,
      71,
      72,
      73,
      74,
      75,
      76,
      77,
      78,
      79,
      80,
      81,
      82,
      83,
      84,
      85,
      86,
      87,
      88,
      89,
      90,
      91,
      92,
      93,
      94,
      95,
      96,
      97,
      98,
      99,
      100,
      101,
      102,
      103,
      104,
      105,
      106,
      107,
      108,
      109,
      110,
      111,
      112,
      113,
      114,
      115,
      116,
      117,
      118,
      119,
      120,
      121,
      122,
      123,
      124,
      125,
      126,
      127,
      128,
      129,
      130,
      131,
      132,
      133,
      134,
      135,
      136,
      137,
      138,
      139,
      140,
      141,
      142,
      143,
      144,
      145,
      146,
      147,
      148,
      149,
      150,
      151,
      152,
      153,
      154,
      155,
      156,
      157,
      158,
      159,
      160,
      161,
      162,
      163,
      164,
      165,
      166,
      167,
      168,
      169,
      170,
      171,
      172,
      173,
      174,
      175,
      176,
      177,
      178,
      179,
      180,
      181,
      182,
      183,
      184,
      185,
      186,
      187,
      188,
      189,
      190,
      191,
      192,
      193,
      194,
      195,
      196,
      197,
      198,
      199,
      200,
      201,
      202,
      203,
      204,
      205,
      206,
      207,
      208,
      209,
      210,
      211,
      212,
      213,
      214,
      215,
      216,
      217,
      218,
      219,
      220,
      221,
      222,
      223,
      224,
      225,
      226,
      227,
      228,
      229,
      230,
      231,
      232,
      233,
      234,
      235,
      236,
      237,
      238,
      239,
      240,
      241,
      242,
      243,
      244,
      245,
      246,
      247,
      248,
      249,
      250,
      251,
      252,
      253,
      254,
      255,
      256,
      257,
      258,
      259,
      260,
      261,
      262,
      263,
      264,
      265,
      266,
      267,
      268,
      269,
      270,
      271,
      272,
      273,
      274,
      275,
      276,
      277,
      278,
      279,
      280,
      281,
      282,
      283,
      284,
      285,
      286,
      287,
      288,
      289,
      290,
      291,
      292,
      293,
      294,
      295,
      296,
      297,
      298,
      299
    ],
    "timestamps": [
      "2022-07-07T15:53:11.252698",
      "2022-07-07T15:53:13.646600",
      "2022-07-07T15:53:15.426316",
      "2022-07-07T15:53:17.182414",
      "2022-07-07T15:53:18.919567",
      "2022-07-07T15:53:20.873534",
      "2022-07-07T15:53:22.643616",
      "2022-07-07T15:53:24.401776",
      "2022-07-07T15:53:26.177766",
      "2022-07-07T15:53:27.964405",
      "2022-07-07T15:53:29.733845",
      "2022-07-07T15:53:33.197518",
      "2022-07-07T15:53:35.153824",
      "2022-07-07T15:53:37.081710",
      "2022-07-07T15:53:39.038476",
      "2022-07-07T15:53:41.035944",
      "2022-07-07T15:53:42.967892",
      "2022-07-07T15:53:45.026665",
      "2022-07-07T15:53:47.062942",
      "2022-07-07T15:53:48.992795",
      "2022-07-07T15:53:51.036610",
      "2022-07-07T15:53:53.028828",
      "2022-07-07T15:53:55.119125",
      "2022-07-07T15:53:57.084655",
      "2022-07-07T15:53:59.055535",
      "2022-07-07T15:54:01.196474",
      "2022-07-07T15:54:03.175379",
      "2022-07-07T15:54:05.170403",
      "2022-07-07T15:54:07.256319",
      "2022-07-07T15:54:09.253142",
      "2022-07-07T15:54:11.255066",
      "2022-07-07T15:54:13.301214",
      "2022-07-07T15:54:15.284590",
      "2022-07-07T15:54:17.295062",
      "2022-07-07T15:54:19.344084",
      "2022-07-07T15:54:21.409622",
      "2022-07-07T15:54:23.350247",
      "2022-07-07T15:54:25.391548",
      "2022-07-07T15:54:27.363417",
      "2022-07-07T15:54:29.329892",
      "2022-07-07T15:54:31.439420",
      "2022-07-07T15:54:33.377111",
      "2022-07-07T15:54:35.313879",
      "2022-07-07T15:54:37.260135",
      "2022-07-07T15:54:39.289818",
      "2022-07-07T15:54:41.392502",
      "2022-07-07T15:54:43.351199",
      "2022-07-07T15:54:45.363027",
      "2022-07-07T15:54:47.286853",
      "2022-07-07T15:54:49.120070",
      "2022-07-07T15:54:51.009287",
      "2022-07-07T15:54:52.953401",
      "2022-07-07T15:54:54.782473",
      "2022-07-07T15:54:56.651752",
      "2022-07-07T15:54:58.502004",
      "2022-07-07T15:55:00.403252",
      "2022-07-07T15:55:02.354924",
      "2022-07-07T15:55:04.314548",
      "2022-07-07T15:55:06.194760",
      "2022-07-07T15:55:08.080622",
      "2022-07-07T15:55:09.973378",
      "2022-07-07T15:55:11.933594",
      "2022-07-07T15:55:13.790723",
      "2022-07-07T15:55:15.701078",
      "2022-07-07T15:55:17.860178",
      "2022-07-07T15:55:19.939955",
      "2022-07-07T15:55:22.050356",
      "2022-07-07T15:55:24.009053",
      "2022-07-07T15:55:25.977354",
      "2022-07-07T15:55:28.114445",
      "2022-07-07T15:55:30.348247",
      "2022-07-07T15:55:32.433577",
      "2022-07-07T15:55:34.498914",
      "2022-07-07T15:55:36.624143",
      "2022-07-07T15:55:38.738155",
      "2022-07-07T15:55:40.820257",
      "2022-07-07T15:55:42.876458",
      "2022-07-07T15:55:44.987825",
      "2022-07-07T15:55:47.172992",
      "2022-07-07T15:55:49.279154",
      "2022-07-07T15:55:51.367926",
      "2022-07-07T15:55:53.428484",
      "2022-07-07T15:55:55.501753",
      "2022-07-07T15:55:57.598341",
      "2022-07-07T15:55:59.700324",
      "2022-07-07T15:56:01.747295",
      "2022-07-07T15:56:03.965798",
      "2022-07-07T15:56:06.140573",
      "2022-07-07T15:56:08.137682",
      "2022-07-07T15:56:10.234642",
      "2022-07-07T15:56:12.311469",
      "2022-07-07T15:56:14.278015",
      "2022-07-07T15:56:16.286458",
      "2022-07-07T15:56:18.317469",
      "2022-07-07T15:56:20.235527",
      "2022-07-07T15:56:22.228371",
      "2022-07-07T15:56:24.069812",
      "2022-07-07T15:56:26.111652",
      "2022-07-07T15:56:28.034198",
      "2022-07-07T15:56:30.130030",
      "2022-07-07T15:56:32.187267",
      "2022-07-07T15:56:34.150082",
      "2022-07-07T15:56:36.207024",
      "2022-07-07T15:56:38.237891",
      "2022-07-07T15:56:40.233294",
      "2022-07-07T15:56:42.439941",
      "2022-07-07T15:56:44.334380",
      "2022-07-07T15:56:46.213928",
      "2022-07-07T15:56:48.123237",
      "2022-07-07T15:56:50.036642",
      "2022-07-07T15:56:52.277823",
      "2022-07-07T15:56:54.146660",
      "2022-07-07T15:56:56.031069",
      "2022-07-07T15:56:57.911408",
      "2022-07-07T15:56:59.874206",
      "2022-07-07T15:57:01.891749",
      "2022-07-07T15:57:03.781881",
      "2022-07-07T15:57:05.677439",
      "2022-07-07T15:57:07.630298",
      "2022-07-07T15:57:09.627540",
      "2022-07-07T15:57:11.622254",
      "2022-07-07T15:57:13.598392",
      "2022-07-07T15:57:15.516330",
      "2022-07-07T15:57:17.418598",
      "2022-07-07T15:57:19.347593",
      "2022-07-07T15:57:21.234310",
      "2022-07-07T15:57:23.145397",
      "2022-07-07T15:57:25.300541",
      "2022-07-07T15:57:27.195815",
      "2022-07-07T15:57:29.188891",
      "2022-07-07T15:57:31.454580",
      "2022-07-07T15:57:33.414711",
      "2022-07-07T15:57:35.355953",
      "2022-07-07T15:57:37.325034",
      "2022-07-07T15:57:39.191340",
      "2022-07-07T15:57:41.196512",
      "2022-07-07T15:57:43.065105",
      "2022-07-07T15:57:44.928049",
      "2022-07-07T15:57:46.797845",
      "2022-07-07T15:57:48.655729",
      "2022-07-07T15:57:50.644912",
      "2022-07-07T15:57:52.611788",
      "2022-07-07T15:57:54.545494",
      "2022-07-07T15:57:56.636952",
      "2022-07-07T15:57:58.835068",
      "2022-07-07T15:58:00.862036",
      "2022-07-07T15:58:02.853675",
      "2022-07-07T15:58:04.754950",
      "2022-07-07T15:58:06.728660",
      "2022-07-07T15:58:08.900118",
      "2022-07-07T15:58:10.796896",
      "2022-07-07T15:58:12.826660",
      "2022-07-07T15:58:14.986522",
      "2022-07-07T15:58:16.943186",
      "2022-07-07T15:58:18.846213",
      "2022-07-07T15:58:20.791061",
      "2022-07-07T15:58:22.703968",
      "2022-07-07T15:58:24.700164",
      "2022-07-07T15:58:26.601402",
      "2022-07-07T15:58:28.576326",
      "2022-07-07T15:58:30.587007",
      "2022-07-07T15:58:32.767146",
      "2022-07-07T15:58:34.719205",
      "2022-07-07T15:58:36.764289",
      "2022-07-07T15:58:38.662835",
      "2022-07-07T15:58:40.590829",
      "2022-07-07T15:58:42.560150",
      "2022-07-07T15:58:44.489885",
      "2022-07-07T15:58:46.448144",
      "2022-07-07T15:58:48.348104",
      "2022-07-07T15:58:50.317308",
      "2022-07-07T15:58:52.394831",
      "2022-07-07T15:58:54.357058",
      "2022-07-07T15:58:56.325436",
      "2022-07-07T15:58:58.320698",
      "2022-07-07T15:59:00.260534",
      "2022-07-07T15:59:02.234019",
      "2022-07-07T15:59:04.143770",
      "2022-07-07T15:59:06.174670",
      "2022-07-07T15:59:08.100378",
      "2022-07-07T15:59:10.103736",
      "2022-07-07T15:59:12.343885",
      "2022-07-07T15:59:14.392642",
      "2022-07-07T15:59:16.328071",
      "2022-07-07T15:59:18.293370",
      "2022-07-07T15:59:20.388300",
      "2022-07-07T15:59:22.509861",
      "2022-07-07T15:59:24.487801",
      "2022-07-07T15:59:26.540705",
      "2022-07-07T15:59:28.572462",
      "2022-07-07T15:59:30.721068",
      "2022-07-07T15:59:32.884363",
      "2022-07-07T15:59:34.961181",
      "2022-07-07T15:59:37.029217",
      "2022-07-07T15:59:39.081900",
      "2022-07-07T15:59:41.288431",
      "2022-07-07T15:59:43.246142",
      "2022-07-07T15:59:45.302384",
      "2022-07-07T15:59:47.381398",
      "2022-07-07T15:59:49.535319",
      "2022-07-07T15:59:51.590600",
      "2022-07-07T15:59:53.649326",
      "2022-07-07T15:59:55.615620",
      "2022-07-07T15:59:58.001258",
      "2022-07-07T15:59:59.923405",
      "2022-07-07T16:00:02.211677",
      "2022-07-07T16:00:04.163625",
      "2022-07-07T16:00:06.091132",
      "2022-07-07T16:00:08.335312",
      "2022-07-07T16:00:10.243589",
      "2022-07-07T16:00:12.194295",
      "2022-07-07T16:00:14.155823",
      "2022-07-07T16:00:16.082569",
      "2022-07-07T16:00:17.989145",
      "2022-07-07T16:00:20.170525",
      "2022-07-07T16:00:22.336544",
      "2022-07-07T16:00:24.292779",
      "2022-07-07T16:00:26.214176",
      "2022-07-07T16:00:28.156971",
      "2022-07-07T16:00:30.187177",
      "2022-07-07T16:00:32.367532",
      "2022-07-07T16:00:34.427857",
      "2022-07-07T16:00:36.351790",
      "2022-07-07T16:00:38.466378",
      "2022-07-07T16:00:40.584726",
      "2022-07-07T16:00:42.573540",
      "2022-07-07T16:00:44.639461",
      "2022-07-07T16:00:46.686544",
      "2022-07-07T16:00:48.714677",
      "2022-07-07T16:00:50.899670",
      "2022-07-07T16:00:53.209587",
      "2022-07-07T16:00:55.287663",
      "2022-07-07T16:00:57.249452",
      "2022-07-07T16:00:59.228889",
      "2022-07-07T16:01:01.170900",
      "2022-07-07T16:01:03.095808",
      "2022-07-07T16:01:05.050487",
      "2022-07-07T16:01:07.002683",
      "2022-07-07T16:01:09.019678",
      "2022-07-07T16:01:10.977069",
      "2022-07-07T16:01:12.923161",
      "2022-07-07T16:01:14.915795",
      "2022-07-07T16:01:16.864222",
      "2022-07-07T16:01:18.871858",
      "2022-07-07T16:01:20.991809",
      "2022-07-07T16:01:23.078067",
      "2022-07-07T16:01:25.201535",
      "2022-07-07T16:01:27.357018",
      "2022-07-07T16:01:29.460719",
      "2022-07-07T16:01:31.590133",
      "2022-07-07T16:01:33.574005",
      "2022-07-07T16:01:35.714289",
      "2022-07-07T16:01:37.686556",
      "2022-07-07T16:01:39.754353",
      "2022-07-07T16:01:41.869146",
      "2022-07-07T16:01:43.799565",
      "2022-07-07T16:01:45.763263",
      "2022-07-07T16:01:47.700989",
      "2022-07-07T16:01:49.687792",
      "2022-07-07T16:01:51.857607",
      "2022-07-07T16:01:53.799592",
      "2022-07-07T16:01:55.788452",
      "2022-07-07T16:01:57.696054",
      "2022-07-07T16:01:59.588480",
      "2022-07-07T16:02:01.866253",
      "2022-07-07T16:02:03.814852",
      "2022-07-07T16:02:05.772797",
      "2022-07-07T16:02:07.764470",
      "2022-07-07T16:02:09.673294",
      "2022-07-07T16:02:11.729543",
      "2022-07-07T16:02:13.666481",
      "2022-07-07T16:02:15.632111",
      "2022-07-07T16:02:17.545305",
      "2022-07-07T16:02:19.408000",
      "2022-07-07T16:02:21.529207",
      "2022-07-07T16:02:23.464131",
      "2022-07-07T16:02:25.363801",
      "2022-07-07T16:02:27.280837",
      "2022-07-07T16:02:29.280150",
      "2022-07-07T16:02:31.250481",
      "2022-07-07T16:02:33.270068",
      "2022-07-07T16:02:35.167968",
      "2022-07-07T16:02:37.146023",
      "2022-07-07T16:02:39.093357",
      "2022-07-07T16:02:41.050899",
      "2022-07-07T16:02:42.982519",
      "2022-07-07T16:02:44.896646",
      "2022-07-07T16:02:46.873499",
      "2022-07-07T16:02:48.800546",
      "2022-07-07T16:02:50.813715",
      "2022-07-07T16:02:52.859737",
      "2022-07-07T16:02:54.753414",
      "2022-07-07T16:02:56.676307",
      "2022-07-07T16:02:58.568190",
      "2022-07-07T16:03:00.546798",
      "2022-07-07T16:03:02.611448",
      "2022-07-07T16:03:04.534257",
      "2022-07-07T16:03:06.671359",
      "2022-07-07T16:03:08.791177",
      "2022-07-07T16:03:11.045587"
    ],
    "values": [
      45.428930860527316,
      43.036587190483736,
      42.80791983746138,
      42.74598196210597,
      42.515251273459015,
      42.715500580889874,
      42.54250670724195,
      42.49895715785152,
      42.09404684767521,
      42.53104200154243,
      42.412640235896085,
      42.29145431819223,
      42.00812093203928,
      42.280615398091925,
      42.27676474904855,
      42.33671735778463,
      42.279903835851094,
      42.109540976327686,
      42.20485736093994,
      42.14932204201881,
      41.9795537374593,
      42.18834407474581,
      42.12032864897431,
      42.21668569015917,
      42.1188541492671,
      42.09629223641302,
      42.06025303409388,
      42.23693934206048,
      41.93241966516244,
      42.188758277189315,
      42.185452225199306,
      42.19982933894751,
      42.07955497005348,
      41.97999279675348,
      42.152139347842336,
      42.240685487453604,
      41.96765003537592,
      42.11874733193461,
      42.072191593162394,
      42.065798434636115,
      41.95025336903324,
      42.08331409707673,
      42.12006551193832,
      41.88651630013944,
      42.22452953228556,
      41.96838004463569,
      41.96420955983584,
      42.05963200026207,
      42.04266150944606,
      41.93221789515118,
      41.95961327577216,
      42.0074669833393,
      42.013472561001244,
      42.11422182429532,
      42.09658624928114,
      41.910296482095816,
      42.00679873036425,
      41.90387212008639,
      41.989125655242894,
      42.08348390056918,
      42.10274920216358,
      41.86700503028045,
      42.0599477240181,
      42.00976324738247,
      41.99256763819039,
      41.98644862682363,
      42.00216399266674,
      42.05550282331003,
      42.20434564901925,
      41.96373255805786,
      41.999255240987566,
      42.12108125668238,
      41.97654622021477,
      42.24013729241349,
      41.97743758336809,
      42.03661574703261,
      42.11506413792442,
      41.8718860302911,
      41.94798707894436,
      42.042358043953534,
      42.020781160091666,
      42.020184686728854,
      41.969446128472576,
      41.993146968433535,
      41.97238323742073,
      41.9611039079217,
      41.93614118253523,
      42.051426955862574,
      41.918758078664034,
      41.98886944864996,
      42.062659316896976,
      41.90972750611241,
      41.84666791962571,
      41.947255500453196,
      41.86619859966495,
      41.97536030426754,
      41.930072281949144,
      42.03476407880027,
      42.011774268580396,
      41.843317409235645,
      41.975927804150444,
      41.863133033647074,
      41.93287756309783,
      41.797423069440384,
      41.86547406530878,
      41.8940477456411,
      41.902013206161286,
      41.83725752001849,
      41.976031630730546,
      41.97415529976657,
      41.913904846527196,
      42.04016052945079,
      42.043941951601276,
      41.8445044022362,
      41.75899274491164,
      41.971633341012705,
      41.753923468102485,
      41.87868690686851,
      41.87488847403305,
      41.79474059484589,
      41.91049586534943,
      41.881205110898144,
      41.90510603594999,
      41.93386057542813,
      41.918518181933706,
      41.88192556674281,
      41.7119557556457,
      41.66980049293147,
      41.65506077898097,
      41.63397645863258,
      41.60733344389391,
      41.62347340101568,
      41.63737895540404,
      41.644794929511164,
      41.62631143623261,
      41.63281279095775,
      41.637686535575206,
      41.601350756442955,
      41.640082096295835,
      41.60444271043008,
      41.63812441005188,
      41.639140064519616,
      41.627292464204366,
      41.60994174200267,
      41.6346913932461,
      41.63765983373366,
      41.61751180444539,
      41.635012596986805,
      41.60209287879748,
      41.64069063888101,
      41.625396877441005,
      41.61594612347764,
      41.65441830340107,
      41.625108307877866,
      41.606873758321406,
      41.62446089423187,
      41.630873713201275,
      41.62318269932337,
      41.61106422243622,
      41.59723525277845,
      41.60068980458453,
      41.59081189029781,
      41.59294584958506,
      41.58520375626364,
      41.593477198325154,
      41.586724437196715,
      41.59337805739613,
      41.5959710429912,
      41.59182756784827,
      41.58843320439052,
      41.58926432005287,
      41.59028474741497,
      41.58989355472574,
      41.58935535742412,
      41.58937387708631,
      41.59135157537143,
      41.58700524479586,
      41.589628528881164,
      41.58540940064644,
      41.587245691170295,
      41.5935230475827,
      41.589447395168825,
      41.59056709642424,
      41.59185077383765,
      41.59259303528981,
      41.58603191580602,
      41.59724002387841,
      41.595407307990754,
      41.59475122288297,
      41.59188003557213,
      41.58934348808796,
      41.589093142714034,
      41.59015512637747,
      41.587799477190636,
      41.586748820981875,
      41.5871894923272,
      41.587293095576015,
      41.587999785264785,
      41.58752390629388,
      41.58671315550168,
      41.58637475709714,
      41.586711097015915,
      41.586213693415424,
      41.58576201145909,
      41.586128665659636,
      41.586144232770046,
      41.58631766072006,
      41.58851873071525,
      41.58958095863847,
      41.58977937471523,
      41.58966928593064,
      41.58944468626956,
      41.58922825923317,
      41.58905339613661,
      41.58885572378143,
      41.58862248732496,
      41.588346198779355,
      41.58807060884464,
      41.58778846519519,
      41.58753166504738,
      41.587320870917466,
      41.587150942745524,
      41.58701546537974,
      41.58686817524378,
      41.58669667906987,
      41.58654472311757,
      41.58642205244118,
      41.58631315180504,
      41.58621225940149,
      41.586180718684524,
      41.5862974268555,
      41.58661874985327,
      41.586933618870354,
      41.58703760805035,
      41.58704294481459,
      41.58702276480231,
      41.58699875436296,
      41.58696056966675,
      41.58690065052129,
      41.58683152268013,
      41.58674158583926,
      41.58666128673215,
      41.58659264903251,
      41.58655409555653,
      41.586530436516476,
      41.586494576021494,
      41.5864527628051,
      41.586428922181994,
      41.58644604796725,
      41.58646871855619,
      41.58646436364187,
      41.58650036675437,
      41.58661985563537,
      41.5868037615528,
      41.5869542115973,
      41.586963858489646,
      41.58681509565238,
      41.58660210892883,
      41.58639857657246,
      41.58623443673374,
      41.58615282670857,
      41.586170211221244,
      41.58629709599323,
      41.586516713935886,
      41.586757596895126,
      41.58688677485813,
      41.58688607665658,
      41.586758317292094,
      41.58659131125792,
      41.58640236282813,
      41.586289642055306,
      41.58625525448761,
      41.58629097771002,
      41.58628052985043,
      41.58622964415196,
      41.5861914949988,
      41.586189166635364,
      41.58618156600489,
      41.58614411960987,
      41.586141871217535,
      41.586216897690676,
      41.586426918699026,
      41.586726563013805,
      41.58690479753096,
      41.586920874889216,
      41.58682147964276,
      41.58669051907148,
      41.58653495599145,
      41.58638095365491,
      41.58624950727196,
      41.58617594842534,
      41.586149904229636,
      41.58613993222265,
      41.586153753991276,
      41.586155709295646,
      41.586151260463446,
      41.58625418605187,
      41.58658473026386,
      41.586949065727005,
      41.5871216687022
    ]
  }
}