{
  "test": {
    "steps": [
      0
    ],
    "timestamps": [
      "2022-07-09T18:20:19.495299"
    ],
    "values": [
      8.614444410777255
    ]
  },
  "train": {
    "steps": [
      0,
      1,
      2,
      3,
      4,
      5,
      6,
      7,
      8,
      9,
      10,
      11,
      12,
      13,
      14,
      15,
      16,
      17,
      18,
      19,
      20,
      21,
      22,
      23,
      24,
      25,
      26,
      27,
      28,
      29,
      30,
      31,
      32,
      33,
      34,
      35,
      36,
      37,
      38,
      39,
      40,
      41,
      42,
      43,
      44,
      45,
      46,
      47,
      48,
      49,
      50,
      51,
      52,
      53,
      54,
      55,
      56,
      57,
      58,
      59,
      60,
      61,
      62,
      63,
      64,
      65,
      66,
      67,
      68,
      69,
      70,
      71,
      72,
      73,
      74,
      75,
      76,
      77,
      78,
      79,
      80,
      81,
      82,
      83,
      84,
      85,
      86,
      87,
      88,
      89,
      90,
      91,
      92,
      93,
      94,
      95,
      96,
      97,
      98,
      99,
      100,
      101,
      102,
      103,
      104,
      105,
      106,
      107,
      108,
      109,
      110,
      111,
      112,
      113,
      114,
      115,
      116,
      117,
      118,
      119,
      120,
      121,
      122,
      123,
      124,
      125,
      126,
      127,
      128,
      129,
      130,
      131,
      132,
      133,
      134,
      135,
      136,
      137,
      138,
      139,
      140,
      141,
      142,
      143,
      144,
      145,
      146,
      147,
      148,
      149,
      150,
      151,
      152,
      153,
      154,
      155,
      156,
      157,
      158,
      159,
      160,
      161,
      162,
      163,
      164,
      165,
      166,
      167,
      168,
      169,
      170,
      171,
      172,
      173,
      174,
      175,
      176,
      177,
      178,
      179,
      180,
      181,
      182,
      183,
      184,
      185,
      186,
      187,
      188,
      189,
      190,
      191,
      192,
      193,
      194,
      195,
      196,
      197,
      198,
      199,
      200,
      201,
      202,
      203,
      204,
      205,
      206,
      207,
      208,
      209,
      210,
      211,
      212,
      213,
      214,
      215,
      216,
      217,
      218,
      219,
      220,
      221,
      222,
      223,
      224,
      225,
      226,
      227,
      228,
      229,
      230,
      231,
      232,
      233,
      234,
      235,
      236,
      237,
      238,
      239,
      240,
      241,
      242,
      243,
      244,
      245,
      246,
      247,
      248,
      249,
      250,
      251,
      252,
      253,
      254,
      255,
      256,
      257,
      258,
      259,
      260,
      261,
      262,
      263,
      264,
      265,
      266,
      267,
      268,
      269,
      270,
      271,
      272,
      273,
      274,
      275,
      276,
      277,
      278,
      279,
      280,
      281,
      282,
      283,
      284,
      285,
      286,
      287,
      288,
      289,
      290,
      291,
      292,
      293,
      294,
      295,
      296,
      297,
      298,
      299
    ],
    "timestamps": [
      "2022-07-09T18:03:10.301037",
      "2022-07-09T18:03:13.578131",
      "2022-07-09T18:03:16.769503",
      "2022-07-09T18:03:19.899234",
      "2022-07-09T18:03:23.139522",
      "2022-07-09T18:03:26.215312",
      "2022-07-09T18:03:29.406842",
      "2022-07-09T18:03:32.988493",
      "2022-07-09T18:03:36.290546",
      "2022-07-09T18:03:39.755900",
      "2022-07-09T18:03:43.284689",
      "2022-07-09T18:03:46.602685",
      "2022-07-09T18:03:49.917305",
      "2022-07-09T18:03:53.175880",
      "2022-07-09T18:03:56.372920",
      "2022-07-09T18:03:59.685467",
      "2022-07-09T18:04:02.894648",
      "2022-07-09T18:04:06.102522",
      "2022-07-09T18:04:09.507843",
      "2022-07-09T18:04:12.725283",
      "2022-07-09T18:04:15.931196",
      "2022-07-09T18:04:19.251726",
      "2022-07-09T18:04:22.488277",
      "2022-07-09T18:04:25.766499",
      "2022-07-09T18:04:29.166925",
      "2022-07-09T18:04:32.987961",
      "2022-07-09T18:04:36.748917",
      "2022-07-09T18:04:40.259202",
      "2022-07-09T18:04:43.543124",
      "2022-07-09T18:04:47.504881",
      "2022-07-09T18:04:50.787048",
      "2022-07-09T18:04:54.615286",
      "2022-07-09T18:04:58.290553",
      "2022-07-09T18:05:02.241826",
      "2022-07-09T18:05:05.991811",
      "2022-07-09T18:05:09.196551",
      "2022-07-09T18:05:12.353720",
      "2022-07-09T18:05:15.758744",
      "2022-07-09T18:05:19.482058",
      "2022-07-09T18:05:22.922293",
      "2022-07-09T18:05:26.036609",
      "2022-07-09T18:05:29.923782",
      "2022-07-09T18:05:33.573574",
      "2022-07-09T18:05:36.962105",
      "2022-07-09T18:05:40.340078",
      "2022-07-09T18:05:43.553771",
      "2022-07-09T18:05:47.351066",
      "2022-07-09T18:05:51.248254",
      "2022-07-09T18:05:55.055319",
      "2022-07-09T18:05:58.920900",
      "2022-07-09T18:06:02.407502",
      "2022-07-09T18:06:05.826410",
      "2022-07-09T18:06:08.948191",
      "2022-07-09T18:06:12.676780",
      "2022-07-09T18:06:16.780810",
      "2022-07-09T18:06:20.605505",
      "2022-07-09T18:06:24.421641",
      "2022-07-09T18:06:27.705261",
      "2022-07-09T18:06:30.791906",
      "2022-07-09T18:06:33.970644",
      "2022-07-09T18:06:37.333615",
      "2022-07-09T18:06:40.474366",
      "2022-07-09T18:06:43.855822",
      "2022-07-09T18:06:47.107573",
      "2022-07-09T18:06:50.275199",
      "2022-07-09T18:06:53.619659",
      "2022-07-09T18:06:56.755287",
      "2022-07-09T18:06:59.974410",
      "2022-07-09T18:07:03.241018",
      "2022-07-09T18:07:06.911994",
      "2022-07-09T18:07:10.549562",
      "2022-07-09T18:07:14.545568",
      "2022-07-09T18:07:18.563894",
      "2022-07-09T18:07:22.129540",
      "2022-07-09T18:07:25.529470",
      "2022-07-09T18:07:28.776097",
      "2022-07-09T18:07:32.061736",
      "2022-07-09T18:07:35.644498",
      "2022-07-09T18:07:39.329193",
      "2022-07-09T18:07:42.569007",
      "2022-07-09T18:07:46.412981",
      "2022-07-09T18:07:50.370998",
      "2022-07-09T18:07:54.219399",
      "2022-07-09T18:07:58.263608",
      "2022-07-09T18:08:02.121196",
      "2022-07-09T18:08:06.014123",
      "2022-07-09T18:08:09.338573",
      "2022-07-09T18:08:12.902824",
      "2022-07-09T18:08:16.381454",
      "2022-07-09T18:08:20.047892",
      "2022-07-09T18:08:23.638465",
      "2022-07-09T18:08:27.301386",
      "2022-07-09T18:08:30.779500",
      "2022-07-09T18:08:34.562512",
      "2022-07-09T18:08:38.138644",
      "2022-07-09T18:08:41.893361",
      "2022-07-09T18:08:45.863130",
      "2022-07-09T18:08:49.529741",
      "2022-07-09T18:08:52.803577",
      "2022-07-09T18:08:56.153359",
      "2022-07-09T18:09:00.112148",
      "2022-07-09T18:09:03.472988",
      "2022-07-09T18:09:06.601722",
      "2022-07-09T18:09:10.069738",
      "2022-07-09T18:09:13.203981",
      "2022-07-09T18:09:16.401967",
      "2022-07-09T18:09:19.661901",
      "2022-07-09T18:09:22.886692",
      "2022-07-09T18:09:26.170944",
      "2022-07-09T18:09:29.297368",
      "2022-07-09T18:09:32.456632",
      "2022-07-09T18:09:35.954182",
      "2022-07-09T18:09:39.098347",
      "2022-07-09T18:09:42.327860",
      "2022-07-09T18:09:45.403663",
      "2022-07-09T18:09:48.631795",
      "2022-07-09T18:09:52.196027",
      "2022-07-09T18:09:55.370261",
      "2022-07-09T18:09:58.630132",
      "2022-07-09T18:10:01.748109",
      "2022-07-09T18:10:04.941371",
      "2022-07-09T18:10:08.456417",
      "2022-07-09T18:10:12.347103",
      "2022-07-09T18:10:15.899165",
      "2022-07-09T18:10:19.177805",
      "2022-07-09T18:10:22.371392",
      "2022-07-09T18:10:25.609811",
      "2022-07-09T18:10:28.904111",
      "2022-07-09T18:10:32.838102",
      "2022-07-09T18:10:36.755967",
      "2022-07-09T18:10:40.411184",
      "2022-07-09T18:10:43.821548",
      "2022-07-09T18:10:47.102016",
      "2022-07-09T18:10:50.365451",
      "2022-07-09T18:10:53.511041",
      "2022-07-09T18:10:57.041040",
      "2022-07-09T18:11:00.601334",
      "2022-07-09T18:11:03.761488",
      "2022-07-09T18:11:06.998963",
      "2022-07-09T18:11:10.283904",
      "2022-07-09T18:11:14.061840",
      "2022-07-09T18:11:17.351541",
      "2022-07-09T18:11:20.783890",
      "2022-07-09T18:11:23.874778",
      "2022-07-09T18:11:27.766575",
      "2022-07-09T18:11:31.556012",
      "2022-07-09T18:11:34.718774",
      "2022-07-09T18:11:38.544748",
      "2022-07-09T18:11:42.478448",
      "2022-07-09T18:11:45.908793",
      "2022-07-09T18:11:49.453633",
      "2022-07-09T18:11:52.597869",
      "2022-07-09T18:11:55.897851",
      "2022-07-09T18:11:59.538662",
      "2022-07-09T18:12:02.753199",
      "2022-07-09T18:12:06.015874",
      "2022-07-09T18:12:09.311798",
      "2022-07-09T18:12:12.517610",
      "2022-07-09T18:12:15.892766",
      "2022-07-09T18:12:19.689923",
      "2022-07-09T18:12:22.823388",
      "2022-07-09T18:12:26.214043",
      "2022-07-09T18:12:29.551094",
      "2022-07-09T18:12:32.638320",
      "2022-07-09T18:12:35.902041",
      "2022-07-09T18:12:39.087203",
      "2022-07-09T18:12:42.284609",
      "2022-07-09T18:12:45.569989",
      "2022-07-09T18:12:48.815205",
      "2022-07-09T18:12:52.455622",
      "2022-07-09T18:12:56.026689",
      "2022-07-09T18:12:59.289504",
      "2022-07-09T18:13:02.774871",
      "2022-07-09T18:13:06.263806",
      "2022-07-09T18:13:10.003991",
      "2022-07-09T18:13:13.861077",
      "2022-07-09T18:13:17.332420",
      "2022-07-09T18:13:21.140076",
      "2022-07-09T18:13:24.334524",
      "2022-07-09T18:13:27.546687",
      "2022-07-09T18:13:30.897904",
      "2022-07-09T18:13:34.296470",
      "2022-07-09T18:13:37.843098",
      "2022-07-09T18:13:41.264528",
      "2022-07-09T18:13:44.860409",
      "2022-07-09T18:13:48.027767",
      "2022-07-09T18:13:51.316874",
      "2022-07-09T18:13:54.561982",
      "2022-07-09T18:13:57.773693",
      "2022-07-09T18:14:00.986557",
      "2022-07-09T18:14:04.959050",
      "2022-07-09T18:14:08.260853",
      "2022-07-09T18:14:12.007914",
      "2022-07-09T18:14:15.887991",
      "2022-07-09T18:14:19.089639",
      "2022-07-09T18:14:22.322861",
      "2022-07-09T18:14:25.827795",
      "2022-07-09T18:14:29.042942",
      "2022-07-09T18:14:32.723612",
      "2022-07-09T18:14:36.028580",
      "2022-07-09T18:14:39.230198",
      "2022-07-09T18:14:42.404021",
      "2022-07-09T18:14:45.650097",
      "2022-07-09T18:14:48.948601",
      "2022-07-09T18:14:52.094551",
      "2022-07-09T18:14:55.547389",
      "2022-07-09T18:14:59.433100",
      "2022-07-09T18:15:03.223831",
      "2022-07-09T18:15:06.772689",
      "2022-07-09T18:15:10.074387",
      "2022-07-09T18:15:13.209375",
      "2022-07-09T18:15:16.543529",
      "2022-07-09T18:15:20.233668",
      "2022-07-09T18:15:23.696641",
      "2022-07-09T18:15:27.305660",
      "2022-07-09T18:15:31.206067",
      "2022-07-09T18:15:34.435722",
      "2022-07-09T18:15:37.726580",
      "2022-07-09T18:15:41.054482",
      "2022-07-09T18:15:44.233008",
      "2022-07-09T18:15:47.483208",
      "2022-07-09T18:15:50.802982",
      "2022-07-09T18:15:53.964085",
      "2022-07-09T18:15:57.277441",
      "2022-07-09T18:16:00.940021",
      "2022-07-09T18:16:04.235547",
      "2022-07-09T18:16:07.991116",
      "2022-07-09T18:16:11.840966",
      "2022-07-09T18:16:15.259014",
      "2022-07-09T18:16:19.227711",
      "2022-07-09T18:16:22.437915",
      "2022-07-09T18:16:25.672650",
      "2022-07-09T18:16:29.196633",
      "2022-07-09T18:16:32.675358",
      "2022-07-09T18:16:36.715339",
      "2022-07-09T18:16:39.987024",
      "2022-07-09T18:16:43.181080",
      "2022-07-09T18:16:46.628951",
      "2022-07-09T18:16:49.857767",
      "2022-07-09T18:16:53.016261",
      "2022-07-09T18:16:56.227930",
      "2022-07-09T18:17:00.171905",
      "2022-07-09T18:17:03.415728",
      "2022-07-09T18:17:07.118526",
      "2022-07-09T18:17:10.416340",
      "2022-07-09T18:17:13.545835",
      "2022-07-09T18:17:16.801392",
      "2022-07-09T18:17:20.387424",
      "2022-07-09T18:17:23.504022",
      "2022-07-09T18:17:26.768390",
      "2022-07-09T18:17:29.922838",
      "2022-07-09T18:17:33.142505",
      "2022-07-09T18:17:36.297322",
      "2022-07-09T18:17:39.544076",
      "2022-07-09T18:17:42.837088",
      "2022-07-09T18:17:46.032638",
      "2022-07-09T18:17:49.253015",
      "2022-07-09T18:17:52.450608",
      "2022-07-09T18:17:55.616286",
      "2022-07-09T18:17:58.919101",
      "2022-07-09T18:18:02.063776",
      "2022-07-09T18:18:05.329103",
      "2022-07-09T18:18:08.593008",
      "2022-07-09T18:18:11.727896",
      "2022-07-09T18:18:15.204353",
      "2022-07-09T18:18:19.082924",
      "2022-07-09T18:18:22.253983",
      "2022-07-09T18:18:25.557328",
      "2022-07-09T18:18:28.883213",
      "2022-07-09T18:18:32.146285",
      "2022-07-09T18:18:35.772861",
      "2022-07-09T18:18:39.027705",
      "2022-07-09T18:18:42.389912",
      "2022-07-09T18:18:45.906818",
      "2022-07-09T18:18:49.496081",
      "2022-07-09T18:18:52.905229",
      "2022-07-09T18:18:56.572824",
      "2022-07-09T18:18:59.964954",
      "2022-07-09T18:19:03.662540",
      "2022-07-09T18:19:06.934291",
      "2022-07-09T18:19:10.287980",
      "2022-07-09T18:19:13.521089",
      "2022-07-09T18:19:17.177771",
      "2022-07-09T18:19:21.302790",
      "2022-07-09T18:19:25.231678",
      "2022-07-09T18:19:28.872102",
      "2022-07-09T18:19:32.905947",
      "2022-07-09T18:19:36.257557",
      "2022-07-09T18:19:40.252875",
      "2022-07-09T18:19:43.915270",
      "2022-07-09T18:19:47.597978",
      "2022-07-09T18:19:50.779853",
      "2022-07-09T18:19:54.221362",
      "2022-07-09T18:19:57.791567",
      "2022-07-09T18:20:01.147338",
      "2022-07-09T18:20:04.866667",
      "2022-07-09T18:20:08.030081",
      "2022-07-09T18:20:11.411107",
      "2022-07-09T18:20:15.260587",
      "2022-07-09T18:20:18.704476"
    ],
    "values": [
      9.92222424290324,
      9.705808785494865,
      9.13225531898786,
      8.857609450805697,
      8.795676166281076,
      8.763320204920065,
      8.74962216034633,
      8.71973068608906,
      8.730178858544392,
      8.708236243323629,
      8.700985375164137,
      8.696370311195922,
      8.70286730783884,
      8.690341219525823,
      8.69204512104339,
      8.686554896994611,
      8.682306963093382,
      8.685449549460934,
      8.680782599684848,
      8.679142533849168,
      8.678216741358845,
      8.682465229092582,
      8.671422187775663,
      8.667450238954315,
      8.666009257564374,
      8.66538753758719,
      8.672256383643292,
      8.660364048048546,
      8.660774973225177,
      8.662559699911746,
      8.668988722617629,
      8.666034364164032,
      8.65815675269045,
      8.664937481972794,
      8.656689503872252,
      8.658534161469298,
      8.655063760322099,
      8.665633893567943,
      8.660716570579451,
      8.660834596803046,
      8.649958676976837,
      8.646732726206285,
      8.649179295924693,
      8.656134200525804,
      8.654729686730684,
      8.644551497477714,
      8.642781181142313,
      8.648460350345283,
      8.649289771785725,
      8.648319869134843,
      8.649477590818064,
      8.64757385900984,
      8.644182639824598,
      8.646833656442716,
      8.638685758578744,
      8.640428929260725,
      8.65350023081654,
      8.647952500662711,
      8.647278571243513,
      8.640861465699505,
      8.647009900210794,
      8.642367767291061,
      8.641875596906164,
      8.642443075055853,
      8.6455212887651,
      8.647662248380634,
      8.638040023555497,
      8.643188818521285,
      8.640920074843798,
      8.64199584467145,
      8.638388894304317,
      8.641413900330415,
      8.638818005326343,
      8.638575389587693,
      8.643492656703453,
      8.63062135549215,
      8.635643039814699,
      8.640435707391028,
      8.638672188446456,
      8.64017634122681,
      8.632038800730985,
      8.629828789733542,
      8.638074433210825,
      8.645384305276108,
      8.645058038257709,
      8.62663848387681,
      8.637064627575029,
      8.639757479392863,
      8.63574483108161,
      8.637041950126154,
      8.635886668561454,
      8.634508311258015,
      8.63358060427733,
      8.630828395135204,
      8.639604110803436,
      8.640822017662943,
      8.634634195059512,
      8.6421659814162,
      8.631431316356757,
      8.633423816147742,
      8.634508303545319,
      8.63560610605348,
      8.630931762297775,
      8.63513226272403,
      8.630895591688061,
      8.632076270047362,
      8.634031768010026,
      8.596955651575135,
      8.59129932218692,
      8.589975910470805,
      8.589620768345775,
      8.588989971214463,
      8.589315067699475,
      8.589036654286842,
      8.588604519629847,
      8.588896280005162,
      8.590051360185923,
      8.589851978441068,
      8.589490439126616,
      8.589526441184942,
      8.589433128550457,
      8.589329596365557,
      8.589109959324434,
      8.588047660923424,
      8.589241179394383,
      8.58826793648417,
      8.589102938064292,
      8.58785864201871,
      8.588696467193781,
      8.58797466181469,
      8.588022617893278,
      8.588645459233346,
      8.588085627680504,
      8.589491085264635,
      8.587992926415358,
      8.58760416521941,
      8.589304456931455,
      8.58795292561617,
      8.58749590175013,
      8.587250536816832,
      8.58800684644695,
      8.587195083131201,
      8.589729262033128,
      8.587417160926115,
      8.586908984112382,
      8.588124814983574,
      8.588284952996126,
      8.586522753721615,
      8.587538129959754,
      8.587451526211426,
      8.58614163051091,
      8.588052989645597,
      8.587582349804965,
      8.586803209721712,
      8.587865083726932,
      8.586312313455943,
      8.587027543133228,
      8.586618435726296,
      8.58656619254405,
      8.588429945417268,
      8.586331867811198,
      8.585807670887485,
      8.586924592696164,
      8.586797600419107,
      8.586544433033021,
      8.585760304910723,
      8.587989212340455,
      8.586528693291845,
      8.586886247867643,
      8.586725808107957,
      8.586894821094402,
      8.586697300729805,
      8.586026505038985,
      8.586066108137423,
      8.587258186273127,
      8.58796647994562,
      8.585518567920314,
      8.58682777528742,
      8.587239213107829,
      8.587140211015274,
      8.585888609286759,
      8.58680861601544,
      8.58589720687218,
      8.582037989738465,
      8.580855034074304,
      8.580474972918013,
      8.580472379407826,
      8.580474984910598,
      8.580493547614905,
      8.580432434769907,
      8.580548598890653,
      8.580316188774699,
      8.580314042830446,
      8.580190935347552,
      8.58030317219851,
      8.580242521370531,
      8.580204673583886,
      8.580387849666728,
      8.580356696892657,
      8.58037037513721,
      8.58021790475114,
      8.580304835813154,
      8.580331149386993,
      8.580272651839929,
      8.580369386764247,
      8.58029357510255,
      8.57944862874461,
      8.579469785465188,
      8.579470061158693,
      8.579479518431814,
      8.579478558990013,
      8.579491430684355,
      8.57947603882656,
      8.579470314372248,
      8.579467655161103,
      8.579497563729486,
      8.579463455752315,
      8.579465523321433,
      8.579462056056986,
      8.579448613160912,
      8.579468077715292,
      8.579465032713722,
      8.579462664633798,
      8.579445866321883,
      8.579430029109735,
      8.579459571920943,
      8.579441003437031,
      8.579441005631104,
      8.579359167471537,
      8.579359641527578,
      8.57935977121067,
      8.579358943368568,
      8.579361158326858,
      8.579358878666122,
      8.57935996085434,
      8.579360015845491,
      8.579361787498748,
      8.579363021177763,
      8.579361639813989,
      8.57936243863636,
      8.579361900611046,
      8.579362595347696,
      8.579363126282928,
      8.579362030619652,
      8.579363065866756,
      8.579362207256317,
      8.579362929461237,
      8.579364041031877,
      8.57936235847674,
      8.579362236155385,
      8.579362226549325,
      8.579363622545515,
      8.57936258871552,
      8.579363991432576,
      8.57936086871673,
      8.579361298991593,
      8.579362529925099,
      8.5793588870876,
      8.579363229276723,
      8.579360892559714,
      8.57935927423819,
      8.579359667376428,
      8.579359413749128,
      8.579358734624225,
      8.579361058941743,
      8.579359193608635,
      8.579358636220908,
      8.579357953726175,
      8.579358046058974,
      8.579359088062631,
      8.579358247557526,
      8.57935764224228,
      8.579358914877037,
      8.579358212216198,
      8.579357618797557,
      8.579355938503989,
      8.579357133136323,
      8.57935771400846,
      8.57935689928658,
      8.579355724885142,
      8.57935678696373,
      8.579355513593146,
      8.579357072955359,
      8.579356544489642,
      8.579356032493262,
      8.579355117944838,
      8.579355226732833,
      8.579356164127185,
      8.57935543729989,
      8.579355208370945,
      8.579354237009497,
      8.579354857286647,
      8.579354426226406,
      8.579353215694562,
      8.579354298973913,
      8.579352813511258,
      8.579354223710386,
      8.579355044087443,
      8.579352617783673,
      8.579353946746336
    ]
  },
  "val": {
    "steps": [
      0,
      1,
      2,
      3,
      4,
      5,
      6,
      7,
      8,
      9,
      10,
      11,
      12,
      13,
      14,
      15,
      16,
      17,
      18,
      19,
      20,
      21,
      22,
      23,
      24,
      25,
      26,
      27,
      28,
      29,
      30,
      31,
      32,
      33,
      34,
      35,
      36,
      37,
      38,
      39,
      40,
      41,
      42,
      43,
      44,
      45,
      46,
      47,
      48,
      49,
      50,
      51,
      52,
      53,
      54,
      55,
      56,
      57,
      58,
      59,
      60,
      61,
      62,
      63,
      64,
      65,
      66,
      67,
      68,
      69,
      70,
      71,
      72,
      73,
      74,
      75,
      76,
      77,
      78,
      79,
      80,
      81,
      82,
      83,
      84,
      85,
      86,
      87,
      88,
      89,
      90,
      91,
      92,
      93,
      94,
      95,
      96,
      97,
      98,
      99,
      100,
      101,
      102,
      103,
      104,
      105,
      106,
      107,
      108,
      109,
      110,
      111,
      112,
      113,
      114,
      115,
      116,
      117,
      118,
      119,
      120,
      121,
      122,
      123,
      124,
      125,
      126,
      127,
      128,
      129,
      130,
      131,
      132,
      133,
      134,
      135,
      136,
      137,
      138,
      139,
      140,
      141,
      142,
      143,
      144,
      145,
      146,
      147,
      148,
      149,
      150,
      151,
      152,
      153,
      154,
      155,
      156,
      157,
      158,
      159,
      160,
      161,
      162,
      163,
      164,
      165,
      166,
      167,
      168,
      169,
      170,
      171,
      172,
      173,
      174,
      175,
      176,
      177,
      178,
      179,
      180,
      181,
      182,
      183,
      184,
      185,
      186,
      187,
      188,
      189,
      190,
      191,
      192,
      193,
      194,
      195,
      196,
      197,
      198,
      199,
      200,
      201,
      202,
      203,
      204,
      205,
      206,
      207,
      208,
      209,
      210,
      211,
      212,
      213,
      214,
      215,
      216,
      217,
      218,
      219,
      220,
      221,
      222,
      223,
      224,
      225,
      226,
      227,
      228,
      229,
      230,
      231,
      232,
      233,
      234,
      235,
      236,
      237,
      238,
      239,
      240,
      241,
      242,
      243,
      244,
      245,
      246,
      247,
      248,
      249,
      250,
      251,
      252,
      253,
      254,
      255,
      256,
      257,
      258,
      259,
      260,
      261,
      262,
      263,
      264,
      265,
      266,
      267,
      268,
      269,
      270,
      271,
      272,
      273,
      274,
      275,
      276,
      277,
      278,
      279,
      280,
      281,
      282,
      283,
      284,
      285,
      286,
      287,
      288,
      289,
      290,
      291,
      292,
      293,
      294,
      295,
      296,
      297,
      298,
      299
    ],
    "timestamps": [
      "2022-07-09T18:03:10.703300",
      "2022-07-09T18:03:13.947481",
      "2022-07-09T18:03:17.173194",
      "2022-07-09T18:03:20.261837",
      "2022-07-09T18:03:23.501160",
      "2022-07-09T18:03:26.606478",
      "2022-07-09T18:03:29.769280",
      "2022-07-09T18:03:33.393726",
      "2022-07-09T18:03:36.851441",
      "2022-07-09T18:03:40.125232",
      "2022-07-09T18:03:43.656791",
      "2022-07-09T18:03:47.026809",
      "2022-07-09T18:03:50.290312",
      "2022-07-09T18:03:53.613984",
      "2022-07-09T18:03:56.748711",
      "2022-07-09T18:04:00.060022",
      "2022-07-09T18:04:03.282422",
      "2022-07-09T18:04:06.477407",
      "2022-07-09T18:04:09.883169",
      "2022-07-09T18:04:13.104311",
      "2022-07-09T18:04:16.303394",
      "2022-07-09T18:04:19.635876",
      "2022-07-09T18:04:22.862359",
      "2022-07-09T18:04:26.143937",
      "2022-07-09T18:04:29.673106",
      "2022-07-09T18:04:33.422096",
      "2022-07-09T18:04:37.228056",
      "2022-07-09T18:04:40.650589",
      "2022-07-09T18:04:43.928293",
      "2022-07-09T18:04:47.880728",
      "2022-07-09T18:04:51.224098",
      "2022-07-09T18:04:55.080448",
      "2022-07-09T18:04:58.707350",
      "2022-07-09T18:05:02.771994",
      "2022-07-09T18:05:06.375532",
      "2022-07-09T18:05:09.558601",
      "2022-07-09T18:05:12.755345",
      "2022-07-09T18:05:16.249744",
      "2022-07-09T18:05:19.893172",
      "2022-07-09T18:05:23.340884",
      "2022-07-09T18:05:26.412144",
      "2022-07-09T18:05:30.286425",
      "2022-07-09T18:05:34.152283",
      "2022-07-09T18:05:37.353805",
      "2022-07-09T18:05:40.700669",
      "2022-07-09T18:05:43.941418",
      "2022-07-09T18:05:47.848272",
      "2022-07-09T18:05:51.803091",
      "2022-07-09T18:05:55.430104",
      "2022-07-09T18:05:59.436900",
      "2022-07-09T18:06:02.774126",
      "2022-07-09T18:06:06.193971",
      "2022-07-09T18:06:09.338892",
      "2022-07-09T18:06:13.151590",
      "2022-07-09T18:06:17.267401",
      "2022-07-09T18:06:21.077453",
      "2022-07-09T18:06:24.832013",
      "2022-07-09T18:06:28.072263",
      "2022-07-09T18:06:31.174866",
      "2022-07-09T18:06:34.336412",
      "2022-07-09T18:06:37.741330",
      "2022-07-09T18:06:40.902580",
      "2022-07-09T18:06:44.232476",
      "2022-07-09T18:06:47.492209",
      "2022-07-09T18:06:50.743507",
      "2022-07-09T18:06:53.989296",
      "2022-07-09T18:06:57.144806",
      "2022-07-09T18:07:00.346493",
      "2022-07-09T18:07:03.656185",
      "2022-07-09T18:07:07.306537",
      "2022-07-09T18:07:11.060697",
      "2022-07-09T18:07:15.064057",
      "2022-07-09T18:07:19.019783",
      "2022-07-09T18:07:22.557544",
      "2022-07-09T18:07:25.898988",
      "2022-07-09T18:07:29.164329",
      "2022-07-09T18:07:32.531673",
      "2022-07-09T18:07:36.125477",
      "2022-07-09T18:07:39.767749",
      "2022-07-09T18:07:42.930732",
      "2022-07-09T18:07:46.894691",
      "2022-07-09T18:07:50.768830",
      "2022-07-09T18:07:54.790410",
      "2022-07-09T18:07:58.709853",
      "2022-07-09T18:08:02.508983",
      "2022-07-09T18:08:06.536811",
      "2022-07-09T18:08:09.711401",
      "2022-07-09T18:08:13.275254",
      "2022-07-09T18:08:16.979994",
      "2022-07-09T18:08:20.432562",
      "2022-07-09T18:08:24.042420",
      "2022-07-09T18:08:27.939837",
      "2022-07-09T18:08:31.151855",
      "2022-07-09T18:08:34.927153",
      "2022-07-09T18:08:38.528301",
      "2022-07-09T18:08:42.390759",
      "2022-07-09T18:08:46.267307",
      "2022-07-09T18:08:49.916813",
      "2022-07-09T18:08:53.197845",
      "2022-07-09T18:08:56.523169",
      "2022-07-09T18:09:00.488131",
      "2022-07-09T18:09:03.892185",
      "2022-07-09T18:09:07.008290",
      "2022-07-09T18:09:10.450602",
      "2022-07-09T18:09:13.590055",
      "2022-07-09T18:09:16.810815",
      "2022-07-09T18:09:20.155910",
      "2022-07-09T18:09:23.289963",
      "2022-07-09T18:09:26.537277",
      "2022-07-09T18:09:29.686087",
      "2022-07-09T18:09:32.827763",
      "2022-07-09T18:09:36.317429",
      "2022-07-09T18:09:39.483778",
      "2022-07-09T18:09:42.696174",
      "2022-07-09T18:09:45.792027",
      "2022-07-09T18:09:48.997666",
      "2022-07-09T18:09:52.574218",
      "2022-07-09T18:09:55.748775",
      "2022-07-09T18:09:58.991580",
      "2022-07-09T18:10:02.132209",
      "2022-07-09T18:10:05.313892",
      "2022-07-09T18:10:08.840314",
      "2022-07-09T18:10:12.917766",
      "2022-07-09T18:10:16.272315",
      "2022-07-09T18:10:19.547697",
      "2022-07-09T18:10:22.788548",
      "2022-07-09T18:10:25.979091",
      "2022-07-09T18:10:29.361907",
      "2022-07-09T18:10:33.262076",
      "2022-07-09T18:10:37.242442",
      "2022-07-09T18:10:40.782581",
      "2022-07-09T18:10:44.338079",
      "2022-07-09T18:10:47.481192",
      "2022-07-09T18:10:50.741788",
      "2022-07-09T18:10:53.895280",
      "2022-07-09T18:10:57.413928",
      "2022-07-09T18:11:00.973785",
      "2022-07-09T18:11:04.151670",
      "2022-07-09T18:11:07.370907",
      "2022-07-09T18:11:10.823864",
      "2022-07-09T18:11:14.511535",
      "2022-07-09T18:11:17.727995",
      "2022-07-09T18:11:21.158162",
      "2022-07-09T18:11:24.249943",
      "2022-07-09T18:11:28.207761",
      "2022-07-09T18:11:31.982306",
      "2022-07-09T18:11:35.089487",
      "2022-07-09T18:11:39.070990",
      "2022-07-09T18:11:42.955754",
      "2022-07-09T18:11:46.351908",
      "2022-07-09T18:11:49.822094",
      "2022-07-09T18:11:53.023630",
      "2022-07-09T18:11:56.263252",
      "2022-07-09T18:11:59.910142",
      "2022-07-09T18:12:03.214065",
      "2022-07-09T18:12:06.397250",
      "2022-07-09T18:12:09.678080",
      "2022-07-09T18:12:12.917725",
      "2022-07-09T18:12:16.266990",
      "2022-07-09T18:12:20.059925",
      "2022-07-09T18:12:23.235903",
      "2022-07-09T18:12:26.592188",
      "2022-07-09T18:12:29.923058",
      "2022-07-09T18:12:33.033355",
      "2022-07-09T18:12:36.282039",
      "2022-07-09T18:12:39.473198",
      "2022-07-09T18:12:42.656830",
      "2022-07-09T18:12:45.940081",
      "2022-07-09T18:12:49.401955",
      "2022-07-09T18:12:52.827197",
      "2022-07-09T18:12:56.402310",
      "2022-07-09T18:12:59.768700",
      "2022-07-09T18:13:03.255091",
      "2022-07-09T18:13:06.650079",
      "2022-07-09T18:13:10.383496",
      "2022-07-09T18:13:14.221129",
      "2022-07-09T18:13:17.883604",
      "2022-07-09T18:13:21.522424",
      "2022-07-09T18:13:24.694454",
      "2022-07-09T18:13:27.969705",
      "2022-07-09T18:13:31.379610",
      "2022-07-09T18:13:34.667323",
      "2022-07-09T18:13:38.256327",
      "2022-07-09T18:13:41.663912",
      "2022-07-09T18:13:45.231143",
      "2022-07-09T18:13:48.411877",
      "2022-07-09T18:13:51.692159",
      "2022-07-09T18:13:54.931157",
      "2022-07-09T18:13:58.199636",
      "2022-07-09T18:14:01.356642",
      "2022-07-09T18:14:05.377676",
      "2022-07-09T18:14:08.647651",
      "2022-07-09T18:14:12.487515",
      "2022-07-09T18:14:16.273725",
      "2022-07-09T18:14:19.456398",
      "2022-07-09T18:14:22.732691",
      "2022-07-09T18:14:26.217481",
      "2022-07-09T18:14:29.405684",
      "2022-07-09T18:14:33.261457",
      "2022-07-09T18:14:36.414340",
      "2022-07-09T18:14:39.589584",
      "2022-07-09T18:14:42.790506",
      "2022-07-09T18:14:46.028908",
      "2022-07-09T18:14:49.311628",
      "2022-07-09T18:14:52.477982",
      "2022-07-09T18:14:56.013619",
      "2022-07-09T18:14:59.963337",
      "2022-07-09T18:15:03.774540",
      "2022-07-09T18:15:07.160961",
      "2022-07-09T18:15:10.442920",
      "2022-07-09T18:15:13.626933",
      "2022-07-09T18:15:16.937545",
      "2022-07-09T18:15:20.592845",
      "2022-07-09T18:15:24.080491",
      "2022-07-09T18:15:27.778879",
      "2022-07-09T18:15:31.598095",
      "2022-07-09T18:15:34.827156",
      "2022-07-09T18:15:38.100033",
      "2022-07-09T18:15:41.445122",
      "2022-07-09T18:15:44.626602",
      "2022-07-09T18:15:47.857648",
      "2022-07-09T18:15:51.195015",
      "2022-07-09T18:15:54.342369",
      "2022-07-09T18:15:57.654030",
      "2022-07-09T18:16:01.329312",
      "2022-07-09T18:16:04.613907",
      "2022-07-09T18:16:08.519056",
      "2022-07-09T18:16:12.351993",
      "2022-07-09T18:16:15.692270",
      "2022-07-09T18:16:19.615824",
      "2022-07-09T18:16:22.840634",
      "2022-07-09T18:16:26.046899",
      "2022-07-09T18:16:29.573162",
      "2022-07-09T18:16:33.266877",
      "2022-07-09T18:16:37.097904",
      "2022-07-09T18:16:40.357856",
      "2022-07-09T18:16:43.576651",
      "2022-07-09T18:16:46.994727",
      "2022-07-09T18:16:50.223151",
      "2022-07-09T18:16:53.406110",
      "2022-07-09T18:16:56.602233",
      "2022-07-09T18:17:00.581137",
      "2022-07-09T18:17:04.008322",
      "2022-07-09T18:17:07.491635",
      "2022-07-09T18:17:10.789832",
      "2022-07-09T18:17:13.940552",
      "2022-07-09T18:17:17.174280",
      "2022-07-09T18:17:20.767751",
      "2022-07-09T18:17:23.877018",
      "2022-07-09T18:17:27.139321",
      "2022-07-09T18:17:30.322034",
      "2022-07-09T18:17:33.509408",
      "2022-07-09T18:17:36.692215",
      "2022-07-09T18:17:39.928228",
      "2022-07-09T18:17:43.232764",
      "2022-07-09T18:17:46.416409",
      "2022-07-09T18:17:49.636817",
      "2022-07-09T18:17:52.857308",
      "2022-07-09T18:17:55.987649",
      "2022-07-09T18:17:59.288672",
      "2022-07-09T18:18:02.450914",
      "2022-07-09T18:18:05.702339",
      "2022-07-09T18:18:08.982894",
      "2022-07-09T18:18:12.194231",
      "2022-07-09T18:18:15.645268",
      "2022-07-09T18:18:19.519834",
      "2022-07-09T18:18:22.645945",
      "2022-07-09T18:18:26.088246",
      "2022-07-09T18:18:29.306531",
      "2022-07-09T18:18:32.529983",
      "2022-07-09T18:18:36.136262",
      "2022-07-09T18:18:39.454629",
      "2022-07-09T18:18:42.761989",
      "2022-07-09T18:18:46.273957",
      "2022-07-09T18:18:50.085183",
      "2022-07-09T18:18:53.270332",
      "2022-07-09T18:18:56.941214",
      "2022-07-09T18:19:00.418529",
      "2022-07-09T18:19:04.098573",
      "2022-07-09T18:19:07.297076",
      "2022-07-09T18:19:10.786045",
      "2022-07-09T18:19:13.885816",
      "2022-07-09T18:19:17.750191",
      "2022-07-09T18:19:21.808072",
      "2022-07-09T18:19:25.601462",
      "2022-07-09T18:19:29.234381",
      "2022-07-09T18:19:33.445943",
      "2022-07-09T18:19:36.721975",
      "2022-07-09T18:19:40.735289",
      "2022-07-09T18:19:44.282364",
      "2022-07-09T18:19:48.011864",
      "2022-07-09T18:19:51.160606",
      "2022-07-09T18:19:54.627271",
      "2022-07-09T18:19:58.311057",
      "2022-07-09T18:20:01.520978",
      "2022-07-09T18:20:05.225115",
      "2022-07-09T18:20:08.414366",
      "2022-07-09T18:20:11.886583",
      "2022-07-09T18:20:15.707293",
      "2022-07-09T18:20:19.091995"
    ],
    "values": [
      9.78847693873521,
      9.462638309840228,
      8.914904308896206,
      8.785693016501034,
      8.788395387127588,
      8.761590874860698,
      8.744123651139905,
      8.74157778625886,
      8.702114801876547,
      8.72933577876079,
      8.70601101102267,
      8.725653756580519,
      8.701629688768108,
      8.68145148073543,
      8.694081064929001,
      8.690563475461381,
      8.670952963236841,
      8.68576342687877,
      8.696823236165546,
      8.699033823098262,
      8.711556386814747,
      8.705829460625736,
      8.686500746786146,
      8.66686503691978,
      8.673601777017048,
      8.682692751528585,
      8.677997375566108,
      8.690369992126413,
      8.67796325257471,
      8.666426104955274,
      8.661081331524455,
      8.662089202458574,
      8.642543451393463,
      8.674200697859392,
      8.671421981949441,
      8.674012635764072,
      8.666986969548203,
      8.701947900240748,
      8.660666684543509,
      8.660154903558963,
      8.661313107767578,
      8.65167426383455,
      8.691719626451656,
      8.660293522254424,
      8.653185042232025,
      8.65424321860958,
      8.670919561314497,
      8.695942004088412,
      8.645739311236275,
      8.65043427213076,
      8.650767802292204,
      8.652631751856914,
      8.654846139844118,
      8.659447479689476,
      8.668513074783025,
      8.68042988306063,
      8.668163202086673,
      8.680107092152305,
      8.6506097315319,
      8.6712756602194,
      8.680962419846823,
      8.66851985159107,
      8.653245040851482,
      8.681464922805114,
      8.670730727844319,
      8.65921892477841,
      8.666230618143018,
      8.66424200167352,
      8.649345286250691,
      8.673100634010485,
      8.659722484125783,
      8.670540663079088,
      8.65567389968294,
      8.680912911545283,
      8.633928794996324,
      8.661359122223447,
      8.641338929819137,
      8.696684440779718,
      8.645168472929,
      8.6400146314704,
      8.632493264536844,
      8.651613347863584,
      8.669125806810083,
      8.669685314778114,
      8.630137413441002,
      8.64610075804598,
      8.680916293759589,
      8.64639692471469,
      8.661992446958902,
      8.643944073948113,
      8.665907634838312,
      8.65611165665565,
      8.647361899433013,
      8.659647316379052,
      8.632799572379598,
      8.654064087442507,
      8.652750056631803,
      8.65977713717978,
      8.677495816857308,
      8.665059619579857,
      8.658683527651805,
      8.664364319148554,
      8.64543275936786,
      8.638652137030874,
      8.63838661297545,
      8.66187030818287,
      8.658293644910307,
      8.617511250130114,
      8.614911142429818,
      8.621067943299556,
      8.615858817355145,
      8.61862283003101,
      8.617894794971157,
      8.614356698284649,
      8.614462470024831,
      8.61994317181475,
      8.616617488782959,
      8.621059613921311,
      8.61736439665792,
      8.618285461250391,
      8.619044907175095,
      8.616101970963635,
      8.619315710071675,
      8.619959610084274,
      8.616662792140238,
      8.61829777227323,
      8.615246955946354,
      8.617948962348523,
      8.617324089146518,
      8.613381689393162,
      8.614486601797548,
      8.615814062269413,
      8.618896092578217,
      8.618718119087022,
      8.617129881096755,
      8.6180872814809,
      8.616866692332918,
      8.614064925567007,
      8.613602522333629,
      8.618179185785298,
      8.617418823908325,
      8.616201191552857,
      8.614818932601114,
      8.615809810638833,
      8.61729266908077,
      8.618309638346604,
      8.613563903659083,
      8.615723708459555,
      8.61598517286667,
      8.61516129159501,
      8.619141242327764,
      8.618390266554353,
      8.619178761402766,
      8.62512893233012,
      8.616659679109649,
      8.61511233032507,
      8.613949807028753,
      8.615923996188354,
      8.620050471191696,
      8.615398180287917,
      8.617174523971523,
      8.618325096575484,
      8.61394211827066,
      8.618028107562289,
      8.616121369247283,
      8.618418449064643,
      8.619184481481696,
      8.618878116783945,
      8.615213941252883,
      8.618022299057086,
      8.617514935922705,
      8.61673958568971,
      8.614954156008132,
      8.620770373756715,
      8.615152095406046,
      8.614712367677878,
      8.615176844434421,
      8.619378274895915,
      8.613024786295288,
      8.61883981644912,
      8.616808600706007,
      8.616137048696832,
      8.616161618144568,
      8.61369302391416,
      8.61362568824291,
      8.613549496753777,
      8.613134166128003,
      8.613273463063658,
      8.613378468237357,
      8.613710594985802,
      8.613346769178747,
      8.613020420451393,
      8.613197328176698,
      8.61311769242472,
      8.613301590550025,
      8.613095356491696,
      8.613047918349523,
      8.613230192718506,
      8.613313163852402,
      8.613263345294252,
      8.613179104327354,
      8.613518312670536,
      8.613172611012278,
      8.613776341705211,
      8.613490685373954,
      8.613216437658316,
      8.613235376670978,
      8.61324540845084,
      8.613291219854013,
      8.613290337794535,
      8.613331155901259,
      8.613312502026464,
      8.61325839148353,
      8.613301172131479,
      8.613225172321588,
      8.613251145911237,
      8.613243998337094,
      8.613200497048746,
      8.613233089519236,
      8.613259119546548,
      8.613223151247144,
      8.61317997610889,
      8.613200902019152,
      8.613196083864963,
      8.61322564052494,
      8.613230558857085,
      8.613208633324431,
      8.613195727528451,
      8.613196990651424,
      8.613198865813553,
      8.613198657967429,
      8.61320185601121,
      8.61320099736826,
      8.613206088012857,
      8.613206673785987,
      8.613211017517436,
      8.613212412128709,
      8.613218173499092,
      8.613222755848797,
      8.61322623113659,
      8.613220294219976,
      8.613226458386354,
      8.613224495628666,
      8.61322461671091,
      8.613227347408479,
      8.613230660863634,
      8.613235566966654,
      8.613237680456187,
      8.613236256234831,
      8.613234910481683,
      8.613236602476285,
      8.61323603350074,
      8.613240376421912,
      8.613234864237912,
      8.613239368204622,
      8.613235449012416,
      8.613238973391644,
      8.613237107155008,
      8.613238958306484,
      8.613238545244469,
      8.613232256331916,
      8.613233158407438,
      8.613231439557088,
      8.613227648563408,
      8.613232400766032,
      8.613231044117969,
      8.613227930848511,
      8.613232741202046,
      8.613233401531556,
      8.613232994980546,
      8.613236575833774,
      8.613229889407558,
      8.613232454980754,
      8.613232984600637,
      8.613232409083151,
      8.61323485710182,
      8.61323454223039,
      8.613236236955672,
      8.613241560897293,
      8.613236899891106,
      8.613238747779693,
      8.613238528068205,
      8.613238615298684,
      8.613236084993158,
      8.613240673321071,
      8.613239699756468,
      8.613240988006028,
      8.613237130722007,
      8.613238789786458,
      8.613237896102751,
      8.613236726991827,
      8.613235262267313,
      8.613237227780463,
      8.61323364561197,
      8.61323528450591,
      8.613233699448491,
      8.613238946863447,
      8.613239223638267,
      8.613233925814901,
      8.613231059156158
    ]
  }
}