INFO - siren_vae - Running command 'run'
INFO - siren_vae - Started run with ID "5"
[ENCODED STRUCTURE] Using faithful BN structure.
[MODEL TYPE] IW-SIReN-VAE (k=8)
[WARM-UP] Applied to ['z1', 'z2', 'z13']
  0%|          | 0/400 [00:00<?, ?it/s]Train -ELBO: 80.20393, Val -ELBO: 77.55796:   0%|          | 1/400 [00:03<21:05,  3.17s/it]Train -ELBO: 77.89389, Val -ELBO: 75.52995:   0%|          | 2/400 [00:05<19:01,  2.87s/it]Train -ELBO: 75.73631, Val -ELBO: 73.47180:   1%|          | 3/400 [00:08<18:29,  2.79s/it]Train -ELBO: 73.56711, Val -ELBO: 71.41851:   1%|          | 4/400 [00:11<18:09,  2.75s/it]Train -ELBO: 71.54010, Val -ELBO: 69.41453:   1%|▏         | 5/400 [00:13<17:58,  2.73s/it]Train -ELBO: 69.32056, Val -ELBO: 67.59734:   2%|▏         | 6/400 [00:16<17:49,  2.71s/it]Train -ELBO: 67.67477, Val -ELBO: 65.85330:   2%|▏         | 7/400 [00:19<17:54,  2.73s/it]Train -ELBO: 65.73437, Val -ELBO: 64.10403:   2%|▏         | 8/400 [00:22<17:46,  2.72s/it]Train -ELBO: 63.81751, Val -ELBO: 62.36577:   2%|▏         | 9/400 [00:24<17:47,  2.73s/it]Train -ELBO: 61.92318, Val -ELBO: 60.79627:   2%|▎         | 10/400 [00:27<17:45,  2.73s/it]Train -ELBO: 60.32287, Val -ELBO: 59.40847:   3%|▎         | 11/400 [00:30<17:37,  2.72s/it]Train -ELBO: 58.96831, Val -ELBO: 58.11590:   3%|▎         | 12/400 [00:32<17:34,  2.72s/it]Train -ELBO: 57.74087, Val -ELBO: 56.98471:   3%|▎         | 13/400 [00:35<17:24,  2.70s/it]Train -ELBO: 56.65882, Val -ELBO: 55.97728:   4%|▎         | 14/400 [00:38<17:24,  2.71s/it]Train -ELBO: 55.39588, Val -ELBO: 55.06640:   4%|▍         | 15/400 [00:41<17:21,  2.70s/it]Train -ELBO: 54.37719, Val -ELBO: 54.30411:   4%|▍         | 16/400 [00:43<17:11,  2.69s/it]Train -ELBO: 53.65910, Val -ELBO: 53.68380:   4%|▍         | 17/400 [00:46<17:11,  2.69s/it]Train -ELBO: 53.02198, Val -ELBO: 53.12632:   4%|▍         | 18/400 [00:49<17:05,  2.68s/it]Train -ELBO: 52.58673, Val -ELBO: 52.68076:   5%|▍         | 19/400 [00:51<17:06,  2.70s/it]Train -ELBO: 52.13486, Val -ELBO: 52.17560:   5%|▌         | 20/400 [00:54<17:06,  2.70s/it]Train -ELBO: 51.56115, Val -ELBO: 51.77709:   5%|▌         | 21/400 [00:57<17:09,  2.72s/it]Train -ELBO: 51.10149, Val -ELBO: 51.34484:   6%|▌         | 22/400 [00:59<17:04,  2.71s/it]Train -ELBO: 50.65238, Val -ELBO: 50.91307:   6%|▌         | 23/400 [01:02<16:56,  2.70s/it]Train -ELBO: 50.16454, Val -ELBO: 50.46316:   6%|▌         | 24/400 [01:05<16:51,  2.69s/it]Train -ELBO: 49.64880, Val -ELBO: 49.98087:   6%|▋         | 25/400 [01:07<16:46,  2.68s/it]Train -ELBO: 49.12831, Val -ELBO: 49.53402:   6%|▋         | 26/400 [01:10<16:46,  2.69s/it]Train -ELBO: 48.60035, Val -ELBO: 49.16106:   7%|▋         | 27/400 [01:13<16:41,  2.69s/it]Train -ELBO: 48.13278, Val -ELBO: 48.79585:   7%|▋         | 28/400 [01:15<16:35,  2.68s/it]Train -ELBO: 47.81350, Val -ELBO: 48.52471:   7%|▋         | 29/400 [01:18<16:36,  2.69s/it]Train -ELBO: 47.31385, Val -ELBO: 48.26357:   8%|▊         | 30/400 [01:21<16:27,  2.67s/it]Train -ELBO: 46.83305, Val -ELBO: 47.99581:   8%|▊         | 31/400 [01:24<16:35,  2.70s/it]Train -ELBO: 46.55512, Val -ELBO: 47.79074:   8%|▊         | 32/400 [01:26<16:30,  2.69s/it]Train -ELBO: 46.25344, Val -ELBO: 47.58418:   8%|▊         | 33/400 [01:29<16:21,  2.67s/it]Train -ELBO: 45.76190, Val -ELBO: 47.37317:   8%|▊         | 34/400 [01:32<16:18,  2.67s/it]Train -ELBO: 45.52995, Val -ELBO: 47.13448:   9%|▉         | 35/400 [01:34<16:16,  2.67s/it]Train -ELBO: 45.04823, Val -ELBO: 46.83840:   9%|▉         | 36/400 [01:37<16:14,  2.68s/it]Train -ELBO: 44.79770, Val -ELBO: 46.61906:   9%|▉         | 37/400 [01:40<16:09,  2.67s/it]Train -ELBO: 44.58003, Val -ELBO: 46.27694:  10%|▉         | 38/400 [01:42<16:12,  2.69s/it]Train -ELBO: 43.99277, Val -ELBO: 45.99076:  10%|▉         | 39/400 [01:45<16:09,  2.69s/it]Train -ELBO: 43.55383, Val -ELBO: 45.62056:  10%|█         | 40/400 [01:48<16:08,  2.69s/it]Train -ELBO: 43.13145, Val -ELBO: 45.32809:  10%|█         | 41/400 [01:50<16:11,  2.71s/it]Train -ELBO: 42.92511, Val -ELBO: 45.05850:  10%|█         | 42/400 [01:53<16:06,  2.70s/it]Train -ELBO: 42.45658, Val -ELBO: 44.82780:  11%|█         | 43/400 [01:56<16:02,  2.69s/it]Train -ELBO: 41.92275, Val -ELBO: 44.52129:  11%|█         | 44/400 [01:58<15:56,  2.69s/it]Train -ELBO: 41.62166, Val -ELBO: 44.32652:  11%|█▏        | 45/400 [02:01<15:59,  2.70s/it]Train -ELBO: 41.37787, Val -ELBO: 44.10199:  12%|█▏        | 46/400 [02:04<15:55,  2.70s/it]Train -ELBO: 40.85517, Val -ELBO: 43.76702:  12%|█▏        | 47/400 [02:07<15:48,  2.69s/it]Train -ELBO: 40.40814, Val -ELBO: 43.51827:  12%|█▏        | 48/400 [02:09<16:03,  2.74s/it]Train -ELBO: 40.38326, Val -ELBO: 43.31921:  12%|█▏        | 49/400 [02:12<16:06,  2.75s/it]Train -ELBO: 40.09863, Val -ELBO: 43.26308:  12%|█▎        | 50/400 [02:15<15:51,  2.72s/it]Train -ELBO: 39.85662, Val -ELBO: 42.97824:  13%|█▎        | 51/400 [02:17<15:40,  2.69s/it]Train -ELBO: 39.77212, Val -ELBO: 42.83847:  13%|█▎        | 52/400 [02:20<15:31,  2.68s/it]Train -ELBO: 39.44565, Val -ELBO: 42.64697:  13%|█▎        | 53/400 [02:23<15:22,  2.66s/it]Train -ELBO: 39.38733, Val -ELBO: 42.53503:  14%|█▎        | 54/400 [02:25<15:22,  2.67s/it]Train -ELBO: 38.83279, Val -ELBO: 42.26937:  14%|█▍        | 55/400 [02:28<15:16,  2.66s/it]Train -ELBO: 38.64081, Val -ELBO: 42.03435:  14%|█▍        | 56/400 [02:31<15:11,  2.65s/it]Train -ELBO: 38.41411, Val -ELBO: 41.85765:  14%|█▍        | 57/400 [02:33<15:08,  2.65s/it]Train -ELBO: 38.59969, Val -ELBO: 41.80196:  14%|█▍        | 58/400 [02:36<15:07,  2.65s/it]Train -ELBO: 38.31181, Val -ELBO: 41.62170:  15%|█▍        | 59/400 [02:39<15:16,  2.69s/it]Train -ELBO: 38.24027, Val -ELBO: 41.44571:  15%|█▌        | 60/400 [02:41<15:16,  2.70s/it]Train -ELBO: 37.80132, Val -ELBO: 41.28242:  15%|█▌        | 61/400 [02:44<15:20,  2.71s/it]Train -ELBO: 37.52182, Val -ELBO: 41.30023:  16%|█▌        | 62/400 [02:47<15:08,  2.69s/it]Train -ELBO: 37.68728, Val -ELBO: 41.06646:  16%|█▌        | 63/400 [02:49<14:59,  2.67s/it]Train -ELBO: 37.64496, Val -ELBO: 41.18878:  16%|█▌        | 64/400 [02:52<14:47,  2.64s/it]Train -ELBO: 37.23378, Val -ELBO: 40.99401:  16%|█▋        | 65/400 [02:55<14:54,  2.67s/it]Train -ELBO: 37.68349, Val -ELBO: 41.12813:  16%|█▋        | 66/400 [02:58<14:59,  2.69s/it]Train -ELBO: 37.15720, Val -ELBO: 40.71171:  17%|█▋        | 67/400 [03:00<14:44,  2.66s/it]Train -ELBO: 37.05240, Val -ELBO: 40.42163:  17%|█▋        | 68/400 [03:03<14:37,  2.64s/it]Train -ELBO: 37.19833, Val -ELBO: 40.46917:  17%|█▋        | 69/400 [03:05<14:40,  2.66s/it]Train -ELBO: 36.83835, Val -ELBO: 40.21261:  18%|█▊        | 70/400 [03:08<14:42,  2.67s/it]Train -ELBO: 36.88945, Val -ELBO: 40.20622:  18%|█▊        | 71/400 [03:11<14:38,  2.67s/it]Train -ELBO: 36.46803, Val -ELBO: 39.99722:  18%|█▊        | 72/400 [03:13<14:30,  2.65s/it]Train -ELBO: 36.36819, Val -ELBO: 40.15142:  18%|█▊        | 73/400 [03:16<14:25,  2.65s/it]Train -ELBO: 36.39184, Val -ELBO: 40.20187:  18%|█▊        | 74/400 [03:19<14:22,  2.65s/it]Train -ELBO: 36.46542, Val -ELBO: 40.10236:  19%|█▉        | 75/400 [03:21<14:23,  2.66s/it]Train -ELBO: 36.44579, Val -ELBO: 39.96076:  19%|█▉        | 76/400 [03:24<14:17,  2.65s/it]Train -ELBO: 36.38926, Val -ELBO: 40.00540:  19%|█▉        | 77/400 [03:27<14:21,  2.67s/it]Train -ELBO: 36.21134, Val -ELBO: 39.69344:  20%|█▉        | 78/400 [03:29<14:22,  2.68s/it]Train -ELBO: 36.15328, Val -ELBO: 39.66668:  20%|█▉        | 79/400 [03:32<14:18,  2.67s/it]Train -ELBO: 36.01114, Val -ELBO: 39.66693:  20%|██        | 80/400 [03:35<14:12,  2.66s/it]Train -ELBO: 36.18455, Val -ELBO: 39.72782:  20%|██        | 81/400 [03:37<14:10,  2.67s/it]Train -ELBO: 35.99359, Val -ELBO: 39.66109:  20%|██        | 82/400 [03:40<14:00,  2.64s/it]Train -ELBO: 35.97365, Val -ELBO: 39.61558:  21%|██        | 83/400 [03:43<13:55,  2.64s/it]Train -ELBO: 35.89720, Val -ELBO: 39.54158:  21%|██        | 84/400 [03:45<13:51,  2.63s/it]Train -ELBO: 36.08548, Val -ELBO: 39.84899:  21%|██▏       | 85/400 [03:48<13:48,  2.63s/it]Train -ELBO: 36.34994, Val -ELBO: 39.73427:  22%|██▏       | 86/400 [03:51<13:54,  2.66s/it]Train -ELBO: 36.18623, Val -ELBO: 39.74133:  22%|██▏       | 87/400 [03:53<14:02,  2.69s/it]Train -ELBO: 36.09789, Val -ELBO: 39.73267:  22%|██▏       | 88/400 [03:56<13:57,  2.69s/it]Train -ELBO: 36.07869, Val -ELBO: 39.58755:  22%|██▏       | 89/400 [03:59<13:49,  2.67s/it]Train -ELBO: 36.22070, Val -ELBO: 39.64328:  22%|██▎       | 90/400 [04:01<13:45,  2.66s/it]Train -ELBO: 36.01776, Val -ELBO: 39.54592:  23%|██▎       | 91/400 [04:04<13:40,  2.65s/it]Train -ELBO: 35.89569, Val -ELBO: 39.46569:  23%|██▎       | 92/400 [04:07<13:38,  2.66s/it]Train -ELBO: 36.00212, Val -ELBO: 39.44183:  23%|██▎       | 93/400 [04:09<13:39,  2.67s/it]Train -ELBO: 36.12578, Val -ELBO: 39.29394:  24%|██▎       | 94/400 [04:12<13:45,  2.70s/it]Train -ELBO: 35.75658, Val -ELBO: 39.32638:  24%|██▍       | 95/400 [04:15<13:47,  2.71s/it]Train -ELBO: 35.70247, Val -ELBO: 39.35103:  24%|██▍       | 96/400 [04:17<13:36,  2.68s/it]Train -ELBO: 35.86046, Val -ELBO: 39.29320:  24%|██▍       | 97/400 [04:20<13:31,  2.68s/it]Train -ELBO: 35.86289, Val -ELBO: 39.15723:  24%|██▍       | 98/400 [04:23<13:35,  2.70s/it]Train -ELBO: 36.00795, Val -ELBO: 39.10211:  25%|██▍       | 99/400 [04:25<13:22,  2.66s/it]Train -ELBO: 36.00895, Val -ELBO: 39.07479:  25%|██▌       | 100/400 [04:28<13:17,  2.66s/it]Train -ELBO: 35.75686, Val -ELBO: 39.10117:  25%|██▌       | 101/400 [04:31<13:11,  2.65s/it]Train -ELBO: 35.65696, Val -ELBO: 39.15156:  26%|██▌       | 102/400 [04:33<13:07,  2.64s/it]Train -ELBO: 35.56104, Val -ELBO: 39.09875:  26%|██▌       | 103/400 [04:36<13:06,  2.65s/it]Train -ELBO: 35.75519, Val -ELBO: 39.16006:  26%|██▌       | 104/400 [04:39<13:03,  2.65s/it]Train -ELBO: 35.55468, Val -ELBO: 39.12488:  26%|██▋       | 105/400 [04:41<13:01,  2.65s/it]Train -ELBO: 35.69510, Val -ELBO: 39.15255:  26%|██▋       | 106/400 [04:44<13:05,  2.67s/it]Train -ELBO: 35.78966, Val -ELBO: 39.19177:  27%|██▋       | 107/400 [04:47<13:09,  2.69s/it]Train -ELBO: 35.62959, Val -ELBO: 39.15699:  27%|██▋       | 108/400 [04:49<13:01,  2.68s/it]Train -ELBO: 35.56891, Val -ELBO: 39.16542:  27%|██▋       | 109/400 [04:52<12:55,  2.66s/it]Train -ELBO: 35.70107, Val -ELBO: 39.11554:  28%|██▊       | 110/400 [04:55<12:57,  2.68s/it]Train -ELBO: 35.44832, Val -ELBO: 38.97390:  28%|██▊       | 111/400 [04:57<12:54,  2.68s/it]Train -ELBO: 35.48891, Val -ELBO: 39.01008:  28%|██▊       | 112/400 [05:00<12:48,  2.67s/it]Train -ELBO: 35.56447, Val -ELBO: 39.07829:  28%|██▊       | 113/400 [05:03<12:43,  2.66s/it]Train -ELBO: 35.50364, Val -ELBO: 39.07020:  28%|██▊       | 114/400 [05:05<12:35,  2.64s/it]Train -ELBO: 35.49262, Val -ELBO: 38.93201:  29%|██▉       | 115/400 [05:08<12:42,  2.68s/it]Train -ELBO: 35.43837, Val -ELBO: 38.75651:  29%|██▉       | 116/400 [05:11<12:44,  2.69s/it]Train -ELBO: 35.28345, Val -ELBO: 38.75036:  29%|██▉       | 117/400 [05:14<12:44,  2.70s/it]Train -ELBO: 35.29573, Val -ELBO: 38.81394:  30%|██▉       | 118/400 [05:16<12:43,  2.71s/it]Train -ELBO: 35.36238, Val -ELBO: 38.98709:  30%|██▉       | 119/400 [05:19<12:39,  2.70s/it]Train -ELBO: 35.30543, Val -ELBO: 38.98559:  30%|███       | 120/400 [05:22<12:36,  2.70s/it]Train -ELBO: 35.30264, Val -ELBO: 38.82470:  30%|███       | 121/400 [05:24<12:36,  2.71s/it]Train -ELBO: 35.18581, Val -ELBO: 38.67741:  30%|███       | 122/400 [05:27<12:37,  2.73s/it]Train -ELBO: 35.14250, Val -ELBO: 38.61482:  31%|███       | 123/400 [05:30<12:41,  2.75s/it]Train -ELBO: 35.14367, Val -ELBO: 38.65165:  31%|███       | 124/400 [05:33<12:56,  2.81s/it]Train -ELBO: 35.24183, Val -ELBO: 38.67896:  31%|███▏      | 125/400 [05:36<12:55,  2.82s/it]Train -ELBO: 35.39373, Val -ELBO: 38.62171:  32%|███▏      | 126/400 [05:39<12:50,  2.81s/it]Train -ELBO: 34.98700, Val -ELBO: 38.56755:  32%|███▏      | 127/400 [05:41<12:48,  2.82s/it]Train -ELBO: 35.08279, Val -ELBO: 38.55106:  32%|███▏      | 128/400 [05:44<12:31,  2.76s/it]Train -ELBO: 35.02022, Val -ELBO: 38.53062:  32%|███▏      | 129/400 [05:47<12:18,  2.72s/it]Train -ELBO: 35.11746, Val -ELBO: 38.62913:  32%|███▎      | 130/400 [05:49<12:09,  2.70s/it]Train -ELBO: 35.10564, Val -ELBO: 38.60476:  33%|███▎      | 131/400 [05:52<11:56,  2.66s/it]Train -ELBO: 35.06965, Val -ELBO: 38.58219:  33%|███▎      | 132/400 [05:55<11:56,  2.67s/it]Train -ELBO: 34.90635, Val -ELBO: 38.65416:  33%|███▎      | 133/400 [05:57<12:09,  2.73s/it]Train -ELBO: 35.18323, Val -ELBO: 38.71245:  34%|███▎      | 134/400 [06:00<12:07,  2.73s/it]Train -ELBO: 35.05703, Val -ELBO: 38.64239:  34%|███▍      | 135/400 [06:03<12:07,  2.74s/it]Train -ELBO: 34.83955, Val -ELBO: 38.58423:  34%|███▍      | 136/400 [06:06<12:05,  2.75s/it]Train -ELBO: 34.81014, Val -ELBO: 38.52688:  34%|███▍      | 137/400 [06:08<11:54,  2.72s/it]Train -ELBO: 34.93993, Val -ELBO: 38.55995:  34%|███▍      | 138/400 [06:11<11:43,  2.69s/it]Train -ELBO: 34.80061, Val -ELBO: 38.55435:  35%|███▍      | 139/400 [06:14<11:35,  2.66s/it]Train -ELBO: 34.92229, Val -ELBO: 38.54210:  35%|███▌      | 140/400 [06:16<11:30,  2.66s/it]Train -ELBO: 34.62315, Val -ELBO: 38.44384:  35%|███▌      | 141/400 [06:19<11:30,  2.66s/it]Train -ELBO: 34.78076, Val -ELBO: 38.40078:  36%|███▌      | 142/400 [06:22<11:28,  2.67s/it]Train -ELBO: 34.98211, Val -ELBO: 38.46280:  36%|███▌      | 143/400 [06:24<11:40,  2.73s/it]Train -ELBO: 34.67999, Val -ELBO: 38.48483:  36%|███▌      | 144/400 [06:27<11:40,  2.74s/it]Train -ELBO: 34.72622, Val -ELBO: 38.44815:  36%|███▋      | 145/400 [06:30<11:28,  2.70s/it]Train -ELBO: 34.48619, Val -ELBO: 38.40487:  36%|███▋      | 146/400 [06:32<11:22,  2.69s/it]Train -ELBO: 34.57584, Val -ELBO: 38.32816:  37%|███▋      | 147/400 [06:35<11:28,  2.72s/it]Train -ELBO: 34.46632, Val -ELBO: 38.33593:  37%|███▋      | 148/400 [06:38<11:18,  2.69s/it]Train -ELBO: 34.71369, Val -ELBO: 38.44508:  37%|███▋      | 149/400 [06:40<11:11,  2.67s/it]Train -ELBO: 34.74838, Val -ELBO: 38.48359:  38%|███▊      | 150/400 [06:43<11:09,  2.68s/it]Train -ELBO: 34.68172, Val -ELBO: 38.41792:  38%|███▊      | 151/400 [06:46<11:01,  2.66s/it]Train -ELBO: 34.39914, Val -ELBO: 38.29002:  38%|███▊      | 152/400 [06:48<10:56,  2.65s/it]Train -ELBO: 34.57339, Val -ELBO: 38.21353:  38%|███▊      | 153/400 [06:51<10:52,  2.64s/it]Train -ELBO: 34.31799, Val -ELBO: 38.29092:  38%|███▊      | 154/400 [06:54<10:48,  2.63s/it]Train -ELBO: 34.39507, Val -ELBO: 38.34182:  39%|███▉      | 155/400 [06:56<10:44,  2.63s/it]Train -ELBO: 34.49271, Val -ELBO: 38.31531:  39%|███▉      | 156/400 [06:59<10:41,  2.63s/it]Train -ELBO: 34.20870, Val -ELBO: 38.30649:  39%|███▉      | 157/400 [07:02<10:38,  2.63s/it]Train -ELBO: 34.38156, Val -ELBO: 38.33384:  40%|███▉      | 158/400 [07:04<10:34,  2.62s/it]Train -ELBO: 34.45752, Val -ELBO: 38.35118:  40%|███▉      | 159/400 [07:07<10:32,  2.62s/it]Train -ELBO: 34.30984, Val -ELBO: 38.35939:  40%|████      | 160/400 [07:09<10:30,  2.63s/it]Train -ELBO: 34.40072, Val -ELBO: 38.38894:  40%|████      | 161/400 [07:12<10:27,  2.63s/it]Train -ELBO: 34.14624, Val -ELBO: 38.48867:  40%|████      | 162/400 [07:15<10:21,  2.61s/it]Train -ELBO: 34.33132, Val -ELBO: 38.44472:  41%|████      | 163/400 [07:17<10:24,  2.63s/it]Train -ELBO: 34.26365, Val -ELBO: 38.36856:  41%|████      | 164/400 [07:20<10:23,  2.64s/it]Train -ELBO: 34.36333, Val -ELBO: 38.39957:  41%|████▏     | 165/400 [07:23<10:17,  2.63s/it]Train -ELBO: 34.36007, Val -ELBO: 38.37122:  42%|████▏     | 166/400 [07:25<10:15,  2.63s/it]Train -ELBO: 34.41685, Val -ELBO: 38.38546:  42%|████▏     | 167/400 [07:28<10:15,  2.64s/it]Train -ELBO: 34.26541, Val -ELBO: 38.38344:  42%|████▏     | 168/400 [07:30<10:14,  2.65s/it]Train -ELBO: 34.28323, Val -ELBO: 38.48300:  42%|████▏     | 169/400 [07:33<10:10,  2.64s/it]Train -ELBO: 34.35816, Val -ELBO: 38.53516:  42%|████▎     | 170/400 [07:36<10:12,  2.66s/it]Train -ELBO: 34.37523, Val -ELBO: 38.42885:  43%|████▎     | 171/400 [07:39<10:30,  2.75s/it]Train -ELBO: 34.37407, Val -ELBO: 38.49273:  43%|████▎     | 172/400 [07:42<10:30,  2.76s/it]Train -ELBO: 34.10628, Val -ELBO: 38.43766:  43%|████▎     | 173/400 [07:44<10:31,  2.78s/it]Train -ELBO: 34.33273, Val -ELBO: 38.41960:  44%|████▎     | 174/400 [07:47<10:21,  2.75s/it]Train -ELBO: 34.39944, Val -ELBO: 38.32379:  44%|████▍     | 175/400 [07:50<10:11,  2.72s/it]Train -ELBO: 34.34136, Val -ELBO: 38.20153:  44%|████▍     | 176/400 [07:52<10:05,  2.70s/it]Train -ELBO: 34.03373, Val -ELBO: 38.19931:  44%|████▍     | 177/400 [07:55<09:57,  2.68s/it]Train -ELBO: 34.10751, Val -ELBO: 38.25056:  44%|████▍     | 178/400 [07:58<09:51,  2.66s/it]Train -ELBO: 34.35208, Val -ELBO: 38.27551:  45%|████▍     | 179/400 [08:00<09:43,  2.64s/it]Train -ELBO: 34.20892, Val -ELBO: 38.20796:  45%|████▌     | 180/400 [08:03<09:45,  2.66s/it]Train -ELBO: 34.12822, Val -ELBO: 38.21605:  45%|████▌     | 181/400 [08:06<09:47,  2.68s/it]Train -ELBO: 34.23669, Val -ELBO: 38.30523:  46%|████▌     | 182/400 [08:08<09:47,  2.70s/it]Train -ELBO: 34.19392, Val -ELBO: 38.33663:  46%|████▌     | 183/400 [08:11<09:47,  2.71s/it]Train -ELBO: 34.17856, Val -ELBO: 38.30777:  46%|████▌     | 184/400 [08:14<09:41,  2.69s/it]Train -ELBO: 34.01929, Val -ELBO: 38.25073:  46%|████▋     | 185/400 [08:16<09:32,  2.66s/it]Train -ELBO: 34.04021, Val -ELBO: 38.23643:  46%|████▋     | 186/400 [08:19<09:36,  2.70s/it]Train -ELBO: 34.09125, Val -ELBO: 38.11525:  47%|████▋     | 187/400 [08:22<09:39,  2.72s/it]Train -ELBO: 34.07067, Val -ELBO: 38.04364:  47%|████▋     | 188/400 [08:25<09:37,  2.73s/it]Train -ELBO: 34.02014, Val -ELBO: 38.05835:  47%|████▋     | 189/400 [08:27<09:28,  2.69s/it]Train -ELBO: 34.16515, Val -ELBO: 38.12719:  48%|████▊     | 190/400 [08:30<09:22,  2.68s/it]Train -ELBO: 33.92268, Val -ELBO: 38.10501:  48%|████▊     | 191/400 [08:33<09:16,  2.66s/it]Train -ELBO: 34.08360, Val -ELBO: 38.26045:  48%|████▊     | 192/400 [08:35<09:11,  2.65s/it]Train -ELBO: 34.29200, Val -ELBO: 38.27556:  48%|████▊     | 193/400 [08:38<09:08,  2.65s/it]Train -ELBO: 34.04470, Val -ELBO: 38.12972:  48%|████▊     | 194/400 [08:41<09:10,  2.67s/it]Train -ELBO: 33.98564, Val -ELBO: 38.05534:  49%|████▉     | 195/400 [08:43<09:08,  2.67s/it]Train -ELBO: 33.88889, Val -ELBO: 38.19623:  49%|████▉     | 196/400 [08:46<09:04,  2.67s/it]Train -ELBO: 34.17240, Val -ELBO: 38.36476:  49%|████▉     | 197/400 [08:49<09:02,  2.67s/it]Train -ELBO: 34.18091, Val -ELBO: 38.32751:  50%|████▉     | 198/400 [08:51<09:03,  2.69s/it]Train -ELBO: 34.09657, Val -ELBO: 38.18754:  50%|████▉     | 199/400 [08:54<08:55,  2.66s/it]Train -ELBO: 33.96607, Val -ELBO: 38.12138:  50%|█████     | 200/400 [08:57<08:51,  2.66s/it]Train -ELBO: 33.89483, Val -ELBO: 38.19587:  50%|█████     | 201/400 [08:59<08:51,  2.67s/it]Train -ELBO: 34.00620, Val -ELBO: 38.26872:  50%|█████     | 202/400 [09:02<08:44,  2.65s/it]Train -ELBO: 33.93591, Val -ELBO: 38.31055:  51%|█████     | 203/400 [09:04<08:41,  2.65s/it]Train -ELBO: 33.86763, Val -ELBO: 38.28516:  51%|█████     | 204/400 [09:07<08:42,  2.67s/it]Train -ELBO: 33.92128, Val -ELBO: 38.23383:  51%|█████▏    | 205/400 [09:10<08:43,  2.69s/it]Train -ELBO: 33.91360, Val -ELBO: 38.22644:  52%|█████▏    | 206/400 [09:13<08:38,  2.67s/it]Train -ELBO: 34.19238, Val -ELBO: 38.14540:  52%|█████▏    | 207/400 [09:15<08:35,  2.67s/it]Train -ELBO: 33.97544, Val -ELBO: 38.06841:  52%|█████▏    | 208/400 [09:18<08:31,  2.67s/it]Train -ELBO: 33.97801, Val -ELBO: 38.03929:  52%|█████▏    | 209/400 [09:21<08:27,  2.66s/it]Train -ELBO: 33.83583, Val -ELBO: 38.04927:  52%|█████▎    | 210/400 [09:23<08:24,  2.65s/it]Train -ELBO: 33.86039, Val -ELBO: 38.24685:  53%|█████▎    | 211/400 [09:26<08:24,  2.67s/it]Train -ELBO: 33.87822, Val -ELBO: 38.35195:  53%|█████▎    | 212/400 [09:29<08:22,  2.67s/it]Train -ELBO: 34.13198, Val -ELBO: 38.32860:  53%|█████▎    | 213/400 [09:31<08:14,  2.64s/it]Train -ELBO: 33.92634, Val -ELBO: 38.15301:  54%|█████▎    | 214/400 [09:34<08:20,  2.69s/it]Train -ELBO: 33.82963, Val -ELBO: 38.14277:  54%|█████▍    | 215/400 [09:37<08:15,  2.68s/it]Train -ELBO: 33.81854, Val -ELBO: 38.20854:  54%|█████▍    | 216/400 [09:39<08:16,  2.70s/it]Train -ELBO: 33.93200, Val -ELBO: 38.16443:  54%|█████▍    | 217/400 [09:42<08:18,  2.72s/it]Train -ELBO: 33.89460, Val -ELBO: 38.16994:  55%|█████▍    | 218/400 [09:45<08:15,  2.73s/it]Train -ELBO: 33.84837, Val -ELBO: 38.12965:  55%|█████▍    | 219/400 [09:48<08:14,  2.73s/it]Train -ELBO: 33.83663, Val -ELBO: 38.16349:  55%|█████▌    | 220/400 [09:50<08:12,  2.73s/it]Train -ELBO: 33.84771, Val -ELBO: 38.19054:  55%|█████▌    | 221/400 [09:53<08:08,  2.73s/it]Train -ELBO: 33.82218, Val -ELBO: 38.15621:  56%|█████▌    | 222/400 [09:56<08:06,  2.73s/it]Train -ELBO: 33.85027, Val -ELBO: 38.03362:  56%|█████▌    | 223/400 [09:58<08:01,  2.72s/it]Train -ELBO: 33.70076, Val -ELBO: 38.07495:  56%|█████▌    | 224/400 [10:01<07:55,  2.70s/it]Train -ELBO: 33.75370, Val -ELBO: 38.03728:  56%|█████▋    | 225/400 [10:04<07:53,  2.70s/it]Train -ELBO: 33.81458, Val -ELBO: 38.00690:  56%|█████▋    | 226/400 [10:07<07:50,  2.71s/it]Train -ELBO: 33.64648, Val -ELBO: 38.08397:  57%|█████▋    | 227/400 [10:09<07:48,  2.71s/it]Train -ELBO: 33.75873, Val -ELBO: 38.14797:  57%|█████▋    | 228/400 [10:12<07:44,  2.70s/it]Train -ELBO: 33.75895, Val -ELBO: 38.13879:  57%|█████▋    | 229/400 [10:15<07:43,  2.71s/it]Train -ELBO: 33.66963, Val -ELBO: 38.10660:  57%|█████▊    | 230/400 [10:17<07:37,  2.69s/it]Train -ELBO: 33.74873, Val -ELBO: 38.17010:  58%|█████▊    | 231/400 [10:20<07:36,  2.70s/it]Train -ELBO: 33.61935, Val -ELBO: 38.27032:  58%|█████▊    | 232/400 [10:23<07:34,  2.70s/it]Train -ELBO: 33.72976, Val -ELBO: 38.26180:  58%|█████▊    | 233/400 [10:25<07:26,  2.68s/it]Train -ELBO: 33.61482, Val -ELBO: 38.14399:  58%|█████▊    | 234/400 [10:28<07:24,  2.68s/it]Train -ELBO: 33.57943, Val -ELBO: 38.12665:  59%|█████▉    | 235/400 [10:31<07:24,  2.69s/it]Train -ELBO: 33.62097, Val -ELBO: 38.11808:  59%|█████▉    | 236/400 [10:34<07:24,  2.71s/it]Train -ELBO: 33.49422, Val -ELBO: 38.23133:  59%|█████▉    | 237/400 [10:36<07:22,  2.72s/it]Train -ELBO: 33.67187, Val -ELBO: 38.27317:  60%|█████▉    | 238/400 [10:39<07:18,  2.71s/it]Train -ELBO: 33.70867, Val -ELBO: 38.25905:  60%|█████▉    | 239/400 [10:42<07:16,  2.71s/it]Train -ELBO: 33.71669, Val -ELBO: 38.26176:  60%|██████    | 240/400 [10:44<07:12,  2.70s/it]Train -ELBO: 33.54496, Val -ELBO: 38.23922:  60%|██████    | 241/400 [10:47<07:12,  2.72s/it]Train -ELBO: 33.49410, Val -ELBO: 38.33329:  60%|██████    | 242/400 [10:50<07:15,  2.76s/it]Train -ELBO: 33.67960, Val -ELBO: 38.36226:  61%|██████    | 243/400 [10:53<07:12,  2.75s/it]Train -ELBO: 33.64583, Val -ELBO: 38.34543:  61%|██████    | 244/400 [10:55<07:06,  2.73s/it]Train -ELBO: 33.64739, Val -ELBO: 38.23406:  61%|██████▏   | 245/400 [10:58<07:09,  2.77s/it]Train -ELBO: 33.61973, Val -ELBO: 38.18209:  62%|██████▏   | 246/400 [11:01<07:05,  2.76s/it]Train -ELBO: 33.54378, Val -ELBO: 38.21226:  62%|██████▏   | 247/400 [11:04<06:54,  2.71s/it]Epoch   148: reducing learning rate of group 0 to 1.0000e-03.
Train -ELBO: 33.61356, Val -ELBO: 38.25076:  62%|██████▏   | 248/400 [11:06<06:47,  2.68s/it]Train -ELBO: 33.55942, Val -ELBO: 38.30445:  62%|██████▏   | 249/400 [11:09<06:48,  2.70s/it]Train -ELBO: 33.71559, Val -ELBO: 38.27557:  62%|██████▎   | 250/400 [11:12<06:40,  2.67s/it]Train -ELBO: 33.68256, Val -ELBO: 38.27353:  63%|██████▎   | 251/400 [11:14<06:36,  2.66s/it]Train -ELBO: 33.42333, Val -ELBO: 38.22011:  63%|██████▎   | 252/400 [11:17<06:33,  2.66s/it]Train -ELBO: 33.61111, Val -ELBO: 38.21478:  63%|██████▎   | 253/400 [11:19<06:30,  2.66s/it]Train -ELBO: 33.54026, Val -ELBO: 38.20234:  64%|██████▎   | 254/400 [11:22<06:26,  2.65s/it]Train -ELBO: 33.47579, Val -ELBO: 38.15432:  64%|██████▍   | 255/400 [11:25<06:24,  2.65s/it]Train -ELBO: 33.46580, Val -ELBO: 38.13699:  64%|██████▍   | 256/400 [11:27<06:19,  2.64s/it]Train -ELBO: 33.43522, Val -ELBO: 38.12846:  64%|██████▍   | 257/400 [11:30<06:17,  2.64s/it]Train -ELBO: 33.33601, Val -ELBO: 38.08652:  64%|██████▍   | 258/400 [11:33<06:14,  2.63s/it]Train -ELBO: 33.28165, Val -ELBO: 38.09515:  65%|██████▍   | 259/400 [11:35<06:10,  2.63s/it]Train -ELBO: 33.44939, Val -ELBO: 38.13365:  65%|██████▌   | 260/400 [11:38<06:12,  2.66s/it]Train -ELBO: 33.43968, Val -ELBO: 38.11846:  65%|██████▌   | 261/400 [11:41<06:11,  2.67s/it]Train -ELBO: 33.40055, Val -ELBO: 38.11052:  66%|██████▌   | 262/400 [11:43<06:13,  2.71s/it]Train -ELBO: 33.23716, Val -ELBO: 38.14128:  66%|██████▌   | 263/400 [11:46<06:11,  2.71s/it]Train -ELBO: 33.35796, Val -ELBO: 38.11152:  66%|██████▌   | 264/400 [11:49<06:07,  2.70s/it]Train -ELBO: 33.37746, Val -ELBO: 38.13119:  66%|██████▋   | 265/400 [11:52<06:04,  2.70s/it]Train -ELBO: 33.38272, Val -ELBO: 38.16162:  66%|██████▋   | 266/400 [11:54<06:03,  2.71s/it]Train -ELBO: 33.44392, Val -ELBO: 38.16493:  67%|██████▋   | 267/400 [11:57<05:57,  2.69s/it]Train -ELBO: 33.45847, Val -ELBO: 38.18105:  67%|██████▋   | 268/400 [12:00<05:55,  2.69s/it]Train -ELBO: 33.35838, Val -ELBO: 38.17071:  67%|██████▋   | 269/400 [12:02<05:52,  2.69s/it]Train -ELBO: 33.32935, Val -ELBO: 38.22919:  68%|██████▊   | 270/400 [12:05<05:51,  2.70s/it]Train -ELBO: 33.34781, Val -ELBO: 38.19152:  68%|██████▊   | 271/400 [12:08<05:49,  2.71s/it]Train -ELBO: 33.32459, Val -ELBO: 38.21017:  68%|██████▊   | 272/400 [12:10<05:46,  2.71s/it]Train -ELBO: 33.26979, Val -ELBO: 38.23779:  68%|██████▊   | 273/400 [12:13<05:43,  2.71s/it]Epoch   174: reducing learning rate of group 0 to 1.0000e-04.
Train -ELBO: 33.39391, Val -ELBO: 38.26539:  68%|██████▊   | 274/400 [12:16<05:41,  2.71s/it]Train -ELBO: 33.35351, Val -ELBO: 38.21558:  69%|██████▉   | 275/400 [12:19<05:37,  2.70s/it]Train -ELBO: 33.33485, Val -ELBO: 38.22948:  69%|██████▉   | 276/400 [12:21<05:35,  2.70s/it]Train -ELBO: 33.30986, Val -ELBO: 38.23650:  69%|██████▉   | 277/400 [12:24<05:31,  2.70s/it]Train -ELBO: 33.33371, Val -ELBO: 38.19479:  70%|██████▉   | 278/400 [12:27<05:26,  2.68s/it]Train -ELBO: 33.35062, Val -ELBO: 38.21407:  70%|██████▉   | 279/400 [12:29<05:25,  2.69s/it]Train -ELBO: 33.30346, Val -ELBO: 38.22459:  70%|███████   | 280/400 [12:32<05:21,  2.68s/it]Train -ELBO: 33.40700, Val -ELBO: 38.25424:  70%|███████   | 281/400 [12:35<05:18,  2.68s/it]Train -ELBO: 33.39187, Val -ELBO: 38.20684:  70%|███████   | 282/400 [12:37<05:15,  2.67s/it]Train -ELBO: 33.33553, Val -ELBO: 38.20015:  71%|███████   | 283/400 [12:40<05:14,  2.69s/it]Train -ELBO: 33.25616, Val -ELBO: 38.23605:  71%|███████   | 284/400 [12:43<05:12,  2.69s/it]Epoch   185: reducing learning rate of group 0 to 1.0000e-05.
Train -ELBO: 33.35541, Val -ELBO: 38.21500:  71%|███████▏  | 285/400 [12:45<05:08,  2.69s/it]Train -ELBO: 33.33037, Val -ELBO: 38.19179:  72%|███████▏  | 286/400 [12:48<05:06,  2.68s/it]Train -ELBO: 33.42693, Val -ELBO: 38.19569:  72%|███████▏  | 287/400 [12:51<05:04,  2.69s/it]Train -ELBO: 33.31282, Val -ELBO: 38.21293:  72%|███████▏  | 288/400 [12:53<05:01,  2.69s/it]Train -ELBO: 33.31008, Val -ELBO: 38.20117:  72%|███████▏  | 289/400 [12:56<04:58,  2.69s/it]Train -ELBO: 33.43414, Val -ELBO: 38.20023:  72%|███████▎  | 290/400 [12:59<04:57,  2.70s/it]Train -ELBO: 33.25915, Val -ELBO: 38.24549:  73%|███████▎  | 291/400 [13:02<04:54,  2.70s/it]Train -ELBO: 33.39969, Val -ELBO: 38.19194:  73%|███████▎  | 292/400 [13:04<04:50,  2.69s/it]Train -ELBO: 33.24264, Val -ELBO: 38.20097:  73%|███████▎  | 293/400 [13:07<04:48,  2.69s/it]Train -ELBO: 33.34659, Val -ELBO: 38.23353:  74%|███████▎  | 294/400 [13:10<04:46,  2.70s/it]Train -ELBO: 33.45107, Val -ELBO: 38.21022:  74%|███████▍  | 295/400 [13:12<04:44,  2.71s/it]Epoch   196: reducing learning rate of group 0 to 1.0000e-06.
Train -ELBO: 33.37342, Val -ELBO: 38.19494:  74%|███████▍  | 296/400 [13:15<04:42,  2.71s/it]Train -ELBO: 33.42028, Val -ELBO: 38.21188:  74%|███████▍  | 297/400 [13:18<04:38,  2.71s/it]Train -ELBO: 33.39919, Val -ELBO: 38.24974:  74%|███████▍  | 298/400 [13:20<04:32,  2.67s/it]Train -ELBO: 33.39729, Val -ELBO: 38.21717:  75%|███████▍  | 299/400 [13:23<04:29,  2.67s/it]Train -ELBO: 33.27562, Val -ELBO: 38.20573:  75%|███████▌  | 300/400 [13:26<04:27,  2.67s/it]Train -ELBO: 33.29344, Val -ELBO: 38.22221:  75%|███████▌  | 301/400 [13:28<04:22,  2.66s/it]Train -ELBO: 33.36210, Val -ELBO: 38.21839:  76%|███████▌  | 302/400 [13:31<04:19,  2.65s/it]Train -ELBO: 33.39280, Val -ELBO: 38.17735:  76%|███████▌  | 303/400 [13:34<04:18,  2.67s/it]Train -ELBO: 33.24707, Val -ELBO: 38.20146:  76%|███████▌  | 304/400 [13:36<04:16,  2.67s/it]Train -ELBO: 33.45929, Val -ELBO: 38.25159:  76%|███████▋  | 305/400 [13:39<04:14,  2.68s/it]Train -ELBO: 33.43981, Val -ELBO: 38.22571:  76%|███████▋  | 306/400 [13:42<04:13,  2.69s/it]Train -ELBO: 33.32070, Val -ELBO: 38.21523:  77%|███████▋  | 307/400 [13:45<04:10,  2.70s/it]Train -ELBO: 33.39933, Val -ELBO: 38.21613:  77%|███████▋  | 308/400 [13:47<04:07,  2.69s/it]Train -ELBO: 33.45875, Val -ELBO: 38.23751:  77%|███████▋  | 309/400 [13:50<04:04,  2.69s/it]Train -ELBO: 33.31059, Val -ELBO: 38.23124:  78%|███████▊  | 310/400 [13:53<04:02,  2.69s/it]Train -ELBO: 33.40937, Val -ELBO: 38.20501:  78%|███████▊  | 311/400 [13:55<04:00,  2.71s/it]Train -ELBO: 33.33611, Val -ELBO: 38.20997:  78%|███████▊  | 312/400 [13:58<03:54,  2.67s/it]Train -ELBO: 33.33353, Val -ELBO: 38.21249:  78%|███████▊  | 313/400 [14:01<03:54,  2.69s/it]Train -ELBO: 33.26781, Val -ELBO: 38.22121:  78%|███████▊  | 314/400 [14:03<03:52,  2.70s/it]Train -ELBO: 33.40078, Val -ELBO: 38.19175:  79%|███████▉  | 315/400 [14:06<03:48,  2.69s/it]Train -ELBO: 33.37294, Val -ELBO: 38.21633:  79%|███████▉  | 316/400 [14:09<03:44,  2.68s/it]Train -ELBO: 33.31429, Val -ELBO: 38.22071:  79%|███████▉  | 317/400 [14:11<03:43,  2.69s/it]Train -ELBO: 33.34251, Val -ELBO: 38.22406:  80%|███████▉  | 318/400 [14:14<03:40,  2.69s/it]Train -ELBO: 33.41201, Val -ELBO: 38.18870:  80%|███████▉  | 319/400 [14:17<03:37,  2.68s/it]Train -ELBO: 33.38982, Val -ELBO: 38.21081:  80%|████████  | 320/400 [14:20<03:35,  2.70s/it]Train -ELBO: 33.39741, Val -ELBO: 38.18937:  80%|████████  | 321/400 [14:22<03:32,  2.69s/it]Train -ELBO: 33.52469, Val -ELBO: 38.21676:  80%|████████  | 322/400 [14:25<03:30,  2.70s/it]Train -ELBO: 33.32335, Val -ELBO: 38.19495:  81%|████████  | 323/400 [14:28<03:27,  2.69s/it]Train -ELBO: 33.45817, Val -ELBO: 38.22949:  81%|████████  | 324/400 [14:30<03:25,  2.70s/it]Train -ELBO: 33.49052, Val -ELBO: 38.20148:  81%|████████▏ | 325/400 [14:33<03:22,  2.70s/it]Train -ELBO: 33.29760, Val -ELBO: 38.22140:  82%|████████▏ | 326/400 [14:36<03:20,  2.70s/it]Train -ELBO: 33.33545, Val -ELBO: 38.21448:  82%|████████▏ | 327/400 [14:38<03:17,  2.71s/it]Train -ELBO: 33.34398, Val -ELBO: 38.23984:  82%|████████▏ | 328/400 [14:41<03:15,  2.71s/it]Train -ELBO: 33.27983, Val -ELBO: 38.21839:  82%|████████▏ | 329/400 [14:44<03:11,  2.69s/it]Train -ELBO: 33.38261, Val -ELBO: 38.21352:  82%|████████▎ | 330/400 [14:47<03:08,  2.70s/it]Train -ELBO: 33.27743, Val -ELBO: 38.20865:  83%|████████▎ | 331/400 [14:49<03:04,  2.68s/it]Train -ELBO: 33.38420, Val -ELBO: 38.23636:  83%|████████▎ | 332/400 [14:52<03:00,  2.65s/it]Train -ELBO: 33.36448, Val -ELBO: 38.21537:  83%|████████▎ | 333/400 [14:54<02:56,  2.64s/it]Train -ELBO: 33.39600, Val -ELBO: 38.23278:  84%|████████▎ | 334/400 [14:57<02:54,  2.65s/it]Train -ELBO: 33.34024, Val -ELBO: 38.21309:  84%|████████▍ | 335/400 [15:00<02:53,  2.67s/it]Train -ELBO: 33.38967, Val -ELBO: 38.23500:  84%|████████▍ | 336/400 [15:02<02:51,  2.68s/it]Train -ELBO: 33.45433, Val -ELBO: 38.23821:  84%|████████▍ | 337/400 [15:05<02:49,  2.70s/it]Train -ELBO: 33.41755, Val -ELBO: 38.24185:  84%|████████▍ | 338/400 [15:08<02:47,  2.70s/it]Train -ELBO: 33.32127, Val -ELBO: 38.23882:  85%|████████▍ | 339/400 [15:11<02:44,  2.69s/it]Train -ELBO: 33.43199, Val -ELBO: 38.24627:  85%|████████▌ | 340/400 [15:13<02:41,  2.69s/it]Train -ELBO: 33.28556, Val -ELBO: 38.21729:  85%|████████▌ | 341/400 [15:16<02:38,  2.69s/it]Train -ELBO: 33.40683, Val -ELBO: 38.21406:  86%|████████▌ | 342/400 [15:19<02:37,  2.71s/it]Train -ELBO: 33.37335, Val -ELBO: 38.23152:  86%|████████▌ | 343/400 [15:21<02:34,  2.71s/it]Train -ELBO: 33.31508, Val -ELBO: 38.21287:  86%|████████▌ | 344/400 [15:24<02:32,  2.72s/it]Train -ELBO: 33.28655, Val -ELBO: 38.24634:  86%|████████▋ | 345/400 [15:27<02:29,  2.71s/it]Train -ELBO: 33.37695, Val -ELBO: 38.23481:  86%|████████▋ | 346/400 [15:30<02:25,  2.70s/it]Train -ELBO: 33.31291, Val -ELBO: 38.20377:  87%|████████▋ | 347/400 [15:32<02:22,  2.69s/it]Train -ELBO: 33.30908, Val -ELBO: 38.21118:  87%|████████▋ | 348/400 [15:35<02:20,  2.71s/it]Train -ELBO: 33.44712, Val -ELBO: 38.20497:  87%|████████▋ | 349/400 [15:38<02:16,  2.67s/it]Train -ELBO: 33.35093, Val -ELBO: 38.21670:  88%|████████▊ | 350/400 [15:40<02:14,  2.70s/it]Train -ELBO: 33.40322, Val -ELBO: 38.21254:  88%|████████▊ | 351/400 [15:43<02:12,  2.70s/it]Train -ELBO: 33.37236, Val -ELBO: 38.23103:  88%|████████▊ | 352/400 [15:46<02:10,  2.71s/it]Train -ELBO: 33.33735, Val -ELBO: 38.20850:  88%|████████▊ | 353/400 [15:48<02:07,  2.71s/it]Train -ELBO: 33.36283, Val -ELBO: 38.20181:  88%|████████▊ | 354/400 [15:51<02:04,  2.71s/it]Train -ELBO: 33.32418, Val -ELBO: 38.22235:  89%|████████▉ | 355/400 [15:54<02:01,  2.71s/it]Train -ELBO: 33.40664, Val -ELBO: 38.19089:  89%|████████▉ | 356/400 [15:57<01:58,  2.70s/it]Train -ELBO: 33.35543, Val -ELBO: 38.22852:  89%|████████▉ | 357/400 [15:59<01:56,  2.70s/it]Train -ELBO: 33.38333, Val -ELBO: 38.21602:  90%|████████▉ | 358/400 [16:02<01:53,  2.71s/it]Train -ELBO: 33.32300, Val -ELBO: 38.20506:  90%|████████▉ | 359/400 [16:05<01:50,  2.70s/it]Train -ELBO: 33.34870, Val -ELBO: 38.21320:  90%|█████████ | 360/400 [16:07<01:48,  2.71s/it]Train -ELBO: 33.32157, Val -ELBO: 38.25019:  90%|█████████ | 361/400 [16:10<01:45,  2.71s/it]Train -ELBO: 33.22466, Val -ELBO: 38.19706:  90%|█████████ | 362/400 [16:13<01:42,  2.71s/it]Train -ELBO: 33.27484, Val -ELBO: 38.21437:  91%|█████████ | 363/400 [16:15<01:39,  2.68s/it]Train -ELBO: 33.36159, Val -ELBO: 38.20610:  91%|█████████ | 364/400 [16:18<01:36,  2.68s/it]Train -ELBO: 33.33398, Val -ELBO: 38.16329:  91%|█████████▏| 365/400 [16:21<01:35,  2.72s/it]Train -ELBO: 33.38374, Val -ELBO: 38.23728:  92%|█████████▏| 366/400 [16:24<01:31,  2.70s/it]Train -ELBO: 33.29308, Val -ELBO: 38.21328:  92%|█████████▏| 367/400 [16:26<01:29,  2.71s/it]Train -ELBO: 33.39217, Val -ELBO: 38.22454:  92%|█████████▏| 368/400 [16:29<01:26,  2.71s/it]Train -ELBO: 33.31423, Val -ELBO: 38.18353:  92%|█████████▏| 369/400 [16:32<01:23,  2.70s/it]Train -ELBO: 33.30265, Val -ELBO: 38.19439:  92%|█████████▎| 370/400 [16:34<01:21,  2.71s/it]Train -ELBO: 33.32570, Val -ELBO: 38.19246:  93%|█████████▎| 371/400 [16:37<01:18,  2.70s/it]Train -ELBO: 33.27715, Val -ELBO: 38.19414:  93%|█████████▎| 372/400 [16:40<01:15,  2.69s/it]Train -ELBO: 33.37481, Val -ELBO: 38.20461:  93%|█████████▎| 373/400 [16:42<01:12,  2.70s/it]Train -ELBO: 33.34995, Val -ELBO: 38.22429:  94%|█████████▎| 374/400 [16:45<01:10,  2.70s/it]Train -ELBO: 33.38637, Val -ELBO: 38.19893:  94%|█████████▍| 375/400 [16:48<01:07,  2.71s/it]Train -ELBO: 33.39529, Val -ELBO: 38.23679:  94%|█████████▍| 376/400 [16:51<01:05,  2.71s/it]Train -ELBO: 33.30290, Val -ELBO: 38.22887:  94%|█████████▍| 377/400 [16:53<01:01,  2.69s/it]Train -ELBO: 33.35479, Val -ELBO: 38.20699:  94%|█████████▍| 378/400 [16:56<00:59,  2.70s/it]Train -ELBO: 33.24322, Val -ELBO: 38.25851:  95%|█████████▍| 379/400 [16:59<00:57,  2.75s/it]Train -ELBO: 33.31077, Val -ELBO: 38.19855:  95%|█████████▌| 380/400 [17:01<00:54,  2.70s/it]Train -ELBO: 33.33836, Val -ELBO: 38.19895:  95%|█████████▌| 381/400 [17:04<00:51,  2.69s/it]Train -ELBO: 33.25112, Val -ELBO: 38.21485:  96%|█████████▌| 382/400 [17:07<00:48,  2.71s/it]Train -ELBO: 33.36166, Val -ELBO: 38.22400:  96%|█████████▌| 383/400 [17:10<00:45,  2.70s/it]Train -ELBO: 33.22731, Val -ELBO: 38.21805:  96%|█████████▌| 384/400 [17:12<00:42,  2.69s/it]Train -ELBO: 33.32487, Val -ELBO: 38.24363:  96%|█████████▋| 385/400 [17:15<00:40,  2.67s/it]Train -ELBO: 33.30364, Val -ELBO: 38.21048:  96%|█████████▋| 386/400 [17:17<00:37,  2.65s/it]Train -ELBO: 33.53633, Val -ELBO: 38.21256:  97%|█████████▋| 387/400 [17:20<00:34,  2.66s/it]Train -ELBO: 33.28909, Val -ELBO: 38.23108:  97%|█████████▋| 388/400 [17:23<00:31,  2.65s/it]Train -ELBO: 33.32814, Val -ELBO: 38.21606:  97%|█████████▋| 389/400 [17:25<00:29,  2.64s/it]Train -ELBO: 33.35141, Val -ELBO: 38.21119:  98%|█████████▊| 390/400 [17:28<00:26,  2.64s/it]Train -ELBO: 33.31949, Val -ELBO: 38.23010:  98%|█████████▊| 391/400 [17:31<00:23,  2.65s/it]Train -ELBO: 33.32253, Val -ELBO: 38.20275:  98%|█████████▊| 392/400 [17:33<00:21,  2.65s/it]Train -ELBO: 33.38149, Val -ELBO: 38.19716:  98%|█████████▊| 393/400 [17:36<00:18,  2.64s/it]Train -ELBO: 33.31174, Val -ELBO: 38.18011:  98%|█████████▊| 394/400 [17:39<00:15,  2.63s/it]Train -ELBO: 33.33256, Val -ELBO: 38.22238:  99%|█████████▉| 395/400 [17:41<00:13,  2.67s/it]Train -ELBO: 33.40358, Val -ELBO: 38.23744:  99%|█████████▉| 396/400 [17:44<00:10,  2.68s/it]Train -ELBO: 33.32098, Val -ELBO: 38.22157:  99%|█████████▉| 397/400 [17:47<00:08,  2.68s/it]Train -ELBO: 33.40612, Val -ELBO: 38.22861: 100%|█████████▉| 398/400 [17:49<00:05,  2.69s/it]Train -ELBO: 33.34552, Val -ELBO: 38.21178: 100%|█████████▉| 399/400 [17:52<00:02,  2.70s/it]Train -ELBO: 33.39150, Val -ELBO: 38.21363: 100%|██████████| 400/400 [17:55<00:00,  2.69s/it]Train -ELBO: 33.39150, Val -ELBO: 38.21363: 100%|██████████| 400/400 [17:55<00:00,  2.69s/it]
