INFO - siren_vae - Running command 'run'
INFO - siren_vae - Started run with ID "6"
[LOADING DATA] MEHRA
[ENCODED STRUCTURE] Using faithful BN structure.
[MODEL TYPE] IW-SIReN-VAE (k=32)
[LOADING FROM CHECKPOINT] Start epoch: 470
  0%|          | 0/330 [00:00<?, ?it/s]Train -ELBO: 7.69785, Val -ELBO: 7.77785:   0%|          | 1/330 [00:31<2:52:18, 31.42s/it]Train -ELBO: 7.70416, Val -ELBO: 7.75622:   1%|          | 2/330 [01:02<2:50:24, 31.17s/it]Train -ELBO: 7.70655, Val -ELBO: 7.78866:   1%|          | 3/330 [01:33<2:49:17, 31.06s/it]Train -ELBO: 7.71066, Val -ELBO: 7.72633:   1%|          | 4/330 [02:04<2:48:38, 31.04s/it]Train -ELBO: 7.70604, Val -ELBO: 7.74651:   2%|▏         | 5/330 [02:35<2:48:01, 31.02s/it]Train -ELBO: 7.70141, Val -ELBO: 7.75582:   2%|▏         | 6/330 [03:06<2:47:40, 31.05s/it]Train -ELBO: 7.70555, Val -ELBO: 7.74512:   2%|▏         | 7/330 [03:37<2:46:58, 31.02s/it]Train -ELBO: 7.70899, Val -ELBO: 7.75691:   2%|▏         | 8/330 [04:08<2:46:26, 31.01s/it]Train -ELBO: 7.70250, Val -ELBO: 7.71944:   3%|▎         | 9/330 [04:39<2:46:04, 31.04s/it]Train -ELBO: 7.69330, Val -ELBO: 7.75009:   3%|▎         | 10/330 [05:10<2:45:40, 31.06s/it]Train -ELBO: 7.70298, Val -ELBO: 7.78538:   3%|▎         | 11/330 [05:41<2:45:21, 31.10s/it]Train -ELBO: 7.69670, Val -ELBO: 7.75722:   4%|▎         | 12/330 [06:12<2:44:37, 31.06s/it]Train -ELBO: 7.70649, Val -ELBO: 7.73973:   4%|▍         | 13/330 [06:43<2:44:04, 31.05s/it]Train -ELBO: 7.70768, Val -ELBO: 7.74169:   4%|▍         | 14/330 [07:14<2:43:25, 31.03s/it]Train -ELBO: 7.70378, Val -ELBO: 7.72976:   5%|▍         | 15/330 [07:45<2:42:57, 31.04s/it]Train -ELBO: 7.72730, Val -ELBO: 7.76039:   5%|▍         | 16/330 [08:16<2:42:23, 31.03s/it]Train -ELBO: 7.71496, Val -ELBO: 7.75039:   5%|▌         | 17/330 [08:47<2:41:40, 30.99s/it]Train -ELBO: 7.71294, Val -ELBO: 7.74883:   5%|▌         | 18/330 [09:18<2:41:11, 31.00s/it]Train -ELBO: 7.70204, Val -ELBO: 7.73900:   6%|▌         | 19/330 [09:49<2:40:49, 31.03s/it]Train -ELBO: 7.69869, Val -ELBO: 7.73535:   6%|▌         | 20/330 [10:20<2:40:27, 31.06s/it]Train -ELBO: 7.70350, Val -ELBO: 7.74329:   6%|▋         | 21/330 [10:52<2:39:58, 31.06s/it]Train -ELBO: 7.68950, Val -ELBO: 7.74435:   7%|▋         | 22/330 [11:23<2:39:15, 31.02s/it]Train -ELBO: 7.69796, Val -ELBO: 7.72458:   7%|▋         | 23/330 [11:53<2:38:39, 31.01s/it]Train -ELBO: 7.68563, Val -ELBO: 7.75198:   7%|▋         | 24/330 [12:24<2:38:07, 31.01s/it]Train -ELBO: 7.70084, Val -ELBO: 7.78089:   8%|▊         | 25/330 [12:56<2:37:58, 31.08s/it]Train -ELBO: 7.69611, Val -ELBO: 7.76225:   8%|▊         | 26/330 [13:27<2:37:19, 31.05s/it]Train -ELBO: 7.71124, Val -ELBO: 7.74412:   8%|▊         | 27/330 [13:58<2:36:43, 31.03s/it]Train -ELBO: 7.71028, Val -ELBO: 7.73831:   8%|▊         | 28/330 [14:29<2:36:08, 31.02s/it]Train -ELBO: 7.68651, Val -ELBO: 7.76106:   9%|▉         | 29/330 [15:00<2:35:42, 31.04s/it]Train -ELBO: 7.70390, Val -ELBO: 7.74734:   9%|▉         | 30/330 [15:31<2:35:22, 31.08s/it]Train -ELBO: 7.71856, Val -ELBO: 7.74878:   9%|▉         | 31/330 [16:02<2:34:48, 31.06s/it]Train -ELBO: 7.69433, Val -ELBO: 7.73771:  10%|▉         | 32/330 [16:33<2:34:10, 31.04s/it]Train -ELBO: 7.69332, Val -ELBO: 7.74568:  10%|█         | 33/330 [17:04<2:33:31, 31.02s/it]Train -ELBO: 7.70289, Val -ELBO: 7.76486:  10%|█         | 34/330 [17:35<2:33:05, 31.03s/it]Train -ELBO: 7.70065, Val -ELBO: 7.76159:  11%|█         | 35/330 [18:06<2:32:30, 31.02s/it]Train -ELBO: 7.71559, Val -ELBO: 7.74147:  11%|█         | 36/330 [18:37<2:32:06, 31.04s/it]Train -ELBO: 7.70502, Val -ELBO: 7.74839:  11%|█         | 37/330 [19:08<2:31:38, 31.05s/it]Train -ELBO: 7.69128, Val -ELBO: 7.76090:  12%|█▏        | 38/330 [19:39<2:31:05, 31.05s/it]Train -ELBO: 7.69288, Val -ELBO: 7.75786:  12%|█▏        | 39/330 [20:10<2:30:47, 31.09s/it]Train -ELBO: 7.69618, Val -ELBO: 7.74605:  12%|█▏        | 40/330 [20:41<2:30:15, 31.09s/it]Train -ELBO: 7.69411, Val -ELBO: 7.74863:  12%|█▏        | 41/330 [21:13<2:29:42, 31.08s/it]Train -ELBO: 7.70532, Val -ELBO: 7.73581:  13%|█▎        | 42/330 [21:43<2:28:59, 31.04s/it]Train -ELBO: 7.70363, Val -ELBO: 7.77485:  13%|█▎        | 43/330 [22:14<2:28:25, 31.03s/it]Train -ELBO: 7.70546, Val -ELBO: 7.75140:  13%|█▎        | 44/330 [22:46<2:27:57, 31.04s/it]Train -ELBO: 7.70402, Val -ELBO: 7.75226:  14%|█▎        | 45/330 [23:17<2:27:23, 31.03s/it]Train -ELBO: 7.69307, Val -ELBO: 7.74403:  14%|█▍        | 46/330 [23:48<2:26:48, 31.02s/it]Train -ELBO: 7.69848, Val -ELBO: 7.74957:  14%|█▍        | 47/330 [24:19<2:26:17, 31.02s/it]Train -ELBO: 7.70532, Val -ELBO: 7.75073:  15%|█▍        | 48/330 [24:50<2:25:57, 31.06s/it]Train -ELBO: 7.69039, Val -ELBO: 7.74974:  15%|█▍        | 49/330 [25:21<2:25:32, 31.08s/it]Train -ELBO: 7.69682, Val -ELBO: 7.73275:  15%|█▌        | 50/330 [25:53<2:26:22, 31.37s/it]Train -ELBO: 7.69094, Val -ELBO: 7.74817:  15%|█▌        | 51/330 [26:25<2:26:30, 31.51s/it]Train -ELBO: 7.70053, Val -ELBO: 7.74710:  16%|█▌        | 52/330 [26:56<2:26:00, 31.51s/it]Train -ELBO: 7.69602, Val -ELBO: 7.75448:  16%|█▌        | 53/330 [27:28<2:25:26, 31.50s/it]Train -ELBO: 7.71389, Val -ELBO: 7.75951:  16%|█▋        | 54/330 [27:59<2:24:45, 31.47s/it]Train -ELBO: 7.69116, Val -ELBO: 7.72148:  17%|█▋        | 55/330 [28:31<2:24:23, 31.50s/it]Train -ELBO: 7.69260, Val -ELBO: 7.75499:  17%|█▋        | 56/330 [29:02<2:23:56, 31.52s/it]Train -ELBO: 7.69895, Val -ELBO: 7.75656:  17%|█▋        | 57/330 [29:33<2:22:19, 31.28s/it]Train -ELBO: 7.68699, Val -ELBO: 7.78420:  18%|█▊        | 58/330 [30:04<2:20:59, 31.10s/it]Train -ELBO: 7.70087, Val -ELBO: 7.76940:  18%|█▊        | 59/330 [30:34<2:19:56, 30.98s/it]Train -ELBO: 7.69265, Val -ELBO: 7.74758:  18%|█▊        | 60/330 [31:05<2:19:21, 30.97s/it]Train -ELBO: 7.69138, Val -ELBO: 7.76514:  18%|█▊        | 61/330 [31:37<2:19:29, 31.11s/it]Train -ELBO: 7.70363, Val -ELBO: 7.74077:  19%|█▉        | 62/330 [32:10<2:21:12, 31.61s/it]Train -ELBO: 7.68915, Val -ELBO: 7.76510:  19%|█▉        | 63/330 [32:41<2:19:50, 31.43s/it]Train -ELBO: 7.69403, Val -ELBO: 7.73392:  19%|█▉        | 64/330 [33:12<2:18:56, 31.34s/it]Train -ELBO: 7.68356, Val -ELBO: 7.72999:  20%|█▉        | 65/330 [33:43<2:18:22, 31.33s/it]Train -ELBO: 7.68850, Val -ELBO: 7.77769:  20%|██        | 66/330 [34:15<2:18:33, 31.49s/it]Train -ELBO: 7.69946, Val -ELBO: 7.74048:  20%|██        | 67/330 [34:46<2:17:13, 31.30s/it]Train -ELBO: 7.70342, Val -ELBO: 7.75031:  21%|██        | 68/330 [35:17<2:16:54, 31.35s/it]Train -ELBO: 7.69569, Val -ELBO: 7.72258:  21%|██        | 69/330 [35:49<2:16:47, 31.44s/it]Train -ELBO: 7.68513, Val -ELBO: 7.76186:  21%|██        | 70/330 [36:20<2:16:11, 31.43s/it]Train -ELBO: 7.69082, Val -ELBO: 7.71870:  22%|██▏       | 71/330 [36:52<2:16:05, 31.53s/it]Train -ELBO: 7.68790, Val -ELBO: 7.75476:  22%|██▏       | 72/330 [37:23<2:14:31, 31.28s/it]Train -ELBO: 7.70771, Val -ELBO: 7.73433:  22%|██▏       | 73/330 [37:54<2:13:26, 31.15s/it]Train -ELBO: 7.68374, Val -ELBO: 7.74368:  22%|██▏       | 74/330 [38:25<2:13:08, 31.21s/it]Train -ELBO: 7.72253, Val -ELBO: 7.76115:  23%|██▎       | 75/330 [38:56<2:12:55, 31.28s/it]Train -ELBO: 7.72078, Val -ELBO: 7.73477:  23%|██▎       | 76/330 [39:27<2:12:09, 31.22s/it]Train -ELBO: 7.69763, Val -ELBO: 7.73632:  23%|██▎       | 77/330 [39:59<2:11:51, 31.27s/it]Train -ELBO: 7.70148, Val -ELBO: 7.71345:  24%|██▎       | 78/330 [40:30<2:11:15, 31.25s/it]Train -ELBO: 7.67865, Val -ELBO: 7.72919:  24%|██▍       | 79/330 [41:01<2:10:26, 31.18s/it]Train -ELBO: 7.71750, Val -ELBO: 7.77623:  24%|██▍       | 80/330 [41:33<2:10:42, 31.37s/it]Train -ELBO: 7.68793, Val -ELBO: 7.73346:  25%|██▍       | 81/330 [42:05<2:10:45, 31.51s/it]Train -ELBO: 7.70926, Val -ELBO: 7.74320:  25%|██▍       | 82/330 [42:36<2:10:22, 31.54s/it]Train -ELBO: 7.68791, Val -ELBO: 7.75103:  25%|██▌       | 83/330 [43:09<2:11:15, 31.89s/it]Train -ELBO: 7.68405, Val -ELBO: 7.75404:  25%|██▌       | 84/330 [43:40<2:10:07, 31.74s/it]Train -ELBO: 7.69794, Val -ELBO: 7.75015:  26%|██▌       | 85/330 [44:12<2:09:03, 31.61s/it]Train -ELBO: 7.68725, Val -ELBO: 7.75002:  26%|██▌       | 86/330 [44:43<2:08:17, 31.55s/it]Train -ELBO: 7.67921, Val -ELBO: 7.76772:  26%|██▋       | 87/330 [45:15<2:07:39, 31.52s/it]Train -ELBO: 7.68680, Val -ELBO: 7.77871:  27%|██▋       | 88/330 [45:47<2:08:03, 31.75s/it]Train -ELBO: 7.70133, Val -ELBO: 7.72204:  27%|██▋       | 89/330 [46:18<2:07:16, 31.69s/it]Train -ELBO: 7.69246, Val -ELBO: 7.72995:  27%|██▋       | 90/330 [46:50<2:06:24, 31.60s/it]Train -ELBO: 7.69219, Val -ELBO: 7.74399:  28%|██▊       | 91/330 [47:21<2:05:30, 31.51s/it]Train -ELBO: 7.70467, Val -ELBO: 7.73831:  28%|██▊       | 92/330 [47:53<2:05:27, 31.63s/it]Train -ELBO: 7.69051, Val -ELBO: 7.75816:  28%|██▊       | 93/330 [48:25<2:04:59, 31.64s/it]Train -ELBO: 7.69013, Val -ELBO: 7.75736:  28%|██▊       | 94/330 [48:56<2:04:36, 31.68s/it]Train -ELBO: 7.68822, Val -ELBO: 7.74582:  29%|██▉       | 95/330 [49:28<2:03:30, 31.53s/it]Train -ELBO: 7.68677, Val -ELBO: 7.75748:  29%|██▉       | 96/330 [49:59<2:02:56, 31.52s/it]Train -ELBO: 7.68550, Val -ELBO: 7.75287:  29%|██▉       | 97/330 [50:31<2:02:37, 31.58s/it]Train -ELBO: 7.68515, Val -ELBO: 7.71170:  30%|██▉       | 98/330 [51:02<2:01:36, 31.45s/it]Train -ELBO: 7.68993, Val -ELBO: 7.72911:  30%|███       | 99/330 [51:34<2:01:13, 31.49s/it]Train -ELBO: 7.69182, Val -ELBO: 7.73168:  30%|███       | 100/330 [52:05<2:00:13, 31.36s/it]Train -ELBO: 7.68964, Val -ELBO: 7.74507:  31%|███       | 101/330 [52:36<1:59:47, 31.39s/it]Train -ELBO: 7.68411, Val -ELBO: 7.72647:  31%|███       | 102/330 [53:07<1:58:51, 31.28s/it]Train -ELBO: 7.68411, Val -ELBO: 7.71735:  31%|███       | 103/330 [53:38<1:57:48, 31.14s/it]Train -ELBO: 7.68993, Val -ELBO: 7.74175:  32%|███▏      | 104/330 [54:09<1:56:53, 31.03s/it]Train -ELBO: 7.69094, Val -ELBO: 7.77149:  32%|███▏      | 105/330 [54:39<1:56:06, 30.96s/it]Train -ELBO: 7.68576, Val -ELBO: 7.74097:  32%|███▏      | 106/330 [55:11<1:55:54, 31.05s/it]Train -ELBO: 7.67724, Val -ELBO: 7.70919:  32%|███▏      | 107/330 [55:42<1:55:52, 31.18s/it]Train -ELBO: 7.67930, Val -ELBO: 7.73659:  33%|███▎      | 108/330 [56:13<1:55:00, 31.08s/it]Train -ELBO: 7.69752, Val -ELBO: 7.73998:  33%|███▎      | 109/330 [56:44<1:54:06, 30.98s/it]Train -ELBO: 7.68065, Val -ELBO: 7.71423:  33%|███▎      | 110/330 [57:15<1:54:01, 31.10s/it]Train -ELBO: 7.67194, Val -ELBO: 7.73771:  34%|███▎      | 111/330 [57:46<1:53:14, 31.03s/it]Train -ELBO: 7.69993, Val -ELBO: 7.72831:  34%|███▍      | 112/330 [58:17<1:52:35, 30.99s/it]Train -ELBO: 7.67072, Val -ELBO: 7.72102:  34%|███▍      | 113/330 [58:48<1:52:06, 31.00s/it]Train -ELBO: 7.69455, Val -ELBO: 7.73353:  35%|███▍      | 114/330 [59:19<1:51:48, 31.06s/it]Train -ELBO: 7.69802, Val -ELBO: 7.76155:  35%|███▍      | 115/330 [59:50<1:51:11, 31.03s/it]Train -ELBO: 7.69414, Val -ELBO: 7.74454:  35%|███▌      | 116/330 [1:00:21<1:50:49, 31.07s/it]Train -ELBO: 7.68630, Val -ELBO: 7.72565:  35%|███▌      | 117/330 [1:00:52<1:50:01, 31.00s/it]Train -ELBO: 7.67860, Val -ELBO: 7.73805:  36%|███▌      | 118/330 [1:01:23<1:49:16, 30.93s/it]Train -ELBO: 7.69220, Val -ELBO: 7.73069:  36%|███▌      | 119/330 [1:01:54<1:48:48, 30.94s/it]Train -ELBO: 7.69675, Val -ELBO: 7.72783:  36%|███▋      | 120/330 [1:02:25<1:48:15, 30.93s/it]Train -ELBO: 7.67325, Val -ELBO: 7.73991:  37%|███▋      | 121/330 [1:02:56<1:47:41, 30.91s/it]Train -ELBO: 7.68382, Val -ELBO: 7.73594:  37%|███▋      | 122/330 [1:03:27<1:47:37, 31.05s/it]Train -ELBO: 7.68830, Val -ELBO: 7.75271:  37%|███▋      | 123/330 [1:03:59<1:47:50, 31.26s/it]Train -ELBO: 7.68676, Val -ELBO: 7.73695:  38%|███▊      | 124/330 [1:04:30<1:47:38, 31.35s/it]Train -ELBO: 7.69287, Val -ELBO: 7.74816:  38%|███▊      | 125/330 [1:05:02<1:47:22, 31.43s/it]Train -ELBO: 7.69141, Val -ELBO: 7.75802:  38%|███▊      | 126/330 [1:05:33<1:46:53, 31.44s/it]Train -ELBO: 7.68460, Val -ELBO: 7.72406:  38%|███▊      | 127/330 [1:06:05<1:46:15, 31.41s/it]Train -ELBO: 7.67424, Val -ELBO: 7.78888:  39%|███▉      | 128/330 [1:06:36<1:45:36, 31.37s/it]Train -ELBO: 7.68981, Val -ELBO: 7.72454:  39%|███▉      | 129/330 [1:07:07<1:44:55, 31.32s/it]Train -ELBO: 7.68462, Val -ELBO: 7.72210:  39%|███▉      | 130/330 [1:07:38<1:44:21, 31.31s/it]Train -ELBO: 7.68457, Val -ELBO: 7.74449:  40%|███▉      | 131/330 [1:08:10<1:43:46, 31.29s/it]Train -ELBO: 7.69324, Val -ELBO: 7.77639:  40%|████      | 132/330 [1:08:41<1:43:15, 31.29s/it]Train -ELBO: 7.69837, Val -ELBO: 7.71872:  40%|████      | 133/330 [1:09:12<1:42:50, 31.32s/it]Train -ELBO: 7.67699, Val -ELBO: 7.74581:  41%|████      | 134/330 [1:09:44<1:42:18, 31.32s/it]Train -ELBO: 7.71479, Val -ELBO: 7.72024:  41%|████      | 135/330 [1:10:15<1:41:41, 31.29s/it]Train -ELBO: 7.67788, Val -ELBO: 7.71809:  41%|████      | 136/330 [1:10:46<1:41:08, 31.28s/it]Train -ELBO: 7.68634, Val -ELBO: 7.72790:  42%|████▏     | 137/330 [1:11:17<1:40:31, 31.25s/it]Train -ELBO: 7.67818, Val -ELBO: 7.73500:  42%|████▏     | 138/330 [1:11:49<1:40:02, 31.26s/it]Train -ELBO: 7.68640, Val -ELBO: 7.75750:  42%|████▏     | 139/330 [1:12:20<1:39:28, 31.25s/it]Train -ELBO: 7.69811, Val -ELBO: 7.73960:  42%|████▏     | 140/330 [1:12:51<1:39:00, 31.26s/it]Train -ELBO: 7.68096, Val -ELBO: 7.75116:  43%|████▎     | 141/330 [1:13:23<1:38:43, 31.34s/it]Train -ELBO: 7.70109, Val -ELBO: 7.73002:  43%|████▎     | 142/330 [1:13:54<1:38:05, 31.31s/it]Train -ELBO: 7.68687, Val -ELBO: 7.74745:  43%|████▎     | 143/330 [1:14:25<1:37:32, 31.30s/it]Train -ELBO: 7.68049, Val -ELBO: 7.71495:  44%|████▎     | 144/330 [1:14:56<1:36:58, 31.28s/it]Train -ELBO: 7.68390, Val -ELBO: 7.72102:  44%|████▍     | 145/330 [1:15:28<1:37:01, 31.47s/it]Train -ELBO: 7.68552, Val -ELBO: 7.75500:  44%|████▍     | 146/330 [1:16:00<1:36:28, 31.46s/it]Train -ELBO: 7.67918, Val -ELBO: 7.75329:  45%|████▍     | 147/330 [1:16:31<1:36:03, 31.50s/it]Train -ELBO: 7.69060, Val -ELBO: 7.77018:  45%|████▍     | 148/330 [1:17:03<1:35:44, 31.57s/it]Train -ELBO: 7.69457, Val -ELBO: 7.73837:  45%|████▌     | 149/330 [1:17:36<1:36:11, 31.89s/it]Train -ELBO: 7.67705, Val -ELBO: 7.72773:  45%|████▌     | 150/330 [1:18:07<1:35:05, 31.70s/it]Train -ELBO: 7.68929, Val -ELBO: 7.72467:  46%|████▌     | 151/330 [1:18:39<1:35:01, 31.85s/it]Train -ELBO: 7.68021, Val -ELBO: 7.84542:  46%|████▌     | 152/330 [1:19:11<1:34:22, 31.81s/it]Train -ELBO: 7.72988, Val -ELBO: 7.72281:  46%|████▋     | 153/330 [1:19:43<1:34:13, 31.94s/it]Train -ELBO: 7.68426, Val -ELBO: 7.74786:  47%|████▋     | 154/330 [1:20:16<1:34:03, 32.07s/it]Train -ELBO: 7.68194, Val -ELBO: 7.73284:  47%|████▋     | 155/330 [1:20:48<1:33:50, 32.17s/it]Train -ELBO: 7.68252, Val -ELBO: 7.74102:  47%|████▋     | 156/330 [1:21:20<1:33:07, 32.11s/it]Train -ELBO: 7.68201, Val -ELBO: 7.71771:  48%|████▊     | 157/330 [1:21:51<1:31:58, 31.90s/it]Train -ELBO: 7.67791, Val -ELBO: 7.72914:  48%|████▊     | 158/330 [1:22:22<1:30:31, 31.58s/it]Train -ELBO: 7.69635, Val -ELBO: 7.74994:  48%|████▊     | 159/330 [1:22:54<1:29:53, 31.54s/it]Train -ELBO: 7.68890, Val -ELBO: 7.72919:  48%|████▊     | 160/330 [1:23:25<1:29:19, 31.52s/it]Train -ELBO: 7.69559, Val -ELBO: 7.73491:  49%|████▉     | 161/330 [1:24:00<1:31:32, 32.50s/it]Train -ELBO: 7.68935, Val -ELBO: 7.72452:  49%|████▉     | 162/330 [1:24:34<1:32:34, 33.06s/it]Train -ELBO: 7.68402, Val -ELBO: 7.73543:  49%|████▉     | 163/330 [1:25:06<1:31:14, 32.78s/it]Epoch   634: reducing learning rate of group 0 to 1.0000e-04.
Train -ELBO: 7.67693, Val -ELBO: 7.74403:  50%|████▉     | 164/330 [1:25:38<1:29:27, 32.33s/it]Train -ELBO: 7.66486, Val -ELBO: 7.72600:  50%|█████     | 165/330 [1:26:09<1:28:03, 32.02s/it]Train -ELBO: 7.66129, Val -ELBO: 7.69582:  50%|█████     | 166/330 [1:26:40<1:26:54, 31.79s/it]Train -ELBO: 7.65321, Val -ELBO: 7.70663:  51%|█████     | 167/330 [1:27:13<1:27:35, 32.25s/it]Train -ELBO: 7.65425, Val -ELBO: 7.69118:  51%|█████     | 168/330 [1:27:46<1:27:17, 32.33s/it]Train -ELBO: 7.64784, Val -ELBO: 7.69896:  51%|█████     | 169/330 [1:28:17<1:25:59, 32.05s/it]Train -ELBO: 7.64149, Val -ELBO: 7.69683:  52%|█████▏    | 170/330 [1:28:49<1:25:14, 31.96s/it]Train -ELBO: 7.65070, Val -ELBO: 7.71853:  52%|█████▏    | 171/330 [1:29:22<1:25:28, 32.26s/it]Train -ELBO: 7.64844, Val -ELBO: 7.72211:  52%|█████▏    | 172/330 [1:29:54<1:24:40, 32.16s/it]Train -ELBO: 7.64060, Val -ELBO: 7.70235:  52%|█████▏    | 173/330 [1:30:29<1:26:12, 32.95s/it]Train -ELBO: 7.64193, Val -ELBO: 7.68356:  53%|█████▎    | 174/330 [1:31:02<1:25:49, 33.01s/it]Train -ELBO: 7.65328, Val -ELBO: 7.71515:  53%|█████▎    | 175/330 [1:31:33<1:23:46, 32.43s/it]Train -ELBO: 7.64586, Val -ELBO: 7.69829:  53%|█████▎    | 176/330 [1:32:05<1:22:58, 32.33s/it]Train -ELBO: 7.65181, Val -ELBO: 7.72505:  54%|█████▎    | 177/330 [1:32:40<1:24:22, 33.09s/it]Train -ELBO: 7.65048, Val -ELBO: 7.68761:  54%|█████▍    | 178/330 [1:33:12<1:22:57, 32.75s/it]Train -ELBO: 7.64802, Val -ELBO: 7.70321:  54%|█████▍    | 179/330 [1:33:45<1:22:47, 32.90s/it]Train -ELBO: 7.64433, Val -ELBO: 7.70303:  55%|█████▍    | 180/330 [1:34:22<1:25:05, 34.03s/it]Train -ELBO: 7.64767, Val -ELBO: 7.69238:  55%|█████▍    | 181/330 [1:34:57<1:25:20, 34.37s/it]Train -ELBO: 7.65351, Val -ELBO: 7.70645:  55%|█████▌    | 182/330 [1:35:32<1:25:12, 34.55s/it]Train -ELBO: 7.63927, Val -ELBO: 7.72464:  55%|█████▌    | 183/330 [1:36:08<1:25:28, 34.89s/it]Train -ELBO: 7.63822, Val -ELBO: 7.70455:  56%|█████▌    | 184/330 [1:36:44<1:26:01, 35.36s/it]Train -ELBO: 7.64464, Val -ELBO: 7.70453:  56%|█████▌    | 185/330 [1:37:21<1:26:11, 35.66s/it]Train -ELBO: 7.64934, Val -ELBO: 7.69202:  56%|█████▋    | 186/330 [1:37:56<1:25:18, 35.54s/it]Train -ELBO: 7.64834, Val -ELBO: 7.70659:  57%|█████▋    | 187/330 [1:38:31<1:24:23, 35.41s/it]Train -ELBO: 7.64319, Val -ELBO: 7.70198:  57%|█████▋    | 188/330 [1:39:06<1:23:38, 35.34s/it]Train -ELBO: 7.65236, Val -ELBO: 7.71517:  57%|█████▋    | 189/330 [1:39:41<1:22:47, 35.23s/it]Train -ELBO: 7.65364, Val -ELBO: 7.69128:  58%|█████▊    | 190/330 [1:40:16<1:22:08, 35.20s/it]Train -ELBO: 7.64522, Val -ELBO: 7.72895:  58%|█████▊    | 191/330 [1:40:51<1:21:34, 35.21s/it]Train -ELBO: 7.64887, Val -ELBO: 7.70978:  58%|█████▊    | 192/330 [1:41:26<1:20:50, 35.15s/it]Train -ELBO: 7.65364, Val -ELBO: 7.69751:  58%|█████▊    | 193/330 [1:42:01<1:20:00, 35.04s/it]Train -ELBO: 7.64498, Val -ELBO: 7.71218:  59%|█████▉    | 194/330 [1:42:36<1:19:35, 35.11s/it]Train -ELBO: 7.64791, Val -ELBO: 7.70541:  59%|█████▉    | 195/330 [1:43:08<1:16:34, 34.04s/it]Train -ELBO: 7.65303, Val -ELBO: 7.72139:  59%|█████▉    | 196/330 [1:43:42<1:16:01, 34.04s/it]Train -ELBO: 7.64879, Val -ELBO: 7.70750:  60%|█████▉    | 197/330 [1:44:17<1:16:14, 34.40s/it]Train -ELBO: 7.65072, Val -ELBO: 7.69368:  60%|██████    | 198/330 [1:44:52<1:16:10, 34.63s/it]Train -ELBO: 7.64195, Val -ELBO: 7.69732:  60%|██████    | 199/330 [1:45:28<1:15:56, 34.79s/it]Train -ELBO: 7.64523, Val -ELBO: 7.69374:  61%|██████    | 200/330 [1:46:03<1:15:27, 34.82s/it]Train -ELBO: 7.64576, Val -ELBO: 7.70635:  61%|██████    | 201/330 [1:46:38<1:15:04, 34.92s/it]Train -ELBO: 7.64724, Val -ELBO: 7.71858:  61%|██████    | 202/330 [1:47:13<1:14:28, 34.91s/it]Train -ELBO: 7.63881, Val -ELBO: 7.69429:  62%|██████▏   | 203/330 [1:47:48<1:14:03, 34.99s/it]Train -ELBO: 7.65205, Val -ELBO: 7.69722:  62%|██████▏   | 204/330 [1:48:23<1:13:30, 35.01s/it]Train -ELBO: 7.63831, Val -ELBO: 7.69959:  62%|██████▏   | 205/330 [1:48:58<1:12:58, 35.03s/it]Train -ELBO: 7.64936, Val -ELBO: 7.70504:  62%|██████▏   | 206/330 [1:49:33<1:12:29, 35.07s/it]Train -ELBO: 7.64636, Val -ELBO: 7.70659:  63%|██████▎   | 207/330 [1:50:08<1:11:55, 35.09s/it]Train -ELBO: 7.63817, Val -ELBO: 7.70161:  63%|██████▎   | 208/330 [1:50:43<1:11:21, 35.09s/it]Train -ELBO: 7.65196, Val -ELBO: 7.69629:  63%|██████▎   | 209/330 [1:51:18<1:10:46, 35.10s/it]Train -ELBO: 7.64338, Val -ELBO: 7.68919:  64%|██████▎   | 210/330 [1:51:54<1:10:14, 35.12s/it]Train -ELBO: 7.65463, Val -ELBO: 7.70993:  64%|██████▍   | 211/330 [1:52:28<1:09:12, 34.90s/it]Train -ELBO: 7.64857, Val -ELBO: 7.71286:  64%|██████▍   | 212/330 [1:53:00<1:07:10, 34.16s/it]Train -ELBO: 7.64087, Val -ELBO: 7.69381:  65%|██████▍   | 213/330 [1:53:37<1:07:52, 34.81s/it]Train -ELBO: 7.64255, Val -ELBO: 7.69414:  65%|██████▍   | 214/330 [1:54:12<1:07:32, 34.94s/it]Train -ELBO: 7.64449, Val -ELBO: 7.70567:  65%|██████▌   | 215/330 [1:54:46<1:06:39, 34.78s/it]Train -ELBO: 7.64061, Val -ELBO: 7.70478:  65%|██████▌   | 216/330 [1:55:20<1:05:11, 34.31s/it]Train -ELBO: 7.63779, Val -ELBO: 7.70132:  66%|██████▌   | 217/330 [1:55:53<1:04:10, 34.08s/it]Train -ELBO: 7.64881, Val -ELBO: 7.72204:  66%|██████▌   | 218/330 [1:56:27<1:03:16, 33.89s/it]Train -ELBO: 7.64697, Val -ELBO: 7.71462:  66%|██████▋   | 219/330 [1:57:00<1:02:15, 33.65s/it]Train -ELBO: 7.65170, Val -ELBO: 7.68837:  67%|██████▋   | 220/330 [1:57:33<1:01:23, 33.49s/it]Train -ELBO: 7.64123, Val -ELBO: 7.69810:  67%|██████▋   | 221/330 [1:58:07<1:01:17, 33.74s/it]Train -ELBO: 7.64760, Val -ELBO: 7.71291:  67%|██████▋   | 222/330 [1:58:45<1:02:49, 34.90s/it]Train -ELBO: 7.65768, Val -ELBO: 7.70917:  68%|██████▊   | 223/330 [1:59:19<1:01:49, 34.67s/it]Train -ELBO: 7.64311, Val -ELBO: 7.71509:  68%|██████▊   | 224/330 [1:59:54<1:01:19, 34.71s/it]Train -ELBO: 7.64230, Val -ELBO: 7.70009:  68%|██████▊   | 225/330 [2:00:31<1:02:00, 35.43s/it]Train -ELBO: 7.65465, Val -ELBO: 7.71015:  68%|██████▊   | 226/330 [2:01:07<1:01:37, 35.55s/it]Train -ELBO: 7.64186, Val -ELBO: 7.71118:  69%|██████▉   | 227/330 [2:01:42<1:00:58, 35.52s/it]Train -ELBO: 7.64851, Val -ELBO: 7.70447:  69%|██████▉   | 228/330 [2:02:17<1:00:10, 35.40s/it]Train -ELBO: 7.65257, Val -ELBO: 7.70427:  69%|██████▉   | 229/330 [2:02:52<59:24, 35.29s/it]  Train -ELBO: 7.64374, Val -ELBO: 7.68117:  70%|██████▉   | 230/330 [2:03:28<58:52, 35.32s/it]Train -ELBO: 7.64436, Val -ELBO: 7.70739:  70%|███████   | 231/330 [2:04:03<58:13, 35.29s/it]Train -ELBO: 7.63707, Val -ELBO: 7.70450:  70%|███████   | 232/330 [2:04:38<57:41, 35.32s/it]Train -ELBO: 7.64746, Val -ELBO: 7.70165:  71%|███████   | 233/330 [2:05:13<57:00, 35.27s/it]Train -ELBO: 7.63993, Val -ELBO: 7.70940:  71%|███████   | 234/330 [2:05:48<56:23, 35.24s/it]Train -ELBO: 7.63773, Val -ELBO: 7.68443:  71%|███████   | 235/330 [2:06:23<55:38, 35.14s/it]Train -ELBO: 7.64605, Val -ELBO: 7.70092:  72%|███████▏  | 236/330 [2:06:58<54:59, 35.10s/it]Train -ELBO: 7.63267, Val -ELBO: 7.69629:  72%|███████▏  | 237/330 [2:07:33<54:17, 35.03s/it]Train -ELBO: 7.64279, Val -ELBO: 7.70323:  72%|███████▏  | 238/330 [2:08:08<53:45, 35.06s/it]Train -ELBO: 7.64565, Val -ELBO: 7.69421:  72%|███████▏  | 239/330 [2:08:43<53:06, 35.02s/it]Train -ELBO: 7.64099, Val -ELBO: 7.70689:  73%|███████▎  | 240/330 [2:09:19<52:40, 35.11s/it]Train -ELBO: 7.64174, Val -ELBO: 7.69447:  73%|███████▎  | 241/330 [2:09:54<52:01, 35.08s/it]Train -ELBO: 7.63744, Val -ELBO: 7.68983:  73%|███████▎  | 242/330 [2:10:28<51:20, 35.01s/it]Train -ELBO: 7.64329, Val -ELBO: 7.70393:  74%|███████▎  | 243/330 [2:11:03<50:41, 34.96s/it]Train -ELBO: 7.64241, Val -ELBO: 7.70726:  74%|███████▍  | 244/330 [2:11:39<50:12, 35.03s/it]Train -ELBO: 7.65107, Val -ELBO: 7.69740:  74%|███████▍  | 245/330 [2:12:13<49:35, 35.00s/it]Train -ELBO: 7.64542, Val -ELBO: 7.70638:  75%|███████▍  | 246/330 [2:12:48<49:00, 35.01s/it]Train -ELBO: 7.63542, Val -ELBO: 7.71480:  75%|███████▍  | 247/330 [2:13:24<48:26, 35.02s/it]Train -ELBO: 7.63852, Val -ELBO: 7.71025:  75%|███████▌  | 248/330 [2:13:58<47:48, 34.98s/it]Train -ELBO: 7.64198, Val -ELBO: 7.70676:  75%|███████▌  | 249/330 [2:14:33<47:06, 34.90s/it]Train -ELBO: 7.64466, Val -ELBO: 7.73715:  76%|███████▌  | 250/330 [2:15:08<46:36, 34.96s/it]Train -ELBO: 7.64254, Val -ELBO: 7.69191:  76%|███████▌  | 251/330 [2:15:43<46:04, 34.99s/it]Train -ELBO: 7.64415, Val -ELBO: 7.70321:  76%|███████▋  | 252/330 [2:16:19<45:36, 35.08s/it]Train -ELBO: 7.64098, Val -ELBO: 7.69823:  77%|███████▋  | 253/330 [2:16:53<44:51, 34.95s/it]Train -ELBO: 7.64969, Val -ELBO: 7.70491:  77%|███████▋  | 254/330 [2:17:28<44:15, 34.94s/it]Train -ELBO: 7.63392, Val -ELBO: 7.68534:  77%|███████▋  | 255/330 [2:18:03<43:41, 34.95s/it]Train -ELBO: 7.63754, Val -ELBO: 7.71471:  78%|███████▊  | 256/330 [2:18:38<43:13, 35.05s/it]Train -ELBO: 7.63689, Val -ELBO: 7.71337:  78%|███████▊  | 257/330 [2:19:13<42:39, 35.06s/it]Train -ELBO: 7.63536, Val -ELBO: 7.70914:  78%|███████▊  | 258/330 [2:19:49<42:05, 35.07s/it]Train -ELBO: 7.64303, Val -ELBO: 7.69996:  78%|███████▊  | 259/330 [2:20:24<41:29, 35.06s/it]Train -ELBO: 7.64450, Val -ELBO: 7.69709:  79%|███████▉  | 260/330 [2:20:59<40:53, 35.05s/it]Train -ELBO: 7.64935, Val -ELBO: 7.70912:  79%|███████▉  | 261/330 [2:21:34<40:15, 35.01s/it]Train -ELBO: 7.64711, Val -ELBO: 7.69370:  79%|███████▉  | 262/330 [2:22:09<39:39, 34.99s/it]Train -ELBO: 7.64786, Val -ELBO: 7.70139:  80%|███████▉  | 263/330 [2:22:44<39:07, 35.03s/it]Train -ELBO: 7.63483, Val -ELBO: 7.70467:  80%|████████  | 264/330 [2:23:19<38:36, 35.10s/it]Train -ELBO: 7.64130, Val -ELBO: 7.70874:  80%|████████  | 265/330 [2:23:54<37:59, 35.07s/it]Train -ELBO: 7.63983, Val -ELBO: 7.71451:  81%|████████  | 266/330 [2:24:29<37:28, 35.14s/it]Train -ELBO: 7.65039, Val -ELBO: 7.69047:  81%|████████  | 267/330 [2:25:04<36:48, 35.05s/it]Train -ELBO: 7.63849, Val -ELBO: 7.69306:  81%|████████  | 268/330 [2:25:38<35:57, 34.80s/it]Train -ELBO: 7.63704, Val -ELBO: 7.70184:  82%|████████▏ | 269/330 [2:26:09<34:12, 33.65s/it]Train -ELBO: 7.63896, Val -ELBO: 7.69391:  82%|████████▏ | 270/330 [2:26:40<32:54, 32.90s/it]Train -ELBO: 7.64856, Val -ELBO: 7.72043:  82%|████████▏ | 271/330 [2:27:11<31:48, 32.34s/it]Train -ELBO: 7.63736, Val -ELBO: 7.72491:  82%|████████▏ | 272/330 [2:27:42<30:53, 31.95s/it]Train -ELBO: 7.64055, Val -ELBO: 7.70307:  83%|████████▎ | 273/330 [2:28:14<30:06, 31.69s/it]Train -ELBO: 7.64248, Val -ELBO: 7.69539:  83%|████████▎ | 274/330 [2:28:45<29:24, 31.51s/it]Train -ELBO: 7.64068, Val -ELBO: 7.70684:  83%|████████▎ | 275/330 [2:29:16<28:48, 31.43s/it]Train -ELBO: 7.63763, Val -ELBO: 7.70242:  84%|████████▎ | 276/330 [2:29:47<28:11, 31.33s/it]Train -ELBO: 7.64083, Val -ELBO: 7.67887:  84%|████████▍ | 277/330 [2:30:18<27:37, 31.27s/it]Train -ELBO: 7.64718, Val -ELBO: 7.70639:  84%|████████▍ | 278/330 [2:30:49<27:02, 31.21s/it]Train -ELBO: 7.64866, Val -ELBO: 7.69958:  85%|████████▍ | 279/330 [2:31:20<26:29, 31.17s/it]Train -ELBO: 7.64049, Val -ELBO: 7.70887:  85%|████████▍ | 280/330 [2:31:51<25:57, 31.16s/it]Train -ELBO: 7.64141, Val -ELBO: 7.71180:  85%|████████▌ | 281/330 [2:32:22<25:25, 31.13s/it]Train -ELBO: 7.64414, Val -ELBO: 7.70869:  85%|████████▌ | 282/330 [2:32:53<24:53, 31.11s/it]Train -ELBO: 7.63825, Val -ELBO: 7.70286:  86%|████████▌ | 283/330 [2:33:25<24:21, 31.10s/it]Train -ELBO: 7.64769, Val -ELBO: 7.69733:  86%|████████▌ | 284/330 [2:33:56<23:52, 31.14s/it]Train -ELBO: 7.63370, Val -ELBO: 7.70623:  86%|████████▋ | 285/330 [2:34:27<23:22, 31.16s/it]Train -ELBO: 7.63580, Val -ELBO: 7.69969:  87%|████████▋ | 286/330 [2:34:59<22:58, 31.32s/it]Train -ELBO: 7.64831, Val -ELBO: 7.68759:  87%|████████▋ | 287/330 [2:35:30<22:29, 31.39s/it]Train -ELBO: 7.62889, Val -ELBO: 7.72375:  87%|████████▋ | 288/330 [2:36:01<21:52, 31.26s/it]Train -ELBO: 7.65155, Val -ELBO: 7.71640:  88%|████████▊ | 289/330 [2:36:32<21:19, 31.21s/it]Train -ELBO: 7.64391, Val -ELBO: 7.68208:  88%|████████▊ | 290/330 [2:37:03<20:46, 31.16s/it]Train -ELBO: 7.64023, Val -ELBO: 7.71773:  88%|████████▊ | 291/330 [2:37:34<20:14, 31.14s/it]Train -ELBO: 7.64041, Val -ELBO: 7.70665:  88%|████████▊ | 292/330 [2:38:06<19:43, 31.15s/it]Train -ELBO: 7.64400, Val -ELBO: 7.69187:  89%|████████▉ | 293/330 [2:38:37<19:14, 31.19s/it]Train -ELBO: 7.64460, Val -ELBO: 7.70162:  89%|████████▉ | 294/330 [2:39:08<18:41, 31.15s/it]Train -ELBO: 7.64640, Val -ELBO: 7.70081:  89%|████████▉ | 295/330 [2:39:39<18:09, 31.12s/it]Train -ELBO: 7.63998, Val -ELBO: 7.70890:  90%|████████▉ | 296/330 [2:40:10<17:37, 31.09s/it]Train -ELBO: 7.64081, Val -ELBO: 7.69773:  90%|█████████ | 297/330 [2:40:41<17:05, 31.08s/it]Train -ELBO: 7.64445, Val -ELBO: 7.68059:  90%|█████████ | 298/330 [2:41:12<16:33, 31.06s/it]Train -ELBO: 7.63665, Val -ELBO: 7.70749:  91%|█████████ | 299/330 [2:41:43<16:02, 31.04s/it]Train -ELBO: 7.63939, Val -ELBO: 7.68842:  91%|█████████ | 300/330 [2:42:14<15:31, 31.06s/it]Train -ELBO: 7.63587, Val -ELBO: 7.70485:  91%|█████████ | 301/330 [2:42:45<15:01, 31.07s/it]Train -ELBO: 7.64698, Val -ELBO: 7.70655:  92%|█████████▏| 302/330 [2:43:17<14:31, 31.14s/it]Train -ELBO: 7.64065, Val -ELBO: 7.70659:  92%|█████████▏| 303/330 [2:43:48<14:00, 31.13s/it]Train -ELBO: 7.63591, Val -ELBO: 7.67549:  92%|█████████▏| 304/330 [2:44:19<13:28, 31.10s/it]Train -ELBO: 7.64238, Val -ELBO: 7.70144:  92%|█████████▏| 305/330 [2:44:50<12:57, 31.09s/it]Train -ELBO: 7.63098, Val -ELBO: 7.70129:  93%|█████████▎| 306/330 [2:45:21<12:25, 31.07s/it]Train -ELBO: 7.64235, Val -ELBO: 7.70035:  93%|█████████▎| 307/330 [2:45:52<11:54, 31.05s/it]Train -ELBO: 7.63425, Val -ELBO: 7.71043:  93%|█████████▎| 308/330 [2:46:23<11:23, 31.05s/it]Train -ELBO: 7.64251, Val -ELBO: 7.69764:  94%|█████████▎| 309/330 [2:46:54<10:52, 31.05s/it]Train -ELBO: 7.63739, Val -ELBO: 7.70932:  94%|█████████▍| 310/330 [2:47:25<10:21, 31.07s/it]Train -ELBO: 7.64005, Val -ELBO: 7.69241:  94%|█████████▍| 311/330 [2:47:56<09:50, 31.09s/it]Train -ELBO: 7.64141, Val -ELBO: 7.71942:  95%|█████████▍| 312/330 [2:48:27<09:20, 31.12s/it]Train -ELBO: 7.63256, Val -ELBO: 7.69266:  95%|█████████▍| 313/330 [2:48:58<08:49, 31.12s/it]Train -ELBO: 7.63638, Val -ELBO: 7.71747:  95%|█████████▌| 314/330 [2:49:30<08:18, 31.14s/it]Train -ELBO: 7.64279, Val -ELBO: 7.70554:  95%|█████████▌| 315/330 [2:50:01<07:46, 31.11s/it]Train -ELBO: 7.64506, Val -ELBO: 7.71453:  96%|█████████▌| 316/330 [2:50:32<07:15, 31.08s/it]Train -ELBO: 7.64670, Val -ELBO: 7.70730:  96%|█████████▌| 317/330 [2:51:03<06:43, 31.06s/it]Train -ELBO: 7.64404, Val -ELBO: 7.70103:  96%|█████████▋| 318/330 [2:51:34<06:12, 31.07s/it]Train -ELBO: 7.64214, Val -ELBO: 7.69678:  97%|█████████▋| 319/330 [2:52:05<05:41, 31.06s/it]Train -ELBO: 7.64160, Val -ELBO: 7.68328:  97%|█████████▋| 320/330 [2:52:36<05:10, 31.08s/it]Train -ELBO: 7.63866, Val -ELBO: 7.69731:  97%|█████████▋| 321/330 [2:53:07<04:39, 31.11s/it]Train -ELBO: 7.63736, Val -ELBO: 7.69934:  98%|█████████▊| 322/330 [2:53:38<04:08, 31.12s/it]Train -ELBO: 7.64277, Val -ELBO: 7.69617:  98%|█████████▊| 323/330 [2:54:09<03:37, 31.09s/it]Train -ELBO: 7.64292, Val -ELBO: 7.71088:  98%|█████████▊| 324/330 [2:54:40<03:06, 31.09s/it]Train -ELBO: 7.64035, Val -ELBO: 7.67027:  98%|█████████▊| 325/330 [2:55:11<02:35, 31.07s/it]Train -ELBO: 7.64451, Val -ELBO: 7.70948:  99%|█████████▉| 326/330 [2:55:43<02:04, 31.08s/it]Train -ELBO: 7.63357, Val -ELBO: 7.70968:  99%|█████████▉| 327/330 [2:56:14<01:33, 31.07s/it]Train -ELBO: 7.63185, Val -ELBO: 7.69614:  99%|█████████▉| 328/330 [2:56:45<01:02, 31.07s/it]Train -ELBO: 7.63460, Val -ELBO: 7.69472: 100%|█████████▉| 329/330 [2:57:16<00:31, 31.06s/it]Train -ELBO: 7.63490, Val -ELBO: 7.70221: 100%|██████████| 330/330 [2:57:47<00:00, 31.11s/it]Train -ELBO: 7.63490, Val -ELBO: 7.70221: 100%|██████████| 330/330 [2:57:47<00:00, 32.33s/it]
