{
  "augment": true,
  "augment_sizes": [
    3,
    3,
    3,
    3,
    3,
    3,
    3,
    3,
    3,
    3,
    3,
    3,
    3,
    3,
    3
  ],
  "batch_size": 100,
  "bn": "tree",
  "bt_config": {
    "depth": 5,
    "seed": 4
  },
  "checkpoint_n": 10,
  "dag_net": "hidden2",
  "double": false,
  "ex_name": "continuous_nf",
  "hidden_dim": 140,
  "integration_times": [
    0.0,
    1.0
  ],
  "load_from_checkpoint": false,
  "lr": 0.01,
  "num_epochs": 150,
  "num_flow_steps": 5,
  "num_train_batches": 100,
  "num_train_samples": 10000,
  "num_val_batches": 50,
  "num_val_samples": 5000,
  "path": "./experiment_logs/continuous_nf/tree/hidden2_5_[140]",
  "patience": 20,
  "run": 1,
  "seed": 1,
  "sub_folder": "hidden2_5_[140]"
}