{
  "test": {
    "steps": [
      0
    ],
    "timestamps": [
      "2022-08-08T20:00:37.936735"
    ],
    "values": [
      11.573764061678116
    ]
  },
  "train": {
    "steps": [
      0,
      1,
      2,
      3,
      4,
      5,
      6,
      7,
      8,
      9,
      10,
      11,
      12,
      13,
      14,
      15,
      16,
      17,
      18,
      19,
      20,
      21,
      22,
      23,
      24,
      25,
      26,
      27,
      28,
      29,
      30,
      31,
      32,
      33,
      34,
      35,
      36,
      37,
      38,
      39,
      40,
      41,
      42,
      43,
      44,
      45,
      46,
      47,
      48,
      49,
      50,
      51,
      52,
      53,
      54,
      55,
      56,
      57,
      58,
      59,
      60,
      61,
      62,
      63,
      64,
      65,
      66,
      67,
      68,
      69,
      70,
      71,
      72,
      73,
      74,
      75,
      76,
      77,
      78,
      79,
      80,
      81,
      82,
      83,
      84,
      85,
      86,
      87,
      88,
      89,
      90,
      91,
      92,
      93,
      94,
      95,
      96,
      97,
      98,
      99,
      100,
      101,
      102,
      103,
      104,
      105,
      106,
      107,
      108,
      109,
      110,
      111,
      112,
      113,
      114,
      115,
      116,
      117,
      118,
      119,
      120,
      121,
      122,
      123,
      124,
      125,
      126,
      127,
      128,
      129,
      130,
      131,
      132,
      133,
      134,
      135,
      136,
      137,
      138,
      139,
      140,
      141,
      142,
      143,
      144,
      145,
      146,
      147,
      148,
      149,
      150,
      151,
      152,
      153,
      154,
      155,
      156,
      157,
      158,
      159,
      160,
      161,
      162,
      163,
      164,
      165,
      166,
      167,
      168,
      169,
      170,
      171,
      172,
      173,
      174,
      175,
      176,
      177,
      178,
      179,
      180,
      181,
      182,
      183,
      184,
      185,
      186,
      187,
      188,
      189,
      190,
      191,
      192,
      193,
      194,
      195,
      196,
      197,
      198,
      199,
      200,
      201,
      202,
      203,
      204,
      205,
      206,
      207,
      208,
      209,
      210,
      211,
      212,
      213,
      214,
      215,
      216,
      217,
      218,
      219,
      220,
      221,
      222,
      223,
      224,
      225,
      226,
      227,
      228,
      229,
      230,
      231,
      232,
      233,
      234,
      235,
      236,
      237,
      238,
      239,
      240,
      241,
      242,
      243,
      244,
      245,
      246,
      247,
      248,
      249,
      250,
      251,
      252,
      253,
      254,
      255,
      256,
      257,
      258,
      259,
      260,
      261,
      262,
      263,
      264,
      265,
      266,
      267,
      268,
      269,
      270,
      271,
      272,
      273,
      274,
      275,
      276,
      277,
      278,
      279,
      280,
      281,
      282,
      283,
      284,
      285,
      286,
      287,
      288,
      289,
      290,
      291,
      292,
      293,
      294,
      295,
      296,
      297,
      298,
      299
    ],
    "timestamps": [
      "2022-08-08T19:54:34.638037",
      "2022-08-08T19:54:35.796320",
      "2022-08-08T19:54:37.270891",
      "2022-08-08T19:54:38.686561",
      "2022-08-08T19:54:40.080135",
      "2022-08-08T19:54:41.115715",
      "2022-08-08T19:54:42.158883",
      "2022-08-08T19:54:43.219042",
      "2022-08-08T19:54:44.279163",
      "2022-08-08T19:54:45.464229",
      "2022-08-08T19:54:46.599133",
      "2022-08-08T19:54:47.743864",
      "2022-08-08T19:54:48.759710",
      "2022-08-08T19:54:49.775750",
      "2022-08-08T19:54:50.964601",
      "2022-08-08T19:54:52.215867",
      "2022-08-08T19:54:53.339617",
      "2022-08-08T19:54:54.370716",
      "2022-08-08T19:54:55.458787",
      "2022-08-08T19:54:56.831870",
      "2022-08-08T19:54:58.021599",
      "2022-08-08T19:54:59.191437",
      "2022-08-08T19:55:00.357545",
      "2022-08-08T19:55:01.590598",
      "2022-08-08T19:55:02.890338",
      "2022-08-08T19:55:04.001534",
      "2022-08-08T19:55:05.033841",
      "2022-08-08T19:55:06.094844",
      "2022-08-08T19:55:07.326137",
      "2022-08-08T19:55:08.462201",
      "2022-08-08T19:55:09.531010",
      "2022-08-08T19:55:10.564273",
      "2022-08-08T19:55:11.662021",
      "2022-08-08T19:55:12.752208",
      "2022-08-08T19:55:14.013346",
      "2022-08-08T19:55:15.040417",
      "2022-08-08T19:55:16.071125",
      "2022-08-08T19:55:17.179954",
      "2022-08-08T19:55:18.350832",
      "2022-08-08T19:55:19.585025",
      "2022-08-08T19:55:20.731821",
      "2022-08-08T19:55:21.810250",
      "2022-08-08T19:55:22.901606",
      "2022-08-08T19:55:24.200845",
      "2022-08-08T19:55:25.233128",
      "2022-08-08T19:55:26.273622",
      "2022-08-08T19:55:27.504172",
      "2022-08-08T19:55:29.132674",
      "2022-08-08T19:55:30.433615",
      "2022-08-08T19:55:31.777587",
      "2022-08-08T19:55:32.810495",
      "2022-08-08T19:55:34.217073",
      "2022-08-08T19:55:35.537107",
      "2022-08-08T19:55:36.614723",
      "2022-08-08T19:55:37.887040",
      "2022-08-08T19:55:38.997544",
      "2022-08-08T19:55:40.010816",
      "2022-08-08T19:55:41.146783",
      "2022-08-08T19:55:42.162453",
      "2022-08-08T19:55:43.182440",
      "2022-08-08T19:55:44.203970",
      "2022-08-08T19:55:45.347654",
      "2022-08-08T19:55:46.956030",
      "2022-08-08T19:55:48.369404",
      "2022-08-08T19:55:49.490391",
      "2022-08-08T19:55:50.508113",
      "2022-08-08T19:55:51.913016",
      "2022-08-08T19:55:53.380667",
      "2022-08-08T19:55:54.727364",
      "2022-08-08T19:55:56.317413",
      "2022-08-08T19:55:57.520406",
      "2022-08-08T19:55:58.549824",
      "2022-08-08T19:55:59.611467",
      "2022-08-08T19:56:00.695160",
      "2022-08-08T19:56:01.732455",
      "2022-08-08T19:56:02.762465",
      "2022-08-08T19:56:03.792976",
      "2022-08-08T19:56:04.824140",
      "2022-08-08T19:56:05.956826",
      "2022-08-08T19:56:07.054329",
      "2022-08-08T19:56:08.269187",
      "2022-08-08T19:56:09.420741",
      "2022-08-08T19:56:10.598020",
      "2022-08-08T19:56:12.037097",
      "2022-08-08T19:56:13.215853",
      "2022-08-08T19:56:14.341124",
      "2022-08-08T19:56:15.581501",
      "2022-08-08T19:56:16.708598",
      "2022-08-08T19:56:17.882311",
      "2022-08-08T19:56:18.986478",
      "2022-08-08T19:56:20.083107",
      "2022-08-08T19:56:21.184445",
      "2022-08-08T19:56:22.426064",
      "2022-08-08T19:56:23.784829",
      "2022-08-08T19:56:25.015047",
      "2022-08-08T19:56:26.341533",
      "2022-08-08T19:56:27.516349",
      "2022-08-08T19:56:28.705468",
      "2022-08-08T19:56:29.826792",
      "2022-08-08T19:56:30.981174",
      "2022-08-08T19:56:32.152747",
      "2022-08-08T19:56:33.377899",
      "2022-08-08T19:56:34.660882",
      "2022-08-08T19:56:35.770161",
      "2022-08-08T19:56:36.989896",
      "2022-08-08T19:56:38.503980",
      "2022-08-08T19:56:39.845882",
      "2022-08-08T19:56:40.858816",
      "2022-08-08T19:56:42.090771",
      "2022-08-08T19:56:43.337650",
      "2022-08-08T19:56:44.537105",
      "2022-08-08T19:56:45.863547",
      "2022-08-08T19:56:47.435402",
      "2022-08-08T19:56:48.502410",
      "2022-08-08T19:56:49.800441",
      "2022-08-08T19:56:50.857989",
      "2022-08-08T19:56:51.892891",
      "2022-08-08T19:56:52.912144",
      "2022-08-08T19:56:53.939546",
      "2022-08-08T19:56:54.974898",
      "2022-08-08T19:56:56.383083",
      "2022-08-08T19:56:57.540418",
      "2022-08-08T19:56:58.591435",
      "2022-08-08T19:56:59.706383",
      "2022-08-08T19:57:00.777838",
      "2022-08-08T19:57:02.030038",
      "2022-08-08T19:57:03.105829",
      "2022-08-08T19:57:04.234503",
      "2022-08-08T19:57:05.603379",
      "2022-08-08T19:57:06.798458",
      "2022-08-08T19:57:07.957386",
      "2022-08-08T19:57:09.053757",
      "2022-08-08T19:57:10.258969",
      "2022-08-08T19:57:11.633275",
      "2022-08-08T19:57:12.777953",
      "2022-08-08T19:57:13.875519",
      "2022-08-08T19:57:14.957779",
      "2022-08-08T19:57:16.390774",
      "2022-08-08T19:57:18.054198",
      "2022-08-08T19:57:19.246692",
      "2022-08-08T19:57:20.388647",
      "2022-08-08T19:57:21.720998",
      "2022-08-08T19:57:23.301579",
      "2022-08-08T19:57:24.711535",
      "2022-08-08T19:57:25.884980",
      "2022-08-08T19:57:26.944239",
      "2022-08-08T19:57:28.098180",
      "2022-08-08T19:57:29.445077",
      "2022-08-08T19:57:30.633801",
      "2022-08-08T19:57:31.832909",
      "2022-08-08T19:57:32.978974",
      "2022-08-08T19:57:34.232121",
      "2022-08-08T19:57:35.611724",
      "2022-08-08T19:57:36.847750",
      "2022-08-08T19:57:37.954843",
      "2022-08-08T19:57:38.989469",
      "2022-08-08T19:57:40.604764",
      "2022-08-08T19:57:42.218858",
      "2022-08-08T19:57:43.458265",
      "2022-08-08T19:57:44.833608",
      "2022-08-08T19:57:46.041520",
      "2022-08-08T19:57:47.416193",
      "2022-08-08T19:57:48.661841",
      "2022-08-08T19:57:49.949416",
      "2022-08-08T19:57:51.003897",
      "2022-08-08T19:57:52.306498",
      "2022-08-08T19:57:53.856440",
      "2022-08-08T19:57:55.213122",
      "2022-08-08T19:57:56.534962",
      "2022-08-08T19:57:57.801707",
      "2022-08-08T19:57:59.013989",
      "2022-08-08T19:58:00.191034",
      "2022-08-08T19:58:01.369192",
      "2022-08-08T19:58:02.697213",
      "2022-08-08T19:58:03.885099",
      "2022-08-08T19:58:05.213152",
      "2022-08-08T19:58:06.389791",
      "2022-08-08T19:58:07.696110",
      "2022-08-08T19:58:08.858775",
      "2022-08-08T19:58:10.144348",
      "2022-08-08T19:58:11.476155",
      "2022-08-08T19:58:12.592453",
      "2022-08-08T19:58:14.031829",
      "2022-08-08T19:58:15.352031",
      "2022-08-08T19:58:16.384210",
      "2022-08-08T19:58:17.440862",
      "2022-08-08T19:58:18.683569",
      "2022-08-08T19:58:20.335811",
      "2022-08-08T19:58:21.815807",
      "2022-08-08T19:58:23.004531",
      "2022-08-08T19:58:24.327457",
      "2022-08-08T19:58:25.443561",
      "2022-08-08T19:58:26.627911",
      "2022-08-08T19:58:28.206882",
      "2022-08-08T19:58:29.583249",
      "2022-08-08T19:58:30.709579",
      "2022-08-08T19:58:31.798049",
      "2022-08-08T19:58:32.923017",
      "2022-08-08T19:58:34.078834",
      "2022-08-08T19:58:35.497445",
      "2022-08-08T19:58:36.668682",
      "2022-08-08T19:58:37.838640",
      "2022-08-08T19:58:38.914393",
      "2022-08-08T19:58:40.453031",
      "2022-08-08T19:58:41.620661",
      "2022-08-08T19:58:42.663960",
      "2022-08-08T19:58:43.875721",
      "2022-08-08T19:58:44.892257",
      "2022-08-08T19:58:46.074511",
      "2022-08-08T19:58:47.525856",
      "2022-08-08T19:58:48.953956",
      "2022-08-08T19:58:50.184389",
      "2022-08-08T19:58:51.509174",
      "2022-08-08T19:58:52.784373",
      "2022-08-08T19:58:53.911274",
      "2022-08-08T19:58:55.235171",
      "2022-08-08T19:58:56.447567",
      "2022-08-08T19:58:57.805952",
      "2022-08-08T19:58:58.852213",
      "2022-08-08T19:58:59.931330",
      "2022-08-08T19:59:01.066417",
      "2022-08-08T19:59:02.195358",
      "2022-08-08T19:59:03.362833",
      "2022-08-08T19:59:04.669584",
      "2022-08-08T19:59:05.742416",
      "2022-08-08T19:59:06.850713",
      "2022-08-08T19:59:07.993674",
      "2022-08-08T19:59:09.296765",
      "2022-08-08T19:59:10.520210",
      "2022-08-08T19:59:11.653123",
      "2022-08-08T19:59:12.780960",
      "2022-08-08T19:59:14.278795",
      "2022-08-08T19:59:15.703545",
      "2022-08-08T19:59:16.788677",
      "2022-08-08T19:59:18.157791",
      "2022-08-08T19:59:19.287253",
      "2022-08-08T19:59:20.625156",
      "2022-08-08T19:59:21.785915",
      "2022-08-08T19:59:22.848813",
      "2022-08-08T19:59:24.108905",
      "2022-08-08T19:59:25.454837",
      "2022-08-08T19:59:26.611022",
      "2022-08-08T19:59:27.867339",
      "2022-08-08T19:59:28.950361",
      "2022-08-08T19:59:30.233373",
      "2022-08-08T19:59:31.349262",
      "2022-08-08T19:59:32.616583",
      "2022-08-08T19:59:33.841934",
      "2022-08-08T19:59:34.976896",
      "2022-08-08T19:59:36.018636",
      "2022-08-08T19:59:37.095979",
      "2022-08-08T19:59:38.347032",
      "2022-08-08T19:59:39.636230",
      "2022-08-08T19:59:40.740208",
      "2022-08-08T19:59:41.984000",
      "2022-08-08T19:59:43.291469",
      "2022-08-08T19:59:44.792510",
      "2022-08-08T19:59:45.951011",
      "2022-08-08T19:59:47.056440",
      "2022-08-08T19:59:48.437956",
      "2022-08-08T19:59:49.898451",
      "2022-08-08T19:59:51.313353",
      "2022-08-08T19:59:52.444169",
      "2022-08-08T19:59:53.617565",
      "2022-08-08T19:59:54.952547",
      "2022-08-08T19:59:56.321387",
      "2022-08-08T19:59:57.414940",
      "2022-08-08T19:59:58.811190",
      "2022-08-08T19:59:59.990136",
      "2022-08-08T20:00:01.356028",
      "2022-08-08T20:00:02.583025",
      "2022-08-08T20:00:03.721315",
      "2022-08-08T20:00:04.954784",
      "2022-08-08T20:00:06.166373",
      "2022-08-08T20:00:07.292348",
      "2022-08-08T20:00:08.346528",
      "2022-08-08T20:00:09.451132",
      "2022-08-08T20:00:10.810781",
      "2022-08-08T20:00:12.198672",
      "2022-08-08T20:00:13.473890",
      "2022-08-08T20:00:14.728849",
      "2022-08-08T20:00:15.977898",
      "2022-08-08T20:00:17.089567",
      "2022-08-08T20:00:18.281942",
      "2022-08-08T20:00:19.464016",
      "2022-08-08T20:00:20.705115",
      "2022-08-08T20:00:22.011809",
      "2022-08-08T20:00:23.107405",
      "2022-08-08T20:00:24.144215",
      "2022-08-08T20:00:25.481037",
      "2022-08-08T20:00:26.591247",
      "2022-08-08T20:00:27.780979",
      "2022-08-08T20:00:28.783358",
      "2022-08-08T20:00:29.789739",
      "2022-08-08T20:00:31.155391",
      "2022-08-08T20:00:32.674015",
      "2022-08-08T20:00:34.017875",
      "2022-08-08T20:00:35.273029",
      "2022-08-08T20:00:36.469513",
      "2022-08-08T20:00:37.800734"
    ],
    "values": [
      12.446707216783986,
      11.802240237020804,
      11.658713329540003,
      11.599637243342258,
      11.550870191544107,
      11.50727844402891,
      11.498074131972498,
      11.483447919659119,
      11.461061514023434,
      11.456731874995782,
      11.42233015844937,
      11.403987319879862,
      11.407169287789984,
      11.401177418190391,
      11.40042275404861,
      11.380178662322383,
      11.380855058270647,
      11.386266795943238,
      11.367040753454814,
      11.345146071675956,
      11.35482323954954,
      11.354512974700945,
      11.322492265255296,
      11.342764232390397,
      11.345386581439083,
      11.334077142409788,
      11.33460930049353,
      11.327443694815535,
      11.332307443177074,
      11.333567063781949,
      11.307600752965481,
      11.296190521943501,
      11.300156356422196,
      11.310542314451013,
      11.296552582611914,
      11.301936599593528,
      11.287268226840151,
      11.271652497486452,
      11.277429002828868,
      11.273726024106265,
      11.274521868915752,
      11.275679123547322,
      11.293400605846251,
      11.311076293315237,
      11.289504618726891,
      11.289774592514595,
      11.284720311529034,
      11.288989024799632,
      11.254481840775002,
      11.272344199343184,
      11.258791722734825,
      11.251251735498977,
      11.260867399504237,
      11.267116986935612,
      11.269170723958059,
      11.250999904474252,
      11.234334740072143,
      11.243008983434706,
      11.233059281394489,
      11.244543508273507,
      11.239679863361841,
      11.236292798952189,
      11.245974917434525,
      11.248337687222218,
      11.237358733846953,
      11.233773495975592,
      11.22621849598621,
      11.233414503080347,
      11.231201552879078,
      11.215836047026261,
      11.224905214263767,
      11.225912287509345,
      11.222933858904378,
      11.221783023076982,
      11.214626355721887,
      11.20597060433461,
      11.189355410256383,
      11.205367828848456,
      11.19133489734387,
      11.201967869516682,
      11.204128255675299,
      11.21770490512731,
      11.195639015946917,
      11.19908332452777,
      11.1964087145608,
      11.203841616484016,
      11.216809586342656,
      11.212699214285243,
      11.191567364213247,
      11.186661127275924,
      11.200401804665066,
      11.202618910214753,
      11.196519804090048,
      11.187585299441578,
      11.186971535556546,
      11.173673690266758,
      11.186358619151932,
      11.176915485378759,
      11.17968640589827,
      11.168811115891273,
      11.183088204882763,
      11.187215723391365,
      11.171120362171262,
      11.158169236024866,
      11.171160649375182,
      11.17125715164197,
      11.172941746549219,
      11.165419143807963,
      11.171345654309718,
      11.167617336193333,
      11.172553308791992,
      11.158272915418715,
      11.170600171220906,
      11.162646654570224,
      11.147810146618486,
      11.15480671396617,
      11.172080658000954,
      11.164601492790034,
      11.155308664892596,
      11.15774354673831,
      11.13872433223429,
      11.15382860825769,
      11.147015932343816,
      11.157990977239992,
      11.15143750787137,
      11.144092483567396,
      11.155372695650435,
      11.172591693022225,
      11.161201293767228,
      11.154596306943983,
      11.150850732012652,
      11.164263939405652,
      11.142065469965255,
      11.145423204771868,
      11.145903463176866,
      11.150047944701742,
      11.142729176613697,
      11.15056253937582,
      11.157535895376208,
      11.159153720306804,
      11.142831713951418,
      11.137394707593257,
      11.134802766868274,
      11.145773895963492,
      11.143296178406917,
      11.144596821303553,
      11.152008877304786,
      11.137778485397599,
      11.1345143120176,
      11.142556584377326,
      11.13482663256265,
      11.154221129025215,
      11.138414555457178,
      11.131088484132718,
      11.127821571512191,
      11.136686350264368,
      11.139334724677383,
      11.135440841027016,
      11.121043764878726,
      11.134413514635897,
      11.133575501901436,
      11.124122177557329,
      11.135414486789225,
      11.137353351170571,
      11.13184086761907,
      11.136491674816746,
      11.120170189275697,
      11.13624491078989,
      11.121724011720612,
      11.119227321476549,
      11.139780388402187,
      11.122548682394424,
      11.13192319584616,
      11.126298468679337,
      11.121551557569605,
      11.151554677760148,
      11.136018400086787,
      11.134694231150682,
      11.140371817919394,
      11.13123854151557,
      11.118847865291663,
      11.13944420853765,
      11.120243238993812,
      11.1284249600032,
      11.117516354570974,
      11.134028608949809,
      11.122863885283671,
      11.131232202488988,
      11.127147477447263,
      11.125847230095427,
      11.126363554307398,
      11.10752391024483,
      11.131415035033836,
      11.129462298154422,
      11.11039362986385,
      11.119141340222138,
      11.130850112488371,
      11.118746092466196,
      11.125138553925387,
      11.12661287607139,
      11.121750756960116,
      11.111689754778736,
      11.112628777835084,
      11.12064148608156,
      11.122966467820445,
      11.115987577524411,
      11.12302449896616,
      11.129315429343471,
      11.127529355051111,
      11.109709636691012,
      11.121236960921376,
      11.122485580722508,
      11.116090968733733,
      11.076413335095694,
      11.062437692647423,
      11.062758877670376,
      11.061839230913417,
      11.060790132874455,
      11.06249118956818,
      11.061074960762278,
      11.060177254968147,
      11.061086988724233,
      11.060716629007347,
      11.058624582724942,
      11.06331218383591,
      11.05826836454472,
      11.060807610150839,
      11.058671765847242,
      11.058646737285878,
      11.059928753044126,
      11.058532287309163,
      11.058777070780916,
      11.059666026002919,
      11.059182240856165,
      11.060703545217732,
      11.060023987756942,
      11.058816172250566,
      11.060563726197426,
      11.057799811934556,
      11.060178689516478,
      11.058415617930248,
      11.05648571229404,
      11.05794047793524,
      11.05899991170932,
      11.061897050479544,
      11.058009393164868,
      11.059166055891005,
      11.057868696804201,
      11.056794935791865,
      11.057063386750015,
      11.057088174869486,
      11.057044833752025,
      11.057844710114388,
      11.05768467041743,
      11.059496108181973,
      11.058098136403224,
      11.057477570671537,
      11.05976371151492,
      11.056445561414641,
      11.05645597515281,
      11.061040304296542,
      11.05814820026387,
      11.05842167123403,
      11.053218646778141,
      11.050695251822285,
      11.04991146778253,
      11.049609890938264,
      11.049419267708627,
      11.04917889258136,
      11.049323776537701,
      11.049135657778354,
      11.049485988003896,
      11.049135723171403,
      11.049054501093607,
      11.049243077440735,
      11.048837552343604,
      11.049220418368437,
      11.049106300150894,
      11.049316049945729,
      11.049227505475097,
      11.048942480970318,
      11.04920418850346,
      11.049420818854635,
      11.0489874818451,
      11.048994180119273,
      11.049041373293619,
      11.048904939216532,
      11.049088919552245,
      11.049044564123767,
      11.048046230048918,
      11.048029565647264,
      11.048037467559777,
      11.048076103226705,
      11.048076707611624,
      11.048068222159834,
      11.048055829566417,
      11.048053186071053,
      11.048057945742084,
      11.048058226694389,
      11.048066481287847
    ]
  },
  "val": {
    "steps": [
      0,
      1,
      2,
      3,
      4,
      5,
      6,
      7,
      8,
      9,
      10,
      11,
      12,
      13,
      14,
      15,
      16,
      17,
      18,
      19,
      20,
      21,
      22,
      23,
      24,
      25,
      26,
      27,
      28,
      29,
      30,
      31,
      32,
      33,
      34,
      35,
      36,
      37,
      38,
      39,
      40,
      41,
      42,
      43,
      44,
      45,
      46,
      47,
      48,
      49,
      50,
      51,
      52,
      53,
      54,
      55,
      56,
      57,
      58,
      59,
      60,
      61,
      62,
      63,
      64,
      65,
      66,
      67,
      68,
      69,
      70,
      71,
      72,
      73,
      74,
      75,
      76,
      77,
      78,
      79,
      80,
      81,
      82,
      83,
      84,
      85,
      86,
      87,
      88,
      89,
      90,
      91,
      92,
      93,
      94,
      95,
      96,
      97,
      98,
      99,
      100,
      101,
      102,
      103,
      104,
      105,
      106,
      107,
      108,
      109,
      110,
      111,
      112,
      113,
      114,
      115,
      116,
      117,
      118,
      119,
      120,
      121,
      122,
      123,
      124,
      125,
      126,
      127,
      128,
      129,
      130,
      131,
      132,
      133,
      134,
      135,
      136,
      137,
      138,
      139,
      140,
      141,
      142,
      143,
      144,
      145,
      146,
      147,
      148,
      149,
      150,
      151,
      152,
      153,
      154,
      155,
      156,
      157,
      158,
      159,
      160,
      161,
      162,
      163,
      164,
      165,
      166,
      167,
      168,
      169,
      170,
      171,
      172,
      173,
      174,
      175,
      176,
      177,
      178,
      179,
      180,
      181,
      182,
      183,
      184,
      185,
      186,
      187,
      188,
      189,
      190,
      191,
      192,
      193,
      194,
      195,
      196,
      197,
      198,
      199,
      200,
      201,
      202,
      203,
      204,
      205,
      206,
      207,
      208,
      209,
      210,
      211,
      212,
      213,
      214,
      215,
      216,
      217,
      218,
      219,
      220,
      221,
      222,
      223,
      224,
      225,
      226,
      227,
      228,
      229,
      230,
      231,
      232,
      233,
      234,
      235,
      236,
      237,
      238,
      239,
      240,
      241,
      242,
      243,
      244,
      245,
      246,
      247,
      248,
      249,
      250,
      251,
      252,
      253,
      254,
      255,
      256,
      257,
      258,
      259,
      260,
      261,
      262,
      263,
      264,
      265,
      266,
      267,
      268,
      269,
      270,
      271,
      272,
      273,
      274,
      275,
      276,
      277,
      278,
      279,
      280,
      281,
      282,
      283,
      284,
      285,
      286,
      287,
      288,
      289,
      290,
      291,
      292,
      293,
      294,
      295,
      296,
      297,
      298,
      299
    ],
    "timestamps": [
      "2022-08-08T19:54:34.683997",
      "2022-08-08T19:54:35.862637",
      "2022-08-08T19:54:37.350145",
      "2022-08-08T19:54:38.783903",
      "2022-08-08T19:54:40.132612",
      "2022-08-08T19:54:41.168065",
      "2022-08-08T19:54:42.211503",
      "2022-08-08T19:54:43.271249",
      "2022-08-08T19:54:44.345551",
      "2022-08-08T19:54:45.518383",
      "2022-08-08T19:54:46.653864",
      "2022-08-08T19:54:47.795829",
      "2022-08-08T19:54:48.811372",
      "2022-08-08T19:54:49.827369",
      "2022-08-08T19:54:51.031486",
      "2022-08-08T19:54:52.274849",
      "2022-08-08T19:54:53.391420",
      "2022-08-08T19:54:54.426833",
      "2022-08-08T19:54:55.522499",
      "2022-08-08T19:54:56.886751",
      "2022-08-08T19:54:58.074420",
      "2022-08-08T19:54:59.242326",
      "2022-08-08T19:55:00.409098",
      "2022-08-08T19:55:01.647666",
      "2022-08-08T19:55:02.947508",
      "2022-08-08T19:55:04.054250",
      "2022-08-08T19:55:05.087095",
      "2022-08-08T19:55:06.178557",
      "2022-08-08T19:55:07.381006",
      "2022-08-08T19:55:08.514563",
      "2022-08-08T19:55:09.583238",
      "2022-08-08T19:55:10.616254",
      "2022-08-08T19:55:11.715670",
      "2022-08-08T19:55:12.808060",
      "2022-08-08T19:55:14.065600",
      "2022-08-08T19:55:15.092510",
      "2022-08-08T19:55:16.123298",
      "2022-08-08T19:55:17.234572",
      "2022-08-08T19:55:18.443431",
      "2022-08-08T19:55:19.654726",
      "2022-08-08T19:55:20.800178",
      "2022-08-08T19:55:21.864761",
      "2022-08-08T19:55:22.955207",
      "2022-08-08T19:55:24.253364",
      "2022-08-08T19:55:25.285809",
      "2022-08-08T19:55:26.325876",
      "2022-08-08T19:55:27.591421",
      "2022-08-08T19:55:29.219212",
      "2022-08-08T19:55:30.484502",
      "2022-08-08T19:55:31.831525",
      "2022-08-08T19:55:32.862558",
      "2022-08-08T19:55:34.288299",
      "2022-08-08T19:55:35.588370",
      "2022-08-08T19:55:36.666646",
      "2022-08-08T19:55:37.943139",
      "2022-08-08T19:55:39.049530",
      "2022-08-08T19:55:40.075994",
      "2022-08-08T19:55:41.198050",
      "2022-08-08T19:55:42.215347",
      "2022-08-08T19:55:43.233514",
      "2022-08-08T19:55:44.255619",
      "2022-08-08T19:55:45.433273",
      "2022-08-08T19:55:47.042052",
      "2022-08-08T19:55:48.435036",
      "2022-08-08T19:55:49.542421",
      "2022-08-08T19:55:50.560527",
      "2022-08-08T19:55:51.998671",
      "2022-08-08T19:55:53.465876",
      "2022-08-08T19:55:54.808515",
      "2022-08-08T19:55:56.408832",
      "2022-08-08T19:55:57.573602",
      "2022-08-08T19:55:58.602498",
      "2022-08-08T19:55:59.663867",
      "2022-08-08T19:56:00.747818",
      "2022-08-08T19:56:01.784519",
      "2022-08-08T19:56:02.814457",
      "2022-08-08T19:56:03.846247",
      "2022-08-08T19:56:04.876303",
      "2022-08-08T19:56:06.011647",
      "2022-08-08T19:56:07.117363",
      "2022-08-08T19:56:08.324837",
      "2022-08-08T19:56:09.476622",
      "2022-08-08T19:56:10.654364",
      "2022-08-08T19:56:12.102158",
      "2022-08-08T19:56:13.271476",
      "2022-08-08T19:56:14.395953",
      "2022-08-08T19:56:15.637842",
      "2022-08-08T19:56:16.763932",
      "2022-08-08T19:56:17.939592",
      "2022-08-08T19:56:19.038544",
      "2022-08-08T19:56:20.135263",
      "2022-08-08T19:56:21.240507",
      "2022-08-08T19:56:22.516398",
      "2022-08-08T19:56:23.837784",
      "2022-08-08T19:56:25.075387",
      "2022-08-08T19:56:26.401582",
      "2022-08-08T19:56:27.574223",
      "2022-08-08T19:56:28.758397",
      "2022-08-08T19:56:29.915953",
      "2022-08-08T19:56:31.032536",
      "2022-08-08T19:56:32.233300",
      "2022-08-08T19:56:33.455414",
      "2022-08-08T19:56:34.735987",
      "2022-08-08T19:56:35.832019",
      "2022-08-08T19:56:37.045491",
      "2022-08-08T19:56:38.574566",
      "2022-08-08T19:56:39.897492",
      "2022-08-08T19:56:40.922663",
      "2022-08-08T19:56:42.146981",
      "2022-08-08T19:56:43.415765",
      "2022-08-08T19:56:44.622342",
      "2022-08-08T19:56:45.962535",
      "2022-08-08T19:56:47.495911",
      "2022-08-08T19:56:48.564854",
      "2022-08-08T19:56:49.854587",
      "2022-08-08T19:56:50.910400",
      "2022-08-08T19:56:51.945118",
      "2022-08-08T19:56:52.964233",
      "2022-08-08T19:56:53.992701",
      "2022-08-08T19:56:55.029365",
      "2022-08-08T19:56:56.438195",
      "2022-08-08T19:56:57.592707",
      "2022-08-08T19:56:58.652473",
      "2022-08-08T19:56:59.780795",
      "2022-08-08T19:57:00.832352",
      "2022-08-08T19:57:02.098743",
      "2022-08-08T19:57:03.163079",
      "2022-08-08T19:57:04.287344",
      "2022-08-08T19:57:05.696274",
      "2022-08-08T19:57:06.853839",
      "2022-08-08T19:57:08.013946",
      "2022-08-08T19:57:09.105974",
      "2022-08-08T19:57:10.350218",
      "2022-08-08T19:57:11.689848",
      "2022-08-08T19:57:12.830542",
      "2022-08-08T19:57:13.928902",
      "2022-08-08T19:57:15.013069",
      "2022-08-08T19:57:16.479973",
      "2022-08-08T19:57:18.141597",
      "2022-08-08T19:57:19.303554",
      "2022-08-08T19:57:20.441083",
      "2022-08-08T19:57:21.815687",
      "2022-08-08T19:57:23.362973",
      "2022-08-08T19:57:24.767248",
      "2022-08-08T19:57:25.940586",
      "2022-08-08T19:57:26.998160",
      "2022-08-08T19:57:28.179158",
      "2022-08-08T19:57:29.503468",
      "2022-08-08T19:57:30.693071",
      "2022-08-08T19:57:31.888794",
      "2022-08-08T19:57:33.032965",
      "2022-08-08T19:57:34.325822",
      "2022-08-08T19:57:35.671725",
      "2022-08-08T19:57:36.906221",
      "2022-08-08T19:57:38.007063",
      "2022-08-08T19:57:39.043146",
      "2022-08-08T19:57:40.692199",
      "2022-08-08T19:57:42.279099",
      "2022-08-08T19:57:43.530264",
      "2022-08-08T19:57:44.892440",
      "2022-08-08T19:57:46.096496",
      "2022-08-08T19:57:47.508714",
      "2022-08-08T19:57:48.717092",
      "2022-08-08T19:57:50.001082",
      "2022-08-08T19:57:51.060121",
      "2022-08-08T19:57:52.406340",
      "2022-08-08T19:57:53.944381",
      "2022-08-08T19:57:55.283160",
      "2022-08-08T19:57:56.591293",
      "2022-08-08T19:57:57.857996",
      "2022-08-08T19:57:59.071314",
      "2022-08-08T19:58:00.245803",
      "2022-08-08T19:58:01.421644",
      "2022-08-08T19:58:02.752688",
      "2022-08-08T19:58:03.958413",
      "2022-08-08T19:58:05.267436",
      "2022-08-08T19:58:06.451105",
      "2022-08-08T19:58:07.754902",
      "2022-08-08T19:58:08.917619",
      "2022-08-08T19:58:10.197679",
      "2022-08-08T19:58:11.527305",
      "2022-08-08T19:58:12.644533",
      "2022-08-08T19:58:14.103402",
      "2022-08-08T19:58:15.406910",
      "2022-08-08T19:58:16.449294",
      "2022-08-08T19:58:17.496063",
      "2022-08-08T19:58:18.772740",
      "2022-08-08T19:58:20.426251",
      "2022-08-08T19:58:21.887826",
      "2022-08-08T19:58:23.064678",
      "2022-08-08T19:58:24.394440",
      "2022-08-08T19:58:25.502468",
      "2022-08-08T19:58:26.718381",
      "2022-08-08T19:58:28.262553",
      "2022-08-08T19:58:29.644994",
      "2022-08-08T19:58:30.769753",
      "2022-08-08T19:58:31.851655",
      "2022-08-08T19:58:32.997041",
      "2022-08-08T19:58:34.134963",
      "2022-08-08T19:58:35.571148",
      "2022-08-08T19:58:36.721265",
      "2022-08-08T19:58:37.906497",
      "2022-08-08T19:58:38.968886",
      "2022-08-08T19:58:40.508913",
      "2022-08-08T19:58:41.681160",
      "2022-08-08T19:58:42.717358",
      "2022-08-08T19:58:43.928149",
      "2022-08-08T19:58:44.944993",
      "2022-08-08T19:58:46.131176",
      "2022-08-08T19:58:47.596661",
      "2022-08-08T19:58:49.029208",
      "2022-08-08T19:58:50.247597",
      "2022-08-08T19:58:51.578784",
      "2022-08-08T19:58:52.838334",
      "2022-08-08T19:58:53.964811",
      "2022-08-08T19:58:55.308733",
      "2022-08-08T19:58:56.506363",
      "2022-08-08T19:58:57.866182",
      "2022-08-08T19:58:58.905257",
      "2022-08-08T19:58:59.983260",
      "2022-08-08T19:59:01.125939",
      "2022-08-08T19:59:02.252166",
      "2022-08-08T19:59:03.447591",
      "2022-08-08T19:59:04.722773",
      "2022-08-08T19:59:05.796629",
      "2022-08-08T19:59:06.916135",
      "2022-08-08T19:59:08.059295",
      "2022-08-08T19:59:09.376190",
      "2022-08-08T19:59:10.587035",
      "2022-08-08T19:59:11.707409",
      "2022-08-08T19:59:12.841114",
      "2022-08-08T19:59:14.351185",
      "2022-08-08T19:59:15.760282",
      "2022-08-08T19:59:16.847202",
      "2022-08-08T19:59:18.211800",
      "2022-08-08T19:59:19.354530",
      "2022-08-08T19:59:20.687689",
      "2022-08-08T19:59:21.842387",
      "2022-08-08T19:59:22.938758",
      "2022-08-08T19:59:24.162136",
      "2022-08-08T19:59:25.511430",
      "2022-08-08T19:59:26.676019",
      "2022-08-08T19:59:27.921476",
      "2022-08-08T19:59:29.002679",
      "2022-08-08T19:59:30.290701",
      "2022-08-08T19:59:31.409673",
      "2022-08-08T19:59:32.679134",
      "2022-08-08T19:59:33.900672",
      "2022-08-08T19:59:35.028715",
      "2022-08-08T19:59:36.071159",
      "2022-08-08T19:59:37.154418",
      "2022-08-08T19:59:38.404032",
      "2022-08-08T19:59:39.695975",
      "2022-08-08T19:59:40.804051",
      "2022-08-08T19:59:42.037793",
      "2022-08-08T19:59:43.377903",
      "2022-08-08T19:59:44.865889",
      "2022-08-08T19:59:46.003231",
      "2022-08-08T19:59:47.113292",
      "2022-08-08T19:59:48.509599",
      "2022-08-08T19:59:49.970737",
      "2022-08-08T19:59:51.384962",
      "2022-08-08T19:59:52.496654",
      "2022-08-08T19:59:53.671507",
      "2022-08-08T19:59:55.043911",
      "2022-08-08T19:59:56.373486",
      "2022-08-08T19:59:57.472525",
      "2022-08-08T19:59:58.868680",
      "2022-08-08T20:00:00.058718",
      "2022-08-08T20:00:01.435528",
      "2022-08-08T20:00:02.634637",
      "2022-08-08T20:00:03.780225",
      "2022-08-08T20:00:05.023761",
      "2022-08-08T20:00:06.219371",
      "2022-08-08T20:00:07.361001",
      "2022-08-08T20:00:08.398121",
      "2022-08-08T20:00:09.507943",
      "2022-08-08T20:00:10.895789",
      "2022-08-08T20:00:12.257442",
      "2022-08-08T20:00:13.529398",
      "2022-08-08T20:00:14.812020",
      "2022-08-08T20:00:16.032345",
      "2022-08-08T20:00:17.152275",
      "2022-08-08T20:00:18.337191",
      "2022-08-08T20:00:19.553629",
      "2022-08-08T20:00:20.760930",
      "2022-08-08T20:00:22.071858",
      "2022-08-08T20:00:23.159797",
      "2022-08-08T20:00:24.232084",
      "2022-08-08T20:00:25.535507",
      "2022-08-08T20:00:26.644947",
      "2022-08-08T20:00:27.832344",
      "2022-08-08T20:00:28.834870",
      "2022-08-08T20:00:29.841198",
      "2022-08-08T20:00:31.223295",
      "2022-08-08T20:00:32.743724",
      "2022-08-08T20:00:34.109360",
      "2022-08-08T20:00:35.326336",
      "2022-08-08T20:00:36.543691",
      "2022-08-08T20:00:37.858291"
    ],
    "values": [
      11.998579279889706,
      11.736082653220794,
      11.742890367135901,
      11.565785226735633,
      11.55320924190713,
      11.534876806414468,
      11.535038185324476,
      11.504526580436975,
      11.477125469224486,
      11.476640694815304,
      11.464597124997526,
      11.457140665829865,
      11.465779729512784,
      11.462329810549075,
      11.460525989177555,
      11.458439755613131,
      11.428812812341407,
      11.454444011723355,
      11.394906438887805,
      11.418072405394245,
      11.418818231880001,
      11.415649894541712,
      11.42150740178474,
      11.414468379243706,
      11.396692286570586,
      11.354827699819886,
      11.402560474437761,
      11.375072990112585,
      11.372056145663203,
      11.39314658430028,
      11.377795123600686,
      11.348757689563769,
      11.35843605429367,
      11.358177032773348,
      11.361030673813255,
      11.369360179241054,
      11.332173584728304,
      11.387750473021491,
      11.400675818525258,
      11.340125796023619,
      11.33457923530139,
      11.350000223914801,
      11.364947784140771,
      11.384727759041843,
      11.328133279683238,
      11.393688072067231,
      11.375205127639635,
      11.375845184309231,
      11.335793781815868,
      11.32242933310695,
      11.343924413214655,
      11.31424571482546,
      11.330519648446865,
      11.296263651081897,
      11.293869441298279,
      11.301800105303192,
      11.302023081969839,
      11.312789017157787,
      11.309387615164642,
      11.3237118555715,
      11.311880379405006,
      11.298445390793113,
      11.323970405086307,
      11.329049823689706,
      11.312993495883859,
      11.280731022486162,
      11.333393789678286,
      11.31358773355225,
      11.303587447137152,
      11.264160638417945,
      11.294189561963403,
      11.328204997548053,
      11.284751480843827,
      11.25562789448042,
      11.314720582590251,
      11.274900342950234,
      11.284478400220387,
      11.267980270562056,
      11.347671175052465,
      11.37416887957818,
      11.334702673254252,
      11.256325193031962,
      11.302355510769436,
      11.28505173590965,
      11.295374193340841,
      11.312180877498529,
      11.279548524910933,
      11.264032048834128,
      11.287868949867608,
      11.281643845032187,
      11.298417563547726,
      11.302855744190996,
      11.26916154776085,
      11.273854704838506,
      11.312954873691348,
      11.262211239716432,
      11.26279220281473,
      11.250461658402937,
      11.262750182799554,
      11.246157033726934,
      11.272990574783709,
      11.2864060737986,
      11.244919368672818,
      11.25199376361029,
      11.290920999184268,
      11.282094220238372,
      11.269322145577203,
      11.254590323153563,
      11.262102078081117,
      11.238477824673087,
      11.26302512996639,
      11.234750442532034,
      11.277498659086666,
      11.287501176341632,
      11.247755757266011,
      11.288451602520029,
      11.274992174695406,
      11.281757923608238,
      11.230134564725132,
      11.246508967356863,
      11.237867538329454,
      11.255304493128945,
      11.294363074794052,
      11.3180704135129,
      11.214086540963477,
      11.233609933071852,
      11.239096307181818,
      11.269951245595234,
      11.26916506158816,
      11.275019648859265,
      11.282388229440436,
      11.23694574336638,
      11.233060023685393,
      11.2302704360697,
      11.246805165747116,
      11.253796797686324,
      11.238393820238928,
      11.220800894103515,
      11.236893656788933,
      11.312148940507786,
      11.24755996885404,
      11.246818501733156,
      11.203068142783241,
      11.252212134705928,
      11.272066955461629,
      11.238829077402569,
      11.216769313973375,
      11.242582869424337,
      11.204180959694286,
      11.243820533714805,
      11.21371709784303,
      11.234431267422128,
      11.24676628360027,
      11.213015580153016,
      11.2916291508188,
      11.259442958507275,
      11.237850189358692,
      11.250440833110295,
      11.248196543915245,
      11.219272782740664,
      11.214069149926136,
      11.292939263366124,
      11.227102646514968,
      11.228958138678818,
      11.273882929479399,
      11.240540475733926,
      11.21610212925835,
      11.224031300578423,
      11.222550038485616,
      11.25112719584169,
      11.242744153446267,
      11.202218263828886,
      11.222877218176238,
      11.251110585127924,
      11.268220229515789,
      11.266375950110303,
      11.21656847325313,
      11.218323665252854,
      11.236771166785882,
      11.20249818476832,
      11.209724816750718,
      11.251658442636485,
      11.23181281108985,
      11.258806796136179,
      11.232805589236191,
      11.24976593591269,
      11.22650713704642,
      11.220785285400783,
      11.238535350581467,
      11.208638659919497,
      11.208627850326469,
      11.209128286257352,
      11.19671427959585,
      11.218765204218775,
      11.210524916291986,
      11.24293058925959,
      11.204376247434293,
      11.233977142099985,
      11.237132982999729,
      11.240503519031577,
      11.192648228228837,
      11.195755117492702,
      11.209497460224119,
      11.252790568644226,
      11.255779031565982,
      11.203139495019144,
      11.250734520316648,
      11.23662140495749,
      11.218124978705092,
      11.190688970720291,
      11.205191655215064,
      11.18558622187779,
      11.208440300277882,
      11.177535086113847,
      11.184035397285125,
      11.172944155128231,
      11.173685364591732,
      11.174663625482212,
      11.175246362976072,
      11.178680788464536,
      11.17316655243822,
      11.17497552322144,
      11.169649658745982,
      11.17361441397576,
      11.170941825525656,
      11.173324077693946,
      11.17826424894019,
      11.172162399844161,
      11.18398267352012,
      11.17377392030123,
      11.176367028915548,
      11.176719274417902,
      11.174574097691082,
      11.174437668533193,
      11.18043208969856,
      11.171261842489752,
      11.176491759842744,
      11.17514840008246,
      11.176406521851252,
      11.177503785112915,
      11.176257666903343,
      11.17653836090809,
      11.17659052673832,
      11.172466060599884,
      11.174978096024338,
      11.174369052033645,
      11.171841470407426,
      11.173264842960581,
      11.169009887246293,
      11.172465061135684,
      11.173052208115127,
      11.176906290114495,
      11.173917437035048,
      11.178637967922482,
      11.17272166562329,
      11.175617754234096,
      11.18388024068547,
      11.181156132179973,
      11.174134504767363,
      11.177674732572424,
      11.176509930994035,
      11.172690959360398,
      11.174772887813115,
      11.17258953732753,
      11.17251109615241,
      11.171478862383628,
      11.171302172373146,
      11.171424061295872,
      11.171256488372705,
      11.17111372252548,
      11.170848126757559,
      11.171305825671032,
      11.171431351923598,
      11.170745633987073,
      11.171145508827639,
      11.171176147998308,
      11.171633914686428,
      11.170274499723819,
      11.170497416305292,
      11.17143716390078,
      11.170332504707158,
      11.170821211475076,
      11.170696824961226,
      11.171131174478107,
      11.171366392316546,
      11.170508591770966,
      11.170710059086142,
      11.170991301288813,
      11.17148718718357,
      11.171487204739268,
      11.171457031818637,
      11.171360493837668,
      11.171442254253048,
      11.17136067070911,
      11.171387687274455,
      11.171318114437694,
      11.171287092798565,
      11.171258720455375,
      11.17124737583258,
      11.171226194071753
    ]
  }
}