INFO - residual_nf - Running command 'run'
INFO - residual_nf - Started run with ID "2"
[CONFIG] {'bn': 'tree', 'structure': 'faithful', 'coeff': 0.99, 'n_power_iterations': 5, 'num_blocks': 16, 'hidden_dims': [200], 'activation': 'lipmish', 'grad_in_forward': True, 'batch_size': 100, 'num_train_samples': 10000, 'num_val_samples': 5000, 'num_epochs': 300, 'num_train_batches': 100, 'num_val_batches': 50, 'lr': 0.01, 'seed': 1, 'patience': 20, 'double': True, 'run': 1, 'checkpoint_n': 10, 'load_from_checkpoint': False, 'ex_name': 'residual_nf_density_estimation', 'sub_folder': 'faithful_99_lipmish_16_[200]', 'path': './experiment_logs/residual_nf_density_estimation/tree/faithful_99_lipmish_16_[200]', 'bt_config': {'depth': 5, 'seed': 4}}
[DEVICE] cpu
[ENCODED STRUCTURE] Using faithful BN structure.
  0%|          | 0/300 [00:00<?, ?it/s]Train NLL: 10.017, Val NLL: 9.852:   0%|          | 1/300 [00:10<49:52, 10.01s/it]Train NLL: 9.758, Val NLL: 9.438:   1%|          | 2/300 [00:21<54:29, 10.97s/it] Train NLL: 9.066, Val NLL: 8.841:   1%|          | 3/300 [00:32<53:09, 10.74s/it]Train NLL: 8.833, Val NLL: 8.815:   1%|▏         | 4/300 [00:42<52:41, 10.68s/it]Train NLL: 8.803, Val NLL: 8.782:   2%|▏         | 5/300 [00:53<52:21, 10.65s/it]Train NLL: 8.777, Val NLL: 8.761:   2%|▏         | 6/300 [01:04<52:35, 10.73s/it]Train NLL: 8.751, Val NLL: 8.717:   2%|▏         | 7/300 [01:15<52:31, 10.76s/it]Train NLL: 8.740, Val NLL: 8.737:   3%|▎         | 8/300 [01:25<52:13, 10.73s/it]Train NLL: 8.733, Val NLL: 8.779:   3%|▎         | 9/300 [01:36<52:01, 10.73s/it]Train NLL: 8.728, Val NLL: 8.725:   3%|▎         | 10/300 [01:47<51:47, 10.71s/it]Train NLL: 8.711, Val NLL: 8.699:   4%|▎         | 11/300 [01:55<48:51, 10.14s/it]Train NLL: 8.709, Val NLL: 8.722:   4%|▍         | 12/300 [02:04<46:44,  9.74s/it]Train NLL: 8.717, Val NLL: 8.747:   4%|▍         | 13/300 [02:13<45:14,  9.46s/it]Train NLL: 8.708, Val NLL: 8.723:   5%|▍         | 14/300 [02:22<44:08,  9.26s/it]Train NLL: 8.717, Val NLL: 8.754:   5%|▌         | 15/300 [02:31<43:11,  9.09s/it]Train NLL: 8.701, Val NLL: 8.724:   5%|▌         | 16/300 [02:39<42:27,  8.97s/it]Train NLL: 8.700, Val NLL: 8.700:   6%|▌         | 17/300 [02:48<41:58,  8.90s/it]Train NLL: 8.708, Val NLL: 8.738:   6%|▌         | 18/300 [02:57<41:36,  8.85s/it]Train NLL: 8.711, Val NLL: 8.721:   6%|▋         | 19/300 [03:06<41:28,  8.86s/it]Train NLL: 8.700, Val NLL: 8.711:   7%|▋         | 20/300 [03:14<41:20,  8.86s/it]Train NLL: 8.696, Val NLL: 8.736:   7%|▋         | 21/300 [03:23<41:12,  8.86s/it]Train NLL: 8.687, Val NLL: 8.696:   7%|▋         | 22/300 [03:32<41:08,  8.88s/it]Train NLL: 8.677, Val NLL: 8.712:   8%|▊         | 23/300 [03:41<41:01,  8.89s/it]Train NLL: 8.691, Val NLL: 8.675:   8%|▊         | 24/300 [03:50<40:58,  8.91s/it]Train NLL: 8.685, Val NLL: 8.765:   8%|▊         | 25/300 [03:59<40:54,  8.93s/it]Train NLL: 8.698, Val NLL: 8.743:   9%|▊         | 26/300 [04:08<40:47,  8.93s/it]Train NLL: 8.695, Val NLL: 8.711:   9%|▉         | 27/300 [04:17<40:37,  8.93s/it]Train NLL: 8.684, Val NLL: 8.709:   9%|▉         | 28/300 [04:26<40:25,  8.92s/it]Train NLL: 8.688, Val NLL: 8.683:  10%|▉         | 29/300 [04:35<40:17,  8.92s/it]Train NLL: 8.675, Val NLL: 8.680:  10%|█         | 30/300 [04:44<40:11,  8.93s/it]Train NLL: 8.683, Val NLL: 8.706:  10%|█         | 31/300 [04:53<40:05,  8.94s/it]Train NLL: 8.683, Val NLL: 8.669:  11%|█         | 32/300 [05:02<40:03,  8.97s/it]Train NLL: 8.682, Val NLL: 8.690:  11%|█         | 33/300 [05:11<39:58,  8.98s/it]Train NLL: 8.680, Val NLL: 8.685:  11%|█▏        | 34/300 [05:20<39:51,  8.99s/it]Train NLL: 8.688, Val NLL: 8.718:  12%|█▏        | 35/300 [05:29<39:46,  9.01s/it]Train NLL: 8.672, Val NLL: 8.680:  12%|█▏        | 36/300 [05:38<39:46,  9.04s/it]Train NLL: 8.672, Val NLL: 8.693:  12%|█▏        | 37/300 [05:47<39:44,  9.07s/it]Train NLL: 8.674, Val NLL: 8.707:  13%|█▎        | 38/300 [05:56<39:35,  9.07s/it]Train NLL: 8.682, Val NLL: 8.699:  13%|█▎        | 39/300 [06:05<39:26,  9.07s/it]Train NLL: 8.665, Val NLL: 8.707:  13%|█▎        | 40/300 [06:14<39:25,  9.10s/it]Train NLL: 8.673, Val NLL: 8.672:  14%|█▎        | 41/300 [06:23<39:21,  9.12s/it]Train NLL: 8.672, Val NLL: 8.696:  14%|█▍        | 42/300 [06:33<39:15,  9.13s/it]Train NLL: 8.680, Val NLL: 8.696:  14%|█▍        | 43/300 [06:42<39:07,  9.14s/it]Train NLL: 8.665, Val NLL: 8.705:  15%|█▍        | 44/300 [06:51<39:01,  9.15s/it]Train NLL: 8.675, Val NLL: 8.734:  15%|█▌        | 45/300 [07:00<38:51,  9.14s/it]Train NLL: 8.679, Val NLL: 8.677:  15%|█▌        | 46/300 [07:09<38:45,  9.16s/it]Train NLL: 8.662, Val NLL: 8.721:  16%|█▌        | 47/300 [07:18<38:37,  9.16s/it]Train NLL: 8.666, Val NLL: 8.690:  16%|█▌        | 48/300 [07:28<38:31,  9.17s/it]Train NLL: 8.675, Val NLL: 8.678:  16%|█▋        | 49/300 [07:37<38:24,  9.18s/it]Train NLL: 8.673, Val NLL: 8.687:  17%|█▋        | 50/300 [07:46<38:26,  9.23s/it]Train NLL: 8.673, Val NLL: 8.676:  17%|█▋        | 51/300 [07:56<38:23,  9.25s/it]Train NLL: 8.663, Val NLL: 8.677:  17%|█▋        | 52/300 [08:05<38:16,  9.26s/it]Train NLL: 8.669, Val NLL: 8.689:  18%|█▊        | 53/300 [08:14<38:10,  9.27s/it]Train NLL: 8.660, Val NLL: 8.699:  18%|█▊        | 54/300 [08:23<38:03,  9.28s/it]Train NLL: 8.664, Val NLL: 8.696:  18%|█▊        | 55/300 [08:33<37:53,  9.28s/it]Train NLL: 8.673, Val NLL: 8.714:  19%|█▊        | 56/300 [08:42<37:46,  9.29s/it]Train NLL: 8.665, Val NLL: 8.721:  19%|█▉        | 57/300 [08:51<37:39,  9.30s/it]Train NLL: 8.668, Val NLL: 8.678:  19%|█▉        | 58/300 [09:01<37:33,  9.31s/it]Train NLL: 8.676, Val NLL: 8.712:  20%|█▉        | 59/300 [09:10<37:24,  9.31s/it]Train NLL: 8.660, Val NLL: 8.704:  20%|██        | 60/300 [09:19<37:11,  9.30s/it]Train NLL: 8.667, Val NLL: 8.719:  20%|██        | 61/300 [09:28<37:00,  9.29s/it]Train NLL: 8.658, Val NLL: 8.750:  21%|██        | 62/300 [09:38<36:48,  9.28s/it]Train NLL: 8.668, Val NLL: 8.697:  21%|██        | 63/300 [09:47<36:39,  9.28s/it]Train NLL: 8.663, Val NLL: 8.676:  21%|██▏       | 64/300 [09:56<36:33,  9.29s/it]Train NLL: 8.658, Val NLL: 8.692:  22%|██▏       | 65/300 [10:06<36:30,  9.32s/it]Train NLL: 8.666, Val NLL: 8.666:  22%|██▏       | 66/300 [10:15<36:27,  9.35s/it]Train NLL: 8.667, Val NLL: 8.678:  22%|██▏       | 67/300 [10:25<36:23,  9.37s/it]Train NLL: 8.648, Val NLL: 8.724:  23%|██▎       | 68/300 [10:34<36:17,  9.38s/it]Train NLL: 8.658, Val NLL: 8.687:  23%|██▎       | 69/300 [10:43<36:05,  9.37s/it]Train NLL: 8.662, Val NLL: 8.698:  23%|██▎       | 70/300 [10:53<35:57,  9.38s/it]Train NLL: 8.653, Val NLL: 8.695:  24%|██▎       | 71/300 [11:02<35:47,  9.38s/it]Train NLL: 8.657, Val NLL: 8.721:  24%|██▍       | 72/300 [11:11<35:38,  9.38s/it]Train NLL: 8.658, Val NLL: 8.675:  24%|██▍       | 73/300 [11:21<35:27,  9.37s/it]Train NLL: 8.660, Val NLL: 8.685:  25%|██▍       | 74/300 [11:30<35:15,  9.36s/it]Train NLL: 8.660, Val NLL: 8.685:  25%|██▌       | 75/300 [11:40<35:04,  9.35s/it]Train NLL: 8.657, Val NLL: 8.681:  25%|██▌       | 76/300 [11:49<34:54,  9.35s/it]Train NLL: 8.663, Val NLL: 8.691:  26%|██▌       | 77/300 [11:58<34:45,  9.35s/it]Train NLL: 8.671, Val NLL: 8.697:  26%|██▌       | 78/300 [12:08<34:36,  9.35s/it]Train NLL: 8.665, Val NLL: 8.684:  26%|██▋       | 79/300 [12:17<34:25,  9.35s/it]Train NLL: 8.665, Val NLL: 8.692:  27%|██▋       | 80/300 [12:26<34:22,  9.37s/it]Train NLL: 8.657, Val NLL: 8.671:  27%|██▋       | 81/300 [12:36<34:10,  9.36s/it]Train NLL: 8.658, Val NLL: 8.681:  27%|██▋       | 82/300 [12:45<34:06,  9.39s/it]Train NLL: 8.654, Val NLL: 8.663:  28%|██▊       | 83/300 [12:55<34:02,  9.41s/it]Train NLL: 8.658, Val NLL: 8.680:  28%|██▊       | 84/300 [13:04<34:02,  9.46s/it]Train NLL: 8.653, Val NLL: 8.667:  28%|██▊       | 85/300 [13:14<33:50,  9.44s/it]Train NLL: 8.649, Val NLL: 8.678:  29%|██▊       | 86/300 [13:23<33:44,  9.46s/it]Train NLL: 8.659, Val NLL: 8.687:  29%|██▉       | 87/300 [13:33<33:33,  9.45s/it]Train NLL: 8.661, Val NLL: 8.674:  29%|██▉       | 88/300 [13:42<33:22,  9.45s/it]Epoch    89: reducing learning rate of group 0 to 1.0000e-03.
Train NLL: 8.655, Val NLL: 8.741:  30%|██▉       | 89/300 [13:51<33:14,  9.45s/it]Train NLL: 8.612, Val NLL: 8.644:  30%|███       | 90/300 [14:01<33:07,  9.46s/it]Train NLL: 8.598, Val NLL: 8.640:  30%|███       | 91/300 [14:10<32:54,  9.45s/it]Train NLL: 8.597, Val NLL: 8.640:  31%|███       | 92/300 [14:20<32:41,  9.43s/it]Train NLL: 8.598, Val NLL: 8.641:  31%|███       | 93/300 [14:29<32:30,  9.42s/it]Train NLL: 8.596, Val NLL: 8.639:  31%|███▏      | 94/300 [14:38<32:19,  9.42s/it]Train NLL: 8.596, Val NLL: 8.641:  32%|███▏      | 95/300 [14:48<32:09,  9.41s/it]Train NLL: 8.595, Val NLL: 8.640:  32%|███▏      | 96/300 [14:57<32:02,  9.42s/it]Train NLL: 8.595, Val NLL: 8.642:  32%|███▏      | 97/300 [15:07<31:52,  9.42s/it]Train NLL: 8.594, Val NLL: 8.641:  33%|███▎      | 98/300 [15:16<31:42,  9.42s/it]Train NLL: 8.596, Val NLL: 8.642:  33%|███▎      | 99/300 [15:26<31:34,  9.42s/it]Train NLL: 8.594, Val NLL: 8.642:  33%|███▎      | 100/300 [15:35<31:29,  9.45s/it]Train NLL: 8.594, Val NLL: 8.641:  34%|███▎      | 101/300 [15:45<31:23,  9.46s/it]Train NLL: 8.595, Val NLL: 8.641:  34%|███▍      | 102/300 [15:54<31:17,  9.48s/it]Train NLL: 8.595, Val NLL: 8.641:  34%|███▍      | 103/300 [16:04<31:06,  9.48s/it]Train NLL: 8.595, Val NLL: 8.642:  35%|███▍      | 104/300 [16:13<30:56,  9.47s/it]Train NLL: 8.594, Val NLL: 8.642:  35%|███▌      | 105/300 [16:23<30:49,  9.48s/it]Train NLL: 8.595, Val NLL: 8.643:  35%|███▌      | 106/300 [16:32<30:40,  9.49s/it]Train NLL: 8.596, Val NLL: 8.641:  36%|███▌      | 107/300 [16:42<30:28,  9.47s/it]Train NLL: 8.593, Val NLL: 8.644:  36%|███▌      | 108/300 [16:51<30:17,  9.47s/it]Train NLL: 8.595, Val NLL: 8.643:  36%|███▋      | 109/300 [17:00<30:09,  9.47s/it]Train NLL: 8.596, Val NLL: 8.640:  37%|███▋      | 110/300 [17:10<30:02,  9.49s/it]Train NLL: 8.593, Val NLL: 8.644:  37%|███▋      | 111/300 [17:19<29:52,  9.48s/it]Train NLL: 8.594, Val NLL: 8.644:  37%|███▋      | 112/300 [17:29<29:44,  9.49s/it]Train NLL: 8.594, Val NLL: 8.640:  38%|███▊      | 113/300 [17:38<29:36,  9.50s/it]Train NLL: 8.592, Val NLL: 8.641:  38%|███▊      | 114/300 [17:48<29:27,  9.50s/it]Train NLL: 8.593, Val NLL: 8.645:  38%|███▊      | 115/300 [17:58<29:20,  9.52s/it]Train NLL: 8.593, Val NLL: 8.642:  39%|███▊      | 116/300 [18:07<29:11,  9.52s/it]Train NLL: 8.593, Val NLL: 8.645:  39%|███▉      | 117/300 [18:17<29:01,  9.51s/it]Train NLL: 8.593, Val NLL: 8.646:  39%|███▉      | 118/300 [18:26<28:52,  9.52s/it]Train NLL: 8.594, Val NLL: 8.642:  40%|███▉      | 119/300 [18:36<28:44,  9.53s/it]Train NLL: 8.593, Val NLL: 8.643:  40%|████      | 120/300 [18:45<28:33,  9.52s/it]Train NLL: 8.594, Val NLL: 8.641:  40%|████      | 121/300 [18:55<28:22,  9.51s/it]Train NLL: 8.593, Val NLL: 8.641:  41%|████      | 122/300 [19:04<28:13,  9.51s/it]Train NLL: 8.593, Val NLL: 8.649:  41%|████      | 123/300 [19:14<28:03,  9.51s/it]Train NLL: 8.594, Val NLL: 8.643:  41%|████▏     | 124/300 [19:23<27:53,  9.51s/it]Train NLL: 8.592, Val NLL: 8.640:  42%|████▏     | 125/300 [19:33<27:42,  9.50s/it]Train NLL: 8.592, Val NLL: 8.642:  42%|████▏     | 126/300 [19:42<27:31,  9.49s/it]Train NLL: 8.592, Val NLL: 8.641:  42%|████▏     | 127/300 [19:52<27:22,  9.49s/it]Train NLL: 8.594, Val NLL: 8.644:  43%|████▎     | 128/300 [20:01<27:15,  9.51s/it]Train NLL: 8.592, Val NLL: 8.643:  43%|████▎     | 129/300 [20:11<27:06,  9.51s/it]Train NLL: 8.593, Val NLL: 8.644:  43%|████▎     | 130/300 [20:20<26:56,  9.51s/it]Train NLL: 8.595, Val NLL: 8.643:  44%|████▎     | 131/300 [20:30<26:45,  9.50s/it]Train NLL: 8.592, Val NLL: 8.642:  44%|████▍     | 132/300 [20:39<26:35,  9.50s/it]Train NLL: 8.592, Val NLL: 8.642:  44%|████▍     | 133/300 [20:49<26:31,  9.53s/it]Train NLL: 8.593, Val NLL: 8.641:  45%|████▍     | 134/300 [20:58<26:25,  9.55s/it]Train NLL: 8.591, Val NLL: 8.646:  45%|████▌     | 135/300 [21:08<26:18,  9.57s/it]Train NLL: 8.593, Val NLL: 8.642:  45%|████▌     | 136/300 [21:18<26:09,  9.57s/it]Train NLL: 8.592, Val NLL: 8.641:  46%|████▌     | 137/300 [21:27<25:58,  9.56s/it]Train NLL: 8.591, Val NLL: 8.646:  46%|████▌     | 138/300 [21:37<25:47,  9.55s/it]Train NLL: 8.590, Val NLL: 8.641:  46%|████▋     | 139/300 [21:46<25:37,  9.55s/it]Train NLL: 8.591, Val NLL: 8.641:  47%|████▋     | 140/300 [21:56<25:27,  9.55s/it]Train NLL: 8.592, Val NLL: 8.644:  47%|████▋     | 141/300 [22:05<25:16,  9.54s/it]Train NLL: 8.592, Val NLL: 8.644:  47%|████▋     | 142/300 [22:15<25:10,  9.56s/it]Train NLL: 8.592, Val NLL: 8.646:  48%|████▊     | 143/300 [22:24<25:02,  9.57s/it]Train NLL: 8.592, Val NLL: 8.647:  48%|████▊     | 144/300 [22:34<24:54,  9.58s/it]Train NLL: 8.593, Val NLL: 8.644:  48%|████▊     | 145/300 [22:44<24:46,  9.59s/it]Train NLL: 8.591, Val NLL: 8.644:  49%|████▊     | 146/300 [22:53<24:39,  9.60s/it]Train NLL: 8.591, Val NLL: 8.642:  49%|████▉     | 147/300 [23:03<24:31,  9.62s/it]Train NLL: 8.592, Val NLL: 8.644:  49%|████▉     | 148/300 [23:13<24:25,  9.64s/it]Train NLL: 8.591, Val NLL: 8.641:  50%|████▉     | 149/300 [23:22<24:15,  9.64s/it]Train NLL: 8.592, Val NLL: 8.647:  50%|█████     | 150/300 [23:32<24:04,  9.63s/it]Train NLL: 8.591, Val NLL: 8.643:  50%|█████     | 151/300 [23:41<23:54,  9.63s/it]Train NLL: 8.590, Val NLL: 8.643:  51%|█████     | 152/300 [23:51<23:47,  9.65s/it]Train NLL: 8.590, Val NLL: 8.644:  51%|█████     | 153/300 [24:01<23:44,  9.69s/it]Train NLL: 8.590, Val NLL: 8.643:  51%|█████▏    | 154/300 [24:11<23:34,  9.69s/it]Train NLL: 8.590, Val NLL: 8.646:  52%|█████▏    | 155/300 [24:20<23:21,  9.67s/it]Train NLL: 8.591, Val NLL: 8.645:  52%|█████▏    | 156/300 [24:30<23:10,  9.66s/it]Train NLL: 8.589, Val NLL: 8.641:  52%|█████▏    | 157/300 [24:40<23:00,  9.65s/it]Train NLL: 8.591, Val NLL: 8.645:  53%|█████▎    | 158/300 [24:49<22:47,  9.63s/it]Train NLL: 8.589, Val NLL: 8.644:  53%|█████▎    | 159/300 [24:59<22:36,  9.62s/it]Epoch   160: reducing learning rate of group 0 to 1.0000e-04.
Train NLL: 8.590, Val NLL: 8.645:  53%|█████▎    | 160/300 [25:08<22:25,  9.61s/it]Train NLL: 8.584, Val NLL: 8.640:  54%|█████▎    | 161/300 [25:18<22:16,  9.62s/it]Train NLL: 8.582, Val NLL: 8.640:  54%|█████▍    | 162/300 [25:28<22:05,  9.60s/it]Train NLL: 8.582, Val NLL: 8.640:  54%|█████▍    | 163/300 [25:37<21:54,  9.60s/it]Train NLL: 8.582, Val NLL: 8.640:  55%|█████▍    | 164/300 [25:47<21:44,  9.59s/it]Train NLL: 8.582, Val NLL: 8.640:  55%|█████▌    | 165/300 [25:56<21:34,  9.59s/it]Train NLL: 8.582, Val NLL: 8.640:  55%|█████▌    | 166/300 [26:06<21:23,  9.58s/it]Train NLL: 8.582, Val NLL: 8.639:  56%|█████▌    | 167/300 [26:15<21:14,  9.59s/it]Train NLL: 8.582, Val NLL: 8.640:  56%|█████▌    | 168/300 [26:25<21:04,  9.58s/it]Train NLL: 8.582, Val NLL: 8.639:  56%|█████▋    | 169/300 [26:35<20:55,  9.58s/it]Train NLL: 8.581, Val NLL: 8.639:  57%|█████▋    | 170/300 [26:44<20:46,  9.59s/it]Train NLL: 8.582, Val NLL: 8.640:  57%|█████▋    | 171/300 [26:54<20:36,  9.59s/it]Train NLL: 8.582, Val NLL: 8.640:  57%|█████▋    | 172/300 [27:03<20:27,  9.59s/it]Train NLL: 8.581, Val NLL: 8.639:  58%|█████▊    | 173/300 [27:13<20:18,  9.59s/it]Train NLL: 8.582, Val NLL: 8.640:  58%|█████▊    | 174/300 [27:23<20:07,  9.59s/it]Train NLL: 8.582, Val NLL: 8.640:  58%|█████▊    | 175/300 [27:32<19:57,  9.58s/it]Train NLL: 8.582, Val NLL: 8.639:  59%|█████▊    | 176/300 [27:42<19:50,  9.60s/it]Train NLL: 8.582, Val NLL: 8.640:  59%|█████▉    | 177/300 [27:51<19:42,  9.61s/it]Train NLL: 8.582, Val NLL: 8.639:  59%|█████▉    | 178/300 [28:01<19:34,  9.63s/it]Train NLL: 8.581, Val NLL: 8.640:  60%|█████▉    | 179/300 [28:11<19:24,  9.63s/it]Train NLL: 8.581, Val NLL: 8.640:  60%|██████    | 180/300 [28:20<19:15,  9.63s/it]Train NLL: 8.581, Val NLL: 8.639:  60%|██████    | 181/300 [28:30<19:05,  9.63s/it]Train NLL: 8.581, Val NLL: 8.639:  61%|██████    | 182/300 [28:40<18:56,  9.63s/it]Epoch   183: reducing learning rate of group 0 to 1.0000e-05.
Train NLL: 8.582, Val NLL: 8.639:  61%|██████    | 183/300 [28:49<18:48,  9.65s/it]Train NLL: 8.581, Val NLL: 8.639:  61%|██████▏   | 184/300 [28:59<18:40,  9.66s/it]Train NLL: 8.580, Val NLL: 8.639:  62%|██████▏   | 185/300 [29:09<18:32,  9.67s/it]Train NLL: 8.580, Val NLL: 8.639:  62%|██████▏   | 186/300 [29:18<18:23,  9.68s/it]Train NLL: 8.580, Val NLL: 8.639:  62%|██████▏   | 187/300 [29:28<18:14,  9.68s/it]Train NLL: 8.580, Val NLL: 8.639:  63%|██████▎   | 188/300 [29:38<18:04,  9.68s/it]Train NLL: 8.580, Val NLL: 8.639:  63%|██████▎   | 189/300 [29:47<17:54,  9.68s/it]Train NLL: 8.580, Val NLL: 8.639:  63%|██████▎   | 190/300 [29:57<17:44,  9.68s/it]Train NLL: 8.580, Val NLL: 8.639:  64%|██████▎   | 191/300 [30:07<17:32,  9.65s/it]Train NLL: 8.580, Val NLL: 8.639:  64%|██████▍   | 192/300 [30:16<17:22,  9.66s/it]Train NLL: 8.580, Val NLL: 8.639:  64%|██████▍   | 193/300 [30:26<17:10,  9.63s/it]Train NLL: 8.580, Val NLL: 8.639:  65%|██████▍   | 194/300 [30:36<17:00,  9.63s/it]Train NLL: 8.580, Val NLL: 8.639:  65%|██████▌   | 195/300 [30:45<16:50,  9.62s/it]Train NLL: 8.580, Val NLL: 8.639:  65%|██████▌   | 196/300 [30:55<16:41,  9.63s/it]Train NLL: 8.580, Val NLL: 8.639:  66%|██████▌   | 197/300 [31:04<16:29,  9.61s/it]Train NLL: 8.580, Val NLL: 8.639:  66%|██████▌   | 198/300 [31:14<16:22,  9.63s/it]Train NLL: 8.580, Val NLL: 8.639:  66%|██████▋   | 199/300 [31:24<16:17,  9.67s/it]Train NLL: 8.580, Val NLL: 8.639:  67%|██████▋   | 200/300 [31:34<16:11,  9.71s/it]Train NLL: 8.580, Val NLL: 8.639:  67%|██████▋   | 201/300 [31:43<16:00,  9.70s/it]Train NLL: 8.580, Val NLL: 8.639:  67%|██████▋   | 202/300 [31:53<15:49,  9.69s/it]Train NLL: 8.580, Val NLL: 8.639:  68%|██████▊   | 203/300 [32:03<15:39,  9.69s/it]Train NLL: 8.580, Val NLL: 8.639:  68%|██████▊   | 204/300 [32:12<15:28,  9.67s/it]Epoch   205: reducing learning rate of group 0 to 1.0000e-06.
Train NLL: 8.580, Val NLL: 8.639:  68%|██████▊   | 205/300 [32:22<15:16,  9.65s/it]Train NLL: 8.580, Val NLL: 8.639:  69%|██████▊   | 206/300 [32:31<15:06,  9.65s/it]Train NLL: 8.580, Val NLL: 8.639:  69%|██████▉   | 207/300 [32:41<14:57,  9.65s/it]Train NLL: 8.580, Val NLL: 8.639:  69%|██████▉   | 208/300 [32:51<14:46,  9.63s/it]Train NLL: 8.580, Val NLL: 8.639:  70%|██████▉   | 209/300 [33:00<14:35,  9.62s/it]Train NLL: 8.580, Val NLL: 8.639:  70%|███████   | 210/300 [33:10<14:25,  9.61s/it]Train NLL: 8.580, Val NLL: 8.639:  70%|███████   | 211/300 [33:20<14:16,  9.62s/it]Train NLL: 8.580, Val NLL: 8.639:  71%|███████   | 212/300 [33:29<14:07,  9.63s/it]Train NLL: 8.580, Val NLL: 8.639:  71%|███████   | 213/300 [33:39<13:57,  9.63s/it]Train NLL: 8.580, Val NLL: 8.639:  71%|███████▏  | 214/300 [33:48<13:47,  9.63s/it]Train NLL: 8.580, Val NLL: 8.639:  72%|███████▏  | 215/300 [33:58<13:37,  9.62s/it]Train NLL: 8.580, Val NLL: 8.639:  72%|███████▏  | 216/300 [34:08<13:28,  9.62s/it]Train NLL: 8.580, Val NLL: 8.639:  72%|███████▏  | 217/300 [34:17<13:19,  9.63s/it]Train NLL: 8.580, Val NLL: 8.639:  73%|███████▎  | 218/300 [34:27<13:09,  9.63s/it]Train NLL: 8.580, Val NLL: 8.639:  73%|███████▎  | 219/300 [34:37<12:59,  9.62s/it]Train NLL: 8.580, Val NLL: 8.639:  73%|███████▎  | 220/300 [34:46<12:49,  9.62s/it]Train NLL: 8.580, Val NLL: 8.639:  74%|███████▎  | 221/300 [34:56<12:39,  9.62s/it]Train NLL: 8.580, Val NLL: 8.639:  74%|███████▍  | 222/300 [35:05<12:29,  9.61s/it]Train NLL: 8.580, Val NLL: 8.639:  74%|███████▍  | 223/300 [35:15<12:20,  9.61s/it]Train NLL: 8.580, Val NLL: 8.639:  75%|███████▍  | 224/300 [35:25<12:10,  9.61s/it]Train NLL: 8.580, Val NLL: 8.639:  75%|███████▌  | 225/300 [35:34<12:00,  9.61s/it]Train NLL: 8.580, Val NLL: 8.639:  75%|███████▌  | 226/300 [35:44<11:50,  9.60s/it]Train NLL: 8.580, Val NLL: 8.639:  76%|███████▌  | 227/300 [35:53<11:41,  9.60s/it]Train NLL: 8.580, Val NLL: 8.639:  76%|███████▌  | 228/300 [36:03<11:33,  9.63s/it]Train NLL: 8.580, Val NLL: 8.639:  76%|███████▋  | 229/300 [36:13<11:24,  9.65s/it]Train NLL: 8.580, Val NLL: 8.639:  77%|███████▋  | 230/300 [36:22<11:16,  9.66s/it]Train NLL: 8.580, Val NLL: 8.639:  77%|███████▋  | 231/300 [36:32<11:05,  9.65s/it]Train NLL: 8.580, Val NLL: 8.639:  77%|███████▋  | 232/300 [36:42<10:55,  9.64s/it]Train NLL: 8.580, Val NLL: 8.639:  78%|███████▊  | 233/300 [36:51<10:46,  9.64s/it]Train NLL: 8.580, Val NLL: 8.639:  78%|███████▊  | 234/300 [37:01<10:37,  9.66s/it]Train NLL: 8.580, Val NLL: 8.639:  78%|███████▊  | 235/300 [37:11<10:27,  9.66s/it]Train NLL: 8.580, Val NLL: 8.639:  79%|███████▊  | 236/300 [37:20<10:17,  9.65s/it]Train NLL: 8.580, Val NLL: 8.639:  79%|███████▉  | 237/300 [37:30<10:08,  9.66s/it]Train NLL: 8.580, Val NLL: 8.639:  79%|███████▉  | 238/300 [37:40<09:58,  9.65s/it]Train NLL: 8.580, Val NLL: 8.639:  80%|███████▉  | 239/300 [37:49<09:48,  9.64s/it]Train NLL: 8.580, Val NLL: 8.639:  80%|████████  | 240/300 [37:59<09:39,  9.66s/it]Train NLL: 8.580, Val NLL: 8.639:  80%|████████  | 241/300 [38:09<09:29,  9.65s/it]Train NLL: 8.580, Val NLL: 8.639:  81%|████████  | 242/300 [38:18<09:19,  9.65s/it]Train NLL: 8.580, Val NLL: 8.639:  81%|████████  | 243/300 [38:28<09:09,  9.64s/it]Train NLL: 8.580, Val NLL: 8.639:  81%|████████▏ | 244/300 [38:38<09:01,  9.66s/it]Train NLL: 8.580, Val NLL: 8.639:  82%|████████▏ | 245/300 [38:47<08:51,  9.67s/it]Train NLL: 8.580, Val NLL: 8.639:  82%|████████▏ | 246/300 [38:57<08:43,  9.70s/it]Train NLL: 8.580, Val NLL: 8.639:  82%|████████▏ | 247/300 [39:07<08:34,  9.71s/it]Train NLL: 8.580, Val NLL: 8.639:  83%|████████▎ | 248/300 [39:16<08:24,  9.70s/it]Train NLL: 8.580, Val NLL: 8.639:  83%|████████▎ | 249/300 [39:26<08:14,  9.69s/it]Train NLL: 8.580, Val NLL: 8.639:  83%|████████▎ | 250/300 [39:36<08:04,  9.69s/it]Train NLL: 8.580, Val NLL: 8.639:  84%|████████▎ | 251/300 [39:46<07:54,  9.69s/it]Train NLL: 8.580, Val NLL: 8.639:  84%|████████▍ | 252/300 [39:55<07:45,  9.70s/it]Train NLL: 8.580, Val NLL: 8.639:  84%|████████▍ | 253/300 [40:05<07:35,  9.69s/it]Train NLL: 8.580, Val NLL: 8.639:  85%|████████▍ | 254/300 [40:15<07:25,  9.69s/it]Train NLL: 8.580, Val NLL: 8.639:  85%|████████▌ | 255/300 [40:24<07:15,  9.68s/it]Train NLL: 8.580, Val NLL: 8.639:  85%|████████▌ | 256/300 [40:34<07:05,  9.68s/it]Train NLL: 8.580, Val NLL: 8.639:  86%|████████▌ | 257/300 [40:44<06:56,  9.68s/it]Train NLL: 8.580, Val NLL: 8.639:  86%|████████▌ | 258/300 [40:53<06:46,  9.67s/it]Train NLL: 8.580, Val NLL: 8.639:  86%|████████▋ | 259/300 [41:03<06:36,  9.68s/it]Train NLL: 8.580, Val NLL: 8.639:  87%|████████▋ | 260/300 [41:13<06:27,  9.69s/it]Train NLL: 8.580, Val NLL: 8.639:  87%|████████▋ | 261/300 [41:22<06:17,  9.69s/it]Train NLL: 8.580, Val NLL: 8.639:  87%|████████▋ | 262/300 [41:32<06:09,  9.72s/it]Train NLL: 8.580, Val NLL: 8.639:  88%|████████▊ | 263/300 [41:42<05:59,  9.73s/it]Train NLL: 8.580, Val NLL: 8.639:  88%|████████▊ | 264/300 [41:52<05:49,  9.72s/it]Train NLL: 8.580, Val NLL: 8.639:  88%|████████▊ | 265/300 [42:01<05:40,  9.73s/it]Train NLL: 8.580, Val NLL: 8.639:  89%|████████▊ | 266/300 [42:11<05:31,  9.74s/it]Train NLL: 8.580, Val NLL: 8.639:  89%|████████▉ | 267/300 [42:21<05:21,  9.74s/it]Train NLL: 8.580, Val NLL: 8.639:  89%|████████▉ | 268/300 [42:31<05:11,  9.75s/it]Train NLL: 8.580, Val NLL: 8.639:  90%|████████▉ | 269/300 [42:40<05:02,  9.77s/it]Train NLL: 8.580, Val NLL: 8.639:  90%|█████████ | 270/300 [42:50<04:53,  9.77s/it]Train NLL: 8.580, Val NLL: 8.639:  90%|█████████ | 271/300 [43:00<04:43,  9.76s/it]Train NLL: 8.580, Val NLL: 8.639:  91%|█████████ | 272/300 [43:10<04:32,  9.74s/it]Train NLL: 8.580, Val NLL: 8.639:  91%|█████████ | 273/300 [43:19<04:22,  9.73s/it]Train NLL: 8.580, Val NLL: 8.639:  91%|█████████▏| 274/300 [43:29<04:12,  9.72s/it]Train NLL: 8.580, Val NLL: 8.639:  92%|█████████▏| 275/300 [43:39<04:03,  9.72s/it]Train NLL: 8.580, Val NLL: 8.639:  92%|█████████▏| 276/300 [43:48<03:52,  9.71s/it]Train NLL: 8.580, Val NLL: 8.639:  92%|█████████▏| 277/300 [43:58<03:42,  9.70s/it]Train NLL: 8.580, Val NLL: 8.639:  93%|█████████▎| 278/300 [44:08<03:33,  9.68s/it]Train NLL: 8.580, Val NLL: 8.639:  93%|█████████▎| 279/300 [44:17<03:23,  9.68s/it]Train NLL: 8.580, Val NLL: 8.639:  93%|█████████▎| 280/300 [44:27<03:13,  9.69s/it]Train NLL: 8.580, Val NLL: 8.639:  94%|█████████▎| 281/300 [44:37<03:03,  9.68s/it]Train NLL: 8.580, Val NLL: 8.639:  94%|█████████▍| 282/300 [44:47<02:55,  9.72s/it]Train NLL: 8.580, Val NLL: 8.639:  94%|█████████▍| 283/300 [44:56<02:45,  9.74s/it]Train NLL: 8.580, Val NLL: 8.639:  95%|█████████▍| 284/300 [45:06<02:35,  9.74s/it]Train NLL: 8.580, Val NLL: 8.639:  95%|█████████▌| 285/300 [45:16<02:25,  9.73s/it]Train NLL: 8.580, Val NLL: 8.639:  95%|█████████▌| 286/300 [45:26<02:16,  9.73s/it]Train NLL: 8.580, Val NLL: 8.639:  96%|█████████▌| 287/300 [45:35<02:06,  9.71s/it]Train NLL: 8.580, Val NLL: 8.639:  96%|█████████▌| 288/300 [45:45<01:56,  9.70s/it]Train NLL: 8.580, Val NLL: 8.639:  96%|█████████▋| 289/300 [45:55<01:46,  9.70s/it]Train NLL: 8.580, Val NLL: 8.639:  97%|█████████▋| 290/300 [46:04<01:36,  9.69s/it]Train NLL: 8.580, Val NLL: 8.639:  97%|█████████▋| 291/300 [46:14<01:27,  9.68s/it]Train NLL: 8.580, Val NLL: 8.639:  97%|█████████▋| 292/300 [46:24<01:17,  9.69s/it]Train NLL: 8.580, Val NLL: 8.639:  98%|█████████▊| 293/300 [46:33<01:07,  9.68s/it]Train NLL: 8.580, Val NLL: 8.639:  98%|█████████▊| 294/300 [46:43<00:58,  9.72s/it]Train NLL: 8.580, Val NLL: 8.639:  98%|█████████▊| 295/300 [46:53<00:48,  9.71s/it]Train NLL: 8.580, Val NLL: 8.639:  99%|█████████▊| 296/300 [47:03<00:38,  9.71s/it]Train NLL: 8.580, Val NLL: 8.639:  99%|█████████▉| 297/300 [47:12<00:29,  9.72s/it]Train NLL: 8.580, Val NLL: 8.639:  99%|█████████▉| 298/300 [47:22<00:19,  9.71s/it]Train NLL: 8.580, Val NLL: 8.639: 100%|█████████▉| 299/300 [47:32<00:09,  9.70s/it]Train NLL: 8.580, Val NLL: 8.639: 100%|██████████| 300/300 [47:41<00:00,  9.72s/it]Train NLL: 8.580, Val NLL: 8.639: 100%|██████████| 300/300 [47:41<00:00,  9.54s/it]
INFO - residual_nf - Completed after 0:47:45
