INFO - discrete_nf - Running command 'run'
INFO - discrete_nf - Started run with ID "2"
[CONFIG] {'bn': 'tree', 'conditioner_type': 'dag', 'normalizer_type': 'monotonic', 'int_net_hidden': [100], 'int_net_final_activation': 'elu', 'cond_size': 10, 'mono_num_steps': 15, 'mono_solver': 'CC', 'num_flow_steps': 2, 'hidden_dims': [50], 'batch_size': 100, 'num_train_samples': 10000, 'num_val_samples': 5000, 'num_epochs': 200, 'num_train_batches': 100, 'num_val_batches': 50, 'lr': 0.001, 'seed': 1, 'patience': 10, 'run': 1, 'double': False, 'checkpoint_n': 10, 'load_from_checkpoint': False, 'ex_name': 'discrete_nf_density_estimation', 'sub_folder': 'dag_monotonic_2_[50]', 'path': './experiment_logs/discrete_nf_density_estimation/tree/dag_monotonic_2_[50]', 'bt_config': {'depth': 5, 'seed': 4}}
[DEVICE] cuda:0
  0%|          | 0/200 [00:00<?, ?it/s]Train NLL: 9.896, Val NLL: 9.409:   0%|          | 1/200 [00:04<13:21,  4.03s/it]Train NLL: 9.153, Val NLL: 9.066:   1%|          | 2/200 [00:06<10:58,  3.32s/it]Train NLL: 8.927, Val NLL: 8.886:   2%|▏         | 3/200 [00:09<10:09,  3.10s/it]Train NLL: 8.845, Val NLL: 8.845:   2%|▏         | 4/200 [00:12<09:55,  3.04s/it]Train NLL: 8.797, Val NLL: 8.802:   2%|▎         | 5/200 [00:15<09:38,  2.96s/it]Train NLL: 8.767, Val NLL: 8.768:   3%|▎         | 6/200 [00:18<09:24,  2.91s/it]Train NLL: 8.737, Val NLL: 8.752:   4%|▎         | 7/200 [00:21<09:17,  2.89s/it]Train NLL: 8.716, Val NLL: 8.733:   4%|▍         | 8/200 [00:23<09:10,  2.87s/it]Train NLL: 8.704, Val NLL: 8.720:   4%|▍         | 9/200 [00:26<09:04,  2.85s/it]Train NLL: 8.692, Val NLL: 8.723:   5%|▌         | 10/200 [00:29<08:59,  2.84s/it]Train NLL: 8.688, Val NLL: 8.702:   6%|▌         | 11/200 [00:32<08:55,  2.83s/it]Train NLL: 8.676, Val NLL: 8.697:   6%|▌         | 12/200 [00:35<08:51,  2.83s/it]Train NLL: 8.676, Val NLL: 8.718:   6%|▋         | 13/200 [00:38<08:47,  2.82s/it]Train NLL: 8.667, Val NLL: 8.683:   7%|▋         | 14/200 [00:40<08:43,  2.81s/it]Train NLL: 8.655, Val NLL: 8.684:   8%|▊         | 15/200 [00:43<08:43,  2.83s/it]Train NLL: 8.655, Val NLL: 8.676:   8%|▊         | 16/200 [00:46<08:40,  2.83s/it]Train NLL: 8.653, Val NLL: 8.675:   8%|▊         | 17/200 [00:49<08:37,  2.83s/it]Train NLL: 8.647, Val NLL: 8.687:   9%|▉         | 18/200 [00:52<08:36,  2.84s/it]Train NLL: 8.644, Val NLL: 8.675:  10%|▉         | 19/200 [00:55<08:39,  2.87s/it]Train NLL: 8.641, Val NLL: 8.667:  10%|█         | 20/200 [00:58<08:40,  2.89s/it]Train NLL: 8.634, Val NLL: 8.670:  10%|█         | 21/200 [01:00<08:37,  2.89s/it]Train NLL: 8.633, Val NLL: 8.669:  11%|█         | 22/200 [01:03<08:36,  2.90s/it]Train NLL: 8.631, Val NLL: 8.676:  12%|█▏        | 23/200 [01:06<08:35,  2.91s/it]Train NLL: 8.629, Val NLL: 8.702:  12%|█▏        | 24/200 [01:09<08:30,  2.90s/it]Train NLL: 8.635, Val NLL: 8.681:  12%|█▎        | 25/200 [01:12<08:28,  2.91s/it]Train NLL: 8.629, Val NLL: 8.662:  13%|█▎        | 26/200 [01:15<08:25,  2.91s/it]Train NLL: 8.625, Val NLL: 8.664:  14%|█▎        | 27/200 [01:18<08:22,  2.90s/it]Train NLL: 8.622, Val NLL: 8.657:  14%|█▍        | 28/200 [01:21<08:19,  2.91s/it]Train NLL: 8.624, Val NLL: 8.652:  14%|█▍        | 29/200 [01:24<08:16,  2.90s/it]Train NLL: 8.618, Val NLL: 8.651:  15%|█▌        | 30/200 [01:27<08:17,  2.93s/it]Train NLL: 8.623, Val NLL: 8.654:  16%|█▌        | 31/200 [01:30<08:13,  2.92s/it]Train NLL: 8.619, Val NLL: 8.654:  16%|█▌        | 32/200 [01:33<08:09,  2.91s/it]Train NLL: 8.615, Val NLL: 8.665:  16%|█▋        | 33/200 [01:35<08:06,  2.91s/it]Train NLL: 8.621, Val NLL: 8.663:  17%|█▋        | 34/200 [01:38<08:02,  2.91s/it]Train NLL: 8.618, Val NLL: 8.671:  18%|█▊        | 35/200 [01:41<08:01,  2.92s/it]Train NLL: 8.612, Val NLL: 8.650:  18%|█▊        | 36/200 [01:44<08:00,  2.93s/it]Train NLL: 8.612, Val NLL: 8.642:  18%|█▊        | 37/200 [01:47<07:56,  2.93s/it]Train NLL: 8.612, Val NLL: 8.667:  19%|█▉        | 38/200 [01:50<07:53,  2.92s/it]Train NLL: 8.608, Val NLL: 8.660:  20%|█▉        | 39/200 [01:53<07:48,  2.91s/it]Train NLL: 8.611, Val NLL: 8.661:  20%|██        | 40/200 [01:56<07:43,  2.90s/it]Train NLL: 8.607, Val NLL: 8.673:  20%|██        | 41/200 [01:59<07:42,  2.91s/it]Train NLL: 8.611, Val NLL: 8.650:  21%|██        | 42/200 [02:02<07:40,  2.91s/it]Train NLL: 8.608, Val NLL: 8.646:  22%|██▏       | 43/200 [02:05<07:35,  2.90s/it]Train NLL: 8.607, Val NLL: 8.652:  22%|██▏       | 44/200 [02:07<07:31,  2.90s/it]Train NLL: 8.604, Val NLL: 8.672:  22%|██▎       | 45/200 [02:10<07:31,  2.91s/it]Train NLL: 8.605, Val NLL: 8.646:  23%|██▎       | 46/200 [02:13<07:30,  2.93s/it]Train NLL: 8.605, Val NLL: 8.657:  24%|██▎       | 47/200 [02:16<07:23,  2.90s/it]Train NLL: 8.603, Val NLL: 8.645:  24%|██▍       | 48/200 [02:19<07:16,  2.87s/it]Train NLL: 8.605, Val NLL: 8.650:  24%|██▍       | 49/200 [02:22<07:11,  2.86s/it]Train NLL: 8.603, Val NLL: 8.662:  25%|██▌       | 50/200 [02:25<07:08,  2.85s/it]Train NLL: 8.598, Val NLL: 8.645:  26%|██▌       | 51/200 [02:28<07:10,  2.89s/it]Train NLL: 8.598, Val NLL: 8.650:  26%|██▌       | 52/200 [02:31<07:08,  2.90s/it]Train NLL: 8.597, Val NLL: 8.654:  26%|██▋       | 53/200 [02:33<07:02,  2.88s/it]Train NLL: 8.603, Val NLL: 8.657:  27%|██▋       | 54/200 [02:36<06:57,  2.86s/it]Train NLL: 8.599, Val NLL: 8.647:  28%|██▊       | 55/200 [02:39<06:54,  2.86s/it]Train NLL: 8.602, Val NLL: 8.660:  28%|██▊       | 56/200 [02:42<06:53,  2.87s/it]Train NLL: 8.602, Val NLL: 8.639:  28%|██▊       | 57/200 [02:45<06:48,  2.85s/it]Train NLL: 8.602, Val NLL: 8.652:  29%|██▉       | 58/200 [02:48<06:44,  2.85s/it]Train NLL: 8.601, Val NLL: 8.640:  30%|██▉       | 59/200 [02:50<06:41,  2.85s/it]Train NLL: 8.595, Val NLL: 8.642:  30%|███       | 60/200 [02:53<06:37,  2.84s/it]Train NLL: 8.594, Val NLL: 8.640:  30%|███       | 61/200 [02:56<06:34,  2.83s/it]Train NLL: 8.597, Val NLL: 8.645:  31%|███       | 62/200 [02:59<06:31,  2.84s/it]Train NLL: 8.601, Val NLL: 8.645:  32%|███▏      | 63/200 [03:02<06:30,  2.85s/it]Train NLL: 8.595, Val NLL: 8.656:  32%|███▏      | 64/200 [03:05<06:32,  2.89s/it]Train NLL: 8.591, Val NLL: 8.643:  32%|███▎      | 65/200 [03:08<06:32,  2.91s/it]Train NLL: 8.595, Val NLL: 8.656:  33%|███▎      | 66/200 [03:11<06:28,  2.90s/it]Train NLL: 8.595, Val NLL: 8.645:  34%|███▎      | 67/200 [03:14<06:25,  2.90s/it]Train NLL: 8.593, Val NLL: 8.645:  34%|███▍      | 68/200 [03:16<06:19,  2.88s/it]Train NLL: 8.595, Val NLL: 8.667:  34%|███▍      | 69/200 [03:19<06:16,  2.87s/it]Train NLL: 8.590, Val NLL: 8.642:  35%|███▌      | 70/200 [03:22<06:15,  2.89s/it]Train NLL: 8.592, Val NLL: 8.646:  36%|███▌      | 71/200 [03:25<06:11,  2.88s/it]Train NLL: 8.590, Val NLL: 8.649:  36%|███▌      | 72/200 [03:28<06:06,  2.86s/it]Train NLL: 8.590, Val NLL: 8.652:  36%|███▋      | 73/200 [03:31<06:02,  2.85s/it]Train NLL: 8.596, Val NLL: 8.648:  37%|███▋      | 74/200 [03:33<05:58,  2.84s/it]Train NLL: 8.592, Val NLL: 8.653:  38%|███▊      | 75/200 [03:36<05:56,  2.85s/it]Train NLL: 8.593, Val NLL: 8.644:  38%|███▊      | 76/200 [03:39<05:53,  2.85s/it]Train NLL: 8.585, Val NLL: 8.643:  38%|███▊      | 77/200 [03:42<05:49,  2.84s/it]Train NLL: 8.588, Val NLL: 8.640:  39%|███▉      | 78/200 [03:45<05:45,  2.83s/it]Train NLL: 8.588, Val NLL: 8.670:  40%|███▉      | 79/200 [03:48<05:44,  2.84s/it]Train NLL: 8.596, Val NLL: 8.646:  40%|████      | 80/200 [03:51<05:44,  2.87s/it]Train NLL: 8.601, Val NLL: 8.653:  40%|████      | 81/200 [03:54<05:44,  2.89s/it]Train NLL: 8.589, Val NLL: 8.660:  41%|████      | 82/200 [03:56<05:40,  2.88s/it]Train NLL: 8.592, Val NLL: 8.648:  42%|████▏     | 83/200 [03:59<05:35,  2.87s/it]Train NLL: 8.587, Val NLL: 8.646:  42%|████▏     | 84/200 [04:02<05:30,  2.85s/it]Train NLL: 8.584, Val NLL: 8.644:  42%|████▎     | 85/200 [04:05<05:27,  2.85s/it]Train NLL: 8.588, Val NLL: 8.651:  43%|████▎     | 86/200 [04:08<05:24,  2.85s/it]Train NLL: 8.588, Val NLL: 8.658:  44%|████▎     | 87/200 [04:11<05:21,  2.85s/it]Train NLL: 8.585, Val NLL: 8.648:  44%|████▍     | 88/200 [04:13<05:18,  2.85s/it]Train NLL: 8.588, Val NLL: 8.686:  44%|████▍     | 89/200 [04:16<05:17,  2.86s/it]Train NLL: 8.589, Val NLL: 8.639:  45%|████▌     | 90/200 [04:19<05:15,  2.87s/it]Train NLL: 8.592, Val NLL: 8.650:  46%|████▌     | 91/200 [04:22<05:11,  2.86s/it]Train NLL: 8.586, Val NLL: 8.655:  46%|████▌     | 92/200 [04:25<05:07,  2.85s/it]Train NLL: 8.588, Val NLL: 8.643:  46%|████▋     | 93/200 [04:28<05:04,  2.84s/it]Train NLL: 8.592, Val NLL: 8.646:  47%|████▋     | 94/200 [04:31<05:00,  2.84s/it]Train NLL: 8.586, Val NLL: 8.651:  48%|████▊     | 95/200 [04:33<04:57,  2.83s/it]Epoch    96: reducing learning rate of group 0 to 1.0000e-04.
Train NLL: 8.585, Val NLL: 8.651:  48%|████▊     | 96/200 [04:36<04:55,  2.84s/it]Train NLL: 8.563, Val NLL: 8.628:  48%|████▊     | 97/200 [04:39<04:52,  2.84s/it]Train NLL: 8.560, Val NLL: 8.630:  49%|████▉     | 98/200 [04:42<04:49,  2.84s/it]Train NLL: 8.559, Val NLL: 8.629:  50%|████▉     | 99/200 [04:45<04:46,  2.83s/it]Train NLL: 8.558, Val NLL: 8.632:  50%|█████     | 100/200 [04:48<04:44,  2.84s/it]Train NLL: 8.559, Val NLL: 8.629:  50%|█████     | 101/200 [04:50<04:40,  2.83s/it]Train NLL: 8.559, Val NLL: 8.628:  51%|█████     | 102/200 [04:53<04:37,  2.83s/it]Train NLL: 8.559, Val NLL: 8.629:  52%|█████▏    | 103/200 [04:56<04:34,  2.83s/it]Train NLL: 8.559, Val NLL: 8.629:  52%|█████▏    | 104/200 [04:59<04:31,  2.82s/it]Train NLL: 8.559, Val NLL: 8.627:  52%|█████▎    | 105/200 [05:02<04:28,  2.82s/it]Train NLL: 8.558, Val NLL: 8.630:  53%|█████▎    | 106/200 [05:05<04:25,  2.83s/it]Train NLL: 8.559, Val NLL: 8.632:  54%|█████▎    | 107/200 [05:07<04:23,  2.84s/it]Train NLL: 8.558, Val NLL: 8.629:  54%|█████▍    | 108/200 [05:10<04:21,  2.84s/it]Train NLL: 8.558, Val NLL: 8.630:  55%|█████▍    | 109/200 [05:13<04:19,  2.85s/it]Train NLL: 8.558, Val NLL: 8.629:  55%|█████▌    | 110/200 [05:16<04:19,  2.88s/it]Epoch   111: reducing learning rate of group 0 to 1.0000e-05.
Train NLL: 8.558, Val NLL: 8.628:  56%|█████▌    | 111/200 [05:19<04:15,  2.87s/it]Train NLL: 8.555, Val NLL: 8.628:  56%|█████▌    | 112/200 [05:22<04:11,  2.85s/it]Train NLL: 8.555, Val NLL: 8.628:  56%|█████▋    | 113/200 [05:25<04:07,  2.84s/it]Train NLL: 8.555, Val NLL: 8.628:  57%|█████▋    | 114/200 [05:27<04:04,  2.84s/it]Train NLL: 8.555, Val NLL: 8.628:  57%|█████▊    | 115/200 [05:30<04:01,  2.84s/it]Train NLL: 8.555, Val NLL: 8.628:  58%|█████▊    | 116/200 [05:33<03:57,  2.83s/it]Train NLL: 8.555, Val NLL: 8.628:  58%|█████▊    | 117/200 [05:36<03:55,  2.84s/it]Train NLL: 8.555, Val NLL: 8.628:  59%|█████▉    | 118/200 [05:39<03:52,  2.84s/it]Train NLL: 8.555, Val NLL: 8.628:  60%|█████▉    | 119/200 [05:42<03:49,  2.83s/it]Train NLL: 8.555, Val NLL: 8.628:  60%|██████    | 120/200 [05:44<03:46,  2.83s/it]Train NLL: 8.555, Val NLL: 8.628:  60%|██████    | 121/200 [05:47<03:43,  2.83s/it]Train NLL: 8.555, Val NLL: 8.628:  61%|██████    | 122/200 [05:50<03:40,  2.83s/it]Epoch   123: reducing learning rate of group 0 to 1.0000e-06.
Train NLL: 8.555, Val NLL: 8.628:  62%|██████▏   | 123/200 [05:53<03:37,  2.83s/it]Train NLL: 8.554, Val NLL: 8.628:  62%|██████▏   | 124/200 [05:56<03:34,  2.83s/it]Train NLL: 8.554, Val NLL: 8.628:  62%|██████▎   | 125/200 [05:58<03:32,  2.83s/it]Train NLL: 8.554, Val NLL: 8.628:  63%|██████▎   | 126/200 [06:01<03:29,  2.83s/it]Train NLL: 8.554, Val NLL: 8.628:  64%|██████▎   | 127/200 [06:04<03:27,  2.84s/it]Train NLL: 8.554, Val NLL: 8.628:  64%|██████▍   | 128/200 [06:07<03:26,  2.87s/it]Train NLL: 8.554, Val NLL: 8.628:  64%|██████▍   | 129/200 [06:10<03:24,  2.88s/it]Train NLL: 8.554, Val NLL: 8.628:  65%|██████▌   | 130/200 [06:13<03:22,  2.90s/it]Train NLL: 8.554, Val NLL: 8.628:  66%|██████▌   | 131/200 [06:16<03:22,  2.93s/it]Train NLL: 8.554, Val NLL: 8.628:  66%|██████▌   | 132/200 [06:19<03:20,  2.94s/it]Train NLL: 8.554, Val NLL: 8.628:  66%|██████▋   | 133/200 [06:22<03:18,  2.96s/it]Train NLL: 8.554, Val NLL: 8.628:  67%|██████▋   | 134/200 [06:25<03:16,  2.97s/it]Train NLL: 8.554, Val NLL: 8.628:  68%|██████▊   | 135/200 [06:28<03:12,  2.97s/it]Train NLL: 8.554, Val NLL: 8.628:  68%|██████▊   | 136/200 [06:31<03:09,  2.96s/it]Train NLL: 8.554, Val NLL: 8.628:  68%|██████▊   | 137/200 [06:34<03:06,  2.96s/it]Train NLL: 8.554, Val NLL: 8.628:  69%|██████▉   | 138/200 [06:37<03:02,  2.94s/it]Train NLL: 8.554, Val NLL: 8.628:  70%|██████▉   | 139/200 [06:40<02:58,  2.92s/it]Train NLL: 8.554, Val NLL: 8.628:  70%|███████   | 140/200 [06:43<02:56,  2.94s/it]Train NLL: 8.554, Val NLL: 8.628:  70%|███████   | 141/200 [06:45<02:53,  2.93s/it]Train NLL: 8.554, Val NLL: 8.628:  71%|███████   | 142/200 [06:48<02:50,  2.94s/it]Train NLL: 8.554, Val NLL: 8.628:  72%|███████▏  | 143/200 [06:51<02:45,  2.90s/it]Train NLL: 8.554, Val NLL: 8.628:  72%|███████▏  | 144/200 [06:54<02:42,  2.90s/it]Train NLL: 8.554, Val NLL: 8.628:  72%|███████▎  | 145/200 [06:57<02:39,  2.89s/it]Train NLL: 8.554, Val NLL: 8.628:  73%|███████▎  | 146/200 [07:00<02:35,  2.88s/it]Train NLL: 8.554, Val NLL: 8.628:  74%|███████▎  | 147/200 [07:05<03:02,  3.45s/it]Train NLL: 8.554, Val NLL: 8.628:  74%|███████▍  | 148/200 [07:07<02:49,  3.27s/it]Train NLL: 8.554, Val NLL: 8.628:  74%|███████▍  | 149/200 [07:10<02:40,  3.14s/it]Train NLL: 8.554, Val NLL: 8.628:  75%|███████▌  | 150/200 [07:13<02:32,  3.05s/it]Train NLL: 8.554, Val NLL: 8.628:  76%|███████▌  | 151/200 [07:16<02:27,  3.01s/it]Train NLL: 8.554, Val NLL: 8.628:  76%|███████▌  | 152/200 [07:19<02:23,  2.99s/it]Train NLL: 8.554, Val NLL: 8.628:  76%|███████▋  | 153/200 [07:22<02:18,  2.94s/it]Train NLL: 8.554, Val NLL: 8.628:  77%|███████▋  | 154/200 [07:25<02:13,  2.91s/it]Train NLL: 8.554, Val NLL: 8.628:  78%|███████▊  | 155/200 [07:28<02:09,  2.89s/it]Train NLL: 8.554, Val NLL: 8.628:  78%|███████▊  | 156/200 [07:30<02:06,  2.88s/it]Train NLL: 8.554, Val NLL: 8.628:  78%|███████▊  | 157/200 [07:33<02:03,  2.87s/it]Train NLL: 8.554, Val NLL: 8.628:  79%|███████▉  | 158/200 [07:36<02:00,  2.86s/it]Train NLL: 8.554, Val NLL: 8.628:  80%|███████▉  | 159/200 [07:39<01:57,  2.87s/it]Train NLL: 8.554, Val NLL: 8.628:  80%|████████  | 160/200 [07:42<01:54,  2.86s/it]Train NLL: 8.554, Val NLL: 8.628:  80%|████████  | 161/200 [07:45<01:52,  2.89s/it]Train NLL: 8.554, Val NLL: 8.628:  81%|████████  | 162/200 [07:48<01:49,  2.87s/it]Train NLL: 8.554, Val NLL: 8.628:  82%|████████▏ | 163/200 [07:50<01:46,  2.87s/it]Train NLL: 8.554, Val NLL: 8.628:  82%|████████▏ | 164/200 [07:53<01:42,  2.85s/it]Train NLL: 8.554, Val NLL: 8.628:  82%|████████▎ | 165/200 [07:56<01:39,  2.84s/it]Train NLL: 8.554, Val NLL: 8.628:  83%|████████▎ | 166/200 [07:59<01:36,  2.84s/it]Train NLL: 8.554, Val NLL: 8.628:  84%|████████▎ | 167/200 [08:02<01:34,  2.86s/it]Train NLL: 8.554, Val NLL: 8.628:  84%|████████▍ | 168/200 [08:05<01:32,  2.88s/it]Train NLL: 8.554, Val NLL: 8.628:  84%|████████▍ | 169/200 [08:08<01:30,  2.92s/it]Train NLL: 8.554, Val NLL: 8.628:  85%|████████▌ | 170/200 [08:11<01:26,  2.90s/it]Train NLL: 8.554, Val NLL: 8.628:  86%|████████▌ | 171/200 [08:14<01:23,  2.89s/it]Train NLL: 8.554, Val NLL: 8.628:  86%|████████▌ | 172/200 [08:16<01:21,  2.90s/it]Train NLL: 8.554, Val NLL: 8.628:  86%|████████▋ | 173/200 [08:19<01:18,  2.89s/it]Train NLL: 8.554, Val NLL: 8.628:  87%|████████▋ | 174/200 [08:22<01:14,  2.88s/it]Train NLL: 8.554, Val NLL: 8.628:  88%|████████▊ | 175/200 [08:26<01:22,  3.29s/it]Train NLL: 8.554, Val NLL: 8.628:  88%|████████▊ | 176/200 [08:29<01:16,  3.18s/it]Train NLL: 8.554, Val NLL: 8.628:  88%|████████▊ | 177/200 [08:32<01:10,  3.08s/it]Train NLL: 8.554, Val NLL: 8.628:  89%|████████▉ | 178/200 [08:35<01:06,  3.03s/it]Train NLL: 8.554, Val NLL: 8.628:  90%|████████▉ | 179/200 [08:38<01:02,  2.98s/it]Train NLL: 8.554, Val NLL: 8.628:  90%|█████████ | 180/200 [08:41<00:58,  2.95s/it]Train NLL: 8.554, Val NLL: 8.628:  90%|█████████ | 181/200 [08:44<00:55,  2.93s/it]Train NLL: 8.554, Val NLL: 8.628:  91%|█████████ | 182/200 [08:47<00:52,  2.94s/it]Train NLL: 8.554, Val NLL: 8.628:  92%|█████████▏| 183/200 [08:50<00:49,  2.92s/it]Train NLL: 8.554, Val NLL: 8.628:  92%|█████████▏| 184/200 [08:52<00:46,  2.92s/it]Train NLL: 8.554, Val NLL: 8.628:  92%|█████████▎| 185/200 [08:55<00:43,  2.92s/it]Train NLL: 8.554, Val NLL: 8.628:  93%|█████████▎| 186/200 [08:58<00:40,  2.91s/it]Train NLL: 8.554, Val NLL: 8.628:  94%|█████████▎| 187/200 [09:01<00:37,  2.92s/it]Train NLL: 8.554, Val NLL: 8.628:  94%|█████████▍| 188/200 [09:04<00:34,  2.91s/it]Train NLL: 8.554, Val NLL: 8.628:  94%|█████████▍| 189/200 [09:07<00:31,  2.90s/it]Train NLL: 8.554, Val NLL: 8.628:  95%|█████████▌| 190/200 [09:10<00:29,  2.94s/it]Train NLL: 8.554, Val NLL: 8.628:  96%|█████████▌| 191/200 [09:13<00:26,  2.94s/it]Train NLL: 8.554, Val NLL: 8.628:  96%|█████████▌| 192/200 [09:16<00:23,  2.97s/it]Train NLL: 8.554, Val NLL: 8.628:  96%|█████████▋| 193/200 [09:19<00:21,  3.00s/it]Train NLL: 8.554, Val NLL: 8.628:  97%|█████████▋| 194/200 [09:22<00:17,  3.00s/it]Train NLL: 8.554, Val NLL: 8.628:  98%|█████████▊| 195/200 [09:25<00:14,  2.98s/it]Train NLL: 8.554, Val NLL: 8.628:  98%|█████████▊| 196/200 [09:28<00:11,  2.96s/it]Train NLL: 8.554, Val NLL: 8.628:  98%|█████████▊| 197/200 [09:31<00:08,  2.97s/it]Train NLL: 8.554, Val NLL: 8.628:  99%|█████████▉| 198/200 [09:34<00:05,  2.95s/it]Train NLL: 8.554, Val NLL: 8.628: 100%|█████████▉| 199/200 [09:37<00:02,  2.94s/it]Train NLL: 8.554, Val NLL: 8.628: 100%|██████████| 200/200 [09:40<00:00,  2.92s/it]Train NLL: 8.554, Val NLL: 8.628: 100%|██████████| 200/200 [09:40<00:00,  2.90s/it]
