{
  "activation": "elu",
  "batch_size": 100,
  "bn": "ecoli70-alt",
  "bt_config": {
    "depth": 5,
    "seed": 4
  },
  "coeff": 0.99,
  "ex_name": "residual_nf_density_estimation",
  "grad_in_forward": true,
  "hidden_dims": [
    100
  ],
  "lr": 0.01,
  "n_power_iterations": 5,
  "num_blocks": 7,
  "num_epochs": 250,
  "num_train_batches": 100,
  "num_train_samples": 10000,
  "num_val_batches": 50,
  "num_val_samples": 5000,
  "path": "./experiment_logs/residual_nf_density_estimation/ecoli70-alt/faithful_99_elu_7_[100]",
  "patience": 20,
  "run": 1,
  "seed": 4,
  "structure": "faithful",
  "sub_folder": "faithful_99_elu_7_[100]"
}