INFO - residual_nf - Running command 'run'
INFO - residual_nf - Started run with ID "3"
[CONFIG] {'bn': 'ecoli70-alt', 'structure': 'faithful', 'coeff': 0.99, 'n_power_iterations': 5, 'num_blocks': 8, 'hidden_dims': [100], 'activation': 'lipmish', 'grad_in_forward': False, 'batch_size': 100, 'num_train_samples': 10000, 'num_val_samples': 5000, 'num_epochs': 400, 'num_train_batches': 100, 'num_val_batches': 50, 'lr': 0.01, 'seed': 2, 'patience': 20, 'ex_name': 'residual_nf_density_estimation', 'sub_folder': 'faithful_99_lipmish_8_[100]', 'path': './experiment_logs/residual_nf_density_estimation/ecoli70-alt/faithful_99_lipmish_8_[100]', 'bt_config': {'depth': 5, 'seed': 4}}
[ENCODED STRUCTURE] Using faithful BN structure.
  0%|          | 0/400 [00:00<?, ?it/s]Train NLL: 53.749, Val NLL: 41.179:   0%|          | 1/400 [00:04<30:16,  4.55s/it]Train NLL: 40.852, Val NLL: 40.585:   0%|          | 2/400 [00:08<28:11,  4.25s/it]Train NLL: 40.539, Val NLL: 40.477:   1%|          | 3/400 [00:12<27:34,  4.17s/it]Train NLL: 40.458, Val NLL: 40.492:   1%|          | 4/400 [00:16<27:10,  4.12s/it]Train NLL: 40.383, Val NLL: 40.431:   1%|▏         | 5/400 [00:20<27:08,  4.12s/it]Train NLL: 40.398, Val NLL: 40.570:   2%|▏         | 6/400 [00:24<26:53,  4.10s/it]Train NLL: 40.362, Val NLL: 40.377:   2%|▏         | 7/400 [00:28<26:42,  4.08s/it]Train NLL: 40.342, Val NLL: 40.315:   2%|▏         | 8/400 [00:32<26:36,  4.07s/it]Train NLL: 40.330, Val NLL: 40.462:   2%|▏         | 9/400 [00:37<26:28,  4.06s/it]Train NLL: 40.336, Val NLL: 40.400:   2%|▎         | 10/400 [00:41<26:24,  4.06s/it]Train NLL: 40.344, Val NLL: 40.347:   3%|▎         | 11/400 [00:45<26:18,  4.06s/it]Train NLL: 40.309, Val NLL: 40.289:   3%|▎         | 12/400 [00:49<26:13,  4.06s/it]Train NLL: 40.314, Val NLL: 40.330:   3%|▎         | 13/400 [00:53<26:09,  4.06s/it]Train NLL: 40.307, Val NLL: 40.340:   4%|▎         | 14/400 [00:57<26:03,  4.05s/it]Train NLL: 40.315, Val NLL: 40.374:   4%|▍         | 15/400 [01:01<26:02,  4.06s/it]Train NLL: 40.294, Val NLL: 40.407:   4%|▍         | 16/400 [01:05<25:55,  4.05s/it]Train NLL: 40.320, Val NLL: 40.382:   4%|▍         | 17/400 [01:09<25:50,  4.05s/it]Train NLL: 40.297, Val NLL: 40.385:   4%|▍         | 18/400 [01:13<25:46,  4.05s/it]Train NLL: 40.280, Val NLL: 40.328:   5%|▍         | 19/400 [01:17<25:40,  4.04s/it]Train NLL: 40.294, Val NLL: 40.314:   5%|▌         | 20/400 [01:21<25:40,  4.05s/it]Train NLL: 40.296, Val NLL: 40.387:   5%|▌         | 21/400 [01:25<25:34,  4.05s/it]Train NLL: 40.303, Val NLL: 40.361:   6%|▌         | 22/400 [01:29<25:31,  4.05s/it]Train NLL: 40.278, Val NLL: 40.317:   6%|▌         | 23/400 [01:33<25:26,  4.05s/it]Train NLL: 40.280, Val NLL: 40.272:   6%|▌         | 24/400 [01:37<25:21,  4.05s/it]Train NLL: 40.277, Val NLL: 40.321:   6%|▋         | 25/400 [01:41<25:20,  4.05s/it]Train NLL: 40.295, Val NLL: 40.341:   6%|▋         | 26/400 [01:45<25:15,  4.05s/it]Train NLL: 40.284, Val NLL: 40.307:   7%|▋         | 27/400 [01:49<25:12,  4.05s/it]Train NLL: 40.279, Val NLL: 40.347:   7%|▋         | 28/400 [01:53<25:07,  4.05s/it]Train NLL: 40.274, Val NLL: 40.335:   7%|▋         | 29/400 [01:58<25:01,  4.05s/it]Train NLL: 40.287, Val NLL: 40.322:   8%|▊         | 30/400 [02:02<25:02,  4.06s/it]Train NLL: 40.276, Val NLL: 40.325:   8%|▊         | 31/400 [02:06<24:57,  4.06s/it]Train NLL: 40.274, Val NLL: 40.351:   8%|▊         | 32/400 [02:10<24:56,  4.07s/it]Train NLL: 40.265, Val NLL: 40.291:   8%|▊         | 33/400 [02:14<24:49,  4.06s/it]Train NLL: 40.277, Val NLL: 40.343:   8%|▊         | 34/400 [02:18<24:44,  4.06s/it]Train NLL: 40.269, Val NLL: 40.386:   9%|▉         | 35/400 [02:22<24:41,  4.06s/it]Train NLL: 40.271, Val NLL: 40.339:   9%|▉         | 36/400 [02:26<24:36,  4.06s/it]Train NLL: 40.283, Val NLL: 40.279:   9%|▉         | 37/400 [02:30<24:34,  4.06s/it]Train NLL: 40.271, Val NLL: 40.292:  10%|▉         | 38/400 [02:34<24:28,  4.06s/it]Train NLL: 40.266, Val NLL: 40.363:  10%|▉         | 39/400 [02:38<24:22,  4.05s/it]Train NLL: 40.261, Val NLL: 40.405:  10%|█         | 40/400 [02:42<24:20,  4.06s/it]Train NLL: 40.291, Val NLL: 40.326:  10%|█         | 41/400 [02:46<24:14,  4.05s/it]Train NLL: 40.281, Val NLL: 40.324:  10%|█         | 42/400 [02:50<24:13,  4.06s/it]Train NLL: 40.269, Val NLL: 40.308:  11%|█         | 43/400 [02:54<24:07,  4.05s/it]Train NLL: 40.251, Val NLL: 40.274:  11%|█         | 44/400 [02:58<24:01,  4.05s/it]Train NLL: 40.270, Val NLL: 40.312:  11%|█▏        | 45/400 [03:02<23:59,  4.05s/it]Train NLL: 40.267, Val NLL: 40.341:  12%|█▏        | 46/400 [03:06<23:53,  4.05s/it]Train NLL: 40.257, Val NLL: 40.408:  12%|█▏        | 47/400 [03:11<23:53,  4.06s/it]Train NLL: 40.266, Val NLL: 40.290:  12%|█▏        | 48/400 [03:15<23:47,  4.05s/it]Train NLL: 40.270, Val NLL: 40.370:  12%|█▏        | 49/400 [03:19<23:41,  4.05s/it]Train NLL: 40.252, Val NLL: 40.284:  12%|█▎        | 50/400 [03:23<23:40,  4.06s/it]Train NLL: 40.241, Val NLL: 40.297:  13%|█▎        | 51/400 [03:27<23:34,  4.05s/it]Train NLL: 40.253, Val NLL: 40.307:  13%|█▎        | 52/400 [03:31<23:33,  4.06s/it]Train NLL: 40.264, Val NLL: 40.312:  13%|█▎        | 53/400 [03:35<23:27,  4.06s/it]Train NLL: 40.249, Val NLL: 40.257:  14%|█▎        | 54/400 [03:39<23:22,  4.05s/it]Train NLL: 40.240, Val NLL: 40.296:  14%|█▍        | 55/400 [03:43<23:18,  4.05s/it]Train NLL: 40.241, Val NLL: 40.277:  14%|█▍        | 56/400 [03:47<23:12,  4.05s/it]Train NLL: 40.251, Val NLL: 40.275:  14%|█▍        | 57/400 [03:51<23:11,  4.06s/it]Train NLL: 40.241, Val NLL: 40.266:  14%|█▍        | 58/400 [03:55<23:05,  4.05s/it]Train NLL: 40.247, Val NLL: 40.305:  15%|█▍        | 59/400 [03:59<23:02,  4.05s/it]Train NLL: 40.241, Val NLL: 40.288:  15%|█▌        | 60/400 [04:03<22:56,  4.05s/it]Train NLL: 40.240, Val NLL: 40.346:  15%|█▌        | 61/400 [04:07<22:51,  4.05s/it]Train NLL: 40.258, Val NLL: 40.290:  16%|█▌        | 62/400 [04:11<22:51,  4.06s/it]Train NLL: 40.254, Val NLL: 40.318:  16%|█▌        | 63/400 [04:15<22:45,  4.05s/it]Train NLL: 40.243, Val NLL: 40.325:  16%|█▌        | 64/400 [04:19<22:42,  4.05s/it]Train NLL: 40.238, Val NLL: 40.316:  16%|█▋        | 65/400 [04:24<22:36,  4.05s/it]Train NLL: 40.236, Val NLL: 40.299:  16%|█▋        | 66/400 [04:28<22:32,  4.05s/it]Train NLL: 40.255, Val NLL: 40.364:  17%|█▋        | 67/400 [04:32<22:31,  4.06s/it]Train NLL: 40.253, Val NLL: 40.312:  17%|█▋        | 68/400 [04:36<22:26,  4.05s/it]Train NLL: 40.264, Val NLL: 40.386:  17%|█▋        | 69/400 [04:40<22:22,  4.06s/it]Train NLL: 40.235, Val NLL: 40.288:  18%|█▊        | 70/400 [04:44<22:17,  4.05s/it]Train NLL: 40.226, Val NLL: 40.288:  18%|█▊        | 71/400 [04:48<22:18,  4.07s/it]Train NLL: 40.267, Val NLL: 40.374:  18%|█▊        | 72/400 [04:52<22:15,  4.07s/it]Train NLL: 40.247, Val NLL: 40.253:  18%|█▊        | 73/400 [04:56<22:08,  4.06s/it]Train NLL: 40.237, Val NLL: 40.312:  18%|█▊        | 74/400 [05:00<22:04,  4.06s/it]Train NLL: 40.252, Val NLL: 40.293:  19%|█▉        | 75/400 [05:04<21:59,  4.06s/it]Train NLL: 40.260, Val NLL: 40.280:  19%|█▉        | 76/400 [05:08<21:53,  4.05s/it]Train NLL: 40.240, Val NLL: 40.283:  19%|█▉        | 77/400 [05:12<21:51,  4.06s/it]Train NLL: 40.236, Val NLL: 40.385:  20%|█▉        | 78/400 [05:16<21:45,  4.05s/it]Train NLL: 40.239, Val NLL: 40.253:  20%|█▉        | 79/400 [05:20<21:43,  4.06s/it]Train NLL: 40.235, Val NLL: 40.260:  20%|██        | 80/400 [05:24<21:37,  4.05s/it]Train NLL: 40.241, Val NLL: 40.300:  20%|██        | 81/400 [05:28<21:31,  4.05s/it]Train NLL: 40.255, Val NLL: 40.273:  20%|██        | 82/400 [05:33<21:30,  4.06s/it]Train NLL: 40.230, Val NLL: 40.350:  21%|██        | 83/400 [05:37<21:24,  4.05s/it]Train NLL: 40.243, Val NLL: 40.338:  21%|██        | 84/400 [05:41<21:22,  4.06s/it]Train NLL: 40.239, Val NLL: 40.287:  21%|██▏       | 85/400 [05:45<21:16,  4.05s/it]Train NLL: 40.229, Val NLL: 40.324:  22%|██▏       | 86/400 [05:49<21:11,  4.05s/it]Train NLL: 40.234, Val NLL: 40.241:  22%|██▏       | 87/400 [05:53<21:09,  4.06s/it]Train NLL: 40.225, Val NLL: 40.353:  22%|██▏       | 88/400 [05:57<21:04,  4.05s/it]Train NLL: 40.234, Val NLL: 40.354:  22%|██▏       | 89/400 [06:01<21:02,  4.06s/it]Train NLL: 40.236, Val NLL: 40.300:  22%|██▎       | 90/400 [06:05<20:56,  4.05s/it]Train NLL: 40.224, Val NLL: 40.282:  23%|██▎       | 91/400 [06:09<20:52,  4.05s/it]Epoch    92: reducing learning rate of group 0 to 1.0000e-03.
Train NLL: 40.249, Val NLL: 40.332:  23%|██▎       | 92/400 [06:13<20:48,  4.05s/it]Train NLL: 40.085, Val NLL: 40.130:  23%|██▎       | 93/400 [06:17<20:43,  4.05s/it]Train NLL: 40.055, Val NLL: 40.126:  24%|██▎       | 94/400 [06:21<20:42,  4.06s/it]Train NLL: 40.057, Val NLL: 40.135:  24%|██▍       | 95/400 [06:25<20:36,  4.05s/it]Train NLL: 40.056, Val NLL: 40.129:  24%|██▍       | 96/400 [06:29<20:32,  4.06s/it]Train NLL: 40.057, Val NLL: 40.132:  24%|██▍       | 97/400 [06:33<20:27,  4.05s/it]Train NLL: 40.056, Val NLL: 40.128:  24%|██▍       | 98/400 [06:37<20:22,  4.05s/it]Train NLL: 40.057, Val NLL: 40.138:  25%|██▍       | 99/400 [06:41<20:20,  4.06s/it]Train NLL: 40.058, Val NLL: 40.128:  25%|██▌       | 100/400 [06:45<20:15,  4.05s/it]Train NLL: 40.057, Val NLL: 40.130:  25%|██▌       | 101/400 [06:50<20:11,  4.05s/it]Train NLL: 40.057, Val NLL: 40.123:  26%|██▌       | 102/400 [06:54<20:07,  4.05s/it]Train NLL: 40.059, Val NLL: 40.129:  26%|██▌       | 103/400 [06:58<20:02,  4.05s/it]Train NLL: 40.060, Val NLL: 40.131:  26%|██▌       | 104/400 [07:02<20:00,  4.06s/it]Train NLL: 40.056, Val NLL: 40.134:  26%|██▋       | 105/400 [07:06<19:56,  4.06s/it]Train NLL: 40.061, Val NLL: 40.135:  26%|██▋       | 106/400 [07:10<19:56,  4.07s/it]Train NLL: 40.056, Val NLL: 40.120:  27%|██▋       | 107/400 [07:14<19:49,  4.06s/it]Train NLL: 40.058, Val NLL: 40.124:  27%|██▋       | 108/400 [07:18<19:43,  4.05s/it]Train NLL: 40.058, Val NLL: 40.131:  27%|██▋       | 109/400 [07:22<19:42,  4.06s/it]Train NLL: 40.059, Val NLL: 40.126:  28%|██▊       | 110/400 [07:26<19:36,  4.06s/it]Train NLL: 40.060, Val NLL: 40.134:  28%|██▊       | 111/400 [07:30<19:34,  4.06s/it]Train NLL: 40.059, Val NLL: 40.131:  28%|██▊       | 112/400 [07:34<19:28,  4.06s/it]Train NLL: 40.060, Val NLL: 40.129:  28%|██▊       | 113/400 [07:38<19:22,  4.05s/it]Train NLL: 40.060, Val NLL: 40.129:  28%|██▊       | 114/400 [07:42<19:21,  4.06s/it]Epoch   115: reducing learning rate of group 0 to 1.0000e-04.
Train NLL: 40.059, Val NLL: 40.126:  29%|██▉       | 115/400 [07:46<19:16,  4.06s/it]Train NLL: 40.041, Val NLL: 40.114:  29%|██▉       | 116/400 [07:50<19:15,  4.07s/it]Train NLL: 40.036, Val NLL: 40.115:  29%|██▉       | 117/400 [07:54<19:09,  4.06s/it]Train NLL: 40.036, Val NLL: 40.114:  30%|██▉       | 118/400 [07:59<19:03,  4.05s/it]Train NLL: 40.036, Val NLL: 40.116:  30%|██▉       | 119/400 [08:03<19:00,  4.06s/it]Train NLL: 40.036, Val NLL: 40.116:  30%|███       | 120/400 [08:07<18:55,  4.05s/it]Train NLL: 40.036, Val NLL: 40.115:  30%|███       | 121/400 [08:11<18:53,  4.06s/it]Train NLL: 40.036, Val NLL: 40.115:  30%|███       | 122/400 [08:15<18:48,  4.06s/it]Train NLL: 40.035, Val NLL: 40.117:  31%|███       | 123/400 [08:19<18:42,  4.05s/it]Train NLL: 40.036, Val NLL: 40.116:  31%|███       | 124/400 [08:23<18:40,  4.06s/it]Train NLL: 40.036, Val NLL: 40.115:  31%|███▏      | 125/400 [08:27<18:35,  4.06s/it]Train NLL: 40.036, Val NLL: 40.115:  32%|███▏      | 126/400 [08:31<18:32,  4.06s/it]Train NLL: 40.036, Val NLL: 40.115:  32%|███▏      | 127/400 [08:35<18:27,  4.06s/it]Train NLL: 40.036, Val NLL: 40.115:  32%|███▏      | 128/400 [08:39<18:22,  4.05s/it]Train NLL: 40.036, Val NLL: 40.117:  32%|███▏      | 129/400 [08:43<18:18,  4.05s/it]Train NLL: 40.036, Val NLL: 40.117:  32%|███▎      | 130/400 [08:47<18:13,  4.05s/it]Train NLL: 40.036, Val NLL: 40.115:  33%|███▎      | 131/400 [08:51<18:11,  4.06s/it]Train NLL: 40.036, Val NLL: 40.114:  33%|███▎      | 132/400 [08:55<18:06,  4.05s/it]Train NLL: 40.036, Val NLL: 40.117:  33%|███▎      | 133/400 [08:59<18:02,  4.05s/it]Train NLL: 40.035, Val NLL: 40.115:  34%|███▎      | 134/400 [09:03<17:58,  4.05s/it]Train NLL: 40.036, Val NLL: 40.116:  34%|███▍      | 135/400 [09:07<17:53,  4.05s/it]Train NLL: 40.036, Val NLL: 40.116:  34%|███▍      | 136/400 [09:12<17:52,  4.06s/it]Train NLL: 40.036, Val NLL: 40.115:  34%|███▍      | 137/400 [09:16<17:47,  4.06s/it]Epoch   138: reducing learning rate of group 0 to 1.0000e-05.
Train NLL: 40.036, Val NLL: 40.116:  34%|███▍      | 138/400 [09:20<17:43,  4.06s/it]Train NLL: 40.033, Val NLL: 40.116:  35%|███▍      | 139/400 [09:24<17:38,  4.06s/it]Train NLL: 40.033, Val NLL: 40.116:  35%|███▌      | 140/400 [09:28<17:32,  4.05s/it]Train NLL: 40.033, Val NLL: 40.116:  35%|███▌      | 141/400 [09:32<17:30,  4.06s/it]Train NLL: 40.033, Val NLL: 40.116:  36%|███▌      | 142/400 [09:36<17:26,  4.05s/it]Train NLL: 40.033, Val NLL: 40.116:  36%|███▌      | 143/400 [09:40<17:24,  4.06s/it]Train NLL: 40.033, Val NLL: 40.116:  36%|███▌      | 144/400 [09:44<17:18,  4.06s/it]Train NLL: 40.033, Val NLL: 40.116:  36%|███▋      | 145/400 [09:48<17:13,  4.05s/it]Train NLL: 40.033, Val NLL: 40.116:  36%|███▋      | 146/400 [09:52<17:12,  4.06s/it]Train NLL: 40.033, Val NLL: 40.116:  37%|███▋      | 147/400 [09:56<17:06,  4.06s/it]Train NLL: 40.033, Val NLL: 40.116:  37%|███▋      | 148/400 [10:00<17:03,  4.06s/it]Train NLL: 40.033, Val NLL: 40.116:  37%|███▋      | 149/400 [10:04<16:57,  4.05s/it]Train NLL: 40.033, Val NLL: 40.116:  38%|███▊      | 150/400 [10:08<16:52,  4.05s/it]Train NLL: 40.032, Val NLL: 40.115:  38%|███▊      | 151/400 [10:12<16:50,  4.06s/it]Train NLL: 40.033, Val NLL: 40.115:  38%|███▊      | 152/400 [10:16<16:45,  4.05s/it]Train NLL: 40.033, Val NLL: 40.116:  38%|███▊      | 153/400 [10:20<16:43,  4.06s/it]Train NLL: 40.033, Val NLL: 40.115:  38%|███▊      | 154/400 [10:25<16:37,  4.05s/it]Train NLL: 40.032, Val NLL: 40.115:  39%|███▉      | 155/400 [10:29<16:32,  4.05s/it]Train NLL: 40.033, Val NLL: 40.115:  39%|███▉      | 156/400 [10:33<16:29,  4.05s/it]Train NLL: 40.033, Val NLL: 40.116:  39%|███▉      | 157/400 [10:37<16:24,  4.05s/it]Train NLL: 40.033, Val NLL: 40.116:  40%|███▉      | 158/400 [10:41<16:22,  4.06s/it]Epoch   159: reducing learning rate of group 0 to 1.0000e-06.
Train NLL: 40.033, Val NLL: 40.115:  40%|███▉      | 159/400 [10:45<16:16,  4.05s/it]Train NLL: 40.032, Val NLL: 40.115:  40%|████      | 160/400 [10:49<16:12,  4.05s/it]Train NLL: 40.032, Val NLL: 40.115:  40%|████      | 161/400 [10:53<16:09,  4.06s/it]Train NLL: 40.032, Val NLL: 40.115:  40%|████      | 162/400 [10:57<16:04,  4.05s/it]Train NLL: 40.032, Val NLL: 40.115:  41%|████      | 163/400 [11:01<16:02,  4.06s/it]Train NLL: 40.032, Val NLL: 40.115:  41%|████      | 164/400 [11:05<15:56,  4.05s/it]Train NLL: 40.032, Val NLL: 40.115:  41%|████▏     | 165/400 [11:09<15:52,  4.05s/it]Train NLL: 40.032, Val NLL: 40.115:  42%|████▏     | 166/400 [11:13<15:48,  4.05s/it]Train NLL: 40.032, Val NLL: 40.115:  42%|████▏     | 167/400 [11:17<15:43,  4.05s/it]Train NLL: 40.032, Val NLL: 40.115:  42%|████▏     | 168/400 [11:21<15:41,  4.06s/it]Train NLL: 40.032, Val NLL: 40.115:  42%|████▏     | 169/400 [11:25<15:36,  4.05s/it]Train NLL: 40.032, Val NLL: 40.115:  42%|████▎     | 170/400 [11:29<15:32,  4.05s/it]Train NLL: 40.032, Val NLL: 40.115:  43%|████▎     | 171/400 [11:33<15:28,  4.06s/it]Train NLL: 40.032, Val NLL: 40.115:  43%|████▎     | 172/400 [11:37<15:23,  4.05s/it]Train NLL: 40.032, Val NLL: 40.115:  43%|████▎     | 173/400 [11:42<15:21,  4.06s/it]Train NLL: 40.032, Val NLL: 40.115:  44%|████▎     | 174/400 [11:46<15:16,  4.05s/it]Train NLL: 40.032, Val NLL: 40.115:  44%|████▍     | 175/400 [11:50<15:12,  4.05s/it]Train NLL: 40.032, Val NLL: 40.115:  44%|████▍     | 176/400 [11:54<15:06,  4.05s/it]Train NLL: 40.032, Val NLL: 40.115:  44%|████▍     | 177/400 [11:58<15:01,  4.04s/it]Train NLL: 40.032, Val NLL: 40.115:  44%|████▍     | 178/400 [12:02<15:00,  4.06s/it]Train NLL: 40.032, Val NLL: 40.115:  45%|████▍     | 179/400 [12:06<14:55,  4.05s/it]Train NLL: 40.032, Val NLL: 40.115:  45%|████▌     | 180/400 [12:10<14:52,  4.06s/it]Train NLL: 40.032, Val NLL: 40.115:  45%|████▌     | 181/400 [12:14<14:47,  4.05s/it]Train NLL: 40.032, Val NLL: 40.115:  46%|████▌     | 182/400 [12:18<14:43,  4.05s/it]Train NLL: 40.032, Val NLL: 40.115:  46%|████▌     | 183/400 [12:22<14:41,  4.06s/it]Train NLL: 40.032, Val NLL: 40.115:  46%|████▌     | 184/400 [12:26<14:36,  4.06s/it]Train NLL: 40.032, Val NLL: 40.115:  46%|████▋     | 185/400 [12:30<14:32,  4.06s/it]Train NLL: 40.032, Val NLL: 40.115:  46%|████▋     | 186/400 [12:34<14:27,  4.05s/it]Train NLL: 40.032, Val NLL: 40.115:  47%|████▋     | 187/400 [12:38<14:22,  4.05s/it]Train NLL: 40.032, Val NLL: 40.115:  47%|████▋     | 188/400 [12:42<14:20,  4.06s/it]Train NLL: 40.032, Val NLL: 40.115:  47%|████▋     | 189/400 [12:46<14:15,  4.05s/it]Train NLL: 40.032, Val NLL: 40.115:  48%|████▊     | 190/400 [12:51<14:12,  4.06s/it]Train NLL: 40.032, Val NLL: 40.115:  48%|████▊     | 191/400 [12:55<14:07,  4.05s/it]Train NLL: 40.032, Val NLL: 40.115:  48%|████▊     | 192/400 [12:59<14:02,  4.05s/it]Train NLL: 40.032, Val NLL: 40.115:  48%|████▊     | 193/400 [13:03<14:00,  4.06s/it]Train NLL: 40.032, Val NLL: 40.115:  48%|████▊     | 194/400 [13:07<13:55,  4.05s/it]Train NLL: 40.032, Val NLL: 40.115:  49%|████▉     | 195/400 [13:11<13:52,  4.06s/it]Train NLL: 40.032, Val NLL: 40.115:  49%|████▉     | 196/400 [13:15<13:47,  4.05s/it]Train NLL: 40.032, Val NLL: 40.115:  49%|████▉     | 197/400 [13:19<13:42,  4.05s/it]Train NLL: 40.032, Val NLL: 40.115:  50%|████▉     | 198/400 [13:23<13:39,  4.06s/it]Train NLL: 40.032, Val NLL: 40.115:  50%|████▉     | 199/400 [13:27<13:34,  4.05s/it]Train NLL: 40.032, Val NLL: 40.115:  50%|█████     | 200/400 [13:31<13:32,  4.06s/it]Train NLL: 40.032, Val NLL: 40.115:  50%|█████     | 201/400 [13:35<13:26,  4.05s/it]Train NLL: 40.032, Val NLL: 40.115:  50%|█████     | 202/400 [13:39<13:22,  4.05s/it]Train NLL: 40.032, Val NLL: 40.115:  51%|█████     | 203/400 [13:43<13:18,  4.05s/it]Train NLL: 40.032, Val NLL: 40.115:  51%|█████     | 204/400 [13:47<13:14,  4.05s/it]Train NLL: 40.032, Val NLL: 40.115:  51%|█████▏    | 205/400 [13:51<13:11,  4.06s/it]Train NLL: 40.032, Val NLL: 40.115:  52%|█████▏    | 206/400 [13:55<13:06,  4.05s/it]Train NLL: 40.032, Val NLL: 40.115:  52%|█████▏    | 207/400 [13:59<13:03,  4.06s/it]Train NLL: 40.032, Val NLL: 40.115:  52%|█████▏    | 208/400 [14:03<12:58,  4.06s/it]Train NLL: 40.032, Val NLL: 40.115:  52%|█████▏    | 209/400 [14:08<12:53,  4.05s/it]Train NLL: 40.032, Val NLL: 40.115:  52%|█████▎    | 210/400 [14:12<12:50,  4.05s/it]Train NLL: 40.032, Val NLL: 40.115:  53%|█████▎    | 211/400 [14:16<12:45,  4.05s/it]Train NLL: 40.032, Val NLL: 40.115:  53%|█████▎    | 212/400 [14:20<12:42,  4.06s/it]Train NLL: 40.032, Val NLL: 40.115:  53%|█████▎    | 213/400 [14:24<12:37,  4.05s/it]Train NLL: 40.032, Val NLL: 40.115:  54%|█████▎    | 214/400 [14:28<12:32,  4.05s/it]Train NLL: 40.032, Val NLL: 40.115:  54%|█████▍    | 215/400 [14:32<12:30,  4.06s/it]Train NLL: 40.032, Val NLL: 40.115:  54%|█████▍    | 216/400 [14:36<12:25,  4.05s/it]Train NLL: 40.032, Val NLL: 40.115:  54%|█████▍    | 217/400 [14:40<12:22,  4.06s/it]Train NLL: 40.032, Val NLL: 40.115:  55%|█████▍    | 218/400 [14:44<12:17,  4.05s/it]Train NLL: 40.032, Val NLL: 40.115:  55%|█████▍    | 219/400 [14:48<12:12,  4.05s/it]Train NLL: 40.032, Val NLL: 40.115:  55%|█████▌    | 220/400 [14:52<12:09,  4.05s/it]Train NLL: 40.032, Val NLL: 40.115:  55%|█████▌    | 221/400 [14:56<12:04,  4.05s/it]Train NLL: 40.032, Val NLL: 40.115:  56%|█████▌    | 222/400 [15:00<12:01,  4.05s/it]Train NLL: 40.032, Val NLL: 40.115:  56%|█████▌    | 223/400 [15:04<11:57,  4.05s/it]Train NLL: 40.032, Val NLL: 40.115:  56%|█████▌    | 224/400 [15:08<11:52,  4.05s/it]Train NLL: 40.032, Val NLL: 40.115:  56%|█████▋    | 225/400 [15:12<11:49,  4.06s/it]Train NLL: 40.032, Val NLL: 40.115:  56%|█████▋    | 226/400 [15:16<11:44,  4.05s/it]Train NLL: 40.032, Val NLL: 40.115:  57%|█████▋    | 227/400 [15:20<11:41,  4.06s/it]Train NLL: 40.032, Val NLL: 40.115:  57%|█████▋    | 228/400 [15:25<11:37,  4.05s/it]Train NLL: 40.032, Val NLL: 40.115:  57%|█████▋    | 229/400 [15:29<11:32,  4.05s/it]Train NLL: 40.032, Val NLL: 40.115:  57%|█████▊    | 230/400 [15:33<11:29,  4.05s/it]Train NLL: 40.032, Val NLL: 40.115:  58%|█████▊    | 231/400 [15:37<11:24,  4.05s/it]Train NLL: 40.032, Val NLL: 40.115:  58%|█████▊    | 232/400 [15:41<11:22,  4.06s/it]Train NLL: 40.032, Val NLL: 40.115:  58%|█████▊    | 233/400 [15:45<11:16,  4.05s/it]Train NLL: 40.032, Val NLL: 40.115:  58%|█████▊    | 234/400 [15:49<11:12,  4.05s/it]Train NLL: 40.032, Val NLL: 40.115:  59%|█████▉    | 235/400 [15:53<11:09,  4.06s/it]Train NLL: 40.032, Val NLL: 40.115:  59%|█████▉    | 236/400 [15:57<11:04,  4.05s/it]Train NLL: 40.032, Val NLL: 40.115:  59%|█████▉    | 237/400 [16:01<11:02,  4.06s/it]Train NLL: 40.032, Val NLL: 40.115:  60%|█████▉    | 238/400 [16:05<10:56,  4.06s/it]Train NLL: 40.032, Val NLL: 40.115:  60%|█████▉    | 239/400 [16:09<10:52,  4.05s/it]Train NLL: 40.032, Val NLL: 40.115:  60%|██████    | 240/400 [16:13<10:49,  4.06s/it]Train NLL: 40.032, Val NLL: 40.115:  60%|██████    | 241/400 [16:17<10:44,  4.05s/it]Train NLL: 40.032, Val NLL: 40.115:  60%|██████    | 242/400 [16:21<10:41,  4.06s/it]Train NLL: 40.032, Val NLL: 40.115:  61%|██████    | 243/400 [16:25<10:36,  4.06s/it]Train NLL: 40.032, Val NLL: 40.115:  61%|██████    | 244/400 [16:29<10:32,  4.05s/it]Train NLL: 40.032, Val NLL: 40.115:  61%|██████▏   | 245/400 [16:33<10:28,  4.06s/it]Train NLL: 40.032, Val NLL: 40.115:  62%|██████▏   | 246/400 [16:37<10:23,  4.05s/it]Train NLL: 40.032, Val NLL: 40.115:  62%|██████▏   | 247/400 [16:42<10:20,  4.05s/it]Train NLL: 40.032, Val NLL: 40.115:  62%|██████▏   | 248/400 [16:46<10:15,  4.05s/it]Train NLL: 40.032, Val NLL: 40.115:  62%|██████▏   | 249/400 [16:50<10:12,  4.05s/it]Train NLL: 40.032, Val NLL: 40.115:  62%|██████▎   | 250/400 [16:54<10:08,  4.05s/it]Train NLL: 40.032, Val NLL: 40.115:  63%|██████▎   | 251/400 [16:58<10:03,  4.05s/it]Train NLL: 40.032, Val NLL: 40.115:  63%|██████▎   | 252/400 [17:02<10:00,  4.05s/it]Train NLL: 40.032, Val NLL: 40.115:  63%|██████▎   | 253/400 [17:06<09:55,  4.05s/it]Train NLL: 40.032, Val NLL: 40.115:  64%|██████▎   | 254/400 [17:10<09:52,  4.06s/it]Train NLL: 40.032, Val NLL: 40.115:  64%|██████▍   | 255/400 [17:14<09:47,  4.05s/it]Train NLL: 40.032, Val NLL: 40.115:  64%|██████▍   | 256/400 [17:18<09:43,  4.05s/it]Train NLL: 40.032, Val NLL: 40.115:  64%|██████▍   | 257/400 [17:22<09:39,  4.06s/it]Train NLL: 40.032, Val NLL: 40.115:  64%|██████▍   | 258/400 [17:26<09:35,  4.05s/it]Train NLL: 40.032, Val NLL: 40.115:  65%|██████▍   | 259/400 [17:30<09:32,  4.06s/it]Train NLL: 40.032, Val NLL: 40.115:  65%|██████▌   | 260/400 [17:34<09:28,  4.06s/it]Train NLL: 40.032, Val NLL: 40.115:  65%|██████▌   | 261/400 [17:38<09:23,  4.06s/it]Train NLL: 40.032, Val NLL: 40.115:  66%|██████▌   | 262/400 [17:42<09:20,  4.06s/it]Train NLL: 40.032, Val NLL: 40.115:  66%|██████▌   | 263/400 [17:46<09:15,  4.05s/it]Train NLL: 40.032, Val NLL: 40.115:  66%|██████▌   | 264/400 [17:51<09:12,  4.06s/it]Train NLL: 40.032, Val NLL: 40.115:  66%|██████▋   | 265/400 [17:55<09:07,  4.05s/it]Train NLL: 40.032, Val NLL: 40.115:  66%|██████▋   | 266/400 [17:59<09:02,  4.05s/it]Train NLL: 40.032, Val NLL: 40.115:  67%|██████▋   | 267/400 [18:03<08:59,  4.05s/it]Train NLL: 40.032, Val NLL: 40.115:  67%|██████▋   | 268/400 [18:07<08:54,  4.05s/it]Train NLL: 40.032, Val NLL: 40.115:  67%|██████▋   | 269/400 [18:11<08:51,  4.06s/it]Train NLL: 40.032, Val NLL: 40.115:  68%|██████▊   | 270/400 [18:15<08:46,  4.05s/it]Train NLL: 40.032, Val NLL: 40.115:  68%|██████▊   | 271/400 [18:19<08:42,  4.05s/it]Train NLL: 40.032, Val NLL: 40.115:  68%|██████▊   | 272/400 [18:23<08:39,  4.06s/it]Train NLL: 40.032, Val NLL: 40.115:  68%|██████▊   | 273/400 [18:27<08:34,  4.05s/it]Train NLL: 40.032, Val NLL: 40.115:  68%|██████▊   | 274/400 [18:31<08:31,  4.06s/it]Train NLL: 40.032, Val NLL: 40.115:  69%|██████▉   | 275/400 [18:35<08:26,  4.05s/it]Train NLL: 40.032, Val NLL: 40.115:  69%|██████▉   | 276/400 [18:39<08:22,  4.05s/it]Train NLL: 40.032, Val NLL: 40.115:  69%|██████▉   | 277/400 [18:43<08:18,  4.05s/it]Train NLL: 40.032, Val NLL: 40.115:  70%|██████▉   | 278/400 [18:47<08:14,  4.05s/it]Train NLL: 40.032, Val NLL: 40.115:  70%|██████▉   | 279/400 [18:51<08:11,  4.06s/it]Train NLL: 40.032, Val NLL: 40.115:  70%|███████   | 280/400 [18:55<08:06,  4.06s/it]Train NLL: 40.032, Val NLL: 40.115:  70%|███████   | 281/400 [18:59<08:02,  4.06s/it]Train NLL: 40.032, Val NLL: 40.115:  70%|███████   | 282/400 [19:03<07:58,  4.06s/it]Train NLL: 40.032, Val NLL: 40.115:  71%|███████   | 283/400 [19:08<07:54,  4.05s/it]Train NLL: 40.032, Val NLL: 40.115:  71%|███████   | 284/400 [19:12<07:51,  4.06s/it]Train NLL: 40.032, Val NLL: 40.115:  71%|███████▏  | 285/400 [19:16<07:46,  4.06s/it]Train NLL: 40.032, Val NLL: 40.115:  72%|███████▏  | 286/400 [19:20<07:42,  4.06s/it]Train NLL: 40.032, Val NLL: 40.115:  72%|███████▏  | 287/400 [19:24<07:38,  4.06s/it]Train NLL: 40.032, Val NLL: 40.115:  72%|███████▏  | 288/400 [19:28<07:33,  4.05s/it]Train NLL: 40.032, Val NLL: 40.115:  72%|███████▏  | 289/400 [19:32<07:30,  4.06s/it]Train NLL: 40.032, Val NLL: 40.115:  72%|███████▎  | 290/400 [19:36<07:26,  4.06s/it]Train NLL: 40.032, Val NLL: 40.115:  73%|███████▎  | 291/400 [19:40<07:22,  4.06s/it]Train NLL: 40.032, Val NLL: 40.115:  73%|███████▎  | 292/400 [19:44<07:18,  4.06s/it]Train NLL: 40.032, Val NLL: 40.115:  73%|███████▎  | 293/400 [19:48<07:13,  4.05s/it]Train NLL: 40.032, Val NLL: 40.115:  74%|███████▎  | 294/400 [19:52<07:10,  4.06s/it]Train NLL: 40.032, Val NLL: 40.115:  74%|███████▍  | 295/400 [19:56<07:05,  4.05s/it]Train NLL: 40.032, Val NLL: 40.115:  74%|███████▍  | 296/400 [20:00<07:02,  4.06s/it]Train NLL: 40.032, Val NLL: 40.115:  74%|███████▍  | 297/400 [20:04<06:57,  4.05s/it]Train NLL: 40.032, Val NLL: 40.115:  74%|███████▍  | 298/400 [20:08<06:53,  4.05s/it]Train NLL: 40.032, Val NLL: 40.115:  75%|███████▍  | 299/400 [20:12<06:50,  4.06s/it]Train NLL: 40.032, Val NLL: 40.115:  75%|███████▌  | 300/400 [20:16<06:45,  4.05s/it]Train NLL: 40.032, Val NLL: 40.115:  75%|███████▌  | 301/400 [20:21<06:41,  4.06s/it]Train NLL: 40.032, Val NLL: 40.115:  76%|███████▌  | 302/400 [20:25<06:37,  4.06s/it]Train NLL: 40.032, Val NLL: 40.115:  76%|███████▌  | 303/400 [20:29<06:33,  4.05s/it]Train NLL: 40.032, Val NLL: 40.115:  76%|███████▌  | 304/400 [20:33<06:29,  4.06s/it]Train NLL: 40.032, Val NLL: 40.115:  76%|███████▋  | 305/400 [20:37<06:25,  4.05s/it]Train NLL: 40.032, Val NLL: 40.115:  76%|███████▋  | 306/400 [20:41<06:22,  4.07s/it]Train NLL: 40.032, Val NLL: 40.115:  77%|███████▋  | 307/400 [20:45<06:17,  4.06s/it]Train NLL: 40.032, Val NLL: 40.115:  77%|███████▋  | 308/400 [20:49<06:12,  4.05s/it]Train NLL: 40.032, Val NLL: 40.115:  77%|███████▋  | 309/400 [20:53<06:09,  4.06s/it]Train NLL: 40.032, Val NLL: 40.115:  78%|███████▊  | 310/400 [20:57<06:04,  4.05s/it]Train NLL: 40.032, Val NLL: 40.115:  78%|███████▊  | 311/400 [21:01<06:01,  4.06s/it]Train NLL: 40.032, Val NLL: 40.115:  78%|███████▊  | 312/400 [21:05<05:57,  4.06s/it]Train NLL: 40.032, Val NLL: 40.115:  78%|███████▊  | 313/400 [21:09<05:52,  4.05s/it]Train NLL: 40.032, Val NLL: 40.115:  78%|███████▊  | 314/400 [21:13<05:48,  4.06s/it]Train NLL: 40.032, Val NLL: 40.115:  79%|███████▉  | 315/400 [21:17<05:44,  4.05s/it]Train NLL: 40.032, Val NLL: 40.115:  79%|███████▉  | 316/400 [21:21<05:40,  4.06s/it]Train NLL: 40.032, Val NLL: 40.115:  79%|███████▉  | 317/400 [21:25<05:36,  4.05s/it]Train NLL: 40.032, Val NLL: 40.115:  80%|███████▉  | 318/400 [21:30<05:32,  4.06s/it]Train NLL: 40.032, Val NLL: 40.115:  80%|███████▉  | 319/400 [21:34<05:28,  4.06s/it]Train NLL: 40.032, Val NLL: 40.115:  80%|████████  | 320/400 [21:38<05:24,  4.05s/it]Train NLL: 40.032, Val NLL: 40.115:  80%|████████  | 321/400 [21:42<05:20,  4.06s/it]Train NLL: 40.032, Val NLL: 40.115:  80%|████████  | 322/400 [21:46<05:16,  4.05s/it]Train NLL: 40.032, Val NLL: 40.115:  81%|████████  | 323/400 [21:50<05:13,  4.07s/it]Train NLL: 40.032, Val NLL: 40.115:  81%|████████  | 324/400 [21:54<05:08,  4.07s/it]Train NLL: 40.032, Val NLL: 40.115:  81%|████████▏ | 325/400 [21:58<05:04,  4.06s/it]Train NLL: 40.032, Val NLL: 40.115:  82%|████████▏ | 326/400 [22:02<05:00,  4.07s/it]Train NLL: 40.032, Val NLL: 40.115:  82%|████████▏ | 327/400 [22:06<04:56,  4.06s/it]Train NLL: 40.032, Val NLL: 40.115:  82%|████████▏ | 328/400 [22:10<04:52,  4.06s/it]Train NLL: 40.032, Val NLL: 40.115:  82%|████████▏ | 329/400 [22:14<04:47,  4.05s/it]Train NLL: 40.032, Val NLL: 40.115:  82%|████████▎ | 330/400 [22:18<04:43,  4.05s/it]Train NLL: 40.032, Val NLL: 40.115:  83%|████████▎ | 331/400 [22:22<04:40,  4.06s/it]Train NLL: 40.032, Val NLL: 40.115:  83%|████████▎ | 332/400 [22:26<04:35,  4.06s/it]Train NLL: 40.032, Val NLL: 40.115:  83%|████████▎ | 333/400 [22:30<04:32,  4.07s/it]Train NLL: 40.032, Val NLL: 40.115:  84%|████████▎ | 334/400 [22:34<04:27,  4.06s/it]Train NLL: 40.032, Val NLL: 40.115:  84%|████████▍ | 335/400 [22:39<04:23,  4.06s/it]Train NLL: 40.032, Val NLL: 40.115:  84%|████████▍ | 336/400 [22:43<04:20,  4.07s/it]Train NLL: 40.032, Val NLL: 40.115:  84%|████████▍ | 337/400 [22:47<04:15,  4.06s/it]Train NLL: 40.032, Val NLL: 40.115:  84%|████████▍ | 338/400 [22:51<04:12,  4.07s/it]Train NLL: 40.032, Val NLL: 40.115:  85%|████████▍ | 339/400 [22:55<04:07,  4.06s/it]Train NLL: 40.032, Val NLL: 40.115:  85%|████████▌ | 340/400 [22:59<04:03,  4.06s/it]Train NLL: 40.032, Val NLL: 40.115:  85%|████████▌ | 341/400 [23:03<03:59,  4.06s/it]Train NLL: 40.032, Val NLL: 40.115:  86%|████████▌ | 342/400 [23:07<03:55,  4.06s/it]Train NLL: 40.032, Val NLL: 40.115:  86%|████████▌ | 343/400 [23:11<03:51,  4.07s/it]Train NLL: 40.032, Val NLL: 40.115:  86%|████████▌ | 344/400 [23:15<03:47,  4.06s/it]Train NLL: 40.032, Val NLL: 40.115:  86%|████████▋ | 345/400 [23:19<03:43,  4.06s/it]Train NLL: 40.032, Val NLL: 40.115:  86%|████████▋ | 346/400 [23:23<03:39,  4.07s/it]Train NLL: 40.032, Val NLL: 40.115:  87%|████████▋ | 347/400 [23:27<03:35,  4.06s/it]Train NLL: 40.032, Val NLL: 40.115:  87%|████████▋ | 348/400 [23:31<03:31,  4.07s/it]Train NLL: 40.032, Val NLL: 40.115:  87%|████████▋ | 349/400 [23:35<03:27,  4.06s/it]Train NLL: 40.032, Val NLL: 40.115:  88%|████████▊ | 350/400 [23:39<03:22,  4.06s/it]Train NLL: 40.032, Val NLL: 40.115:  88%|████████▊ | 351/400 [23:44<03:18,  4.06s/it]Train NLL: 40.032, Val NLL: 40.115:  88%|████████▊ | 352/400 [23:48<03:14,  4.05s/it]Train NLL: 40.032, Val NLL: 40.115:  88%|████████▊ | 353/400 [23:52<03:10,  4.06s/it]Train NLL: 40.032, Val NLL: 40.115:  88%|████████▊ | 354/400 [23:56<03:06,  4.06s/it]Train NLL: 40.032, Val NLL: 40.115:  89%|████████▉ | 355/400 [24:00<03:02,  4.06s/it]Train NLL: 40.032, Val NLL: 40.115:  89%|████████▉ | 356/400 [24:04<02:58,  4.06s/it]Train NLL: 40.032, Val NLL: 40.115:  89%|████████▉ | 357/400 [24:08<02:54,  4.05s/it]Train NLL: 40.032, Val NLL: 40.115:  90%|████████▉ | 358/400 [24:12<02:50,  4.05s/it]Train NLL: 40.032, Val NLL: 40.115:  90%|████████▉ | 359/400 [24:16<02:46,  4.05s/it]Train NLL: 40.032, Val NLL: 40.115:  90%|█████████ | 360/400 [24:20<02:42,  4.06s/it]Train NLL: 40.032, Val NLL: 40.115:  90%|█████████ | 361/400 [24:24<02:38,  4.05s/it]Train NLL: 40.032, Val NLL: 40.115:  90%|█████████ | 362/400 [24:28<02:33,  4.05s/it]Train NLL: 40.032, Val NLL: 40.115:  91%|█████████ | 363/400 [24:32<02:30,  4.06s/it]Train NLL: 40.032, Val NLL: 40.115:  91%|█████████ | 364/400 [24:36<02:25,  4.05s/it]Train NLL: 40.032, Val NLL: 40.115:  91%|█████████▏| 365/400 [24:40<02:21,  4.06s/it]Train NLL: 40.032, Val NLL: 40.115:  92%|█████████▏| 366/400 [24:44<02:17,  4.05s/it]Train NLL: 40.032, Val NLL: 40.115:  92%|█████████▏| 367/400 [24:48<02:13,  4.05s/it]Train NLL: 40.032, Val NLL: 40.115:  92%|█████████▏| 368/400 [24:52<02:09,  4.06s/it]Train NLL: 40.032, Val NLL: 40.115:  92%|█████████▏| 369/400 [24:57<02:05,  4.06s/it]Train NLL: 40.032, Val NLL: 40.115:  92%|█████████▎| 370/400 [25:01<02:01,  4.06s/it]Train NLL: 40.032, Val NLL: 40.115:  93%|█████████▎| 371/400 [25:05<01:57,  4.05s/it]Train NLL: 40.032, Val NLL: 40.115:  93%|█████████▎| 372/400 [25:09<01:53,  4.05s/it]Train NLL: 40.032, Val NLL: 40.115:  93%|█████████▎| 373/400 [25:13<01:49,  4.06s/it]Train NLL: 40.032, Val NLL: 40.115:  94%|█████████▎| 374/400 [25:17<01:45,  4.05s/it]Train NLL: 40.032, Val NLL: 40.115:  94%|█████████▍| 375/400 [25:21<01:41,  4.05s/it]Train NLL: 40.032, Val NLL: 40.115:  94%|█████████▍| 376/400 [25:25<01:37,  4.05s/it]Train NLL: 40.032, Val NLL: 40.115:  94%|█████████▍| 377/400 [25:29<01:33,  4.05s/it]Train NLL: 40.032, Val NLL: 40.115:  94%|█████████▍| 378/400 [25:33<01:29,  4.05s/it]Train NLL: 40.032, Val NLL: 40.115:  95%|█████████▍| 379/400 [25:37<01:25,  4.05s/it]Train NLL: 40.032, Val NLL: 40.115:  95%|█████████▌| 380/400 [25:41<01:21,  4.05s/it]Train NLL: 40.032, Val NLL: 40.115:  95%|█████████▌| 381/400 [25:45<01:16,  4.05s/it]Train NLL: 40.032, Val NLL: 40.115:  96%|█████████▌| 382/400 [25:49<01:12,  4.05s/it]Train NLL: 40.032, Val NLL: 40.115:  96%|█████████▌| 383/400 [25:53<01:08,  4.05s/it]Train NLL: 40.032, Val NLL: 40.115:  96%|█████████▌| 384/400 [25:57<01:04,  4.05s/it]Train NLL: 40.032, Val NLL: 40.115:  96%|█████████▋| 385/400 [26:01<01:00,  4.06s/it]Train NLL: 40.032, Val NLL: 40.115:  96%|█████████▋| 386/400 [26:05<00:56,  4.06s/it]Train NLL: 40.032, Val NLL: 40.115:  97%|█████████▋| 387/400 [26:09<00:52,  4.05s/it]Train NLL: 40.032, Val NLL: 40.115:  97%|█████████▋| 388/400 [26:14<00:48,  4.06s/it]Train NLL: 40.032, Val NLL: 40.115:  97%|█████████▋| 389/400 [26:18<00:44,  4.05s/it]Train NLL: 40.032, Val NLL: 40.115:  98%|█████████▊| 390/400 [26:22<00:40,  4.06s/it]Train NLL: 40.032, Val NLL: 40.115:  98%|█████████▊| 391/400 [26:26<00:36,  4.05s/it]Train NLL: 40.032, Val NLL: 40.115:  98%|█████████▊| 392/400 [26:30<00:32,  4.06s/it]Train NLL: 40.032, Val NLL: 40.115:  98%|█████████▊| 393/400 [26:34<00:28,  4.06s/it]Train NLL: 40.032, Val NLL: 40.115:  98%|█████████▊| 394/400 [26:38<00:24,  4.05s/it]Train NLL: 40.032, Val NLL: 40.115:  99%|█████████▉| 395/400 [26:42<00:20,  4.06s/it]Train NLL: 40.032, Val NLL: 40.115:  99%|█████████▉| 396/400 [26:46<00:16,  4.05s/it]Train NLL: 40.032, Val NLL: 40.115:  99%|█████████▉| 397/400 [26:50<00:12,  4.05s/it]Train NLL: 40.032, Val NLL: 40.115: 100%|█████████▉| 398/400 [26:54<00:08,  4.05s/it]Train NLL: 40.032, Val NLL: 40.115: 100%|█████████▉| 399/400 [26:58<00:04,  4.05s/it]Train NLL: 40.032, Val NLL: 40.115: 100%|██████████| 400/400 [27:02<00:00,  4.06s/it]Train NLL: 40.032, Val NLL: 40.115: 100%|██████████| 400/400 [27:02<00:00,  4.06s/it]
