{
  "memory.usage": {
    "steps": [
      0,
      1,
      2,
      3,
      4,
      5,
      6,
      7,
      8,
      9,
      10,
      11,
      12,
      13,
      14,
      15,
      16,
      17,
      18,
      19,
      20,
      21,
      22,
      23,
      24,
      25,
      26,
      27,
      28,
      29,
      30,
      31,
      32,
      33,
      34,
      35,
      36,
      37,
      38,
      39,
      40,
      41
    ],
    "timestamps": [
      "2022-09-29T08:35:26.454081",
      "2022-09-29T08:35:32.021751",
      "2022-09-29T08:35:38.214085",
      "2022-09-29T08:35:44.333237",
      "2022-09-29T08:35:50.488655",
      "2022-09-29T08:35:56.458187",
      "2022-09-29T08:36:02.352572",
      "2022-09-29T08:36:08.458472",
      "2022-09-29T08:36:14.473798",
      "2022-09-29T08:36:20.400759",
      "2022-09-29T08:36:26.322309",
      "2022-09-29T08:36:32.235899",
      "2022-09-29T08:36:38.566627",
      "2022-09-29T08:36:44.880246",
      "2022-09-29T08:36:55.317581",
      "2022-09-29T08:37:12.187590",
      "2022-09-29T08:37:28.557075",
      "2022-09-29T08:37:45.333135",
      "2022-09-29T08:38:01.606412",
      "2022-09-29T08:38:18.434812",
      "2022-09-29T08:38:35.452620",
      "2022-09-29T08:38:52.952838",
      "2022-09-29T08:39:10.212090",
      "2022-09-29T08:39:30.054312",
      "2022-09-29T08:39:37.764445",
      "2022-09-29T08:39:43.773200",
      "2022-09-29T08:39:49.742962",
      "2022-09-29T08:39:55.834226",
      "2022-09-29T08:40:01.891583",
      "2022-09-29T08:40:08.196006",
      "2022-09-29T08:40:14.394760",
      "2022-09-29T08:40:20.556878",
      "2022-09-29T08:40:26.576331",
      "2022-09-29T08:40:32.459938",
      "2022-09-29T08:40:38.369874",
      "2022-09-29T08:40:44.491217",
      "2022-09-29T08:40:50.558100",
      "2022-09-29T08:40:56.755792",
      "2022-09-29T08:41:02.724729",
      "2022-09-29T08:41:08.624674",
      "2022-09-29T08:41:14.507397",
      "2022-09-29T08:41:20.633227"
    ],
    "values": [
      28.43648,
      29.701632,
      29.701632,
      29.701632,
      29.701632,
      29.701632,
      29.701632,
      29.701632,
      29.701632,
      29.701632,
      29.701632,
      29.701632,
      29.701632,
      29.701632,
      29.701632,
      29.701632,
      29.701632,
      29.701632,
      29.701632,
      29.701632,
      29.701632,
      29.701632,
      29.701632,
      29.701632,
      29.701632,
      29.701632,
      29.701632,
      29.701632,
      29.701632,
      29.701632,
      29.701632,
      29.701632,
      29.701632,
      29.701632,
      29.701632,
      29.701632,
      29.701632,
      29.701632,
      29.701632,
      29.701632,
      29.701632,
      29.701632
    ]
  },
  "train": {
    "steps": [
      0,
      1,
      2,
      3,
      4,
      5,
      6,
      7,
      8,
      9,
      10,
      11,
      12,
      13,
      14,
      15,
      16,
      17,
      18,
      19,
      20,
      21,
      22,
      23,
      24,
      25,
      26,
      27,
      28,
      29,
      30,
      31,
      32,
      33,
      34,
      35,
      36,
      37,
      38,
      39,
      40,
      41,
      42,
      43,
      44,
      45,
      46,
      47,
      48,
      49,
      50,
      51,
      52,
      53,
      54,
      55,
      56,
      57,
      58,
      59,
      60,
      61,
      62,
      63,
      64,
      65,
      66,
      67,
      68,
      69,
      70,
      71,
      72,
      73,
      74,
      75,
      76,
      77,
      78,
      79,
      80,
      81,
      82,
      83,
      84,
      85,
      86,
      87,
      88,
      89,
      90,
      91,
      92,
      93,
      94,
      95,
      96,
      97,
      98,
      99,
      100,
      101,
      102,
      103,
      104,
      105,
      106,
      107,
      108,
      109,
      110,
      111,
      112,
      113,
      114,
      115,
      116,
      117,
      118,
      119,
      120,
      121,
      122,
      123,
      124,
      125,
      126,
      127,
      128,
      129,
      130,
      131,
      132,
      133,
      134,
      135,
      136,
      137,
      138,
      139,
      140,
      141,
      142,
      143,
      144,
      145,
      146,
      147,
      148,
      149,
      150,
      151,
      152,
      153,
      154,
      155,
      156,
      157,
      158,
      159,
      160,
      161,
      162,
      163,
      164,
      165,
      166,
      167,
      168,
      169,
      170,
      171,
      172,
      173,
      174,
      175,
      176,
      177,
      178,
      179,
      180,
      181,
      182,
      183,
      184,
      185,
      186,
      187,
      188,
      189,
      190,
      191,
      192,
      193,
      194,
      195,
      196,
      197,
      198,
      199,
      200,
      201,
      202,
      203,
      204,
      205,
      206,
      207,
      208,
      209,
      210,
      211,
      212,
      213,
      214,
      215,
      216,
      217,
      218,
      219,
      220,
      221,
      222,
      223,
      224,
      225,
      226,
      227,
      228,
      229,
      230,
      231,
      232,
      233,
      234,
      235,
      236,
      237,
      238,
      239,
      240,
      241,
      242,
      243,
      244,
      245,
      246,
      247,
      248,
      249,
      250,
      251,
      252,
      253,
      254,
      255,
      256,
      257,
      258,
      259,
      260,
      261,
      262,
      263,
      264,
      265,
      266,
      267,
      268,
      269,
      270,
      271,
      272,
      273,
      274,
      275,
      276,
      277,
      278,
      279,
      280,
      281,
      282,
      283,
      284,
      285,
      286,
      287,
      288,
      289,
      290,
      291,
      292,
      293,
      294,
      295,
      296,
      297,
      298,
      299,
      300,
      301,
      302,
      303,
      304,
      305,
      306,
      307,
      308,
      309,
      310,
      311,
      312,
      313,
      314,
      315,
      316,
      317,
      318,
      319,
      320,
      321,
      322,
      323,
      324,
      325,
      326,
      327,
      328,
      329,
      330,
      331,
      332,
      333,
      334,
      335,
      336,
      337,
      338,
      339,
      340,
      341,
      342,
      343,
      344,
      345,
      346,
      347,
      348,
      349,
      350,
      351,
      352,
      353,
      354,
      355,
      356,
      357,
      358,
      359,
      360,
      361,
      362,
      363,
      364,
      365,
      366,
      367,
      368,
      369,
      370,
      371,
      372,
      373,
      374,
      375,
      376,
      377,
      378,
      379,
      380,
      381,
      382,
      383,
      384,
      385,
      386,
      387,
      388,
      389,
      390,
      391,
      392,
      393,
      394,
      395,
      396,
      397,
      398,
      399,
      400,
      401,
      402,
      403,
      404,
      405,
      406,
      407,
      408,
      409,
      410,
      411,
      412,
      413
    ],
    "timestamps": [
      "2022-09-29T08:35:26.453855",
      "2022-09-29T08:35:27.134471",
      "2022-09-29T08:35:27.801543",
      "2022-09-29T08:35:28.435644",
      "2022-09-29T08:35:29.050751",
      "2022-09-29T08:35:29.639135",
      "2022-09-29T08:35:30.227652",
      "2022-09-29T08:35:30.815229",
      "2022-09-29T08:35:31.434457",
      "2022-09-29T08:35:32.021319",
      "2022-09-29T08:35:32.675998",
      "2022-09-29T08:35:33.272296",
      "2022-09-29T08:35:33.885308",
      "2022-09-29T08:35:34.503372",
      "2022-09-29T08:35:35.092571",
      "2022-09-29T08:35:35.746894",
      "2022-09-29T08:35:36.402044",
      "2022-09-29T08:35:37.012237",
      "2022-09-29T08:35:37.624686",
      "2022-09-29T08:35:38.213960",
      "2022-09-29T08:35:38.824517",
      "2022-09-29T08:35:39.418452",
      "2022-09-29T08:35:40.010581",
      "2022-09-29T08:35:40.602377",
      "2022-09-29T08:35:41.187236",
      "2022-09-29T08:35:41.847615",
      "2022-09-29T08:35:42.432089",
      "2022-09-29T08:35:43.023473",
      "2022-09-29T08:35:43.713648",
      "2022-09-29T08:35:44.333101",
      "2022-09-29T08:35:44.940177",
      "2022-09-29T08:35:45.535496",
      "2022-09-29T08:35:46.180439",
      "2022-09-29T08:35:46.794375",
      "2022-09-29T08:35:47.401805",
      "2022-09-29T08:35:47.999935",
      "2022-09-29T08:35:48.630748",
      "2022-09-29T08:35:49.225617",
      "2022-09-29T08:35:49.881417",
      "2022-09-29T08:35:50.488285",
      "2022-09-29T08:35:51.096331",
      "2022-09-29T08:35:51.703140",
      "2022-09-29T08:35:52.354647",
      "2022-09-29T08:35:52.944200",
      "2022-09-29T08:35:53.530951",
      "2022-09-29T08:35:54.117289",
      "2022-09-29T08:35:54.701980",
      "2022-09-29T08:35:55.289170",
      "2022-09-29T08:35:55.872135",
      "2022-09-29T08:35:56.457872",
      "2022-09-29T08:35:57.057974",
      "2022-09-29T08:35:57.644412",
      "2022-09-29T08:35:58.229448",
      "2022-09-29T08:35:58.817394",
      "2022-09-29T08:35:59.400707",
      "2022-09-29T08:35:59.986865",
      "2022-09-29T08:36:00.568908",
      "2022-09-29T08:36:01.164801",
      "2022-09-29T08:36:01.749108",
      "2022-09-29T08:36:02.352425",
      "2022-09-29T08:36:03.049091",
      "2022-09-29T08:36:03.646217",
      "2022-09-29T08:36:04.235330",
      "2022-09-29T08:36:04.832694",
      "2022-09-29T08:36:05.421815",
      "2022-09-29T08:36:06.012768",
      "2022-09-29T08:36:06.646868",
      "2022-09-29T08:36:07.245995",
      "2022-09-29T08:36:07.844380",
      "2022-09-29T08:36:08.458332",
      "2022-09-29T08:36:09.067035",
      "2022-09-29T08:36:09.655311",
      "2022-09-29T08:36:10.242217",
      "2022-09-29T08:36:10.831704",
      "2022-09-29T08:36:11.418937",
      "2022-09-29T08:36:12.026201",
      "2022-09-29T08:36:12.614786",
      "2022-09-29T08:36:13.253350",
      "2022-09-29T08:36:13.879679",
      "2022-09-29T08:36:14.473476",
      "2022-09-29T08:36:15.083315",
      "2022-09-29T08:36:15.673863",
      "2022-09-29T08:36:16.258702",
      "2022-09-29T08:36:16.852973",
      "2022-09-29T08:36:17.439217",
      "2022-09-29T08:36:18.038011",
      "2022-09-29T08:36:18.636235",
      "2022-09-29T08:36:19.226472",
      "2022-09-29T08:36:19.811368",
      "2022-09-29T08:36:20.400432",
      "2022-09-29T08:36:21.004393",
      "2022-09-29T08:36:21.595888",
      "2022-09-29T08:36:22.182512",
      "2022-09-29T08:36:22.772376",
      "2022-09-29T08:36:23.374305",
      "2022-09-29T08:36:23.967540",
      "2022-09-29T08:36:24.555870",
      "2022-09-29T08:36:25.144268",
      "2022-09-29T08:36:25.733341",
      "2022-09-29T08:36:26.322181",
      "2022-09-29T08:36:26.924998",
      "2022-09-29T08:36:27.521856",
      "2022-09-29T08:36:28.106348",
      "2022-09-29T08:36:28.713372",
      "2022-09-29T08:36:29.300780",
      "2022-09-29T08:36:29.890057",
      "2022-09-29T08:36:30.474198",
      "2022-09-29T08:36:31.063279",
      "2022-09-29T08:36:31.648473",
      "2022-09-29T08:36:32.235771",
      "2022-09-29T08:36:32.869548",
      "2022-09-29T08:36:33.524810",
      "2022-09-29T08:36:34.161606",
      "2022-09-29T08:36:34.762729",
      "2022-09-29T08:36:35.349525",
      "2022-09-29T08:36:35.938691",
      "2022-09-29T08:36:36.548444",
      "2022-09-29T08:36:37.208270",
      "2022-09-29T08:36:37.916978",
      "2022-09-29T08:36:38.566243",
      "2022-09-29T08:36:39.231370",
      "2022-09-29T08:36:39.839106",
      "2022-09-29T08:36:40.486852",
      "2022-09-29T08:36:41.158740",
      "2022-09-29T08:36:41.817919",
      "2022-09-29T08:36:42.495233",
      "2022-09-29T08:36:43.086546",
      "2022-09-29T08:36:43.679303",
      "2022-09-29T08:36:44.274199",
      "2022-09-29T08:36:44.880102",
      "2022-09-29T08:36:45.501749",
      "2022-09-29T08:36:46.098637",
      "2022-09-29T08:36:46.694453",
      "2022-09-29T08:36:47.357269",
      "2022-09-29T08:36:47.999874",
      "2022-09-29T08:36:48.622292",
      "2022-09-29T08:36:50.173989",
      "2022-09-29T08:36:52.023623",
      "2022-09-29T08:36:53.770016",
      "2022-09-29T08:36:55.317422",
      "2022-09-29T08:36:56.907365",
      "2022-09-29T08:36:58.688885",
      "2022-09-29T08:37:00.378676",
      "2022-09-29T08:37:02.122199",
      "2022-09-29T08:37:03.831030",
      "2022-09-29T08:37:05.544784",
      "2022-09-29T08:37:07.328992",
      "2022-09-29T08:37:08.888792",
      "2022-09-29T08:37:10.517373",
      "2022-09-29T08:37:12.187449",
      "2022-09-29T08:37:13.809402",
      "2022-09-29T08:37:15.401134",
      "2022-09-29T08:37:17.094031",
      "2022-09-29T08:37:18.630211",
      "2022-09-29T08:37:20.200937",
      "2022-09-29T08:37:21.925170",
      "2022-09-29T08:37:23.574017",
      "2022-09-29T08:37:25.102462",
      "2022-09-29T08:37:26.839250",
      "2022-09-29T08:37:28.556598",
      "2022-09-29T08:37:30.071614",
      "2022-09-29T08:37:31.760982",
      "2022-09-29T08:37:33.481792",
      "2022-09-29T08:37:35.211606",
      "2022-09-29T08:37:36.846298",
      "2022-09-29T08:37:38.604781",
      "2022-09-29T08:37:40.302351",
      "2022-09-29T08:37:41.928251",
      "2022-09-29T08:37:43.624936",
      "2022-09-29T08:37:45.332968",
      "2022-09-29T08:37:47.026212",
      "2022-09-29T08:37:48.672341",
      "2022-09-29T08:37:50.291757",
      "2022-09-29T08:37:51.823282",
      "2022-09-29T08:37:53.384850",
      "2022-09-29T08:37:54.979770",
      "2022-09-29T08:37:56.670892",
      "2022-09-29T08:37:58.322421",
      "2022-09-29T08:37:59.992471",
      "2022-09-29T08:38:01.605959",
      "2022-09-29T08:38:03.199146",
      "2022-09-29T08:38:04.885039",
      "2022-09-29T08:38:06.530471",
      "2022-09-29T08:38:08.217371",
      "2022-09-29T08:38:09.908855",
      "2022-09-29T08:38:11.634309",
      "2022-09-29T08:38:13.314421",
      "2022-09-29T08:38:15.055094",
      "2022-09-29T08:38:16.724905",
      "2022-09-29T08:38:18.434669",
      "2022-09-29T08:38:20.183993",
      "2022-09-29T08:38:21.819627",
      "2022-09-29T08:38:23.551923",
      "2022-09-29T08:38:25.190318",
      "2022-09-29T08:38:26.959017",
      "2022-09-29T08:38:28.622905",
      "2022-09-29T08:38:30.423451",
      "2022-09-29T08:38:32.135736",
      "2022-09-29T08:38:33.808964",
      "2022-09-29T08:38:35.452422",
      "2022-09-29T08:38:37.204160",
      "2022-09-29T08:38:38.963957",
      "2022-09-29T08:38:40.822986",
      "2022-09-29T08:38:42.746716",
      "2022-09-29T08:38:44.526144",
      "2022-09-29T08:38:46.300392",
      "2022-09-29T08:38:48.039281",
      "2022-09-29T08:38:49.748836",
      "2022-09-29T08:38:51.330596",
      "2022-09-29T08:38:52.952696",
      "2022-09-29T08:38:54.729627",
      "2022-09-29T08:38:56.559014",
      "2022-09-29T08:38:58.406735",
      "2022-09-29T08:39:00.213560",
      "2022-09-29T08:39:01.918265",
      "2022-09-29T08:39:03.522109",
      "2022-09-29T08:39:05.123674",
      "2022-09-29T08:39:06.761492",
      "2022-09-29T08:39:08.332445",
      "2022-09-29T08:39:10.211537",
      "2022-09-29T08:39:12.014716",
      "2022-09-29T08:39:14.066072",
      "2022-09-29T08:39:15.968859",
      "2022-09-29T08:39:17.995789",
      "2022-09-29T08:39:20.066770",
      "2022-09-29T08:39:21.949438",
      "2022-09-29T08:39:23.974713",
      "2022-09-29T08:39:26.038384",
      "2022-09-29T08:39:28.067493",
      "2022-09-29T08:39:30.053860",
      "2022-09-29T08:39:32.234913",
      "2022-09-29T08:39:32.865542",
      "2022-09-29T08:39:33.489377",
      "2022-09-29T08:39:34.097478",
      "2022-09-29T08:39:34.730211",
      "2022-09-29T08:39:35.317852",
      "2022-09-29T08:39:35.930396",
      "2022-09-29T08:39:36.543407",
      "2022-09-29T08:39:37.143400",
      "2022-09-29T08:39:37.764316",
      "2022-09-29T08:39:38.376372",
      "2022-09-29T08:39:38.963828",
      "2022-09-29T08:39:39.562501",
      "2022-09-29T08:39:40.153743",
      "2022-09-29T08:39:40.754432",
      "2022-09-29T08:39:41.374392",
      "2022-09-29T08:39:41.999902",
      "2022-09-29T08:39:42.597640",
      "2022-09-29T08:39:43.187900",
      "2022-09-29T08:39:43.773080",
      "2022-09-29T08:39:44.382472",
      "2022-09-29T08:39:44.991067",
      "2022-09-29T08:39:45.583935",
      "2022-09-29T08:39:46.176551",
      "2022-09-29T08:39:46.768953",
      "2022-09-29T08:39:47.357541",
      "2022-09-29T08:39:47.951096",
      "2022-09-29T08:39:48.548947",
      "2022-09-29T08:39:49.140439",
      "2022-09-29T08:39:49.742566",
      "2022-09-29T08:39:50.363472",
      "2022-09-29T08:39:50.979344",
      "2022-09-29T08:39:51.608538",
      "2022-09-29T08:39:52.200780",
      "2022-09-29T08:39:52.794220",
      "2022-09-29T08:39:53.406839",
      "2022-09-29T08:39:54.026305",
      "2022-09-29T08:39:54.617999",
      "2022-09-29T08:39:55.245237",
      "2022-09-29T08:39:55.833959",
      "2022-09-29T08:39:56.441783",
      "2022-09-29T08:39:57.070985",
      "2022-09-29T08:39:57.693274",
      "2022-09-29T08:39:58.303676",
      "2022-09-29T08:39:58.896344",
      "2022-09-29T08:39:59.481331",
      "2022-09-29T08:40:00.111098",
      "2022-09-29T08:40:00.705310",
      "2022-09-29T08:40:01.297837",
      "2022-09-29T08:40:01.891309",
      "2022-09-29T08:40:02.550922",
      "2022-09-29T08:40:03.173407",
      "2022-09-29T08:40:03.854775",
      "2022-09-29T08:40:04.462033",
      "2022-09-29T08:40:05.109676",
      "2022-09-29T08:40:05.753560",
      "2022-09-29T08:40:06.350853",
      "2022-09-29T08:40:06.944835",
      "2022-09-29T08:40:07.570110",
      "2022-09-29T08:40:08.195526",
      "2022-09-29T08:40:08.822196",
      "2022-09-29T08:40:09.463106",
      "2022-09-29T08:40:10.139053",
      "2022-09-29T08:40:10.756562",
      "2022-09-29T08:40:11.358611",
      "2022-09-29T08:40:11.963441",
      "2022-09-29T08:40:12.566831",
      "2022-09-29T08:40:13.193323",
      "2022-09-29T08:40:13.793581",
      "2022-09-29T08:40:14.394423",
      "2022-09-29T08:40:15.018525",
      "2022-09-29T08:40:15.618023",
      "2022-09-29T08:40:16.279041",
      "2022-09-29T08:40:16.937254",
      "2022-09-29T08:40:17.534140",
      "2022-09-29T08:40:18.122756",
      "2022-09-29T08:40:18.745121",
      "2022-09-29T08:40:19.363814",
      "2022-09-29T08:40:19.970336",
      "2022-09-29T08:40:20.556599",
      "2022-09-29T08:40:21.164960",
      "2022-09-29T08:40:21.764798",
      "2022-09-29T08:40:22.364817",
      "2022-09-29T08:40:23.044344",
      "2022-09-29T08:40:23.653200",
      "2022-09-29T08:40:24.237952",
      "2022-09-29T08:40:24.828899",
      "2022-09-29T08:40:25.410787",
      "2022-09-29T08:40:25.994615",
      "2022-09-29T08:40:26.576215",
      "2022-09-29T08:40:27.178336",
      "2022-09-29T08:40:27.766977",
      "2022-09-29T08:40:28.361130",
      "2022-09-29T08:40:28.943140",
      "2022-09-29T08:40:29.528971",
      "2022-09-29T08:40:30.110637",
      "2022-09-29T08:40:30.709259",
      "2022-09-29T08:40:31.291147",
      "2022-09-29T08:40:31.877053",
      "2022-09-29T08:40:32.459822",
      "2022-09-29T08:40:33.073476",
      "2022-09-29T08:40:33.663977",
      "2022-09-29T08:40:34.252942",
      "2022-09-29T08:40:34.841586",
      "2022-09-29T08:40:35.430698",
      "2022-09-29T08:40:36.013377",
      "2022-09-29T08:40:36.600134",
      "2022-09-29T08:40:37.183788",
      "2022-09-29T08:40:37.772321",
      "2022-09-29T08:40:38.369754",
      "2022-09-29T08:40:39.027793",
      "2022-09-29T08:40:39.630172",
      "2022-09-29T08:40:40.237534",
      "2022-09-29T08:40:40.827397",
      "2022-09-29T08:40:41.435780",
      "2022-09-29T08:40:42.056633",
      "2022-09-29T08:40:42.687887",
      "2022-09-29T08:40:43.293464",
      "2022-09-29T08:40:43.897200",
      "2022-09-29T08:40:44.490897",
      "2022-09-29T08:40:45.123207",
      "2022-09-29T08:40:45.726498",
      "2022-09-29T08:40:46.315865",
      "2022-09-29T08:40:46.902321",
      "2022-09-29T08:40:47.520666",
      "2022-09-29T08:40:48.139065",
      "2022-09-29T08:40:48.755928",
      "2022-09-29T08:40:49.355671",
      "2022-09-29T08:40:49.958957",
      "2022-09-29T08:40:50.557964",
      "2022-09-29T08:40:51.179866",
      "2022-09-29T08:40:51.782573",
      "2022-09-29T08:40:52.391059",
      "2022-09-29T08:40:52.990898",
      "2022-09-29T08:40:53.596254",
      "2022-09-29T08:40:54.193984",
      "2022-09-29T08:40:54.876444",
      "2022-09-29T08:40:55.468407",
      "2022-09-29T08:40:56.129496",
      "2022-09-29T08:40:56.755393",
      "2022-09-29T08:40:57.372259",
      "2022-09-29T08:40:57.959142",
      "2022-09-29T08:40:58.550317",
      "2022-09-29T08:40:59.182561",
      "2022-09-29T08:40:59.777647",
      "2022-09-29T08:41:00.359737",
      "2022-09-29T08:41:00.945638",
      "2022-09-29T08:41:01.543245",
      "2022-09-29T08:41:02.140601",
      "2022-09-29T08:41:02.724465",
      "2022-09-29T08:41:03.331427",
      "2022-09-29T08:41:03.912381",
      "2022-09-29T08:41:04.504204",
      "2022-09-29T08:41:05.088674",
      "2022-09-29T08:41:05.677822",
      "2022-09-29T08:41:06.267494",
      "2022-09-29T08:41:06.869415",
      "2022-09-29T08:41:07.452790",
      "2022-09-29T08:41:08.040222",
      "2022-09-29T08:41:08.624556",
      "2022-09-29T08:41:09.226614",
      "2022-09-29T08:41:09.811580",
      "2022-09-29T08:41:10.396838",
      "2022-09-29T08:41:10.979551",
      "2022-09-29T08:41:11.575711",
      "2022-09-29T08:41:12.164719",
      "2022-09-29T08:41:12.750422",
      "2022-09-29T08:41:13.334084",
      "2022-09-29T08:41:13.920437",
      "2022-09-29T08:41:14.507277",
      "2022-09-29T08:41:15.111796",
      "2022-09-29T08:41:15.694560",
      "2022-09-29T08:41:16.281878",
      "2022-09-29T08:41:16.891654",
      "2022-09-29T08:41:17.479874",
      "2022-09-29T08:41:18.063871",
      "2022-09-29T08:41:18.718357",
      "2022-09-29T08:41:19.387606",
      "2022-09-29T08:41:20.008632",
      "2022-09-29T08:41:20.633095",
      "2022-09-29T08:41:21.331105",
      "2022-09-29T08:41:21.961345",
      "2022-09-29T08:41:22.589248",
      "2022-09-29T08:41:23.190830"
    ],
    "values": [
      92.86032554844361,
      84.16438765540306,
      82.27646257667269,
      78.19994216535159,
      75.31693796411452,
      71.85357805063917,
      68.81841704159196,
      66.14779822868864,
      64.93325720189094,
      63.48490576443446,
      61.50734972217565,
      60.398759334085696,
      59.62605253338797,
      58.494919728834354,
      57.73018409943411,
      56.7789592675738,
      55.612672353021026,
      55.28360839482802,
      54.52905191950539,
      53.406322873467026,
      53.06955275500434,
      52.7292485534929,
      52.06403106333253,
      51.96450036482957,
      52.33881376369184,
      51.342726062320935,
      51.19885549747736,
      50.8208409111084,
      51.03070577145075,
      50.24832856874163,
      49.78035044114676,
      50.18384558509935,
      50.03932584056836,
      49.15962647806181,
      49.30136499594776,
      48.86002136625201,
      48.791512170041656,
      49.20936273852699,
      48.442303539282165,
      48.30403207778231,
      48.380933701174875,
      47.89606258915732,
      47.69883689324147,
      47.58512948545751,
      47.26187080341871,
      47.0934775331305,
      47.092193616891976,
      46.99314294598451,
      46.67972966764116,
      46.5047488720554,
      46.47924515194973,
      46.54534992737573,
      46.08750298543691,
      45.94714914496037,
      45.9506375306975,
      45.99847612592645,
      45.73671356477066,
      45.820048153004194,
      45.4543411377503,
      45.42041918071083,
      45.17233222631207,
      45.28466447599946,
      45.190314353198296,
      45.323724779947604,
      44.890799716204185,
      45.108188697267686,
      44.88621215608789,
      45.03327138135216,
      44.68949738748845,
      44.72919603165807,
      44.6135295462559,
      44.84890714360081,
      44.13775084149955,
      44.68603683112678,
      44.514912859133894,
      43.99919812639323,
      44.1377146775697,
      43.93310364362082,
      43.777290723445084,
      43.38632056001372,
      43.524827969957386,
      43.26062538631648,
      43.37778898465311,
      43.62317442105565,
      43.86323202391693,
      43.0145804035648,
      43.04464234548847,
      43.288606206847774,
      42.89511444066043,
      42.855495648002886,
      42.99200428546684,
      43.264640522836736,
      42.94851675554764,
      42.89483219708671,
      42.7825187154609,
      42.62236647924699,
      42.38473029604965,
      42.658973277341296,
      42.34264822104646,
      42.602841105360426,
      42.109305833712824,
      41.5519323868207,
      41.92763824787544,
      42.04665895400737,
      41.825809361154825,
      41.81503413192243,
      42.06419154816034,
      41.87295240445711,
      40.97970019268304,
      41.30536512814917,
      41.63596558570703,
      41.25685375396284,
      41.63227921492441,
      40.97173975759448,
      41.17532861049292,
      40.82888541131071,
      40.46009067439437,
      40.45740575653815,
      40.48430768076097,
      40.20581638646545,
      40.199102726179234,
      40.43761458966046,
      40.42726563315167,
      40.10697640684441,
      40.10489588907601,
      40.5001838440869,
      40.132877482427865,
      40.03575191514049,
      39.83218453366525,
      40.0035796178694,
      39.86346006458289,
      39.75339898169467,
      39.40644142565248,
      39.57236990134128,
      39.56154484511809,
      39.57767191939479,
      39.16038341657519,
      39.234934679776146,
      38.7843975277548,
      38.92022959948947,
      39.139808173352186,
      38.91543133516122,
      38.651244660178506,
      38.70584512158738,
      38.39662468648668,
      38.720243730137,
      38.62969651071522,
      38.05621380309846,
      38.64148312543265,
      38.20526109144175,
      38.297561222752584,
      38.36602431354513,
      38.00957637511595,
      38.11390950507843,
      37.89134792781472,
      37.745846908336645,
      38.03656464807252,
      37.8134110906269,
      37.86900282277442,
      37.38840006643209,
      37.50712450284956,
      37.40582402174035,
      37.25107921191486,
      37.306915763148545,
      37.763769629753455,
      37.247811798695935,
      36.99983271890954,
      37.47071831332421,
      36.73117524002303,
      36.861333648310556,
      36.98744207011007,
      36.813930663511194,
      36.7562574064851,
      37.12672781484782,
      37.29391954250234,
      36.67041507687613,
      36.564932558994286,
      36.6864516256762,
      37.52018679573086,
      37.2316856904143,
      36.87167421654992,
      36.55653953827148,
      36.74332898786399,
      36.74773172466583,
      36.570784102435624,
      36.5684040397445,
      37.09887370850712,
      36.50771153694747,
      36.34982283798477,
      36.50225579427213,
      36.31615953313387,
      36.64474220837172,
      36.19299010714107,
      36.26201080675842,
      36.10036398774289,
      36.416547414297284,
      36.063108552607034,
      36.037452599505606,
      36.09091839119281,
      36.12259122894608,
      35.953819159029855,
      35.90769631710412,
      35.83313884825006,
      35.91567088942561,
      35.743865693556316,
      36.12946758011786,
      35.99815746180359,
      35.879631369989006,
      35.588580696050904,
      35.904558740583205,
      35.830687710680266,
      35.95838024425938,
      35.758002351852134,
      35.90738022591482,
      35.55521067621599,
      35.666700892707595,
      35.63591249785652,
      35.78075172608332,
      35.540313820687075,
      35.63836135241111,
      35.641235619085926,
      35.6916422230157,
      35.19237532606165,
      35.40647597873681,
      35.31067720528315,
      35.54796700887562,
      35.277790204374746,
      35.3906454460949,
      35.298059202401525,
      35.51187703989205,
      35.2931191454705,
      35.27488714827873,
      35.32988335774093,
      35.30640225586715,
      35.24698027620234,
      35.35670559525868,
      35.46446889513906,
      35.17215941580075,
      35.29532975098115,
      35.00200361752851,
      35.22074959288922,
      35.06248687755311,
      34.83702872128692,
      35.07414527016928,
      35.101191929775645,
      34.93393051877929,
      35.0088611848502,
      35.092290360971326,
      35.074224506661274,
      35.227341545978824,
      34.99972357543324,
      35.17614185889667,
      35.05722037025674,
      35.008978288108715,
      35.16499557472414,
      34.97136477969992,
      35.03282620935555,
      34.858877014648414,
      35.112763743515906,
      34.95449346232663,
      34.91332618997838,
      35.2934837543426,
      34.7571438256253,
      35.30508529130477,
      35.074658267512454,
      35.12913307173448,
      34.78987094246625,
      35.09013170419599,
      34.964087708102475,
      35.048435398781535,
      34.74618306451466,
      34.746755138888794,
      34.94486061198745,
      35.00379252270047,
      34.752232558946474,
      34.784727715950964,
      34.760850911635295,
      35.09362752755661,
      35.06431364898643,
      34.94134954043937,
      35.08271504319032,
      34.866877884437415,
      34.86157359272861,
      34.933928135708165,
      34.9555353453685,
      35.056090786059556,
      34.941366788901504,
      34.813959087924786,
      34.75162347358993,
      34.8868130924221,
      35.00957331118802,
      35.15569254800937,
      35.031813180097245,
      34.8101444726191,
      35.20547382317056,
      35.222017793631174,
      34.966212174076226,
      34.85134036262809,
      34.837944289672556,
      35.057228769178444,
      34.63569304298595,
      35.24549732000626,
      34.78674609170707,
      34.947218006707274,
      34.92407491780538,
      34.84387963921717,
      34.96429273538276,
      34.91282625131677,
      34.87192876911033,
      34.98562885689834,
      34.912719517637136,
      34.85279426352424,
      34.82976144985296,
      35.013499020257726,
      35.171723375351256,
      34.85700305800615,
      34.93577942180911,
      34.93226386129216,
      35.00542944414244,
      35.30524247617531,
      35.05240397640677,
      34.72495312943468,
      34.8168331217294,
      34.988313492391036,
      35.10561703898022,
      35.112863880949604,
      35.318118768186764,
      35.498331317075554,
      34.803809368750905,
      34.87379612784164,
      35.01063520274114,
      35.10488064554531,
      35.04136878378454,
      35.17241908953773,
      35.21670809825129,
      35.042405037723704,
      34.933342607816385,
      35.18743068481942,
      35.18031597713573,
      35.09714316736424,
      34.938873255405085,
      34.823659035411765,
      34.9066864758113,
      35.47601034466051,
      35.11469174483793,
      35.02127432049397,
      34.91009275201175,
      35.05234405758615,
      34.8887940889014,
      34.87383719501911,
      34.88972738114621,
      34.7510965292794,
      34.90027464487363,
      34.91267262194662,
      35.00645852444565,
      34.79163207239983,
      34.86692794884297,
      34.97628806946765,
      35.01932991203444,
      35.17323976890403,
      35.18074113723057,
      34.90002011904096,
      35.11536101692743,
      35.06819080902717,
      35.01686483529151,
      34.96735589705951,
      34.918512180438206,
      34.84064855150317,
      34.97012828161285,
      34.828266040473146,
      34.73872175112719,
      34.56977352215365,
      35.167805745693364,
      35.04569127381839,
      34.87760480443267,
      34.99234451315298,
      34.96216523786181,
      35.03706821713861,
      34.73241323552714,
      35.25488236086827,
      35.385153201150025,
      34.821954440465916,
      35.05493049828622,
      35.18271279468946,
      35.161436369842235,
      34.9494593406873,
      34.94288129388697,
      34.96358643537825,
      34.87968709704352,
      35.31992391131694,
      34.88470597981561,
      35.18064416102303,
      35.03367813616323,
      34.91094440416562,
      34.676095934809624,
      34.72821682672181,
      35.15946766613903,
      34.91200744688267,
      35.012782866507415,
      34.80858333633341,
      35.01377587631295,
      35.07446658754511,
      35.10585351679075,
      35.21252987073153,
      34.981762719674116,
      34.96627747526397,
      34.8796745345376,
      35.15277641865971,
      35.171610767899544,
      35.21699870294397,
      34.858185292523586,
      35.090140832504225,
      34.7693578047284,
      35.09911207730026
    ]
  },
  "val": {
    "steps": [
      0,
      1,
      2,
      3,
      4,
      5,
      6,
      7,
      8,
      9,
      10,
      11,
      12,
      13,
      14,
      15,
      16,
      17,
      18,
      19,
      20,
      21,
      22,
      23,
      24,
      25,
      26,
      27,
      28,
      29,
      30,
      31,
      32,
      33,
      34,
      35,
      36,
      37,
      38,
      39,
      40,
      41,
      42,
      43,
      44,
      45,
      46,
      47,
      48,
      49,
      50,
      51,
      52,
      53,
      54,
      55,
      56,
      57,
      58,
      59,
      60,
      61,
      62,
      63,
      64,
      65,
      66,
      67,
      68,
      69,
      70,
      71,
      72,
      73,
      74,
      75,
      76,
      77,
      78,
      79,
      80,
      81,
      82,
      83,
      84,
      85,
      86,
      87,
      88,
      89,
      90,
      91,
      92,
      93,
      94,
      95,
      96,
      97,
      98,
      99,
      100,
      101,
      102,
      103,
      104,
      105,
      106,
      107,
      108,
      109,
      110,
      111,
      112,
      113,
      114,
      115,
      116,
      117,
      118,
      119,
      120,
      121,
      122,
      123,
      124,
      125,
      126,
      127,
      128,
      129,
      130,
      131,
      132,
      133,
      134,
      135,
      136,
      137,
      138,
      139,
      140,
      141,
      142,
      143,
      144,
      145,
      146,
      147,
      148,
      149,
      150,
      151,
      152,
      153,
      154,
      155,
      156,
      157,
      158,
      159,
      160,
      161,
      162,
      163,
      164,
      165,
      166,
      167,
      168,
      169,
      170,
      171,
      172,
      173,
      174,
      175,
      176,
      177,
      178,
      179,
      180,
      181,
      182,
      183,
      184,
      185,
      186,
      187,
      188,
      189,
      190,
      191,
      192,
      193,
      194,
      195,
      196,
      197,
      198,
      199,
      200,
      201,
      202,
      203,
      204,
      205,
      206,
      207,
      208,
      209,
      210,
      211,
      212,
      213,
      214,
      215,
      216,
      217,
      218,
      219,
      220,
      221,
      222,
      223,
      224,
      225,
      226,
      227,
      228,
      229,
      230,
      231,
      232,
      233,
      234,
      235,
      236,
      237,
      238,
      239,
      240,
      241,
      242,
      243,
      244,
      245,
      246,
      247,
      248,
      249,
      250,
      251,
      252,
      253,
      254,
      255,
      256,
      257,
      258,
      259,
      260,
      261,
      262,
      263,
      264,
      265,
      266,
      267,
      268,
      269,
      270,
      271,
      272,
      273,
      274,
      275,
      276,
      277,
      278,
      279,
      280,
      281,
      282,
      283,
      284,
      285,
      286,
      287,
      288,
      289,
      290,
      291,
      292,
      293,
      294,
      295,
      296,
      297,
      298,
      299,
      300,
      301,
      302,
      303,
      304,
      305,
      306,
      307,
      308,
      309,
      310,
      311,
      312,
      313,
      314,
      315,
      316,
      317,
      318,
      319,
      320,
      321,
      322,
      323,
      324,
      325,
      326,
      327,
      328,
      329,
      330,
      331,
      332,
      333,
      334,
      335,
      336,
      337,
      338,
      339,
      340,
      341,
      342,
      343,
      344,
      345,
      346,
      347,
      348,
      349,
      350,
      351,
      352,
      353,
      354,
      355,
      356,
      357,
      358,
      359,
      360,
      361,
      362,
      363,
      364,
      365,
      366,
      367,
      368,
      369,
      370,
      371,
      372,
      373,
      374,
      375,
      376,
      377,
      378,
      379,
      380,
      381,
      382,
      383,
      384,
      385,
      386,
      387,
      388,
      389,
      390,
      391,
      392,
      393,
      394,
      395,
      396,
      397,
      398,
      399,
      400,
      401,
      402,
      403,
      404,
      405,
      406,
      407,
      408,
      409,
      410,
      411,
      412
    ],
    "timestamps": [
      "2022-09-29T08:35:27.082112",
      "2022-09-29T08:35:27.742434",
      "2022-09-29T08:35:28.388161",
      "2022-09-29T08:35:29.007960",
      "2022-09-29T08:35:29.592121",
      "2022-09-29T08:35:30.183890",
      "2022-09-29T08:35:30.768326",
      "2022-09-29T08:35:31.391536",
      "2022-09-29T08:35:31.974814",
      "2022-09-29T08:35:32.563361",
      "2022-09-29T08:35:33.225687",
      "2022-09-29T08:35:33.832304",
      "2022-09-29T08:35:34.443126",
      "2022-09-29T08:35:35.049799",
      "2022-09-29T08:35:35.696016",
      "2022-09-29T08:35:36.356726",
      "2022-09-29T08:35:36.963232",
      "2022-09-29T08:35:37.581715",
      "2022-09-29T08:35:38.167945",
      "2022-09-29T08:35:38.760549",
      "2022-09-29T08:35:39.373231",
      "2022-09-29T08:35:39.964892",
      "2022-09-29T08:35:40.556778",
      "2022-09-29T08:35:41.144179",
      "2022-09-29T08:35:41.798361",
      "2022-09-29T08:35:42.389235",
      "2022-09-29T08:35:42.975707",
      "2022-09-29T08:35:43.666794",
      "2022-09-29T08:35:44.286289",
      "2022-09-29T08:35:44.879131",
      "2022-09-29T08:35:45.489220",
      "2022-09-29T08:35:46.134573",
      "2022-09-29T08:35:46.746538",
      "2022-09-29T08:35:47.358819",
      "2022-09-29T08:35:47.951921",
      "2022-09-29T08:35:48.587562",
      "2022-09-29T08:35:49.180033",
      "2022-09-29T08:35:49.829875",
      "2022-09-29T08:35:50.440886",
      "2022-09-29T08:35:51.035397",
      "2022-09-29T08:35:51.657044",
      "2022-09-29T08:35:52.307946",
      "2022-09-29T08:35:52.897521",
      "2022-09-29T08:35:53.488148",
      "2022-09-29T08:35:54.070331",
      "2022-09-29T08:35:54.659121",
      "2022-09-29T08:35:55.242675",
      "2022-09-29T08:35:55.828585",
      "2022-09-29T08:35:56.411302",
      "2022-09-29T08:35:56.997330",
      "2022-09-29T08:35:57.598078",
      "2022-09-29T08:35:58.186361",
      "2022-09-29T08:35:58.770759",
      "2022-09-29T08:35:59.357670",
      "2022-09-29T08:35:59.940618",
      "2022-09-29T08:36:00.526207",
      "2022-09-29T08:36:01.118666",
      "2022-09-29T08:36:01.705659",
      "2022-09-29T08:36:02.305308",
      "2022-09-29T08:36:02.988304",
      "2022-09-29T08:36:03.599038",
      "2022-09-29T08:36:04.192398",
      "2022-09-29T08:36:04.784630",
      "2022-09-29T08:36:05.378024",
      "2022-09-29T08:36:05.965488",
      "2022-09-29T08:36:06.597697",
      "2022-09-29T08:36:07.198586",
      "2022-09-29T08:36:07.801220",
      "2022-09-29T08:36:08.408919",
      "2022-09-29T08:36:09.006722",
      "2022-09-29T08:36:09.608259",
      "2022-09-29T08:36:10.198725",
      "2022-09-29T08:36:10.785194",
      "2022-09-29T08:36:11.375907",
      "2022-09-29T08:36:11.979114",
      "2022-09-29T08:36:12.571790",
      "2022-09-29T08:36:13.204850",
      "2022-09-29T08:36:13.836127",
      "2022-09-29T08:36:14.427632",
      "2022-09-29T08:36:15.022933",
      "2022-09-29T08:36:15.624660",
      "2022-09-29T08:36:16.215539",
      "2022-09-29T08:36:16.803654",
      "2022-09-29T08:36:17.396296",
      "2022-09-29T08:36:17.987350",
      "2022-09-29T08:36:18.593139",
      "2022-09-29T08:36:19.179579",
      "2022-09-29T08:36:19.768394",
      "2022-09-29T08:36:20.353333",
      "2022-09-29T08:36:20.944034",
      "2022-09-29T08:36:21.548341",
      "2022-09-29T08:36:22.137769",
      "2022-09-29T08:36:22.725605",
      "2022-09-29T08:36:23.328431",
      "2022-09-29T08:36:23.921186",
      "2022-09-29T08:36:24.512947",
      "2022-09-29T08:36:25.097699",
      "2022-09-29T08:36:25.690198",
      "2022-09-29T08:36:26.274864",
      "2022-09-29T08:36:26.863999",
      "2022-09-29T08:36:27.467218",
      "2022-09-29T08:36:28.063387",
      "2022-09-29T08:36:28.665102",
      "2022-09-29T08:36:29.257783",
      "2022-09-29T08:36:29.842708",
      "2022-09-29T08:36:30.431273",
      "2022-09-29T08:36:31.015941",
      "2022-09-29T08:36:31.605519",
      "2022-09-29T08:36:32.190219",
      "2022-09-29T08:36:32.803012",
      "2022-09-29T08:36:33.476620",
      "2022-09-29T08:36:34.112576",
      "2022-09-29T08:36:34.715539",
      "2022-09-29T08:36:35.305760",
      "2022-09-29T08:36:35.892305",
      "2022-09-29T08:36:36.500416",
      "2022-09-29T08:36:37.158372",
      "2022-09-29T08:36:37.873313",
      "2022-09-29T08:36:38.517639",
      "2022-09-29T08:36:39.168904",
      "2022-09-29T08:36:39.791839",
      "2022-09-29T08:36:40.437757",
      "2022-09-29T08:36:41.106454",
      "2022-09-29T08:36:41.770256",
      "2022-09-29T08:36:42.446934",
      "2022-09-29T08:36:43.043033",
      "2022-09-29T08:36:43.633156",
      "2022-09-29T08:36:44.228630",
      "2022-09-29T08:36:44.834275",
      "2022-09-29T08:36:45.438046",
      "2022-09-29T08:36:46.051046",
      "2022-09-29T08:36:46.650796",
      "2022-09-29T08:36:47.307621",
      "2022-09-29T08:36:47.956655",
      "2022-09-29T08:36:48.562874",
      "2022-09-29T08:36:50.092733",
      "2022-09-29T08:36:51.905297",
      "2022-09-29T08:36:53.656947",
      "2022-09-29T08:36:55.222445",
      "2022-09-29T08:36:56.772903",
      "2022-09-29T08:36:58.577560",
      "2022-09-29T08:37:00.287714",
      "2022-09-29T08:37:02.049659",
      "2022-09-29T08:37:03.764988",
      "2022-09-29T08:37:05.435826",
      "2022-09-29T08:37:07.209294",
      "2022-09-29T08:37:08.792892",
      "2022-09-29T08:37:10.411960",
      "2022-09-29T08:37:12.118012",
      "2022-09-29T08:37:13.695903",
      "2022-09-29T08:37:15.307646",
      "2022-09-29T08:37:17.002110",
      "2022-09-29T08:37:18.507814",
      "2022-09-29T08:37:20.098713",
      "2022-09-29T08:37:21.807584",
      "2022-09-29T08:37:23.472586",
      "2022-09-29T08:37:25.024369",
      "2022-09-29T08:37:26.776809",
      "2022-09-29T08:37:28.461299",
      "2022-09-29T08:37:29.943315",
      "2022-09-29T08:37:31.669959",
      "2022-09-29T08:37:33.365992",
      "2022-09-29T08:37:35.123540",
      "2022-09-29T08:37:36.788366",
      "2022-09-29T08:37:38.493032",
      "2022-09-29T08:37:40.207358",
      "2022-09-29T08:37:41.851295",
      "2022-09-29T08:37:43.508232",
      "2022-09-29T08:37:45.221439",
      "2022-09-29T08:37:46.917753",
      "2022-09-29T08:37:48.618642",
      "2022-09-29T08:37:50.189379",
      "2022-09-29T08:37:51.726854",
      "2022-09-29T08:37:53.328874",
      "2022-09-29T08:37:54.920252",
      "2022-09-29T08:37:56.551111",
      "2022-09-29T08:37:58.204065",
      "2022-09-29T08:37:59.882713",
      "2022-09-29T08:38:01.502878",
      "2022-09-29T08:38:03.064529",
      "2022-09-29T08:38:04.806377",
      "2022-09-29T08:38:06.467032",
      "2022-09-29T08:38:08.098458",
      "2022-09-29T08:38:09.836300",
      "2022-09-29T08:38:11.582688",
      "2022-09-29T08:38:13.198073",
      "2022-09-29T08:38:14.945834",
      "2022-09-29T08:38:16.661056",
      "2022-09-29T08:38:18.309033",
      "2022-09-29T08:38:20.069881",
      "2022-09-29T08:38:21.765295",
      "2022-09-29T08:38:23.430354",
      "2022-09-29T08:38:25.075005",
      "2022-09-29T08:38:26.871858",
      "2022-09-29T08:38:28.569604",
      "2022-09-29T08:38:30.335245",
      "2022-09-29T08:38:32.032237",
      "2022-09-29T08:38:33.742183",
      "2022-09-29T08:38:35.391389",
      "2022-09-29T08:38:37.071094",
      "2022-09-29T08:38:38.903889",
      "2022-09-29T08:38:40.716282",
      "2022-09-29T08:38:42.626950",
      "2022-09-29T08:38:44.462155",
      "2022-09-29T08:38:46.240034",
      "2022-09-29T08:38:47.986841",
      "2022-09-29T08:38:49.629031",
      "2022-09-29T08:38:51.255318",
      "2022-09-29T08:38:52.836223",
      "2022-09-29T08:38:54.621002",
      "2022-09-29T08:38:56.438726",
      "2022-09-29T08:38:58.327364",
      "2022-09-29T08:39:00.082463",
      "2022-09-29T08:39:01.808809",
      "2022-09-29T08:39:03.417797",
      "2022-09-29T08:39:05.009131",
      "2022-09-29T08:39:06.656433",
      "2022-09-29T08:39:08.275594",
      "2022-09-29T08:39:10.095229",
      "2022-09-29T08:39:11.905910",
      "2022-09-29T08:39:13.981811",
      "2022-09-29T08:39:15.877955",
      "2022-09-29T08:39:17.903010",
      "2022-09-29T08:39:19.973861",
      "2022-09-29T08:39:21.878591",
      "2022-09-29T08:39:23.885484",
      "2022-09-29T08:39:25.949717",
      "2022-09-29T08:39:27.975613",
      "2022-09-29T08:39:29.960205",
      "2022-09-29T08:39:32.124243",
      "2022-09-29T08:39:32.822414",
      "2022-09-29T08:39:33.431009",
      "2022-09-29T08:39:34.054520",
      "2022-09-29T08:39:34.671720",
      "2022-09-29T08:39:35.274868",
      "2022-09-29T08:39:35.883161",
      "2022-09-29T08:39:36.499421",
      "2022-09-29T08:39:37.096890",
      "2022-09-29T08:39:37.720926",
      "2022-09-29T08:39:38.311528",
      "2022-09-29T08:39:38.920624",
      "2022-09-29T08:39:39.516249",
      "2022-09-29T08:39:40.110745",
      "2022-09-29T08:39:40.707701",
      "2022-09-29T08:39:41.328714",
      "2022-09-29T08:39:41.952660",
      "2022-09-29T08:39:42.553566",
      "2022-09-29T08:39:43.140366",
      "2022-09-29T08:39:43.729972",
      "2022-09-29T08:39:44.317642",
      "2022-09-29T08:39:44.948123",
      "2022-09-29T08:39:45.536916",
      "2022-09-29T08:39:46.132745",
      "2022-09-29T08:39:46.721603",
      "2022-09-29T08:39:47.313924",
      "2022-09-29T08:39:47.903331",
      "2022-09-29T08:39:48.505148",
      "2022-09-29T08:39:49.093423",
      "2022-09-29T08:39:49.698764",
      "2022-09-29T08:39:50.298261",
      "2022-09-29T08:39:50.935294",
      "2022-09-29T08:39:51.558540",
      "2022-09-29T08:39:52.157922",
      "2022-09-29T08:39:52.747674",
      "2022-09-29T08:39:53.362903",
      "2022-09-29T08:39:53.964431",
      "2022-09-29T08:39:54.574788",
      "2022-09-29T08:39:55.198472",
      "2022-09-29T08:39:55.790871",
      "2022-09-29T08:39:56.376652",
      "2022-09-29T08:39:57.027936",
      "2022-09-29T08:39:57.647438",
      "2022-09-29T08:39:58.260751",
      "2022-09-29T08:39:58.849846",
      "2022-09-29T08:39:59.438374",
      "2022-09-29T08:40:00.063710",
      "2022-09-29T08:40:00.661777",
      "2022-09-29T08:40:01.252169",
      "2022-09-29T08:40:01.848264",
      "2022-09-29T08:40:02.483162",
      "2022-09-29T08:40:03.129911",
      "2022-09-29T08:40:03.803996",
      "2022-09-29T08:40:04.419155",
      "2022-09-29T08:40:05.056641",
      "2022-09-29T08:40:05.707116",
      "2022-09-29T08:40:06.305496",
      "2022-09-29T08:40:06.901538",
      "2022-09-29T08:40:07.524159",
      "2022-09-29T08:40:08.152149",
      "2022-09-29T08:40:08.755366",
      "2022-09-29T08:40:09.416460",
      "2022-09-29T08:40:10.087231",
      "2022-09-29T08:40:10.711688",
      "2022-09-29T08:40:11.310540",
      "2022-09-29T08:40:11.918723",
      "2022-09-29T08:40:12.517327",
      "2022-09-29T08:40:13.148734",
      "2022-09-29T08:40:13.746963",
      "2022-09-29T08:40:14.346976",
      "2022-09-29T08:40:14.953514",
      "2022-09-29T08:40:15.573394",
      "2022-09-29T08:40:16.220564",
      "2022-09-29T08:40:16.893931",
      "2022-09-29T08:40:17.488079",
      "2022-09-29T08:40:18.078466",
      "2022-09-29T08:40:18.695761",
      "2022-09-29T08:40:19.317117",
      "2022-09-29T08:40:19.924887",
      "2022-09-29T08:40:20.513417",
      "2022-09-29T08:40:21.101789",
      "2022-09-29T08:40:21.720620",
      "2022-09-29T08:40:22.317355",
      "2022-09-29T08:40:22.996506",
      "2022-09-29T08:40:23.605909",
      "2022-09-29T08:40:24.194584",
      "2022-09-29T08:40:24.782263",
      "2022-09-29T08:40:25.367753",
      "2022-09-29T08:40:25.948422",
      "2022-09-29T08:40:26.533300",
      "2022-09-29T08:40:27.114377",
      "2022-09-29T08:40:27.722446",
      "2022-09-29T08:40:28.315065",
      "2022-09-29T08:40:28.900025",
      "2022-09-29T08:40:29.482371",
      "2022-09-29T08:40:30.067539",
      "2022-09-29T08:40:30.649009",
      "2022-09-29T08:40:31.248032",
      "2022-09-29T08:40:31.830285",
      "2022-09-29T08:40:32.416735",
      "2022-09-29T08:40:33.006914",
      "2022-09-29T08:40:33.620917",
      "2022-09-29T08:40:34.204880",
      "2022-09-29T08:40:34.798499",
      "2022-09-29T08:40:35.383799",
      "2022-09-29T08:40:35.970385",
      "2022-09-29T08:40:36.553303",
      "2022-09-29T08:40:37.140740",
      "2022-09-29T08:40:37.724313",
      "2022-09-29T08:40:38.326329",
      "2022-09-29T08:40:38.962567",
      "2022-09-29T08:40:39.585364",
      "2022-09-29T08:40:40.189523",
      "2022-09-29T08:40:40.782791",
      "2022-09-29T08:40:41.388918",
      "2022-09-29T08:40:42.013353",
      "2022-09-29T08:40:42.636287",
      "2022-09-29T08:40:43.250397",
      "2022-09-29T08:40:43.850674",
      "2022-09-29T08:40:44.446205",
      "2022-09-29T08:40:45.057063",
      "2022-09-29T08:40:45.681795",
      "2022-09-29T08:40:46.269647",
      "2022-09-29T08:40:46.859416",
      "2022-09-29T08:40:47.470094",
      "2022-09-29T08:40:48.094219",
      "2022-09-29T08:40:48.707907",
      "2022-09-29T08:40:49.311380",
      "2022-09-29T08:40:49.911621",
      "2022-09-29T08:40:50.513428",
      "2022-09-29T08:40:51.113769",
      "2022-09-29T08:40:51.737864",
      "2022-09-29T08:40:52.336927",
      "2022-09-29T08:40:52.947505",
      "2022-09-29T08:40:53.548751",
      "2022-09-29T08:40:54.150541",
      "2022-09-29T08:40:54.829261",
      "2022-09-29T08:40:55.423293",
      "2022-09-29T08:40:56.077782",
      "2022-09-29T08:40:56.709702",
      "2022-09-29T08:40:57.304509",
      "2022-09-29T08:40:57.915919",
      "2022-09-29T08:40:58.502194",
      "2022-09-29T08:40:59.135320",
      "2022-09-29T08:40:59.730659",
      "2022-09-29T08:41:00.316747",
      "2022-09-29T08:41:00.899234",
      "2022-09-29T08:41:01.499940",
      "2022-09-29T08:41:02.085402",
      "2022-09-29T08:41:02.681600",
      "2022-09-29T08:41:03.265276",
      "2022-09-29T08:41:03.869399",
      "2022-09-29T08:41:04.454946",
      "2022-09-29T08:41:05.045331",
      "2022-09-29T08:41:05.629983",
      "2022-09-29T08:41:06.222665",
      "2022-09-29T08:41:06.820031",
      "2022-09-29T08:41:07.409653",
      "2022-09-29T08:41:07.992766",
      "2022-09-29T08:41:08.581386",
      "2022-09-29T08:41:09.163208",
      "2022-09-29T08:41:09.768412",
      "2022-09-29T08:41:10.349902",
      "2022-09-29T08:41:10.936751",
      "2022-09-29T08:41:11.527520",
      "2022-09-29T08:41:12.121502",
      "2022-09-29T08:41:12.703407",
      "2022-09-29T08:41:13.290821",
      "2022-09-29T08:41:13.872868",
      "2022-09-29T08:41:14.463951",
      "2022-09-29T08:41:15.047826",
      "2022-09-29T08:41:15.651209",
      "2022-09-29T08:41:16.235492",
      "2022-09-29T08:41:16.848641",
      "2022-09-29T08:41:17.433354",
      "2022-09-29T08:41:18.018909",
      "2022-09-29T08:41:18.669125",
      "2022-09-29T08:41:19.337968",
      "2022-09-29T08:41:19.961571",
      "2022-09-29T08:41:20.584717",
      "2022-09-29T08:41:21.266565",
      "2022-09-29T08:41:21.914938",
      "2022-09-29T08:41:22.541148",
      "2022-09-29T08:41:23.147219"
    ],
    "values": [
      87.2081147067268,
      82.69783347997189,
      78.80121740121494,
      75.09209825141265,
      72.01214612899209,
      69.42520590196241,
      66.98953784912122,
      65.05757651881483,
      63.30304534728948,
      61.87229940714892,
      60.66376985336652,
      59.77405855685581,
      58.76724100530586,
      57.90285149925522,
      57.08103841773069,
      56.24267714986003,
      55.48319349011341,
      54.72366589324226,
      54.09898457914509,
      53.564182221604824,
      53.05993966696005,
      52.68199982352723,
      52.42020859956531,
      52.10172106060778,
      51.79052786575698,
      51.486676717552335,
      51.181516467280225,
      50.911568569950276,
      50.619902760539354,
      50.42031905090758,
      50.156713651691874,
      50.0683135295186,
      49.856201050652054,
      49.63786440238849,
      49.43775735423528,
      49.2181797952895,
      49.02018300162641,
      48.819881557141805,
      48.64770348161148,
      48.455634896478756,
      48.26391130660029,
      48.100382951554074,
      47.95643491460351,
      47.80914917281821,
      47.64362909794249,
      47.43746286253457,
      47.29481678810444,
      47.133956989691086,
      47.03418093031156,
      46.89358467074637,
      46.82031358795131,
      46.75204851797684,
      46.58904759428144,
      46.478112593243814,
      46.47392307862397,
      46.329453563327725,
      46.239900029120776,
      46.11585958883983,
      46.063267271345325,
      45.965750184475574,
      45.864651160084556,
      45.75128851093807,
      45.65173123455721,
      45.57609704717597,
      45.43089119344434,
      45.43475346189682,
      45.38469124262929,
      45.323622896577014,
      45.18898517465333,
      45.13389740954374,
      45.083770085117436,
      45.02034131829392,
      44.9926934987181,
      44.90878630357399,
      44.852478812874395,
      44.75827643083815,
      44.71871759342298,
      44.65599981934663,
      44.643584771967234,
      44.48556439045908,
      44.50527930545875,
      44.447063385547644,
      44.40829579809611,
      44.305665617841434,
      44.19868796847517,
      44.246588244034726,
      44.19228480834905,
      44.10764961167449,
      44.06837785706418,
      43.98557456880483,
      43.94673524355095,
      43.90034689893034,
      43.79228133846356,
      43.847710698110944,
      43.711229252325566,
      43.63345463607001,
      43.65334415580684,
      43.61702973812684,
      43.55971605247,
      43.458430762820484,
      43.45257902818185,
      43.33804826124566,
      43.326913987647046,
      43.26655453250168,
      43.169391386653594,
      43.12174438985627,
      43.04427315409049,
      42.98137028669371,
      42.88982012669417,
      42.80789597318666,
      42.801480945941975,
      42.715918253808375,
      42.806132841851095,
      42.72707186720979,
      42.5528614251493,
      42.47207373586067,
      42.4093970964162,
      42.3549841935825,
      42.36012106775613,
      42.28667815936067,
      42.240192170794224,
      42.1976359403278,
      42.1948918973122,
      42.26004717974311,
      42.194224209219,
      42.004957756215326,
      41.89405378157523,
      41.77719794243805,
      41.705964023385306,
      41.693227215719425,
      41.57637238745161,
      41.5216921648303,
      41.393140484266794,
      41.35024216390606,
      41.350473017711,
      41.274467118878846,
      41.25409535111235,
      41.184207790024786,
      41.153051828158944,
      41.11689084890305,
      41.088241010147506,
      41.012842506713156,
      40.971748265478894,
      40.92249833778191,
      40.90699818358236,
      40.86628732109035,
      40.81886038544579,
      40.748403671139016,
      40.774521311909254,
      40.72427464434325,
      40.69270281179559,
      40.64385105621737,
      40.774089675781525,
      40.80389220870469,
      40.60796408227186,
      40.59947374644449,
      40.593440946910775,
      40.61093810674344,
      40.48127006224634,
      40.39716486077325,
      40.49599737681718,
      40.395993821707485,
      40.31817017567916,
      40.23488529418236,
      40.39021960763985,
      40.29137710579494,
      40.25329847376638,
      40.297114709265536,
      40.408208742082515,
      40.40655268565681,
      40.345682032748684,
      40.38122600881552,
      40.44144153331613,
      40.597466282703024,
      40.41766970770912,
      40.31345846433946,
      40.432956587880035,
      40.529037182277804,
      40.448970596557835,
      40.19937130616243,
      40.175302435991846,
      40.171358589717,
      40.234415699993065,
      40.093416935216695,
      40.063007724418156,
      40.36319417946995,
      40.56884023503798,
      40.357244496618925,
      40.18119047328184,
      40.2105608559169,
      40.224255191564026,
      40.17555448197928,
      40.09528763760096,
      40.178070816275756,
      40.26597838873855,
      40.27970429653763,
      40.27656942723412,
      40.261926781476895,
      40.2082204529594,
      40.2941585779276,
      40.24058935954915,
      40.359852028344875,
      40.40914620025354,
      40.380397051986265,
      40.40069609640439,
      40.460591831240414,
      40.301171208318785,
      40.31361348411694,
      40.246850595451676,
      40.225629759236284,
      40.24483750252257,
      40.33170434375179,
      40.376477446109085,
      40.261735763381246,
      40.216975401465014,
      40.12641547812909,
      40.108633040592906,
      40.08669260167667,
      40.156328129686266,
      40.18381717382835,
      40.25749474692864,
      40.24523808252727,
      40.30369325561689,
      40.33191746147935,
      40.324428666204874,
      40.388401362209855,
      40.32068037765954,
      40.32844869683526,
      40.332685866832136,
      40.49755064886878,
      40.3806889296074,
      40.29594490703154,
      40.406629372466185,
      40.58246975993488,
      40.70316090240074,
      40.642348242031574,
      40.676860849990085,
      40.585107937850594,
      40.5597140516667,
      40.5875628477323,
      40.568370891992615,
      40.469181961991026,
      40.51359168461084,
      40.57814077854333,
      40.626866721640816,
      40.66622368618738,
      40.57634298261653,
      40.69217729090528,
      40.647163684669955,
      40.56515829142177,
      40.57262188971741,
      40.442973597616195,
      40.487664908489734,
      40.50426706845056,
      40.472722357986264,
      40.42538625064874,
      40.43972174404243,
      40.37401908999865,
      40.36851065285575,
      40.37013827547274,
      40.5091590142831,
      40.34081247420928,
      40.42875726738154,
      40.42233442533225,
      40.48413848487455,
      40.370967686725166,
      40.39498599221712,
      40.355894554478105,
      40.47044130158282,
      40.4479493076558,
      40.37164054229284,
      40.3517507628111,
      40.32796287777611,
      40.40920254789776,
      40.44601370275186,
      40.45906697395409,
      40.36328990168281,
      40.425052353756385,
      40.380883735997685,
      40.453463275086484,
      40.40655492676461,
      40.37048403399004,
      40.405298254786,
      40.390080601789585,
      40.47385989799812,
      40.36432750697163,
      40.42319769165372,
      40.31685741637712,
      40.29806725723009,
      40.449567258658874,
      40.379116200667184,
      40.428469895463834,
      40.3820749834352,
      40.40062159418773,
      40.324699645902555,
      40.42068509109312,
      40.38983777518991,
      40.43029157616315,
      40.48766821697629,
      40.454443534442724,
      40.31254303629634,
      40.47304241967214,
      40.37965345152182,
      40.414020069640394,
      40.439423995891175,
      40.40429349798885,
      40.39744348971594,
      40.39417055724488,
      40.43262908125933,
      40.34975569424342,
      40.392955612227986,
      40.35315041856458,
      40.344557546869986,
      40.43730061343569,
      40.406540869123305,
      40.37231986103961,
      40.351822635731985,
      40.401075789521634,
      40.43123000962078,
      40.44355997835154,
      40.35576993591458,
      40.44108117831482,
      40.37313336555827,
      40.407613186877505,
      40.374145800673936,
      40.4407030129496,
      40.3077632524539,
      40.44769577050511,
      40.37168490863627,
      40.42555563771838,
      40.45115520938021,
      40.375752025973604,
      40.389989796089814,
      40.3737205887433,
      40.40244870122473,
      40.40252959781456,
      40.44480379126476,
      40.34083574939974,
      40.40052626649272,
      40.43347254586668,
      40.40122453865236,
      40.43191930466232,
      40.407526516514636,
      40.356017686697676,
      40.37592395658375,
      40.37280950667055,
      40.38313772961353,
      40.4151822897037,
      40.41825857209029,
      40.41424171099602,
      40.41858552218506,
      40.383419921470754,
      40.45474226438601,
      40.39895080140214,
      40.43243662323872,
      40.46821797215612,
      40.438602407249675,
      40.42370945731494,
      40.408692755345385,
      40.39167928877318,
      40.436886075653575,
      40.402650597007685,
      40.345773167104,
      40.3919302821338,
      40.378938446719225,
      40.35247322555089,
      40.449325206527234,
      40.40158029002797,
      40.38968089680795,
      40.40406888845514,
      40.42049003117285,
      40.45637429370672,
      40.39211938301637,
      40.37109009839114,
      40.44562865279492,
      40.374515540608,
      40.367141400951816,
      40.38932132170409,
      40.4087393866725,
      40.40583547259874,
      40.476003509534564,
      40.353449312083086,
      40.36698107658946,
      40.412505759744285,
      40.40790091015937,
      40.422302089721455,
      40.42849569745828,
      40.3733110225244,
      40.40543817286322,
      40.42248367067073,
      40.38569568245346,
      40.42843483191177,
      40.376649264151176,
      40.456586091189806,
      40.42637937189571,
      40.456172237122324,
      40.4283601915481,
      40.43126847381022,
      40.40034922472373,
      40.38524177736127,
      40.36373194783502,
      40.34725422363112,
      40.41173677051897,
      40.40340542654913,
      40.342856075396206,
      40.39394863986549,
      40.3915517741378,
      40.4101987133081,
      40.43938933575121,
      40.43877488357143,
      40.37165862376693,
      40.510780062602294,
      40.36259323029142
    ]
  }
}