INFO - residual_nf - Running command 'run'
INFO - residual_nf - Started run with ID "2"
[CONFIG] {'bn': 'arithmetic-circuit', 'structure': 'faithful', 'coeff': 0.99, 'n_power_iterations': 5, 'num_blocks': 12, 'hidden_dims': [100], 'activation': 'tanh', 'grad_in_forward': True, 'batch_size': 100, 'num_train_samples': 10000, 'num_val_samples': 5000, 'num_epochs': 300, 'num_train_batches': 100, 'num_val_batches': 50, 'lr': 0.01, 'seed': 1, 'patience': 20, 'double': True, 'run': 1, 'checkpoint_n': 10, 'load_from_checkpoint': False, 'ex_name': 'residual_nf_density_estimation', 'sub_folder': 'faithful_99_tanh_12_[100]', 'path': './experiment_logs/residual_nf_density_estimation/arithmetic-circuit/faithful_99_tanh_12_[100]', 'bt_config': {'depth': 5, 'seed': 4}}
[DEVICE] cpu
[ENCODED STRUCTURE] Using faithful BN structure.
  0%|          | 0/300 [00:00<?, ?it/s]Train NLL: 17.296, Val NLL: 7.620:   0%|          | 1/300 [00:07<39:06,  7.85s/it]Train NLL: 6.566, Val NLL: 5.750:   1%|          | 2/300 [00:12<29:58,  6.04s/it] Train NLL: 5.448, Val NLL: 4.782:   1%|          | 3/300 [00:17<26:58,  5.45s/it]Train NLL: 4.942, Val NLL: 4.526:   1%|▏         | 4/300 [00:22<25:50,  5.24s/it]Train NLL: 4.655, Val NLL: 4.450:   2%|▏         | 5/300 [00:27<24:58,  5.08s/it]Train NLL: 4.451, Val NLL: 4.156:   2%|▏         | 6/300 [00:31<24:25,  4.99s/it]Train NLL: 4.239, Val NLL: 4.075:   2%|▏         | 7/300 [00:36<24:03,  4.93s/it]Train NLL: 4.124, Val NLL: 4.079:   3%|▎         | 8/300 [00:41<23:46,  4.89s/it]Train NLL: 3.951, Val NLL: 3.821:   3%|▎         | 9/300 [00:46<23:34,  4.86s/it]Train NLL: 3.800, Val NLL: 3.624:   3%|▎         | 10/300 [00:51<23:25,  4.85s/it]Train NLL: 3.724, Val NLL: 3.394:   4%|▎         | 11/300 [00:55<23:15,  4.83s/it]Train NLL: 3.646, Val NLL: 3.392:   4%|▍         | 12/300 [01:00<23:07,  4.82s/it]Train NLL: 3.512, Val NLL: 3.366:   4%|▍         | 13/300 [01:05<23:03,  4.82s/it]Train NLL: 3.407, Val NLL: 4.010:   5%|▍         | 14/300 [01:10<22:58,  4.82s/it]Train NLL: 3.462, Val NLL: 3.502:   5%|▌         | 15/300 [01:15<22:52,  4.82s/it]Train NLL: 3.371, Val NLL: 3.114:   5%|▌         | 16/300 [01:19<22:47,  4.81s/it]Train NLL: 3.312, Val NLL: 3.406:   6%|▌         | 17/300 [01:24<22:40,  4.81s/it]Train NLL: 3.231, Val NLL: 3.055:   6%|▌         | 18/300 [01:29<22:33,  4.80s/it]Train NLL: 3.236, Val NLL: 3.150:   6%|▋         | 19/300 [01:34<22:29,  4.80s/it]Train NLL: 3.132, Val NLL: 2.976:   7%|▋         | 20/300 [01:39<22:29,  4.82s/it]Train NLL: 2.998, Val NLL: 2.869:   7%|▋         | 21/300 [01:43<22:22,  4.81s/it]Train NLL: 3.102, Val NLL: 2.902:   7%|▋         | 22/300 [01:48<22:15,  4.81s/it]Train NLL: 3.132, Val NLL: 2.857:   8%|▊         | 23/300 [01:53<22:10,  4.80s/it]Train NLL: 2.973, Val NLL: 3.109:   8%|▊         | 24/300 [01:58<22:08,  4.81s/it]Train NLL: 3.143, Val NLL: 2.760:   8%|▊         | 25/300 [02:03<22:13,  4.85s/it]Train NLL: 2.879, Val NLL: 2.630:   9%|▊         | 26/300 [02:08<22:06,  4.84s/it]Train NLL: 2.888, Val NLL: 2.604:   9%|▉         | 27/300 [02:12<21:58,  4.83s/it]Train NLL: 2.800, Val NLL: 2.926:   9%|▉         | 28/300 [02:17<21:52,  4.82s/it]Train NLL: 2.807, Val NLL: 3.234:  10%|▉         | 29/300 [02:22<21:49,  4.83s/it]Train NLL: 2.767, Val NLL: 2.825:  10%|█         | 30/300 [02:27<21:45,  4.84s/it]Train NLL: 2.700, Val NLL: 2.542:  10%|█         | 31/300 [02:32<21:39,  4.83s/it]Train NLL: 2.889, Val NLL: 2.645:  11%|█         | 32/300 [02:37<21:34,  4.83s/it]Train NLL: 2.778, Val NLL: 2.956:  11%|█         | 33/300 [02:41<21:28,  4.83s/it]Train NLL: 2.774, Val NLL: 2.489:  11%|█▏        | 34/300 [02:46<21:23,  4.83s/it]Train NLL: 2.779, Val NLL: 2.800:  12%|█▏        | 35/300 [02:51<21:18,  4.82s/it]Train NLL: 2.580, Val NLL: 2.546:  12%|█▏        | 36/300 [02:56<21:14,  4.83s/it]Train NLL: 2.532, Val NLL: 2.771:  12%|█▏        | 37/300 [03:01<21:09,  4.83s/it]Train NLL: 2.659, Val NLL: 2.964:  13%|█▎        | 38/300 [03:06<21:03,  4.82s/it]Train NLL: 2.605, Val NLL: 2.587:  13%|█▎        | 39/300 [03:10<20:58,  4.82s/it]Train NLL: 2.559, Val NLL: 2.395:  13%|█▎        | 40/300 [03:15<20:54,  4.83s/it]Train NLL: 2.876, Val NLL: 2.446:  14%|█▎        | 41/300 [03:20<20:50,  4.83s/it]Train NLL: 2.606, Val NLL: 2.507:  14%|█▍        | 42/300 [03:25<20:49,  4.84s/it]Train NLL: 2.596, Val NLL: 2.402:  14%|█▍        | 43/300 [03:30<20:46,  4.85s/it]Train NLL: 2.768, Val NLL: 2.581:  15%|█▍        | 44/300 [03:35<20:42,  4.85s/it]Train NLL: 2.692, Val NLL: 2.839:  15%|█▌        | 45/300 [03:40<20:38,  4.86s/it]Train NLL: 2.469, Val NLL: 2.487:  15%|█▌        | 46/300 [03:44<20:32,  4.85s/it]Train NLL: 2.384, Val NLL: 2.356:  16%|█▌        | 47/300 [03:49<20:30,  4.86s/it]Train NLL: 2.468, Val NLL: 2.276:  16%|█▌        | 48/300 [03:54<20:26,  4.87s/it]Train NLL: 2.610, Val NLL: 2.587:  16%|█▋        | 49/300 [03:59<20:22,  4.87s/it]Train NLL: 2.577, Val NLL: 2.539:  17%|█▋        | 50/300 [04:04<20:18,  4.87s/it]Train NLL: 2.430, Val NLL: 2.412:  17%|█▋        | 51/300 [04:09<20:10,  4.86s/it]Train NLL: 2.636, Val NLL: 2.336:  17%|█▋        | 52/300 [04:14<20:07,  4.87s/it]Train NLL: 2.381, Val NLL: 2.351:  18%|█▊        | 53/300 [04:18<20:03,  4.87s/it]Train NLL: 2.447, Val NLL: 2.554:  18%|█▊        | 54/300 [04:23<19:59,  4.87s/it]Train NLL: 2.374, Val NLL: 2.343:  18%|█▊        | 55/300 [04:28<19:53,  4.87s/it]Train NLL: 2.489, Val NLL: 2.258:  19%|█▊        | 56/300 [04:33<19:48,  4.87s/it]Train NLL: 2.434, Val NLL: 2.257:  19%|█▉        | 57/300 [04:38<19:43,  4.87s/it]Train NLL: 2.354, Val NLL: 2.212:  19%|█▉        | 58/300 [04:43<19:38,  4.87s/it]Train NLL: 2.413, Val NLL: 2.569:  20%|█▉        | 59/300 [04:48<19:33,  4.87s/it]Train NLL: 2.433, Val NLL: 2.477:  20%|██        | 60/300 [04:53<19:28,  4.87s/it]Train NLL: 2.375, Val NLL: 2.313:  20%|██        | 61/300 [04:57<19:22,  4.87s/it]Train NLL: 2.410, Val NLL: 2.347:  21%|██        | 62/300 [05:02<19:17,  4.86s/it]Train NLL: 2.323, Val NLL: 2.260:  21%|██        | 63/300 [05:07<19:14,  4.87s/it]Train NLL: 2.340, Val NLL: 2.343:  21%|██▏       | 64/300 [05:12<19:09,  4.87s/it]Train NLL: 2.339, Val NLL: 2.528:  22%|██▏       | 65/300 [05:17<19:03,  4.86s/it]Train NLL: 2.392, Val NLL: 2.233:  22%|██▏       | 66/300 [05:22<18:57,  4.86s/it]Train NLL: 2.333, Val NLL: 2.511:  22%|██▏       | 67/300 [05:27<18:51,  4.86s/it]Train NLL: 2.381, Val NLL: 2.420:  23%|██▎       | 68/300 [05:31<18:47,  4.86s/it]Train NLL: 2.405, Val NLL: 2.252:  23%|██▎       | 69/300 [05:36<18:41,  4.85s/it]Train NLL: 2.384, Val NLL: 2.313:  23%|██▎       | 70/300 [05:41<18:39,  4.87s/it]Train NLL: 2.411, Val NLL: 2.436:  24%|██▎       | 71/300 [05:46<18:34,  4.87s/it]Train NLL: 2.396, Val NLL: 2.400:  24%|██▍       | 72/300 [05:51<18:30,  4.87s/it]Train NLL: 2.537, Val NLL: 2.253:  24%|██▍       | 73/300 [05:56<18:24,  4.86s/it]Train NLL: 2.255, Val NLL: 2.187:  25%|██▍       | 74/300 [06:01<18:18,  4.86s/it]Train NLL: 2.270, Val NLL: 2.365:  25%|██▌       | 75/300 [06:06<18:14,  4.87s/it]Train NLL: 2.443, Val NLL: 2.496:  25%|██▌       | 76/300 [06:10<18:10,  4.87s/it]Train NLL: 2.466, Val NLL: 2.201:  26%|██▌       | 77/300 [06:15<18:06,  4.87s/it]Train NLL: 2.311, Val NLL: 2.247:  26%|██▌       | 78/300 [06:20<18:02,  4.87s/it]Train NLL: 2.249, Val NLL: 2.198:  26%|██▋       | 79/300 [06:25<17:57,  4.88s/it]Train NLL: 2.297, Val NLL: 2.634:  27%|██▋       | 80/300 [06:30<17:53,  4.88s/it]Train NLL: 2.282, Val NLL: 2.325:  27%|██▋       | 81/300 [06:35<18:11,  4.99s/it]Train NLL: 2.304, Val NLL: 2.267:  27%|██▋       | 82/300 [06:40<17:55,  4.93s/it]Train NLL: 2.422, Val NLL: 2.319:  28%|██▊       | 83/300 [06:45<17:42,  4.90s/it]Train NLL: 2.284, Val NLL: 2.225:  28%|██▊       | 84/300 [06:50<17:43,  4.92s/it]Train NLL: 2.379, Val NLL: 2.249:  28%|██▊       | 85/300 [06:55<17:31,  4.89s/it]Train NLL: 2.305, Val NLL: 2.283:  29%|██▊       | 86/300 [06:59<17:22,  4.87s/it]Train NLL: 2.257, Val NLL: 2.403:  29%|██▉       | 87/300 [07:04<17:13,  4.85s/it]Train NLL: 2.266, Val NLL: 2.132:  29%|██▉       | 88/300 [07:09<17:05,  4.84s/it]Train NLL: 2.247, Val NLL: 2.148:  30%|██▉       | 89/300 [07:14<17:00,  4.83s/it]Train NLL: 2.231, Val NLL: 2.119:  30%|███       | 90/300 [07:19<16:55,  4.84s/it]Train NLL: 2.373, Val NLL: 2.235:  30%|███       | 91/300 [07:24<16:50,  4.83s/it]Train NLL: 2.391, Val NLL: 2.364:  31%|███       | 92/300 [07:28<16:44,  4.83s/it]Train NLL: 2.317, Val NLL: 2.182:  31%|███       | 93/300 [07:33<16:38,  4.83s/it]Train NLL: 2.338, Val NLL: 2.354:  31%|███▏      | 94/300 [07:38<16:32,  4.82s/it]Train NLL: 2.313, Val NLL: 2.203:  32%|███▏      | 95/300 [07:43<16:28,  4.82s/it]Train NLL: 2.216, Val NLL: 2.302:  32%|███▏      | 96/300 [07:48<16:22,  4.82s/it]Train NLL: 2.289, Val NLL: 2.229:  32%|███▏      | 97/300 [07:52<16:17,  4.82s/it]Train NLL: 2.203, Val NLL: 2.369:  33%|███▎      | 98/300 [07:57<16:13,  4.82s/it]Train NLL: 2.235, Val NLL: 2.471:  33%|███▎      | 99/300 [08:02<16:08,  4.82s/it]Train NLL: 2.370, Val NLL: 2.751:  33%|███▎      | 100/300 [08:07<16:04,  4.82s/it]Train NLL: 2.287, Val NLL: 2.425:  34%|███▎      | 101/300 [08:12<15:59,  4.82s/it]Train NLL: 2.211, Val NLL: 2.269:  34%|███▍      | 102/300 [08:17<15:55,  4.83s/it]Train NLL: 2.247, Val NLL: 2.244:  34%|███▍      | 103/300 [08:21<15:50,  4.83s/it]Train NLL: 2.189, Val NLL: 2.141:  35%|███▍      | 104/300 [08:26<15:45,  4.82s/it]Train NLL: 2.330, Val NLL: 2.261:  35%|███▌      | 105/300 [08:31<15:41,  4.83s/it]Train NLL: 2.261, Val NLL: 2.140:  35%|███▌      | 106/300 [08:36<15:35,  4.82s/it]Train NLL: 2.330, Val NLL: 2.273:  36%|███▌      | 107/300 [08:41<15:30,  4.82s/it]Train NLL: 2.229, Val NLL: 2.175:  36%|███▌      | 108/300 [08:45<15:25,  4.82s/it]Train NLL: 2.173, Val NLL: 2.223:  36%|███▋      | 109/300 [08:50<15:22,  4.83s/it]Train NLL: 2.303, Val NLL: 2.273:  37%|███▋      | 110/300 [08:55<15:20,  4.85s/it]Train NLL: 2.289, Val NLL: 2.305:  37%|███▋      | 111/300 [09:00<15:14,  4.84s/it]Train NLL: 2.243, Val NLL: 2.121:  37%|███▋      | 112/300 [09:05<15:11,  4.85s/it]Train NLL: 2.146, Val NLL: 2.082:  38%|███▊      | 113/300 [09:10<15:07,  4.85s/it]Train NLL: 2.157, Val NLL: 2.133:  38%|███▊      | 114/300 [09:15<15:02,  4.85s/it]Train NLL: 2.367, Val NLL: 2.755:  38%|███▊      | 115/300 [09:19<14:57,  4.85s/it]Train NLL: 2.199, Val NLL: 2.141:  39%|███▊      | 116/300 [09:24<14:52,  4.85s/it]Train NLL: 2.262, Val NLL: 2.250:  39%|███▉      | 117/300 [09:29<14:47,  4.85s/it]Train NLL: 2.232, Val NLL: 2.129:  39%|███▉      | 118/300 [09:34<14:43,  4.86s/it]Train NLL: 2.206, Val NLL: 2.189:  40%|███▉      | 119/300 [09:39<14:38,  4.85s/it]Train NLL: 2.177, Val NLL: 2.155:  40%|████      | 120/300 [09:44<14:34,  4.86s/it]Train NLL: 2.232, Val NLL: 2.259:  40%|████      | 121/300 [09:49<14:30,  4.86s/it]Train NLL: 2.122, Val NLL: 2.129:  41%|████      | 122/300 [09:54<14:26,  4.87s/it]Train NLL: 2.248, Val NLL: 2.265:  41%|████      | 123/300 [09:58<14:20,  4.86s/it]Train NLL: 2.154, Val NLL: 2.152:  41%|████▏     | 124/300 [10:03<14:17,  4.87s/it]Train NLL: 2.273, Val NLL: 2.329:  42%|████▏     | 125/300 [10:08<14:13,  4.88s/it]Train NLL: 2.311, Val NLL: 2.268:  42%|████▏     | 126/300 [10:13<14:08,  4.87s/it]Train NLL: 2.221, Val NLL: 2.210:  42%|████▏     | 127/300 [10:18<14:03,  4.87s/it]Train NLL: 2.258, Val NLL: 2.196:  43%|████▎     | 128/300 [10:23<13:58,  4.87s/it]Train NLL: 2.128, Val NLL: 2.140:  43%|████▎     | 129/300 [10:28<13:53,  4.88s/it]Train NLL: 2.251, Val NLL: 2.282:  43%|████▎     | 130/300 [10:33<13:48,  4.88s/it]Train NLL: 2.360, Val NLL: 2.110:  44%|████▎     | 131/300 [10:37<13:41,  4.86s/it]Train NLL: 2.105, Val NLL: 2.122:  44%|████▍     | 132/300 [10:42<13:35,  4.85s/it]Train NLL: 2.292, Val NLL: 2.157:  44%|████▍     | 133/300 [10:47<13:29,  4.85s/it]Train NLL: 2.294, Val NLL: 2.148:  45%|████▍     | 134/300 [10:52<13:24,  4.85s/it]Train NLL: 2.178, Val NLL: 2.276:  45%|████▌     | 135/300 [10:57<13:18,  4.84s/it]Train NLL: 2.223, Val NLL: 2.681:  45%|████▌     | 136/300 [11:01<13:13,  4.84s/it]Train NLL: 2.161, Val NLL: 2.329:  46%|████▌     | 137/300 [11:06<13:08,  4.84s/it]Train NLL: 2.261, Val NLL: 2.107:  46%|████▌     | 138/300 [11:11<13:04,  4.84s/it]Train NLL: 2.191, Val NLL: 2.333:  46%|████▋     | 139/300 [11:16<12:58,  4.84s/it]Train NLL: 2.103, Val NLL: 2.111:  47%|████▋     | 140/300 [11:21<12:55,  4.84s/it]Train NLL: 2.187, Val NLL: 2.193:  47%|████▋     | 141/300 [11:26<12:52,  4.86s/it]Train NLL: 2.163, Val NLL: 2.258:  47%|████▋     | 142/300 [11:31<12:48,  4.87s/it]Train NLL: 2.226, Val NLL: 2.092:  48%|████▊     | 143/300 [11:36<12:44,  4.87s/it]Train NLL: 2.204, Val NLL: 2.026:  48%|████▊     | 144/300 [11:40<12:39,  4.87s/it]Train NLL: 2.174, Val NLL: 2.131:  48%|████▊     | 145/300 [11:45<12:34,  4.87s/it]Train NLL: 2.158, Val NLL: 2.229:  49%|████▊     | 146/300 [11:50<12:31,  4.88s/it]Train NLL: 2.312, Val NLL: 2.079:  49%|████▉     | 147/300 [11:55<12:26,  4.88s/it]Train NLL: 2.113, Val NLL: 2.056:  49%|████▉     | 148/300 [12:00<12:23,  4.89s/it]Train NLL: 2.239, Val NLL: 2.402:  50%|████▉     | 149/300 [12:05<12:17,  4.89s/it]Train NLL: 2.108, Val NLL: 2.038:  50%|█████     | 150/300 [12:10<12:13,  4.89s/it]Train NLL: 2.103, Val NLL: 2.458:  50%|█████     | 151/300 [12:15<12:06,  4.88s/it]Train NLL: 2.161, Val NLL: 2.161:  51%|█████     | 152/300 [12:19<12:01,  4.87s/it]Train NLL: 2.106, Val NLL: 2.147:  51%|█████     | 153/300 [12:24<11:56,  4.87s/it]Train NLL: 2.304, Val NLL: 2.192:  51%|█████▏    | 154/300 [12:29<11:51,  4.87s/it]Train NLL: 2.170, Val NLL: 2.253:  52%|█████▏    | 155/300 [12:34<11:46,  4.87s/it]Train NLL: 2.364, Val NLL: 2.113:  52%|█████▏    | 156/300 [12:39<11:40,  4.87s/it]Train NLL: 2.133, Val NLL: 2.039:  52%|█████▏    | 157/300 [12:44<11:36,  4.87s/it]Train NLL: 2.154, Val NLL: 2.769:  53%|█████▎    | 158/300 [12:49<11:32,  4.87s/it]Train NLL: 2.254, Val NLL: 2.239:  53%|█████▎    | 159/300 [12:54<11:27,  4.88s/it]Train NLL: 2.131, Val NLL: 2.005:  53%|█████▎    | 160/300 [12:58<11:23,  4.88s/it]Train NLL: 2.086, Val NLL: 2.146:  54%|█████▎    | 161/300 [13:03<11:20,  4.89s/it]Train NLL: 2.224, Val NLL: 2.225:  54%|█████▍    | 162/300 [13:08<11:15,  4.89s/it]Train NLL: 2.251, Val NLL: 2.204:  54%|█████▍    | 163/300 [13:13<11:09,  4.89s/it]Train NLL: 2.116, Val NLL: 2.120:  55%|█████▍    | 164/300 [13:18<11:04,  4.88s/it]Train NLL: 2.124, Val NLL: 2.055:  55%|█████▌    | 165/300 [13:23<10:58,  4.88s/it]Train NLL: 2.125, Val NLL: 2.270:  55%|█████▌    | 166/300 [13:28<10:55,  4.89s/it]Train NLL: 2.193, Val NLL: 2.222:  56%|█████▌    | 167/300 [13:33<10:50,  4.89s/it]Train NLL: 2.112, Val NLL: 2.123:  56%|█████▌    | 168/300 [13:38<10:46,  4.90s/it]Train NLL: 2.177, Val NLL: 2.059:  56%|█████▋    | 169/300 [13:43<10:47,  4.94s/it]Train NLL: 2.155, Val NLL: 2.097:  57%|█████▋    | 170/300 [13:48<10:43,  4.95s/it]Train NLL: 2.186, Val NLL: 2.205:  57%|█████▋    | 171/300 [13:52<10:34,  4.92s/it]Train NLL: 2.068, Val NLL: 2.191:  57%|█████▋    | 172/300 [13:57<10:26,  4.90s/it]Train NLL: 2.253, Val NLL: 2.183:  58%|█████▊    | 173/300 [14:02<10:20,  4.89s/it]Train NLL: 2.195, Val NLL: 2.811:  58%|█████▊    | 174/300 [14:07<10:13,  4.87s/it]Train NLL: 2.270, Val NLL: 2.221:  58%|█████▊    | 175/300 [14:12<10:07,  4.86s/it]Train NLL: 2.088, Val NLL: 2.059:  59%|█████▊    | 176/300 [14:17<10:00,  4.85s/it]Train NLL: 2.076, Val NLL: 2.097:  59%|█████▉    | 177/300 [14:22<09:56,  4.85s/it]Train NLL: 2.085, Val NLL: 2.084:  59%|█████▉    | 178/300 [14:26<09:51,  4.85s/it]Train NLL: 2.265, Val NLL: 2.608:  60%|█████▉    | 179/300 [14:31<09:48,  4.86s/it]Train NLL: 2.107, Val NLL: 2.035:  60%|██████    | 180/300 [14:36<09:43,  4.86s/it]Train NLL: 2.063, Val NLL: 2.081:  60%|██████    | 181/300 [14:41<09:37,  4.85s/it]Train NLL: 2.130, Val NLL: 2.088:  61%|██████    | 182/300 [14:46<09:31,  4.84s/it]Train NLL: 2.060, Val NLL: 2.315:  61%|██████    | 183/300 [14:51<09:27,  4.85s/it]Train NLL: 2.159, Val NLL: 2.183:  61%|██████▏   | 184/300 [14:56<09:23,  4.86s/it]Train NLL: 2.197, Val NLL: 2.199:  62%|██████▏   | 185/300 [15:00<09:20,  4.87s/it]Train NLL: 2.140, Val NLL: 2.069:  62%|██████▏   | 186/300 [15:05<09:16,  4.88s/it]Train NLL: 2.062, Val NLL: 2.099:  62%|██████▏   | 187/300 [15:10<09:12,  4.89s/it]Train NLL: 2.149, Val NLL: 2.039:  63%|██████▎   | 188/300 [15:15<09:07,  4.89s/it]Train NLL: 2.084, Val NLL: 2.250:  63%|██████▎   | 189/300 [15:20<09:03,  4.89s/it]Train NLL: 2.128, Val NLL: 2.039:  63%|██████▎   | 190/300 [15:25<08:59,  4.90s/it]Train NLL: 2.054, Val NLL: 2.063:  64%|██████▎   | 191/300 [15:30<08:52,  4.88s/it]Train NLL: 2.098, Val NLL: 2.121:  64%|██████▍   | 192/300 [15:35<08:45,  4.86s/it]Train NLL: 2.054, Val NLL: 2.021:  64%|██████▍   | 193/300 [15:39<08:39,  4.85s/it]Train NLL: 2.069, Val NLL: 2.072:  65%|██████▍   | 194/300 [15:44<08:33,  4.85s/it]Train NLL: 2.126, Val NLL: 2.735:  65%|██████▌   | 195/300 [15:49<08:29,  4.85s/it]Train NLL: 2.155, Val NLL: 2.025:  65%|██████▌   | 196/300 [15:54<08:23,  4.84s/it]Train NLL: 2.108, Val NLL: 2.131:  66%|██████▌   | 197/300 [15:59<08:19,  4.85s/it]Train NLL: 2.058, Val NLL: 2.035:  66%|██████▌   | 198/300 [16:04<08:16,  4.86s/it]Train NLL: 2.232, Val NLL: 2.213:  66%|██████▋   | 199/300 [16:09<08:10,  4.86s/it]Train NLL: 2.139, Val NLL: 2.112:  67%|██████▋   | 200/300 [16:13<08:05,  4.86s/it]Train NLL: 2.105, Val NLL: 2.086:  67%|██████▋   | 201/300 [16:18<07:59,  4.84s/it]Train NLL: 2.048, Val NLL: 2.159:  67%|██████▋   | 202/300 [16:23<07:54,  4.84s/it]Train NLL: 2.013, Val NLL: 2.000:  68%|██████▊   | 203/300 [16:28<07:49,  4.84s/it]Train NLL: 2.188, Val NLL: 2.201:  68%|██████▊   | 204/300 [16:33<07:47,  4.87s/it]Train NLL: 2.025, Val NLL: 2.054:  68%|██████▊   | 205/300 [16:38<07:43,  4.88s/it]Train NLL: 2.081, Val NLL: 2.063:  69%|██████▊   | 206/300 [16:43<07:37,  4.87s/it]Train NLL: 2.006, Val NLL: 2.163:  69%|██████▉   | 207/300 [16:47<07:32,  4.87s/it]Train NLL: 2.159, Val NLL: 2.209:  69%|██████▉   | 208/300 [16:52<07:27,  4.86s/it]Train NLL: 2.074, Val NLL: 2.011:  70%|██████▉   | 209/300 [16:57<07:21,  4.85s/it]Train NLL: 2.073, Val NLL: 2.067:  70%|███████   | 210/300 [17:02<07:18,  4.87s/it]Train NLL: 2.098, Val NLL: 2.015:  70%|███████   | 211/300 [17:07<07:11,  4.85s/it]Train NLL: 2.068, Val NLL: 2.068:  71%|███████   | 212/300 [17:12<07:06,  4.84s/it]Train NLL: 2.098, Val NLL: 2.108:  71%|███████   | 213/300 [17:16<07:00,  4.83s/it]Train NLL: 2.009, Val NLL: 2.037:  71%|███████▏  | 214/300 [17:21<06:55,  4.83s/it]Train NLL: 2.047, Val NLL: 1.995:  72%|███████▏  | 215/300 [17:26<06:49,  4.82s/it]Train NLL: 2.048, Val NLL: 2.148:  72%|███████▏  | 216/300 [17:31<06:44,  4.82s/it]Train NLL: 2.112, Val NLL: 2.104:  72%|███████▏  | 217/300 [17:36<06:38,  4.81s/it]Train NLL: 2.014, Val NLL: 2.052:  73%|███████▎  | 218/300 [17:41<06:34,  4.81s/it]Train NLL: 2.059, Val NLL: 2.128:  73%|███████▎  | 219/300 [17:45<06:29,  4.81s/it]Train NLL: 2.023, Val NLL: 2.165:  73%|███████▎  | 220/300 [17:50<06:25,  4.82s/it]Train NLL: 2.039, Val NLL: 2.136:  74%|███████▎  | 221/300 [17:55<06:20,  4.82s/it]Train NLL: 2.082, Val NLL: 2.014:  74%|███████▍  | 222/300 [18:00<06:15,  4.81s/it]Train NLL: 2.032, Val NLL: 2.091:  74%|███████▍  | 223/300 [18:05<06:10,  4.82s/it]Train NLL: 2.101, Val NLL: 1.999:  75%|███████▍  | 224/300 [18:09<06:05,  4.81s/it]Train NLL: 2.074, Val NLL: 1.976:  75%|███████▌  | 225/300 [18:14<06:00,  4.80s/it]Train NLL: 2.038, Val NLL: 2.301:  75%|███████▌  | 226/300 [18:19<05:55,  4.80s/it]Train NLL: 2.145, Val NLL: 2.119:  76%|███████▌  | 227/300 [18:24<05:49,  4.79s/it]Train NLL: 1.988, Val NLL: 1.962:  76%|███████▌  | 228/300 [18:29<05:45,  4.80s/it]Train NLL: 2.057, Val NLL: 2.039:  76%|███████▋  | 229/300 [18:33<05:40,  4.80s/it]Train NLL: 2.052, Val NLL: 2.120:  77%|███████▋  | 230/300 [18:38<05:35,  4.80s/it]Train NLL: 2.103, Val NLL: 2.061:  77%|███████▋  | 231/300 [18:43<05:31,  4.80s/it]Train NLL: 1.996, Val NLL: 2.263:  77%|███████▋  | 232/300 [18:48<05:26,  4.80s/it]Train NLL: 2.075, Val NLL: 2.130:  78%|███████▊  | 233/300 [18:53<05:21,  4.80s/it]Train NLL: 2.010, Val NLL: 2.260:  78%|███████▊  | 234/300 [18:57<05:16,  4.79s/it]Train NLL: 2.062, Val NLL: 2.026:  78%|███████▊  | 235/300 [19:02<05:12,  4.80s/it]Train NLL: 1.985, Val NLL: 2.032:  79%|███████▊  | 236/300 [19:07<05:07,  4.80s/it]Train NLL: 2.009, Val NLL: 2.002:  79%|███████▉  | 237/300 [19:12<05:02,  4.80s/it]Train NLL: 2.047, Val NLL: 2.110:  79%|███████▉  | 238/300 [19:17<04:57,  4.80s/it]Train NLL: 2.005, Val NLL: 2.051:  80%|███████▉  | 239/300 [19:21<04:52,  4.80s/it]Train NLL: 2.077, Val NLL: 2.067:  80%|████████  | 240/300 [19:26<04:47,  4.80s/it]Train NLL: 1.962, Val NLL: 1.969:  80%|████████  | 241/300 [19:31<04:43,  4.80s/it]Train NLL: 1.999, Val NLL: 2.136:  81%|████████  | 242/300 [19:36<04:38,  4.80s/it]Train NLL: 2.095, Val NLL: 2.014:  81%|████████  | 243/300 [19:41<04:33,  4.80s/it]Train NLL: 2.060, Val NLL: 1.964:  81%|████████▏ | 244/300 [19:45<04:28,  4.80s/it]Train NLL: 1.985, Val NLL: 2.130:  82%|████████▏ | 245/300 [19:50<04:24,  4.80s/it]Train NLL: 2.099, Val NLL: 2.001:  82%|████████▏ | 246/300 [19:55<04:19,  4.80s/it]Train NLL: 2.044, Val NLL: 2.040:  82%|████████▏ | 247/300 [20:00<04:13,  4.79s/it]Train NLL: 2.080, Val NLL: 2.022:  83%|████████▎ | 248/300 [20:05<04:09,  4.80s/it]Train NLL: 2.134, Val NLL: 2.817:  83%|████████▎ | 249/300 [20:09<04:05,  4.81s/it]Train NLL: 2.049, Val NLL: 2.015:  83%|████████▎ | 250/300 [20:14<04:00,  4.81s/it]Train NLL: 2.020, Val NLL: 2.079:  84%|████████▎ | 251/300 [20:19<03:55,  4.81s/it]Train NLL: 2.002, Val NLL: 2.746:  84%|████████▍ | 252/300 [20:24<03:50,  4.81s/it]Train NLL: 2.110, Val NLL: 2.084:  84%|████████▍ | 253/300 [20:29<03:46,  4.82s/it]Train NLL: 2.030, Val NLL: 1.950:  85%|████████▍ | 254/300 [20:33<03:41,  4.81s/it]Train NLL: 2.003, Val NLL: 2.150:  85%|████████▌ | 255/300 [20:38<03:36,  4.81s/it]Train NLL: 2.057, Val NLL: 2.093:  85%|████████▌ | 256/300 [20:43<03:31,  4.81s/it]Train NLL: 2.070, Val NLL: 2.132:  86%|████████▌ | 257/300 [20:48<03:27,  4.82s/it]Train NLL: 2.116, Val NLL: 2.069:  86%|████████▌ | 258/300 [20:53<03:22,  4.82s/it]Train NLL: 2.068, Val NLL: 1.984:  86%|████████▋ | 259/300 [20:58<03:17,  4.82s/it]Train NLL: 1.989, Val NLL: 2.000:  87%|████████▋ | 260/300 [21:02<03:12,  4.82s/it]Train NLL: 1.959, Val NLL: 2.331:  87%|████████▋ | 261/300 [21:07<03:07,  4.82s/it]Train NLL: 2.133, Val NLL: 2.199:  87%|████████▋ | 262/300 [21:12<03:03,  4.82s/it]Train NLL: 1.983, Val NLL: 1.993:  88%|████████▊ | 263/300 [21:17<02:57,  4.81s/it]Train NLL: 1.945, Val NLL: 2.029:  88%|████████▊ | 264/300 [21:22<02:53,  4.82s/it]Train NLL: 1.965, Val NLL: 2.038:  88%|████████▊ | 265/300 [21:26<02:48,  4.81s/it]Train NLL: 2.033, Val NLL: 2.040:  89%|████████▊ | 266/300 [21:31<02:43,  4.81s/it]Train NLL: 1.980, Val NLL: 1.982:  89%|████████▉ | 267/300 [21:36<02:38,  4.81s/it]Train NLL: 2.074, Val NLL: 2.191:  89%|████████▉ | 268/300 [21:41<02:33,  4.81s/it]Train NLL: 2.027, Val NLL: 1.995:  90%|████████▉ | 269/300 [21:46<02:28,  4.80s/it]Train NLL: 1.994, Val NLL: 1.972:  90%|█████████ | 270/300 [21:51<02:25,  4.86s/it]Train NLL: 2.030, Val NLL: 2.031:  90%|█████████ | 271/300 [21:55<02:21,  4.86s/it]Train NLL: 2.035, Val NLL: 2.244:  91%|█████████ | 272/300 [22:00<02:16,  4.87s/it]Train NLL: 2.041, Val NLL: 2.013:  91%|█████████ | 273/300 [22:05<02:11,  4.87s/it]Train NLL: 1.995, Val NLL: 2.047:  91%|█████████▏| 274/300 [22:10<02:06,  4.87s/it]Train NLL: 1.998, Val NLL: 2.153:  92%|█████████▏| 275/300 [22:15<02:01,  4.86s/it]Train NLL: 2.015, Val NLL: 2.127:  92%|█████████▏| 276/300 [22:20<01:56,  4.86s/it]Train NLL: 2.061, Val NLL: 1.992:  92%|█████████▏| 277/300 [22:25<01:51,  4.87s/it]Train NLL: 2.078, Val NLL: 1.992:  93%|█████████▎| 278/300 [22:30<01:46,  4.86s/it]Train NLL: 1.977, Val NLL: 2.045:  93%|█████████▎| 279/300 [22:34<01:42,  4.87s/it]Train NLL: 1.992, Val NLL: 2.204:  93%|█████████▎| 280/300 [22:39<01:37,  4.87s/it]Train NLL: 2.062, Val NLL: 2.354:  94%|█████████▎| 281/300 [22:44<01:32,  4.87s/it]Train NLL: 1.958, Val NLL: 2.010:  94%|█████████▍| 282/300 [22:49<01:27,  4.87s/it]Train NLL: 1.954, Val NLL: 1.916:  94%|█████████▍| 283/300 [22:54<01:22,  4.86s/it]Train NLL: 2.019, Val NLL: 1.984:  95%|█████████▍| 284/300 [22:59<01:17,  4.86s/it]Epoch   285: reducing learning rate of group 0 to 1.0000e-03.
Train NLL: 2.206, Val NLL: 2.014:  95%|█████████▌| 285/300 [23:04<01:12,  4.86s/it]Train NLL: 1.788, Val NLL: 1.886:  95%|█████████▌| 286/300 [23:08<01:08,  4.86s/it]Train NLL: 1.766, Val NLL: 1.890:  96%|█████████▌| 287/300 [23:13<01:03,  4.86s/it]Train NLL: 1.759, Val NLL: 1.874:  96%|█████████▌| 288/300 [23:18<00:58,  4.86s/it]Train NLL: 1.759, Val NLL: 1.865:  96%|█████████▋| 289/300 [23:23<00:53,  4.86s/it]Train NLL: 1.758, Val NLL: 1.915:  97%|█████████▋| 290/300 [23:28<00:48,  4.86s/it]Train NLL: 1.750, Val NLL: 1.870:  97%|█████████▋| 291/300 [23:33<00:43,  4.88s/it]Train NLL: 1.746, Val NLL: 1.863:  97%|█████████▋| 292/300 [23:38<00:39,  4.89s/it]Train NLL: 1.748, Val NLL: 1.869:  98%|█████████▊| 293/300 [23:43<00:34,  4.91s/it]Train NLL: 1.747, Val NLL: 1.864:  98%|█████████▊| 294/300 [23:48<00:29,  4.91s/it]Train NLL: 1.745, Val NLL: 1.858:  98%|█████████▊| 295/300 [23:53<00:24,  4.91s/it]Train NLL: 1.740, Val NLL: 1.853:  99%|█████████▊| 296/300 [23:57<00:19,  4.91s/it]Train NLL: 1.738, Val NLL: 1.884:  99%|█████████▉| 297/300 [24:02<00:14,  4.92s/it]Train NLL: 1.740, Val NLL: 1.877:  99%|█████████▉| 298/300 [24:07<00:09,  4.92s/it]Train NLL: 1.738, Val NLL: 1.845: 100%|█████████▉| 299/300 [24:12<00:04,  4.93s/it]Train NLL: 1.741, Val NLL: 1.861: 100%|██████████| 300/300 [24:17<00:00,  4.93s/it]Train NLL: 1.741, Val NLL: 1.861: 100%|██████████| 300/300 [24:17<00:00,  4.86s/it]
INFO - residual_nf - Completed after 0:24:18
