{
  "batch_size": 100,
  "bn": "arithmetic-circuit",
  "bt_config": {
    "depth": 5,
    "seed": 4
  },
  "checkpoint_n": 10,
  "cond_size": 10,
  "conditioner_type": "dag-masked",
  "double": false,
  "ex_name": "discrete_nf",
  "hidden_dims": [
    50
  ],
  "int_net_final_activation": "elu",
  "int_net_hidden": [
    100
  ],
  "load_from_checkpoint": false,
  "lr": 0.01,
  "mono_num_steps": 15,
  "mono_solver": "CC",
  "normalizer_type": "monotonic",
  "num_epochs": 300,
  "num_flow_steps": 2,
  "num_train_batches": 100,
  "num_train_samples": 10000,
  "num_val_batches": 50,
  "num_val_samples": 5000,
  "path": "./experiment_logs/discrete_nf/arithmetic-circuit/dag-masked_monotonic_2_[50]",
  "patience": 20,
  "run": 1,
  "seed": 2,
  "sub_folder": "dag-masked_monotonic_2_[50]"
}