{
  "artifacts": [],
  "command": "run",
  "experiment": {
    "base_dir": "/home/jmouton/Documents/MSc/Code/mouton-msc-code/inference",
    "dependencies": [
      "matplotlib==3.4.3",
      "numpy==1.21.2",
      "sacred==0.8.2",
      "torch==1.9.1",
      "tqdm==4.62.3"
    ],
    "mainfile": "ex_residual_nf_density_estimation.py",
    "name": "residual_nf",
    "repositories": [
      {
        "commit": "7d0d15b246773748035f78e9d152e62f928cd28e",
        "dirty": true,
        "url": "git@git.cs.sun.ac.za:21054479/mouton-msc-code.git"
      },
      {
        "commit": "7d0d15b246773748035f78e9d152e62f928cd28e",
        "dirty": true,
        "url": "git@git.cs.sun.ac.za:21054479/mouton-msc-code.git"
      },
      {
        "commit": "7d0d15b246773748035f78e9d152e62f928cd28e",
        "dirty": true,
        "url": "git@git.cs.sun.ac.za:21054479/mouton-msc-code.git"
      },
      {
        "commit": "7d0d15b246773748035f78e9d152e62f928cd28e",
        "dirty": true,
        "url": "git@git.cs.sun.ac.za:21054479/mouton-msc-code.git"
      },
      {
        "commit": "7d0d15b246773748035f78e9d152e62f928cd28e",
        "dirty": true,
        "url": "git@git.cs.sun.ac.za:21054479/mouton-msc-code.git"
      },
      {
        "commit": "7d0d15b246773748035f78e9d152e62f928cd28e",
        "dirty": true,
        "url": "git@git.cs.sun.ac.za:21054479/mouton-msc-code.git"
      },
      {
        "commit": "7d0d15b246773748035f78e9d152e62f928cd28e",
        "dirty": true,
        "url": "git@git.cs.sun.ac.za:21054479/mouton-msc-code.git"
      },
      {
        "commit": "7d0d15b246773748035f78e9d152e62f928cd28e",
        "dirty": true,
        "url": "git@git.cs.sun.ac.za:21054479/mouton-msc-code.git"
      },
      {
        "commit": "7d0d15b246773748035f78e9d152e62f928cd28e",
        "dirty": true,
        "url": "git@git.cs.sun.ac.za:21054479/mouton-msc-code.git"
      },
      {
        "commit": "7d0d15b246773748035f78e9d152e62f928cd28e",
        "dirty": true,
        "url": "git@git.cs.sun.ac.za:21054479/mouton-msc-code.git"
      },
      {
        "commit": "7d0d15b246773748035f78e9d152e62f928cd28e",
        "dirty": true,
        "url": "git@git.cs.sun.ac.za:21054479/mouton-msc-code.git"
      },
      {
        "commit": "7d0d15b246773748035f78e9d152e62f928cd28e",
        "dirty": true,
        "url": "git@git.cs.sun.ac.za:21054479/mouton-msc-code.git"
      },
      {
        "commit": "7d0d15b246773748035f78e9d152e62f928cd28e",
        "dirty": true,
        "url": "git@git.cs.sun.ac.za:21054479/mouton-msc-code.git"
      },
      {
        "commit": "7d0d15b246773748035f78e9d152e62f928cd28e",
        "dirty": true,
        "url": "git@git.cs.sun.ac.za:21054479/mouton-msc-code.git"
      },
      {
        "commit": "7d0d15b246773748035f78e9d152e62f928cd28e",
        "dirty": true,
        "url": "git@git.cs.sun.ac.za:21054479/mouton-msc-code.git"
      },
      {
        "commit": "7d0d15b246773748035f78e9d152e62f928cd28e",
        "dirty": true,
        "url": "git@git.cs.sun.ac.za:21054479/mouton-msc-code.git"
      },
      {
        "commit": "7d0d15b246773748035f78e9d152e62f928cd28e",
        "dirty": true,
        "url": "git@git.cs.sun.ac.za:21054479/mouton-msc-code.git"
      },
      {
        "commit": "7d0d15b246773748035f78e9d152e62f928cd28e",
        "dirty": true,
        "url": "git@git.cs.sun.ac.za:21054479/mouton-msc-code.git"
      },
      {
        "commit": "7d0d15b246773748035f78e9d152e62f928cd28e",
        "dirty": true,
        "url": "git@git.cs.sun.ac.za:21054479/mouton-msc-code.git"
      },
      {
        "commit": "7d0d15b246773748035f78e9d152e62f928cd28e",
        "dirty": true,
        "url": "git@git.cs.sun.ac.za:21054479/mouton-msc-code.git"
      },
      {
        "commit": "7d0d15b246773748035f78e9d152e62f928cd28e",
        "dirty": true,
        "url": "git@git.cs.sun.ac.za:21054479/mouton-msc-code.git"
      },
      {
        "commit": "7d0d15b246773748035f78e9d152e62f928cd28e",
        "dirty": true,
        "url": "git@git.cs.sun.ac.za:21054479/mouton-msc-code.git"
      },
      {
        "commit": "7d0d15b246773748035f78e9d152e62f928cd28e",
        "dirty": true,
        "url": "git@git.cs.sun.ac.za:21054479/mouton-msc-code.git"
      },
      {
        "commit": "7d0d15b246773748035f78e9d152e62f928cd28e",
        "dirty": true,
        "url": "git@git.cs.sun.ac.za:21054479/mouton-msc-code.git"
      },
      {
        "commit": "7d0d15b246773748035f78e9d152e62f928cd28e",
        "dirty": true,
        "url": "git@git.cs.sun.ac.za:21054479/mouton-msc-code.git"
      },
      {
        "commit": "7d0d15b246773748035f78e9d152e62f928cd28e",
        "dirty": true,
        "url": "git@git.cs.sun.ac.za:21054479/mouton-msc-code.git"
      },
      {
        "commit": "7d0d15b246773748035f78e9d152e62f928cd28e",
        "dirty": true,
        "url": "git@git.cs.sun.ac.za:21054479/mouton-msc-code.git"
      },
      {
        "commit": "7d0d15b246773748035f78e9d152e62f928cd28e",
        "dirty": true,
        "url": "git@git.cs.sun.ac.za:21054479/mouton-msc-code.git"
      },
      {
        "commit": "7d0d15b246773748035f78e9d152e62f928cd28e",
        "dirty": true,
        "url": "git@git.cs.sun.ac.za:21054479/mouton-msc-code.git"
      },
      {
        "commit": "7d0d15b246773748035f78e9d152e62f928cd28e",
        "dirty": true,
        "url": "git@git.cs.sun.ac.za:21054479/mouton-msc-code.git"
      },
      {
        "commit": "7d0d15b246773748035f78e9d152e62f928cd28e",
        "dirty": true,
        "url": "git@git.cs.sun.ac.za:21054479/mouton-msc-code.git"
      },
      {
        "commit": "7d0d15b246773748035f78e9d152e62f928cd28e",
        "dirty": true,
        "url": "git@git.cs.sun.ac.za:21054479/mouton-msc-code.git"
      },
      {
        "commit": "7d0d15b246773748035f78e9d152e62f928cd28e",
        "dirty": true,
        "url": "git@git.cs.sun.ac.za:21054479/mouton-msc-code.git"
      },
      {
        "commit": "7d0d15b246773748035f78e9d152e62f928cd28e",
        "dirty": true,
        "url": "git@git.cs.sun.ac.za:21054479/mouton-msc-code.git"
      },
      {
        "commit": "7d0d15b246773748035f78e9d152e62f928cd28e",
        "dirty": true,
        "url": "git@git.cs.sun.ac.za:21054479/mouton-msc-code.git"
      },
      {
        "commit": "7d0d15b246773748035f78e9d152e62f928cd28e",
        "dirty": true,
        "url": "git@git.cs.sun.ac.za:21054479/mouton-msc-code.git"
      },
      {
        "commit": "7d0d15b246773748035f78e9d152e62f928cd28e",
        "dirty": true,
        "url": "git@git.cs.sun.ac.za:21054479/mouton-msc-code.git"
      },
      {
        "commit": "7d0d15b246773748035f78e9d152e62f928cd28e",
        "dirty": true,
        "url": "git@git.cs.sun.ac.za:21054479/mouton-msc-code.git"
      },
      {
        "commit": "7d0d15b246773748035f78e9d152e62f928cd28e",
        "dirty": true,
        "url": "git@git.cs.sun.ac.za:21054479/mouton-msc-code.git"
      }
    ],
    "sources": [
      [
        "data/load_data.py",
        "_sources/load_data_16db95f83aa0fd3d6fff84519126a691.py"
      ],
      [
        "ex_binary_tree_config.py",
        "_sources/ex_binary_tree_config_b4386c3b0c34f87160094fb07984be6e.py"
      ],
      [
        "ex_residual_nf_density_estimation.py",
        "_sources/ex_residual_nf_density_estimation_7b5c7ee70a627e6c0ecc147c8f59636b.py"
      ],
      [
        "ex_utils.py",
        "_sources/ex_utils_2fc5cf83b18569f779105bc0ffdbfb70.py"
      ],
      [
        "graph/belief_network/__init__.py",
        "_sources/__init___e935099707bbf443481b198adca52d5e.py"
      ],
      [
        "graph/belief_network/arithmetic_circuit.py",
        "_sources/arithmetic_circuit_8ecef4877468c42fd8b75577f9a938d9.py"
      ],
      [
        "graph/belief_network/arithmetic_circuit2.py",
        "_sources/arithmetic_circuit2_4b084afdfc41a65ff9b3aa6c031c2826.py"
      ],
      [
        "graph/belief_network/arth150.py",
        "_sources/arth150_c505484d7005b016446bf5484ad754e4.py"
      ],
      [
        "graph/belief_network/augmented.py",
        "_sources/augmented_e0d2684778bbd3c752685ce7241d56aa.py"
      ],
      [
        "graph/belief_network/augmented_ac.py",
        "_sources/augmented_ac_4d878d519aedc7d29dc9e85bb5f6cd1e.py"
      ],
      [
        "graph/belief_network/bn.py",
        "_sources/bn_7907cdb518df03738b12cff9d1f3f47d.py"
      ],
      [
        "graph/belief_network/circles.py",
        "_sources/circles_bb2fb6153e9b8e514f6aa18a3266f3d9.py"
      ],
      [
        "graph/belief_network/ecoli70.py",
        "_sources/ecoli70_56888b9a9292747e352ce3994e14da03.py"
      ],
      [
        "graph/belief_network/ecoli70_2.py",
        "_sources/ecoli70_2_100a5c1eb135d96b94e823b2a5158f70.py"
      ],
      [
        "graph/belief_network/ecoli70_adapted.py",
        "_sources/ecoli70_adapted_e9cf2d952bc29442b55ea7dfd5bf8da0.py"
      ],
      [
        "graph/belief_network/ecoli70_complex.py",
        "_sources/ecoli70_complex_a775584aaa5a99c8ebce188a32253a7c.py"
      ],
      [
        "graph/belief_network/eight_gaussians.py",
        "_sources/eight_gaussians_49f0ad346382821aace99aa4d7147789.py"
      ],
      [
        "graph/belief_network/eight_pairs.py",
        "_sources/eight_pairs_c2f3274b444f9dd9a8bd5b86ef605df1.py"
      ],
      [
        "graph/belief_network/fc.py",
        "_sources/fc_54cee4520012502805eef09b30a1ac19.py"
      ],
      [
        "graph/belief_network/gaussian_binary_tree.py",
        "_sources/gaussian_binary_tree_f8190669535d64dce0245dc12bf45b24.py"
      ],
      [
        "graph/belief_network/gaussian_ternary_tree.py",
        "_sources/gaussian_ternary_tree_76d85f0fe5f2f6f3f713142583405567.py"
      ],
      [
        "graph/belief_network/indep.py",
        "_sources/indep_c8e534595f38fe83b95d5166708408f9.py"
      ],
      [
        "graph/belief_network/largerbn1.py",
        "_sources/largerbn1_5052dd5316372d7ad856e5b6f25ce930.py"
      ],
      [
        "graph/belief_network/largerbn2.py",
        "_sources/largerbn2_8136298ee0585cfbd189e761242b1217.py"
      ],
      [
        "graph/belief_network/magic_irri.py",
        "_sources/magic_irri_0095d278ca6afa49bcdc8e3076dcb70c.py"
      ],
      [
        "graph/belief_network/mehra.py",
        "_sources/mehra_d3d8067abdf92c2f526465a57f6c7bbe.py"
      ],
      [
        "graph/belief_network/one_pair.py",
        "_sources/one_pair_6a451d18a5701ada28f15cc4e151ebad.py"
      ],
      [
        "graph/belief_network/protein.py",
        "_sources/protein_09498642f2f51ae93acaf143a3f7b79e.py"
      ],
      [
        "graph/belief_network/random.py",
        "_sources/random_6bd77f60aa268f541cc12349b8f7c3ec.py"
      ],
      [
        "graph/belief_network/sangiovese.py",
        "_sources/sangiovese_fbf1d2fcd4a127a8b31cd8d9948ac571.py"
      ],
      [
        "graph/belief_network/swiss_roll.py",
        "_sources/swiss_roll_e358d640f29e30e3f4e713ea21edd3bc.py"
      ],
      [
        "graph/belief_network/synthetic1.py",
        "_sources/synthetic1_c2993644bf825c5d2dcc2f1aed756be3.py"
      ],
      [
        "graph/belief_network/synthetic2.py",
        "_sources/synthetic2_08115974ddcc6281d0fc0ae85918231b.py"
      ],
      [
        "graph/belief_network/tree.py",
        "_sources/tree_720876055cb36a629c38c87a8d38db5d.py"
      ],
      [
        "graph/belief_network/two_pairs.py",
        "_sources/two_pairs_d03fe25dd53f70e5283aae4afb7b9bc1.py"
      ],
      [
        "graph/belief_network/two_spirals.py",
        "_sources/two_spirals_b64bc7d7f9bbb9f2952bac70c32ad669.py"
      ],
      [
        "graph/belief_network/vanilla.py",
        "_sources/vanilla_caf5c3d57d0fa511a34e0b85222ca9e4.py"
      ],
      [
        "modules/__init__.py",
        "_sources/__init___eac46f424a64c54c5d2650eae0c452ec.py"
      ],
      [
        "modules/factory.py",
        "_sources/factory_2dbdd63e49f2c45aef1714dfa347734c.py"
      ]
    ]
  },
  "heartbeat": "2022-07-08T00:08:27.407082",
  "host": {
    "ENV": {},
    "cpu": "11th Gen Intel(R) Core(TM) i9-11900 @ 2.50GHz",
    "gpus": {
      "driver_version": "470.63.01",
      "gpus": [
        {
          "model": "NVIDIA GeForce RTX 3070",
          "persistence_mode": false,
          "total_memory": 7973
        }
      ]
    },
    "hostname": "clg-518788",
    "os": [
      "Linux",
      "Linux-5.11.0-37-generic-x86_64-with-glibc2.10"
    ],
    "python_version": "3.8.12"
  },
  "meta": {
    "command": "run",
    "options": {
      "--beat-interval": null,
      "--capture": null,
      "--comment": null,
      "--debug": false,
      "--enforce_clean": false,
      "--file_storage": null,
      "--force": false,
      "--help": false,
      "--loglevel": null,
      "--mongo_db": null,
      "--name": null,
      "--pdb": false,
      "--print-config": false,
      "--priority": null,
      "--queue": false,
      "--s3": null,
      "--sql": null,
      "--tiny_db": null,
      "--unobserved": false,
      "COMMAND": null,
      "UPDATE": [
        "bn=ecoli70-alt",
        "num_epochs=250",
        "activation=elu",
        "hidden_dims=[100]",
        "num_blocks=6",
        "seed=1"
      ],
      "help": false,
      "with": true
    }
  },
  "resources": [],
  "result": null,
  "start_time": "2022-07-07T23:53:02.923285",
  "status": "COMPLETED",
  "stop_time": "2022-07-08T00:08:27.405412"
}