INFO - residual_nf - Running command 'run'
INFO - residual_nf - Started run with ID "6"
[CONFIG] {'bn': 'mehra-real', 'structure': 'faithful', 'coeff': 0.99, 'n_power_iterations': 5, 'num_blocks': 14, 'hidden_dims': [100], 'activation': 'lipswish', 'grad_in_forward': True, 'batch_size': 100, 'num_train_samples': 10000, 'num_val_samples': 5000, 'num_epochs': 400, 'num_train_batches': 100, 'num_val_batches': 50, 'lr': 0.01, 'seed': 4, 'patience': 20, 'double': True, 'run': 5, 'checkpoint_n': 10, 'load_from_checkpoint': True, 'ex_name': 'residual_nf_density_estimation', 'sub_folder': 'faithful_99_lipswish_14_[100]', 'path': './experiment_logs/residual_nf_density_estimation/mehra-real/faithful_99_lipswish_14_[100]', 'bt_config': {'depth': 5, 'seed': 4}}
[DEVICE] cpu
[LOADING DATA] Mehra
[ENCODED STRUCTURE] Using faithful BN structure.
[LOADING FROM CHECKPOINT] Start epoch: 300
  0%|          | 0/100 [00:00<?, ?it/s]Train NLL: 10.807, Val NLL: 11.002:   1%|          | 1/100 [00:02<04:15,  2.58s/it]Train NLL: 10.811, Val NLL: 11.001:   2%|▏         | 2/100 [00:04<03:53,  2.38s/it]Train NLL: 10.807, Val NLL: 11.001:   3%|▎         | 3/100 [00:06<03:34,  2.21s/it]Train NLL: 10.810, Val NLL: 11.009:   4%|▍         | 4/100 [00:08<03:22,  2.11s/it]Train NLL: 10.810, Val NLL: 11.008:   5%|▌         | 5/100 [00:10<03:18,  2.09s/it]Train NLL: 10.812, Val NLL: 11.012:   6%|▌         | 6/100 [00:13<03:26,  2.20s/it]Train NLL: 10.809, Val NLL: 11.008:   7%|▋         | 7/100 [00:15<03:21,  2.16s/it]Train NLL: 10.808, Val NLL: 10.997:   8%|▊         | 8/100 [00:17<03:13,  2.10s/it]Train NLL: 10.808, Val NLL: 10.999:   9%|▉         | 9/100 [00:19<03:10,  2.09s/it]Train NLL: 10.809, Val NLL: 11.008:  10%|█         | 10/100 [00:21<03:08,  2.10s/it]Train NLL: 10.815, Val NLL: 11.000:  11%|█         | 11/100 [00:23<03:10,  2.14s/it]Train NLL: 10.808, Val NLL: 11.001:  12%|█▏        | 12/100 [00:25<03:02,  2.07s/it]Train NLL: 10.810, Val NLL: 10.996:  13%|█▎        | 13/100 [00:27<03:00,  2.07s/it]Train NLL: 10.806, Val NLL: 10.999:  14%|█▍        | 14/100 [00:31<03:43,  2.60s/it]Train NLL: 10.809, Val NLL: 11.001:  15%|█▌        | 15/100 [00:33<03:32,  2.50s/it]Train NLL: 10.807, Val NLL: 10.995:  16%|█▌        | 16/100 [00:36<03:23,  2.42s/it]Train NLL: 10.806, Val NLL: 11.000:  17%|█▋        | 17/100 [00:38<03:12,  2.32s/it]Train NLL: 10.810, Val NLL: 11.002:  18%|█▊        | 18/100 [00:40<03:04,  2.25s/it]Train NLL: 10.807, Val NLL: 11.015:  19%|█▉        | 19/100 [00:42<03:05,  2.29s/it]Train NLL: 10.809, Val NLL: 11.002:  20%|██        | 20/100 [00:44<03:02,  2.29s/it]Train NLL: 10.809, Val NLL: 10.995:  21%|██        | 21/100 [00:47<02:57,  2.24s/it]Train NLL: 10.809, Val NLL: 11.001:  22%|██▏       | 22/100 [00:49<02:52,  2.21s/it]Train NLL: 10.807, Val NLL: 11.002:  23%|██▎       | 23/100 [00:51<02:54,  2.27s/it]Train NLL: 10.811, Val NLL: 11.006:  24%|██▍       | 24/100 [00:54<02:57,  2.33s/it]Train NLL: 10.806, Val NLL: 10.999:  25%|██▌       | 25/100 [00:56<02:56,  2.35s/it]Train NLL: 10.808, Val NLL: 10.996:  26%|██▌       | 26/100 [00:58<02:54,  2.36s/it]Train NLL: 10.808, Val NLL: 11.003:  27%|██▋       | 27/100 [01:01<02:52,  2.37s/it]Train NLL: 10.809, Val NLL: 11.011:  28%|██▊       | 28/100 [01:03<02:47,  2.32s/it]Train NLL: 10.807, Val NLL: 10.996:  29%|██▉       | 29/100 [01:05<02:41,  2.28s/it]Train NLL: 10.807, Val NLL: 11.001:  30%|███       | 30/100 [01:07<02:36,  2.24s/it]Train NLL: 10.811, Val NLL: 10.998:  31%|███       | 31/100 [01:10<02:39,  2.31s/it]Train NLL: 10.811, Val NLL: 10.995:  32%|███▏      | 32/100 [01:12<02:34,  2.28s/it]Train NLL: 10.805, Val NLL: 11.001:  33%|███▎      | 33/100 [01:14<02:29,  2.23s/it]Train NLL: 10.809, Val NLL: 11.001:  34%|███▍      | 34/100 [01:16<02:28,  2.25s/it]Epoch   335: reducing learning rate of group 0 to 1.0000e-04.
Train NLL: 10.805, Val NLL: 10.997:  35%|███▌      | 35/100 [01:19<02:27,  2.27s/it]Train NLL: 10.797, Val NLL: 10.995:  36%|███▌      | 36/100 [01:21<02:28,  2.32s/it]Train NLL: 10.795, Val NLL: 10.994:  37%|███▋      | 37/100 [01:23<02:27,  2.34s/it]Train NLL: 10.795, Val NLL: 10.995:  38%|███▊      | 38/100 [01:26<02:25,  2.35s/it]Train NLL: 10.795, Val NLL: 10.995:  39%|███▉      | 39/100 [01:28<02:23,  2.35s/it]Train NLL: 10.795, Val NLL: 10.995:  40%|████      | 40/100 [01:31<02:21,  2.35s/it]Train NLL: 10.794, Val NLL: 10.995:  41%|████      | 41/100 [01:33<02:16,  2.32s/it]Train NLL: 10.794, Val NLL: 10.995:  42%|████▏     | 42/100 [01:35<02:16,  2.36s/it]Train NLL: 10.794, Val NLL: 10.995:  43%|████▎     | 43/100 [01:37<02:12,  2.32s/it]Train NLL: 10.794, Val NLL: 10.995:  44%|████▍     | 44/100 [01:40<02:10,  2.34s/it]Train NLL: 10.794, Val NLL: 10.995:  45%|████▌     | 45/100 [01:42<02:06,  2.30s/it]Train NLL: 10.794, Val NLL: 10.995:  46%|████▌     | 46/100 [01:45<02:13,  2.47s/it]Train NLL: 10.794, Val NLL: 10.995:  47%|████▋     | 47/100 [01:47<02:05,  2.37s/it]Train NLL: 10.794, Val NLL: 10.995:  48%|████▊     | 48/100 [01:49<01:59,  2.30s/it]Train NLL: 10.794, Val NLL: 10.995:  49%|████▉     | 49/100 [01:51<01:56,  2.29s/it]Train NLL: 10.794, Val NLL: 10.995:  50%|█████     | 50/100 [01:54<02:00,  2.40s/it]Train NLL: 10.794, Val NLL: 10.994:  51%|█████     | 51/100 [01:56<01:52,  2.30s/it]Train NLL: 10.794, Val NLL: 10.995:  52%|█████▏    | 52/100 [01:58<01:50,  2.29s/it]Train NLL: 10.794, Val NLL: 10.995:  53%|█████▎    | 53/100 [02:01<01:47,  2.29s/it]Train NLL: 10.794, Val NLL: 10.995:  54%|█████▍    | 54/100 [02:03<01:42,  2.24s/it]Train NLL: 10.794, Val NLL: 10.996:  55%|█████▌    | 55/100 [02:06<01:49,  2.44s/it]Train NLL: 10.794, Val NLL: 10.995:  56%|█████▌    | 56/100 [02:08<01:44,  2.37s/it]Train NLL: 10.794, Val NLL: 10.995:  57%|█████▋    | 57/100 [02:10<01:38,  2.30s/it]Epoch   358: reducing learning rate of group 0 to 1.0000e-05.
Train NLL: 10.794, Val NLL: 10.995:  58%|█████▊    | 58/100 [02:12<01:36,  2.29s/it]Train NLL: 10.793, Val NLL: 10.995:  59%|█████▉    | 59/100 [02:15<01:33,  2.28s/it]Train NLL: 10.793, Val NLL: 10.995:  60%|██████    | 60/100 [02:17<01:29,  2.23s/it]Train NLL: 10.793, Val NLL: 10.995:  61%|██████    | 61/100 [02:19<01:28,  2.27s/it]Train NLL: 10.793, Val NLL: 10.995:  62%|██████▏   | 62/100 [02:21<01:27,  2.30s/it]Train NLL: 10.793, Val NLL: 10.995:  63%|██████▎   | 63/100 [02:24<01:24,  2.30s/it]Train NLL: 10.793, Val NLL: 10.995:  64%|██████▍   | 64/100 [02:26<01:20,  2.25s/it]Train NLL: 10.793, Val NLL: 10.995:  65%|██████▌   | 65/100 [02:28<01:19,  2.26s/it]Train NLL: 10.793, Val NLL: 10.995:  66%|██████▌   | 66/100 [02:30<01:16,  2.24s/it]Train NLL: 10.793, Val NLL: 10.995:  67%|██████▋   | 67/100 [02:33<01:14,  2.27s/it]Train NLL: 10.793, Val NLL: 10.995:  68%|██████▊   | 68/100 [02:35<01:12,  2.28s/it]Train NLL: 10.793, Val NLL: 10.995:  69%|██████▉   | 69/100 [02:37<01:09,  2.25s/it]Train NLL: 10.793, Val NLL: 10.995:  70%|███████   | 70/100 [02:40<01:08,  2.29s/it]Train NLL: 10.793, Val NLL: 10.995:  71%|███████   | 71/100 [02:42<01:08,  2.36s/it]Train NLL: 10.793, Val NLL: 10.995:  72%|███████▏  | 72/100 [02:45<01:07,  2.42s/it]Train NLL: 10.793, Val NLL: 10.995:  73%|███████▎  | 73/100 [02:47<01:04,  2.40s/it]Train NLL: 10.793, Val NLL: 10.995:  74%|███████▍  | 74/100 [02:49<01:00,  2.33s/it]Train NLL: 10.793, Val NLL: 10.995:  75%|███████▌  | 75/100 [02:52<00:59,  2.36s/it]Train NLL: 10.793, Val NLL: 10.995:  76%|███████▌  | 76/100 [02:54<00:57,  2.40s/it]Train NLL: 10.793, Val NLL: 10.995:  77%|███████▋  | 77/100 [02:56<00:54,  2.36s/it]Train NLL: 10.793, Val NLL: 10.995:  78%|███████▊  | 78/100 [02:59<00:52,  2.39s/it]Train NLL: 10.793, Val NLL: 10.995:  79%|███████▉  | 79/100 [03:01<00:50,  2.39s/it]Epoch   380: reducing learning rate of group 0 to 1.0000e-06.
Train NLL: 10.793, Val NLL: 10.995:  80%|████████  | 80/100 [03:04<00:49,  2.47s/it]Train NLL: 10.792, Val NLL: 10.995:  81%|████████  | 81/100 [03:07<00:48,  2.53s/it]Train NLL: 10.792, Val NLL: 10.995:  82%|████████▏ | 82/100 [03:09<00:47,  2.62s/it]Train NLL: 10.792, Val NLL: 10.995:  83%|████████▎ | 83/100 [03:12<00:46,  2.71s/it]Train NLL: 10.792, Val NLL: 10.995:  84%|████████▍ | 84/100 [03:15<00:44,  2.78s/it]Train NLL: 10.792, Val NLL: 10.995:  85%|████████▌ | 85/100 [03:18<00:42,  2.85s/it]Train NLL: 10.792, Val NLL: 10.995:  86%|████████▌ | 86/100 [03:21<00:38,  2.75s/it]Train NLL: 10.792, Val NLL: 10.995:  87%|████████▋ | 87/100 [03:23<00:34,  2.69s/it]Train NLL: 10.792, Val NLL: 10.995:  88%|████████▊ | 88/100 [03:26<00:33,  2.78s/it]Train NLL: 10.792, Val NLL: 10.995:  89%|████████▉ | 89/100 [03:29<00:30,  2.81s/it]Train NLL: 10.792, Val NLL: 10.995:  90%|█████████ | 90/100 [03:32<00:27,  2.78s/it]Train NLL: 10.792, Val NLL: 10.995:  91%|█████████ | 91/100 [03:35<00:25,  2.87s/it]Train NLL: 10.792, Val NLL: 10.995:  92%|█████████▏| 92/100 [03:38<00:22,  2.79s/it]Train NLL: 10.792, Val NLL: 10.995:  93%|█████████▎| 93/100 [03:40<00:18,  2.71s/it]Train NLL: 10.792, Val NLL: 10.995:  94%|█████████▍| 94/100 [03:43<00:15,  2.62s/it]Train NLL: 10.792, Val NLL: 10.995:  95%|█████████▌| 95/100 [03:45<00:12,  2.56s/it]Train NLL: 10.792, Val NLL: 10.995:  96%|█████████▌| 96/100 [03:48<00:10,  2.56s/it]Train NLL: 10.792, Val NLL: 10.995:  97%|█████████▋| 97/100 [03:50<00:07,  2.54s/it]Train NLL: 10.792, Val NLL: 10.995:  98%|█████████▊| 98/100 [03:52<00:04,  2.49s/it]Train NLL: 10.792, Val NLL: 10.995:  99%|█████████▉| 99/100 [03:55<00:02,  2.55s/it]Train NLL: 10.792, Val NLL: 10.995: 100%|██████████| 100/100 [03:58<00:00,  2.56s/it]Train NLL: 10.792, Val NLL: 10.995: 100%|██████████| 100/100 [03:58<00:00,  2.38s/it]
