{
  "memory.usage": {
    "steps": [
      0,
      1,
      2,
      3,
      4,
      5,
      6,
      7,
      8,
      9,
      10,
      11,
      12,
      13,
      14,
      15
    ],
    "timestamps": [
      "2022-09-05T14:04:06.333316",
      "2022-09-05T14:07:32.776112",
      "2022-09-05T14:11:31.754752",
      "2022-09-05T14:15:23.371540",
      "2022-09-05T14:19:06.043874",
      "2022-09-05T14:22:52.972941",
      "2022-09-05T14:26:39.081280",
      "2022-09-05T14:30:26.738444",
      "2022-09-05T14:34:08.108299",
      "2022-09-05T14:37:53.330671",
      "2022-09-05T14:41:41.271464",
      "2022-09-05T14:45:23.733002",
      "2022-09-05T14:49:09.196140",
      "2022-09-05T14:52:55.914027",
      "2022-09-05T14:56:41.509367",
      "2022-09-05T15:00:21.116902"
    ],
    "values": [
      249.157632,
      249.157632,
      249.157632,
      249.157632,
      249.157632,
      249.157632,
      249.157632,
      249.157632,
      249.157632,
      249.157632,
      249.157632,
      249.157632,
      249.157632,
      249.157632,
      249.157632,
      249.157632
    ]
  },
  "train": {
    "steps": [
      0,
      1,
      2,
      3,
      4,
      5,
      6,
      7,
      8,
      9,
      10,
      11,
      12,
      13,
      14,
      15,
      16,
      17,
      18,
      19,
      20,
      21,
      22,
      23,
      24,
      25,
      26,
      27,
      28,
      29,
      30,
      31,
      32,
      33,
      34,
      35,
      36,
      37,
      38,
      39,
      40,
      41,
      42,
      43,
      44,
      45,
      46,
      47,
      48,
      49,
      50,
      51,
      52,
      53,
      54,
      55,
      56,
      57,
      58,
      59,
      60,
      61,
      62,
      63,
      64,
      65,
      66,
      67,
      68,
      69,
      70,
      71,
      72,
      73,
      74,
      75,
      76,
      77,
      78,
      79,
      80,
      81,
      82,
      83,
      84,
      85,
      86,
      87,
      88,
      89,
      90,
      91,
      92,
      93,
      94,
      95,
      96,
      97,
      98,
      99,
      100,
      101,
      102,
      103,
      104,
      105,
      106,
      107,
      108,
      109,
      110,
      111,
      112,
      113,
      114,
      115,
      116,
      117,
      118,
      119,
      120,
      121,
      122,
      123,
      124,
      125,
      126,
      127,
      128,
      129,
      130,
      131,
      132,
      133,
      134,
      135,
      136,
      137,
      138,
      139,
      140,
      141,
      142,
      143,
      144,
      145,
      146,
      147,
      148,
      149
    ],
    "timestamps": [
      "2022-09-05T14:04:06.333160",
      "2022-09-05T14:04:30.162928",
      "2022-09-05T14:04:54.976126",
      "2022-09-05T14:05:19.360718",
      "2022-09-05T14:05:43.410476",
      "2022-09-05T14:06:05.547638",
      "2022-09-05T14:06:27.575307",
      "2022-09-05T14:06:48.906726",
      "2022-09-05T14:07:10.374291",
      "2022-09-05T14:07:32.775963",
      "2022-09-05T14:07:55.742820",
      "2022-09-05T14:08:20.330845",
      "2022-09-05T14:08:43.158650",
      "2022-09-05T14:09:07.727926",
      "2022-09-05T14:09:32.172949",
      "2022-09-05T14:09:56.599960",
      "2022-09-05T14:10:21.067902",
      "2022-09-05T14:10:45.543781",
      "2022-09-05T14:11:08.957809",
      "2022-09-05T14:11:31.754618",
      "2022-09-05T14:11:54.379350",
      "2022-09-05T14:12:17.175552",
      "2022-09-05T14:12:40.158188",
      "2022-09-05T14:13:03.482978",
      "2022-09-05T14:13:26.765629",
      "2022-09-05T14:13:50.130171",
      "2022-09-05T14:14:12.951432",
      "2022-09-05T14:14:36.443727",
      "2022-09-05T14:14:59.924626",
      "2022-09-05T14:15:23.371407",
      "2022-09-05T14:15:46.604423",
      "2022-09-05T14:16:08.402266",
      "2022-09-05T14:16:30.129013",
      "2022-09-05T14:16:52.409765",
      "2022-09-05T14:17:13.887680",
      "2022-09-05T14:17:35.312278",
      "2022-09-05T14:17:57.619029",
      "2022-09-05T14:18:20.570738",
      "2022-09-05T14:18:43.577919",
      "2022-09-05T14:19:06.043737",
      "2022-09-05T14:19:28.281141",
      "2022-09-05T14:19:50.766167",
      "2022-09-05T14:20:13.794742",
      "2022-09-05T14:20:37.001229",
      "2022-09-05T14:21:00.067592",
      "2022-09-05T14:21:23.172396",
      "2022-09-05T14:21:45.707618",
      "2022-09-05T14:22:07.973953",
      "2022-09-05T14:22:30.212743",
      "2022-09-05T14:22:52.972802",
      "2022-09-05T14:23:16.562855",
      "2022-09-05T14:23:40.315047",
      "2022-09-05T14:24:03.293682",
      "2022-09-05T14:24:25.860524",
      "2022-09-05T14:24:48.391234",
      "2022-09-05T14:25:11.230240",
      "2022-09-05T14:25:32.501724",
      "2022-09-05T14:25:54.607032",
      "2022-09-05T14:26:16.194107",
      "2022-09-05T14:26:39.081051",
      "2022-09-05T14:27:04.038423",
      "2022-09-05T14:27:27.576934",
      "2022-09-05T14:27:49.830742",
      "2022-09-05T14:28:11.831774",
      "2022-09-05T14:28:34.464348",
      "2022-09-05T14:28:56.537152",
      "2022-09-05T14:29:18.777104",
      "2022-09-05T14:29:41.135402",
      "2022-09-05T14:30:04.156392",
      "2022-09-05T14:30:26.738313",
      "2022-09-05T14:30:49.082935",
      "2022-09-05T14:31:12.159644",
      "2022-09-05T14:31:35.334167",
      "2022-09-05T14:31:57.832759",
      "2022-09-05T14:32:20.306218",
      "2022-09-05T14:32:42.107520",
      "2022-09-05T14:33:03.535389",
      "2022-09-05T14:33:24.202501",
      "2022-09-05T14:33:45.328985",
      "2022-09-05T14:34:08.108165",
      "2022-09-05T14:34:32.240618",
      "2022-09-05T14:34:54.300870",
      "2022-09-05T14:35:16.636029",
      "2022-09-05T14:35:38.635948",
      "2022-09-05T14:36:00.622571",
      "2022-09-05T14:36:22.731509",
      "2022-09-05T14:36:45.266389",
      "2022-09-05T14:37:08.160586",
      "2022-09-05T14:37:31.224792",
      "2022-09-05T14:37:53.330534",
      "2022-09-05T14:38:16.037163",
      "2022-09-05T14:38:38.378969",
      "2022-09-05T14:39:01.342503",
      "2022-09-05T14:39:23.501441",
      "2022-09-05T14:39:46.080299",
      "2022-09-05T14:40:09.190813",
      "2022-09-05T14:40:32.118826",
      "2022-09-05T14:40:55.918892",
      "2022-09-05T14:41:18.704052",
      "2022-09-05T14:41:41.271276",
      "2022-09-05T14:42:03.328237",
      "2022-09-05T14:42:25.412474",
      "2022-09-05T14:42:47.756921",
      "2022-09-05T14:43:09.923500",
      "2022-09-05T14:43:32.731255",
      "2022-09-05T14:43:54.929581",
      "2022-09-05T14:44:17.104107",
      "2022-09-05T14:44:39.240783",
      "2022-09-05T14:45:01.437376",
      "2022-09-05T14:45:23.732872",
      "2022-09-05T14:45:45.836699",
      "2022-09-05T14:46:07.925385",
      "2022-09-05T14:46:29.995345",
      "2022-09-05T14:46:52.884982",
      "2022-09-05T14:47:16.468145",
      "2022-09-05T14:47:40.215902",
      "2022-09-05T14:48:02.620718",
      "2022-09-05T14:48:24.922295",
      "2022-09-05T14:48:47.188890",
      "2022-09-05T14:49:09.196007",
      "2022-09-05T14:49:31.479114",
      "2022-09-05T14:49:53.794913",
      "2022-09-05T14:50:15.850434",
      "2022-09-05T14:50:37.880046",
      "2022-09-05T14:51:00.585387",
      "2022-09-05T14:51:23.279345",
      "2022-09-05T14:51:45.388363",
      "2022-09-05T14:52:08.582802",
      "2022-09-05T14:52:32.191492",
      "2022-09-05T14:52:55.913892",
      "2022-09-05T14:53:18.186942",
      "2022-09-05T14:53:40.502685",
      "2022-09-05T14:54:02.943172",
      "2022-09-05T14:54:25.458180",
      "2022-09-05T14:54:48.712995",
      "2022-09-05T14:55:11.777182",
      "2022-09-05T14:55:35.020025",
      "2022-09-05T14:55:57.199369",
      "2022-09-05T14:56:19.557324",
      "2022-09-05T14:56:41.509235",
      "2022-09-05T14:57:03.447976",
      "2022-09-05T14:57:25.827166",
      "2022-09-05T14:57:48.181108",
      "2022-09-05T14:58:10.477401",
      "2022-09-05T14:58:31.276504",
      "2022-09-05T14:58:53.131707",
      "2022-09-05T14:59:14.765272",
      "2022-09-05T14:59:36.736450",
      "2022-09-05T14:59:59.211308",
      "2022-09-05T15:00:21.116771"
    ],
    "values": [
      68.64255334548346,
      50.20087317356125,
      42.96101596480046,
      39.562345608770066,
      38.61078694653359,
      38.27416956610854,
      37.963559100377104,
      37.698921729669266,
      37.46329349633922,
      37.26845964371673,
      37.12143281672137,
      36.966239186319925,
      36.80850798229621,
      36.53556392096868,
      36.29803429014658,
      36.16000638147661,
      36.067083239813044,
      36.00019611835,
      35.92988467859361,
      35.78554728031118,
      35.51541367933815,
      35.39238185426176,
      35.321385183837414,
      35.28408867778427,
      35.25047130981038,
      35.223212086263366,
      35.20235957775835,
      35.18831017892667,
      35.17945188509602,
      35.1705675722411,
      35.16299642631564,
      35.159438999780164,
      35.144008977771755,
      35.145556871939405,
      35.13333643733309,
      35.134203352885116,
      35.12706230871179,
      35.13656869343922,
      35.12881981309234,
      35.12881998603777,
      35.12092412863052,
      35.11847016591994,
      35.118570627519624,
      35.12236880416318,
      35.11556143690192,
      35.12151373141661,
      35.11521818702105,
      35.110300487604626,
      35.11201543023269,
      35.10721246387323,
      35.1152094929561,
      35.11116567315013,
      35.10898161213113,
      35.10506306821419,
      35.107897039147396,
      35.110636603559925,
      35.11423567514437,
      35.10921538771236,
      35.10673191904637,
      35.09822046041741,
      35.105620282868436,
      35.10643101715193,
      35.10755407335603,
      35.10181070018538,
      35.09744190747964,
      35.10503594279563,
      35.106127076906745,
      35.099412017477675,
      35.1010805818525,
      35.09643298181066,
      35.1065017092865,
      35.10113917083461,
      35.102989610643256,
      35.10267689731395,
      35.097228441898295,
      35.099668324774036,
      35.096164534086,
      35.10551757005325,
      35.098020535488985,
      35.09602414480819,
      35.09347809254918,
      35.10245614986188,
      35.10193270407177,
      35.10333878818014,
      35.09487589814097,
      35.09730195359213,
      35.10156514875864,
      35.09755086558403,
      35.09824483868506,
      35.09274526324799,
      35.092409245341436,
      35.09284806461533,
      35.09141116660585,
      35.09534152872319,
      35.086970680040885,
      35.09320382441366,
      35.0939804777301,
      35.092433832870846,
      35.09563854588045,
      35.09404496358744,
      35.09731851440857,
      35.09381253960102,
      35.08860481362015,
      35.08935077754764,
      35.093881688080664,
      35.09062993257522,
      35.09280714674762,
      35.092861271884516,
      35.095723952773106,
      35.09275899076684,
      35.09649760008966,
      35.09392974197385,
      35.094371376207576,
      35.09316868553599,
      35.08837637140027,
      35.08970627353409,
      35.0572982130401,
      35.04927250689865,
      35.0473524439862,
      35.048280481294896,
      35.04617557449039,
      35.047740244405134,
      35.046089415498365,
      35.04628824651914,
      35.04696412093354,
      35.044975238899355,
      35.04659927404736,
      35.044257788421426,
      35.04411006181741,
      35.04431445436115,
      35.043245252431596,
      35.04782425590763,
      35.04570159565609,
      35.04466567054124,
      35.045048628319826,
      35.04588146529427,
      35.044468911755395,
      35.04333793243967,
      35.046062873283546,
      35.0441940354623,
      35.04703023713766,
      35.04404320135906,
      35.04474532274512,
      35.04548959689687,
      35.04570601168835,
      35.04441934712731,
      35.04443480294366,
      35.03865768279966,
      35.04284484140875,
      35.03897132667858
    ]
  },
  "val": {
    "steps": [
      0,
      1,
      2,
      3,
      4,
      5,
      6,
      7,
      8,
      9,
      10,
      11,
      12,
      13,
      14,
      15,
      16,
      17,
      18,
      19,
      20,
      21,
      22,
      23,
      24,
      25,
      26,
      27,
      28,
      29,
      30,
      31,
      32,
      33,
      34,
      35,
      36,
      37,
      38,
      39,
      40,
      41,
      42,
      43,
      44,
      45,
      46,
      47,
      48,
      49,
      50,
      51,
      52,
      53,
      54,
      55,
      56,
      57,
      58,
      59,
      60,
      61,
      62,
      63,
      64,
      65,
      66,
      67,
      68,
      69,
      70,
      71,
      72,
      73,
      74,
      75,
      76,
      77,
      78,
      79,
      80,
      81,
      82,
      83,
      84,
      85,
      86,
      87,
      88,
      89,
      90,
      91,
      92,
      93,
      94,
      95,
      96,
      97,
      98,
      99,
      100,
      101,
      102,
      103,
      104,
      105,
      106,
      107,
      108,
      109,
      110,
      111,
      112,
      113,
      114,
      115,
      116,
      117,
      118,
      119,
      120,
      121,
      122,
      123,
      124,
      125,
      126,
      127,
      128,
      129,
      130,
      131,
      132,
      133,
      134,
      135,
      136,
      137,
      138,
      139,
      140,
      141,
      142,
      143,
      144,
      145,
      146,
      147,
      148,
      149
    ],
    "timestamps": [
      "2022-09-05T14:04:09.481412",
      "2022-09-05T14:04:33.469806",
      "2022-09-05T14:04:58.346533",
      "2022-09-05T14:05:22.629197",
      "2022-09-05T14:05:46.380358",
      "2022-09-05T14:06:08.482793",
      "2022-09-05T14:06:30.471341",
      "2022-09-05T14:06:51.713434",
      "2022-09-05T14:07:13.598224",
      "2022-09-05T14:07:35.764342",
      "2022-09-05T14:07:58.724280",
      "2022-09-05T14:08:23.663350",
      "2022-09-05T14:08:46.145523",
      "2022-09-05T14:09:11.061752",
      "2022-09-05T14:09:35.688463",
      "2022-09-05T14:09:59.820866",
      "2022-09-05T14:10:24.504550",
      "2022-09-05T14:10:48.579072",
      "2022-09-05T14:11:11.906508",
      "2022-09-05T14:11:34.620890",
      "2022-09-05T14:11:57.317469",
      "2022-09-05T14:12:20.177082",
      "2022-09-05T14:12:43.257340",
      "2022-09-05T14:13:06.633184",
      "2022-09-05T14:13:29.906155",
      "2022-09-05T14:13:53.347763",
      "2022-09-05T14:14:16.015981",
      "2022-09-05T14:14:39.659225",
      "2022-09-05T14:15:03.042578",
      "2022-09-05T14:15:26.599210",
      "2022-09-05T14:15:49.689233",
      "2022-09-05T14:16:11.388276",
      "2022-09-05T14:16:32.927676",
      "2022-09-05T14:16:55.383918",
      "2022-09-05T14:17:16.636862",
      "2022-09-05T14:17:38.427603",
      "2022-09-05T14:18:00.374334",
      "2022-09-05T14:18:23.450868",
      "2022-09-05T14:18:46.578193",
      "2022-09-05T14:19:09.033830",
      "2022-09-05T14:19:31.163275",
      "2022-09-05T14:19:53.760968",
      "2022-09-05T14:20:16.935982",
      "2022-09-05T14:20:39.948362",
      "2022-09-05T14:21:03.158640",
      "2022-09-05T14:21:26.106231",
      "2022-09-05T14:21:48.589607",
      "2022-09-05T14:22:10.845474",
      "2022-09-05T14:22:33.319219",
      "2022-09-05T14:22:56.174511",
      "2022-09-05T14:23:19.874982",
      "2022-09-05T14:23:43.264791",
      "2022-09-05T14:24:06.256750",
      "2022-09-05T14:24:28.787332",
      "2022-09-05T14:24:51.409380",
      "2022-09-05T14:25:14.334409",
      "2022-09-05T14:25:35.681908",
      "2022-09-05T14:25:57.361285",
      "2022-09-05T14:26:19.160855",
      "2022-09-05T14:26:42.175775",
      "2022-09-05T14:27:07.321777",
      "2022-09-05T14:27:30.548195",
      "2022-09-05T14:27:52.705000",
      "2022-09-05T14:28:14.929914",
      "2022-09-05T14:28:37.290883",
      "2022-09-05T14:28:59.408926",
      "2022-09-05T14:29:21.656545",
      "2022-09-05T14:29:44.013038",
      "2022-09-05T14:30:07.245801",
      "2022-09-05T14:30:29.697659",
      "2022-09-05T14:30:52.016937",
      "2022-09-05T14:31:15.303149",
      "2022-09-05T14:31:38.385047",
      "2022-09-05T14:32:00.811647",
      "2022-09-05T14:32:23.286751",
      "2022-09-05T14:32:44.801007",
      "2022-09-05T14:33:06.343003",
      "2022-09-05T14:33:26.948235",
      "2022-09-05T14:33:48.234956",
      "2022-09-05T14:34:11.376212",
      "2022-09-05T14:34:35.106389",
      "2022-09-05T14:34:57.181041",
      "2022-09-05T14:35:19.503472",
      "2022-09-05T14:35:41.505866",
      "2022-09-05T14:36:03.504359",
      "2022-09-05T14:36:25.617286",
      "2022-09-05T14:36:48.179984",
      "2022-09-05T14:37:11.350423",
      "2022-09-05T14:37:34.185382",
      "2022-09-05T14:37:56.351611",
      "2022-09-05T14:38:19.041504",
      "2022-09-05T14:38:41.341420",
      "2022-09-05T14:39:04.253124",
      "2022-09-05T14:39:26.494347",
      "2022-09-05T14:39:49.059621",
      "2022-09-05T14:40:12.195308",
      "2022-09-05T14:40:35.380911",
      "2022-09-05T14:40:58.954128",
      "2022-09-05T14:41:21.645226",
      "2022-09-05T14:41:44.157093",
      "2022-09-05T14:42:06.212582",
      "2022-09-05T14:42:28.321732",
      "2022-09-05T14:42:50.632855",
      "2022-09-05T14:43:13.093102",
      "2022-09-05T14:43:35.714298",
      "2022-09-05T14:43:57.959486",
      "2022-09-05T14:44:20.036973",
      "2022-09-05T14:44:42.154895",
      "2022-09-05T14:45:04.404630",
      "2022-09-05T14:45:26.627147",
      "2022-09-05T14:45:48.740986",
      "2022-09-05T14:46:10.795065",
      "2022-09-05T14:46:32.833868",
      "2022-09-05T14:46:56.017939",
      "2022-09-05T14:47:19.671457",
      "2022-09-05T14:47:43.175927",
      "2022-09-05T14:48:05.496932",
      "2022-09-05T14:48:27.866972",
      "2022-09-05T14:48:50.130693",
      "2022-09-05T14:49:12.065571",
      "2022-09-05T14:49:34.388684",
      "2022-09-05T14:49:56.723942",
      "2022-09-05T14:50:18.829917",
      "2022-09-05T14:50:40.857657",
      "2022-09-05T14:51:03.844229",
      "2022-09-05T14:51:26.126990",
      "2022-09-05T14:51:48.344846",
      "2022-09-05T14:52:11.750460",
      "2022-09-05T14:52:35.351838",
      "2022-09-05T14:52:58.939497",
      "2022-09-05T14:53:21.162028",
      "2022-09-05T14:53:43.429017",
      "2022-09-05T14:54:05.879028",
      "2022-09-05T14:54:28.370791",
      "2022-09-05T14:54:51.818852",
      "2022-09-05T14:55:14.767496",
      "2022-09-05T14:55:37.885369",
      "2022-09-05T14:56:00.086931",
      "2022-09-05T14:56:22.426121",
      "2022-09-05T14:56:44.425636",
      "2022-09-05T14:57:06.314964",
      "2022-09-05T14:57:28.729948",
      "2022-09-05T14:57:51.255599",
      "2022-09-05T14:58:13.367861",
      "2022-09-05T14:58:34.139771",
      "2022-09-05T14:58:56.123738",
      "2022-09-05T14:59:17.709283",
      "2022-09-05T14:59:39.549627",
      "2022-09-05T15:00:02.137690",
      "2022-09-05T15:00:23.898592"
    ],
    "values": [
      56.754704645002114,
      46.10895341183889,
      40.563336590361786,
      38.780180312985074,
      38.3789867325584,
      38.088981616244176,
      37.792920927046126,
      37.58069900756672,
      37.32412158224888,
      37.17073878773626,
      37.00094462576857,
      36.88411639645344,
      36.655411010982,
      36.3669556694721,
      36.20354319287578,
      36.091106512823586,
      35.99044350576955,
      35.942691807727876,
      35.86194319694834,
      35.6028080071038,
      35.38688837129518,
      35.28680304697452,
      35.254803065459136,
      35.18213167849808,
      35.1821022639712,
      35.16413617040518,
      35.131399235577746,
      35.138611160370075,
      35.12466659644443,
      35.11526208157215,
      35.09329423328382,
      35.0772508406116,
      35.102717798215984,
      35.12205200440624,
      35.092236983862584,
      35.08577589705478,
      35.095761747546696,
      35.087737084573895,
      35.1032670037176,
      35.093288324416,
      35.08522420269406,
      35.07586943353934,
      35.072459802086605,
      35.070336014871216,
      35.07946395177582,
      35.077646162419576,
      35.06777364435856,
      35.06786126626138,
      35.06801282381223,
      35.07355264180109,
      35.07117504933006,
      35.05132901061641,
      35.046531061215255,
      35.06182833636489,
      35.06200068501304,
      35.06491696208323,
      35.053486722187245,
      35.05239231212247,
      35.05199534867421,
      35.045477993353394,
      35.059519600461165,
      35.05548088879001,
      35.06358864630923,
      35.06728972660652,
      35.063371748173815,
      35.04873481449157,
      35.0519684683606,
      35.06463392331274,
      35.05065781443447,
      35.05710832292626,
      35.04730469045566,
      35.04753598208285,
      35.062120121815006,
      35.04433238984159,
      35.04375526238764,
      35.041234653304336,
      35.05522320922073,
      35.044237958997265,
      35.04942005570456,
      35.04517697915788,
      35.050052084576784,
      35.05273443246743,
      35.054965250105596,
      35.05457944338619,
      35.063398909812534,
      35.06501511899459,
      35.03968198632728,
      35.044355840502256,
      35.0488372636251,
      35.05984390112403,
      35.04903171932363,
      35.05378574379479,
      35.045959491437245,
      35.05808361637801,
      35.0689503602824,
      35.05642573083859,
      35.052026076449344,
      35.06993666562817,
      35.02234742642595,
      35.04958554494027,
      35.057207863711795,
      35.033831306968096,
      35.04997970348191,
      35.04450168540071,
      35.03923973299138,
      35.04234013506317,
      35.05561716492493,
      35.038149567608194,
      35.04742281077983,
      35.05309827319842,
      35.04745950985986,
      35.054760663849294,
      35.04711313884403,
      35.03527984303259,
      35.041703191242725,
      35.03320228952274,
      35.01132721842433,
      35.01335105692714,
      35.00549410197382,
      35.009343287231424,
      35.00591469696272,
      35.008495574291054,
      35.01078225212827,
      35.00612053873663,
      35.0127387428431,
      35.008119913351244,
      35.00780055737446,
      35.00530174533655,
      35.007639839052516,
      35.00641338399522,
      35.00577831933443,
      35.00895940098329,
      35.00943802406095,
      35.009861017603676,
      35.009711450854425,
      35.00924627235017,
      35.00474407888811,
      35.010856444944565,
      35.00822536556348,
      35.006500227914174,
      35.00863133815197,
      35.00598549183214,
      35.00757304467736,
      35.00832501104991,
      35.00975217590431,
      35.00841456354803,
      35.00740462978454,
      35.009590840499236,
      35.00895022844878,
      35.00545533091595
    ]
  }
}