{
  "memory.usage": {
    "steps": [
      0,
      1,
      2,
      3,
      4,
      5,
      6,
      7,
      8,
      9,
      10,
      11,
      12,
      13,
      14,
      15,
      16,
      17,
      18,
      19,
      20,
      21,
      22,
      23,
      24,
      25,
      26,
      27,
      28,
      29,
      30,
      31,
      32,
      33,
      34,
      35,
      36,
      37,
      38,
      39,
      40
    ],
    "timestamps": [
      "2022-08-20T19:03:36.732175",
      "2022-08-20T19:04:25.484557",
      "2022-08-20T19:05:19.756089",
      "2022-08-20T19:06:13.918144",
      "2022-08-20T19:07:08.064614",
      "2022-08-20T19:08:02.323440",
      "2022-08-20T19:08:56.478080",
      "2022-08-20T19:09:50.609123",
      "2022-08-20T19:10:44.832888",
      "2022-08-20T19:11:39.028959",
      "2022-08-20T19:12:33.134419",
      "2022-08-20T19:13:27.308717",
      "2022-08-20T19:14:21.532713",
      "2022-08-20T19:15:15.733097",
      "2022-08-20T19:16:09.941745",
      "2022-08-20T19:17:04.154076",
      "2022-08-20T19:17:58.313955",
      "2022-08-20T19:18:52.513124",
      "2022-08-20T19:19:46.734678",
      "2022-08-20T19:20:40.923834",
      "2022-08-20T19:21:35.116851",
      "2022-08-20T19:22:29.301125",
      "2022-08-20T19:23:23.486158",
      "2022-08-20T19:24:17.697137",
      "2022-08-20T19:25:11.930230",
      "2022-08-20T19:26:06.190340",
      "2022-08-20T19:27:00.413605",
      "2022-08-20T19:27:54.609543",
      "2022-08-20T19:28:48.858089",
      "2022-08-20T19:29:43.102629",
      "2022-08-20T19:30:37.349647",
      "2022-08-20T19:31:31.565043",
      "2022-08-20T19:32:25.766686",
      "2022-08-20T19:33:20.044778",
      "2022-08-20T19:34:14.323622",
      "2022-08-20T19:35:08.515892",
      "2022-08-20T19:36:02.753218",
      "2022-08-20T19:36:56.922118",
      "2022-08-20T19:37:51.148556",
      "2022-08-20T19:38:45.420221",
      "2022-08-20T19:39:39.673112"
    ],
    "values": [
      8.279552,
      8.279552,
      8.279552,
      8.279552,
      8.279552,
      8.279552,
      8.279552,
      8.279552,
      8.279552,
      8.279552,
      8.279552,
      8.279552,
      8.279552,
      8.279552,
      8.279552,
      8.279552,
      8.279552,
      8.279552,
      8.279552,
      8.279552,
      8.279552,
      8.279552,
      8.279552,
      8.279552,
      8.279552,
      8.279552,
      8.279552,
      8.279552,
      8.279552,
      8.279552,
      8.279552,
      8.279552,
      8.279552,
      8.279552,
      8.279552,
      8.279552,
      8.279552,
      8.279552,
      8.279552,
      8.279552,
      8.279552
    ]
  },
  "train": {
    "steps": [
      0,
      1,
      2,
      3,
      4,
      5,
      6,
      7,
      8,
      9,
      10,
      11,
      12,
      13,
      14,
      15,
      16,
      17,
      18,
      19,
      20,
      21,
      22,
      23,
      24,
      25,
      26,
      27,
      28,
      29,
      30,
      31,
      32,
      33,
      34,
      35,
      36,
      37,
      38,
      39,
      40,
      41,
      42,
      43,
      44,
      45,
      46,
      47,
      48,
      49,
      50,
      51,
      52,
      53,
      54,
      55,
      56,
      57,
      58,
      59,
      60,
      61,
      62,
      63,
      64,
      65,
      66,
      67,
      68,
      69,
      70,
      71,
      72,
      73,
      74,
      75,
      76,
      77,
      78,
      79,
      80,
      81,
      82,
      83,
      84,
      85,
      86,
      87,
      88,
      89,
      90,
      91,
      92,
      93,
      94,
      95,
      96,
      97,
      98,
      99,
      100,
      101,
      102,
      103,
      104,
      105,
      106,
      107,
      108,
      109,
      110,
      111,
      112,
      113,
      114,
      115,
      116,
      117,
      118,
      119,
      120,
      121,
      122,
      123,
      124,
      125,
      126,
      127,
      128,
      129,
      130,
      131,
      132,
      133,
      134,
      135,
      136,
      137,
      138,
      139,
      140,
      141,
      142,
      143,
      144,
      145,
      146,
      147,
      148,
      149,
      150,
      151,
      152,
      153,
      154,
      155,
      156,
      157,
      158,
      159,
      160,
      161,
      162,
      163,
      164,
      165,
      166,
      167,
      168,
      169,
      170,
      171,
      172,
      173,
      174,
      175,
      176,
      177,
      178,
      179,
      180,
      181,
      182,
      183,
      184,
      185,
      186,
      187,
      188,
      189,
      190,
      191,
      192,
      193,
      194,
      195,
      196,
      197,
      198,
      199,
      200,
      201,
      202,
      203,
      204,
      205,
      206,
      207,
      208,
      209,
      210,
      211,
      212,
      213,
      214,
      215,
      216,
      217,
      218,
      219,
      220,
      221,
      222,
      223,
      224,
      225,
      226,
      227,
      228,
      229,
      230,
      231,
      232,
      233,
      234,
      235,
      236,
      237,
      238,
      239,
      240,
      241,
      242,
      243,
      244,
      245,
      246,
      247,
      248,
      249,
      250,
      251,
      252,
      253,
      254,
      255,
      256,
      257,
      258,
      259,
      260,
      261,
      262,
      263,
      264,
      265,
      266,
      267,
      268,
      269,
      270,
      271,
      272,
      273,
      274,
      275,
      276,
      277,
      278,
      279,
      280,
      281,
      282,
      283,
      284,
      285,
      286,
      287,
      288,
      289,
      290,
      291,
      292,
      293,
      294,
      295,
      296,
      297,
      298,
      299,
      300,
      301,
      302,
      303,
      304,
      305,
      306,
      307,
      308,
      309,
      310,
      311,
      312,
      313,
      314,
      315,
      316,
      317,
      318,
      319,
      320,
      321,
      322,
      323,
      324,
      325,
      326,
      327,
      328,
      329,
      330,
      331,
      332,
      333,
      334,
      335,
      336,
      337,
      338,
      339,
      340,
      341,
      342,
      343,
      344,
      345,
      346,
      347,
      348,
      349,
      350,
      351,
      352,
      353,
      354,
      355,
      356,
      357,
      358,
      359,
      360,
      361,
      362,
      363,
      364,
      365,
      366,
      367,
      368,
      369,
      370,
      371,
      372,
      373,
      374,
      375,
      376,
      377,
      378,
      379,
      380,
      381,
      382,
      383,
      384,
      385,
      386,
      387,
      388,
      389,
      390,
      391,
      392,
      393,
      394,
      395,
      396,
      397,
      398,
      399
    ],
    "timestamps": [
      "2022-08-20T19:03:36.732042",
      "2022-08-20T19:03:42.200938",
      "2022-08-20T19:03:47.571671",
      "2022-08-20T19:03:53.021880",
      "2022-08-20T19:03:58.405742",
      "2022-08-20T19:04:03.841654",
      "2022-08-20T19:04:09.226430",
      "2022-08-20T19:04:14.652633",
      "2022-08-20T19:04:20.049510",
      "2022-08-20T19:04:25.484439",
      "2022-08-20T19:04:30.994700",
      "2022-08-20T19:04:36.439750",
      "2022-08-20T19:04:41.868420",
      "2022-08-20T19:04:47.253762",
      "2022-08-20T19:04:52.715671",
      "2022-08-20T19:04:58.100408",
      "2022-08-20T19:05:03.547325",
      "2022-08-20T19:05:08.926504",
      "2022-08-20T19:05:14.370092",
      "2022-08-20T19:05:19.755966",
      "2022-08-20T19:05:25.198270",
      "2022-08-20T19:05:30.577873",
      "2022-08-20T19:05:35.985461",
      "2022-08-20T19:05:41.392967",
      "2022-08-20T19:05:46.798036",
      "2022-08-20T19:05:52.221173",
      "2022-08-20T19:05:57.600047",
      "2022-08-20T19:06:03.075010",
      "2022-08-20T19:06:08.482793",
      "2022-08-20T19:06:13.918021",
      "2022-08-20T19:06:19.365852",
      "2022-08-20T19:06:24.788946",
      "2022-08-20T19:06:30.181966",
      "2022-08-20T19:06:35.599705",
      "2022-08-20T19:06:40.990542",
      "2022-08-20T19:06:46.423856",
      "2022-08-20T19:06:51.856459",
      "2022-08-20T19:06:57.239852",
      "2022-08-20T19:07:02.664850",
      "2022-08-20T19:07:08.064492",
      "2022-08-20T19:07:13.498517",
      "2022-08-20T19:07:18.946959",
      "2022-08-20T19:07:24.403245",
      "2022-08-20T19:07:29.806684",
      "2022-08-20T19:07:35.230547",
      "2022-08-20T19:07:40.616491",
      "2022-08-20T19:07:46.076045",
      "2022-08-20T19:07:51.482017",
      "2022-08-20T19:07:56.876111",
      "2022-08-20T19:08:02.323319",
      "2022-08-20T19:08:07.764169",
      "2022-08-20T19:08:13.190053",
      "2022-08-20T19:08:18.566119",
      "2022-08-20T19:08:23.995255",
      "2022-08-20T19:08:29.378193",
      "2022-08-20T19:08:34.814470",
      "2022-08-20T19:08:40.208194",
      "2022-08-20T19:08:45.638015",
      "2022-08-20T19:08:51.043031",
      "2022-08-20T19:08:56.477956",
      "2022-08-20T19:09:01.926019",
      "2022-08-20T19:09:07.335121",
      "2022-08-20T19:09:12.763929",
      "2022-08-20T19:09:18.145383",
      "2022-08-20T19:09:23.583897",
      "2022-08-20T19:09:28.963084",
      "2022-08-20T19:09:34.404130",
      "2022-08-20T19:09:39.788234",
      "2022-08-20T19:09:45.225785",
      "2022-08-20T19:09:50.609002",
      "2022-08-20T19:09:56.050503",
      "2022-08-20T19:10:01.507759",
      "2022-08-20T19:10:06.925491",
      "2022-08-20T19:10:12.360978",
      "2022-08-20T19:10:17.748737",
      "2022-08-20T19:10:23.187437",
      "2022-08-20T19:10:28.577766",
      "2022-08-20T19:10:34.008519",
      "2022-08-20T19:10:39.388668",
      "2022-08-20T19:10:44.832769",
      "2022-08-20T19:10:50.283459",
      "2022-08-20T19:10:55.716639",
      "2022-08-20T19:11:01.097801",
      "2022-08-20T19:11:06.508674",
      "2022-08-20T19:11:11.943811",
      "2022-08-20T19:11:17.324283",
      "2022-08-20T19:11:22.780350",
      "2022-08-20T19:11:28.182467",
      "2022-08-20T19:11:33.640379",
      "2022-08-20T19:11:39.028840",
      "2022-08-20T19:11:44.478515",
      "2022-08-20T19:11:49.858808",
      "2022-08-20T19:11:55.298228",
      "2022-08-20T19:12:00.689343",
      "2022-08-20T19:12:06.100444",
      "2022-08-20T19:12:11.500026",
      "2022-08-20T19:12:16.897456",
      "2022-08-20T19:12:22.327661",
      "2022-08-20T19:12:27.708494",
      "2022-08-20T19:12:33.134301",
      "2022-08-20T19:12:38.578267",
      "2022-08-20T19:12:43.992286",
      "2022-08-20T19:12:49.392302",
      "2022-08-20T19:12:54.819368",
      "2022-08-20T19:13:00.221089",
      "2022-08-20T19:13:05.646274",
      "2022-08-20T19:13:11.040395",
      "2022-08-20T19:13:16.456159",
      "2022-08-20T19:13:21.913267",
      "2022-08-20T19:13:27.308597",
      "2022-08-20T19:13:32.759458",
      "2022-08-20T19:13:38.197584",
      "2022-08-20T19:13:43.628261",
      "2022-08-20T19:13:49.010344",
      "2022-08-20T19:13:54.452453",
      "2022-08-20T19:13:59.838316",
      "2022-08-20T19:14:05.270051",
      "2022-08-20T19:14:10.677443",
      "2022-08-20T19:14:16.125892",
      "2022-08-20T19:14:21.532584",
      "2022-08-20T19:14:27.004728",
      "2022-08-20T19:14:32.445656",
      "2022-08-20T19:14:37.826029",
      "2022-08-20T19:14:43.245241",
      "2022-08-20T19:14:48.625541",
      "2022-08-20T19:14:54.094146",
      "2022-08-20T19:14:59.478038",
      "2022-08-20T19:15:04.922771",
      "2022-08-20T19:15:10.316280",
      "2022-08-20T19:15:15.732979",
      "2022-08-20T19:15:21.211851",
      "2022-08-20T19:15:26.636799",
      "2022-08-20T19:15:32.061076",
      "2022-08-20T19:15:37.441945",
      "2022-08-20T19:15:42.881105",
      "2022-08-20T19:15:48.265964",
      "2022-08-20T19:15:53.693795",
      "2022-08-20T19:15:59.101950",
      "2022-08-20T19:16:04.556024",
      "2022-08-20T19:16:09.941625",
      "2022-08-20T19:16:15.388708",
      "2022-08-20T19:16:20.774009",
      "2022-08-20T19:16:26.210195",
      "2022-08-20T19:16:31.651879",
      "2022-08-20T19:16:37.081389",
      "2022-08-20T19:16:42.512769",
      "2022-08-20T19:16:47.897723",
      "2022-08-20T19:16:53.326053",
      "2022-08-20T19:16:58.719538",
      "2022-08-20T19:17:04.153958",
      "2022-08-20T19:17:09.589884",
      "2022-08-20T19:17:15.034326",
      "2022-08-20T19:17:20.411666",
      "2022-08-20T19:17:25.871979",
      "2022-08-20T19:17:31.299804",
      "2022-08-20T19:17:36.712926",
      "2022-08-20T19:17:42.139767",
      "2022-08-20T19:17:47.517839",
      "2022-08-20T19:17:52.931647",
      "2022-08-20T19:17:58.313836",
      "2022-08-20T19:18:03.788639",
      "2022-08-20T19:18:09.214930",
      "2022-08-20T19:18:14.632908",
      "2022-08-20T19:18:20.012809",
      "2022-08-20T19:18:25.439832",
      "2022-08-20T19:18:30.839910",
      "2022-08-20T19:18:36.279744",
      "2022-08-20T19:18:41.692915",
      "2022-08-20T19:18:47.090843",
      "2022-08-20T19:18:52.513003",
      "2022-08-20T19:18:57.964587",
      "2022-08-20T19:19:03.435674",
      "2022-08-20T19:19:08.817130",
      "2022-08-20T19:19:14.258035",
      "2022-08-20T19:19:19.636750",
      "2022-08-20T19:19:25.070003",
      "2022-08-20T19:19:30.464465",
      "2022-08-20T19:19:35.904983",
      "2022-08-20T19:19:41.325339",
      "2022-08-20T19:19:46.734561",
      "2022-08-20T19:19:52.196462",
      "2022-08-20T19:19:57.646692",
      "2022-08-20T19:20:03.082887",
      "2022-08-20T19:20:08.462752",
      "2022-08-20T19:20:13.898595",
      "2022-08-20T19:20:19.278461",
      "2022-08-20T19:20:24.714768",
      "2022-08-20T19:20:30.100140",
      "2022-08-20T19:20:35.533768",
      "2022-08-20T19:20:40.923714",
      "2022-08-20T19:20:46.355823",
      "2022-08-20T19:20:51.782126",
      "2022-08-20T19:20:57.177101",
      "2022-08-20T19:21:02.627970",
      "2022-08-20T19:21:08.009962",
      "2022-08-20T19:21:13.463238",
      "2022-08-20T19:21:18.844849",
      "2022-08-20T19:21:24.279691",
      "2022-08-20T19:21:29.663920",
      "2022-08-20T19:21:35.116730",
      "2022-08-20T19:21:40.570102",
      "2022-08-20T19:21:46.014897",
      "2022-08-20T19:21:51.417519",
      "2022-08-20T19:21:56.814023",
      "2022-08-20T19:22:02.273845",
      "2022-08-20T19:22:07.658314",
      "2022-08-20T19:22:13.098570",
      "2022-08-20T19:22:18.485888",
      "2022-08-20T19:22:23.917951",
      "2022-08-20T19:22:29.301006",
      "2022-08-20T19:22:34.769745",
      "2022-08-20T19:22:40.163882",
      "2022-08-20T19:22:45.588920",
      "2022-08-20T19:22:50.978102",
      "2022-08-20T19:22:56.389727",
      "2022-08-20T19:23:01.804063",
      "2022-08-20T19:23:07.204629",
      "2022-08-20T19:23:12.641139",
      "2022-08-20T19:23:18.056768",
      "2022-08-20T19:23:23.486039",
      "2022-08-20T19:23:28.933805",
      "2022-08-20T19:23:34.380584",
      "2022-08-20T19:23:39.785956",
      "2022-08-20T19:23:45.220897",
      "2022-08-20T19:23:50.609938",
      "2022-08-20T19:23:56.022002",
      "2022-08-20T19:24:01.425036",
      "2022-08-20T19:24:06.834004",
      "2022-08-20T19:24:12.312222",
      "2022-08-20T19:24:17.697011",
      "2022-08-20T19:24:23.171104",
      "2022-08-20T19:24:28.598815",
      "2022-08-20T19:24:34.046131",
      "2022-08-20T19:24:39.427907",
      "2022-08-20T19:24:44.862876",
      "2022-08-20T19:24:50.262011",
      "2022-08-20T19:24:55.691648",
      "2022-08-20T19:25:01.080778",
      "2022-08-20T19:25:06.507318",
      "2022-08-20T19:25:11.930063",
      "2022-08-20T19:25:17.424567",
      "2022-08-20T19:25:22.871488",
      "2022-08-20T19:25:28.256211",
      "2022-08-20T19:25:33.714094",
      "2022-08-20T19:25:39.106148",
      "2022-08-20T19:25:44.541949",
      "2022-08-20T19:25:49.932126",
      "2022-08-20T19:25:55.353323",
      "2022-08-20T19:26:00.744404",
      "2022-08-20T19:26:06.190223",
      "2022-08-20T19:26:11.651929",
      "2022-08-20T19:26:17.088146",
      "2022-08-20T19:26:22.509536",
      "2022-08-20T19:26:27.896163",
      "2022-08-20T19:26:33.360718",
      "2022-08-20T19:26:38.764889",
      "2022-08-20T19:26:44.216962",
      "2022-08-20T19:26:49.598304",
      "2022-08-20T19:26:55.028377",
      "2022-08-20T19:27:00.413490",
      "2022-08-20T19:27:05.892718",
      "2022-08-20T19:27:11.280063",
      "2022-08-20T19:27:16.704141",
      "2022-08-20T19:27:22.123343",
      "2022-08-20T19:27:27.515272",
      "2022-08-20T19:27:32.954078",
      "2022-08-20T19:27:38.334593",
      "2022-08-20T19:27:43.788372",
      "2022-08-20T19:27:49.181286",
      "2022-08-20T19:27:54.609425",
      "2022-08-20T19:28:00.071116",
      "2022-08-20T19:28:05.545226",
      "2022-08-20T19:28:10.947035",
      "2022-08-20T19:28:16.363362",
      "2022-08-20T19:28:21.775862",
      "2022-08-20T19:28:27.201135",
      "2022-08-20T19:28:32.625837",
      "2022-08-20T19:28:38.025167",
      "2022-08-20T19:28:43.467443",
      "2022-08-20T19:28:48.857973",
      "2022-08-20T19:28:54.302464",
      "2022-08-20T19:28:59.703378",
      "2022-08-20T19:29:05.171262",
      "2022-08-20T19:29:10.552551",
      "2022-08-20T19:29:15.983142",
      "2022-08-20T19:29:21.390798",
      "2022-08-20T19:29:26.811076",
      "2022-08-20T19:29:32.263413",
      "2022-08-20T19:29:37.665919",
      "2022-08-20T19:29:43.102511",
      "2022-08-20T19:29:48.572581",
      "2022-08-20T19:29:54.023259",
      "2022-08-20T19:29:59.416873",
      "2022-08-20T19:30:04.871881",
      "2022-08-20T19:30:10.269123",
      "2022-08-20T19:30:15.714215",
      "2022-08-20T19:30:21.120483",
      "2022-08-20T19:30:26.537788",
      "2022-08-20T19:30:31.960592",
      "2022-08-20T19:30:37.349523",
      "2022-08-20T19:30:42.804201",
      "2022-08-20T19:30:48.224661",
      "2022-08-20T19:30:53.666205",
      "2022-08-20T19:30:59.051650",
      "2022-08-20T19:31:04.516671",
      "2022-08-20T19:31:09.912719",
      "2022-08-20T19:31:15.350556",
      "2022-08-20T19:31:20.737908",
      "2022-08-20T19:31:26.159597",
      "2022-08-20T19:31:31.564914",
      "2022-08-20T19:31:37.001929",
      "2022-08-20T19:31:42.481009",
      "2022-08-20T19:31:47.860354",
      "2022-08-20T19:31:53.302353",
      "2022-08-20T19:31:58.691599",
      "2022-08-20T19:32:04.146053",
      "2022-08-20T19:32:09.529687",
      "2022-08-20T19:32:14.966585",
      "2022-08-20T19:32:20.353555",
      "2022-08-20T19:32:25.766566",
      "2022-08-20T19:32:31.221544",
      "2022-08-20T19:32:36.665569",
      "2022-08-20T19:32:42.111965",
      "2022-08-20T19:32:47.507413",
      "2022-08-20T19:32:52.964472",
      "2022-08-20T19:32:58.370621",
      "2022-08-20T19:33:03.828065",
      "2022-08-20T19:33:09.218394",
      "2022-08-20T19:33:14.665756",
      "2022-08-20T19:33:20.044660",
      "2022-08-20T19:33:25.520496",
      "2022-08-20T19:33:30.928760",
      "2022-08-20T19:33:36.359363",
      "2022-08-20T19:33:41.767598",
      "2022-08-20T19:33:47.174521",
      "2022-08-20T19:33:52.610157",
      "2022-08-20T19:33:57.999622",
      "2022-08-20T19:34:03.461691",
      "2022-08-20T19:34:08.844278",
      "2022-08-20T19:34:14.323504",
      "2022-08-20T19:34:19.760625",
      "2022-08-20T19:34:25.217617",
      "2022-08-20T19:34:30.605557",
      "2022-08-20T19:34:36.054639",
      "2022-08-20T19:34:41.462604",
      "2022-08-20T19:34:46.872797",
      "2022-08-20T19:34:52.303498",
      "2022-08-20T19:34:57.683833",
      "2022-08-20T19:35:03.127361",
      "2022-08-20T19:35:08.515774",
      "2022-08-20T19:35:13.962608",
      "2022-08-20T19:35:19.415797",
      "2022-08-20T19:35:24.849564",
      "2022-08-20T19:35:30.232757",
      "2022-08-20T19:35:35.667981",
      "2022-08-20T19:35:41.084079",
      "2022-08-20T19:35:46.514194",
      "2022-08-20T19:35:51.935055",
      "2022-08-20T19:35:57.327116",
      "2022-08-20T19:36:02.753095",
      "2022-08-20T19:36:08.200351",
      "2022-08-20T19:36:13.625038",
      "2022-08-20T19:36:19.007111",
      "2022-08-20T19:36:24.463292",
      "2022-08-20T19:36:29.853735",
      "2022-08-20T19:36:35.296923",
      "2022-08-20T19:36:40.684659",
      "2022-08-20T19:36:46.118006",
      "2022-08-20T19:36:51.509976",
      "2022-08-20T19:36:56.922001",
      "2022-08-20T19:37:02.373726",
      "2022-08-20T19:37:07.800669",
      "2022-08-20T19:37:13.243587",
      "2022-08-20T19:37:18.632756",
      "2022-08-20T19:37:24.049930",
      "2022-08-20T19:37:29.442434",
      "2022-08-20T19:37:34.891751",
      "2022-08-20T19:37:40.310150",
      "2022-08-20T19:37:45.743959",
      "2022-08-20T19:37:51.148436",
      "2022-08-20T19:37:56.588802",
      "2022-08-20T19:38:02.052942",
      "2022-08-20T19:38:07.447052",
      "2022-08-20T19:38:12.919192",
      "2022-08-20T19:38:18.328145",
      "2022-08-20T19:38:23.770499",
      "2022-08-20T19:38:29.153355",
      "2022-08-20T19:38:34.600450",
      "2022-08-20T19:38:39.987541",
      "2022-08-20T19:38:45.420104",
      "2022-08-20T19:38:50.871933",
      "2022-08-20T19:38:56.313928",
      "2022-08-20T19:39:01.750241",
      "2022-08-20T19:39:07.191722",
      "2022-08-20T19:39:12.630020",
      "2022-08-20T19:39:18.028165",
      "2022-08-20T19:39:23.455002",
      "2022-08-20T19:39:28.840845",
      "2022-08-20T19:39:34.277997",
      "2022-08-20T19:39:39.672997"
    ],
    "values": [
      15.086668118211213,
      9.752600214198836,
      6.919696350460925,
      4.611726364898512,
      3.227974588513086,
      2.232361649080741,
      1.6514993778516975,
      0.8542931954071284,
      0.6220106032442992,
      -0.23836243077709404,
      -0.32971005016755456,
      -0.14140193729850528,
      -1.1154381752927018,
      -1.3518790386494854,
      -1.7116389675915098,
      -1.6478903932422009,
      -1.8073945786730143,
      -1.821456512800108,
      -1.9480815065450066,
      -1.3763317510264,
      -1.8168736275720305,
      -1.7273148969438117,
      -1.5746484895712456,
      -1.6605807420568517,
      -1.6299088852571075,
      -1.3651284564364656,
      -1.1181150513244626,
      -0.9103896053718126,
      -1.0852494353907423,
      -0.9871440641724796,
      -0.8996285372964152,
      -0.5241408559153847,
      -0.45421162317183755,
      -0.4530096825527835,
      -0.1934047353412903,
      -0.03317400084040346,
      0.03299541369484879,
      0.2956916832371089,
      0.3406450979650693,
      0.49169569600889146,
      0.8601018695187754,
      0.8066538656849302,
      1.3134841606679069,
      1.1358279983958035,
      1.3790623664085726,
      1.507123558549642,
      1.6488149649283281,
      1.8226841029186773,
      1.9229473811982274,
      2.374345718131774,
      2.368740344069502,
      2.5742853469320277,
      2.870971159611214,
      2.80426613615456,
      2.904920084452054,
      3.1208931169866783,
      3.318527421139007,
      3.2941921448535654,
      3.7607440297821597,
      3.769716291344092,
      3.844707422351749,
      4.075725663718798,
      4.368389504777648,
      4.535106786185845,
      4.585924853268733,
      4.839204283554363,
      4.964606300008013,
      5.183620791829043,
      5.3278331954652,
      5.632873665976221,
      5.771660365548542,
      5.750218712461931,
      6.071362534379343,
      6.247229080545404,
      6.446180721304411,
      6.730155940266188,
      6.780987620943152,
      6.938842035766728,
      7.1320047843124055,
      7.2313213921638795,
      7.461191819372968,
      7.7247275482160305,
      7.781755070995099,
      7.930976024870822,
      8.092819214069804,
      8.255763508433287,
      8.51955913001984,
      8.631026673298841,
      8.763897560759693,
      8.99652556697695,
      9.11613507301529,
      9.225020266825362,
      9.368460070511953,
      9.511434836267863,
      9.695114111856618,
      9.812491634146488,
      9.928668907674869,
      10.068960225567567,
      10.185058238991807,
      10.288665506786668,
      10.306487500861316,
      10.286986492675483,
      10.267646920049096,
      10.258962289519696,
      10.255126917363635,
      10.262395223995155,
      10.240113300289568,
      10.24527672414849,
      10.241310392193668,
      10.250294082400623,
      10.23237170428784,
      10.225913956700703,
      10.220166657442238,
      10.23467267193182,
      10.21138156062015,
      10.233695390628142,
      10.216506227249837,
      10.204457581986366,
      10.211047406351637,
      10.22202393293606,
      10.202216336384966,
      10.194472834028351,
      10.200598228117638,
      10.21421591604879,
      10.195834942344026,
      10.2066479421751,
      10.199163074184959,
      10.198105524685243,
      10.19048611812343,
      10.206434268699319,
      10.201016416744405,
      10.196875830107992,
      10.190015966138754,
      10.18705500684452,
      10.180712612543239,
      10.192128260213579,
      10.186417778641596,
      10.179008088585483,
      10.18695937433458,
      10.171761795385187,
      10.183750604879544,
      10.18174573263919,
      10.173916167871909,
      10.180222125907905,
      10.175817819345363,
      10.174665488870199,
      10.172875408098086,
      10.166928068610169,
      10.169209025065117,
      10.168347984049785,
      10.157827867406718,
      10.154805529447671,
      10.165453741713604,
      10.167036144234414,
      10.166686091667946,
      10.152538694815568,
      10.15615846332076,
      10.172883946853096,
      10.163187838363287,
      10.157939337146274,
      10.164277926836258,
      10.15905037946594,
      10.163092674725801,
      10.15171952268112,
      10.165403429818955,
      10.148292996167934,
      10.154228764222061,
      10.15694661829458,
      10.15417914091956,
      10.171332427224382,
      10.153564634137735,
      10.15538507182484,
      10.154099362269093,
      10.152407016927139,
      10.15480800670515,
      10.153296239897491,
      10.147053013276137,
      10.144834136974223,
      10.148485392231015,
      10.165492115214198,
      10.151162797312999,
      10.145111651716467,
      10.143823808096307,
      10.15638598402652,
      10.14624095325395,
      10.159914728944733,
      10.154012390558254,
      10.132673017790273,
      10.150817694751455,
      10.136497823854048,
      10.157396860377577,
      10.138472913420673,
      10.143962514564445,
      10.144538339381633,
      10.147008242028383,
      10.14378727661761,
      10.143894123678459,
      10.156185392656184,
      10.129996115241806,
      10.130464263200558,
      10.139298088234051,
      10.136808712685411,
      10.133844848968396,
      10.129291397650844,
      10.141319790935487,
      10.137576077677878,
      10.14016304789625,
      10.136733933586829,
      10.140730694251852,
      10.131177564240629,
      10.091474121583975,
      10.079017669685749,
      10.076889207682871,
      10.08248516386933,
      10.077258911063096,
      10.077552518664081,
      10.078249109997982,
      10.075747671250678,
      10.074971483415455,
      10.082785297524783,
      10.075091980832992,
      10.077623629356658,
      10.082098103990704,
      10.075512090594456,
      10.076567586033383,
      10.078346333217054,
      10.080838902194223,
      10.076218866168109,
      10.079027376029368,
      10.071953013978488,
      10.07279509507163,
      10.070247322232833,
      10.072316936402542,
      10.071212080236744,
      10.066193820490774,
      10.071891855541283,
      10.070254181280722,
      10.0681091079595,
      10.071987528285895,
      10.065153128176217,
      10.072607590287227,
      10.066709844592577,
      10.066959719231921,
      10.068618882565948,
      10.07148885653028,
      10.06709531656689,
      10.067300335437615,
      10.074466099907948,
      10.07200505620073,
      10.070609524156877,
      10.070227852754932,
      10.068971660386431,
      10.068707970763423,
      10.06588682767963,
      10.068554219967794,
      10.068824061745714,
      10.068698972589091,
      10.068424837887147,
      10.072945460060408,
      10.071421674137634,
      10.066534934358993,
      10.068289546100603,
      10.071136073007548,
      10.0675131003425,
      10.06605895249817,
      10.072025814300126,
      10.06765529699368,
      10.06872897669144,
      10.064257961658965,
      10.064995809553073,
      10.067788087233593,
      10.068087815076664,
      10.07196229774085,
      10.06865403104184,
      10.067956308351036,
      10.064926682873793,
      10.067787516049727,
      10.071126909356163,
      10.067022490197393,
      10.066716829844658,
      10.064544190760834,
      10.068818167220536,
      10.069789274380732,
      10.066640392791504,
      10.064814117949174,
      10.067736051613862,
      10.065094191298034,
      10.066724352139815,
      10.067706535471986,
      10.065946149573454,
      10.062239877105334,
      10.069655460097195,
      10.068301298260714,
      10.068935144990848,
      10.069471220610172,
      10.06784037674904,
      10.06605602131794,
      10.066236117400006,
      10.069522044588346,
      10.06779506640667,
      10.061603730197676,
      10.065957889836639,
      10.06984348542438,
      10.066157752198443,
      10.064459072595973,
      10.064587771232969,
      10.067768662886909,
      10.068020902598661,
      10.069003007182477,
      10.066284426591915,
      10.067687162645976,
      10.068253912290052,
      10.069367590333856,
      10.066807553413074,
      10.065793394396195,
      10.072845185285052,
      10.065880467017534,
      10.063231520738334,
      10.06884891386832,
      10.068156112297656,
      10.063879694899232,
      10.068990272263402,
      10.071087439669773,
      10.071757411955804,
      10.065361062133617,
      10.070281950752655,
      10.06686799923799,
      10.067685582367812,
      10.06585697994978,
      10.063668442424692,
      10.071267536269977,
      10.066519861957396,
      10.066917104044533,
      10.063864807260531,
      10.065509763867682,
      10.065293186491642,
      10.070279372187485,
      10.066849539070033,
      10.064041125051913,
      10.065078002709198,
      10.06129886422056,
      10.068589044393491,
      10.067010040411995,
      10.06257209659114,
      10.069689495760903,
      10.06580085076499,
      10.069287314831799,
      10.068796089436033,
      10.064733357617548,
      10.07273857607895,
      10.072439208760994,
      10.065219892692435,
      10.069197150007414,
      10.065302401235709,
      10.066787576832759,
      10.073148460210662,
      10.066669495555622,
      10.067061204039769,
      10.070885473348776,
      10.068153267524933,
      10.070285956577166,
      10.06298998022072,
      10.07361742947734,
      10.068555067961931,
      10.07129165332094,
      10.068312641676595,
      10.061502743511246,
      10.069122439632173,
      10.067410067047026,
      10.070978885710042,
      10.066767801688203,
      10.066708896226448,
      10.06950211092113,
      10.072099505261345,
      10.069641671712912,
      10.067227296140533,
      10.068267665286514,
      10.065152700661187,
      10.07267791911991,
      10.065608430053397,
      10.0651368672173,
      10.068359450060077,
      10.066349850754975,
      10.070005725153893,
      10.063025096203786,
      10.072346452349501,
      10.065950901782793,
      10.071988757470598,
      10.068750554472162,
      10.067076562227188,
      10.067878927465637,
      10.070725966980156,
      10.070867546290245,
      10.069759977323887,
      10.070680226780665,
      10.064159326950778,
      10.063123530838968,
      10.059822923612847,
      10.06692497360027,
      10.06482422818748
    ]
  },
  "val": {
    "steps": [
      0,
      1,
      2,
      3,
      4,
      5,
      6,
      7,
      8,
      9,
      10,
      11,
      12,
      13,
      14,
      15,
      16,
      17,
      18,
      19,
      20,
      21,
      22,
      23,
      24,
      25,
      26,
      27,
      28,
      29,
      30,
      31,
      32,
      33,
      34,
      35,
      36,
      37,
      38,
      39,
      40,
      41,
      42,
      43,
      44,
      45,
      46,
      47,
      48,
      49,
      50,
      51,
      52,
      53,
      54,
      55,
      56,
      57,
      58,
      59,
      60,
      61,
      62,
      63,
      64,
      65,
      66,
      67,
      68,
      69,
      70,
      71,
      72,
      73,
      74,
      75,
      76,
      77,
      78,
      79,
      80,
      81,
      82,
      83,
      84,
      85,
      86,
      87,
      88,
      89,
      90,
      91,
      92,
      93,
      94,
      95,
      96,
      97,
      98,
      99,
      100,
      101,
      102,
      103,
      104,
      105,
      106,
      107,
      108,
      109,
      110,
      111,
      112,
      113,
      114,
      115,
      116,
      117,
      118,
      119,
      120,
      121,
      122,
      123,
      124,
      125,
      126,
      127,
      128,
      129,
      130,
      131,
      132,
      133,
      134,
      135,
      136,
      137,
      138,
      139,
      140,
      141,
      142,
      143,
      144,
      145,
      146,
      147,
      148,
      149,
      150,
      151,
      152,
      153,
      154,
      155,
      156,
      157,
      158,
      159,
      160,
      161,
      162,
      163,
      164,
      165,
      166,
      167,
      168,
      169,
      170,
      171,
      172,
      173,
      174,
      175,
      176,
      177,
      178,
      179,
      180,
      181,
      182,
      183,
      184,
      185,
      186,
      187,
      188,
      189,
      190,
      191,
      192,
      193,
      194,
      195,
      196,
      197,
      198,
      199,
      200,
      201,
      202,
      203,
      204,
      205,
      206,
      207,
      208,
      209,
      210,
      211,
      212,
      213,
      214,
      215,
      216,
      217,
      218,
      219,
      220,
      221,
      222,
      223,
      224,
      225,
      226,
      227,
      228,
      229,
      230,
      231,
      232,
      233,
      234,
      235,
      236,
      237,
      238,
      239,
      240,
      241,
      242,
      243,
      244,
      245,
      246,
      247,
      248,
      249,
      250,
      251,
      252,
      253,
      254,
      255,
      256,
      257,
      258,
      259,
      260,
      261,
      262,
      263,
      264,
      265,
      266,
      267,
      268,
      269,
      270,
      271,
      272,
      273,
      274,
      275,
      276,
      277,
      278,
      279,
      280,
      281,
      282,
      283,
      284,
      285,
      286,
      287,
      288,
      289,
      290,
      291,
      292,
      293,
      294,
      295,
      296,
      297,
      298,
      299,
      300,
      301,
      302,
      303,
      304,
      305,
      306,
      307,
      308,
      309,
      310,
      311,
      312,
      313,
      314,
      315,
      316,
      317,
      318,
      319,
      320,
      321,
      322,
      323,
      324,
      325,
      326,
      327,
      328,
      329,
      330,
      331,
      332,
      333,
      334,
      335,
      336,
      337,
      338,
      339,
      340,
      341,
      342,
      343,
      344,
      345,
      346,
      347,
      348,
      349,
      350,
      351,
      352,
      353,
      354,
      355,
      356,
      357,
      358,
      359,
      360,
      361,
      362,
      363,
      364,
      365,
      366,
      367,
      368,
      369,
      370,
      371,
      372,
      373,
      374,
      375,
      376,
      377,
      378,
      379,
      380,
      381,
      382,
      383,
      384,
      385,
      386,
      387,
      388,
      389,
      390,
      391,
      392,
      393,
      394,
      395,
      396,
      397,
      398,
      399
    ],
    "timestamps": [
      "2022-08-20T19:03:37.299038",
      "2022-08-20T19:03:42.766899",
      "2022-08-20T19:03:48.138432",
      "2022-08-20T19:03:53.589148",
      "2022-08-20T19:03:58.974452",
      "2022-08-20T19:04:04.407485",
      "2022-08-20T19:04:09.792136",
      "2022-08-20T19:04:15.219177",
      "2022-08-20T19:04:20.615824",
      "2022-08-20T19:04:26.050293",
      "2022-08-20T19:04:31.562607",
      "2022-08-20T19:04:37.003861",
      "2022-08-20T19:04:42.435880",
      "2022-08-20T19:04:47.821863",
      "2022-08-20T19:04:53.282698",
      "2022-08-20T19:04:58.666243",
      "2022-08-20T19:05:04.114352",
      "2022-08-20T19:05:09.495466",
      "2022-08-20T19:05:14.937820",
      "2022-08-20T19:05:20.327238",
      "2022-08-20T19:05:25.765467",
      "2022-08-20T19:05:31.149854",
      "2022-08-20T19:05:36.552212",
      "2022-08-20T19:05:41.977561",
      "2022-08-20T19:05:47.365002",
      "2022-08-20T19:05:52.788710",
      "2022-08-20T19:05:58.166926",
      "2022-08-20T19:06:03.641791",
      "2022-08-20T19:06:09.050014",
      "2022-08-20T19:06:14.486058",
      "2022-08-20T19:06:19.933048",
      "2022-08-20T19:06:25.355788",
      "2022-08-20T19:06:30.748575",
      "2022-08-20T19:06:36.165725",
      "2022-08-20T19:06:41.569377",
      "2022-08-20T19:06:46.989704",
      "2022-08-20T19:06:52.426254",
      "2022-08-20T19:06:57.807251",
      "2022-08-20T19:07:03.233341",
      "2022-08-20T19:07:08.632010",
      "2022-08-20T19:07:14.066754",
      "2022-08-20T19:07:19.515088",
      "2022-08-20T19:07:24.970844",
      "2022-08-20T19:07:30.376497",
      "2022-08-20T19:07:35.799524",
      "2022-08-20T19:07:41.189922",
      "2022-08-20T19:07:46.644735",
      "2022-08-20T19:07:52.063903",
      "2022-08-20T19:07:57.443175",
      "2022-08-20T19:08:02.890159",
      "2022-08-20T19:08:08.330996",
      "2022-08-20T19:08:13.756873",
      "2022-08-20T19:08:19.134037",
      "2022-08-20T19:08:24.563549",
      "2022-08-20T19:08:29.945295",
      "2022-08-20T19:08:35.385695",
      "2022-08-20T19:08:40.773355",
      "2022-08-20T19:08:46.203876",
      "2022-08-20T19:08:51.624452",
      "2022-08-20T19:08:57.045422",
      "2022-08-20T19:09:02.494641",
      "2022-08-20T19:09:07.902280",
      "2022-08-20T19:09:13.330997",
      "2022-08-20T19:09:18.712769",
      "2022-08-20T19:09:24.151042",
      "2022-08-20T19:09:29.530141",
      "2022-08-20T19:09:34.970031",
      "2022-08-20T19:09:40.357855",
      "2022-08-20T19:09:45.792454",
      "2022-08-20T19:09:51.182237",
      "2022-08-20T19:09:56.631587",
      "2022-08-20T19:10:02.096667",
      "2022-08-20T19:10:07.494985",
      "2022-08-20T19:10:12.926883",
      "2022-08-20T19:10:18.315153",
      "2022-08-20T19:10:23.753743",
      "2022-08-20T19:10:29.143715",
      "2022-08-20T19:10:34.575482",
      "2022-08-20T19:10:39.955845",
      "2022-08-20T19:10:45.400935",
      "2022-08-20T19:10:50.848526",
      "2022-08-20T19:10:56.283390",
      "2022-08-20T19:11:01.682539",
      "2022-08-20T19:11:07.075859",
      "2022-08-20T19:11:12.511262",
      "2022-08-20T19:11:17.892907",
      "2022-08-20T19:11:23.346814",
      "2022-08-20T19:11:28.753146",
      "2022-08-20T19:11:34.208343",
      "2022-08-20T19:11:39.597638",
      "2022-08-20T19:11:45.045012",
      "2022-08-20T19:11:50.428989",
      "2022-08-20T19:11:55.866215",
      "2022-08-20T19:12:01.263212",
      "2022-08-20T19:12:06.667721",
      "2022-08-20T19:12:12.079829",
      "2022-08-20T19:12:17.463613",
      "2022-08-20T19:12:22.894175",
      "2022-08-20T19:12:28.278348",
      "2022-08-20T19:12:33.704626",
      "2022-08-20T19:12:39.146879",
      "2022-08-20T19:12:44.559747",
      "2022-08-20T19:12:49.962327",
      "2022-08-20T19:12:55.388449",
      "2022-08-20T19:13:00.789238",
      "2022-08-20T19:13:06.214010",
      "2022-08-20T19:13:11.622097",
      "2022-08-20T19:13:17.025521",
      "2022-08-20T19:13:22.482181",
      "2022-08-20T19:13:27.875790",
      "2022-08-20T19:13:33.328116",
      "2022-08-20T19:13:38.766064",
      "2022-08-20T19:13:44.195835",
      "2022-08-20T19:13:49.579536",
      "2022-08-20T19:13:55.019548",
      "2022-08-20T19:14:00.409051",
      "2022-08-20T19:14:05.836992",
      "2022-08-20T19:14:11.254708",
      "2022-08-20T19:14:16.692264",
      "2022-08-20T19:14:22.109191",
      "2022-08-20T19:14:27.572302",
      "2022-08-20T19:14:33.012582",
      "2022-08-20T19:14:38.393884",
      "2022-08-20T19:14:43.815051",
      "2022-08-20T19:14:49.192744",
      "2022-08-20T19:14:54.660524",
      "2022-08-20T19:15:00.045386",
      "2022-08-20T19:15:05.488298",
      "2022-08-20T19:15:10.886179",
      "2022-08-20T19:15:16.300161",
      "2022-08-20T19:15:21.780779",
      "2022-08-20T19:15:27.203043",
      "2022-08-20T19:15:32.629904",
      "2022-08-20T19:15:38.009759",
      "2022-08-20T19:15:43.449612",
      "2022-08-20T19:15:48.833727",
      "2022-08-20T19:15:54.262014",
      "2022-08-20T19:15:59.669243",
      "2022-08-20T19:16:05.123790",
      "2022-08-20T19:16:10.513570",
      "2022-08-20T19:16:15.957565",
      "2022-08-20T19:16:21.349625",
      "2022-08-20T19:16:26.778020",
      "2022-08-20T19:16:32.233684",
      "2022-08-20T19:16:37.650922",
      "2022-08-20T19:16:43.080040",
      "2022-08-20T19:16:48.466152",
      "2022-08-20T19:16:53.894105",
      "2022-08-20T19:16:59.285557",
      "2022-08-20T19:17:04.721318",
      "2022-08-20T19:17:10.157786",
      "2022-08-20T19:17:15.601413",
      "2022-08-20T19:17:20.978948",
      "2022-08-20T19:17:26.438339",
      "2022-08-20T19:17:31.882260",
      "2022-08-20T19:17:37.282178",
      "2022-08-20T19:17:42.706610",
      "2022-08-20T19:17:48.083482",
      "2022-08-20T19:17:53.498686",
      "2022-08-20T19:17:58.882487",
      "2022-08-20T19:18:04.354643",
      "2022-08-20T19:18:09.781343",
      "2022-08-20T19:18:15.199995",
      "2022-08-20T19:18:20.582196",
      "2022-08-20T19:18:26.008732",
      "2022-08-20T19:18:31.412105",
      "2022-08-20T19:18:36.847114",
      "2022-08-20T19:18:42.273518",
      "2022-08-20T19:18:47.659121",
      "2022-08-20T19:18:53.081558",
      "2022-08-20T19:18:58.533593",
      "2022-08-20T19:19:04.003773",
      "2022-08-20T19:19:09.385029",
      "2022-08-20T19:19:14.824533",
      "2022-08-20T19:19:20.207364",
      "2022-08-20T19:19:25.637746",
      "2022-08-20T19:19:31.033546",
      "2022-08-20T19:19:36.472597",
      "2022-08-20T19:19:41.905072",
      "2022-08-20T19:19:47.302041",
      "2022-08-20T19:19:52.763680",
      "2022-08-20T19:19:58.212809",
      "2022-08-20T19:20:03.650459",
      "2022-08-20T19:20:09.030427",
      "2022-08-20T19:20:14.465008",
      "2022-08-20T19:20:19.847166",
      "2022-08-20T19:20:25.281761",
      "2022-08-20T19:20:30.671065",
      "2022-08-20T19:20:36.099586",
      "2022-08-20T19:20:41.497282",
      "2022-08-20T19:20:46.936989",
      "2022-08-20T19:20:52.360922",
      "2022-08-20T19:20:57.747145",
      "2022-08-20T19:21:03.193980",
      "2022-08-20T19:21:08.578548",
      "2022-08-20T19:21:14.031041",
      "2022-08-20T19:21:19.411589",
      "2022-08-20T19:21:24.846666",
      "2022-08-20T19:21:30.236986",
      "2022-08-20T19:21:35.685299",
      "2022-08-20T19:21:41.137023",
      "2022-08-20T19:21:46.581469",
      "2022-08-20T19:21:51.998997",
      "2022-08-20T19:21:57.383728",
      "2022-08-20T19:22:02.841095",
      "2022-08-20T19:22:08.227783",
      "2022-08-20T19:22:13.665230",
      "2022-08-20T19:22:19.053489",
      "2022-08-20T19:22:24.484497",
      "2022-08-20T19:22:29.869227",
      "2022-08-20T19:22:35.337209",
      "2022-08-20T19:22:40.732449",
      "2022-08-20T19:22:46.158154",
      "2022-08-20T19:22:51.555163",
      "2022-08-20T19:22:56.957239",
      "2022-08-20T19:23:02.387412",
      "2022-08-20T19:23:07.772617",
      "2022-08-20T19:23:13.207552",
      "2022-08-20T19:23:18.623560",
      "2022-08-20T19:23:24.053388",
      "2022-08-20T19:23:29.499670",
      "2022-08-20T19:23:34.948247",
      "2022-08-20T19:23:40.356184",
      "2022-08-20T19:23:45.790087",
      "2022-08-20T19:23:51.176504",
      "2022-08-20T19:23:56.589548",
      "2022-08-20T19:24:02.014972",
      "2022-08-20T19:24:07.401241",
      "2022-08-20T19:24:12.878313",
      "2022-08-20T19:24:18.264615",
      "2022-08-20T19:24:23.738480",
      "2022-08-20T19:24:29.168680",
      "2022-08-20T19:24:34.613108",
      "2022-08-20T19:24:39.995415",
      "2022-08-20T19:24:45.432574",
      "2022-08-20T19:24:50.832663",
      "2022-08-20T19:24:56.260538",
      "2022-08-20T19:25:01.655752",
      "2022-08-20T19:25:07.076287",
      "2022-08-20T19:25:12.502868",
      "2022-08-20T19:25:17.991262",
      "2022-08-20T19:25:23.440612",
      "2022-08-20T19:25:28.821953",
      "2022-08-20T19:25:34.282047",
      "2022-08-20T19:25:39.675236",
      "2022-08-20T19:25:45.109513",
      "2022-08-20T19:25:50.503306",
      "2022-08-20T19:25:55.922503",
      "2022-08-20T19:26:01.312080",
      "2022-08-20T19:26:06.759789",
      "2022-08-20T19:26:12.220270",
      "2022-08-20T19:26:17.654988",
      "2022-08-20T19:26:23.078995",
      "2022-08-20T19:26:28.464073",
      "2022-08-20T19:26:33.929573",
      "2022-08-20T19:26:39.333042",
      "2022-08-20T19:26:44.785008",
      "2022-08-20T19:26:50.166587",
      "2022-08-20T19:26:55.595910",
      "2022-08-20T19:27:00.982189",
      "2022-08-20T19:27:06.458158",
      "2022-08-20T19:27:11.858481",
      "2022-08-20T19:27:17.271558",
      "2022-08-20T19:27:22.691602",
      "2022-08-20T19:27:28.083524",
      "2022-08-20T19:27:33.520993",
      "2022-08-20T19:27:38.900844",
      "2022-08-20T19:27:44.356671",
      "2022-08-20T19:27:49.749093",
      "2022-08-20T19:27:55.178753",
      "2022-08-20T19:28:00.644181",
      "2022-08-20T19:28:06.111578",
      "2022-08-20T19:28:11.522731",
      "2022-08-20T19:28:16.929915",
      "2022-08-20T19:28:22.360879",
      "2022-08-20T19:28:27.768335",
      "2022-08-20T19:28:33.191803",
      "2022-08-20T19:28:38.593353",
      "2022-08-20T19:28:44.035087",
      "2022-08-20T19:28:49.427628",
      "2022-08-20T19:28:54.871271",
      "2022-08-20T19:29:00.272364",
      "2022-08-20T19:29:05.739358",
      "2022-08-20T19:29:11.119739",
      "2022-08-20T19:29:16.551289",
      "2022-08-20T19:29:21.976064",
      "2022-08-20T19:29:27.379858",
      "2022-08-20T19:29:32.833952",
      "2022-08-20T19:29:38.234765",
      "2022-08-20T19:29:43.671361",
      "2022-08-20T19:29:49.137788",
      "2022-08-20T19:29:54.589969",
      "2022-08-20T19:29:59.982452",
      "2022-08-20T19:30:05.439209",
      "2022-08-20T19:30:10.840139",
      "2022-08-20T19:30:16.280753",
      "2022-08-20T19:30:21.695582",
      "2022-08-20T19:30:27.104404",
      "2022-08-20T19:30:32.533713",
      "2022-08-20T19:30:37.918083",
      "2022-08-20T19:30:43.372294",
      "2022-08-20T19:30:48.792883",
      "2022-08-20T19:30:54.233210",
      "2022-08-20T19:30:59.619618",
      "2022-08-20T19:31:05.083316",
      "2022-08-20T19:31:10.486728",
      "2022-08-20T19:31:15.916379",
      "2022-08-20T19:31:21.304807",
      "2022-08-20T19:31:26.728467",
      "2022-08-20T19:31:32.145207",
      "2022-08-20T19:31:37.577822",
      "2022-08-20T19:31:43.050056",
      "2022-08-20T19:31:48.427303",
      "2022-08-20T19:31:53.869996",
      "2022-08-20T19:31:59.260547",
      "2022-08-20T19:32:04.712956",
      "2022-08-20T19:32:10.098515",
      "2022-08-20T19:32:15.533779",
      "2022-08-20T19:32:20.925569",
      "2022-08-20T19:32:26.336250",
      "2022-08-20T19:32:31.791177",
      "2022-08-20T19:32:37.235050",
      "2022-08-20T19:32:42.684988",
      "2022-08-20T19:32:48.075302",
      "2022-08-20T19:32:53.533487",
      "2022-08-20T19:32:58.937300",
      "2022-08-20T19:33:04.394767",
      "2022-08-20T19:33:09.786008",
      "2022-08-20T19:33:15.232992",
      "2022-08-20T19:33:20.616472",
      "2022-08-20T19:33:26.089339",
      "2022-08-20T19:33:31.495367",
      "2022-08-20T19:33:36.927438",
      "2022-08-20T19:33:42.350693",
      "2022-08-20T19:33:47.743520",
      "2022-08-20T19:33:53.176215",
      "2022-08-20T19:33:58.565005",
      "2022-08-20T19:34:04.027793",
      "2022-08-20T19:34:09.414457",
      "2022-08-20T19:34:14.890384",
      "2022-08-20T19:34:20.329870",
      "2022-08-20T19:34:25.784749",
      "2022-08-20T19:34:31.173291",
      "2022-08-20T19:34:36.623035",
      "2022-08-20T19:34:42.042871",
      "2022-08-20T19:34:47.438943",
      "2022-08-20T19:34:52.872947",
      "2022-08-20T19:34:58.248821",
      "2022-08-20T19:35:03.694035",
      "2022-08-20T19:35:09.082350",
      "2022-08-20T19:35:14.531307",
      "2022-08-20T19:35:19.982662",
      "2022-08-20T19:35:25.416058",
      "2022-08-20T19:35:30.803843",
      "2022-08-20T19:35:36.234210",
      "2022-08-20T19:35:41.654609",
      "2022-08-20T19:35:47.082145",
      "2022-08-20T19:35:52.510819",
      "2022-08-20T19:35:57.896114",
      "2022-08-20T19:36:03.318744",
      "2022-08-20T19:36:08.767291",
      "2022-08-20T19:36:14.192182",
      "2022-08-20T19:36:19.573548",
      "2022-08-20T19:36:25.030789",
      "2022-08-20T19:36:30.422512",
      "2022-08-20T19:36:35.863515",
      "2022-08-20T19:36:41.252276",
      "2022-08-20T19:36:46.685215",
      "2022-08-20T19:36:52.087654",
      "2022-08-20T19:36:57.489250",
      "2022-08-20T19:37:02.942737",
      "2022-08-20T19:37:08.370314",
      "2022-08-20T19:37:13.811563",
      "2022-08-20T19:37:19.200038",
      "2022-08-20T19:37:24.615895",
      "2022-08-20T19:37:30.009983",
      "2022-08-20T19:37:35.460182",
      "2022-08-20T19:37:40.881094",
      "2022-08-20T19:37:46.310714",
      "2022-08-20T19:37:51.721305",
      "2022-08-20T19:37:57.169750",
      "2022-08-20T19:38:02.630936",
      "2022-08-20T19:38:08.016118",
      "2022-08-20T19:38:13.486486",
      "2022-08-20T19:38:18.894938",
      "2022-08-20T19:38:24.337945",
      "2022-08-20T19:38:29.722760",
      "2022-08-20T19:38:35.166970",
      "2022-08-20T19:38:40.556437",
      "2022-08-20T19:38:45.988872",
      "2022-08-20T19:38:51.439390",
      "2022-08-20T19:38:56.881866",
      "2022-08-20T19:39:02.375632",
      "2022-08-20T19:39:07.760539",
      "2022-08-20T19:39:13.197178",
      "2022-08-20T19:39:18.597155",
      "2022-08-20T19:39:24.020348",
      "2022-08-20T19:39:29.409389",
      "2022-08-20T19:39:34.843708",
      "2022-08-20T19:39:40.238950"
    ],
    "values": [
      14.458557223197872,
      13.533609508311288,
      13.67381380184538,
      14.065438875913962,
      14.462607355246664,
      14.590215511218322,
      15.137037020344174,
      13.861956341284316,
      14.142475583443156,
      14.290736053635317,
      13.536526118371498,
      14.053308790622575,
      13.817408261263148,
      13.180392906320744,
      14.132396710912817,
      13.829925836791588,
      13.505135956637911,
      13.664336067767627,
      14.138358293664876,
      13.33628590295818,
      13.541356036353596,
      13.480178541548167,
      14.19056093924122,
      13.416097059309864,
      12.94318995790909,
      13.903051596553178,
      13.426700706036518,
      13.292087509330816,
      13.107240222993385,
      12.873017319972341,
      12.81955113388375,
      12.71723874499541,
      12.679022042045426,
      12.774404448671312,
      12.978945381913265,
      12.652963196345768,
      12.923663497034191,
      12.964372694130432,
      12.261395819970945,
      12.366545791170786,
      12.456340727337306,
      12.087065385270023,
      11.9527891024347,
      12.302084868584117,
      12.132585989983376,
      11.878161439837552,
      11.874462455447764,
      11.887309943448614,
      11.776934338534332,
      11.653141351926765,
      11.650621013641791,
      11.54911915837993,
      11.264650335909437,
      11.464519432787775,
      11.384948697001816,
      11.536913170521474,
      11.284405485316338,
      11.253177047573265,
      11.22159887772048,
      11.187125504249286,
      11.147774277698328,
      11.059270928996005,
      11.068850807317437,
      10.914620929772868,
      11.124446765082222,
      10.93734840499942,
      11.052499257828423,
      11.042504912837872,
      10.806412061934742,
      10.641301639770427,
      10.820014254327768,
      10.738263841337885,
      10.763602558164573,
      10.884086933287717,
      10.667040004227584,
      11.156930416797374,
      10.595336904427981,
      10.589419964528355,
      10.693181780513427,
      10.510189454335107,
      10.639969926074231,
      10.47607293396669,
      10.593878813704887,
      10.574702334463607,
      10.447018818956892,
      10.39967338023748,
      10.55748542183343,
      10.473424894968502,
      10.420288340690893,
      10.606828557541967,
      10.564683626220603,
      10.35449668748062,
      10.425822849448311,
      10.347830617273411,
      10.371405126236327,
      10.365631595410484,
      10.337502450243885,
      10.318377753247814,
      10.259878082870054,
      10.29120478321696,
      10.275181017733969,
      10.263828557492422,
      10.255642533748778,
      10.250395242221252,
      10.311845996305486,
      10.233043021483235,
      10.245627608842508,
      10.244224090280717,
      10.261625363952314,
      10.233384211298418,
      10.266956228544004,
      10.23348927778194,
      10.229464694450908,
      10.260497275111673,
      10.230444156990158,
      10.230535243161757,
      10.20511322442145,
      10.206217727584793,
      10.206660607323263,
      10.213083156126126,
      10.21274104652407,
      10.193652464379273,
      10.248144175359664,
      10.189066866846465,
      10.206787896670178,
      10.229475090818497,
      10.294690672626746,
      10.185591701970333,
      10.208671298388012,
      10.188762209203395,
      10.249897109363578,
      10.170927576019098,
      10.175465520264796,
      10.202048009104624,
      10.161348136442635,
      10.1839392161422,
      10.206612497147571,
      10.221005267247868,
      10.22016413199142,
      10.167693877414617,
      10.194472576937837,
      10.196030303212952,
      10.245619956810835,
      10.18358055191688,
      10.2050760521124,
      10.175795117112028,
      10.211884689571539,
      10.197131299992476,
      10.172795374697662,
      10.186265727209037,
      10.167517775133378,
      10.180779132668006,
      10.170881013667552,
      10.180371021222806,
      10.165806580245736,
      10.148347071251049,
      10.158324761345188,
      10.229403411998652,
      10.174093683456071,
      10.186331198290265,
      10.14749783721953,
      10.18713391200858,
      10.159592995883724,
      10.153412064644584,
      10.166450058983408,
      10.164566419737454,
      10.186512313574434,
      10.160952121517688,
      10.220085484652543,
      10.147108707047204,
      10.155243066764449,
      10.195464291014046,
      10.159691608675752,
      10.145670229155813,
      10.134409832144962,
      10.17395313786735,
      10.135433349199582,
      10.148130457405202,
      10.188863653799654,
      10.175971776190638,
      10.144718885527773,
      10.132273593583598,
      10.15618510159204,
      10.135741699197744,
      10.164930027674611,
      10.148225954526284,
      10.15012089115473,
      10.20777318912425,
      10.14056066094889,
      10.147934445480463,
      10.12471396481149,
      10.164578472569602,
      10.146841162324,
      10.13390641106523,
      10.156745860189938,
      10.178743227423627,
      10.146802937846518,
      10.154701855100065,
      10.13003732436838,
      10.145220706512468,
      10.135531098886565,
      10.128264211075694,
      10.120057280098345,
      10.143245386095058,
      10.175739851860019,
      10.15462556879191,
      10.14178418743989,
      10.143616201428667,
      10.120036330168773,
      10.146480607135935,
      10.1047646222419,
      10.098317205153394,
      10.084924440107343,
      10.09576981932629,
      10.092077766435933,
      10.091448986482686,
      10.092434108461317,
      10.089997778565237,
      10.09264816998964,
      10.087796391839944,
      10.098199494092905,
      10.09269349642027,
      10.089348140050548,
      10.09123105835285,
      10.090531096238971,
      10.096009638985675,
      10.088014383604076,
      10.091139162917278,
      10.08504629414125,
      10.089365166377503,
      10.0873827720063,
      10.090950048267395,
      10.080771889694438,
      10.08118413609931,
      10.07443459911341,
      10.086466805288826,
      10.090754035458902,
      10.084603141954267,
      10.088668635432196,
      10.088450718946456,
      10.082423183327679,
      10.081561119862075,
      10.079390662469335,
      10.078953561398059,
      10.081626782479367,
      10.085885369386297,
      10.08264038800208,
      10.08800536699812,
      10.07789151673251,
      10.08273638267219,
      10.077618111315898,
      10.076015038794447,
      10.084221637001193,
      10.083695330465375,
      10.080115632677046,
      10.082958141885262,
      10.080760931317135,
      10.082994545962904,
      10.0774484557307,
      10.086339836595567,
      10.084305402000364,
      10.080252026627608,
      10.084638669441539,
      10.085819618448461,
      10.084746564497568,
      10.084197046516111,
      10.085997084433865,
      10.08203914113411,
      10.095341925429622,
      10.085923305651617,
      10.086512314183079,
      10.080661292434373,
      10.075757512572842,
      10.084693870521358,
      10.080035815725054,
      10.089786835676982,
      10.080194187249072,
      10.089013551305879,
      10.07895019117427,
      10.082453718462206,
      10.081874188143694,
      10.088938534621871,
      10.089386159162611,
      10.086245285260501,
      10.084284520331078,
      10.087696265846098,
      10.076767345116693,
      10.086310821207904,
      10.086765001670221,
      10.08799859242102,
      10.079795804302128,
      10.084406389415669,
      10.080041695405342,
      10.087424967863814,
      10.08902866389275,
      10.085747679788131,
      10.090038582366713,
      10.08467776257906,
      10.078423779344442,
      10.081961083175297,
      10.086178471145141,
      10.088797280897172,
      10.079658212394424,
      10.086551132365752,
      10.079323671302978,
      10.080077579060873,
      10.087098595013135,
      10.095067437052005,
      10.08482971459252,
      10.088302053683952,
      10.090338576866497,
      10.085615780266771,
      10.08977735106311,
      10.081139376260039,
      10.087304979850906,
      10.085089140182838,
      10.086458301817903,
      10.091419941792353,
      10.084066917155427,
      10.087925385528942,
      10.087966722928178,
      10.084199463679898,
      10.08237518469753,
      10.082920100489414,
      10.082652415447653,
      10.078598565495566,
      10.081977082930656,
      10.081465229037287,
      10.083099227438966,
      10.077229531616602,
      10.075317977902786,
      10.08308574236384,
      10.080174780158696,
      10.085609284726194,
      10.077478963410968,
      10.086962431144748,
      10.088342448312279,
      10.087335904550503,
      10.080713533536308,
      10.082707881043406,
      10.089129344513019,
      10.079621488843387,
      10.078967577878954,
      10.078757229355762,
      10.0812743293761,
      10.081065631861506,
      10.082536744481999,
      10.08344276262956,
      10.08584982042153,
      10.082099409023279,
      10.079854670832384,
      10.08228203857568,
      10.081097274827956,
      10.08244956515858,
      10.088451997763865,
      10.077547958039084,
      10.085849634530895,
      10.086819561216794,
      10.088999952282593,
      10.084739927974953,
      10.081648840362773,
      10.080151712639537,
      10.086245583534806,
      10.086309081639758,
      10.082980602185769,
      10.093438462778899,
      10.073257559638419,
      10.076571352371797,
      10.083020676261752,
      10.082640208064461,
      10.078532347643794,
      10.09034043639568,
      10.086639428515642,
      10.075732467472847,
      10.08080258508524,
      10.084334276207695,
      10.0798501530821,
      10.08569405540194,
      10.086150777231692,
      10.086266753911199,
      10.086470506515157,
      10.081746719256817,
      10.086363901728983,
      10.085343727863215,
      10.084096630375768,
      10.086355244621755,
      10.08440812835457,
      10.080520851606787,
      10.084684013173412,
      10.077624850594404,
      10.077759799750826,
      10.09054353530384,
      10.080951552017424,
      10.088368357689975,
      10.081959147747096,
      10.077080802734203,
      10.081666064586344,
      10.081029509601818,
      10.07912708205311,
      10.079061728173645
    ]
  }
}