{
  "memory.usage": {
    "steps": [
      0,
      1,
      2,
      3,
      4,
      5,
      6,
      7,
      8,
      9,
      10,
      11,
      12,
      13,
      14,
      15,
      16,
      17,
      18,
      19,
      20,
      21,
      22,
      23,
      24,
      25,
      26,
      27,
      28,
      29,
      30,
      31,
      32,
      33,
      34,
      35,
      36,
      37,
      38,
      39,
      40
    ],
    "timestamps": [
      "2022-11-11T17:30:06.027894",
      "2022-11-11T17:30:22.459553",
      "2022-11-11T17:30:40.757118",
      "2022-11-11T17:30:59.077414",
      "2022-11-11T17:31:17.371312",
      "2022-11-11T17:31:35.648875",
      "2022-11-11T17:31:53.932807",
      "2022-11-11T17:32:12.221597",
      "2022-11-11T17:32:30.502386",
      "2022-11-11T17:32:48.805932",
      "2022-11-11T17:33:07.085339",
      "2022-11-11T17:33:25.366901",
      "2022-11-11T17:33:43.643174",
      "2022-11-11T17:34:01.937624",
      "2022-11-11T17:34:20.224159",
      "2022-11-11T17:34:38.487211",
      "2022-11-11T17:34:56.743476",
      "2022-11-11T17:35:15.013733",
      "2022-11-11T17:35:33.278096",
      "2022-11-11T17:35:51.543490",
      "2022-11-11T17:36:09.798722",
      "2022-11-11T17:36:28.061173",
      "2022-11-11T17:36:46.317459",
      "2022-11-11T17:37:04.579145",
      "2022-11-11T17:37:22.867466",
      "2022-11-11T17:37:41.115104",
      "2022-11-11T17:37:59.398190",
      "2022-11-11T17:38:17.678153",
      "2022-11-11T17:38:35.952611",
      "2022-11-11T17:38:54.227869",
      "2022-11-11T17:39:12.487164",
      "2022-11-11T17:39:30.752626",
      "2022-11-11T17:39:49.015967",
      "2022-11-11T17:40:07.284361",
      "2022-11-11T17:40:25.564241",
      "2022-11-11T17:40:43.855946",
      "2022-11-11T17:41:02.140380",
      "2022-11-11T17:41:20.439828",
      "2022-11-11T17:41:38.723880",
      "2022-11-11T17:41:56.995140",
      "2022-11-11T17:42:15.269058"
    ],
    "values": [
      139.5584,
      139.5584,
      139.5584,
      139.5584,
      139.5584,
      139.5584,
      139.5584,
      139.5584,
      139.5584,
      139.5584,
      139.5584,
      139.5584,
      139.5584,
      139.5584,
      139.5584,
      139.5584,
      139.5584,
      139.5584,
      139.5584,
      139.5584,
      139.5584,
      139.5584,
      139.5584,
      139.5584,
      139.5584,
      139.5584,
      139.5584,
      139.5584,
      139.5584,
      139.5584,
      139.5584,
      139.5584,
      139.5584,
      139.5584,
      139.5584,
      139.5584,
      139.5584,
      139.5584,
      139.5584,
      139.5584,
      139.5584
    ]
  },
  "train": {
    "steps": [
      0,
      1,
      2,
      3,
      4,
      5,
      6,
      7,
      8,
      9,
      10,
      11,
      12,
      13,
      14,
      15,
      16,
      17,
      18,
      19,
      20,
      21,
      22,
      23,
      24,
      25,
      26,
      27,
      28,
      29,
      30,
      31,
      32,
      33,
      34,
      35,
      36,
      37,
      38,
      39,
      40,
      41,
      42,
      43,
      44,
      45,
      46,
      47,
      48,
      49,
      50,
      51,
      52,
      53,
      54,
      55,
      56,
      57,
      58,
      59,
      60,
      61,
      62,
      63,
      64,
      65,
      66,
      67,
      68,
      69,
      70,
      71,
      72,
      73,
      74,
      75,
      76,
      77,
      78,
      79,
      80,
      81,
      82,
      83,
      84,
      85,
      86,
      87,
      88,
      89,
      90,
      91,
      92,
      93,
      94,
      95,
      96,
      97,
      98,
      99,
      100,
      101,
      102,
      103,
      104,
      105,
      106,
      107,
      108,
      109,
      110,
      111,
      112,
      113,
      114,
      115,
      116,
      117,
      118,
      119,
      120,
      121,
      122,
      123,
      124,
      125,
      126,
      127,
      128,
      129,
      130,
      131,
      132,
      133,
      134,
      135,
      136,
      137,
      138,
      139,
      140,
      141,
      142,
      143,
      144,
      145,
      146,
      147,
      148,
      149,
      150,
      151,
      152,
      153,
      154,
      155,
      156,
      157,
      158,
      159,
      160,
      161,
      162,
      163,
      164,
      165,
      166,
      167,
      168,
      169,
      170,
      171,
      172,
      173,
      174,
      175,
      176,
      177,
      178,
      179,
      180,
      181,
      182,
      183,
      184,
      185,
      186,
      187,
      188,
      189,
      190,
      191,
      192,
      193,
      194,
      195,
      196,
      197,
      198,
      199,
      200,
      201,
      202,
      203,
      204,
      205,
      206,
      207,
      208,
      209,
      210,
      211,
      212,
      213,
      214,
      215,
      216,
      217,
      218,
      219,
      220,
      221,
      222,
      223,
      224,
      225,
      226,
      227,
      228,
      229,
      230,
      231,
      232,
      233,
      234,
      235,
      236,
      237,
      238,
      239,
      240,
      241,
      242,
      243,
      244,
      245,
      246,
      247,
      248,
      249,
      250,
      251,
      252,
      253,
      254,
      255,
      256,
      257,
      258,
      259,
      260,
      261,
      262,
      263,
      264,
      265,
      266,
      267,
      268,
      269,
      270,
      271,
      272,
      273,
      274,
      275,
      276,
      277,
      278,
      279,
      280,
      281,
      282,
      283,
      284,
      285,
      286,
      287,
      288,
      289,
      290,
      291,
      292,
      293,
      294,
      295,
      296,
      297,
      298,
      299,
      300,
      301,
      302,
      303,
      304,
      305,
      306,
      307,
      308,
      309,
      310,
      311,
      312,
      313,
      314,
      315,
      316,
      317,
      318,
      319,
      320,
      321,
      322,
      323,
      324,
      325,
      326,
      327,
      328,
      329,
      330,
      331,
      332,
      333,
      334,
      335,
      336,
      337,
      338,
      339,
      340,
      341,
      342,
      343,
      344,
      345,
      346,
      347,
      348,
      349,
      350,
      351,
      352,
      353,
      354,
      355,
      356,
      357,
      358,
      359,
      360,
      361,
      362,
      363,
      364,
      365,
      366,
      367,
      368,
      369,
      370,
      371,
      372,
      373,
      374,
      375,
      376,
      377,
      378,
      379,
      380,
      381,
      382,
      383,
      384,
      385,
      386,
      387,
      388,
      389,
      390,
      391,
      392,
      393,
      394,
      395,
      396,
      397,
      398,
      399
    ],
    "timestamps": [
      "2022-11-11T17:30:06.027538",
      "2022-11-11T17:30:07.857341",
      "2022-11-11T17:30:09.684445",
      "2022-11-11T17:30:11.515150",
      "2022-11-11T17:30:13.341076",
      "2022-11-11T17:30:15.158141",
      "2022-11-11T17:30:16.991758",
      "2022-11-11T17:30:18.816922",
      "2022-11-11T17:30:20.635532",
      "2022-11-11T17:30:22.459257",
      "2022-11-11T17:30:24.309486",
      "2022-11-11T17:30:26.133098",
      "2022-11-11T17:30:27.960884",
      "2022-11-11T17:30:29.783960",
      "2022-11-11T17:30:31.610959",
      "2022-11-11T17:30:33.439076",
      "2022-11-11T17:30:35.260601",
      "2022-11-11T17:30:37.097780",
      "2022-11-11T17:30:38.932493",
      "2022-11-11T17:30:40.756768",
      "2022-11-11T17:30:42.612877",
      "2022-11-11T17:30:44.436877",
      "2022-11-11T17:30:46.299200",
      "2022-11-11T17:30:48.127696",
      "2022-11-11T17:30:49.953526",
      "2022-11-11T17:30:51.778821",
      "2022-11-11T17:30:53.602425",
      "2022-11-11T17:30:55.428002",
      "2022-11-11T17:30:57.252966",
      "2022-11-11T17:30:59.077086",
      "2022-11-11T17:31:00.934233",
      "2022-11-11T17:31:02.758765",
      "2022-11-11T17:31:04.584422",
      "2022-11-11T17:31:06.409839",
      "2022-11-11T17:31:08.236129",
      "2022-11-11T17:31:10.062203",
      "2022-11-11T17:31:11.891728",
      "2022-11-11T17:31:13.715359",
      "2022-11-11T17:31:15.540948",
      "2022-11-11T17:31:17.370971",
      "2022-11-11T17:31:19.221628",
      "2022-11-11T17:31:21.048222",
      "2022-11-11T17:31:22.879088",
      "2022-11-11T17:31:24.700196",
      "2022-11-11T17:31:26.524543",
      "2022-11-11T17:31:28.352679",
      "2022-11-11T17:31:30.175195",
      "2022-11-11T17:31:32.002614",
      "2022-11-11T17:31:33.828379",
      "2022-11-11T17:31:35.648553",
      "2022-11-11T17:31:37.503994",
      "2022-11-11T17:31:39.328828",
      "2022-11-11T17:31:41.150758",
      "2022-11-11T17:31:42.977838",
      "2022-11-11T17:31:44.801322",
      "2022-11-11T17:31:46.624609",
      "2022-11-11T17:31:48.453786",
      "2022-11-11T17:31:50.276423",
      "2022-11-11T17:31:52.105329",
      "2022-11-11T17:31:53.932513",
      "2022-11-11T17:31:55.787337",
      "2022-11-11T17:31:57.614822",
      "2022-11-11T17:31:59.440711",
      "2022-11-11T17:32:01.267297",
      "2022-11-11T17:32:03.095536",
      "2022-11-11T17:32:04.920950",
      "2022-11-11T17:32:06.744055",
      "2022-11-11T17:32:08.569940",
      "2022-11-11T17:32:10.397509",
      "2022-11-11T17:32:12.221144",
      "2022-11-11T17:32:14.076507",
      "2022-11-11T17:32:15.904587",
      "2022-11-11T17:32:17.733249",
      "2022-11-11T17:32:19.556011",
      "2022-11-11T17:32:21.381455",
      "2022-11-11T17:32:23.206857",
      "2022-11-11T17:32:25.031025",
      "2022-11-11T17:32:26.855903",
      "2022-11-11T17:32:28.678287",
      "2022-11-11T17:32:30.502055",
      "2022-11-11T17:32:32.364733",
      "2022-11-11T17:32:34.188352",
      "2022-11-11T17:32:36.011762",
      "2022-11-11T17:32:37.838531",
      "2022-11-11T17:32:39.659506",
      "2022-11-11T17:32:41.484872",
      "2022-11-11T17:32:43.317153",
      "2022-11-11T17:32:45.143991",
      "2022-11-11T17:32:46.975993",
      "2022-11-11T17:32:48.805491",
      "2022-11-11T17:32:50.662661",
      "2022-11-11T17:32:52.493134",
      "2022-11-11T17:32:54.317989",
      "2022-11-11T17:32:56.139266",
      "2022-11-11T17:32:57.964225",
      "2022-11-11T17:32:59.787450",
      "2022-11-11T17:33:01.614899",
      "2022-11-11T17:33:03.440423",
      "2022-11-11T17:33:05.261596",
      "2022-11-11T17:33:07.084989",
      "2022-11-11T17:33:08.938449",
      "2022-11-11T17:33:10.763963",
      "2022-11-11T17:33:12.593183",
      "2022-11-11T17:33:14.417801",
      "2022-11-11T17:33:16.239522",
      "2022-11-11T17:33:18.066898",
      "2022-11-11T17:33:19.891506",
      "2022-11-11T17:33:21.716988",
      "2022-11-11T17:33:23.543245",
      "2022-11-11T17:33:25.366576",
      "2022-11-11T17:33:27.218187",
      "2022-11-11T17:33:29.042667",
      "2022-11-11T17:33:30.864752",
      "2022-11-11T17:33:32.688688",
      "2022-11-11T17:33:34.514029",
      "2022-11-11T17:33:36.337822",
      "2022-11-11T17:33:38.163890",
      "2022-11-11T17:33:39.987977",
      "2022-11-11T17:33:41.817944",
      "2022-11-11T17:33:43.642853",
      "2022-11-11T17:33:45.498477",
      "2022-11-11T17:33:47.328783",
      "2022-11-11T17:33:49.153083",
      "2022-11-11T17:33:50.977505",
      "2022-11-11T17:33:52.807568",
      "2022-11-11T17:33:54.631667",
      "2022-11-11T17:33:56.457179",
      "2022-11-11T17:33:58.283538",
      "2022-11-11T17:34:00.108675",
      "2022-11-11T17:34:01.937273",
      "2022-11-11T17:34:03.796371",
      "2022-11-11T17:34:05.617799",
      "2022-11-11T17:34:07.446179",
      "2022-11-11T17:34:09.269885",
      "2022-11-11T17:34:11.098532",
      "2022-11-11T17:34:12.930345",
      "2022-11-11T17:34:14.750898",
      "2022-11-11T17:34:16.578142",
      "2022-11-11T17:34:18.403452",
      "2022-11-11T17:34:20.224028",
      "2022-11-11T17:34:22.080423",
      "2022-11-11T17:34:23.903999",
      "2022-11-11T17:34:25.723904",
      "2022-11-11T17:34:27.548526",
      "2022-11-11T17:34:29.372723",
      "2022-11-11T17:34:31.193110",
      "2022-11-11T17:34:33.018407",
      "2022-11-11T17:34:34.842097",
      "2022-11-11T17:34:36.662296",
      "2022-11-11T17:34:38.486889",
      "2022-11-11T17:34:40.338706",
      "2022-11-11T17:34:42.163338",
      "2022-11-11T17:34:43.986891",
      "2022-11-11T17:34:45.808846",
      "2022-11-11T17:34:47.629370",
      "2022-11-11T17:34:49.449870",
      "2022-11-11T17:34:51.273145",
      "2022-11-11T17:34:53.097610",
      "2022-11-11T17:34:54.921547",
      "2022-11-11T17:34:56.743070",
      "2022-11-11T17:34:58.597337",
      "2022-11-11T17:35:00.418636",
      "2022-11-11T17:35:02.247301",
      "2022-11-11T17:35:04.071115",
      "2022-11-11T17:35:05.894290",
      "2022-11-11T17:35:07.717293",
      "2022-11-11T17:35:09.539551",
      "2022-11-11T17:35:11.366527",
      "2022-11-11T17:35:13.189860",
      "2022-11-11T17:35:15.013406",
      "2022-11-11T17:35:16.867962",
      "2022-11-11T17:35:18.690587",
      "2022-11-11T17:35:20.511953",
      "2022-11-11T17:35:22.341416",
      "2022-11-11T17:35:24.160753",
      "2022-11-11T17:35:25.987303",
      "2022-11-11T17:35:27.812843",
      "2022-11-11T17:35:29.631435",
      "2022-11-11T17:35:31.455595",
      "2022-11-11T17:35:33.277770",
      "2022-11-11T17:35:35.129738",
      "2022-11-11T17:35:36.952178",
      "2022-11-11T17:35:38.775167",
      "2022-11-11T17:35:40.594782",
      "2022-11-11T17:35:42.421228",
      "2022-11-11T17:35:44.243848",
      "2022-11-11T17:35:46.064591",
      "2022-11-11T17:35:47.891191",
      "2022-11-11T17:35:49.709934",
      "2022-11-11T17:35:51.543154",
      "2022-11-11T17:35:53.395685",
      "2022-11-11T17:35:55.214443",
      "2022-11-11T17:35:57.041177",
      "2022-11-11T17:35:58.865299",
      "2022-11-11T17:36:00.684262",
      "2022-11-11T17:36:02.512464",
      "2022-11-11T17:36:04.334530",
      "2022-11-11T17:36:06.153638",
      "2022-11-11T17:36:07.978241",
      "2022-11-11T17:36:09.798227",
      "2022-11-11T17:36:11.651787",
      "2022-11-11T17:36:13.472545",
      "2022-11-11T17:36:15.295265",
      "2022-11-11T17:36:17.118872",
      "2022-11-11T17:36:18.945479",
      "2022-11-11T17:36:20.765032",
      "2022-11-11T17:36:22.592963",
      "2022-11-11T17:36:24.415143",
      "2022-11-11T17:36:26.235404",
      "2022-11-11T17:36:28.060808",
      "2022-11-11T17:36:29.914079",
      "2022-11-11T17:36:31.739650",
      "2022-11-11T17:36:33.562684",
      "2022-11-11T17:36:35.387387",
      "2022-11-11T17:36:37.208706",
      "2022-11-11T17:36:39.029941",
      "2022-11-11T17:36:40.851837",
      "2022-11-11T17:36:42.674334",
      "2022-11-11T17:36:44.495838",
      "2022-11-11T17:36:46.317273",
      "2022-11-11T17:36:48.170306",
      "2022-11-11T17:36:49.991997",
      "2022-11-11T17:36:51.816307",
      "2022-11-11T17:36:53.637564",
      "2022-11-11T17:36:55.457589",
      "2022-11-11T17:36:57.280621",
      "2022-11-11T17:36:59.104746",
      "2022-11-11T17:37:00.928443",
      "2022-11-11T17:37:02.756986",
      "2022-11-11T17:37:04.578853",
      "2022-11-11T17:37:06.433615",
      "2022-11-11T17:37:08.258287",
      "2022-11-11T17:37:10.080984",
      "2022-11-11T17:37:11.914576",
      "2022-11-11T17:37:13.738610",
      "2022-11-11T17:37:15.566639",
      "2022-11-11T17:37:17.395623",
      "2022-11-11T17:37:19.217507",
      "2022-11-11T17:37:21.040453",
      "2022-11-11T17:37:22.867129",
      "2022-11-11T17:37:24.714513",
      "2022-11-11T17:37:26.537127",
      "2022-11-11T17:37:28.364229",
      "2022-11-11T17:37:30.182741",
      "2022-11-11T17:37:32.008756",
      "2022-11-11T17:37:33.830830",
      "2022-11-11T17:37:35.649760",
      "2022-11-11T17:37:37.472920",
      "2022-11-11T17:37:39.293189",
      "2022-11-11T17:37:41.114779",
      "2022-11-11T17:37:42.970491",
      "2022-11-11T17:37:44.796030",
      "2022-11-11T17:37:46.619245",
      "2022-11-11T17:37:48.447387",
      "2022-11-11T17:37:50.271650",
      "2022-11-11T17:37:52.100528",
      "2022-11-11T17:37:53.925506",
      "2022-11-11T17:37:55.748526",
      "2022-11-11T17:37:57.573660",
      "2022-11-11T17:37:59.397860",
      "2022-11-11T17:38:01.249928",
      "2022-11-11T17:38:03.076226",
      "2022-11-11T17:38:04.899924",
      "2022-11-11T17:38:06.722043",
      "2022-11-11T17:38:08.548265",
      "2022-11-11T17:38:10.374158",
      "2022-11-11T17:38:12.199090",
      "2022-11-11T17:38:14.027021",
      "2022-11-11T17:38:15.853166",
      "2022-11-11T17:38:17.677824",
      "2022-11-11T17:38:19.535813",
      "2022-11-11T17:38:21.362021",
      "2022-11-11T17:38:23.185436",
      "2022-11-11T17:38:25.004708",
      "2022-11-11T17:38:26.830181",
      "2022-11-11T17:38:28.651111",
      "2022-11-11T17:38:30.472380",
      "2022-11-11T17:38:32.305479",
      "2022-11-11T17:38:34.129906",
      "2022-11-11T17:38:35.952288",
      "2022-11-11T17:38:37.806631",
      "2022-11-11T17:38:39.626843",
      "2022-11-11T17:38:41.453417",
      "2022-11-11T17:38:43.277859",
      "2022-11-11T17:38:45.099334",
      "2022-11-11T17:38:46.927873",
      "2022-11-11T17:38:48.754614",
      "2022-11-11T17:38:50.578455",
      "2022-11-11T17:38:52.407915",
      "2022-11-11T17:38:54.227409",
      "2022-11-11T17:38:56.079270",
      "2022-11-11T17:38:57.903439",
      "2022-11-11T17:38:59.721005",
      "2022-11-11T17:39:01.544849",
      "2022-11-11T17:39:03.367847",
      "2022-11-11T17:39:05.187605",
      "2022-11-11T17:39:07.011990",
      "2022-11-11T17:39:08.838378",
      "2022-11-11T17:39:10.660098",
      "2022-11-11T17:39:12.486843",
      "2022-11-11T17:39:14.340691",
      "2022-11-11T17:39:16.161173",
      "2022-11-11T17:39:17.988701",
      "2022-11-11T17:39:19.810111",
      "2022-11-11T17:39:21.636244",
      "2022-11-11T17:39:23.457999",
      "2022-11-11T17:39:25.279521",
      "2022-11-11T17:39:27.105206",
      "2022-11-11T17:39:28.931060",
      "2022-11-11T17:39:30.752277",
      "2022-11-11T17:39:32.605577",
      "2022-11-11T17:39:34.428215",
      "2022-11-11T17:39:36.249854",
      "2022-11-11T17:39:38.073530",
      "2022-11-11T17:39:39.896224",
      "2022-11-11T17:39:41.717502",
      "2022-11-11T17:39:43.541808",
      "2022-11-11T17:39:45.364062",
      "2022-11-11T17:39:47.189364",
      "2022-11-11T17:39:49.015628",
      "2022-11-11T17:39:50.870218",
      "2022-11-11T17:39:52.699078",
      "2022-11-11T17:39:54.522720",
      "2022-11-11T17:39:56.346505",
      "2022-11-11T17:39:58.171370",
      "2022-11-11T17:39:59.993881",
      "2022-11-11T17:40:01.820712",
      "2022-11-11T17:40:03.642850",
      "2022-11-11T17:40:05.462012",
      "2022-11-11T17:40:07.284017",
      "2022-11-11T17:40:09.136941",
      "2022-11-11T17:40:10.961618",
      "2022-11-11T17:40:12.793186",
      "2022-11-11T17:40:14.615077",
      "2022-11-11T17:40:16.437864",
      "2022-11-11T17:40:18.265857",
      "2022-11-11T17:40:20.087954",
      "2022-11-11T17:40:21.919156",
      "2022-11-11T17:40:23.742336",
      "2022-11-11T17:40:25.563919",
      "2022-11-11T17:40:27.422886",
      "2022-11-11T17:40:29.247973",
      "2022-11-11T17:40:31.074954",
      "2022-11-11T17:40:32.903398",
      "2022-11-11T17:40:34.724382",
      "2022-11-11T17:40:36.547582",
      "2022-11-11T17:40:38.375214",
      "2022-11-11T17:40:40.196225",
      "2022-11-11T17:40:42.028005",
      "2022-11-11T17:40:43.855619",
      "2022-11-11T17:40:45.705462",
      "2022-11-11T17:40:47.533451",
      "2022-11-11T17:40:49.360002",
      "2022-11-11T17:40:51.186148",
      "2022-11-11T17:40:53.014472",
      "2022-11-11T17:40:54.838426",
      "2022-11-11T17:40:56.660357",
      "2022-11-11T17:40:58.485773",
      "2022-11-11T17:41:00.311050",
      "2022-11-11T17:41:02.140060",
      "2022-11-11T17:41:03.992466",
      "2022-11-11T17:41:05.817568",
      "2022-11-11T17:41:07.642102",
      "2022-11-11T17:41:09.464899",
      "2022-11-11T17:41:11.303094",
      "2022-11-11T17:41:13.130557",
      "2022-11-11T17:41:14.955042",
      "2022-11-11T17:41:16.781216",
      "2022-11-11T17:41:18.615763",
      "2022-11-11T17:41:20.439540",
      "2022-11-11T17:41:22.301793",
      "2022-11-11T17:41:24.124878",
      "2022-11-11T17:41:25.950380",
      "2022-11-11T17:41:27.775412",
      "2022-11-11T17:41:29.599811",
      "2022-11-11T17:41:31.427422",
      "2022-11-11T17:41:33.252324",
      "2022-11-11T17:41:35.073852",
      "2022-11-11T17:41:36.899814",
      "2022-11-11T17:41:38.723289",
      "2022-11-11T17:41:40.579053",
      "2022-11-11T17:41:42.407960",
      "2022-11-11T17:41:44.230348",
      "2022-11-11T17:41:46.051305",
      "2022-11-11T17:41:47.876503",
      "2022-11-11T17:41:49.699052",
      "2022-11-11T17:41:51.525535",
      "2022-11-11T17:41:53.351416",
      "2022-11-11T17:41:55.170477",
      "2022-11-11T17:41:56.994838",
      "2022-11-11T17:41:58.849010",
      "2022-11-11T17:42:00.668793",
      "2022-11-11T17:42:02.497243",
      "2022-11-11T17:42:04.320194",
      "2022-11-11T17:42:06.140486",
      "2022-11-11T17:42:07.965136",
      "2022-11-11T17:42:09.786249",
      "2022-11-11T17:42:11.613613",
      "2022-11-11T17:42:13.442069",
      "2022-11-11T17:42:15.268719"
    ],
    "values": [
      436.6928298062263,
      186.07833528326648,
      122.49287153535464,
      82.25819191533554,
      67.45317500290476,
      60.50820381747628,
      55.60473108289644,
      52.72899396221203,
      52.11193222969014,
      50.64688816684637,
      49.030150431952535,
      47.81701603887444,
      48.03753470181622,
      46.93606304971206,
      46.97849203687501,
      46.58787715461389,
      46.20393761403977,
      45.78527717859191,
      45.535263310804275,
      45.104796116367666,
      45.18915688464608,
      45.16336026014919,
      44.690494731702394,
      45.07394639909446,
      45.51079141510634,
      44.428230158352456,
      44.664273788688526,
      44.68331123793136,
      44.26527145930639,
      43.833744629745816,
      44.11727676419609,
      44.95418835061039,
      43.663114949490826,
      43.73501394050138,
      43.54674352043278,
      43.63977658523114,
      43.638828421788105,
      43.590063685358906,
      43.93753628858417,
      43.348131321611156,
      43.39961998402217,
      43.482973347362005,
      43.43226878453715,
      42.96161593044114,
      43.06521768646196,
      42.910415218131405,
      43.678214852306574,
      43.1654925250141,
      43.09747814225953,
      43.15378429519708,
      43.006572791036774,
      42.99271064078937,
      43.255754644523584,
      43.356386739631155,
      42.8858224416389,
      42.651580134141476,
      42.51917376298011,
      43.66863470226161,
      42.341096944696545,
      42.29959861704524,
      42.39508254071415,
      42.50815446197942,
      42.66577909085525,
      42.97090720730856,
      42.24590930235872,
      42.82593255089999,
      42.487521328798145,
      42.781612119591735,
      41.95813882053043,
      41.78953056840737,
      42.149948515360315,
      41.98587190959847,
      41.59301536461795,
      41.896960152858654,
      41.73478675486662,
      41.48457683327085,
      41.411096955670025,
      41.73894478631722,
      42.04120295215457,
      41.66995308526453,
      41.390844860887206,
      41.72360258827584,
      41.27350665418524,
      41.12444220167894,
      41.74044515704472,
      40.97308645855553,
      40.853440977971616,
      41.09290575072791,
      41.184151957212286,
      40.81692589771241,
      40.59669114646486,
      41.30034058130386,
      40.991973733892536,
      40.61398405957163,
      40.625033526224996,
      40.705612510268644,
      41.586412777701675,
      42.091228872576856,
      40.34403482006455,
      41.2150244392304,
      40.218722837289455,
      40.47301965017337,
      40.34407307524088,
      40.3471302467364,
      40.302266676181304,
      40.067957984664154,
      40.99721631113158,
      40.36429224654715,
      40.45169144747405,
      40.27317899223816,
      40.1117002189704,
      40.34950372356537,
      40.35187316434647,
      40.23433232058673,
      39.961710441142294,
      40.029093955736734,
      40.195762289082204,
      39.914892447685865,
      40.161252842139234,
      39.951142739723686,
      40.027284240888505,
      39.7947244763689,
      40.361172036722536,
      40.320156063567566,
      40.177676069915165,
      40.19047785051963,
      39.925064199388544,
      40.727119673963244,
      39.858859832382166,
      39.71400885543329,
      39.974456390737686,
      39.7620213472171,
      40.07102438263472,
      39.73298458299989,
      39.70433737742531,
      39.65372062691572,
      40.08268794221567,
      39.76059472198202,
      39.55294401679237,
      39.92893193308195,
      40.026465055031856,
      40.28971531137073,
      40.24858873320183,
      40.21704159763211,
      40.34944485701253,
      40.65670746895099,
      40.1168626115766,
      39.626162450547746,
      39.6263085396671,
      39.96940277354166,
      39.75225581862339,
      39.54423475088763,
      39.74118748912032,
      39.25154391734657,
      39.2596272215915,
      39.276426688368865,
      39.58616412295647,
      39.530382355589154,
      39.887101800002995,
      39.57157917938991,
      39.40055565034422,
      39.32213109006908,
      39.47305792332914,
      39.40487340536517,
      39.60415855174867,
      39.973081358846386,
      39.893218507170864,
      39.67844212776354,
      39.59537001164003,
      40.07537886306911,
      39.563630781813295,
      40.244378169687245,
      39.70763057893881,
      39.47384847708451,
      39.37127416510541,
      38.68706249561838,
      38.35037466678588,
      38.33098924199691,
      38.351075161344404,
      38.34706070155859,
      38.351944621971185,
      38.31347980723392,
      38.30639554677761,
      38.3165804085108,
      38.288642692462744,
      38.304488425705316,
      38.30163223037301,
      38.26539747709315,
      38.28801852135172,
      38.300335344028284,
      38.294636415566536,
      38.31749140031419,
      38.28154152696789,
      38.26265030602203,
      38.27965160801342,
      38.2634251450447,
      38.273831644156445,
      38.261485617228224,
      38.2807613963785,
      38.282614675289174,
      38.27701363757043,
      38.25156325135693,
      38.273577881224924,
      38.29023688301552,
      38.285397078564266,
      38.26165765890108,
      38.25059366878505,
      38.27312018640879,
      38.29803067348626,
      38.23154261942617,
      38.25357615012677,
      38.28060537392337,
      38.259960966405885,
      38.24710283016977,
      38.28168279370787,
      38.262777267383974,
      38.2687618523653,
      38.23440001981236,
      38.242756074168675,
      38.25121265251759,
      38.25263499728571,
      38.24936179926538,
      38.2401373738241,
      38.30179808965724,
      38.26004579005285,
      38.30453875684232,
      38.227813115500794,
      38.243477633945254,
      38.26839042631876,
      38.22153480522976,
      38.22655309631348,
      38.231384002416746,
      38.23145314957714,
      38.26873319675591,
      38.28680536108546,
      38.28809767495986,
      38.265134093358405,
      38.232367693803006,
      38.23776227837255,
      38.26972596188131,
      38.23993822336166,
      38.225494936412,
      38.245150571696975,
      38.25034852379021,
      38.255990456254274,
      38.24015048689974,
      38.2404011060626,
      38.22735630900663,
      38.29529206671763,
      38.27050105036807,
      38.23673949947309,
      38.16953463575468,
      38.101238383908196,
      38.09402247154866,
      38.10561333485657,
      38.097829257329934,
      38.10394375098884,
      38.09443171698804,
      38.091906367011816,
      38.09548626210485,
      38.08555715497356,
      38.09259204934616,
      38.086983304917226,
      38.08339102893308,
      38.08929535196446,
      38.09098441256324,
      38.08622117153919,
      38.09000632072527,
      38.09033492666924,
      38.093731341985766,
      38.10341775211082,
      38.093236684955436,
      38.08806504445201,
      38.09244275527289,
      38.10146818729392,
      38.101899805043836,
      38.09858870442357,
      38.10199898048455,
      38.09288743780622,
      38.087800871576505,
      38.09484457569942,
      38.09122908141963,
      38.07344357041142,
      38.06735966474903,
      38.05629747190781,
      38.0723113642464,
      38.070224987563954,
      38.08582871678697,
      38.07153873857037,
      38.08783869170582,
      38.06496178081662,
      38.05777274405322,
      38.08150463906707,
      38.078616463966966,
      38.073529717920586,
      38.07874344922158,
      38.072493150524146,
      38.06779448326731,
      38.07144101633562,
      38.08214079517066,
      38.09022746320765,
      38.07104626002098,
      38.08108940901851,
      38.06490390808089,
      38.07016261759845,
      38.070853473358234,
      38.07072201372566,
      38.059682938253935,
      38.06529733947601,
      38.080399636680795,
      38.0673946841747,
      38.07951557153405,
      38.07702623674825,
      38.06665266076164,
      38.0736186829273,
      38.0790858080143,
      38.082405593111986,
      38.07811837212991,
      38.077330162355494,
      38.06242142009293,
      38.083245881149864,
      38.062426902310996,
      38.067031341489994,
      38.0778270199259,
      38.06092863559579,
      38.07470312274652,
      38.06542790708588,
      38.06679882457305,
      38.066784885594586,
      38.068565585275344,
      38.07224522427387,
      38.069100560760134,
      38.06211427361207,
      38.068843753117854,
      38.062678024494346,
      38.06156806376611,
      38.06773162159324,
      38.06233272424622,
      38.080571574196924,
      38.06660060415787,
      38.06989383336097,
      38.070605443734856,
      38.065472620673084,
      38.062540033556076,
      38.070685982199855,
      38.07851020581364,
      38.06009037946171,
      38.06986255735121,
      38.0785861062339,
      38.07037410311985,
      38.06560479340231,
      38.07104616301203,
      38.06232413314922,
      38.075412747957905,
      38.065920335892386,
      38.07834659037435,
      38.063926317514756,
      38.07512966441631,
      38.06446731751752,
      38.06503656498354,
      38.0549339891773,
      38.073040977225176,
      38.07397760699579,
      38.05923011903759,
      38.06594429069352,
      38.0684445751005,
      38.07694698955497,
      38.07383464687656,
      38.06938136453825,
      38.078811344206144,
      38.071038824470705,
      38.05876958241443,
      38.08053188211594,
      38.06195126945775,
      38.071417393971124,
      38.061411126449464,
      38.075712650628425,
      38.06975324652385,
      38.069669720967404,
      38.06248710770835,
      38.060409002921524,
      38.071711714089346,
      38.06550262903231,
      38.069575177866405,
      38.07117508140245,
      38.070752423363075,
      38.06023240159742,
      38.080920949224215,
      38.07014250460657,
      38.07308326859908,
      38.07360231446431,
      38.07401611040984,
      38.06592092417933,
      38.05167101091059,
      38.076146723379146,
      38.08281968384251,
      38.07973266826437,
      38.07405976823455,
      38.07484577362062,
      38.069318515261635
    ]
  },
  "val": {
    "steps": [
      0,
      1,
      2,
      3,
      4,
      5,
      6,
      7,
      8,
      9,
      10,
      11,
      12,
      13,
      14,
      15,
      16,
      17,
      18,
      19,
      20,
      21,
      22,
      23,
      24,
      25,
      26,
      27,
      28,
      29,
      30,
      31,
      32,
      33,
      34,
      35,
      36,
      37,
      38,
      39,
      40,
      41,
      42,
      43,
      44,
      45,
      46,
      47,
      48,
      49,
      50,
      51,
      52,
      53,
      54,
      55,
      56,
      57,
      58,
      59,
      60,
      61,
      62,
      63,
      64,
      65,
      66,
      67,
      68,
      69,
      70,
      71,
      72,
      73,
      74,
      75,
      76,
      77,
      78,
      79,
      80,
      81,
      82,
      83,
      84,
      85,
      86,
      87,
      88,
      89,
      90,
      91,
      92,
      93,
      94,
      95,
      96,
      97,
      98,
      99,
      100,
      101,
      102,
      103,
      104,
      105,
      106,
      107,
      108,
      109,
      110,
      111,
      112,
      113,
      114,
      115,
      116,
      117,
      118,
      119,
      120,
      121,
      122,
      123,
      124,
      125,
      126,
      127,
      128,
      129,
      130,
      131,
      132,
      133,
      134,
      135,
      136,
      137,
      138,
      139,
      140,
      141,
      142,
      143,
      144,
      145,
      146,
      147,
      148,
      149,
      150,
      151,
      152,
      153,
      154,
      155,
      156,
      157,
      158,
      159,
      160,
      161,
      162,
      163,
      164,
      165,
      166,
      167,
      168,
      169,
      170,
      171,
      172,
      173,
      174,
      175,
      176,
      177,
      178,
      179,
      180,
      181,
      182,
      183,
      184,
      185,
      186,
      187,
      188,
      189,
      190,
      191,
      192,
      193,
      194,
      195,
      196,
      197,
      198,
      199,
      200,
      201,
      202,
      203,
      204,
      205,
      206,
      207,
      208,
      209,
      210,
      211,
      212,
      213,
      214,
      215,
      216,
      217,
      218,
      219,
      220,
      221,
      222,
      223,
      224,
      225,
      226,
      227,
      228,
      229,
      230,
      231,
      232,
      233,
      234,
      235,
      236,
      237,
      238,
      239,
      240,
      241,
      242,
      243,
      244,
      245,
      246,
      247,
      248,
      249,
      250,
      251,
      252,
      253,
      254,
      255,
      256,
      257,
      258,
      259,
      260,
      261,
      262,
      263,
      264,
      265,
      266,
      267,
      268,
      269,
      270,
      271,
      272,
      273,
      274,
      275,
      276,
      277,
      278,
      279,
      280,
      281,
      282,
      283,
      284,
      285,
      286,
      287,
      288,
      289,
      290,
      291,
      292,
      293,
      294,
      295,
      296,
      297,
      298,
      299,
      300,
      301,
      302,
      303,
      304,
      305,
      306,
      307,
      308,
      309,
      310,
      311,
      312,
      313,
      314,
      315,
      316,
      317,
      318,
      319,
      320,
      321,
      322,
      323,
      324,
      325,
      326,
      327,
      328,
      329,
      330,
      331,
      332,
      333,
      334,
      335,
      336,
      337,
      338,
      339,
      340,
      341,
      342,
      343,
      344,
      345,
      346,
      347,
      348,
      349,
      350,
      351,
      352,
      353,
      354,
      355,
      356,
      357,
      358,
      359,
      360,
      361,
      362,
      363,
      364,
      365,
      366,
      367,
      368,
      369,
      370,
      371,
      372,
      373,
      374,
      375,
      376,
      377,
      378,
      379,
      380,
      381,
      382,
      383,
      384,
      385,
      386,
      387,
      388,
      389,
      390,
      391,
      392,
      393,
      394,
      395,
      396,
      397,
      398,
      399
    ],
    "timestamps": [
      "2022-11-11T17:30:06.156723",
      "2022-11-11T17:30:07.986275",
      "2022-11-11T17:30:09.816076",
      "2022-11-11T17:30:11.644281",
      "2022-11-11T17:30:13.469714",
      "2022-11-11T17:30:15.287793",
      "2022-11-11T17:30:17.121461",
      "2022-11-11T17:30:18.945856",
      "2022-11-11T17:30:20.765190",
      "2022-11-11T17:30:22.588018",
      "2022-11-11T17:30:24.438425",
      "2022-11-11T17:30:26.262984",
      "2022-11-11T17:30:28.089953",
      "2022-11-11T17:30:29.914704",
      "2022-11-11T17:30:31.741426",
      "2022-11-11T17:30:33.567576",
      "2022-11-11T17:30:35.391576",
      "2022-11-11T17:30:37.227271",
      "2022-11-11T17:30:39.060933",
      "2022-11-11T17:30:40.889709",
      "2022-11-11T17:30:42.742842",
      "2022-11-11T17:30:44.565442",
      "2022-11-11T17:30:46.430177",
      "2022-11-11T17:30:48.257312",
      "2022-11-11T17:30:50.082402",
      "2022-11-11T17:30:51.909363",
      "2022-11-11T17:30:53.731787",
      "2022-11-11T17:30:55.556559",
      "2022-11-11T17:30:57.383818",
      "2022-11-11T17:30:59.205859",
      "2022-11-11T17:31:01.062969",
      "2022-11-11T17:31:02.889633",
      "2022-11-11T17:31:04.712837",
      "2022-11-11T17:31:06.538404",
      "2022-11-11T17:31:08.367088",
      "2022-11-11T17:31:10.190903",
      "2022-11-11T17:31:12.020545",
      "2022-11-11T17:31:13.847245",
      "2022-11-11T17:31:15.669778",
      "2022-11-11T17:31:17.499717",
      "2022-11-11T17:31:19.354342",
      "2022-11-11T17:31:21.176932",
      "2022-11-11T17:31:23.007494",
      "2022-11-11T17:31:24.831974",
      "2022-11-11T17:31:26.653841",
      "2022-11-11T17:31:28.481502",
      "2022-11-11T17:31:30.306960",
      "2022-11-11T17:31:32.131198",
      "2022-11-11T17:31:33.956925",
      "2022-11-11T17:31:35.778334",
      "2022-11-11T17:31:37.632716",
      "2022-11-11T17:31:39.457559",
      "2022-11-11T17:31:41.280678",
      "2022-11-11T17:31:43.106651",
      "2022-11-11T17:31:44.930447",
      "2022-11-11T17:31:46.755600",
      "2022-11-11T17:31:48.582400",
      "2022-11-11T17:31:50.407231",
      "2022-11-11T17:31:52.235052",
      "2022-11-11T17:31:54.061028",
      "2022-11-11T17:31:55.918395",
      "2022-11-11T17:31:57.745164",
      "2022-11-11T17:31:59.569262",
      "2022-11-11T17:32:01.398486",
      "2022-11-11T17:32:03.224915",
      "2022-11-11T17:32:05.049567",
      "2022-11-11T17:32:06.875042",
      "2022-11-11T17:32:08.698578",
      "2022-11-11T17:32:10.526153",
      "2022-11-11T17:32:12.353360",
      "2022-11-11T17:32:14.204984",
      "2022-11-11T17:32:16.033313",
      "2022-11-11T17:32:17.863897",
      "2022-11-11T17:32:19.684378",
      "2022-11-11T17:32:21.510115",
      "2022-11-11T17:32:23.338290",
      "2022-11-11T17:32:25.159717",
      "2022-11-11T17:32:26.984561",
      "2022-11-11T17:32:28.809652",
      "2022-11-11T17:32:30.630833",
      "2022-11-11T17:32:32.493308",
      "2022-11-11T17:32:34.319701",
      "2022-11-11T17:32:36.140149",
      "2022-11-11T17:32:37.967181",
      "2022-11-11T17:32:39.790349",
      "2022-11-11T17:32:41.613766",
      "2022-11-11T17:32:43.446447",
      "2022-11-11T17:32:45.273682",
      "2022-11-11T17:32:47.104620",
      "2022-11-11T17:32:48.934997",
      "2022-11-11T17:32:50.793686",
      "2022-11-11T17:32:52.622058",
      "2022-11-11T17:32:54.446816",
      "2022-11-11T17:32:56.269023",
      "2022-11-11T17:32:58.093167",
      "2022-11-11T17:32:59.917870",
      "2022-11-11T17:33:01.744883",
      "2022-11-11T17:33:03.568864",
      "2022-11-11T17:33:05.392153",
      "2022-11-11T17:33:07.213607",
      "2022-11-11T17:33:09.067131",
      "2022-11-11T17:33:10.897294",
      "2022-11-11T17:33:12.722193",
      "2022-11-11T17:33:14.546318",
      "2022-11-11T17:33:16.370613",
      "2022-11-11T17:33:18.195485",
      "2022-11-11T17:33:20.020267",
      "2022-11-11T17:33:21.848372",
      "2022-11-11T17:33:23.671792",
      "2022-11-11T17:33:25.495445",
      "2022-11-11T17:33:27.349274",
      "2022-11-11T17:33:29.171372",
      "2022-11-11T17:33:30.993490",
      "2022-11-11T17:33:32.819899",
      "2022-11-11T17:33:34.642837",
      "2022-11-11T17:33:36.466444",
      "2022-11-11T17:33:38.294663",
      "2022-11-11T17:33:40.116473",
      "2022-11-11T17:33:41.946572",
      "2022-11-11T17:33:43.772803",
      "2022-11-11T17:33:45.627203",
      "2022-11-11T17:33:47.457291",
      "2022-11-11T17:33:49.282577",
      "2022-11-11T17:33:51.106129",
      "2022-11-11T17:33:52.936271",
      "2022-11-11T17:33:54.761044",
      "2022-11-11T17:33:56.585605",
      "2022-11-11T17:33:58.414040",
      "2022-11-11T17:34:00.238250",
      "2022-11-11T17:34:02.066257",
      "2022-11-11T17:34:03.925777",
      "2022-11-11T17:34:05.747386",
      "2022-11-11T17:34:07.574704",
      "2022-11-11T17:34:09.400177",
      "2022-11-11T17:34:11.228039",
      "2022-11-11T17:34:13.059293",
      "2022-11-11T17:34:14.881444",
      "2022-11-11T17:34:16.707135",
      "2022-11-11T17:34:18.532180",
      "2022-11-11T17:34:20.354826",
      "2022-11-11T17:34:22.208746",
      "2022-11-11T17:34:24.032376",
      "2022-11-11T17:34:25.854739",
      "2022-11-11T17:34:27.677151",
      "2022-11-11T17:34:29.501415",
      "2022-11-11T17:34:31.324741",
      "2022-11-11T17:34:33.146783",
      "2022-11-11T17:34:34.970755",
      "2022-11-11T17:34:36.793166",
      "2022-11-11T17:34:38.615603",
      "2022-11-11T17:34:40.467139",
      "2022-11-11T17:34:42.294614",
      "2022-11-11T17:34:44.115080",
      "2022-11-11T17:34:45.937613",
      "2022-11-11T17:34:47.759293",
      "2022-11-11T17:34:49.578564",
      "2022-11-11T17:34:51.403786",
      "2022-11-11T17:34:53.227079",
      "2022-11-11T17:34:55.050308",
      "2022-11-11T17:34:56.874058",
      "2022-11-11T17:34:58.726784",
      "2022-11-11T17:35:00.547124",
      "2022-11-11T17:35:02.378342",
      "2022-11-11T17:35:04.199648",
      "2022-11-11T17:35:06.022774",
      "2022-11-11T17:35:07.848626",
      "2022-11-11T17:35:09.668176",
      "2022-11-11T17:35:11.495356",
      "2022-11-11T17:35:13.321414",
      "2022-11-11T17:35:15.142289",
      "2022-11-11T17:35:16.996510",
      "2022-11-11T17:35:18.822203",
      "2022-11-11T17:35:20.640290",
      "2022-11-11T17:35:22.469686",
      "2022-11-11T17:35:24.291500",
      "2022-11-11T17:35:26.115879",
      "2022-11-11T17:35:27.941676",
      "2022-11-11T17:35:29.761129",
      "2022-11-11T17:35:31.583610",
      "2022-11-11T17:35:33.408496",
      "2022-11-11T17:35:35.259357",
      "2022-11-11T17:35:37.080792",
      "2022-11-11T17:35:38.905842",
      "2022-11-11T17:35:40.724060",
      "2022-11-11T17:35:42.549836",
      "2022-11-11T17:35:44.374417",
      "2022-11-11T17:35:46.192895",
      "2022-11-11T17:35:48.019612",
      "2022-11-11T17:35:49.840981",
      "2022-11-11T17:35:51.672333",
      "2022-11-11T17:35:53.524045",
      "2022-11-11T17:35:55.346030",
      "2022-11-11T17:35:57.169596",
      "2022-11-11T17:35:58.994103",
      "2022-11-11T17:36:00.815547",
      "2022-11-11T17:36:02.641176",
      "2022-11-11T17:36:04.462944",
      "2022-11-11T17:36:06.283269",
      "2022-11-11T17:36:08.106882",
      "2022-11-11T17:36:09.927435",
      "2022-11-11T17:36:11.781372",
      "2022-11-11T17:36:13.601282",
      "2022-11-11T17:36:15.424230",
      "2022-11-11T17:36:17.248785",
      "2022-11-11T17:36:19.074066",
      "2022-11-11T17:36:20.898391",
      "2022-11-11T17:36:22.721612",
      "2022-11-11T17:36:24.543625",
      "2022-11-11T17:36:26.366027",
      "2022-11-11T17:36:28.189669",
      "2022-11-11T17:36:30.042313",
      "2022-11-11T17:36:31.870612",
      "2022-11-11T17:36:33.691370",
      "2022-11-11T17:36:35.515623",
      "2022-11-11T17:36:37.340458",
      "2022-11-11T17:36:39.158130",
      "2022-11-11T17:36:40.983353",
      "2022-11-11T17:36:42.805512",
      "2022-11-11T17:36:44.624438",
      "2022-11-11T17:36:46.445788",
      "2022-11-11T17:36:48.301768",
      "2022-11-11T17:36:50.120356",
      "2022-11-11T17:36:51.945113",
      "2022-11-11T17:36:53.766991",
      "2022-11-11T17:36:55.586209",
      "2022-11-11T17:36:57.411117",
      "2022-11-11T17:36:59.234258",
      "2022-11-11T17:37:01.057063",
      "2022-11-11T17:37:02.887841",
      "2022-11-11T17:37:04.707717",
      "2022-11-11T17:37:06.562331",
      "2022-11-11T17:37:08.388934",
      "2022-11-11T17:37:10.209581",
      "2022-11-11T17:37:12.043120",
      "2022-11-11T17:37:13.869047",
      "2022-11-11T17:37:15.694902",
      "2022-11-11T17:37:17.524282",
      "2022-11-11T17:37:19.348870",
      "2022-11-11T17:37:21.168907",
      "2022-11-11T17:37:22.995988",
      "2022-11-11T17:37:24.846145",
      "2022-11-11T17:37:26.668882",
      "2022-11-11T17:37:28.492987",
      "2022-11-11T17:37:30.314084",
      "2022-11-11T17:37:32.137198",
      "2022-11-11T17:37:33.959594",
      "2022-11-11T17:37:35.779310",
      "2022-11-11T17:37:37.601408",
      "2022-11-11T17:37:39.422325",
      "2022-11-11T17:37:41.244534",
      "2022-11-11T17:37:43.099038",
      "2022-11-11T17:37:44.925401",
      "2022-11-11T17:37:46.750375",
      "2022-11-11T17:37:48.576069",
      "2022-11-11T17:37:50.402429",
      "2022-11-11T17:37:52.229823",
      "2022-11-11T17:37:54.054132",
      "2022-11-11T17:37:55.879850",
      "2022-11-11T17:37:57.702519",
      "2022-11-11T17:37:59.526819",
      "2022-11-11T17:38:01.380656",
      "2022-11-11T17:38:03.204673",
      "2022-11-11T17:38:05.028463",
      "2022-11-11T17:38:06.853868",
      "2022-11-11T17:38:08.676851",
      "2022-11-11T17:38:10.502631",
      "2022-11-11T17:38:12.331204",
      "2022-11-11T17:38:14.156070",
      "2022-11-11T17:38:15.981687",
      "2022-11-11T17:38:17.809353",
      "2022-11-11T17:38:19.664697",
      "2022-11-11T17:38:21.490354",
      "2022-11-11T17:38:23.316899",
      "2022-11-11T17:38:25.133552",
      "2022-11-11T17:38:26.958723",
      "2022-11-11T17:38:28.780667",
      "2022-11-11T17:38:30.600889",
      "2022-11-11T17:38:32.434385",
      "2022-11-11T17:38:34.259165",
      "2022-11-11T17:38:36.080932",
      "2022-11-11T17:38:37.935965",
      "2022-11-11T17:38:39.756078",
      "2022-11-11T17:38:41.581911",
      "2022-11-11T17:38:43.408139",
      "2022-11-11T17:38:45.228595",
      "2022-11-11T17:38:47.056121",
      "2022-11-11T17:38:48.885325",
      "2022-11-11T17:38:50.706975",
      "2022-11-11T17:38:52.536446",
      "2022-11-11T17:38:54.358728",
      "2022-11-11T17:38:56.207873",
      "2022-11-11T17:38:58.032243",
      "2022-11-11T17:38:59.852676",
      "2022-11-11T17:39:01.673838",
      "2022-11-11T17:39:03.496692",
      "2022-11-11T17:39:05.319458",
      "2022-11-11T17:39:07.140383",
      "2022-11-11T17:39:08.966854",
      "2022-11-11T17:39:10.790327",
      "2022-11-11T17:39:12.615413",
      "2022-11-11T17:39:14.468991",
      "2022-11-11T17:39:16.291478",
      "2022-11-11T17:39:18.117341",
      "2022-11-11T17:39:19.938951",
      "2022-11-11T17:39:21.766200",
      "2022-11-11T17:39:23.586389",
      "2022-11-11T17:39:25.410755",
      "2022-11-11T17:39:27.234636",
      "2022-11-11T17:39:29.059784",
      "2022-11-11T17:39:30.883288",
      "2022-11-11T17:39:32.735376",
      "2022-11-11T17:39:34.556857",
      "2022-11-11T17:39:36.380713",
      "2022-11-11T17:39:38.202316",
      "2022-11-11T17:39:40.024679",
      "2022-11-11T17:39:41.849216",
      "2022-11-11T17:39:43.670289",
      "2022-11-11T17:39:45.492743",
      "2022-11-11T17:39:47.321212",
      "2022-11-11T17:39:49.144373",
      "2022-11-11T17:39:51.002337",
      "2022-11-11T17:39:52.830691",
      "2022-11-11T17:39:54.651209",
      "2022-11-11T17:39:56.475153",
      "2022-11-11T17:39:58.302387",
      "2022-11-11T17:40:00.122961",
      "2022-11-11T17:40:01.949557",
      "2022-11-11T17:40:03.772349",
      "2022-11-11T17:40:05.590022",
      "2022-11-11T17:40:07.414845",
      "2022-11-11T17:40:09.266352",
      "2022-11-11T17:40:11.094195",
      "2022-11-11T17:40:12.922876",
      "2022-11-11T17:40:14.744479",
      "2022-11-11T17:40:16.566777",
      "2022-11-11T17:40:18.397036",
      "2022-11-11T17:40:20.216721",
      "2022-11-11T17:40:22.047993",
      "2022-11-11T17:40:23.873281",
      "2022-11-11T17:40:25.692678",
      "2022-11-11T17:40:27.551583",
      "2022-11-11T17:40:29.379175",
      "2022-11-11T17:40:31.203473",
      "2022-11-11T17:40:33.031887",
      "2022-11-11T17:40:34.855834",
      "2022-11-11T17:40:36.676726",
      "2022-11-11T17:40:38.503726",
      "2022-11-11T17:40:40.328152",
      "2022-11-11T17:40:42.156659",
      "2022-11-11T17:40:43.984202",
      "2022-11-11T17:40:45.837544",
      "2022-11-11T17:40:47.661997",
      "2022-11-11T17:40:49.488601",
      "2022-11-11T17:40:51.318306",
      "2022-11-11T17:40:53.142998",
      "2022-11-11T17:40:54.966732",
      "2022-11-11T17:40:56.791398",
      "2022-11-11T17:40:58.614496",
      "2022-11-11T17:41:00.440052",
      "2022-11-11T17:41:02.269985",
      "2022-11-11T17:41:04.121277",
      "2022-11-11T17:41:05.946499",
      "2022-11-11T17:41:07.771888",
      "2022-11-11T17:41:09.593638",
      "2022-11-11T17:41:11.432271",
      "2022-11-11T17:41:13.260450",
      "2022-11-11T17:41:15.083567",
      "2022-11-11T17:41:16.911694",
      "2022-11-11T17:41:18.745325",
      "2022-11-11T17:41:20.568311",
      "2022-11-11T17:41:22.431102",
      "2022-11-11T17:41:24.254130",
      "2022-11-11T17:41:26.078653",
      "2022-11-11T17:41:27.906149",
      "2022-11-11T17:41:29.729261",
      "2022-11-11T17:41:31.555944",
      "2022-11-11T17:41:33.382987",
      "2022-11-11T17:41:35.202301",
      "2022-11-11T17:41:37.028569",
      "2022-11-11T17:41:38.855154",
      "2022-11-11T17:41:40.707588",
      "2022-11-11T17:41:42.536440",
      "2022-11-11T17:41:44.361072",
      "2022-11-11T17:41:46.179869",
      "2022-11-11T17:41:48.005336",
      "2022-11-11T17:41:49.830311",
      "2022-11-11T17:41:51.654594",
      "2022-11-11T17:41:53.479877",
      "2022-11-11T17:41:55.301579",
      "2022-11-11T17:41:57.123573",
      "2022-11-11T17:41:58.977896",
      "2022-11-11T17:42:00.799941",
      "2022-11-11T17:42:02.625516",
      "2022-11-11T17:42:04.448885",
      "2022-11-11T17:42:06.270030",
      "2022-11-11T17:42:08.093652",
      "2022-11-11T17:42:09.917162",
      "2022-11-11T17:42:11.744180",
      "2022-11-11T17:42:13.570356",
      "2022-11-11T17:42:15.399332"
    ],
    "values": [
      204.2430243045447,
      157.8200501946974,
      97.14219170953962,
      74.08793481009948,
      62.128283413861006,
      56.848760704330445,
      52.89982423089998,
      51.29932737536559,
      51.60036090359847,
      48.69369111294514,
      48.288941218303336,
      47.890823194919136,
      46.875560090592174,
      46.31481146288901,
      46.75651013447581,
      45.766390545621476,
      45.2444038300896,
      45.811158300947554,
      45.09073708668811,
      44.7166015634614,
      45.03062572658733,
      44.3727869299161,
      44.38861627754382,
      44.24498700032835,
      44.11722439826412,
      44.011575858206456,
      45.12046091869546,
      44.52461668256167,
      43.594288492877254,
      43.41437344891219,
      43.77544896068157,
      44.19997369105621,
      43.55354208327302,
      43.371365788381084,
      42.991122440114005,
      43.26991408673453,
      43.151359622450016,
      43.503087580070684,
      43.184548546623525,
      43.127626872391765,
      42.99642854112524,
      42.87643037755527,
      42.62363677459932,
      42.68411089263436,
      42.4848325281491,
      42.47220619098946,
      43.99197905975277,
      42.7822793584013,
      42.42372825593118,
      42.402680892271334,
      42.438002367696996,
      42.67556502315234,
      42.98792421377809,
      42.453719832885255,
      42.020260663674954,
      42.15930109904208,
      42.701110191542625,
      42.2194361431039,
      41.88222598454428,
      42.11015105559952,
      41.951337552778206,
      42.17372469820445,
      42.06055175706413,
      42.089711909925256,
      42.15242596867408,
      41.84069234275705,
      41.48041852926788,
      42.239043116139996,
      41.412475445078535,
      41.459173138352426,
      41.32148748662077,
      41.648167306515475,
      41.192096118686024,
      40.947312753566244,
      41.2950759185436,
      40.90863680422265,
      41.20797789956011,
      41.39627755438609,
      41.10042779079124,
      41.119217505603665,
      40.94186279887983,
      40.606689043266,
      40.76931653540566,
      40.88765894762786,
      40.52421512696314,
      40.809015823882454,
      40.582419008569794,
      40.60734705720455,
      40.507687369689535,
      40.203324650213474,
      40.154480559781284,
      40.27345832351806,
      40.375063101172096,
      40.28828445630865,
      40.120293773943374,
      39.8485215889946,
      41.031095739055644,
      39.81830841220159,
      39.817477889439736,
      39.58156546619073,
      39.54098516324292,
      39.898180374815084,
      40.12899473529097,
      39.96181247490314,
      39.53829290631623,
      39.96403485318076,
      40.55262362180487,
      39.678693297026676,
      39.845061868959206,
      39.44656475819052,
      39.39130015296497,
      40.04921715882314,
      39.61401288316394,
      39.365424606567046,
      39.47731043381532,
      39.574354221006494,
      39.350489298258296,
      39.59484595829203,
      39.71341298330192,
      39.30463686811511,
      39.54585498564977,
      39.91815626348373,
      39.71519672070202,
      39.390808986678465,
      39.56797117201572,
      40.2055914839896,
      39.27022422361242,
      39.74879150136818,
      39.090296729491875,
      39.190479523994284,
      39.34301691266101,
      39.970274425428116,
      39.312742993147126,
      39.71228666767805,
      39.3786239698437,
      39.41945334193187,
      39.22040251526927,
      39.08269067262593,
      38.9622761276383,
      39.546634558421296,
      39.6977677996985,
      39.886167371761246,
      39.23900104999781,
      39.90791669552151,
      39.3046548054668,
      39.61210562027701,
      39.27956607672225,
      39.1828750090359,
      39.30021144831166,
      39.41585998972057,
      39.315242453449336,
      39.57113153084497,
      39.224963485606644,
      39.215425326492515,
      38.994330393595206,
      39.25086062798924,
      39.08380380544851,
      39.63632744462381,
      39.12155212419808,
      39.17848049069888,
      39.23778097668023,
      39.017923777503356,
      38.812131024770665,
      39.19582217245174,
      39.08198972616985,
      39.35531995911185,
      39.068411494934836,
      39.07632753108123,
      39.431044512527855,
      39.077502957301355,
      39.15926900400455,
      39.48030298696813,
      39.01746833145888,
      39.099336782235625,
      39.11766992373702,
      38.250340716129564,
      38.25397253245613,
      38.24185483825774,
      38.237796976764756,
      38.18671824892973,
      38.19519661120631,
      38.198629542807005,
      38.24609218067029,
      38.198655469054714,
      38.17780327885793,
      38.224173717223294,
      38.18612763437689,
      38.18147548380893,
      38.16615050243973,
      38.17731910931591,
      38.186188037639056,
      38.122025019108364,
      38.169146395823624,
      38.13439685798812,
      38.16639927145353,
      38.17654109524992,
      38.16301442256664,
      38.167764649064395,
      38.22628360607503,
      38.095103047269305,
      38.1896933130039,
      38.18079318372241,
      38.15931788703407,
      38.161960457137596,
      38.165701522280365,
      38.12044405654301,
      38.160539471314664,
      38.20492344985806,
      38.18787053274687,
      38.1785268344673,
      38.24120672345299,
      38.12313106768413,
      38.12388787531755,
      38.165777155201695,
      38.18628806447881,
      38.184281053388794,
      38.21619590545116,
      38.16140118866773,
      38.10538434673429,
      38.15562504804488,
      38.236774106500874,
      38.17397697983266,
      38.12862635520882,
      38.20457108526979,
      38.24065309549865,
      38.15953374303469,
      38.13501420425746,
      38.182516834303804,
      38.117244868736464,
      38.098569887139476,
      38.116757194078545,
      38.12024599470429,
      38.07814434834944,
      38.12013635426398,
      38.228447169167154,
      38.15799939719927,
      38.15151341459759,
      38.1623347387804,
      38.116123901119025,
      38.13647349052402,
      38.10291823931384,
      38.127805684932575,
      38.19985653121258,
      38.15754071869809,
      38.14130266104442,
      38.1140890211709,
      38.23863427722564,
      38.25132719712756,
      38.16439685986292,
      38.15080738269296,
      38.12877802247513,
      38.05338761775941,
      38.03710598934666,
      38.05483719005495,
      38.00748447917607,
      38.01222031894792,
      38.018912524186916,
      38.01283939450063,
      38.00573940337508,
      37.98843194292545,
      37.99029341018589,
      38.01771692896112,
      38.01263805701565,
      38.000275722170656,
      37.998367753306255,
      38.00899536271622,
      38.00304159099581,
      38.00075012973902,
      37.987176168032434,
      38.01239786493257,
      37.99767232896019,
      38.005264724734815,
      38.04261817500271,
      38.007321740880336,
      38.008691465498536,
      37.994105769662404,
      38.00520344194686,
      38.02545556369858,
      38.00221418822734,
      38.01854754627268,
      38.026920143787734,
      38.01114653210285,
      37.98047187914681,
      38.013539492595996,
      37.998585082306924,
      38.01657714127414,
      37.98030001613695,
      38.00564513382221,
      37.99186496185187,
      38.0013797113578,
      37.98254906294211,
      38.00337275179615,
      38.00905756877644,
      38.01126912843998,
      37.98000899597852,
      38.00616459609252,
      37.997013606577354,
      38.02629779141552,
      38.000496021720004,
      38.01432977525384,
      37.99399425137919,
      37.984552909596786,
      37.983168629045295,
      37.98501471092171,
      37.99921557712385,
      37.98640263968217,
      37.98591966635523,
      38.01092470320111,
      37.962893391170056,
      37.98600486809289,
      37.987371841681885,
      37.99545678971486,
      37.98520110276787,
      37.9859060952302,
      38.02404011725911,
      38.004772019066095,
      37.99220747874324,
      38.00201429051842,
      37.98903851433048,
      37.99119159566559,
      37.99636192852618,
      37.98730688486462,
      38.017381225611175,
      38.00104802067849,
      37.958162877915655,
      38.00450669261159,
      37.984106222125426,
      37.99104941951224,
      38.010547399842025,
      38.01547560202876,
      38.00590561896463,
      38.00609537338272,
      38.01084004365054,
      37.989992236149305,
      37.96740432499139,
      38.00605627854416,
      37.99497045041396,
      37.9948384577669,
      37.959345562632116,
      38.009058081552816,
      37.992792342083725,
      37.9894201217904,
      38.00125369100832,
      38.00199983929475,
      38.00925878505406,
      37.99155778375357,
      37.98464007176916,
      38.01901977715305,
      37.99430256228608,
      38.00409422386273,
      38.011745165501864,
      37.976339116345464,
      37.99679082034042,
      38.02590227866302,
      37.98996156400888,
      38.008566544901996,
      38.0114408253171,
      37.99205449767871,
      38.00605607695567,
      38.005898401740126,
      38.00454121545474,
      38.00365680345158,
      37.992278805420355,
      38.00224232691621,
      37.99177665981496,
      37.99575208370377,
      37.98725304878065,
      38.00457820206719,
      37.99993391665672,
      38.007091576103946,
      38.009657693565345,
      38.00675350602445,
      37.99221773605653,
      38.00137247215793,
      37.98860710677847,
      38.01474109970423,
      37.990134615186605,
      38.00427006741017,
      37.98963291210163,
      38.01851466611674,
      37.98885724937637,
      37.99859696808884,
      37.99435747960594,
      37.99708084883173,
      37.99067832205659,
      38.00436564069689,
      38.01038411317083,
      37.97584289034857,
      38.0021954035936,
      37.98582771586693,
      37.98192634612651,
      37.98824054532081,
      37.98331387435331,
      37.9816991909441,
      37.993362912653446,
      37.994175199613565,
      37.99312200592153,
      38.004332148586954,
      38.02083656290641,
      37.98434899239443
    ]
  }
}