{
  "memory.usage": {
    "steps": [
      0,
      1,
      2,
      3,
      4,
      5,
      6,
      7,
      8,
      9,
      10,
      11,
      12,
      13,
      14,
      15,
      16,
      17,
      18,
      19,
      20,
      21,
      22,
      23,
      24,
      25,
      26,
      27,
      28,
      29,
      30,
      31,
      32,
      33,
      34,
      35,
      36,
      37,
      38,
      39,
      40,
      41,
      42,
      43,
      44,
      45,
      46,
      47,
      48,
      49,
      50,
      51,
      52,
      53,
      54,
      55,
      56,
      57,
      58,
      59,
      60
    ],
    "timestamps": [
      "2022-12-25T09:06:52.537748",
      "2022-12-25T09:07:44.202037",
      "2022-12-25T09:08:41.486220",
      "2022-12-25T09:09:39.259661",
      "2022-12-25T09:10:36.532460",
      "2022-12-25T09:11:33.818145",
      "2022-12-25T09:12:31.072075",
      "2022-12-25T09:13:28.434038",
      "2022-12-25T09:14:25.716804",
      "2022-12-25T09:15:23.067604",
      "2022-12-25T09:16:20.383370",
      "2022-12-25T09:17:17.707359",
      "2022-12-25T09:18:15.029371",
      "2022-12-25T09:19:12.316743",
      "2022-12-25T09:20:09.584529",
      "2022-12-25T09:21:06.881230",
      "2022-12-25T09:22:04.230915",
      "2022-12-25T09:23:01.545595",
      "2022-12-25T09:23:58.770976",
      "2022-12-25T09:24:56.044922",
      "2022-12-25T09:25:53.386663",
      "2022-12-25T09:26:50.749301",
      "2022-12-25T09:27:48.066926",
      "2022-12-25T09:28:45.351442",
      "2022-12-25T09:29:42.665792",
      "2022-12-25T09:30:39.946470",
      "2022-12-25T09:31:37.187931",
      "2022-12-25T09:32:34.506812",
      "2022-12-25T09:33:31.863315",
      "2022-12-25T09:34:29.140643",
      "2022-12-25T09:35:26.411903",
      "2022-12-25T09:36:23.763353",
      "2022-12-25T09:37:21.086645",
      "2022-12-25T09:38:18.420214",
      "2022-12-25T09:39:15.695493",
      "2022-12-25T09:40:13.062018",
      "2022-12-25T09:41:10.342013",
      "2022-12-25T09:42:07.599628",
      "2022-12-25T09:43:04.923256",
      "2022-12-25T09:44:02.256905",
      "2022-12-25T09:44:59.579665",
      "2022-12-25T09:45:56.873245",
      "2022-12-25T09:46:54.226340",
      "2022-12-25T09:47:51.593951",
      "2022-12-25T09:48:48.876439",
      "2022-12-25T09:49:46.169142",
      "2022-12-25T09:50:43.498006",
      "2022-12-25T09:51:40.832411",
      "2022-12-25T09:52:38.158681",
      "2022-12-25T09:53:35.475706",
      "2022-12-25T09:54:32.828820",
      "2022-12-25T09:55:30.125186",
      "2022-12-25T09:56:27.365923",
      "2022-12-25T09:57:24.724243",
      "2022-12-25T09:58:22.033694",
      "2022-12-25T09:59:19.343133",
      "2022-12-25T10:00:16.590826",
      "2022-12-25T10:01:13.916069",
      "2022-12-25T10:02:11.221895",
      "2022-12-25T10:03:08.545066",
      "2022-12-25T10:04:05.895582"
    ],
    "values": [
      131.237376,
      131.237376,
      131.237376,
      131.237376,
      131.237376,
      131.237376,
      131.237376,
      131.237376,
      131.237376,
      131.237376,
      131.237376,
      131.237376,
      131.237376,
      131.237376,
      131.237376,
      131.237376,
      131.237376,
      131.237376,
      131.237376,
      131.237376,
      131.237376,
      131.237376,
      131.237376,
      131.237376,
      131.237376,
      131.237376,
      131.237376,
      131.237376,
      131.237376,
      131.237376,
      131.237376,
      131.237376,
      131.237376,
      131.237376,
      131.237376,
      131.237376,
      131.237376,
      131.237376,
      131.237376,
      131.237376,
      131.237376,
      131.237376,
      131.237376,
      131.237376,
      131.237376,
      131.237376,
      131.237376,
      131.237376,
      131.237376,
      131.237376,
      131.237376,
      131.237376,
      131.237376,
      131.237376,
      131.237376,
      131.237376,
      131.237376,
      131.237376,
      131.237376,
      131.237376,
      131.237376
    ]
  },
  "train": {
    "steps": [
      0,
      1,
      2,
      3,
      4,
      5,
      6,
      7,
      8,
      9,
      10,
      11,
      12,
      13,
      14,
      15,
      16,
      17,
      18,
      19,
      20,
      21,
      22,
      23,
      24,
      25,
      26,
      27,
      28,
      29,
      30,
      31,
      32,
      33,
      34,
      35,
      36,
      37,
      38,
      39,
      40,
      41,
      42,
      43,
      44,
      45,
      46,
      47,
      48,
      49,
      50,
      51,
      52,
      53,
      54,
      55,
      56,
      57,
      58,
      59,
      60,
      61,
      62,
      63,
      64,
      65,
      66,
      67,
      68,
      69,
      70,
      71,
      72,
      73,
      74,
      75,
      76,
      77,
      78,
      79,
      80,
      81,
      82,
      83,
      84,
      85,
      86,
      87,
      88,
      89,
      90,
      91,
      92,
      93,
      94,
      95,
      96,
      97,
      98,
      99,
      100,
      101,
      102,
      103,
      104,
      105,
      106,
      107,
      108,
      109,
      110,
      111,
      112,
      113,
      114,
      115,
      116,
      117,
      118,
      119,
      120,
      121,
      122,
      123,
      124,
      125,
      126,
      127,
      128,
      129,
      130,
      131,
      132,
      133,
      134,
      135,
      136,
      137,
      138,
      139,
      140,
      141,
      142,
      143,
      144,
      145,
      146,
      147,
      148,
      149,
      150,
      151,
      152,
      153,
      154,
      155,
      156,
      157,
      158,
      159,
      160,
      161,
      162,
      163,
      164,
      165,
      166,
      167,
      168,
      169,
      170,
      171,
      172,
      173,
      174,
      175,
      176,
      177,
      178,
      179,
      180,
      181,
      182,
      183,
      184,
      185,
      186,
      187,
      188,
      189,
      190,
      191,
      192,
      193,
      194,
      195,
      196,
      197,
      198,
      199,
      200,
      201,
      202,
      203,
      204,
      205,
      206,
      207,
      208,
      209,
      210,
      211,
      212,
      213,
      214,
      215,
      216,
      217,
      218,
      219,
      220,
      221,
      222,
      223,
      224,
      225,
      226,
      227,
      228,
      229,
      230,
      231,
      232,
      233,
      234,
      235,
      236,
      237,
      238,
      239,
      240,
      241,
      242,
      243,
      244,
      245,
      246,
      247,
      248,
      249,
      250,
      251,
      252,
      253,
      254,
      255,
      256,
      257,
      258,
      259,
      260,
      261,
      262,
      263,
      264,
      265,
      266,
      267,
      268,
      269,
      270,
      271,
      272,
      273,
      274,
      275,
      276,
      277,
      278,
      279,
      280,
      281,
      282,
      283,
      284,
      285,
      286,
      287,
      288,
      289,
      290,
      291,
      292,
      293,
      294,
      295,
      296,
      297,
      298,
      299,
      300,
      301,
      302,
      303,
      304,
      305,
      306,
      307,
      308,
      309,
      310,
      311,
      312,
      313,
      314,
      315,
      316,
      317,
      318,
      319,
      320,
      321,
      322,
      323,
      324,
      325,
      326,
      327,
      328,
      329,
      330,
      331,
      332,
      333,
      334,
      335,
      336,
      337,
      338,
      339,
      340,
      341,
      342,
      343,
      344,
      345,
      346,
      347,
      348,
      349,
      350,
      351,
      352,
      353,
      354,
      355,
      356,
      357,
      358,
      359,
      360,
      361,
      362,
      363,
      364,
      365,
      366,
      367,
      368,
      369,
      370,
      371,
      372,
      373,
      374,
      375,
      376,
      377,
      378,
      379,
      380,
      381,
      382,
      383,
      384,
      385,
      386,
      387,
      388,
      389,
      390,
      391,
      392,
      393,
      394,
      395,
      396,
      397,
      398,
      399,
      400,
      401,
      402,
      403,
      404,
      405,
      406,
      407,
      408,
      409,
      410,
      411,
      412,
      413,
      414,
      415,
      416,
      417,
      418,
      419,
      420,
      421,
      422,
      423,
      424,
      425,
      426,
      427,
      428,
      429,
      430,
      431,
      432,
      433,
      434,
      435,
      436,
      437,
      438,
      439,
      440,
      441,
      442,
      443,
      444,
      445,
      446,
      447,
      448,
      449,
      450,
      451,
      452,
      453,
      454,
      455,
      456,
      457,
      458,
      459,
      460,
      461,
      462,
      463,
      464,
      465,
      466,
      467,
      468,
      469,
      470,
      471,
      472,
      473,
      474,
      475,
      476,
      477,
      478,
      479,
      480,
      481,
      482,
      483,
      484,
      485,
      486,
      487,
      488,
      489,
      490,
      491,
      492,
      493,
      494,
      495,
      496,
      497,
      498,
      499,
      500,
      501,
      502,
      503,
      504,
      505,
      506,
      507,
      508,
      509,
      510,
      511,
      512,
      513,
      514,
      515,
      516,
      517,
      518,
      519,
      520,
      521,
      522,
      523,
      524,
      525,
      526,
      527,
      528,
      529,
      530,
      531,
      532,
      533,
      534,
      535,
      536,
      537,
      538,
      539,
      540,
      541,
      542,
      543,
      544,
      545,
      546,
      547,
      548,
      549,
      550,
      551,
      552,
      553,
      554,
      555,
      556,
      557,
      558,
      559,
      560,
      561,
      562,
      563,
      564,
      565,
      566,
      567,
      568,
      569,
      570,
      571,
      572,
      573,
      574,
      575,
      576,
      577,
      578,
      579,
      580,
      581,
      582,
      583,
      584,
      585,
      586,
      587,
      588,
      589,
      590,
      591,
      592,
      593,
      594,
      595,
      596,
      597,
      598,
      599
    ],
    "timestamps": [
      "2022-12-25T09:06:52.537618",
      "2022-12-25T09:06:58.289674",
      "2022-12-25T09:07:04.082167",
      "2022-12-25T09:07:09.803891",
      "2022-12-25T09:07:15.544509",
      "2022-12-25T09:07:21.264106",
      "2022-12-25T09:07:27.012550",
      "2022-12-25T09:07:32.751731",
      "2022-12-25T09:07:38.491981",
      "2022-12-25T09:07:44.201923",
      "2022-12-25T09:07:49.954053",
      "2022-12-25T09:07:55.636394",
      "2022-12-25T09:08:01.400399",
      "2022-12-25T09:08:07.124186",
      "2022-12-25T09:08:12.874747",
      "2022-12-25T09:08:18.587855",
      "2022-12-25T09:08:24.327750",
      "2022-12-25T09:08:30.040757",
      "2022-12-25T09:08:35.777811",
      "2022-12-25T09:08:41.486106",
      "2022-12-25T09:08:47.236691",
      "2022-12-25T09:08:52.956268",
      "2022-12-25T09:08:58.707389",
      "2022-12-25T09:09:04.421051",
      "2022-12-25T09:09:10.169921",
      "2022-12-25T09:09:15.841712",
      "2022-12-25T09:09:21.577534",
      "2022-12-25T09:09:27.301171",
      "2022-12-25T09:09:33.460128",
      "2022-12-25T09:09:39.259493",
      "2022-12-25T09:09:45.002382",
      "2022-12-25T09:09:50.722204",
      "2022-12-25T09:09:56.469370",
      "2022-12-25T09:10:02.191216",
      "2022-12-25T09:10:07.933324",
      "2022-12-25T09:10:13.664597",
      "2022-12-25T09:10:19.408425",
      "2022-12-25T09:10:25.085705",
      "2022-12-25T09:10:30.850780",
      "2022-12-25T09:10:36.532270",
      "2022-12-25T09:10:42.286340",
      "2022-12-25T09:10:48.008677",
      "2022-12-25T09:10:53.740224",
      "2022-12-25T09:10:59.455286",
      "2022-12-25T09:11:05.190630",
      "2022-12-25T09:11:10.902217",
      "2022-12-25T09:11:16.646037",
      "2022-12-25T09:11:22.369980",
      "2022-12-25T09:11:28.105198",
      "2022-12-25T09:11:33.818032",
      "2022-12-25T09:11:39.558456",
      "2022-12-25T09:11:45.233594",
      "2022-12-25T09:11:51.007249",
      "2022-12-25T09:11:56.690523",
      "2022-12-25T09:12:02.452638",
      "2022-12-25T09:12:08.165498",
      "2022-12-25T09:12:13.909282",
      "2022-12-25T09:12:19.624769",
      "2022-12-25T09:12:25.362228",
      "2022-12-25T09:12:31.071959",
      "2022-12-25T09:12:36.813531",
      "2022-12-25T09:12:42.520718",
      "2022-12-25T09:12:48.265070",
      "2022-12-25T09:12:54.002987",
      "2022-12-25T09:12:59.749018",
      "2022-12-25T09:13:05.423559",
      "2022-12-25T09:13:11.197932",
      "2022-12-25T09:13:16.896969",
      "2022-12-25T09:13:22.716136",
      "2022-12-25T09:13:28.433872",
      "2022-12-25T09:13:34.178091",
      "2022-12-25T09:13:39.894033",
      "2022-12-25T09:13:45.643205",
      "2022-12-25T09:13:51.371274",
      "2022-12-25T09:13:57.115699",
      "2022-12-25T09:14:02.824895",
      "2022-12-25T09:14:08.577445",
      "2022-12-25T09:14:14.298815",
      "2022-12-25T09:14:20.042339",
      "2022-12-25T09:14:25.716637",
      "2022-12-25T09:14:31.476412",
      "2022-12-25T09:14:37.182684",
      "2022-12-25T09:14:42.943586",
      "2022-12-25T09:14:48.657306",
      "2022-12-25T09:14:54.409139",
      "2022-12-25T09:15:00.141844",
      "2022-12-25T09:15:05.889427",
      "2022-12-25T09:15:11.608556",
      "2022-12-25T09:15:17.353624",
      "2022-12-25T09:15:23.067441",
      "2022-12-25T09:15:28.813184",
      "2022-12-25T09:15:34.528748",
      "2022-12-25T09:15:40.274288",
      "2022-12-25T09:15:45.940204",
      "2022-12-25T09:15:51.703234",
      "2022-12-25T09:15:57.436968",
      "2022-12-25T09:16:03.195707",
      "2022-12-25T09:16:08.927390",
      "2022-12-25T09:16:14.670475",
      "2022-12-25T09:16:20.383259",
      "2022-12-25T09:16:26.125065",
      "2022-12-25T09:16:31.838630",
      "2022-12-25T09:16:37.584839",
      "2022-12-25T09:16:43.298019",
      "2022-12-25T09:16:49.037504",
      "2022-12-25T09:16:54.757059",
      "2022-12-25T09:17:00.507403",
      "2022-12-25T09:17:06.208558",
      "2022-12-25T09:17:11.960914",
      "2022-12-25T09:17:17.707247",
      "2022-12-25T09:17:23.446722",
      "2022-12-25T09:17:29.168253",
      "2022-12-25T09:17:34.915978",
      "2022-12-25T09:17:40.628807",
      "2022-12-25T09:17:46.373567",
      "2022-12-25T09:17:52.088122",
      "2022-12-25T09:17:57.840716",
      "2022-12-25T09:18:03.558495",
      "2022-12-25T09:18:09.309224",
      "2022-12-25T09:18:15.029259",
      "2022-12-25T09:18:20.774513",
      "2022-12-25T09:18:26.452751",
      "2022-12-25T09:18:32.196443",
      "2022-12-25T09:18:37.935024",
      "2022-12-25T09:18:43.672896",
      "2022-12-25T09:18:49.393855",
      "2022-12-25T09:18:55.137521",
      "2022-12-25T09:19:00.857383",
      "2022-12-25T09:19:06.603510",
      "2022-12-25T09:19:12.316632",
      "2022-12-25T09:19:18.060731",
      "2022-12-25T09:19:23.775054",
      "2022-12-25T09:19:29.524060",
      "2022-12-25T09:19:35.200335",
      "2022-12-25T09:19:40.967438",
      "2022-12-25T09:19:46.655502",
      "2022-12-25T09:19:52.422903",
      "2022-12-25T09:19:58.137908",
      "2022-12-25T09:20:03.873977",
      "2022-12-25T09:20:09.584416",
      "2022-12-25T09:20:15.326428",
      "2022-12-25T09:20:21.042317",
      "2022-12-25T09:20:26.784916",
      "2022-12-25T09:20:32.500642",
      "2022-12-25T09:20:38.247259",
      "2022-12-25T09:20:43.963113",
      "2022-12-25T09:20:49.730266",
      "2022-12-25T09:20:55.410835",
      "2022-12-25T09:21:01.193392",
      "2022-12-25T09:21:06.881098",
      "2022-12-25T09:21:12.655526",
      "2022-12-25T09:21:18.390660",
      "2022-12-25T09:21:24.132563",
      "2022-12-25T09:21:29.847905",
      "2022-12-25T09:21:35.587707",
      "2022-12-25T09:21:41.305854",
      "2022-12-25T09:21:47.053508",
      "2022-12-25T09:21:52.772492",
      "2022-12-25T09:21:58.516299",
      "2022-12-25T09:22:04.230797",
      "2022-12-25T09:22:09.967577",
      "2022-12-25T09:22:15.638177",
      "2022-12-25T09:22:21.400576",
      "2022-12-25T09:22:27.119960",
      "2022-12-25T09:22:32.875070",
      "2022-12-25T09:22:38.612121",
      "2022-12-25T09:22:44.356007",
      "2022-12-25T09:22:50.077652",
      "2022-12-25T09:22:55.828990",
      "2022-12-25T09:23:01.545426",
      "2022-12-25T09:23:07.281977",
      "2022-12-25T09:23:12.988870",
      "2022-12-25T09:23:18.725996",
      "2022-12-25T09:23:24.436834",
      "2022-12-25T09:23:30.180715",
      "2022-12-25T09:23:35.856469",
      "2022-12-25T09:23:41.602538",
      "2022-12-25T09:23:47.310825",
      "2022-12-25T09:23:53.056221",
      "2022-12-25T09:23:58.770862",
      "2022-12-25T09:24:04.512196",
      "2022-12-25T09:24:10.231978",
      "2022-12-25T09:24:15.979694",
      "2022-12-25T09:24:21.693869",
      "2022-12-25T09:24:27.434724",
      "2022-12-25T09:24:33.144672",
      "2022-12-25T09:24:38.914379",
      "2022-12-25T09:24:44.623987",
      "2022-12-25T09:24:50.360231",
      "2022-12-25T09:24:56.044755",
      "2022-12-25T09:25:01.792955",
      "2022-12-25T09:25:07.546000",
      "2022-12-25T09:25:13.280790",
      "2022-12-25T09:25:19.010857",
      "2022-12-25T09:25:24.755566",
      "2022-12-25T09:25:30.472814",
      "2022-12-25T09:25:36.219009",
      "2022-12-25T09:25:41.931001",
      "2022-12-25T09:25:47.670770",
      "2022-12-25T09:25:53.386551",
      "2022-12-25T09:25:59.142078",
      "2022-12-25T09:26:04.865525",
      "2022-12-25T09:26:10.622383",
      "2022-12-25T09:26:16.312291",
      "2022-12-25T09:26:22.065828",
      "2022-12-25T09:26:27.802779",
      "2022-12-25T09:26:33.544584",
      "2022-12-25T09:26:39.293113",
      "2022-12-25T09:26:45.027836",
      "2022-12-25T09:26:50.749189",
      "2022-12-25T09:26:56.509213",
      "2022-12-25T09:27:02.223656",
      "2022-12-25T09:27:07.971972",
      "2022-12-25T09:27:13.691272",
      "2022-12-25T09:27:19.434569",
      "2022-12-25T09:27:25.148149",
      "2022-12-25T09:27:30.896425",
      "2022-12-25T09:27:36.579925",
      "2022-12-25T09:27:42.332475",
      "2022-12-25T09:27:48.066812",
      "2022-12-25T09:27:53.809441",
      "2022-12-25T09:27:59.542107",
      "2022-12-25T09:28:05.284534",
      "2022-12-25T09:28:10.998829",
      "2022-12-25T09:28:16.744233",
      "2022-12-25T09:28:22.463843",
      "2022-12-25T09:28:28.207975",
      "2022-12-25T09:28:33.915203",
      "2022-12-25T09:28:39.665215",
      "2022-12-25T09:28:45.351329",
      "2022-12-25T09:28:51.106690",
      "2022-12-25T09:28:56.783534",
      "2022-12-25T09:29:02.537724",
      "2022-12-25T09:29:08.262837",
      "2022-12-25T09:29:14.002623",
      "2022-12-25T09:29:19.731287",
      "2022-12-25T09:29:25.473210",
      "2022-12-25T09:29:31.196808",
      "2022-12-25T09:29:36.939151",
      "2022-12-25T09:29:42.665625",
      "2022-12-25T09:29:48.406002",
      "2022-12-25T09:29:54.114014",
      "2022-12-25T09:29:59.856923",
      "2022-12-25T09:30:05.532510",
      "2022-12-25T09:30:11.301196",
      "2022-12-25T09:30:17.013777",
      "2022-12-25T09:30:22.780443",
      "2022-12-25T09:30:28.496345",
      "2022-12-25T09:30:34.230732",
      "2022-12-25T09:30:39.946309",
      "2022-12-25T09:30:45.687717",
      "2022-12-25T09:30:51.400998",
      "2022-12-25T09:30:57.141662",
      "2022-12-25T09:31:02.851594",
      "2022-12-25T09:31:08.596569",
      "2022-12-25T09:31:14.305310",
      "2022-12-25T09:31:20.050329",
      "2022-12-25T09:31:25.720044",
      "2022-12-25T09:31:31.487639",
      "2022-12-25T09:31:37.187749",
      "2022-12-25T09:31:42.937669",
      "2022-12-25T09:31:48.654013",
      "2022-12-25T09:31:54.395581",
      "2022-12-25T09:32:00.116364",
      "2022-12-25T09:32:05.862884",
      "2022-12-25T09:32:11.579406",
      "2022-12-25T09:32:17.322917",
      "2022-12-25T09:32:23.035447",
      "2022-12-25T09:32:28.791132",
      "2022-12-25T09:32:34.506652",
      "2022-12-25T09:32:40.280117",
      "2022-12-25T09:32:45.966046",
      "2022-12-25T09:32:51.729279",
      "2022-12-25T09:32:57.460892",
      "2022-12-25T09:33:03.202519",
      "2022-12-25T09:33:08.932923",
      "2022-12-25T09:33:14.681053",
      "2022-12-25T09:33:20.406725",
      "2022-12-25T09:33:26.149222",
      "2022-12-25T09:33:31.863202",
      "2022-12-25T09:33:37.622385",
      "2022-12-25T09:33:43.339239",
      "2022-12-25T09:33:49.079286",
      "2022-12-25T09:33:54.788834",
      "2022-12-25T09:34:00.539055",
      "2022-12-25T09:34:06.216617",
      "2022-12-25T09:34:11.958627",
      "2022-12-25T09:34:17.677539",
      "2022-12-25T09:34:23.426867",
      "2022-12-25T09:34:29.140531",
      "2022-12-25T09:34:34.883377",
      "2022-12-25T09:34:40.602662",
      "2022-12-25T09:34:46.342248",
      "2022-12-25T09:34:52.059841",
      "2022-12-25T09:34:57.809243",
      "2022-12-25T09:35:03.517483",
      "2022-12-25T09:35:09.264705",
      "2022-12-25T09:35:14.984100",
      "2022-12-25T09:35:20.725932",
      "2022-12-25T09:35:26.411742",
      "2022-12-25T09:35:32.180176",
      "2022-12-25T09:35:37.911231",
      "2022-12-25T09:35:43.650116",
      "2022-12-25T09:35:49.378143",
      "2022-12-25T09:35:55.122310",
      "2022-12-25T09:36:00.835994",
      "2022-12-25T09:36:06.579659",
      "2022-12-25T09:36:12.290782",
      "2022-12-25T09:36:18.030346",
      "2022-12-25T09:36:23.763188",
      "2022-12-25T09:36:29.511846",
      "2022-12-25T09:36:35.222225",
      "2022-12-25T09:36:40.971696",
      "2022-12-25T09:36:46.662779",
      "2022-12-25T09:36:52.425847",
      "2022-12-25T09:36:58.166184",
      "2022-12-25T09:37:03.912260",
      "2022-12-25T09:37:09.635165",
      "2022-12-25T09:37:15.370918",
      "2022-12-25T09:37:21.086480",
      "2022-12-25T09:37:26.828303",
      "2022-12-25T09:37:32.542738",
      "2022-12-25T09:37:38.285979",
      "2022-12-25T09:37:43.992899",
      "2022-12-25T09:37:49.735811",
      "2022-12-25T09:37:55.453295",
      "2022-12-25T09:38:01.201970",
      "2022-12-25T09:38:06.878067",
      "2022-12-25T09:38:12.699265",
      "2022-12-25T09:38:18.420049",
      "2022-12-25T09:38:24.169211",
      "2022-12-25T09:38:29.878687",
      "2022-12-25T09:38:35.618313",
      "2022-12-25T09:38:41.335031",
      "2022-12-25T09:38:47.072728",
      "2022-12-25T09:38:52.787797",
      "2022-12-25T09:38:58.531191",
      "2022-12-25T09:39:04.283295",
      "2022-12-25T09:39:10.026658",
      "2022-12-25T09:39:15.695327",
      "2022-12-25T09:39:21.466058",
      "2022-12-25T09:39:27.165342",
      "2022-12-25T09:39:32.937935",
      "2022-12-25T09:39:38.650350",
      "2022-12-25T09:39:44.390658",
      "2022-12-25T09:39:50.115456",
      "2022-12-25T09:39:55.858071",
      "2022-12-25T09:40:01.582223",
      "2022-12-25T09:40:07.337202",
      "2022-12-25T09:40:13.061856",
      "2022-12-25T09:40:18.804216",
      "2022-12-25T09:40:24.520384",
      "2022-12-25T09:40:30.286033",
      "2022-12-25T09:40:35.956741",
      "2022-12-25T09:40:41.720509",
      "2022-12-25T09:40:47.413452",
      "2022-12-25T09:40:53.170864",
      "2022-12-25T09:40:58.880096",
      "2022-12-25T09:41:04.619666",
      "2022-12-25T09:41:10.341854",
      "2022-12-25T09:41:16.079698",
      "2022-12-25T09:41:21.800736",
      "2022-12-25T09:41:27.543487",
      "2022-12-25T09:41:33.260639",
      "2022-12-25T09:41:39.004812",
      "2022-12-25T09:41:44.719312",
      "2022-12-25T09:41:50.464446",
      "2022-12-25T09:41:56.140871",
      "2022-12-25T09:42:01.898686",
      "2022-12-25T09:42:07.599444",
      "2022-12-25T09:42:13.355605",
      "2022-12-25T09:42:19.072740",
      "2022-12-25T09:42:24.812142",
      "2022-12-25T09:42:30.541176",
      "2022-12-25T09:42:36.284988",
      "2022-12-25T09:42:42.004621",
      "2022-12-25T09:42:47.749575",
      "2022-12-25T09:42:53.458394",
      "2022-12-25T09:42:59.209892",
      "2022-12-25T09:43:04.923090",
      "2022-12-25T09:43:10.665459",
      "2022-12-25T09:43:16.346936",
      "2022-12-25T09:43:22.094096",
      "2022-12-25T09:43:27.812455",
      "2022-12-25T09:43:33.553720",
      "2022-12-25T09:43:39.282863",
      "2022-12-25T09:43:45.030251",
      "2022-12-25T09:43:50.782604",
      "2022-12-25T09:43:56.533242",
      "2022-12-25T09:44:02.256790",
      "2022-12-25T09:44:08.003905",
      "2022-12-25T09:44:13.718532",
      "2022-12-25T09:44:19.468241",
      "2022-12-25T09:44:25.179125",
      "2022-12-25T09:44:30.923371",
      "2022-12-25T09:44:36.610135",
      "2022-12-25T09:44:42.364715",
      "2022-12-25T09:44:48.102362",
      "2022-12-25T09:44:53.852548",
      "2022-12-25T09:44:59.579552",
      "2022-12-25T09:45:05.325309",
      "2022-12-25T09:45:11.045800",
      "2022-12-25T09:45:16.784104",
      "2022-12-25T09:45:22.505418",
      "2022-12-25T09:45:28.252142",
      "2022-12-25T09:45:33.963963",
      "2022-12-25T09:45:39.717196",
      "2022-12-25T09:45:45.431529",
      "2022-12-25T09:45:51.178637",
      "2022-12-25T09:45:56.873081",
      "2022-12-25T09:46:02.624883",
      "2022-12-25T09:46:08.351316",
      "2022-12-25T09:46:14.099393",
      "2022-12-25T09:46:19.823959",
      "2022-12-25T09:46:25.570433",
      "2022-12-25T09:46:31.299397",
      "2022-12-25T09:46:37.045852",
      "2022-12-25T09:46:42.762156",
      "2022-12-25T09:46:48.514305",
      "2022-12-25T09:46:54.226176",
      "2022-12-25T09:46:59.975444",
      "2022-12-25T09:47:05.697890",
      "2022-12-25T09:47:11.463398",
      "2022-12-25T09:47:17.144599",
      "2022-12-25T09:47:22.935682",
      "2022-12-25T09:47:28.658336",
      "2022-12-25T09:47:34.412053",
      "2022-12-25T09:47:40.126573",
      "2022-12-25T09:47:45.867094",
      "2022-12-25T09:47:51.593788",
      "2022-12-25T09:47:57.341132",
      "2022-12-25T09:48:03.054268",
      "2022-12-25T09:48:08.801155",
      "2022-12-25T09:48:14.510452",
      "2022-12-25T09:48:20.268017",
      "2022-12-25T09:48:25.939223",
      "2022-12-25T09:48:31.712030",
      "2022-12-25T09:48:37.394626",
      "2022-12-25T09:48:43.156001",
      "2022-12-25T09:48:48.876327",
      "2022-12-25T09:48:54.623560",
      "2022-12-25T09:49:00.345945",
      "2022-12-25T09:49:06.085385",
      "2022-12-25T09:49:11.800080",
      "2022-12-25T09:49:17.540060",
      "2022-12-25T09:49:23.256357",
      "2022-12-25T09:49:29.014605",
      "2022-12-25T09:49:34.728364",
      "2022-12-25T09:49:40.496901",
      "2022-12-25T09:49:46.169037",
      "2022-12-25T09:49:51.951383",
      "2022-12-25T09:49:57.643865",
      "2022-12-25T09:50:03.404247",
      "2022-12-25T09:50:09.124634",
      "2022-12-25T09:50:14.868721",
      "2022-12-25T09:50:20.583135",
      "2022-12-25T09:50:26.319062",
      "2022-12-25T09:50:32.027324",
      "2022-12-25T09:50:37.779236",
      "2022-12-25T09:50:43.497846",
      "2022-12-25T09:50:49.243045",
      "2022-12-25T09:50:54.979532",
      "2022-12-25T09:51:00.739262",
      "2022-12-25T09:51:06.425767",
      "2022-12-25T09:51:12.200052",
      "2022-12-25T09:51:17.902570",
      "2022-12-25T09:51:23.648247",
      "2022-12-25T09:51:29.360559",
      "2022-12-25T09:51:35.097643",
      "2022-12-25T09:51:40.832236",
      "2022-12-25T09:51:46.575713",
      "2022-12-25T09:51:52.286963",
      "2022-12-25T09:51:58.032822",
      "2022-12-25T09:52:03.749442",
      "2022-12-25T09:52:09.499218",
      "2022-12-25T09:52:15.217254",
      "2022-12-25T09:52:20.957927",
      "2022-12-25T09:52:26.647787",
      "2022-12-25T09:52:32.407130",
      "2022-12-25T09:52:38.158514",
      "2022-12-25T09:52:43.908468",
      "2022-12-25T09:52:49.639526",
      "2022-12-25T09:52:55.397785",
      "2022-12-25T09:53:01.114356",
      "2022-12-25T09:53:06.856162",
      "2022-12-25T09:53:12.565522",
      "2022-12-25T09:53:18.306520",
      "2022-12-25T09:53:24.016257",
      "2022-12-25T09:53:29.765229",
      "2022-12-25T09:53:35.475592",
      "2022-12-25T09:53:41.222333",
      "2022-12-25T09:53:46.891281",
      "2022-12-25T09:53:52.656560",
      "2022-12-25T09:53:58.382562",
      "2022-12-25T09:54:04.143289",
      "2022-12-25T09:54:09.886596",
      "2022-12-25T09:54:15.633002",
      "2022-12-25T09:54:21.357045",
      "2022-12-25T09:54:27.100432",
      "2022-12-25T09:54:32.828708",
      "2022-12-25T09:54:38.574231",
      "2022-12-25T09:54:44.283434",
      "2022-12-25T09:54:50.034226",
      "2022-12-25T09:54:55.747342",
      "2022-12-25T09:55:01.491141",
      "2022-12-25T09:55:07.171356",
      "2022-12-25T09:55:12.922181",
      "2022-12-25T09:55:18.653953",
      "2022-12-25T09:55:24.402739",
      "2022-12-25T09:55:30.125023",
      "2022-12-25T09:55:35.861347",
      "2022-12-25T09:55:41.579813",
      "2022-12-25T09:55:47.322106",
      "2022-12-25T09:55:53.030734",
      "2022-12-25T09:55:58.775085",
      "2022-12-25T09:56:04.481301",
      "2022-12-25T09:56:10.231525",
      "2022-12-25T09:56:15.935864",
      "2022-12-25T09:56:21.679381",
      "2022-12-25T09:56:27.365764",
      "2022-12-25T09:56:33.131657",
      "2022-12-25T09:56:38.853167",
      "2022-12-25T09:56:44.600692",
      "2022-12-25T09:56:50.327350",
      "2022-12-25T09:56:56.073590",
      "2022-12-25T09:57:01.808816",
      "2022-12-25T09:57:07.549873",
      "2022-12-25T09:57:13.261128",
      "2022-12-25T09:57:19.005869",
      "2022-12-25T09:57:24.724083",
      "2022-12-25T09:57:30.504619",
      "2022-12-25T09:57:36.177040",
      "2022-12-25T09:57:41.953260",
      "2022-12-25T09:57:47.639337",
      "2022-12-25T09:57:53.402526",
      "2022-12-25T09:57:59.112069",
      "2022-12-25T09:58:04.860688",
      "2022-12-25T09:58:10.575948",
      "2022-12-25T09:58:16.313217",
      "2022-12-25T09:58:22.033520",
      "2022-12-25T09:58:27.784316",
      "2022-12-25T09:58:33.495387",
      "2022-12-25T09:58:39.234382",
      "2022-12-25T09:58:44.956808",
      "2022-12-25T09:58:50.700250",
      "2022-12-25T09:58:56.371736",
      "2022-12-25T09:59:02.152089",
      "2022-12-25T09:59:07.856965",
      "2022-12-25T09:59:13.625242",
      "2022-12-25T09:59:19.342969",
      "2022-12-25T09:59:25.083309",
      "2022-12-25T09:59:30.795743",
      "2022-12-25T09:59:36.532493",
      "2022-12-25T09:59:42.242894",
      "2022-12-25T09:59:47.997018",
      "2022-12-25T09:59:53.714490",
      "2022-12-25T09:59:59.462836",
      "2022-12-25T10:00:05.171370",
      "2022-12-25T10:00:10.917619",
      "2022-12-25T10:00:16.590668",
      "2022-12-25T10:00:22.328794",
      "2022-12-25T10:00:28.030400",
      "2022-12-25T10:00:33.811816",
      "2022-12-25T10:00:39.540077",
      "2022-12-25T10:00:45.282817",
      "2022-12-25T10:00:51.004216",
      "2022-12-25T10:00:56.751682",
      "2022-12-25T10:01:02.470319",
      "2022-12-25T10:01:08.208895",
      "2022-12-25T10:01:13.915959",
      "2022-12-25T10:01:19.660447",
      "2022-12-25T10:01:25.372318",
      "2022-12-25T10:01:31.118959",
      "2022-12-25T10:01:36.803119",
      "2022-12-25T10:01:42.574634",
      "2022-12-25T10:01:48.292005",
      "2022-12-25T10:01:54.028021",
      "2022-12-25T10:01:59.749567",
      "2022-12-25T10:02:05.499048",
      "2022-12-25T10:02:11.221734",
      "2022-12-25T10:02:16.976771",
      "2022-12-25T10:02:22.689088",
      "2022-12-25T10:02:28.429938",
      "2022-12-25T10:02:34.169204",
      "2022-12-25T10:02:39.911502",
      "2022-12-25T10:02:45.620357",
      "2022-12-25T10:02:51.378179",
      "2022-12-25T10:02:57.056145",
      "2022-12-25T10:03:02.807351",
      "2022-12-25T10:03:08.544902",
      "2022-12-25T10:03:14.296928",
      "2022-12-25T10:03:20.031187",
      "2022-12-25T10:03:25.792004",
      "2022-12-25T10:03:31.508430",
      "2022-12-25T10:03:37.262493",
      "2022-12-25T10:03:42.974263",
      "2022-12-25T10:03:48.718099",
      "2022-12-25T10:03:54.427460",
      "2022-12-25T10:04:00.187035",
      "2022-12-25T10:04:05.895468"
    ],
    "values": [
      1075.8721125986685,
      295.7975631259698,
      202.72901128587836,
      173.07044685312638,
      149.68174696412464,
      129.66079663513366,
      109.92378643690994,
      87.68663400480844,
      71.43543716424166,
      60.627593652869294,
      52.757706673239774,
      47.55545832714675,
      44.24101194901905,
      42.38462871059383,
      41.03336676866922,
      40.06641014827502,
      39.5220941944721,
      38.77829280478707,
      38.3769834003996,
      37.76996612672443,
      37.393168123471725,
      37.17984036292607,
      36.755419444367305,
      36.38503255175133,
      36.469436774557735,
      36.22912813696948,
      36.10527326678669,
      35.85329515982612,
      35.70374967875264,
      35.792180505328,
      35.772375150712335,
      35.83651928156722,
      35.64310526598877,
      35.711307031802335,
      35.617709548121546,
      35.61345354811051,
      35.60489982802093,
      35.44851335855683,
      35.6417522621694,
      35.85378165618554,
      35.82586515947074,
      35.85430749255864,
      36.05371245626967,
      35.878921057405584,
      36.225365883884635,
      36.237242074927686,
      36.354640019681426,
      36.45421866011358,
      36.64491447542382,
      36.88102486506764,
      37.0544833921809,
      37.04250322089822,
      37.36527003392735,
      37.48833674554323,
      37.636334621904595,
      37.892795857218594,
      38.18581646051561,
      38.216792371275616,
      38.448302564821674,
      38.8829117234603,
      38.989275948065654,
      39.11348505264837,
      39.23955602940886,
      39.44067536190943,
      39.612413470382414,
      40.10094198655999,
      40.166113541973985,
      40.422165579498106,
      40.543645782326955,
      40.771132472495964,
      41.015164133051975,
      41.170272607003305,
      41.356120160367674,
      41.58405941477332,
      41.63819760636252,
      41.756575275070944,
      41.553010475443244,
      41.53400082766393,
      41.58767178022167,
      41.491879105016096,
      41.628170933716035,
      41.37667159377326,
      41.334474299438504,
      41.36895850538505,
      41.2551818572314,
      41.26941033919294,
      41.216064391914024,
      41.173287360553786,
      41.26233583352103,
      41.18502493256935,
      41.09565575217526,
      41.046428898710474,
      41.05908335904288,
      41.020147455381704,
      40.97813920272702,
      40.93059093102973,
      40.95160053459535,
      40.95246977108152,
      40.886987459174435,
      40.88914296341743,
      40.90594483820187,
      40.85162239138464,
      40.82162036069933,
      40.79960712757814,
      40.837727715731084,
      40.75846992899862,
      40.77652213639478,
      40.66897175623267,
      40.68688412052589,
      40.760373538117975,
      40.721568139316666,
      40.72448757487946,
      40.654698214312035,
      40.6220114403023,
      40.58846556451473,
      40.600482698085536,
      40.516220956275205,
      40.58226605456234,
      40.572637384421654,
      40.54737140647859,
      40.498475746183395,
      40.42665664053067,
      40.41256706985735,
      40.575853740088036,
      40.46658341444211,
      40.46872199804496,
      40.39187987601749,
      40.37428665449377,
      40.32759572741932,
      40.3175997607175,
      40.335124231144285,
      40.327034680779164,
      40.30564555021803,
      40.30777893037439,
      40.26415631271981,
      40.28228199708843,
      40.20535898179942,
      40.2633515256466,
      40.20528624762321,
      40.179232879923056,
      40.20058382695098,
      40.24081379985349,
      40.15093716168155,
      40.201589335831386,
      40.18442391103045,
      40.12773347329656,
      40.22661185315135,
      40.10809879194871,
      40.11557533694168,
      40.14899074742674,
      40.12464678017339,
      40.05931905195043,
      40.079821307278195,
      40.07255076433718,
      40.075171725103054,
      40.04749215352933,
      40.078648061928604,
      40.0210053968199,
      40.00844367705973,
      40.028116421604494,
      39.972993183629754,
      39.930142203543404,
      39.99273645191012,
      40.06641854758704,
      39.908266927615536,
      39.959647491096035,
      39.883300763991876,
      39.94672516156511,
      39.92649552007211,
      39.89312528712102,
      39.850482308119865,
      39.85113150306628,
      39.94688228313166,
      39.95044010468921,
      39.844990580774926,
      39.8979071488209,
      39.83654906355885,
      39.891950667954184,
      39.81921489078774,
      39.885131403281115,
      39.82853593636094,
      39.81674524302865,
      39.78386705645899,
      39.76031387446274,
      39.846922719812504,
      39.797285158888265,
      39.856640919464816,
      39.780883148155205,
      39.793281064915774,
      39.79385821043942,
      39.78872390084402,
      39.68449792002315,
      39.71854480518768,
      39.70905087175151,
      39.73896270453119,
      39.67616078127012,
      39.71028162023517,
      39.674381366870136,
      39.71578531134158,
      39.683380067999,
      39.66070579682631,
      39.68977372233346,
      39.64218726499115,
      39.6559184185917,
      39.611275418175985,
      39.63384672585576,
      39.62112046300367,
      39.58185653129223,
      39.671174385182695,
      39.63570800784632,
      39.57786905292435,
      39.58304033079329,
      39.557258545206885,
      39.61846962757672,
      39.59182810454266,
      39.570233228898026,
      39.573679289228515,
      39.63134056970332,
      39.5183288186088,
      39.57701781699236,
      39.519821590594304,
      39.5350197379176,
      39.54078058167581,
      39.54138861696973,
      39.571016210903665,
      39.558652119386814,
      39.548444104188754,
      39.5831563656093,
      39.501184961103334,
      39.496868957014314,
      39.45156193691202,
      39.486155408366045,
      39.505677093277825,
      39.44679446897388,
      39.407634827870694,
      39.44447822068221,
      39.46137116074051,
      39.498564802473794,
      39.42149526078981,
      39.46104188073306,
      39.49054486427464,
      39.456598934354595,
      39.427541599074836,
      39.43679712988201,
      39.46534346256473,
      39.49631177054076,
      39.390212670429676,
      39.43325940284491,
      39.39296303627859,
      39.42547991174923,
      39.42939311932112,
      39.450935060502594,
      39.36638081498478,
      39.37714622377182,
      39.377427040569444,
      39.35815769106679,
      39.37835860552495,
      39.41776763409839,
      39.32926058011053,
      39.29953074737952,
      39.38467297830809,
      39.34772711194467,
      39.29797291147854,
      39.3209452840035,
      39.33151411459591,
      39.27587007885161,
      39.306528124761975,
      39.33855253672479,
      39.34755809011105,
      39.31122399851819,
      39.28561069706325,
      39.35800820023225,
      39.34513804855297,
      39.37177024119484,
      39.30910010417287,
      39.289888578136356,
      39.270492650605085,
      39.25219425301927,
      39.273659946450174,
      39.24503337422711,
      39.273330986960524,
      39.28478018279729,
      39.22866400392655,
      39.307143009748344,
      39.20310391095923,
      39.20670553200947,
      39.26906797129973,
      39.251348379873626,
      39.30173723434209,
      39.320474968712205,
      39.28333176178369,
      39.28539043497292,
      39.15628080078092,
      39.24392305292706,
      39.23852387618112,
      39.172245356541545,
      39.15503580201809,
      39.19766353291738,
      39.25333152270802,
      39.19069123990676,
      39.148719466476,
      39.17136289387338,
      39.16657597663115,
      39.147316081936495,
      39.17792011851879,
      39.158796084130806,
      39.19833094673588,
      39.176152267872624,
      39.12781230161099,
      39.17666773927804,
      39.178540629119745,
      39.1557819420996,
      39.11382238628862,
      39.14491480800374,
      39.14825771794219,
      39.143224598565965,
      39.11168305887563,
      39.10132033167826,
      39.14594057181142,
      39.11848711535113,
      39.10953587313602,
      39.09707989934693,
      39.132757197502116,
      39.09042399271276,
      39.06782998508195,
      39.04121540629065,
      39.15484843127179,
      39.075815463976994,
      39.08913150234947,
      39.092871680634865,
      39.09258922008667,
      39.06847767649379,
      39.01554527481542,
      39.09233116919077,
      39.02615094903158,
      39.03850148321532,
      39.11565795908165,
      39.06963859479238,
      39.0637396735626,
      39.04262544565368,
      39.05098908409289,
      39.03364115992802,
      39.06447107896763,
      38.98963373022352,
      39.00371012108977,
      39.037589846711754,
      39.02277339689148,
      38.996841656987975,
      39.05090939971556,
      39.033574556416404,
      38.98940773830791,
      39.04887224883217,
      39.02663253109551,
      38.95814404956111,
      38.96953820017157,
      38.987672269464845,
      38.96873423098385,
      38.97899114355844,
      38.94792110714628,
      38.95757090092437,
      38.921486687150484,
      38.892973780328056,
      38.92665182032242,
      39.00072870333888,
      38.98598796148755,
      38.93046118245905,
      38.95525057343341,
      38.94042434580832,
      38.95406283921155,
      38.87106815954301,
      38.92264322163285,
      38.87248297926769,
      38.85749335591578,
      38.91506733043067,
      38.92429895064439,
      38.90997833556866,
      38.88600278816125,
      38.88694453348458,
      38.849450961458246,
      38.94318442303397,
      38.84039419822629,
      38.80913943721606,
      38.84513052017099,
      38.761958445133494,
      38.808571436407185,
      38.82416527659381,
      38.78258886287274,
      38.80771235798521,
      38.809610682253265,
      38.79667417124822,
      38.79184813792469,
      38.74492177981265,
      38.80065360779117,
      38.73280383476411,
      38.73681794649212,
      38.73518766722259,
      38.75276868233532,
      38.71573292895741,
      38.734000228881065,
      38.75078105690877,
      38.712578742189095,
      38.68757315581926,
      38.72153662891818,
      38.63023031449059,
      38.633740788504504,
      38.68689137499952,
      38.63756752028374,
      38.59310688177477,
      38.587921574967055,
      38.626637326466,
      38.64056532822358,
      38.57098655743783,
      38.58472981962806,
      38.57228241012586,
      38.53199152914911,
      38.461535743342736,
      38.51123197102661,
      38.512710390924966,
      38.50430235147484,
      38.52012746602455,
      38.50880706542279,
      38.46186026131523,
      38.39289835110577,
      38.39894219789013,
      38.37401474070506,
      38.41958772559766,
      38.40690932127567,
      38.43093304120898,
      38.37303154588818,
      38.4261340866477,
      38.33758455824213,
      38.37151743670564,
      38.31771947266045,
      38.333239072257705,
      38.36614064951646,
      38.39977261415531,
      38.319126767543146,
      38.29492584731199,
      38.291790966559205,
      38.25386827853584,
      38.30460730982666,
      38.32415305053206,
      38.330327046008904,
      38.277024162829086,
      38.26061008265952,
      38.279721612278834,
      38.225296712886276,
      38.25392187257678,
      38.2858089872553,
      38.25856292865652,
      38.26890728099602,
      38.361146774460956,
      38.21439155707631,
      38.22526397917093,
      38.25757051051351,
      38.203120957286956,
      38.23538728241704,
      38.23611288871471,
      38.19602869557318,
      38.24447970786201,
      38.26129133310738,
      38.235150563170365,
      38.22370396389699,
      38.23301774287861,
      38.21480824768502,
      38.22569316377559,
      38.23219513072367,
      38.210111446559296,
      38.22219362591059,
      38.172454331429606,
      38.21083757846153,
      38.214152276020606,
      38.26509109708068,
      38.223906903386094,
      38.18768643817957,
      38.22065463139947,
      38.20451569981627,
      38.18220361711804,
      38.183938499045965,
      38.1891853947276,
      38.26605604602728,
      38.21784288862344,
      38.19534098501406,
      38.191140237493,
      38.187453839062705,
      38.165055467254746,
      38.13616071941888,
      38.191108769187565,
      38.21239284711139,
      38.1886907327785,
      38.19901612116214,
      38.18755379333129,
      38.17180016412633,
      38.14953249479588,
      38.19130802650007,
      38.18445879155162,
      38.139488086825814,
      38.1236721401473,
      38.1628707522885,
      38.18200486707868,
      38.158957582179575,
      38.16960579387757,
      38.171631995365736,
      38.16685416822131,
      38.14482335149322,
      38.18518460305291,
      38.16089834959391,
      38.14062411761459,
      38.1780252066272,
      38.12355654245252,
      38.09959210585126,
      38.158505236336715,
      38.15165780977383,
      38.15319000102387,
      38.19394624042408,
      38.200074237580544,
      38.157344130703784,
      38.15618896635211,
      38.183565224611826,
      38.1455034238768,
      38.17004776773928,
      38.10628737516024,
      38.181922569584366,
      38.15410969859213,
      38.151406406067515,
      38.173280744099564,
      38.10637517796763,
      38.10829617936749,
      38.13302305041939,
      38.100489597294334,
      38.17155900132839,
      38.16659890489712,
      37.812104932384756,
      37.76338708742593,
      37.761450623605725,
      37.76245067280322,
      37.765201388456354,
      37.76531858103667,
      37.76976156525094,
      37.761285581353974,
      37.756663759547166,
      37.76569255278395,
      37.76369311863909,
      37.76297790339688,
      37.76805176826067,
      37.76701582375064,
      37.76747698501129,
      37.77328293297646,
      37.76518680180918,
      37.77027121023785,
      37.76016210130395,
      37.76198142524354,
      37.76651877067121,
      37.77239852927818,
      37.77020495287735,
      37.76081257847794,
      37.77205791324457,
      37.7624735212645,
      37.76537131918255,
      37.762992909391905,
      37.75743245355093,
      37.7700403233744,
      37.72931205153108,
      37.72127830917036,
      37.716967412770174,
      37.71508726625914,
      37.710589252240865,
      37.714002158547515,
      37.72201963847312,
      37.710220501027166,
      37.71073494100716,
      37.71240848953987,
      37.71553836926495,
      37.71196456649519,
      37.7145766311554,
      37.712642323859015,
      37.712901940003384,
      37.71578660051655,
      37.7130122559267,
      37.705843349071245,
      37.710967336682394,
      37.71841054884056,
      37.71670004046268,
      37.713224995483394,
      37.71405422434827,
      37.709990848611476,
      37.712486622749765,
      37.71117026043246,
      37.70982719612344,
      37.714176128983816,
      37.71212853266667,
      37.71399284868916,
      37.70854017376306,
      37.712971358404026,
      37.71276056705206,
      37.71554138816059,
      37.714859578788364,
      37.712402677499895,
      37.71481133534737,
      37.71842116299214
    ]
  },
  "val": {
    "steps": [
      0,
      1,
      2,
      3,
      4,
      5,
      6,
      7,
      8,
      9,
      10,
      11,
      12,
      13,
      14,
      15,
      16,
      17,
      18,
      19,
      20,
      21,
      22,
      23,
      24,
      25,
      26,
      27,
      28,
      29,
      30,
      31,
      32,
      33,
      34,
      35,
      36,
      37,
      38,
      39,
      40,
      41,
      42,
      43,
      44,
      45,
      46,
      47,
      48,
      49,
      50,
      51,
      52,
      53,
      54,
      55,
      56,
      57,
      58,
      59,
      60,
      61,
      62,
      63,
      64,
      65,
      66,
      67,
      68,
      69,
      70,
      71,
      72,
      73,
      74,
      75,
      76,
      77,
      78,
      79,
      80,
      81,
      82,
      83,
      84,
      85,
      86,
      87,
      88,
      89,
      90,
      91,
      92,
      93,
      94,
      95,
      96,
      97,
      98,
      99,
      100,
      101,
      102,
      103,
      104,
      105,
      106,
      107,
      108,
      109,
      110,
      111,
      112,
      113,
      114,
      115,
      116,
      117,
      118,
      119,
      120,
      121,
      122,
      123,
      124,
      125,
      126,
      127,
      128,
      129,
      130,
      131,
      132,
      133,
      134,
      135,
      136,
      137,
      138,
      139,
      140,
      141,
      142,
      143,
      144,
      145,
      146,
      147,
      148,
      149,
      150,
      151,
      152,
      153,
      154,
      155,
      156,
      157,
      158,
      159,
      160,
      161,
      162,
      163,
      164,
      165,
      166,
      167,
      168,
      169,
      170,
      171,
      172,
      173,
      174,
      175,
      176,
      177,
      178,
      179,
      180,
      181,
      182,
      183,
      184,
      185,
      186,
      187,
      188,
      189,
      190,
      191,
      192,
      193,
      194,
      195,
      196,
      197,
      198,
      199,
      200,
      201,
      202,
      203,
      204,
      205,
      206,
      207,
      208,
      209,
      210,
      211,
      212,
      213,
      214,
      215,
      216,
      217,
      218,
      219,
      220,
      221,
      222,
      223,
      224,
      225,
      226,
      227,
      228,
      229,
      230,
      231,
      232,
      233,
      234,
      235,
      236,
      237,
      238,
      239,
      240,
      241,
      242,
      243,
      244,
      245,
      246,
      247,
      248,
      249,
      250,
      251,
      252,
      253,
      254,
      255,
      256,
      257,
      258,
      259,
      260,
      261,
      262,
      263,
      264,
      265,
      266,
      267,
      268,
      269,
      270,
      271,
      272,
      273,
      274,
      275,
      276,
      277,
      278,
      279,
      280,
      281,
      282,
      283,
      284,
      285,
      286,
      287,
      288,
      289,
      290,
      291,
      292,
      293,
      294,
      295,
      296,
      297,
      298,
      299,
      300,
      301,
      302,
      303,
      304,
      305,
      306,
      307,
      308,
      309,
      310,
      311,
      312,
      313,
      314,
      315,
      316,
      317,
      318,
      319,
      320,
      321,
      322,
      323,
      324,
      325,
      326,
      327,
      328,
      329,
      330,
      331,
      332,
      333,
      334,
      335,
      336,
      337,
      338,
      339,
      340,
      341,
      342,
      343,
      344,
      345,
      346,
      347,
      348,
      349,
      350,
      351,
      352,
      353,
      354,
      355,
      356,
      357,
      358,
      359,
      360,
      361,
      362,
      363,
      364,
      365,
      366,
      367,
      368,
      369,
      370,
      371,
      372,
      373,
      374,
      375,
      376,
      377,
      378,
      379,
      380,
      381,
      382,
      383,
      384,
      385,
      386,
      387,
      388,
      389,
      390,
      391,
      392,
      393,
      394,
      395,
      396,
      397,
      398,
      399,
      400,
      401,
      402,
      403,
      404,
      405,
      406,
      407,
      408,
      409,
      410,
      411,
      412,
      413,
      414,
      415,
      416,
      417,
      418,
      419,
      420,
      421,
      422,
      423,
      424,
      425,
      426,
      427,
      428,
      429,
      430,
      431,
      432,
      433,
      434,
      435,
      436,
      437,
      438,
      439,
      440,
      441,
      442,
      443,
      444,
      445,
      446,
      447,
      448,
      449,
      450,
      451,
      452,
      453,
      454,
      455,
      456,
      457,
      458,
      459,
      460,
      461,
      462,
      463,
      464,
      465,
      466,
      467,
      468,
      469,
      470,
      471,
      472,
      473,
      474,
      475,
      476,
      477,
      478,
      479,
      480,
      481,
      482,
      483,
      484,
      485,
      486,
      487,
      488,
      489,
      490,
      491,
      492,
      493,
      494,
      495,
      496,
      497,
      498,
      499,
      500,
      501,
      502,
      503,
      504,
      505,
      506,
      507,
      508,
      509,
      510,
      511,
      512,
      513,
      514,
      515,
      516,
      517,
      518,
      519,
      520,
      521,
      522,
      523,
      524,
      525,
      526,
      527,
      528,
      529,
      530,
      531,
      532,
      533,
      534,
      535,
      536,
      537,
      538,
      539,
      540,
      541,
      542,
      543,
      544,
      545,
      546,
      547,
      548,
      549,
      550,
      551,
      552,
      553,
      554,
      555,
      556,
      557,
      558,
      559,
      560,
      561,
      562,
      563,
      564,
      565,
      566,
      567,
      568,
      569,
      570,
      571,
      572,
      573,
      574,
      575,
      576,
      577,
      578,
      579,
      580,
      581,
      582,
      583,
      584,
      585,
      586,
      587,
      588,
      589,
      590,
      591,
      592,
      593,
      594,
      595,
      596,
      597,
      598,
      599
    ],
    "timestamps": [
      "2022-12-25T09:06:53.163437",
      "2022-12-25T09:06:58.913884",
      "2022-12-25T09:07:04.707293",
      "2022-12-25T09:07:10.428648",
      "2022-12-25T09:07:16.170048",
      "2022-12-25T09:07:21.888907",
      "2022-12-25T09:07:27.637092",
      "2022-12-25T09:07:33.376447",
      "2022-12-25T09:07:39.115251",
      "2022-12-25T09:07:44.827779",
      "2022-12-25T09:07:50.579123",
      "2022-12-25T09:07:56.264399",
      "2022-12-25T09:08:02.025334",
      "2022-12-25T09:08:07.751878",
      "2022-12-25T09:08:13.499998",
      "2022-12-25T09:08:19.212522",
      "2022-12-25T09:08:24.953062",
      "2022-12-25T09:08:30.664968",
      "2022-12-25T09:08:36.401978",
      "2022-12-25T09:08:42.110996",
      "2022-12-25T09:08:47.861206",
      "2022-12-25T09:08:53.581825",
      "2022-12-25T09:08:59.332045",
      "2022-12-25T09:09:05.045460",
      "2022-12-25T09:09:10.794699",
      "2022-12-25T09:09:16.473518",
      "2022-12-25T09:09:22.223475",
      "2022-12-25T09:09:27.999969",
      "2022-12-25T09:09:34.124451",
      "2022-12-25T09:09:39.883446",
      "2022-12-25T09:09:45.627914",
      "2022-12-25T09:09:51.346012",
      "2022-12-25T09:09:57.094269",
      "2022-12-25T09:10:02.815686",
      "2022-12-25T09:10:08.558762",
      "2022-12-25T09:10:14.289898",
      "2022-12-25T09:10:20.033376",
      "2022-12-25T09:10:25.713721",
      "2022-12-25T09:10:31.475500",
      "2022-12-25T09:10:37.176141",
      "2022-12-25T09:10:42.914760",
      "2022-12-25T09:10:48.632164",
      "2022-12-25T09:10:54.364766",
      "2022-12-25T09:11:00.081229",
      "2022-12-25T09:11:05.817000",
      "2022-12-25T09:11:11.527430",
      "2022-12-25T09:11:17.271117",
      "2022-12-25T09:11:22.994572",
      "2022-12-25T09:11:28.728625",
      "2022-12-25T09:11:34.443563",
      "2022-12-25T09:11:40.183778",
      "2022-12-25T09:11:45.868810",
      "2022-12-25T09:11:51.631979",
      "2022-12-25T09:11:57.335104",
      "2022-12-25T09:12:03.077308",
      "2022-12-25T09:12:08.789756",
      "2022-12-25T09:12:14.533694",
      "2022-12-25T09:12:20.249297",
      "2022-12-25T09:12:25.987812",
      "2022-12-25T09:12:31.697682",
      "2022-12-25T09:12:37.437100",
      "2022-12-25T09:12:43.146847",
      "2022-12-25T09:12:48.889460",
      "2022-12-25T09:12:54.627256",
      "2022-12-25T09:13:00.376102",
      "2022-12-25T09:13:06.056362",
      "2022-12-25T09:13:11.822545",
      "2022-12-25T09:13:17.542375",
      "2022-12-25T09:13:23.340417",
      "2022-12-25T09:13:29.058379",
      "2022-12-25T09:13:34.802764",
      "2022-12-25T09:13:40.518870",
      "2022-12-25T09:13:46.266668",
      "2022-12-25T09:13:51.995784",
      "2022-12-25T09:13:57.739046",
      "2022-12-25T09:14:03.448688",
      "2022-12-25T09:14:09.201666",
      "2022-12-25T09:14:14.923647",
      "2022-12-25T09:14:20.667522",
      "2022-12-25T09:14:26.346625",
      "2022-12-25T09:14:32.101684",
      "2022-12-25T09:14:37.810770",
      "2022-12-25T09:14:43.568695",
      "2022-12-25T09:14:49.281849",
      "2022-12-25T09:14:55.032962",
      "2022-12-25T09:15:00.766150",
      "2022-12-25T09:15:06.513980",
      "2022-12-25T09:15:12.233321",
      "2022-12-25T09:15:17.978259",
      "2022-12-25T09:15:23.691971",
      "2022-12-25T09:15:29.438212",
      "2022-12-25T09:15:35.153082",
      "2022-12-25T09:15:40.899553",
      "2022-12-25T09:15:46.571260",
      "2022-12-25T09:15:52.347382",
      "2022-12-25T09:15:58.066199",
      "2022-12-25T09:16:03.819757",
      "2022-12-25T09:16:09.553050",
      "2022-12-25T09:16:15.295364",
      "2022-12-25T09:16:21.008637",
      "2022-12-25T09:16:26.750045",
      "2022-12-25T09:16:32.463764",
      "2022-12-25T09:16:38.209691",
      "2022-12-25T09:16:43.923068",
      "2022-12-25T09:16:49.661874",
      "2022-12-25T09:16:55.381194",
      "2022-12-25T09:17:01.132715",
      "2022-12-25T09:17:06.844276",
      "2022-12-25T09:17:12.611587",
      "2022-12-25T09:17:18.332479",
      "2022-12-25T09:17:24.072367",
      "2022-12-25T09:17:29.792955",
      "2022-12-25T09:17:35.542972",
      "2022-12-25T09:17:41.253965",
      "2022-12-25T09:17:46.998864",
      "2022-12-25T09:17:52.712303",
      "2022-12-25T09:17:58.465246",
      "2022-12-25T09:18:04.182931",
      "2022-12-25T09:18:09.933175",
      "2022-12-25T09:18:15.657049",
      "2022-12-25T09:18:21.398962",
      "2022-12-25T09:18:27.098743",
      "2022-12-25T09:18:32.838442",
      "2022-12-25T09:18:38.559664",
      "2022-12-25T09:18:44.297085",
      "2022-12-25T09:18:50.019337",
      "2022-12-25T09:18:55.765443",
      "2022-12-25T09:19:01.482756",
      "2022-12-25T09:19:07.228600",
      "2022-12-25T09:19:12.941552",
      "2022-12-25T09:19:18.686761",
      "2022-12-25T09:19:24.400029",
      "2022-12-25T09:19:30.148841",
      "2022-12-25T09:19:35.834985",
      "2022-12-25T09:19:41.592651",
      "2022-12-25T09:19:47.302623",
      "2022-12-25T09:19:53.050951",
      "2022-12-25T09:19:58.763186",
      "2022-12-25T09:20:04.499155",
      "2022-12-25T09:20:10.210578",
      "2022-12-25T09:20:15.952954",
      "2022-12-25T09:20:21.665945",
      "2022-12-25T09:20:27.409735",
      "2022-12-25T09:20:33.125944",
      "2022-12-25T09:20:38.871747",
      "2022-12-25T09:20:44.588638",
      "2022-12-25T09:20:50.355546",
      "2022-12-25T09:20:56.039693",
      "2022-12-25T09:21:01.818535",
      "2022-12-25T09:21:07.525063",
      "2022-12-25T09:21:13.282468",
      "2022-12-25T09:21:19.014960",
      "2022-12-25T09:21:24.756998",
      "2022-12-25T09:21:30.473138",
      "2022-12-25T09:21:36.213395",
      "2022-12-25T09:21:41.931061",
      "2022-12-25T09:21:47.677514",
      "2022-12-25T09:21:53.396869",
      "2022-12-25T09:21:59.142190",
      "2022-12-25T09:22:04.855337",
      "2022-12-25T09:22:10.592437",
      "2022-12-25T09:22:16.270882",
      "2022-12-25T09:22:22.025221",
      "2022-12-25T09:22:27.761678",
      "2022-12-25T09:22:33.500265",
      "2022-12-25T09:22:39.236954",
      "2022-12-25T09:22:44.981223",
      "2022-12-25T09:22:50.700832",
      "2022-12-25T09:22:56.452746",
      "2022-12-25T09:23:02.170352",
      "2022-12-25T09:23:07.906857",
      "2022-12-25T09:23:13.613338",
      "2022-12-25T09:23:19.352721",
      "2022-12-25T09:23:25.061420",
      "2022-12-25T09:23:30.805822",
      "2022-12-25T09:23:36.481721",
      "2022-12-25T09:23:42.227206",
      "2022-12-25T09:23:47.939393",
      "2022-12-25T09:23:53.681721",
      "2022-12-25T09:23:59.396014",
      "2022-12-25T09:24:05.137137",
      "2022-12-25T09:24:10.856661",
      "2022-12-25T09:24:16.604106",
      "2022-12-25T09:24:22.318581",
      "2022-12-25T09:24:28.058239",
      "2022-12-25T09:24:33.769932",
      "2022-12-25T09:24:39.538700",
      "2022-12-25T09:24:45.248314",
      "2022-12-25T09:24:50.984432",
      "2022-12-25T09:24:56.680589",
      "2022-12-25T09:25:02.417602",
      "2022-12-25T09:25:08.170911",
      "2022-12-25T09:25:13.905962",
      "2022-12-25T09:25:19.636577",
      "2022-12-25T09:25:25.380374",
      "2022-12-25T09:25:31.098140",
      "2022-12-25T09:25:36.843064",
      "2022-12-25T09:25:42.555485",
      "2022-12-25T09:25:48.295666",
      "2022-12-25T09:25:54.012865",
      "2022-12-25T09:25:59.767968",
      "2022-12-25T09:26:05.490367",
      "2022-12-25T09:26:11.247817",
      "2022-12-25T09:26:16.948979",
      "2022-12-25T09:26:22.706311",
      "2022-12-25T09:26:28.427572",
      "2022-12-25T09:26:34.169794",
      "2022-12-25T09:26:39.918109",
      "2022-12-25T09:26:45.654762",
      "2022-12-25T09:26:51.374714",
      "2022-12-25T09:26:57.134017",
      "2022-12-25T09:27:02.849361",
      "2022-12-25T09:27:08.597197",
      "2022-12-25T09:27:14.315806",
      "2022-12-25T09:27:20.059982",
      "2022-12-25T09:27:25.776863",
      "2022-12-25T09:27:31.520615",
      "2022-12-25T09:27:37.237220",
      "2022-12-25T09:27:42.973060",
      "2022-12-25T09:27:48.693906",
      "2022-12-25T09:27:54.434579",
      "2022-12-25T09:28:00.166004",
      "2022-12-25T09:28:05.912572",
      "2022-12-25T09:28:11.625170",
      "2022-12-25T09:28:17.369323",
      "2022-12-25T09:28:23.088441",
      "2022-12-25T09:28:28.833061",
      "2022-12-25T09:28:34.539115",
      "2022-12-25T09:28:40.290409",
      "2022-12-25T09:28:45.982300",
      "2022-12-25T09:28:51.732207",
      "2022-12-25T09:28:57.428307",
      "2022-12-25T09:29:03.166288",
      "2022-12-25T09:29:08.886832",
      "2022-12-25T09:29:14.626527",
      "2022-12-25T09:29:20.356511",
      "2022-12-25T09:29:26.100584",
      "2022-12-25T09:29:31.821524",
      "2022-12-25T09:29:37.562738",
      "2022-12-25T09:29:43.290213",
      "2022-12-25T09:29:49.031215",
      "2022-12-25T09:29:54.738442",
      "2022-12-25T09:30:00.481769",
      "2022-12-25T09:30:06.169562",
      "2022-12-25T09:30:11.926594",
      "2022-12-25T09:30:17.667361",
      "2022-12-25T09:30:23.405868",
      "2022-12-25T09:30:29.120282",
      "2022-12-25T09:30:34.855488",
      "2022-12-25T09:30:40.570546",
      "2022-12-25T09:30:46.312246",
      "2022-12-25T09:30:52.025770",
      "2022-12-25T09:30:57.766378",
      "2022-12-25T09:31:03.475808",
      "2022-12-25T09:31:09.221591",
      "2022-12-25T09:31:14.930583",
      "2022-12-25T09:31:20.675133",
      "2022-12-25T09:31:26.347556",
      "2022-12-25T09:31:32.113192",
      "2022-12-25T09:31:37.829169",
      "2022-12-25T09:31:43.562183",
      "2022-12-25T09:31:49.278584",
      "2022-12-25T09:31:55.022141",
      "2022-12-25T09:32:00.740409",
      "2022-12-25T09:32:06.487807",
      "2022-12-25T09:32:12.203910",
      "2022-12-25T09:32:17.946498",
      "2022-12-25T09:32:23.659875",
      "2022-12-25T09:32:29.416367",
      "2022-12-25T09:32:35.132386",
      "2022-12-25T09:32:40.905888",
      "2022-12-25T09:32:46.600938",
      "2022-12-25T09:32:52.353665",
      "2022-12-25T09:32:58.087076",
      "2022-12-25T09:33:03.827512",
      "2022-12-25T09:33:09.557192",
      "2022-12-25T09:33:15.307487",
      "2022-12-25T09:33:21.031204",
      "2022-12-25T09:33:26.774288",
      "2022-12-25T09:33:32.489712",
      "2022-12-25T09:33:38.247676",
      "2022-12-25T09:33:43.963213",
      "2022-12-25T09:33:49.704292",
      "2022-12-25T09:33:55.413457",
      "2022-12-25T09:34:01.163961",
      "2022-12-25T09:34:06.846134",
      "2022-12-25T09:34:12.583448",
      "2022-12-25T09:34:18.302300",
      "2022-12-25T09:34:24.051993",
      "2022-12-25T09:34:29.765921",
      "2022-12-25T09:34:35.508083",
      "2022-12-25T09:34:41.227430",
      "2022-12-25T09:34:46.967317",
      "2022-12-25T09:34:52.684678",
      "2022-12-25T09:34:58.434410",
      "2022-12-25T09:35:04.140653",
      "2022-12-25T09:35:09.889741",
      "2022-12-25T09:35:15.609087",
      "2022-12-25T09:35:21.349987",
      "2022-12-25T09:35:27.052075",
      "2022-12-25T09:35:32.824359",
      "2022-12-25T09:35:38.538593",
      "2022-12-25T09:35:44.274896",
      "2022-12-25T09:35:50.002412",
      "2022-12-25T09:35:55.747376",
      "2022-12-25T09:36:01.460327",
      "2022-12-25T09:36:07.203318",
      "2022-12-25T09:36:12.915216",
      "2022-12-25T09:36:18.654577",
      "2022-12-25T09:36:24.388081",
      "2022-12-25T09:36:30.137091",
      "2022-12-25T09:36:35.850716",
      "2022-12-25T09:36:41.596582",
      "2022-12-25T09:36:47.310227",
      "2022-12-25T09:36:53.071124",
      "2022-12-25T09:36:58.790378",
      "2022-12-25T09:37:04.535937",
      "2022-12-25T09:37:10.260956",
      "2022-12-25T09:37:15.999001",
      "2022-12-25T09:37:21.712687",
      "2022-12-25T09:37:27.451872",
      "2022-12-25T09:37:33.167667",
      "2022-12-25T09:37:38.909529",
      "2022-12-25T09:37:44.616854",
      "2022-12-25T09:37:50.361170",
      "2022-12-25T09:37:56.082078",
      "2022-12-25T09:38:01.826539",
      "2022-12-25T09:38:07.579683",
      "2022-12-25T09:38:13.328389",
      "2022-12-25T09:38:19.045557",
      "2022-12-25T09:38:24.793280",
      "2022-12-25T09:38:30.502749",
      "2022-12-25T09:38:36.245922",
      "2022-12-25T09:38:41.959848",
      "2022-12-25T09:38:47.697275",
      "2022-12-25T09:38:53.413449",
      "2022-12-25T09:38:59.157148",
      "2022-12-25T09:39:04.906721",
      "2022-12-25T09:39:10.649982",
      "2022-12-25T09:39:16.329458",
      "2022-12-25T09:39:22.090303",
      "2022-12-25T09:39:27.822806",
      "2022-12-25T09:39:33.563261",
      "2022-12-25T09:39:39.275915",
      "2022-12-25T09:39:45.016129",
      "2022-12-25T09:39:50.740451",
      "2022-12-25T09:39:56.488226",
      "2022-12-25T09:40:02.206843",
      "2022-12-25T09:40:07.962453",
      "2022-12-25T09:40:13.687519",
      "2022-12-25T09:40:19.428792",
      "2022-12-25T09:40:25.143778",
      "2022-12-25T09:40:30.910714",
      "2022-12-25T09:40:36.584359",
      "2022-12-25T09:40:42.344898",
      "2022-12-25T09:40:48.050520",
      "2022-12-25T09:40:53.794644",
      "2022-12-25T09:40:59.504532",
      "2022-12-25T09:41:05.243942",
      "2022-12-25T09:41:10.967144",
      "2022-12-25T09:41:16.704642",
      "2022-12-25T09:41:22.425687",
      "2022-12-25T09:41:28.167889",
      "2022-12-25T09:41:33.885352",
      "2022-12-25T09:41:39.629365",
      "2022-12-25T09:41:45.344220",
      "2022-12-25T09:41:51.088941",
      "2022-12-25T09:41:56.768139",
      "2022-12-25T09:42:02.522998",
      "2022-12-25T09:42:08.231335",
      "2022-12-25T09:42:13.981018",
      "2022-12-25T09:42:19.698280",
      "2022-12-25T09:42:25.437066",
      "2022-12-25T09:42:31.165806",
      "2022-12-25T09:42:36.910710",
      "2022-12-25T09:42:42.630447",
      "2022-12-25T09:42:48.372890",
      "2022-12-25T09:42:54.083961",
      "2022-12-25T09:42:59.834542",
      "2022-12-25T09:43:05.548381",
      "2022-12-25T09:43:11.291065",
      "2022-12-25T09:43:16.974794",
      "2022-12-25T09:43:22.718074",
      "2022-12-25T09:43:28.438908",
      "2022-12-25T09:43:34.178842",
      "2022-12-25T09:43:39.907719",
      "2022-12-25T09:43:45.655248",
      "2022-12-25T09:43:51.407626",
      "2022-12-25T09:43:57.157505",
      "2022-12-25T09:44:02.881902",
      "2022-12-25T09:44:08.629942",
      "2022-12-25T09:44:14.344144",
      "2022-12-25T09:44:20.093942",
      "2022-12-25T09:44:25.803398",
      "2022-12-25T09:44:31.547419",
      "2022-12-25T09:44:37.244728",
      "2022-12-25T09:44:43.016476",
      "2022-12-25T09:44:48.729920",
      "2022-12-25T09:44:54.477054",
      "2022-12-25T09:45:00.205828",
      "2022-12-25T09:45:05.949131",
      "2022-12-25T09:45:11.668797",
      "2022-12-25T09:45:17.408186",
      "2022-12-25T09:45:23.129518",
      "2022-12-25T09:45:28.876772",
      "2022-12-25T09:45:34.588387",
      "2022-12-25T09:45:40.341571",
      "2022-12-25T09:45:46.060580",
      "2022-12-25T09:45:51.803769",
      "2022-12-25T09:45:57.512201",
      "2022-12-25T09:46:03.261296",
      "2022-12-25T09:46:08.975543",
      "2022-12-25T09:46:14.724613",
      "2022-12-25T09:46:20.448528",
      "2022-12-25T09:46:26.200139",
      "2022-12-25T09:46:31.925344",
      "2022-12-25T09:46:37.670826",
      "2022-12-25T09:46:43.386283",
      "2022-12-25T09:46:49.140080",
      "2022-12-25T09:46:54.850258",
      "2022-12-25T09:47:00.601124",
      "2022-12-25T09:47:06.326938",
      "2022-12-25T09:47:12.087932",
      "2022-12-25T09:47:17.800581",
      "2022-12-25T09:47:23.564880",
      "2022-12-25T09:47:29.282637",
      "2022-12-25T09:47:35.036353",
      "2022-12-25T09:47:40.750646",
      "2022-12-25T09:47:46.495971",
      "2022-12-25T09:47:52.218847",
      "2022-12-25T09:47:57.965977",
      "2022-12-25T09:48:03.678481",
      "2022-12-25T09:48:09.426229",
      "2022-12-25T09:48:15.135489",
      "2022-12-25T09:48:20.893474",
      "2022-12-25T09:48:26.575600",
      "2022-12-25T09:48:32.336886",
      "2022-12-25T09:48:38.040297",
      "2022-12-25T09:48:43.780301",
      "2022-12-25T09:48:49.502106",
      "2022-12-25T09:48:55.249371",
      "2022-12-25T09:49:00.971041",
      "2022-12-25T09:49:06.714631",
      "2022-12-25T09:49:12.424513",
      "2022-12-25T09:49:18.164438",
      "2022-12-25T09:49:23.880987",
      "2022-12-25T09:49:29.639180",
      "2022-12-25T09:49:35.352962",
      "2022-12-25T09:49:41.121282",
      "2022-12-25T09:49:46.794362",
      "2022-12-25T09:49:52.576499",
      "2022-12-25T09:49:58.286533",
      "2022-12-25T09:50:04.030642",
      "2022-12-25T09:50:09.750281",
      "2022-12-25T09:50:15.492545",
      "2022-12-25T09:50:21.207159",
      "2022-12-25T09:50:26.943073",
      "2022-12-25T09:50:32.652331",
      "2022-12-25T09:50:38.404222",
      "2022-12-25T09:50:44.122652",
      "2022-12-25T09:50:49.867927",
      "2022-12-25T09:50:55.601979",
      "2022-12-25T09:51:01.363688",
      "2022-12-25T09:51:07.057569",
      "2022-12-25T09:51:12.824330",
      "2022-12-25T09:51:18.529024",
      "2022-12-25T09:51:24.272274",
      "2022-12-25T09:51:29.984229",
      "2022-12-25T09:51:35.723939",
      "2022-12-25T09:51:41.457208",
      "2022-12-25T09:51:47.201010",
      "2022-12-25T09:51:52.912436",
      "2022-12-25T09:51:58.658301",
      "2022-12-25T09:52:04.374400",
      "2022-12-25T09:52:10.124184",
      "2022-12-25T09:52:15.841162",
      "2022-12-25T09:52:21.582168",
      "2022-12-25T09:52:27.283130",
      "2022-12-25T09:52:33.034119",
      "2022-12-25T09:52:38.784486",
      "2022-12-25T09:52:44.532324",
      "2022-12-25T09:52:50.264789",
      "2022-12-25T09:52:56.023275",
      "2022-12-25T09:53:01.738038",
      "2022-12-25T09:53:07.479400",
      "2022-12-25T09:53:13.190916",
      "2022-12-25T09:53:18.931750",
      "2022-12-25T09:53:24.641752",
      "2022-12-25T09:53:30.390237",
      "2022-12-25T09:53:36.100698",
      "2022-12-25T09:53:41.847122",
      "2022-12-25T09:53:47.522323",
      "2022-12-25T09:53:53.302408",
      "2022-12-25T09:53:59.011227",
      "2022-12-25T09:54:04.768377",
      "2022-12-25T09:54:10.510990",
      "2022-12-25T09:54:16.257051",
      "2022-12-25T09:54:21.981375",
      "2022-12-25T09:54:27.724070",
      "2022-12-25T09:54:33.454087",
      "2022-12-25T09:54:39.198724",
      "2022-12-25T09:54:44.908426",
      "2022-12-25T09:54:50.659559",
      "2022-12-25T09:54:56.377533",
      "2022-12-25T09:55:02.115534",
      "2022-12-25T09:55:07.807160",
      "2022-12-25T09:55:13.560784",
      "2022-12-25T09:55:19.278876",
      "2022-12-25T09:55:25.028119",
      "2022-12-25T09:55:30.748948",
      "2022-12-25T09:55:36.490698",
      "2022-12-25T09:55:42.204807",
      "2022-12-25T09:55:47.946454",
      "2022-12-25T09:55:53.654644",
      "2022-12-25T09:55:59.400993",
      "2022-12-25T09:56:05.105588",
      "2022-12-25T09:56:10.855735",
      "2022-12-25T09:56:16.564702",
      "2022-12-25T09:56:22.303845",
      "2022-12-25T09:56:28.021672",
      "2022-12-25T09:56:33.763628",
      "2022-12-25T09:56:39.477413",
      "2022-12-25T09:56:45.225328",
      "2022-12-25T09:56:50.952481",
      "2022-12-25T09:56:56.704151",
      "2022-12-25T09:57:02.432760",
      "2022-12-25T09:57:08.173964",
      "2022-12-25T09:57:13.885293",
      "2022-12-25T09:57:19.630679",
      "2022-12-25T09:57:25.349408",
      "2022-12-25T09:57:31.129920",
      "2022-12-25T09:57:36.814190",
      "2022-12-25T09:57:42.578757",
      "2022-12-25T09:57:48.287684",
      "2022-12-25T09:57:54.026974",
      "2022-12-25T09:57:59.736340",
      "2022-12-25T09:58:05.485802",
      "2022-12-25T09:58:11.200127",
      "2022-12-25T09:58:16.943228",
      "2022-12-25T09:58:22.658323",
      "2022-12-25T09:58:28.409172",
      "2022-12-25T09:58:34.119522",
      "2022-12-25T09:58:39.858342",
      "2022-12-25T09:58:45.581996",
      "2022-12-25T09:58:51.324561",
      "2022-12-25T09:58:57.011447",
      "2022-12-25T09:59:02.776547",
      "2022-12-25T09:59:08.500713",
      "2022-12-25T09:59:14.250967",
      "2022-12-25T09:59:19.967935",
      "2022-12-25T09:59:25.707647",
      "2022-12-25T09:59:31.419958",
      "2022-12-25T09:59:37.156513",
      "2022-12-25T09:59:42.867468",
      "2022-12-25T09:59:48.622966",
      "2022-12-25T09:59:54.339026",
      "2022-12-25T10:00:00.087529",
      "2022-12-25T10:00:05.796792",
      "2022-12-25T10:00:11.541573",
      "2022-12-25T10:00:17.214934",
      "2022-12-25T10:00:22.953881",
      "2022-12-25T10:00:28.666045",
      "2022-12-25T10:00:34.435866",
      "2022-12-25T10:00:40.165341",
      "2022-12-25T10:00:45.907439",
      "2022-12-25T10:00:51.629490",
      "2022-12-25T10:00:57.377449",
      "2022-12-25T10:01:03.095823",
      "2022-12-25T10:01:08.833184",
      "2022-12-25T10:01:14.541376",
      "2022-12-25T10:01:20.285909",
      "2022-12-25T10:01:25.995888",
      "2022-12-25T10:01:31.743680",
      "2022-12-25T10:01:37.436729",
      "2022-12-25T10:01:43.199355",
      "2022-12-25T10:01:48.918305",
      "2022-12-25T10:01:54.651954",
      "2022-12-25T10:02:00.375001",
      "2022-12-25T10:02:06.123440",
      "2022-12-25T10:02:11.846664",
      "2022-12-25T10:02:17.600655",
      "2022-12-25T10:02:23.313509",
      "2022-12-25T10:02:29.054609",
      "2022-12-25T10:02:34.792472",
      "2022-12-25T10:02:40.537336",
      "2022-12-25T10:02:46.244363",
      "2022-12-25T10:02:52.002631",
      "2022-12-25T10:02:57.693856",
      "2022-12-25T10:03:03.457574",
      "2022-12-25T10:03:09.175023",
      "2022-12-25T10:03:14.921507",
      "2022-12-25T10:03:20.655816",
      "2022-12-25T10:03:26.415693",
      "2022-12-25T10:03:32.131832",
      "2022-12-25T10:03:37.887783",
      "2022-12-25T10:03:43.598968",
      "2022-12-25T10:03:49.342507",
      "2022-12-25T10:03:55.052141",
      "2022-12-25T10:04:00.810439",
      "2022-12-25T10:04:06.520925"
    ],
    "values": [
      676.4599262392989,
      247.0953266333353,
      196.43355900897546,
      170.37328390092557,
      150.7362287433694,
      134.58531715816224,
      113.31447050883625,
      94.5035535758588,
      82.11812688942423,
      73.46756065269092,
      66.92292626120013,
      63.134056767789296,
      61.014331301125914,
      59.294227040997065,
      58.33731448852069,
      56.84322218949106,
      56.34178324717541,
      55.37015140912445,
      54.19632779229753,
      53.694470478928594,
      53.973005929494995,
      52.62473565580694,
      51.837740277802524,
      51.21665891575402,
      50.96205825370969,
      50.0531806806864,
      49.972909214097896,
      50.29689842809236,
      49.165605184571426,
      48.69417453514639,
      49.11141503357795,
      48.224328371337705,
      47.921101627269174,
      48.29999736155989,
      47.086889368271,
      47.03175213370845,
      46.11653525270611,
      46.03464055165717,
      45.42059674740594,
      45.80099969016421,
      45.32162061243193,
      46.418091815687696,
      45.24746500262541,
      44.92814291443947,
      44.926600184773605,
      43.99759581208032,
      44.37616342056206,
      44.33712303383498,
      43.79395816436573,
      44.12556102173095,
      43.933235044178986,
      43.39575041054007,
      44.0932379289341,
      43.36497206299704,
      43.78533715688676,
      43.275565544111316,
      44.02004444003776,
      43.02535418383133,
      42.65869032747242,
      42.80622488307187,
      42.592239861272816,
      42.511082307797324,
      42.58179728871724,
      42.9803602029926,
      42.02056719239133,
      42.29500570390782,
      42.11972846317797,
      42.73059359403037,
      41.74004309878884,
      42.194027300777115,
      41.930636045258815,
      41.973495068546036,
      41.69449466312912,
      41.800906071800874,
      41.73978705172086,
      42.22882792561082,
      41.48497523113295,
      41.43698876123478,
      41.645538465283295,
      41.425309395186645,
      41.769954131328866,
      41.603357957063245,
      41.32497155925216,
      41.12394041798039,
      41.266437197608575,
      41.14636011810083,
      41.17284463210742,
      41.15515438695696,
      41.09531763202079,
      41.24604845385601,
      41.17366443434862,
      41.09974270948371,
      40.8936355696488,
      41.04036009299452,
      40.99352157048326,
      40.86599960946658,
      40.80943292634576,
      40.86046213673867,
      41.09981229944491,
      41.01571581718634,
      40.90144117914763,
      40.69688132705566,
      40.92460559735651,
      40.672257807834654,
      40.67239685196222,
      40.549750153157255,
      40.65984848157577,
      40.83008584161977,
      40.70689677657579,
      40.82414636623489,
      40.71751690975037,
      40.84398869603659,
      40.7556580604154,
      40.53141787420817,
      40.655829727195375,
      40.71743295907547,
      40.816543084108226,
      40.462993062881885,
      40.65408281381853,
      40.50095243966264,
      40.55518687802198,
      40.380585114291435,
      40.34947531895649,
      40.575768746123025,
      40.71330457150394,
      40.488837915383094,
      40.43033185846994,
      40.417560557462004,
      40.16853144740247,
      40.23621179769808,
      40.54679416771386,
      40.37955204592612,
      40.38232952292171,
      40.398877860964966,
      40.230773436273374,
      40.22732993978923,
      40.382861801485234,
      40.199350440940485,
      40.257778479026335,
      40.24483170771557,
      40.34054453114908,
      40.361544432120816,
      40.34505021900015,
      40.40443099592031,
      40.170487195438724,
      40.1877254102522,
      40.07294493314549,
      40.27141200000889,
      40.17413347745407,
      40.133007629213964,
      39.90444922407017,
      40.27731583217796,
      40.08416239551865,
      39.89251524178887,
      40.085065617985165,
      39.924764422283786,
      40.060033938877325,
      40.09656067556704,
      40.08468410000408,
      39.89589109199121,
      40.171039011299,
      39.81889819741087,
      39.88853312244559,
      40.074122574909076,
      39.7415528581935,
      40.106096726073105,
      39.91247030807384,
      39.809960730022695,
      39.93967416896044,
      39.72873748593748,
      39.87462212709011,
      39.834748260636026,
      39.9409521006841,
      39.893604103344934,
      39.747706917851616,
      39.897673434517145,
      39.70502207089207,
      40.149936493908974,
      39.83746587598992,
      40.1085010638471,
      40.15077127564641,
      39.79987543857681,
      39.595467668679504,
      40.10688361174367,
      39.64623925805903,
      39.82119148985738,
      39.90002391241642,
      39.73715150831033,
      39.86146472160088,
      39.825750940569165,
      39.763785220929385,
      39.831675419155324,
      39.7189094850092,
      39.938860474197305,
      39.48591927710448,
      39.74573998806661,
      39.57674877776101,
      39.83861266099992,
      39.601457113523104,
      39.43718503802963,
      39.63989270085578,
      39.65849372033443,
      39.458471169913146,
      39.711450170340264,
      39.55099117609378,
      39.66345210996099,
      39.48465645690839,
      39.44104743994758,
      39.71583129303384,
      39.84986149939744,
      39.625155546645026,
      39.62090168946595,
      39.512310486625594,
      39.51746996003776,
      39.790454558160434,
      39.39340071737136,
      39.81112938219035,
      39.553249826540274,
      39.749590617084635,
      39.44851305131228,
      39.5469854243756,
      39.70176883902236,
      39.72835710665357,
      39.55912480657415,
      39.56932753768268,
      39.512996951318655,
      39.441015444830924,
      39.34597928748463,
      39.48565303139945,
      39.59996021843711,
      39.60035436267211,
      39.42356055291853,
      39.53290877026472,
      39.328188433735384,
      39.27993120991796,
      39.49041866489505,
      39.95873696201815,
      39.49987405906579,
      39.41080793406018,
      39.698159880977784,
      39.58614167142455,
      39.762333429974,
      39.47935643487231,
      39.413433400291304,
      39.782501912156405,
      39.47553538244443,
      39.56960672077772,
      39.31272451803587,
      39.353903356620755,
      39.46282818421569,
      39.56067389266111,
      39.29917205134095,
      39.394480691915824,
      39.48604091797402,
      39.436712380054836,
      39.30879816617147,
      39.315437548281736,
      39.14962707524909,
      39.34548830985339,
      39.30409039546859,
      39.44759798268627,
      39.25043337250931,
      39.2018472381991,
      39.34367785808775,
      39.3395310248849,
      39.433855201294485,
      39.31620719764257,
      39.49537656441565,
      39.29759118506491,
      39.369199464405085,
      39.315787665107145,
      39.32496379113633,
      39.236767442736394,
      39.34956327461957,
      39.39967588888777,
      39.269194143464546,
      39.19272790118905,
      39.158190505753424,
      39.503108402570675,
      39.19403590558174,
      39.32717398839752,
      39.40341073445332,
      39.346657148556794,
      39.304801248595446,
      39.16194116886541,
      39.39634372065008,
      39.23694485463676,
      39.174722818937994,
      39.37166159031109,
      39.16061074921316,
      39.42917564187691,
      39.19540044820273,
      39.22264041221181,
      39.32164843924484,
      39.145971936885616,
      39.09488897825513,
      39.05898222990099,
      39.15178916977676,
      39.13329170089476,
      39.15074967150925,
      39.24479538287283,
      39.24329558460144,
      39.39684257276278,
      39.08617622716545,
      39.16145441141564,
      39.10009418170144,
      39.28689190592072,
      39.12325895157654,
      39.11112277100429,
      39.23327146143365,
      39.243062225315775,
      39.13725266040572,
      39.091561633985755,
      39.18716028613384,
      39.132212879318075,
      39.10723987849668,
      39.36189208260444,
      39.2739742274421,
      39.265319754626574,
      39.2240240973107,
      39.30054464757428,
      39.0795823380512,
      39.208559240838625,
      39.189761653878854,
      38.99911571533494,
      39.088014793372324,
      39.12549345276197,
      38.94237209117051,
      39.07531036382556,
      39.20026293380211,
      39.03727629219144,
      39.17411926049233,
      38.92767724345772,
      39.0751982295174,
      39.18217192922923,
      39.05438456438335,
      39.096757232013005,
      39.201580713828236,
      39.00297902365385,
      39.044955058353565,
      39.04127188321234,
      38.97161352398576,
      39.054415006481456,
      39.00427664456515,
      39.161430534731466,
      39.0130328224182,
      39.02535838863041,
      39.024749188826824,
      39.14358731184281,
      38.93074331017569,
      38.981538522509915,
      38.940454708695,
      39.11513383057012,
      39.16687601643368,
      39.01172196055079,
      38.98384185821257,
      38.88985081021669,
      38.954196755674005,
      39.06778862051843,
      39.085994533384266,
      38.8995499622027,
      38.95060947487011,
      39.044643061293414,
      39.06507627670324,
      39.15328700222442,
      39.031800729568666,
      39.05362632740032,
      38.956006356799804,
      38.96309522946863,
      39.02884441936257,
      38.78800734939657,
      38.916395191490494,
      39.06389360840427,
      38.99197412118385,
      38.87949679352452,
      38.89731743579701,
      38.862979419420476,
      38.83136836031496,
      38.93905273853699,
      38.87018515384501,
      38.85652083497097,
      38.91173488041402,
      38.87371006519912,
      38.8023422879842,
      38.720582626578036,
      38.88235040095633,
      38.67720738584876,
      38.849819867950515,
      38.75522653980365,
      38.88900999423755,
      38.67091685348302,
      39.01469849237652,
      38.912829566632574,
      38.753905059790135,
      38.70296463800086,
      38.899175041372715,
      38.659258640102586,
      38.75238338102621,
      38.69473860525341,
      38.81671184567297,
      38.78822059871902,
      38.65583117264296,
      38.69840756115049,
      38.61339480703887,
      38.77692838179998,
      38.7490213501118,
      38.770945217076594,
      38.52555343846046,
      38.597860346257164,
      38.59436829814676,
      38.61610724661644,
      38.520789829744004,
      38.72634783570026,
      38.47302096131079,
      38.56307851750762,
      38.56284381229181,
      38.440312218803605,
      38.6405733404882,
      38.55742745313281,
      38.487622899310296,
      38.437833610469745,
      38.422013060521365,
      38.53640447889816,
      38.50816265766167,
      38.39445597070684,
      38.511892740257814,
      38.50889984239554,
      38.551255248848385,
      38.47599559754256,
      38.4707802651389,
      38.31348750120298,
      38.48476713343046,
      38.33350637876829,
      38.42508294388524,
      38.34467200724398,
      38.593184241536726,
      38.49787474718084,
      38.42764431005763,
      38.252435451754444,
      38.27994001321614,
      38.213809712383345,
      38.37746377491657,
      38.29513659557236,
      38.273405915410734,
      38.389551795458914,
      38.199319066231666,
      38.4215628479698,
      38.260161114487865,
      38.25111292292606,
      38.16534964518458,
      38.264093779941206,
      38.180036320517594,
      38.187406797681994,
      38.142067511604445,
      38.26830233794064,
      38.285597493596676,
      38.16331667306135,
      38.21641003408347,
      38.134050064795915,
      38.24582493901225,
      38.2670152521545,
      38.246989514231316,
      38.239504759110815,
      38.172876008417724,
      38.237597456960025,
      38.226132227047344,
      38.29329723651952,
      38.388781091942334,
      38.1407786594886,
      38.358786691598254,
      38.36567050371359,
      38.25298790829008,
      38.34868134346047,
      38.25929273004674,
      38.16677115554384,
      38.311806193230446,
      38.157203307074475,
      38.23182909628407,
      38.16442654137124,
      38.418853708529106,
      38.56937147883838,
      38.19803922502398,
      38.252416618247665,
      38.25220611064643,
      38.3148409591363,
      38.25216363970989,
      38.2702255661086,
      38.22621264122999,
      38.21685247124398,
      38.19678668093736,
      38.190665821986244,
      38.22764067734167,
      38.140496821562294,
      38.09120543878742,
      38.31690350316687,
      38.18245706051534,
      38.25261521991285,
      38.08622424183429,
      38.263081064725704,
      38.242629679517556,
      38.17235451700893,
      38.137081997902435,
      38.41663447040375,
      38.105648833710454,
      38.24987830221936,
      38.38755691092363,
      38.229726193775974,
      38.19671345976286,
      38.129178991089134,
      38.204124270735825,
      38.25746708607246,
      38.29282583059916,
      38.19482860396635,
      38.1766711604367,
      38.433504983279306,
      38.36011473860499,
      38.050816397765104,
      38.25260331605748,
      38.12108523293728,
      38.21814727196734,
      38.15199022633751,
      38.46352375057164,
      38.248550077184476,
      38.18405005041342,
      38.202024209038775,
      38.16948675152882,
      38.099142579243,
      38.154264002108064,
      38.27590639236411,
      38.13294978504372,
      38.23534849503417,
      38.22432428090552,
      37.841877736642026,
      37.82189877821722,
      37.844661753943015,
      37.829405734199575,
      37.8381344949813,
      37.82477383420275,
      37.80673110271866,
      37.81924034116411,
      37.808726286316436,
      37.83723832218679,
      37.82016680864598,
      37.83130666709744,
      37.81583937633577,
      37.81363714529777,
      37.81497279131182,
      37.83493431922793,
      37.817866207057556,
      37.81804550253741,
      37.83740230580456,
      37.818147153545695,
      37.82559987188074,
      37.84543985636915,
      37.80186632460639,
      37.82237869583207,
      37.823641865369666,
      37.82429137072958,
      37.82756591950986,
      37.8370860373133,
      37.8595980949554,
      37.840000195831685,
      37.790398586157906,
      37.77864836672457,
      37.781317944096195,
      37.78076554534782,
      37.778699069659076,
      37.77903634359258,
      37.77969454813176,
      37.775156478675584,
      37.79065266642264,
      37.779049370102925,
      37.77693650796579,
      37.78329571625944,
      37.771131205111736,
      37.77779836909419,
      37.782061107617544,
      37.77718657885953,
      37.78169151379631,
      37.77406296676465,
      37.771997506144245,
      37.77683531682007,
      37.777872769076964,
      37.777638817660005,
      37.78763719646724,
      37.78481280117044,
      37.786651278997,
      37.775961541526414,
      37.776418717108406,
      37.77966293693954,
      37.7795071940461,
      37.78767786659449,
      37.7800496580962,
      37.7723021104106,
      37.780479811037274,
      37.77663728316196,
      37.7820041637153,
      37.77456234237993,
      37.784073227779366,
      37.77709952821817
    ]
  }
}