INFO - siren_vae - Running command 'run'
INFO - siren_vae - Started run with ID "6"
[ENCODED STRUCTURE] Using faithful BN structure.
[LOADING FROM CHECKPOINT] Start epoch: 300
  0%|          | 0/100 [00:00<?, ?it/s]Epoch   301: reducing learning rate of group 0 to 1.0000e-05.
Train -ELBO: 34.99911, Val -ELBO: 35.12042:   1%|          | 1/100 [00:02<04:08,  2.51s/it]Train -ELBO: 34.99801, Val -ELBO: 35.11787:   2%|▏         | 2/100 [00:04<03:17,  2.01s/it]Train -ELBO: 35.00114, Val -ELBO: 35.11716:   3%|▎         | 3/100 [00:05<02:58,  1.84s/it]Train -ELBO: 34.99408, Val -ELBO: 35.12710:   4%|▍         | 4/100 [00:07<02:49,  1.76s/it]Train -ELBO: 35.00006, Val -ELBO: 35.11401:   5%|▌         | 5/100 [00:09<02:43,  1.73s/it]Train -ELBO: 34.98715, Val -ELBO: 35.11046:   6%|▌         | 6/100 [00:10<02:40,  1.70s/it]Train -ELBO: 34.99607, Val -ELBO: 35.11039:   7%|▋         | 7/100 [00:12<02:35,  1.67s/it]Train -ELBO: 34.98842, Val -ELBO: 35.10436:   8%|▊         | 8/100 [00:13<02:31,  1.64s/it]Train -ELBO: 34.99408, Val -ELBO: 35.11231:   9%|▉         | 9/100 [00:15<02:28,  1.63s/it]Train -ELBO: 35.00504, Val -ELBO: 35.11366:  10%|█         | 10/100 [00:17<02:27,  1.64s/it]Train -ELBO: 35.00018, Val -ELBO: 35.11016:  11%|█         | 11/100 [00:18<02:25,  1.64s/it]Train -ELBO: 35.00107, Val -ELBO: 35.10641:  12%|█▏        | 12/100 [00:20<02:25,  1.65s/it]Train -ELBO: 34.98955, Val -ELBO: 35.11645:  13%|█▎        | 13/100 [00:22<02:23,  1.65s/it]Train -ELBO: 34.99367, Val -ELBO: 35.11556:  14%|█▍        | 14/100 [00:23<02:20,  1.63s/it]Train -ELBO: 34.99229, Val -ELBO: 35.10744:  15%|█▌        | 15/100 [00:25<02:17,  1.62s/it]Train -ELBO: 34.99540, Val -ELBO: 35.11623:  16%|█▌        | 16/100 [00:26<02:15,  1.62s/it]Train -ELBO: 34.99584, Val -ELBO: 35.10066:  17%|█▋        | 17/100 [00:28<02:13,  1.61s/it]Train -ELBO: 34.99730, Val -ELBO: 35.11848:  18%|█▊        | 18/100 [00:30<02:11,  1.61s/it]Train -ELBO: 34.99507, Val -ELBO: 35.10868:  19%|█▉        | 19/100 [00:31<02:09,  1.60s/it]Train -ELBO: 34.99318, Val -ELBO: 35.11177:  20%|██        | 20/100 [00:33<02:08,  1.60s/it]Train -ELBO: 35.00217, Val -ELBO: 35.10907:  21%|██        | 21/100 [00:34<02:06,  1.60s/it]Train -ELBO: 34.98656, Val -ELBO: 35.11388:  22%|██▏       | 22/100 [00:36<02:05,  1.61s/it]Train -ELBO: 34.99996, Val -ELBO: 35.12719:  23%|██▎       | 23/100 [00:38<02:03,  1.60s/it]Train -ELBO: 34.99892, Val -ELBO: 35.11804:  24%|██▍       | 24/100 [00:39<02:01,  1.60s/it]Train -ELBO: 34.99521, Val -ELBO: 35.11115:  25%|██▌       | 25/100 [00:41<01:59,  1.60s/it]Train -ELBO: 34.98738, Val -ELBO: 35.12817:  26%|██▌       | 26/100 [00:42<01:58,  1.60s/it]Epoch   327: reducing learning rate of group 0 to 1.0000e-06.
Train -ELBO: 34.98805, Val -ELBO: 35.10487:  27%|██▋       | 27/100 [00:44<01:56,  1.59s/it]Train -ELBO: 34.99471, Val -ELBO: 35.11810:  28%|██▊       | 28/100 [00:46<01:54,  1.59s/it]Train -ELBO: 34.99168, Val -ELBO: 35.11450:  29%|██▉       | 29/100 [00:47<01:53,  1.59s/it]Train -ELBO: 34.99084, Val -ELBO: 35.11528:  30%|███       | 30/100 [00:49<01:51,  1.60s/it]Train -ELBO: 34.98917, Val -ELBO: 35.11833:  31%|███       | 31/100 [00:50<01:50,  1.60s/it]Train -ELBO: 34.99531, Val -ELBO: 35.10143:  32%|███▏      | 32/100 [00:52<01:48,  1.59s/it]Train -ELBO: 34.98497, Val -ELBO: 35.10405:  33%|███▎      | 33/100 [00:54<01:46,  1.59s/it]Train -ELBO: 34.99616, Val -ELBO: 35.10308:  34%|███▍      | 34/100 [00:55<01:45,  1.59s/it]Train -ELBO: 34.99225, Val -ELBO: 35.12183:  35%|███▌      | 35/100 [00:57<01:43,  1.59s/it]Train -ELBO: 34.99855, Val -ELBO: 35.11173:  36%|███▌      | 36/100 [00:58<01:41,  1.59s/it]Train -ELBO: 34.98981, Val -ELBO: 35.11783:  37%|███▋      | 37/100 [01:00<01:40,  1.60s/it]Train -ELBO: 34.99091, Val -ELBO: 35.10864:  38%|███▊      | 38/100 [01:02<01:39,  1.60s/it]Train -ELBO: 34.99055, Val -ELBO: 35.10471:  39%|███▉      | 39/100 [01:03<01:40,  1.65s/it]Train -ELBO: 34.98668, Val -ELBO: 35.11447:  40%|████      | 40/100 [01:05<01:40,  1.67s/it]Train -ELBO: 34.98917, Val -ELBO: 35.10401:  41%|████      | 41/100 [01:07<01:37,  1.65s/it]Train -ELBO: 34.99996, Val -ELBO: 35.10596:  42%|████▏     | 42/100 [01:08<01:35,  1.64s/it]Train -ELBO: 34.99309, Val -ELBO: 35.12178:  43%|████▎     | 43/100 [01:10<01:32,  1.63s/it]Train -ELBO: 34.99399, Val -ELBO: 35.11911:  44%|████▍     | 44/100 [01:11<01:30,  1.62s/it]Train -ELBO: 34.99130, Val -ELBO: 35.10925:  45%|████▌     | 45/100 [01:13<01:28,  1.61s/it]Train -ELBO: 34.99459, Val -ELBO: 35.10819:  46%|████▌     | 46/100 [01:15<01:27,  1.62s/it]Train -ELBO: 34.99905, Val -ELBO: 35.10510:  47%|████▋     | 47/100 [01:16<01:26,  1.63s/it]Train -ELBO: 34.99141, Val -ELBO: 35.10756:  48%|████▊     | 48/100 [01:18<01:25,  1.64s/it]Train -ELBO: 34.99594, Val -ELBO: 35.11323:  49%|████▉     | 49/100 [01:20<01:24,  1.65s/it]Train -ELBO: 34.99593, Val -ELBO: 35.10482:  50%|█████     | 50/100 [01:21<01:23,  1.66s/it]Train -ELBO: 35.00136, Val -ELBO: 35.11242:  51%|█████     | 51/100 [01:23<01:21,  1.66s/it]Train -ELBO: 34.99789, Val -ELBO: 35.10670:  52%|█████▏    | 52/100 [01:25<01:18,  1.64s/it]Train -ELBO: 34.99770, Val -ELBO: 35.11406:  53%|█████▎    | 53/100 [01:26<01:17,  1.65s/it]Train -ELBO: 34.98704, Val -ELBO: 35.10102:  54%|█████▍    | 54/100 [01:28<01:14,  1.63s/it]Train -ELBO: 34.99057, Val -ELBO: 35.10024:  55%|█████▌    | 55/100 [01:29<01:12,  1.62s/it]Train -ELBO: 34.99090, Val -ELBO: 35.10957:  56%|█████▌    | 56/100 [01:31<01:11,  1.63s/it]Train -ELBO: 34.99278, Val -ELBO: 35.11113:  57%|█████▋    | 57/100 [01:33<01:10,  1.63s/it]Train -ELBO: 34.98996, Val -ELBO: 35.10742:  58%|█████▊    | 58/100 [01:34<01:07,  1.62s/it]Train -ELBO: 34.99579, Val -ELBO: 35.11996:  59%|█████▉    | 59/100 [01:36<01:06,  1.61s/it]Train -ELBO: 34.98234, Val -ELBO: 35.10989:  60%|██████    | 60/100 [01:38<01:05,  1.63s/it]Train -ELBO: 34.99646, Val -ELBO: 35.10618:  61%|██████    | 61/100 [01:39<01:03,  1.63s/it]Train -ELBO: 34.98687, Val -ELBO: 35.10704:  62%|██████▏   | 62/100 [01:41<01:02,  1.66s/it]Train -ELBO: 34.99051, Val -ELBO: 35.10479:  63%|██████▎   | 63/100 [01:43<01:01,  1.65s/it]Train -ELBO: 34.98940, Val -ELBO: 35.11352:  64%|██████▍   | 64/100 [01:44<00:58,  1.64s/it]Train -ELBO: 34.99142, Val -ELBO: 35.10928:  65%|██████▌   | 65/100 [01:46<00:56,  1.62s/it]Train -ELBO: 34.99067, Val -ELBO: 35.10631:  66%|██████▌   | 66/100 [01:47<00:54,  1.61s/it]Train -ELBO: 34.99121, Val -ELBO: 35.11352:  67%|██████▋   | 67/100 [01:49<00:53,  1.61s/it]Train -ELBO: 34.99750, Val -ELBO: 35.11541:  68%|██████▊   | 68/100 [01:51<00:51,  1.60s/it]Train -ELBO: 34.98748, Val -ELBO: 35.09758:  69%|██████▉   | 69/100 [01:52<00:49,  1.60s/it]Train -ELBO: 34.99588, Val -ELBO: 35.10982:  70%|███████   | 70/100 [01:54<00:48,  1.60s/it]Train -ELBO: 34.99136, Val -ELBO: 35.11981:  71%|███████   | 71/100 [01:55<00:46,  1.60s/it]Train -ELBO: 34.98313, Val -ELBO: 35.10944:  72%|███████▏  | 72/100 [01:57<00:44,  1.60s/it]Train -ELBO: 34.98919, Val -ELBO: 35.10341:  73%|███████▎  | 73/100 [01:59<00:44,  1.66s/it]Train -ELBO: 34.98455, Val -ELBO: 35.11676:  74%|███████▍  | 74/100 [02:01<00:43,  1.68s/it]Train -ELBO: 34.98744, Val -ELBO: 35.11468:  75%|███████▌  | 75/100 [02:02<00:42,  1.71s/it]Train -ELBO: 34.99989, Val -ELBO: 35.10854:  76%|███████▌  | 76/100 [02:04<00:40,  1.71s/it]Train -ELBO: 34.99411, Val -ELBO: 35.10891:  77%|███████▋  | 77/100 [02:06<00:38,  1.67s/it]Train -ELBO: 34.99812, Val -ELBO: 35.11952:  78%|███████▊  | 78/100 [02:07<00:36,  1.64s/it]Train -ELBO: 34.99427, Val -ELBO: 35.11326:  79%|███████▉  | 79/100 [02:09<00:34,  1.63s/it]Train -ELBO: 34.99430, Val -ELBO: 35.11689:  80%|████████  | 80/100 [02:10<00:32,  1.62s/it]Train -ELBO: 35.00427, Val -ELBO: 35.10932:  81%|████████  | 81/100 [02:12<00:30,  1.61s/it]Train -ELBO: 34.98925, Val -ELBO: 35.11474:  82%|████████▏ | 82/100 [02:14<00:28,  1.60s/it]Train -ELBO: 34.99016, Val -ELBO: 35.10646:  83%|████████▎ | 83/100 [02:15<00:27,  1.60s/it]Train -ELBO: 34.99370, Val -ELBO: 35.10047:  84%|████████▍ | 84/100 [02:17<00:25,  1.60s/it]Train -ELBO: 34.99180, Val -ELBO: 35.11040:  85%|████████▌ | 85/100 [02:18<00:24,  1.64s/it]Train -ELBO: 34.99239, Val -ELBO: 35.12072:  86%|████████▌ | 86/100 [02:20<00:23,  1.66s/it]Train -ELBO: 34.98944, Val -ELBO: 35.10506:  87%|████████▋ | 87/100 [02:22<00:21,  1.67s/it]Train -ELBO: 34.99153, Val -ELBO: 35.10604:  88%|████████▊ | 88/100 [02:24<00:20,  1.68s/it]Train -ELBO: 34.98777, Val -ELBO: 35.09757:  89%|████████▉ | 89/100 [02:25<00:18,  1.66s/it]Train -ELBO: 34.99253, Val -ELBO: 35.13141:  90%|█████████ | 90/100 [02:27<00:16,  1.67s/it]Train -ELBO: 34.98731, Val -ELBO: 35.11954:  91%|█████████ | 91/100 [02:28<00:14,  1.66s/it]Train -ELBO: 34.98149, Val -ELBO: 35.10440:  92%|█████████▏| 92/100 [02:30<00:13,  1.66s/it]Train -ELBO: 34.99962, Val -ELBO: 35.11279:  93%|█████████▎| 93/100 [02:32<00:11,  1.66s/it]Train -ELBO: 34.98740, Val -ELBO: 35.11560:  94%|█████████▍| 94/100 [02:34<00:10,  1.67s/it]Train -ELBO: 35.00025, Val -ELBO: 35.11222:  95%|█████████▌| 95/100 [02:35<00:08,  1.67s/it]Train -ELBO: 34.99112, Val -ELBO: 35.10462:  96%|█████████▌| 96/100 [02:37<00:06,  1.66s/it]Train -ELBO: 34.99703, Val -ELBO: 35.10957:  97%|█████████▋| 97/100 [02:39<00:05,  1.71s/it]Train -ELBO: 34.99250, Val -ELBO: 35.10862:  98%|█████████▊| 98/100 [02:41<00:03,  1.82s/it]Train -ELBO: 34.98802, Val -ELBO: 35.12111:  99%|█████████▉| 99/100 [02:42<00:01,  1.75s/it]Train -ELBO: 34.99626, Val -ELBO: 35.10908: 100%|██████████| 100/100 [02:44<00:00,  1.71s/it]Train -ELBO: 34.99626, Val -ELBO: 35.10908: 100%|██████████| 100/100 [02:44<00:00,  1.64s/it]
INFO - siren_vae - Completed after 0:02:46
