{
  "memory.usage": {
    "steps": [
      0,
      1,
      2,
      3,
      4,
      5,
      6,
      7,
      8,
      9,
      10,
      11,
      12,
      13,
      14,
      15,
      16,
      17,
      18,
      19,
      20
    ],
    "timestamps": [
      "2022-09-29T07:51:03.950686",
      "2022-09-29T07:52:04.937505",
      "2022-09-29T07:53:12.527158",
      "2022-09-29T07:54:20.474275",
      "2022-09-29T07:55:28.064354",
      "2022-09-29T07:56:36.856299",
      "2022-09-29T07:57:45.979057",
      "2022-09-29T07:58:59.894504",
      "2022-09-29T08:00:09.887621",
      "2022-09-29T08:01:17.589679",
      "2022-09-29T08:02:25.252270",
      "2022-09-29T08:03:33.068270",
      "2022-09-29T08:04:40.953249",
      "2022-09-29T08:05:48.281421",
      "2022-09-29T08:06:55.095713",
      "2022-09-29T08:08:02.178494",
      "2022-09-29T08:09:10.621320",
      "2022-09-29T08:10:18.438793",
      "2022-09-29T08:11:25.789360",
      "2022-09-29T08:12:34.152553",
      "2022-09-29T08:13:41.024919"
    ],
    "values": [
      185.760256,
      186.234368,
      186.234368,
      186.234368,
      186.234368,
      186.234368,
      186.234368,
      186.234368,
      186.234368,
      186.234368,
      186.234368,
      186.234368,
      186.234368,
      186.234368,
      186.234368,
      186.234368,
      186.234368,
      186.234368,
      186.234368,
      186.234368,
      186.234368
    ]
  },
  "train": {
    "steps": [
      0,
      1,
      2,
      3,
      4,
      5,
      6,
      7,
      8,
      9,
      10,
      11,
      12,
      13,
      14,
      15,
      16,
      17,
      18,
      19,
      20,
      21,
      22,
      23,
      24,
      25,
      26,
      27,
      28,
      29,
      30,
      31,
      32,
      33,
      34,
      35,
      36,
      37,
      38,
      39,
      40,
      41,
      42,
      43,
      44,
      45,
      46,
      47,
      48,
      49,
      50,
      51,
      52,
      53,
      54,
      55,
      56,
      57,
      58,
      59,
      60,
      61,
      62,
      63,
      64,
      65,
      66,
      67,
      68,
      69,
      70,
      71,
      72,
      73,
      74,
      75,
      76,
      77,
      78,
      79,
      80,
      81,
      82,
      83,
      84,
      85,
      86,
      87,
      88,
      89,
      90,
      91,
      92,
      93,
      94,
      95,
      96,
      97,
      98,
      99,
      100,
      101,
      102,
      103,
      104,
      105,
      106,
      107,
      108,
      109,
      110,
      111,
      112,
      113,
      114,
      115,
      116,
      117,
      118,
      119,
      120,
      121,
      122,
      123,
      124,
      125,
      126,
      127,
      128,
      129,
      130,
      131,
      132,
      133,
      134,
      135,
      136,
      137,
      138,
      139,
      140,
      141,
      142,
      143,
      144,
      145,
      146,
      147,
      148,
      149,
      150,
      151,
      152,
      153,
      154,
      155,
      156,
      157,
      158,
      159,
      160,
      161,
      162,
      163,
      164,
      165,
      166,
      167,
      168,
      169,
      170,
      171,
      172,
      173,
      174,
      175,
      176,
      177,
      178,
      179,
      180,
      181,
      182,
      183,
      184,
      185,
      186,
      187,
      188,
      189,
      190,
      191,
      192,
      193,
      194,
      195,
      196,
      197,
      198,
      199,
      200
    ],
    "timestamps": [
      "2022-09-29T07:51:03.950491",
      "2022-09-29T07:51:11.086966",
      "2022-09-29T07:51:18.065589",
      "2022-09-29T07:51:24.749610",
      "2022-09-29T07:51:31.644816",
      "2022-09-29T07:51:38.299495",
      "2022-09-29T07:51:44.971845",
      "2022-09-29T07:51:51.604998",
      "2022-09-29T07:51:58.291313",
      "2022-09-29T07:52:04.937368",
      "2022-09-29T07:52:11.614390",
      "2022-09-29T07:52:18.298624",
      "2022-09-29T07:52:25.164138",
      "2022-09-29T07:52:31.951394",
      "2022-09-29T07:52:38.584044",
      "2022-09-29T07:52:45.291411",
      "2022-09-29T07:52:51.899968",
      "2022-09-29T07:52:58.741655",
      "2022-09-29T07:53:05.562299",
      "2022-09-29T07:53:12.526961",
      "2022-09-29T07:53:19.257829",
      "2022-09-29T07:53:25.900221",
      "2022-09-29T07:53:32.573926",
      "2022-09-29T07:53:39.317979",
      "2022-09-29T07:53:46.299677",
      "2022-09-29T07:53:52.950797",
      "2022-09-29T07:53:59.596792",
      "2022-09-29T07:54:06.714258",
      "2022-09-29T07:54:13.473319",
      "2022-09-29T07:54:20.474026",
      "2022-09-29T07:54:27.217396",
      "2022-09-29T07:54:33.891652",
      "2022-09-29T07:54:40.537040",
      "2022-09-29T07:54:47.511256",
      "2022-09-29T07:54:54.406104",
      "2022-09-29T07:55:01.229725",
      "2022-09-29T07:55:07.878200",
      "2022-09-29T07:55:14.527576",
      "2022-09-29T07:55:21.180042",
      "2022-09-29T07:55:28.064219",
      "2022-09-29T07:55:35.259138",
      "2022-09-29T07:55:42.386136",
      "2022-09-29T07:55:49.326839",
      "2022-09-29T07:55:56.224384",
      "2022-09-29T07:56:03.000331",
      "2022-09-29T07:56:09.795787",
      "2022-09-29T07:56:16.565518",
      "2022-09-29T07:56:23.322959",
      "2022-09-29T07:56:30.055917",
      "2022-09-29T07:56:36.856156",
      "2022-09-29T07:56:43.636994",
      "2022-09-29T07:56:50.407750",
      "2022-09-29T07:56:57.161315",
      "2022-09-29T07:57:03.857229",
      "2022-09-29T07:57:10.618115",
      "2022-09-29T07:57:17.401309",
      "2022-09-29T07:57:24.192382",
      "2022-09-29T07:57:30.984049",
      "2022-09-29T07:57:38.033554",
      "2022-09-29T07:57:45.978896",
      "2022-09-29T07:57:53.428787",
      "2022-09-29T07:58:00.906316",
      "2022-09-29T07:58:08.295428",
      "2022-09-29T07:58:15.752777",
      "2022-09-29T07:58:23.108881",
      "2022-09-29T07:58:30.491476",
      "2022-09-29T07:58:38.052750",
      "2022-09-29T07:58:45.417600",
      "2022-09-29T07:58:52.683572",
      "2022-09-29T07:58:59.894349",
      "2022-09-29T07:59:07.148105",
      "2022-09-29T07:59:14.393999",
      "2022-09-29T07:59:21.760238",
      "2022-09-29T07:59:28.864504",
      "2022-09-29T07:59:36.111124",
      "2022-09-29T07:59:42.894813",
      "2022-09-29T07:59:49.643691",
      "2022-09-29T07:59:56.488802",
      "2022-09-29T08:00:03.252145",
      "2022-09-29T08:00:09.887372",
      "2022-09-29T08:00:16.659755",
      "2022-09-29T08:00:23.319815",
      "2022-09-29T08:00:29.940982",
      "2022-09-29T08:00:36.624773",
      "2022-09-29T08:00:43.429787",
      "2022-09-29T08:00:50.210584",
      "2022-09-29T08:00:57.019927",
      "2022-09-29T08:01:04.025602",
      "2022-09-29T08:01:10.915498",
      "2022-09-29T08:01:17.589526",
      "2022-09-29T08:01:24.360215",
      "2022-09-29T08:01:31.104737",
      "2022-09-29T08:01:37.740814",
      "2022-09-29T08:01:44.418099",
      "2022-09-29T08:01:51.017400",
      "2022-09-29T08:01:57.784017",
      "2022-09-29T08:02:04.482531",
      "2022-09-29T08:02:11.470227",
      "2022-09-29T08:02:18.300223",
      "2022-09-29T08:02:25.252130",
      "2022-09-29T08:02:32.065042",
      "2022-09-29T08:02:38.726331",
      "2022-09-29T08:02:45.406317",
      "2022-09-29T08:02:52.033030",
      "2022-09-29T08:02:58.824474",
      "2022-09-29T08:03:05.670696",
      "2022-09-29T08:03:12.622530",
      "2022-09-29T08:03:19.333512",
      "2022-09-29T08:03:26.016964",
      "2022-09-29T08:03:33.068114",
      "2022-09-29T08:03:39.993476",
      "2022-09-29T08:03:46.837299",
      "2022-09-29T08:03:53.770151",
      "2022-09-29T08:04:00.740660",
      "2022-09-29T08:04:07.473095",
      "2022-09-29T08:04:14.316335",
      "2022-09-29T08:04:20.945062",
      "2022-09-29T08:04:27.602590",
      "2022-09-29T08:04:34.286271",
      "2022-09-29T08:04:40.953110",
      "2022-09-29T08:04:47.670341",
      "2022-09-29T08:04:54.424895",
      "2022-09-29T08:05:01.547500",
      "2022-09-29T08:05:08.233521",
      "2022-09-29T08:05:15.011175",
      "2022-09-29T08:05:21.662737",
      "2022-09-29T08:05:28.296422",
      "2022-09-29T08:05:34.999682",
      "2022-09-29T08:05:41.657113",
      "2022-09-29T08:05:48.281284",
      "2022-09-29T08:05:55.046679",
      "2022-09-29T08:06:01.678587",
      "2022-09-29T08:06:08.332081",
      "2022-09-29T08:06:15.003446",
      "2022-09-29T08:06:21.662054",
      "2022-09-29T08:06:28.377452",
      "2022-09-29T08:06:35.022506",
      "2022-09-29T08:06:41.729942",
      "2022-09-29T08:06:48.443418",
      "2022-09-29T08:06:55.095572",
      "2022-09-29T08:07:01.823736",
      "2022-09-29T08:07:08.496338",
      "2022-09-29T08:07:15.215262",
      "2022-09-29T08:07:21.913414",
      "2022-09-29T08:07:28.518032",
      "2022-09-29T08:07:35.257622",
      "2022-09-29T08:07:41.856089",
      "2022-09-29T08:07:48.560758",
      "2022-09-29T08:07:55.200211",
      "2022-09-29T08:08:02.178357",
      "2022-09-29T08:08:08.863437",
      "2022-09-29T08:08:15.604751",
      "2022-09-29T08:08:22.210338",
      "2022-09-29T08:08:28.868514",
      "2022-09-29T08:08:35.532374",
      "2022-09-29T08:08:42.278807",
      "2022-09-29T08:08:49.166304",
      "2022-09-29T08:08:56.324452",
      "2022-09-29T08:09:03.315801",
      "2022-09-29T08:09:10.621174",
      "2022-09-29T08:09:17.411969",
      "2022-09-29T08:09:24.199062",
      "2022-09-29T08:09:31.257357",
      "2022-09-29T08:09:37.908454",
      "2022-09-29T08:09:44.522600",
      "2022-09-29T08:09:51.200916",
      "2022-09-29T08:09:57.911004",
      "2022-09-29T08:10:04.638552",
      "2022-09-29T08:10:11.353084",
      "2022-09-29T08:10:18.438649",
      "2022-09-29T08:10:25.203957",
      "2022-09-29T08:10:31.971072",
      "2022-09-29T08:10:38.614168",
      "2022-09-29T08:10:45.258776",
      "2022-09-29T08:10:52.412690",
      "2022-09-29T08:10:59.081481",
      "2022-09-29T08:11:05.726769",
      "2022-09-29T08:11:12.365108",
      "2022-09-29T08:11:19.093946",
      "2022-09-29T08:11:25.789223",
      "2022-09-29T08:11:32.535314",
      "2022-09-29T08:11:39.269317",
      "2022-09-29T08:11:46.278192",
      "2022-09-29T08:11:53.275463",
      "2022-09-29T08:12:00.312405",
      "2022-09-29T08:12:07.176245",
      "2022-09-29T08:12:13.968304",
      "2022-09-29T08:12:20.674796",
      "2022-09-29T08:12:27.459146",
      "2022-09-29T08:12:34.152414",
      "2022-09-29T08:12:40.827671",
      "2022-09-29T08:12:47.483777",
      "2022-09-29T08:12:54.133854",
      "2022-09-29T08:13:00.779332",
      "2022-09-29T08:13:07.434563",
      "2022-09-29T08:13:14.017452",
      "2022-09-29T08:13:20.738520",
      "2022-09-29T08:13:27.636797",
      "2022-09-29T08:13:34.411130",
      "2022-09-29T08:13:41.024770",
      "2022-09-29T08:13:47.735351"
    ],
    "values": [
      18.215522938387288,
      17.63044370630452,
      17.03027606203234,
      16.474616110880724,
      15.842255222563214,
      15.334036408031537,
      14.568399470524861,
      14.326588032811063,
      13.79005828674481,
      13.491116973090078,
      13.204726129261152,
      12.916858221503968,
      12.341967329129332,
      11.891633273495675,
      12.04564599361668,
      11.9482969055901,
      11.223103153192119,
      10.944667723929259,
      10.65929709463974,
      10.758106278486,
      10.67868211699865,
      10.442865883442861,
      10.545160641692057,
      9.796711028433286,
      9.815786391710999,
      9.429244438518591,
      9.32669732441699,
      9.228708323989322,
      9.093835261308937,
      8.811252445814395,
      8.44147485065069,
      9.268208542367395,
      8.68633240226004,
      8.678665055930386,
      8.647685779657985,
      8.620165763148329,
      8.437875665455204,
      8.315725208864796,
      8.29421032001682,
      8.402891425059632,
      8.408244346227363,
      8.236116358744473,
      8.033018598771015,
      8.013763024376459,
      8.185926537509864,
      7.8199048057590685,
      8.294791457797457,
      8.189609143547294,
      8.724122090200133,
      7.977041441736027,
      8.462774191988606,
      7.921659786210333,
      8.312061306429097,
      8.151715239789459,
      8.017864956286768,
      8.077977703075215,
      8.203450286506543,
      8.25996449372038,
      8.06533081689048,
      8.14336565311028,
      8.141205518292997,
      8.09566829784692,
      8.073904693892002,
      8.459702559632651,
      8.57696463739341,
      8.277373452128462,
      8.351978130925017,
      8.459771612179148,
      8.6650971501705,
      11.787134365940783,
      8.484365563776171,
      8.41029049586919,
      8.89327116887913,
      8.961308889487455,
      9.372606559747435,
      9.501361003263954,
      9.217869559948111,
      9.811887650431807,
      9.918796509701952,
      10.245142438288822,
      9.836254287070915,
      9.762191888277904,
      9.930802166249041,
      9.796592219061274,
      9.881091801734682,
      9.973629224865931,
      9.760582849637736,
      9.806948033033189,
      10.202317780596418,
      10.345819191093373,
      10.140728331740013,
      10.264127015957834,
      10.231222796560708,
      10.261254960104694,
      10.174192147226115,
      10.286221988604984,
      10.47208583543883,
      10.459280871825303,
      10.316885811392979,
      10.27013867607578,
      10.201067430555977,
      10.260087026550499,
      10.183382047485281,
      10.170392907699183,
      10.603436557929975,
      10.205884717516108,
      10.370982220455149,
      10.042687749742354,
      10.128819599791123,
      10.44899844930011,
      10.096108477897742,
      10.26821274989934,
      10.036463830323006,
      10.061733851618268,
      10.147898894926135,
      10.061662528927982,
      10.073203579724478,
      9.931700996189978,
      10.134140750069301,
      9.899246579742107,
      9.953715570779236,
      10.034559396220144,
      9.959123658560383,
      10.379326512721828,
      9.98585016465538,
      10.145385156271917,
      9.671350682763112,
      10.198351928770666,
      9.844048215379697,
      10.043096491147901,
      9.844597421882682,
      9.908911442924731,
      9.986317370150012,
      9.874257476255488,
      9.815813515776858,
      9.663166186166439,
      9.901384189313413,
      9.853596019337214,
      9.671753189857865,
      9.588845664188488,
      9.559714593509447,
      9.458851816815748,
      9.647553134165044,
      9.902572864539927,
      9.498344484978713,
      9.808770852183567,
      9.49119282804795,
      9.733282927854441,
      9.678075294289954,
      9.590780280917826,
      9.504350690055226,
      9.707713081897085,
      9.641895789564584,
      9.678569558395678,
      9.66225266845399,
      9.770666779938573,
      9.646548393311637,
      9.527799899230619,
      9.705106111533924,
      9.619182570076017,
      9.47985512984934,
      9.416257002968539,
      9.666772880195387,
      9.411557269526675,
      9.370436789896809,
      9.437684376827471,
      9.460332342617136,
      9.22012433191439,
      9.669600791178574,
      9.510621016062215,
      9.597610721445784,
      9.477729333857033,
      9.533490946343955,
      9.55747177019099,
      9.256331205601043,
      9.640913063822097,
      9.32643424449821,
      9.335314424657419,
      9.616782947291448,
      9.510807710893811,
      9.38357490743256,
      9.608246230920534,
      9.456297377236298,
      9.424710562850755,
      9.365250196024792,
      9.22749888781643,
      9.419426211641214,
      9.333644204739334,
      9.398341978529041,
      9.338328601892536,
      9.397161220063774,
      9.5403699877344,
      9.492904225296693,
      9.642323473712583,
      9.387461212644808,
      9.407271361040253,
      9.589227394831362,
      9.247333149935791,
      9.577606564282192,
      9.513943210435169,
      9.42986121454829
    ]
  },
  "val": {
    "steps": [
      0,
      1,
      2,
      3,
      4,
      5,
      6,
      7,
      8,
      9,
      10,
      11,
      12,
      13,
      14,
      15,
      16,
      17,
      18,
      19,
      20,
      21,
      22,
      23,
      24,
      25,
      26,
      27,
      28,
      29,
      30,
      31,
      32,
      33,
      34,
      35,
      36,
      37,
      38,
      39,
      40,
      41,
      42,
      43,
      44,
      45,
      46,
      47,
      48,
      49,
      50,
      51,
      52,
      53,
      54,
      55,
      56,
      57,
      58,
      59,
      60,
      61,
      62,
      63,
      64,
      65,
      66,
      67,
      68,
      69,
      70,
      71,
      72,
      73,
      74,
      75,
      76,
      77,
      78,
      79,
      80,
      81,
      82,
      83,
      84,
      85,
      86,
      87,
      88,
      89,
      90,
      91,
      92,
      93,
      94,
      95,
      96,
      97,
      98,
      99,
      100,
      101,
      102,
      103,
      104,
      105,
      106,
      107,
      108,
      109,
      110,
      111,
      112,
      113,
      114,
      115,
      116,
      117,
      118,
      119,
      120,
      121,
      122,
      123,
      124,
      125,
      126,
      127,
      128,
      129,
      130,
      131,
      132,
      133,
      134,
      135,
      136,
      137,
      138,
      139,
      140,
      141,
      142,
      143,
      144,
      145,
      146,
      147,
      148,
      149,
      150,
      151,
      152,
      153,
      154,
      155,
      156,
      157,
      158,
      159,
      160,
      161,
      162,
      163,
      164,
      165,
      166,
      167,
      168,
      169,
      170,
      171,
      172,
      173,
      174,
      175,
      176,
      177,
      178,
      179,
      180,
      181,
      182,
      183,
      184,
      185,
      186,
      187,
      188,
      189,
      190,
      191,
      192,
      193,
      194,
      195,
      196,
      197,
      198,
      199
    ],
    "timestamps": [
      "2022-09-29T07:51:10.871562",
      "2022-09-29T07:51:17.848870",
      "2022-09-29T07:51:24.543368",
      "2022-09-29T07:51:31.394396",
      "2022-09-29T07:51:38.094664",
      "2022-09-29T07:51:44.764768",
      "2022-09-29T07:51:51.398240",
      "2022-09-29T07:51:58.086636",
      "2022-09-29T07:52:04.731458",
      "2022-09-29T07:52:11.390092",
      "2022-09-29T07:52:18.092653",
      "2022-09-29T07:52:24.957864",
      "2022-09-29T07:52:31.745851",
      "2022-09-29T07:52:38.379980",
      "2022-09-29T07:52:45.040052",
      "2022-09-29T07:52:51.693380",
      "2022-09-29T07:52:58.531697",
      "2022-09-29T07:53:05.351528",
      "2022-09-29T07:53:12.322921",
      "2022-09-29T07:53:19.035424",
      "2022-09-29T07:53:25.694962",
      "2022-09-29T07:53:32.354221",
      "2022-09-29T07:53:39.109562",
      "2022-09-29T07:53:46.095127",
      "2022-09-29T07:53:52.745309",
      "2022-09-29T07:53:59.391637",
      "2022-09-29T07:54:06.466539",
      "2022-09-29T07:54:13.265986",
      "2022-09-29T07:54:20.266182",
      "2022-09-29T07:54:26.995712",
      "2022-09-29T07:54:33.687238",
      "2022-09-29T07:54:40.319704",
      "2022-09-29T07:54:47.282019",
      "2022-09-29T07:54:54.187073",
      "2022-09-29T07:55:01.025564",
      "2022-09-29T07:55:07.671481",
      "2022-09-29T07:55:14.323778",
      "2022-09-29T07:55:20.975755",
      "2022-09-29T07:55:27.849988",
      "2022-09-29T07:55:35.019249",
      "2022-09-29T07:55:42.167142",
      "2022-09-29T07:55:49.109665",
      "2022-09-29T07:55:56.013702",
      "2022-09-29T07:56:02.791201",
      "2022-09-29T07:56:09.585565",
      "2022-09-29T07:56:16.307470",
      "2022-09-29T07:56:23.111744",
      "2022-09-29T07:56:29.844610",
      "2022-09-29T07:56:36.645434",
      "2022-09-29T07:56:43.409048",
      "2022-09-29T07:56:50.149866",
      "2022-09-29T07:56:56.947419",
      "2022-09-29T07:57:03.647212",
      "2022-09-29T07:57:10.407797",
      "2022-09-29T07:57:17.190738",
      "2022-09-29T07:57:23.982575",
      "2022-09-29T07:57:30.761395",
      "2022-09-29T07:57:37.802056",
      "2022-09-29T07:57:45.748047",
      "2022-09-29T07:57:53.183437",
      "2022-09-29T07:58:00.680029",
      "2022-09-29T07:58:08.061837",
      "2022-09-29T07:58:15.522278",
      "2022-09-29T07:58:22.881450",
      "2022-09-29T07:58:30.261855",
      "2022-09-29T07:58:37.822490",
      "2022-09-29T07:58:45.191968",
      "2022-09-29T07:58:52.452366",
      "2022-09-29T07:58:59.672139",
      "2022-09-29T07:59:06.904734",
      "2022-09-29T07:59:14.168657",
      "2022-09-29T07:59:21.533509",
      "2022-09-29T07:59:28.654043",
      "2022-09-29T07:59:35.888243",
      "2022-09-29T07:59:42.685708",
      "2022-09-29T07:59:49.435783",
      "2022-09-29T07:59:56.279610",
      "2022-09-29T08:00:03.046568",
      "2022-09-29T08:00:09.682470",
      "2022-09-29T08:00:16.437300",
      "2022-09-29T08:00:23.110054",
      "2022-09-29T08:00:29.736028",
      "2022-09-29T08:00:36.420012",
      "2022-09-29T08:00:43.177641",
      "2022-09-29T08:00:50.004242",
      "2022-09-29T08:00:56.800872",
      "2022-09-29T08:01:03.804674",
      "2022-09-29T08:01:10.709712",
      "2022-09-29T08:01:17.365518",
      "2022-09-29T08:01:24.122997",
      "2022-09-29T08:01:30.897866",
      "2022-09-29T08:01:37.533307",
      "2022-09-29T08:01:44.212945",
      "2022-09-29T08:01:50.812124",
      "2022-09-29T08:01:57.579940",
      "2022-09-29T08:02:04.276547",
      "2022-09-29T08:02:11.195751",
      "2022-09-29T08:02:18.093774",
      "2022-09-29T08:02:25.044787",
      "2022-09-29T08:02:31.842551",
      "2022-09-29T08:02:38.520683",
      "2022-09-29T08:02:45.200767",
      "2022-09-29T08:02:51.827078",
      "2022-09-29T08:02:58.609436",
      "2022-09-29T08:03:05.462108",
      "2022-09-29T08:03:12.401785",
      "2022-09-29T08:03:19.125406",
      "2022-09-29T08:03:25.811161",
      "2022-09-29T08:03:32.850188",
      "2022-09-29T08:03:39.771950",
      "2022-09-29T08:03:46.632721",
      "2022-09-29T08:03:53.556975",
      "2022-09-29T08:04:00.527122",
      "2022-09-29T08:04:07.265539",
      "2022-09-29T08:04:14.109512",
      "2022-09-29T08:04:20.740542",
      "2022-09-29T08:04:27.398001",
      "2022-09-29T08:04:34.080156",
      "2022-09-29T08:04:40.745971",
      "2022-09-29T08:04:47.449577",
      "2022-09-29T08:04:54.194582",
      "2022-09-29T08:05:01.341983",
      "2022-09-29T08:05:08.027936",
      "2022-09-29T08:05:14.806185",
      "2022-09-29T08:05:21.458747",
      "2022-09-29T08:05:28.092791",
      "2022-09-29T08:05:34.750115",
      "2022-09-29T08:05:41.452452",
      "2022-09-29T08:05:48.075425",
      "2022-09-29T08:05:54.824858",
      "2022-09-29T08:06:01.428392",
      "2022-09-29T08:06:08.108866",
      "2022-09-29T08:06:14.797067",
      "2022-09-29T08:06:21.455239",
      "2022-09-29T08:06:28.170400",
      "2022-09-29T08:06:34.817794",
      "2022-09-29T08:06:41.526134",
      "2022-09-29T08:06:48.233416",
      "2022-09-29T08:06:54.889009",
      "2022-09-29T08:07:01.601027",
      "2022-09-29T08:07:08.289684",
      "2022-09-29T08:07:15.009447",
      "2022-09-29T08:07:21.705121",
      "2022-09-29T08:07:28.313305",
      "2022-09-29T08:07:35.051335",
      "2022-09-29T08:07:41.650847",
      "2022-09-29T08:07:48.308743",
      "2022-09-29T08:07:54.976643",
      "2022-09-29T08:08:01.971832",
      "2022-09-29T08:08:08.643160",
      "2022-09-29T08:08:15.395813",
      "2022-09-29T08:08:22.005384",
      "2022-09-29T08:08:28.644041",
      "2022-09-29T08:08:35.328395",
      "2022-09-29T08:08:42.067949",
      "2022-09-29T08:08:48.938889",
      "2022-09-29T08:08:56.107825",
      "2022-09-29T08:09:03.098373",
      "2022-09-29T08:09:10.409946",
      "2022-09-29T08:09:17.181552",
      "2022-09-29T08:09:23.995328",
      "2022-09-29T08:09:31.038856",
      "2022-09-29T08:09:37.651997",
      "2022-09-29T08:09:44.316536",
      "2022-09-29T08:09:50.994758",
      "2022-09-29T08:09:57.706064",
      "2022-09-29T08:10:04.421918",
      "2022-09-29T08:10:11.147067",
      "2022-09-29T08:10:18.221114",
      "2022-09-29T08:10:24.980629",
      "2022-09-29T08:10:31.759273",
      "2022-09-29T08:10:38.402093",
      "2022-09-29T08:10:45.034438",
      "2022-09-29T08:10:52.152400",
      "2022-09-29T08:10:58.875919",
      "2022-09-29T08:11:05.522463",
      "2022-09-29T08:11:12.158603",
      "2022-09-29T08:11:18.885440",
      "2022-09-29T08:11:25.562566",
      "2022-09-29T08:11:32.309691",
      "2022-09-29T08:11:39.048808",
      "2022-09-29T08:11:46.013555",
      "2022-09-29T08:11:53.059518",
      "2022-09-29T08:12:00.092965",
      "2022-09-29T08:12:06.970286",
      "2022-09-29T08:12:13.760421",
      "2022-09-29T08:12:20.453242",
      "2022-09-29T08:12:27.190788",
      "2022-09-29T08:12:33.944921",
      "2022-09-29T08:12:40.601875",
      "2022-09-29T08:12:47.278448",
      "2022-09-29T08:12:53.928500",
      "2022-09-29T08:13:00.575487",
      "2022-09-29T08:13:07.230289",
      "2022-09-29T08:13:13.811453",
      "2022-09-29T08:13:20.533698",
      "2022-09-29T08:13:27.431742",
      "2022-09-29T08:13:34.205569",
      "2022-09-29T08:13:40.818788",
      "2022-09-29T08:13:47.513809"
    ],
    "values": [
      17.2919112333619,
      16.9015214274393,
      16.49667705451438,
      16.114397561577984,
      15.778388510100822,
      15.536240463523379,
      15.363471236937148,
      15.306272794991525,
      15.342988328110243,
      15.381372125026301,
      15.398324910399335,
      15.45680634361966,
      15.567757155560674,
      15.719475085836223,
      15.4885066053849,
      15.021260114156659,
      14.637420446983619,
      14.510321121874659,
      14.486362747781818,
      14.382977947417862,
      14.217073229228422,
      14.115364532668702,
      14.076496984509664,
      14.056885023726506,
      13.942949861282749,
      13.777324044692223,
      13.646831155756772,
      13.569394651898069,
      13.495408839895713,
      13.41627788765985,
      13.70219114886128,
      13.51124031338375,
      13.354746958088313,
      13.273484070746358,
      13.1175621351504,
      12.965616474464303,
      12.82757242746852,
      12.800633415848447,
      12.7872726026172,
      12.687204339899813,
      12.542254570457745,
      12.516938892268161,
      12.555783890157748,
      12.774893337472285,
      12.741150989073018,
      12.714123925604776,
      12.828010703500754,
      13.128555443099339,
      12.671405609825847,
      12.379994852538413,
      12.227987190595936,
      12.391564277124807,
      12.450197121971257,
      12.285563171093298,
      12.218094504891223,
      12.20042660540844,
      12.300255518415007,
      12.22716671499537,
      12.194441116358167,
      12.211065372035145,
      12.22724748430448,
      12.398428307199085,
      13.228240446574668,
      12.74888972706506,
      12.537656053962497,
      12.663110441086044,
      13.99310614149456,
      12.893288217001004,
      15.265016273602281,
      14.063253309944265,
      12.399015800113158,
      12.334325425529647,
      12.397898108438769,
      12.557268589300502,
      12.809928840167878,
      13.22600720187214,
      13.546296321955603,
      13.542988331228349,
      13.483110255141323,
      13.321792536770555,
      13.174323839806629,
      13.097252499704014,
      12.912485374561902,
      12.852434167151314,
      12.79357430854564,
      12.77673232167006,
      12.709627518581078,
      12.75068920115021,
      12.676625366896573,
      12.64255769965983,
      12.651110383822104,
      12.665298448610299,
      12.567444401041046,
      12.49872448050629,
      12.456287796777987,
      12.492995224507519,
      12.439516232855341,
      12.430283028549265,
      12.35181441189256,
      12.263602686529726,
      12.407229935025553,
      12.26957336111922,
      12.18080660338414,
      12.13282036843764,
      12.071684873329424,
      12.065956910287753,
      12.080937480666087,
      12.021742699238807,
      12.06042624247681,
      12.023178642888158,
      11.985393187348398,
      11.963778455434033,
      11.8779366724338,
      11.873879919951285,
      11.941596802320117,
      11.992263008493348,
      11.95533380921107,
      11.95246726569854,
      11.941117700359484,
      12.000339032889647,
      12.092613312727915,
      11.94325533820524,
      11.96798437558001,
      11.96483380155762,
      12.04711114951731,
      11.84493580660871,
      11.809450140349131,
      11.924280828114183,
      11.952316802304486,
      11.98453281935177,
      11.95821607748744,
      11.865836967648331,
      11.730457262790425,
      11.715934307318532,
      11.689848136235922,
      11.776622574471967,
      11.745589262287247,
      11.679096608172268,
      11.703344003813614,
      11.790670599790241,
      11.911303861836702,
      11.999977821227423,
      12.08875277022521,
      12.026199086786544,
      11.940483121109033,
      11.914885736336151,
      11.875647091944602,
      11.91425431046757,
      11.887808351346266,
      11.998008713916713,
      11.970751006580688,
      11.85751974019797,
      11.863670454488592,
      11.835150442737223,
      11.822306353424274,
      11.841817150138148,
      11.819970231819466,
      11.786675468348792,
      11.793096599821233,
      11.786596802721297,
      11.749334841806714,
      11.71609306362005,
      11.670760572414132,
      11.724125159226178,
      11.7144757456228,
      11.669617236451556,
      11.685260000543131,
      11.690644305856667,
      11.650725661124367,
      11.716250694374148,
      11.661115612592955,
      11.69473276185267,
      11.6725148675125,
      11.690097653120986,
      11.67872233468995,
      11.681723678905762,
      11.647446403352822,
      11.67201310707763,
      11.669990372623595,
      11.70420224738031,
      11.692012063858508,
      11.647359149028196,
      11.714644251919227,
      11.670909618028785,
      11.672988114547291,
      11.663064432529477,
      11.65722831985807,
      11.67428721590828,
      11.654339804083437,
      11.697930813489222,
      11.686490675579453,
      11.695591351406263,
      11.66374332667993,
      11.684631662913567,
      11.687351714369584,
      11.672402651847836,
      11.671886810695748,
      11.690529648225722,
      11.667462709196636,
      11.64373283170139
    ]
  }
}