{
  "batch_size": 100,
  "bn": "tree",
  "bt_config": {
    "depth": 5,
    "seed": 4
  },
  "checkpoint_n": 10,
  "dag_net": "hidden2",
  "double": false,
  "ex_name": "continuous_nf_density_estimation",
  "hidden_dim": 125,
  "integration_times": [
    0.0,
    1.0
  ],
  "load_from_checkpoint": false,
  "lr": 0.01,
  "num_epochs": 200,
  "num_flow_steps": 3,
  "num_train_batches": 100,
  "num_train_samples": 10000,
  "num_val_batches": 50,
  "num_val_samples": 5000,
  "path": "./experiment_logs/continuous_nf_density_estimation/tree/hidden2_3_[125]",
  "patience": 20,
  "run": 1,
  "seed": 0,
  "sub_folder": "hidden2_3_[125]"
}