{
  "activation": "lipmish",
  "batch_size": 88,
  "bn": "ecoli70-alt",
  "checkpoint_n": 10,
  "coeff": 0.99,
  "decoder_hidden_dims": [
    100
  ],
  "double": true,
  "dreg": false,
  "ex_name": "iw_siren_vae_wu",
  "flow_hidden_dims": [
    100
  ],
  "iw": true,
  "k": 8,
  "legend": [
    "SIReN-VAE$_faith$",
    "SIReN-VAE$_fc$"
  ],
  "load_from_checkpoint": false,
  "lr": 0.01,
  "model_path": "arithmetic-circuit2_faithful_lipmish_5_[100]_[100]",
  "n_power_iterations": 5,
  "num_epochs": 400,
  "num_flow_steps": 5,
  "num_train_batches": 1,
  "num_train_samples": 88,
  "num_val_batches": 50,
  "num_val_samples": 4400,
  "path": "./experiment_logs/iw_siren_vae_wu/ecoli70-alt/faithful_lipmish_5_[100]_[100]_32k_100N_all_2g",
  "patience": 20,
  "run": 1,
  "save_checkpoints": false,
  "seed": 1,
  "structure": "faithful",
  "sub_folder": "faithful_lipmish_5_[100]_[100]_32k_100N_all_2g",
  "wu": true,
  "wu_N": 50,
  "wu_all": true,
  "ylims": [
    [
      9,
      14
    ],
    [
      9,
      14
    ]
  ]
}