{
  "activation": "lipmish",
  "batch_size": 100,
  "bn": "mehra-real",
  "checkpoint_n": 10,
  "coeff": 0.99,
  "double": true,
  "ex_name": "standard_residual_nf_density_estimation",
  "grad_in_forward": true,
  "hidden_dims": [
    40
  ],
  "load_from_checkpoint": true,
  "lr": 0.01,
  "n_power_iterations": 5,
  "num_blocks": 17,
  "num_epochs": 400,
  "num_train_batches": 100,
  "num_train_samples": 10000,
  "num_val_batches": 50,
  "num_val_samples": 5000,
  "path": "./experiment_logs/standard_residual_nf_density_estimation/mehra-real/99_lipmish_17_[40]",
  "patience": 20,
  "run": 4,
  "seed": 3,
  "sub_folder": "99_lipmish_17_[40]"
}