INFO - siren_vae - Running command 'run'
INFO - siren_vae - Started run with ID "20"
[LOADING DATA] MEHRA
[ENCODED STRUCTURE] Using faithful BN structure.
  0%|          | 0/200 [00:00<?, ?it/s]Train -ELBO: 10.27900, Val -ELBO: 10.19063:   2%|▏         | 4/200 [00:01<00:55,  3.56it/s]Train -ELBO: 10.36816, Val -ELBO: 10.21629:   5%|▌         | 10/200 [00:02<00:41,  4.63it/s]Train -ELBO: 10.46504, Val -ELBO: 10.13623:   8%|▊         | 17/200 [00:03<00:33,  5.44it/s]Train -ELBO: 10.31932, Val -ELBO: 10.13395:  12%|█▏        | 24/200 [00:04<00:30,  5.70it/s]Train -ELBO: 10.40492, Val -ELBO: 10.11817:  16%|█▌        | 31/200 [00:05<00:27,  6.08it/s]Train -ELBO: 10.36365, Val -ELBO: 10.08233:  19%|█▉        | 38/200 [00:06<00:25,  6.34it/s]Train -ELBO: 10.32133, Val -ELBO: 10.06596:  22%|██▎       | 45/200 [00:07<00:24,  6.37it/s]Train -ELBO: 10.22164, Val -ELBO: 10.01396:  26%|██▌       | 52/200 [00:08<00:22,  6.51it/s]Train -ELBO: 10.26584, Val -ELBO: 10.06197:  30%|██▉       | 59/200 [00:09<00:21,  6.54it/s]Train -ELBO: 10.19259, Val -ELBO: 10.04777:  33%|███▎      | 66/200 [00:10<00:20,  6.49it/s]Train -ELBO: 10.15904, Val -ELBO: 10.02208:  36%|███▋      | 73/200 [00:11<00:19,  6.49it/s]Train -ELBO: 10.30645, Val -ELBO: 10.04582:  40%|████      | 80/200 [00:12<00:18,  6.53it/s]Train -ELBO: 10.14713, Val -ELBO: 10.03587:  44%|████▎     | 87/200 [00:13<00:16,  6.65it/s]Train -ELBO: 10.11727, Val -ELBO: 10.02931:  47%|████▋     | 94/200 [00:14<00:15,  6.66it/s]Train -ELBO: 10.21935, Val -ELBO: 10.03635:  50%|█████     | 101/200 [00:16<00:14,  6.69it/s]Train -ELBO: 10.27986, Val -ELBO: 10.03443:  54%|█████▍    | 108/200 [00:17<00:13,  6.66it/s]Epoch   115: reducing learning rate of group 0 to 1.0000e-05.
Train -ELBO: 10.14663, Val -ELBO: 10.01337:  57%|█████▊    | 115/200 [00:18<00:12,  6.59it/s]Train -ELBO: 10.16611, Val -ELBO: 10.03624:  61%|██████    | 122/200 [00:19<00:11,  6.65it/s]Train -ELBO: 10.15475, Val -ELBO: 10.00737:  64%|██████▍   | 129/200 [00:20<00:10,  6.73it/s]Train -ELBO: 10.24949, Val -ELBO: 10.02870:  68%|██████▊   | 136/200 [00:21<00:09,  6.62it/s]Train -ELBO: 10.17510, Val -ELBO: 10.02167:  72%|███████▏  | 143/200 [00:22<00:08,  6.57it/s]Train -ELBO: 10.12644, Val -ELBO: 10.00638:  75%|███████▌  | 150/200 [00:23<00:07,  6.50it/s]Train -ELBO: 10.16040, Val -ELBO: 10.01263:  78%|███████▊  | 157/200 [00:24<00:06,  6.60it/s]Epoch   160: reducing learning rate of group 0 to 1.0000e-06.
Train -ELBO: 10.15753, Val -ELBO: 10.02736:  82%|████████▏ | 164/200 [00:25<00:05,  6.57it/s]Train -ELBO: 10.22882, Val -ELBO: 10.00399:  86%|████████▌ | 171/200 [00:26<00:04,  6.56it/s]Train -ELBO: 10.14391, Val -ELBO: 10.02545:  89%|████████▉ | 178/200 [00:27<00:03,  6.54it/s]Train -ELBO: 10.15879, Val -ELBO: 10.02703:  92%|█████████▎| 185/200 [00:28<00:02,  6.56it/s]Train -ELBO: 10.21216, Val -ELBO: 10.02703:  96%|█████████▌| 192/200 [00:29<00:01,  6.52it/s]Train -ELBO: 10.13119, Val -ELBO: 10.03044: 100%|█████████▉| 199/200 [00:30<00:00,  6.50it/s]Train -ELBO: 10.26611, Val -ELBO: 10.00509: 100%|██████████| 200/200 [00:31<00:00,  6.42it/s]
