INFO - residual_nf - Running command 'run'
INFO - residual_nf - Started run with ID "2"
[CONFIG] {'bn': 'mehra-real', 'structure': 'faithful', 'coeff': 0.99, 'n_power_iterations': 5, 'num_blocks': 9, 'hidden_dims': [100], 'activation': 'tanh', 'grad_in_forward': True, 'batch_size': 100, 'num_train_samples': 10000, 'num_val_samples': 5000, 'num_epochs': 300, 'num_train_batches': 100, 'num_val_batches': 50, 'lr': 0.01, 'seed': 1, 'patience': 20, 'double': True, 'run': 1, 'checkpoint_n': 10, 'load_from_checkpoint': False, 'ex_name': 'residual_nf_density_estimation', 'sub_folder': 'faithful_99_tanh_9_[100]', 'path': './experiment_logs/residual_nf_density_estimation/mehra-real/faithful_99_tanh_9_[100]', 'bt_config': {'depth': 5, 'seed': 4}}
[DEVICE] cpu
[LOADING DATA] Mehra
[ENCODED STRUCTURE] Using faithful BN structure.
  0%|          | 0/300 [00:00<?, ?it/s]Train NLL: 12.642, Val NLL: 12.215:   0%|          | 1/300 [00:01<06:42,  1.35s/it]Train NLL: 11.910, Val NLL: 11.726:   1%|          | 2/300 [00:02<06:59,  1.41s/it]Train NLL: 11.621, Val NLL: 11.562:   1%|          | 3/300 [00:04<07:36,  1.54s/it]Train NLL: 11.486, Val NLL: 11.489:   1%|▏         | 4/300 [00:06<08:59,  1.82s/it]Train NLL: 11.400, Val NLL: 11.372:   2%|▏         | 5/300 [00:07<07:49,  1.59s/it]Train NLL: 11.402, Val NLL: 11.327:   2%|▏         | 6/300 [00:09<07:05,  1.45s/it]Train NLL: 11.346, Val NLL: 11.320:   2%|▏         | 7/300 [00:10<06:37,  1.36s/it]Train NLL: 11.305, Val NLL: 11.333:   3%|▎         | 8/300 [00:11<06:36,  1.36s/it]Train NLL: 11.293, Val NLL: 11.293:   3%|▎         | 9/300 [00:13<06:56,  1.43s/it]Train NLL: 11.252, Val NLL: 11.268:   3%|▎         | 10/300 [00:14<06:33,  1.36s/it]Train NLL: 11.260, Val NLL: 11.255:   4%|▎         | 11/300 [00:15<06:17,  1.31s/it]Train NLL: 11.228, Val NLL: 11.294:   4%|▍         | 12/300 [00:16<06:09,  1.28s/it]Train NLL: 11.261, Val NLL: 11.297:   4%|▍         | 13/300 [00:18<06:13,  1.30s/it]Train NLL: 11.234, Val NLL: 11.317:   5%|▍         | 14/300 [00:19<06:07,  1.28s/it]Train NLL: 11.227, Val NLL: 11.231:   5%|▌         | 15/300 [00:20<06:10,  1.30s/it]Train NLL: 11.209, Val NLL: 11.244:   5%|▌         | 16/300 [00:22<06:11,  1.31s/it]Train NLL: 11.207, Val NLL: 11.232:   6%|▌         | 17/300 [00:23<06:07,  1.30s/it]Train NLL: 11.225, Val NLL: 11.253:   6%|▌         | 18/300 [00:24<06:07,  1.30s/it]Train NLL: 11.202, Val NLL: 11.260:   6%|▋         | 19/300 [00:25<05:56,  1.27s/it]Train NLL: 11.182, Val NLL: 11.232:   7%|▋         | 20/300 [00:27<05:47,  1.24s/it]Train NLL: 11.179, Val NLL: 11.318:   7%|▋         | 21/300 [00:28<05:44,  1.23s/it]Train NLL: 11.162, Val NLL: 11.199:   7%|▋         | 22/300 [00:29<05:47,  1.25s/it]Train NLL: 11.154, Val NLL: 11.222:   8%|▊         | 23/300 [00:30<05:51,  1.27s/it]Train NLL: 11.147, Val NLL: 11.165:   8%|▊         | 24/300 [00:32<05:42,  1.24s/it]Train NLL: 11.155, Val NLL: 11.179:   8%|▊         | 25/300 [00:33<05:36,  1.22s/it]Train NLL: 11.152, Val NLL: 11.233:   9%|▊         | 26/300 [00:34<06:19,  1.39s/it]Train NLL: 11.154, Val NLL: 11.206:   9%|▉         | 27/300 [00:36<06:42,  1.47s/it]Train NLL: 11.159, Val NLL: 11.210:   9%|▉         | 28/300 [00:37<06:20,  1.40s/it]Train NLL: 11.160, Val NLL: 11.210:  10%|▉         | 29/300 [00:39<06:00,  1.33s/it]Train NLL: 11.139, Val NLL: 11.197:  10%|█         | 30/300 [00:40<05:47,  1.29s/it]Train NLL: 11.143, Val NLL: 11.162:  10%|█         | 31/300 [00:41<05:40,  1.27s/it]Train NLL: 11.139, Val NLL: 11.165:  11%|█         | 32/300 [00:42<05:46,  1.29s/it]Train NLL: 11.135, Val NLL: 11.207:  11%|█         | 33/300 [00:44<05:44,  1.29s/it]Train NLL: 11.138, Val NLL: 11.150:  11%|█▏        | 34/300 [00:45<05:34,  1.26s/it]Train NLL: 11.138, Val NLL: 11.181:  12%|█▏        | 35/300 [00:46<05:27,  1.24s/it]Train NLL: 11.125, Val NLL: 11.170:  12%|█▏        | 36/300 [00:47<05:22,  1.22s/it]Train NLL: 11.134, Val NLL: 11.159:  12%|█▏        | 37/300 [00:48<05:18,  1.21s/it]Train NLL: 11.126, Val NLL: 11.158:  13%|█▎        | 38/300 [00:50<05:15,  1.21s/it]Train NLL: 11.139, Val NLL: 11.195:  13%|█▎        | 39/300 [00:51<05:15,  1.21s/it]Train NLL: 11.110, Val NLL: 11.187:  13%|█▎        | 40/300 [00:52<05:24,  1.25s/it]Train NLL: 11.120, Val NLL: 11.213:  14%|█▎        | 41/300 [00:53<05:27,  1.26s/it]Train NLL: 11.101, Val NLL: 11.122:  14%|█▍        | 42/300 [00:55<05:20,  1.24s/it]Train NLL: 11.100, Val NLL: 11.153:  14%|█▍        | 43/300 [00:56<05:16,  1.23s/it]Train NLL: 11.116, Val NLL: 11.181:  15%|█▍        | 44/300 [00:57<05:12,  1.22s/it]Train NLL: 11.112, Val NLL: 11.166:  15%|█▌        | 45/300 [00:58<05:08,  1.21s/it]Train NLL: 11.114, Val NLL: 11.129:  15%|█▌        | 46/300 [00:59<05:04,  1.20s/it]Train NLL: 11.114, Val NLL: 11.197:  16%|█▌        | 47/300 [01:01<05:02,  1.20s/it]Train NLL: 11.119, Val NLL: 11.111:  16%|█▌        | 48/300 [01:02<05:27,  1.30s/it]Train NLL: 11.114, Val NLL: 11.152:  16%|█▋        | 49/300 [01:03<05:27,  1.30s/it]Train NLL: 11.103, Val NLL: 11.181:  17%|█▋        | 50/300 [01:05<05:16,  1.27s/it]Train NLL: 11.098, Val NLL: 11.144:  17%|█▋        | 51/300 [01:06<05:07,  1.24s/it]Train NLL: 11.100, Val NLL: 11.163:  17%|█▋        | 52/300 [01:07<05:07,  1.24s/it]Train NLL: 11.095, Val NLL: 11.143:  18%|█▊        | 53/300 [01:08<05:11,  1.26s/it]Train NLL: 11.103, Val NLL: 11.121:  18%|█▊        | 54/300 [01:09<05:04,  1.24s/it]Train NLL: 11.100, Val NLL: 11.165:  18%|█▊        | 55/300 [01:11<04:58,  1.22s/it]Train NLL: 11.096, Val NLL: 11.182:  19%|█▊        | 56/300 [01:12<05:04,  1.25s/it]Train NLL: 11.086, Val NLL: 11.143:  19%|█▉        | 57/300 [01:14<05:27,  1.35s/it]Train NLL: 11.082, Val NLL: 11.136:  19%|█▉        | 58/300 [01:15<05:13,  1.29s/it]Train NLL: 11.085, Val NLL: 11.133:  20%|█▉        | 59/300 [01:16<05:03,  1.26s/it]Train NLL: 11.100, Val NLL: 11.163:  20%|██        | 60/300 [01:17<05:02,  1.26s/it]Train NLL: 11.097, Val NLL: 11.163:  20%|██        | 61/300 [01:18<05:06,  1.28s/it]Train NLL: 11.096, Val NLL: 11.200:  21%|██        | 62/300 [01:20<05:10,  1.30s/it]Train NLL: 11.094, Val NLL: 11.136:  21%|██        | 63/300 [01:21<05:10,  1.31s/it]Train NLL: 11.093, Val NLL: 11.162:  21%|██▏       | 64/300 [01:22<04:59,  1.27s/it]Train NLL: 11.110, Val NLL: 11.124:  22%|██▏       | 65/300 [01:24<04:51,  1.24s/it]Train NLL: 11.087, Val NLL: 11.154:  22%|██▏       | 66/300 [01:25<04:52,  1.25s/it]Train NLL: 11.084, Val NLL: 11.127:  22%|██▏       | 67/300 [01:26<05:05,  1.31s/it]Train NLL: 11.093, Val NLL: 11.143:  23%|██▎       | 68/300 [01:27<04:57,  1.28s/it]Train NLL: 11.079, Val NLL: 11.109:  23%|██▎       | 69/300 [01:29<04:47,  1.25s/it]Train NLL: 11.080, Val NLL: 11.158:  23%|██▎       | 70/300 [01:30<04:45,  1.24s/it]Train NLL: 11.081, Val NLL: 11.117:  24%|██▎       | 71/300 [01:31<04:55,  1.29s/it]Train NLL: 11.082, Val NLL: 11.141:  24%|██▍       | 72/300 [01:33<04:52,  1.28s/it]Train NLL: 11.083, Val NLL: 11.103:  24%|██▍       | 73/300 [01:34<04:52,  1.29s/it]Train NLL: 11.082, Val NLL: 11.141:  25%|██▍       | 74/300 [01:35<04:43,  1.26s/it]Train NLL: 11.092, Val NLL: 11.118:  25%|██▌       | 75/300 [01:36<04:37,  1.23s/it]Train NLL: 11.082, Val NLL: 11.133:  25%|██▌       | 76/300 [01:37<04:32,  1.22s/it]Train NLL: 11.077, Val NLL: 11.098:  26%|██▌       | 77/300 [01:39<04:28,  1.20s/it]Train NLL: 11.062, Val NLL: 11.114:  26%|██▌       | 78/300 [01:40<04:25,  1.20s/it]Train NLL: 11.080, Val NLL: 11.129:  26%|██▋       | 79/300 [01:41<04:27,  1.21s/it]Train NLL: 11.072, Val NLL: 11.100:  27%|██▋       | 80/300 [01:42<04:37,  1.26s/it]Train NLL: 11.066, Val NLL: 11.159:  27%|██▋       | 81/300 [01:44<04:36,  1.26s/it]Train NLL: 11.088, Val NLL: 11.156:  27%|██▋       | 82/300 [01:45<04:29,  1.23s/it]Train NLL: 11.078, Val NLL: 11.108:  28%|██▊       | 83/300 [01:46<04:24,  1.22s/it]Train NLL: 11.067, Val NLL: 11.141:  28%|██▊       | 84/300 [01:47<04:26,  1.23s/it]Train NLL: 11.070, Val NLL: 11.136:  28%|██▊       | 85/300 [01:49<04:32,  1.27s/it]Train NLL: 11.092, Val NLL: 11.125:  29%|██▊       | 86/300 [01:50<04:25,  1.24s/it]Train NLL: 11.069, Val NLL: 11.145:  29%|██▉       | 87/300 [01:51<04:20,  1.22s/it]Train NLL: 11.064, Val NLL: 11.107:  29%|██▉       | 88/300 [01:52<04:28,  1.27s/it]Train NLL: 11.059, Val NLL: 11.120:  30%|██▉       | 89/300 [01:54<04:31,  1.29s/it]Train NLL: 11.082, Val NLL: 11.118:  30%|███       | 90/300 [01:55<04:23,  1.26s/it]Train NLL: 11.070, Val NLL: 11.167:  30%|███       | 91/300 [01:56<04:18,  1.24s/it]Train NLL: 11.085, Val NLL: 11.127:  31%|███       | 92/300 [01:57<04:26,  1.28s/it]Train NLL: 11.076, Val NLL: 11.114:  31%|███       | 93/300 [01:59<04:31,  1.31s/it]Train NLL: 11.070, Val NLL: 11.122:  31%|███▏      | 94/300 [02:00<04:24,  1.28s/it]Train NLL: 11.062, Val NLL: 11.112:  32%|███▏      | 95/300 [02:01<04:15,  1.25s/it]Train NLL: 11.067, Val NLL: 11.102:  32%|███▏      | 96/300 [02:02<04:13,  1.24s/it]Train NLL: 11.068, Val NLL: 11.085:  32%|███▏      | 97/300 [02:04<04:13,  1.25s/it]Train NLL: 11.066, Val NLL: 11.137:  33%|███▎      | 98/300 [02:05<04:17,  1.27s/it]Train NLL: 11.068, Val NLL: 11.088:  33%|███▎      | 99/300 [02:06<04:09,  1.24s/it]Train NLL: 11.066, Val NLL: 11.079:  33%|███▎      | 100/300 [02:07<04:04,  1.22s/it]Train NLL: 11.059, Val NLL: 11.102:  34%|███▎      | 101/300 [02:09<04:07,  1.25s/it]Train NLL: 11.064, Val NLL: 11.117:  34%|███▍      | 102/300 [02:10<04:07,  1.25s/it]Train NLL: 11.064, Val NLL: 11.118:  34%|███▍      | 103/300 [02:11<04:19,  1.32s/it]Train NLL: 11.060, Val NLL: 11.100:  35%|███▍      | 104/300 [02:13<04:19,  1.32s/it]Train NLL: 11.069, Val NLL: 11.098:  35%|███▌      | 105/300 [02:14<04:16,  1.32s/it]Train NLL: 11.071, Val NLL: 11.118:  35%|███▌      | 106/300 [02:15<04:13,  1.30s/it]Train NLL: 11.059, Val NLL: 11.111:  36%|███▌      | 107/300 [02:17<04:10,  1.30s/it]Train NLL: 11.053, Val NLL: 11.081:  36%|███▌      | 108/300 [02:18<04:04,  1.28s/it]Train NLL: 11.061, Val NLL: 11.111:  36%|███▋      | 109/300 [02:19<03:57,  1.25s/it]Train NLL: 11.074, Val NLL: 11.158:  37%|███▋      | 110/300 [02:20<03:52,  1.22s/it]Train NLL: 11.053, Val NLL: 11.091:  37%|███▋      | 111/300 [02:21<03:50,  1.22s/it]Train NLL: 11.057, Val NLL: 11.142:  37%|███▋      | 112/300 [02:23<03:51,  1.23s/it]Train NLL: 11.064, Val NLL: 11.114:  38%|███▊      | 113/300 [02:24<03:55,  1.26s/it]Train NLL: 11.041, Val NLL: 11.114:  38%|███▊      | 114/300 [02:25<03:51,  1.24s/it]Train NLL: 11.050, Val NLL: 11.107:  38%|███▊      | 115/300 [02:26<03:48,  1.23s/it]Train NLL: 11.072, Val NLL: 11.106:  39%|███▊      | 116/300 [02:28<03:45,  1.22s/it]Train NLL: 11.053, Val NLL: 11.116:  39%|███▉      | 117/300 [02:29<03:42,  1.21s/it]Train NLL: 11.064, Val NLL: 11.125:  39%|███▉      | 118/300 [02:30<03:38,  1.20s/it]Train NLL: 11.056, Val NLL: 11.102:  40%|███▉      | 119/300 [02:31<03:50,  1.27s/it]Train NLL: 11.049, Val NLL: 11.110:  40%|████      | 120/300 [02:33<04:23,  1.46s/it]Train NLL: 11.067, Val NLL: 11.088:  40%|████      | 121/300 [02:35<04:14,  1.42s/it]Train NLL: 11.046, Val NLL: 11.120:  41%|████      | 122/300 [02:36<03:59,  1.35s/it]Train NLL: 11.064, Val NLL: 11.113:  41%|████      | 123/300 [02:37<03:49,  1.29s/it]Train NLL: 11.058, Val NLL: 11.108:  41%|████▏     | 124/300 [02:38<03:41,  1.26s/it]Train NLL: 11.055, Val NLL: 11.162:  42%|████▏     | 125/300 [02:39<03:36,  1.24s/it]Train NLL: 11.054, Val NLL: 11.110:  42%|████▏     | 126/300 [02:40<03:32,  1.22s/it]Train NLL: 11.048, Val NLL: 11.106:  42%|████▏     | 127/300 [02:42<03:34,  1.24s/it]Train NLL: 11.060, Val NLL: 11.072:  43%|████▎     | 128/300 [02:43<03:36,  1.26s/it]Train NLL: 11.059, Val NLL: 11.146:  43%|████▎     | 129/300 [02:44<03:31,  1.24s/it]Train NLL: 11.054, Val NLL: 11.078:  43%|████▎     | 130/300 [02:46<03:33,  1.25s/it]Train NLL: 11.041, Val NLL: 11.102:  44%|████▎     | 131/300 [02:47<03:27,  1.23s/it]Train NLL: 11.052, Val NLL: 11.139:  44%|████▍     | 132/300 [02:48<03:28,  1.24s/it]Train NLL: 11.050, Val NLL: 11.102:  44%|████▍     | 133/300 [02:49<03:29,  1.25s/it]Train NLL: 11.064, Val NLL: 11.129:  45%|████▍     | 134/300 [02:51<03:28,  1.25s/it]Epoch   135: reducing learning rate of group 0 to 1.0000e-03.
Train NLL: 11.052, Val NLL: 11.103:  45%|████▌     | 135/300 [02:52<03:24,  1.24s/it]Train NLL: 11.001, Val NLL: 11.053:  45%|████▌     | 136/300 [02:53<03:26,  1.26s/it]Train NLL: 10.989, Val NLL: 11.058:  46%|████▌     | 137/300 [02:54<03:30,  1.29s/it]Train NLL: 10.989, Val NLL: 11.053:  46%|████▌     | 138/300 [02:56<03:23,  1.25s/it]Train NLL: 10.987, Val NLL: 11.058:  46%|████▋     | 139/300 [02:57<03:17,  1.23s/it]Train NLL: 10.988, Val NLL: 11.055:  47%|████▋     | 140/300 [02:58<03:15,  1.22s/it]Train NLL: 10.987, Val NLL: 11.053:  47%|████▋     | 141/300 [02:59<03:12,  1.21s/it]Train NLL: 10.986, Val NLL: 11.053:  47%|████▋     | 142/300 [03:00<03:15,  1.24s/it]Train NLL: 10.986, Val NLL: 11.057:  48%|████▊     | 143/300 [03:02<03:19,  1.27s/it]Train NLL: 10.987, Val NLL: 11.055:  48%|████▊     | 144/300 [03:03<03:21,  1.29s/it]Train NLL: 10.985, Val NLL: 11.060:  48%|████▊     | 145/300 [03:04<03:14,  1.26s/it]Train NLL: 10.985, Val NLL: 11.060:  49%|████▊     | 146/300 [03:06<03:31,  1.37s/it]Train NLL: 10.986, Val NLL: 11.052:  49%|████▉     | 147/300 [03:07<03:26,  1.35s/it]Train NLL: 10.986, Val NLL: 11.058:  49%|████▉     | 148/300 [03:08<03:17,  1.30s/it]Train NLL: 10.985, Val NLL: 11.055:  50%|████▉     | 149/300 [03:10<03:13,  1.28s/it]Train NLL: 10.987, Val NLL: 11.051:  50%|█████     | 150/300 [03:11<03:20,  1.33s/it]Train NLL: 10.987, Val NLL: 11.051:  50%|█████     | 151/300 [03:13<03:33,  1.43s/it]Train NLL: 10.984, Val NLL: 11.057:  51%|█████     | 152/300 [03:14<03:26,  1.39s/it]Train NLL: 10.986, Val NLL: 11.060:  51%|█████     | 153/300 [03:15<03:15,  1.33s/it]Train NLL: 10.987, Val NLL: 11.058:  51%|█████▏    | 154/300 [03:16<03:06,  1.28s/it]Train NLL: 10.984, Val NLL: 11.055:  52%|█████▏    | 155/300 [03:18<03:01,  1.25s/it]Train NLL: 10.985, Val NLL: 11.053:  52%|█████▏    | 156/300 [03:19<02:57,  1.23s/it]Train NLL: 10.984, Val NLL: 11.050:  52%|█████▏    | 157/300 [03:20<02:54,  1.22s/it]Train NLL: 10.985, Val NLL: 11.057:  53%|█████▎    | 158/300 [03:21<02:54,  1.23s/it]Train NLL: 10.984, Val NLL: 11.054:  53%|█████▎    | 159/300 [03:23<02:55,  1.24s/it]Train NLL: 10.983, Val NLL: 11.057:  53%|█████▎    | 160/300 [03:24<02:56,  1.26s/it]Train NLL: 10.984, Val NLL: 11.049:  54%|█████▎    | 161/300 [03:25<02:52,  1.24s/it]Train NLL: 10.985, Val NLL: 11.055:  54%|█████▍    | 162/300 [03:26<02:49,  1.23s/it]Train NLL: 10.984, Val NLL: 11.057:  54%|█████▍    | 163/300 [03:27<02:50,  1.25s/it]Train NLL: 10.986, Val NLL: 11.053:  55%|█████▍    | 164/300 [03:29<02:51,  1.26s/it]Train NLL: 10.986, Val NLL: 11.055:  55%|█████▌    | 165/300 [03:30<02:47,  1.24s/it]Train NLL: 10.986, Val NLL: 11.055:  55%|█████▌    | 166/300 [03:31<02:44,  1.23s/it]Train NLL: 10.983, Val NLL: 11.057:  56%|█████▌    | 167/300 [03:32<02:45,  1.25s/it]Train NLL: 10.983, Val NLL: 11.053:  56%|█████▌    | 168/300 [03:34<02:46,  1.27s/it]Train NLL: 10.983, Val NLL: 11.056:  56%|█████▋    | 169/300 [03:35<02:42,  1.24s/it]Train NLL: 10.984, Val NLL: 11.059:  57%|█████▋    | 170/300 [03:36<02:39,  1.23s/it]Train NLL: 10.985, Val NLL: 11.054:  57%|█████▋    | 171/300 [03:37<02:37,  1.22s/it]Train NLL: 10.983, Val NLL: 11.056:  57%|█████▋    | 172/300 [03:39<02:41,  1.26s/it]Train NLL: 10.985, Val NLL: 11.049:  58%|█████▊    | 173/300 [03:40<02:41,  1.27s/it]Train NLL: 10.983, Val NLL: 11.051:  58%|█████▊    | 174/300 [03:41<02:36,  1.24s/it]Train NLL: 10.983, Val NLL: 11.059:  58%|█████▊    | 175/300 [03:42<02:33,  1.23s/it]Train NLL: 10.985, Val NLL: 11.051:  59%|█████▊    | 176/300 [03:44<02:33,  1.24s/it]Train NLL: 10.984, Val NLL: 11.060:  59%|█████▉    | 177/300 [03:45<02:35,  1.26s/it]Train NLL: 10.982, Val NLL: 11.056:  59%|█████▉    | 178/300 [03:46<02:31,  1.24s/it]Train NLL: 10.983, Val NLL: 11.052:  60%|█████▉    | 179/300 [03:47<02:28,  1.22s/it]Train NLL: 10.986, Val NLL: 11.053:  60%|██████    | 180/300 [03:49<02:25,  1.21s/it]Train NLL: 10.985, Val NLL: 11.050:  60%|██████    | 181/300 [03:50<02:25,  1.22s/it]Train NLL: 10.982, Val NLL: 11.050:  61%|██████    | 182/300 [03:51<02:25,  1.23s/it]Train NLL: 10.983, Val NLL: 11.059:  61%|██████    | 183/300 [03:52<02:26,  1.25s/it]Train NLL: 10.982, Val NLL: 11.055:  61%|██████▏   | 184/300 [03:53<02:22,  1.23s/it]Train NLL: 10.985, Val NLL: 11.051:  62%|██████▏   | 185/300 [03:55<02:19,  1.21s/it]Train NLL: 10.983, Val NLL: 11.059:  62%|██████▏   | 186/300 [03:56<02:17,  1.20s/it]Train NLL: 10.984, Val NLL: 11.056:  62%|██████▏   | 187/300 [03:57<02:14,  1.19s/it]Train NLL: 10.982, Val NLL: 11.050:  63%|██████▎   | 188/300 [03:58<02:12,  1.19s/it]Train NLL: 10.981, Val NLL: 11.055:  63%|██████▎   | 189/300 [03:59<02:11,  1.18s/it]Train NLL: 10.985, Val NLL: 11.048:  63%|██████▎   | 190/300 [04:01<02:10,  1.19s/it]Train NLL: 10.982, Val NLL: 11.057:  64%|██████▎   | 191/300 [04:02<02:12,  1.22s/it]Train NLL: 10.982, Val NLL: 11.054:  64%|██████▍   | 192/300 [04:03<02:15,  1.25s/it]Train NLL: 10.982, Val NLL: 11.055:  64%|██████▍   | 193/300 [04:04<02:15,  1.27s/it]Train NLL: 10.983, Val NLL: 11.055:  65%|██████▍   | 194/300 [04:06<02:11,  1.24s/it]Train NLL: 10.984, Val NLL: 11.052:  65%|██████▌   | 195/300 [04:07<02:08,  1.22s/it]Train NLL: 10.986, Val NLL: 11.056:  65%|██████▌   | 196/300 [04:08<02:05,  1.21s/it]Train NLL: 10.983, Val NLL: 11.050:  66%|██████▌   | 197/300 [04:09<02:03,  1.20s/it]Train NLL: 10.984, Val NLL: 11.050:  66%|██████▌   | 198/300 [04:10<02:01,  1.19s/it]Train NLL: 10.982, Val NLL: 11.055:  66%|██████▋   | 199/300 [04:12<02:03,  1.22s/it]Train NLL: 10.982, Val NLL: 11.051:  67%|██████▋   | 200/300 [04:13<02:05,  1.26s/it]Train NLL: 10.982, Val NLL: 11.053:  67%|██████▋   | 201/300 [04:15<02:12,  1.34s/it]Train NLL: 10.983, Val NLL: 11.054:  67%|██████▋   | 202/300 [04:16<02:11,  1.34s/it]Train NLL: 10.982, Val NLL: 11.049:  68%|██████▊   | 203/300 [04:17<02:05,  1.29s/it]Train NLL: 10.982, Val NLL: 11.055:  68%|██████▊   | 204/300 [04:18<02:01,  1.27s/it]Train NLL: 10.983, Val NLL: 11.054:  68%|██████▊   | 205/300 [04:20<02:04,  1.31s/it]Train NLL: 10.980, Val NLL: 11.048:  69%|██████▊   | 206/300 [04:21<02:05,  1.34s/it]Train NLL: 10.982, Val NLL: 11.053:  69%|██████▉   | 207/300 [04:22<01:59,  1.29s/it]Train NLL: 10.983, Val NLL: 11.052:  69%|██████▉   | 208/300 [04:23<01:56,  1.27s/it]Train NLL: 10.982, Val NLL: 11.055:  70%|██████▉   | 209/300 [04:25<01:53,  1.24s/it]Train NLL: 10.981, Val NLL: 11.052:  70%|███████   | 210/300 [04:26<01:50,  1.23s/it]Train NLL: 10.981, Val NLL: 11.048:  70%|███████   | 211/300 [04:27<01:48,  1.22s/it]Train NLL: 10.982, Val NLL: 11.055:  71%|███████   | 212/300 [04:28<01:49,  1.25s/it]Train NLL: 10.983, Val NLL: 11.055:  71%|███████   | 213/300 [04:30<01:51,  1.28s/it]Train NLL: 10.983, Val NLL: 11.054:  71%|███████▏  | 214/300 [04:31<01:47,  1.25s/it]Train NLL: 10.983, Val NLL: 11.050:  72%|███████▏  | 215/300 [04:32<01:45,  1.24s/it]Train NLL: 10.980, Val NLL: 11.052:  72%|███████▏  | 216/300 [04:33<01:42,  1.22s/it]Train NLL: 10.981, Val NLL: 11.050:  72%|███████▏  | 217/300 [04:35<01:42,  1.24s/it]Train NLL: 10.983, Val NLL: 11.054:  73%|███████▎  | 218/300 [04:36<01:42,  1.25s/it]Train NLL: 10.983, Val NLL: 11.054:  73%|███████▎  | 219/300 [04:37<01:42,  1.26s/it]Train NLL: 10.981, Val NLL: 11.054:  73%|███████▎  | 220/300 [04:38<01:39,  1.24s/it]Train NLL: 10.983, Val NLL: 11.049:  74%|███████▎  | 221/300 [04:40<01:37,  1.23s/it]Train NLL: 10.979, Val NLL: 11.051:  74%|███████▍  | 222/300 [04:41<01:39,  1.28s/it]Train NLL: 10.982, Val NLL: 11.056:  74%|███████▍  | 223/300 [04:42<01:38,  1.28s/it]Train NLL: 10.979, Val NLL: 11.049:  75%|███████▍  | 224/300 [04:43<01:34,  1.24s/it]Train NLL: 10.982, Val NLL: 11.054:  75%|███████▌  | 225/300 [04:45<01:31,  1.22s/it]Train NLL: 10.982, Val NLL: 11.051:  75%|███████▌  | 226/300 [04:46<01:29,  1.21s/it]Train NLL: 10.982, Val NLL: 11.056:  76%|███████▌  | 227/300 [04:47<01:27,  1.20s/it]Train NLL: 10.979, Val NLL: 11.057:  76%|███████▌  | 228/300 [04:48<01:25,  1.19s/it]Train NLL: 10.981, Val NLL: 11.052:  76%|███████▋  | 229/300 [04:49<01:24,  1.18s/it]Train NLL: 10.982, Val NLL: 11.055:  77%|███████▋  | 230/300 [04:50<01:23,  1.19s/it]Train NLL: 10.979, Val NLL: 11.050:  77%|███████▋  | 231/300 [04:52<01:21,  1.19s/it]Train NLL: 10.982, Val NLL: 11.055:  77%|███████▋  | 232/300 [04:53<01:23,  1.23s/it]Train NLL: 10.981, Val NLL: 11.048:  78%|███████▊  | 233/300 [04:54<01:24,  1.26s/it]Train NLL: 10.982, Val NLL: 11.047:  78%|███████▊  | 234/300 [04:55<01:21,  1.23s/it]Train NLL: 10.981, Val NLL: 11.050:  78%|███████▊  | 235/300 [04:57<01:19,  1.22s/it]Train NLL: 10.980, Val NLL: 11.056:  79%|███████▊  | 236/300 [04:58<01:17,  1.20s/it]Train NLL: 10.981, Val NLL: 11.051:  79%|███████▉  | 237/300 [04:59<01:15,  1.19s/it]Train NLL: 10.978, Val NLL: 11.054:  79%|███████▉  | 238/300 [05:00<01:13,  1.19s/it]Train NLL: 10.980, Val NLL: 11.052:  80%|███████▉  | 239/300 [05:02<01:19,  1.31s/it]Train NLL: 10.981, Val NLL: 11.048:  80%|████████  | 240/300 [05:03<01:21,  1.35s/it]Train NLL: 10.981, Val NLL: 11.045:  80%|████████  | 241/300 [05:04<01:18,  1.32s/it]Train NLL: 10.978, Val NLL: 11.050:  81%|████████  | 242/300 [05:06<01:14,  1.28s/it]Epoch   243: reducing learning rate of group 0 to 1.0000e-04.
Train NLL: 10.980, Val NLL: 11.061:  81%|████████  | 243/300 [05:07<01:11,  1.25s/it]Train NLL: 10.976, Val NLL: 11.051:  81%|████████▏ | 244/300 [05:08<01:09,  1.24s/it]Train NLL: 10.972, Val NLL: 11.049:  82%|████████▏ | 245/300 [05:09<01:09,  1.26s/it]Train NLL: 10.971, Val NLL: 11.048:  82%|████████▏ | 246/300 [05:11<01:08,  1.28s/it]Train NLL: 10.971, Val NLL: 11.048:  82%|████████▏ | 247/300 [05:12<01:06,  1.25s/it]Train NLL: 10.971, Val NLL: 11.047:  83%|████████▎ | 248/300 [05:13<01:03,  1.23s/it]Train NLL: 10.971, Val NLL: 11.047:  83%|████████▎ | 249/300 [05:14<01:01,  1.22s/it]Train NLL: 10.970, Val NLL: 11.047:  83%|████████▎ | 250/300 [05:15<01:00,  1.21s/it]Train NLL: 10.971, Val NLL: 11.046:  84%|████████▎ | 251/300 [05:17<00:58,  1.20s/it]Train NLL: 10.971, Val NLL: 11.047:  84%|████████▍ | 252/300 [05:18<00:59,  1.23s/it]Train NLL: 10.970, Val NLL: 11.047:  84%|████████▍ | 253/300 [05:19<00:59,  1.27s/it]Train NLL: 10.970, Val NLL: 11.046:  85%|████████▍ | 254/300 [05:20<00:57,  1.25s/it]Train NLL: 10.970, Val NLL: 11.046:  85%|████████▌ | 255/300 [05:22<00:55,  1.23s/it]Train NLL: 10.970, Val NLL: 11.046:  85%|████████▌ | 256/300 [05:23<00:54,  1.24s/it]Train NLL: 10.970, Val NLL: 11.047:  86%|████████▌ | 257/300 [05:24<00:54,  1.26s/it]Train NLL: 10.970, Val NLL: 11.047:  86%|████████▌ | 258/300 [05:25<00:52,  1.24s/it]Train NLL: 10.970, Val NLL: 11.046:  86%|████████▋ | 259/300 [05:27<00:50,  1.22s/it]Train NLL: 10.970, Val NLL: 11.047:  87%|████████▋ | 260/300 [05:28<00:48,  1.21s/it]Train NLL: 10.970, Val NLL: 11.047:  87%|████████▋ | 261/300 [05:29<00:46,  1.20s/it]Train NLL: 10.970, Val NLL: 11.047:  87%|████████▋ | 262/300 [05:30<00:46,  1.24s/it]Train NLL: 10.970, Val NLL: 11.047:  88%|████████▊ | 263/300 [05:32<00:46,  1.26s/it]Train NLL: 10.970, Val NLL: 11.046:  88%|████████▊ | 264/300 [05:33<00:44,  1.24s/it]Train NLL: 10.970, Val NLL: 11.046:  88%|████████▊ | 265/300 [05:34<00:42,  1.22s/it]Train NLL: 10.970, Val NLL: 11.046:  89%|████████▊ | 266/300 [05:35<00:41,  1.21s/it]Train NLL: 10.970, Val NLL: 11.046:  89%|████████▉ | 267/300 [05:36<00:39,  1.20s/it]Train NLL: 10.970, Val NLL: 11.047:  89%|████████▉ | 268/300 [05:37<00:38,  1.20s/it]Epoch   269: reducing learning rate of group 0 to 1.0000e-05.
Train NLL: 10.970, Val NLL: 11.047:  90%|████████▉ | 269/300 [05:39<00:37,  1.19s/it]Train NLL: 10.969, Val NLL: 11.047:  90%|█████████ | 270/300 [05:40<00:36,  1.21s/it]Train NLL: 10.969, Val NLL: 11.046:  90%|█████████ | 271/300 [05:41<00:35,  1.21s/it]Train NLL: 10.969, Val NLL: 11.046:  91%|█████████ | 272/300 [05:42<00:34,  1.24s/it]Train NLL: 10.969, Val NLL: 11.047:  91%|█████████ | 273/300 [05:44<00:34,  1.27s/it]Train NLL: 10.969, Val NLL: 11.046:  91%|█████████▏| 274/300 [05:45<00:32,  1.24s/it]Train NLL: 10.969, Val NLL: 11.046:  92%|█████████▏| 275/300 [05:46<00:30,  1.22s/it]Train NLL: 10.969, Val NLL: 11.046:  92%|█████████▏| 276/300 [05:47<00:29,  1.21s/it]Train NLL: 10.969, Val NLL: 11.046:  92%|█████████▏| 277/300 [05:49<00:27,  1.21s/it]Train NLL: 10.969, Val NLL: 11.046:  93%|█████████▎| 278/300 [05:50<00:26,  1.22s/it]Train NLL: 10.969, Val NLL: 11.046:  93%|█████████▎| 279/300 [05:51<00:26,  1.24s/it]Train NLL: 10.969, Val NLL: 11.046:  93%|█████████▎| 280/300 [05:53<00:28,  1.45s/it]Train NLL: 10.969, Val NLL: 11.047:  94%|█████████▎| 281/300 [05:54<00:27,  1.45s/it]Train NLL: 10.969, Val NLL: 11.046:  94%|█████████▍| 282/300 [05:56<00:24,  1.37s/it]Train NLL: 10.969, Val NLL: 11.046:  94%|█████████▍| 283/300 [05:57<00:22,  1.31s/it]Train NLL: 10.969, Val NLL: 11.046:  95%|█████████▍| 284/300 [05:58<00:20,  1.27s/it]Train NLL: 10.969, Val NLL: 11.046:  95%|█████████▌| 285/300 [05:59<00:18,  1.24s/it]Train NLL: 10.969, Val NLL: 11.046:  95%|█████████▌| 286/300 [06:00<00:17,  1.23s/it]Train NLL: 10.969, Val NLL: 11.046:  96%|█████████▌| 287/300 [06:02<00:16,  1.24s/it]Train NLL: 10.969, Val NLL: 11.046:  96%|█████████▌| 288/300 [06:03<00:15,  1.28s/it]Train NLL: 10.969, Val NLL: 11.046:  96%|█████████▋| 289/300 [06:04<00:13,  1.25s/it]Train NLL: 10.969, Val NLL: 11.046:  97%|█████████▋| 290/300 [06:05<00:12,  1.24s/it]Epoch   291: reducing learning rate of group 0 to 1.0000e-06.
Train NLL: 10.969, Val NLL: 11.046:  97%|█████████▋| 291/300 [06:07<00:11,  1.24s/it]Train NLL: 10.969, Val NLL: 11.046:  97%|█████████▋| 292/300 [06:08<00:10,  1.26s/it]Train NLL: 10.969, Val NLL: 11.046:  98%|█████████▊| 293/300 [06:09<00:08,  1.26s/it]Train NLL: 10.969, Val NLL: 11.046:  98%|█████████▊| 294/300 [06:10<00:07,  1.24s/it]Train NLL: 10.969, Val NLL: 11.046:  98%|█████████▊| 295/300 [06:12<00:06,  1.22s/it]Train NLL: 10.969, Val NLL: 11.046:  99%|█████████▊| 296/300 [06:13<00:04,  1.24s/it]Train NLL: 10.969, Val NLL: 11.046:  99%|█████████▉| 297/300 [06:14<00:03,  1.26s/it]Train NLL: 10.969, Val NLL: 11.046:  99%|█████████▉| 298/300 [06:15<00:02,  1.24s/it]Train NLL: 10.969, Val NLL: 11.046: 100%|█████████▉| 299/300 [06:17<00:01,  1.22s/it]Train NLL: 10.969, Val NLL: 11.046: 100%|██████████| 300/300 [06:18<00:00,  1.21s/it]Train NLL: 10.969, Val NLL: 11.046: 100%|██████████| 300/300 [06:18<00:00,  1.26s/it]
INFO - residual_nf - Completed after 0:06:18
